Comarca,Fecha, Temperatura media, Temperatura maxima, Temperatura minima, Precipitacion acumulada,Localidad
Tudela,01/01/2015,7.0,14.8,-0.5,0.0,Bardenas
Tudela,02/01/2015,2.5,11.3,-4.7,0.0,Bardenas
Tudela,03/01/2015,4.7,15.9,-2.9,0.0,Bardenas
Tudela,04/01/2015,8.6,14.9,2.2,0.0,Bardenas
Tudela,05/01/2015,2.5,4.7,-1.9,0.2,Bardenas
Tudela,06/01/2015,5.6,12.1,0.7,0.0,Bardenas
Tudela,07/01/2015,3.0,8.7,-0.9,0.2,Bardenas
Tudela,08/01/2015,3.7,6.8,1.2,0.0,Bardenas
Tudela,09/01/2015,5.4,15.8,-2.3,0.2,Bardenas
Tudela,10/01/2015,7.7,16.5,-0.3,0.0,Bardenas
Tudela,11/01/2015,7.5,12.8,-1.5,0.2,Bardenas
Tudela,12/01/2015,2.9,11.8,-4.1,0.0,Bardenas
Tudela,13/01/2015,3.7,8.8,-0.9,0.0,Bardenas
Tudela,14/01/2015,5.0,13.2,-0.7,0.2,Bardenas
Tudela,15/01/2015,8.5,12.8,2.9,1.4,Bardenas
Tudela,16/01/2015,6.9,10.7,4.0,1.0,Bardenas
Tudela,17/01/2015,4.1,9.9,-1.4,0.2,Bardenas
Tudela,18/01/2015,2.8,6.5,-0.7,0.4,Bardenas
Tudela,19/01/2015,3.9,8.1,0.3,1.0,Bardenas
Tudela,20/01/2015,1.4,5.5,-3.0,0.0,Bardenas
Tudela,21/01/2015,4.1,7.8,-1.0,0.8,Bardenas
Tudela,22/01/2015,4.6,7.8,2.5,0.4,Bardenas
Tudela,23/01/2015,5.1,9.4,1.8,0.2,Bardenas
Tudela,24/01/2015,5.9,10.5,2.1,0.0,Bardenas
Tudela,25/01/2015,5.2,9.0,2.8,0.4,Bardenas
Tudela,26/01/2015,6.1,9.5,2.7,0.0,Bardenas
Tudela,27/01/2015,8.0,12.1,5.0,0.0,Bardenas
Tudela,28/01/2015,8.2,11.8,4.5,0.0,Bardenas
Tudela,29/01/2015,8.6,13.7,0.6,0.0,Bardenas
Tudela,30/01/2015,8.1,13.5,5.2,23.2,Bardenas
Tudela,31/01/2015,5.1,7.7,2.7,2.1,Bardenas
Tudela,01/02/2015,3.1,6.0,0.4,4.5,Bardenas
Tudela,02/02/2015,5.2,8.7,2.3,0.0,Bardenas
Tudela,03/02/2015,4.1,7.8,0.3,0.0,Bardenas
Tudela,04/02/2015,1.1,3.8,-1.2,0.0,Bardenas
Tudela,05/02/2015,1.4,5.4,-0.7,0.0,Bardenas
Tudela,06/02/2015,-0.0,1.7,-2.0,0.0,Bardenas
Tudela,07/02/2015,1.3,5.2,-1.6,0.0,Bardenas
Tudela,08/02/2015,2.8,6.7,-1.7,0.0,Bardenas
Tudela,09/02/2015,3.0,9.2,-4.1,0.0,Bardenas
Tudela,10/02/2015,1.1,11.3,-6.0,0.0,Bardenas
Tudela,11/02/2015,2.2,9.4,-4.9,1.4,Bardenas
Tudela,12/02/2015,5.4,12.0,0.8,0.4,Bardenas
Tudela,13/02/2015,5.3,13.8,-1.5,0.0,Bardenas
Tudela,14/02/2015,6.5,9.8,2.6,8.1,Bardenas
Tudela,15/02/2015,8.3,12.8,5.4,2.6,Bardenas
Tudela,16/02/2015,8.2,11.9,5.4,0.0,Bardenas
Tudela,17/02/2015,7.2,10.7,5.0,0.0,Bardenas
Tudela,18/02/2015,5.5,10.1,-1.5,0.0,Bardenas
Tudela,19/02/2015,3.6,13.9,-3.5,0.0,Bardenas
Tudela,20/02/2015,5.7,12.8,-2.0,0.0,Bardenas
Tudela,21/02/2015,6.2,9.8,3.6,3.2,Bardenas
Tudela,22/02/2015,6.7,10.4,3.7,1.2,Bardenas
Tudela,23/02/2015,7.8,15.6,1.6,5.2,Bardenas
Tudela,24/02/2015,5.5,9.0,2.7,11.5,Bardenas
Tudela,25/02/2015,8.9,11.9,4.9,0.0,Bardenas
Tudela,26/02/2015,11.7,15.0,9.3,0.0,Bardenas
Tudela,27/02/2015,7.5,11.7,3.6,0.0,Bardenas
Tudela,28/02/2015,8.4,14.2,1.3,0.0,Bardenas
Tudela,01/03/2015,12.6,18.9,7.4,0.0,Bardenas
Tudela,02/03/2015,13.0,19.1,7.7,0.0,Bardenas
Tudela,03/03/2015,12.6,19.8,5.1,0.0,Bardenas
Tudela,04/03/2015,8.0,10.8,4.2,0.0,Bardenas
Tudela,05/03/2015,6.9,11.0,3.8,0.0,Bardenas
Tudela,06/03/2015,8.4,17.2,1.7,0.0,Bardenas
Tudela,07/03/2015,10.1,22.5,-2.0,0.0,Bardenas
Tudela,08/03/2015,12.7,20.9,1.6,0.0,Bardenas
Tudela,09/03/2015,13.8,22.6,4.4,0.0,Bardenas
Tudela,10/03/2015,11.3,22.2,1.6,0.0,Bardenas
Tudela,11/03/2015,11.6,23.0,1.9,0.0,Bardenas
Tudela,12/03/2015,11.9,22.8,1.9,0.0,Bardenas
Tudela,13/03/2015,9.0,13.9,4.5,0.0,Bardenas
Tudela,14/03/2015,6.4,10.3,3.2,0.0,Bardenas
Tudela,15/03/2015,6.2,10.7,3.2,0.0,Bardenas
Tudela,16/03/2015,7.5,13.2,3.1,0.0,Bardenas
Tudela,17/03/2015,8.7,16.0,0.7,0.0,Bardenas
Tudela,18/03/2015,8.9,12.6,4.9,0.0,Bardenas
Tudela,19/03/2015,10.6,17.2,5.0,0.0,Bardenas
Tudela,20/03/2015,7.9,15.2,2.2,0.0,Bardenas
Tudela,21/03/2015,7.8,11.6,5.3,0.0,Bardenas
Tudela,22/03/2015,7.7,10.4,4.5,0.0,Bardenas
Tudela,23/03/2015,5.1,9.4,2.6,25.8,Bardenas
Tudela,24/03/2015,8.0,10.3,5.1,3.1,Bardenas
Tudela,25/03/2015,5.7,10.0,2.1,0.0,Bardenas
Tudela,26/03/2015,9.0,13.7,3.9,0.0,Bardenas
Tudela,27/03/2015,12.8,17.8,7.9,0.0,Bardenas
Tudela,28/03/2015,13.9,19.3,6.8,0.0,Bardenas
Tudela,29/03/2015,12.3,20.3,4.3,0.0,Bardenas
Tudela,30/03/2015,13.2,19.3,5.7,0.0,Bardenas
Tudela,31/03/2015,12.9,19.7,4.7,0.0,Bardenas
Tudela,01/04/2015,11.2,14.7,7.2,0.0,Bardenas
Tudela,02/04/2015,12.7,21.2,5.3,0.0,Bardenas
Tudela,03/04/2015,13.0,22.1,5.5,0.0,Bardenas
Tudela,04/04/2015,10.8,15.8,5.1,0.0,Bardenas
Tudela,05/04/2015,11.4,16.3,5.0,0.0,Bardenas
Tudela,06/04/2015,10.7,19.2,1.1,0.0,Bardenas
Tudela,07/04/2015,12.1,18.8,3.2,0.0,Bardenas
Tudela,08/04/2015,11.2,18.4,3.6,0.0,Bardenas
Tudela,09/04/2015,11.1,17.8,5.3,0.0,Bardenas
Tudela,10/04/2015,13.1,19.4,7.6,0.0,Bardenas
Tudela,11/04/2015,12.9,21.5,4.0,0.0,Bardenas
Tudela,12/04/2015,13.5,22.5,3.8,0.0,Bardenas
Tudela,13/04/2015,14.5,24.0,4.2,0.0,Bardenas
Tudela,14/04/2015,16.8,26.3,4.9,0.0,Bardenas
Tudela,15/04/2015,12.8,17.7,6.7,0.0,Bardenas
Tudela,16/04/2015,13.1,19.8,7.0,5.2,Bardenas
Tudela,17/04/2015,14.1,20.4,7.3,0.0,Bardenas
Tudela,18/04/2015,13.9,21.6,9.6,11.9,Bardenas
Tudela,19/04/2015,11.7,17.6,5.3,0.0,Bardenas
Tudela,20/04/2015,12.2,21.7,2.2,0.0,Bardenas
Tudela,21/04/2015,14.6,23.1,4.4,0.0,Bardenas
Tudela,22/04/2015,13.9,20.5,7.5,3.4,Bardenas
Tudela,23/04/2015,13.5,22.0,5.2,0.0,Bardenas
Tudela,24/04/2015,15.0,23.5,4.8,3.4,Bardenas
Tudela,25/04/2015,16.3,21.9,9.0,0.0,Bardenas
Tudela,26/04/2015,13.5,18.0,10.0,15.6,Bardenas
Tudela,27/04/2015,12.7,17.9,9.2,0.0,Bardenas
Tudela,28/04/2015,11.4,16.3,5.6,0.0,Bardenas
Tudela,29/04/2015,13.0,19.6,7.4,0.0,Bardenas
Tudela,30/04/2015,14.5,23.7,4.4,0.0,Bardenas
Tudela,01/05/2015,17.1,21.9,12.6,0.0,Bardenas
Tudela,02/05/2015,19.1,25.8,11.9,0.0,Bardenas
Tudela,03/05/2015,19.2,22.7,16.5,4.2,Bardenas
Tudela,04/05/2015,20.4,26.5,15.2,0.0,Bardenas
Tudela,05/05/2015,18.0,24.1,10.1,0.0,Bardenas
Tudela,06/05/2015,14.9,22.6,7.4,0.0,Bardenas
Tudela,07/05/2015,17.2,26.7,6.2,0.0,Bardenas
Tudela,08/05/2015,19.0,25.7,12.0,0.0,Bardenas
Tudela,09/05/2015,17.7,26.3,8.8,0.0,Bardenas
Tudela,10/05/2015,20.8,30.8,10.2,0.0,Bardenas
Tudela,11/05/2015,22.6,31.6,11.7,0.0,Bardenas
Tudela,12/05/2015,22.9,32.9,11.4,0.0,Bardenas
Tudela,13/05/2015,24.0,33.4,16.1,0.0,Bardenas
Tudela,14/05/2015,17.7,26.2,10.8,0.0,Bardenas
Tudela,15/05/2015,12.7,17.2,9.1,0.0,Bardenas
Tudela,16/05/2015,14.4,18.2,11.5,0.0,Bardenas
Tudela,17/05/2015,16.9,22.4,10.2,0.0,Bardenas
Tudela,18/05/2015,16.2,28.1,5.1,0.0,Bardenas
Tudela,19/05/2015,12.8,16.5,8.9,0.0,Bardenas
Tudela,20/05/2015,12.2,16.9,8.7,0.0,Bardenas
Tudela,21/05/2015,12.2,17.3,7.0,0.0,Bardenas
Tudela,22/05/2015,13.1,19.5,6.7,0.0,Bardenas
Tudela,23/05/2015,14.2,19.6,9.6,0.0,Bardenas
Tudela,24/05/2015,16.8,23.6,10.1,0.0,Bardenas
Tudela,25/05/2015,16.4,21.1,12.4,0.0,Bardenas
Tudela,26/05/2015,14.8,20.4,9.9,0.0,Bardenas
Tudela,27/05/2015,17.4,23.9,11.8,0.0,Bardenas
Tudela,28/05/2015,18.0,28.1,5.9,0.0,Bardenas
Tudela,29/05/2015,17.1,25.3,10.7,0.0,Bardenas
Tudela,30/05/2015,17.7,27.0,8.1,0.0,Bardenas
Tudela,31/05/2015,20.1,29.4,10.8,0.0,Bardenas
Tudela,01/06/2015,20.9,30.0,13.2,0.0,Bardenas
Tudela,02/06/2015,22.4,31.6,12.0,0.0,Bardenas
Tudela,03/06/2015,25.6,33.6,16.9,0.0,Bardenas
Tudela,04/06/2015,25.5,33.4,17.3,0.0,Bardenas
Tudela,05/06/2015,24.5,33.2,14.9,0.0,Bardenas
Tudela,06/06/2015,22.6,32.7,14.4,0.0,Bardenas
Tudela,07/06/2015,23.4,33.3,13.7,0.0,Bardenas
Tudela,08/06/2015,22.4,31.7,15.6,0.2,Bardenas
Tudela,09/06/2015,20.6,28.2,15.9,0.4,Bardenas
Tudela,10/06/2015,15.5,22.3,12.8,6.9,Bardenas
Tudela,11/06/2015,16.9,20.6,12.9,23.2,Bardenas
Tudela,12/06/2015,18.2,26.6,11.2,0.0,Bardenas
Tudela,13/06/2015,17.0,24.8,12.5,6.7,Bardenas
Tudela,14/06/2015,17.3,24.9,11.0,1.4,Bardenas
Tudela,15/06/2015,17.5,25.2,11.2,0.0,Bardenas
Tudela,16/06/2015,16.8,21.7,13.8,0.0,Bardenas
Tudela,17/06/2015,17.7,23.3,12.5,0.0,Bardenas
Tudela,18/06/2015,19.0,25.6,12.9,0.0,Bardenas
Tudela,19/06/2015,18.0,24.3,12.4,0.0,Bardenas
Tudela,20/06/2015,19.9,28.3,12.5,0.0,Bardenas
Tudela,21/06/2015,22.1,31.1,12.5,0.0,Bardenas
Tudela,22/06/2015,23.6,33.5,14.1,1.0,Bardenas
Tudela,23/06/2015,20.4,27.4,15.0,0.0,Bardenas
Tudela,24/06/2015,20.6,28.8,12.0,0.0,Bardenas
Tudela,25/06/2015,23.9,31.9,14.2,0.0,Bardenas
Tudela,26/06/2015,26.3,34.6,16.3,0.0,Bardenas
Tudela,27/06/2015,24.2,32.7,16.2,0.0,Bardenas
Tudela,28/06/2015,25.4,35.7,15.5,0.0,Bardenas
Tudela,29/06/2015,26.7,36.7,15.2,0.0,Bardenas
Tudela,30/06/2015,29.7,38.3,21.4,0.0,Bardenas
Tudela,01/07/2015,29.7,37.5,23.2,0.0,Bardenas
Tudela,02/07/2015,30.5,35.1,23.1,0.0,Bardenas
Tudela,03/07/2015,28.4,36.7,19.8,0.0,Bardenas
Tudela,04/07/2015,29.5,37.2,19.1,0.0,Bardenas
Tudela,05/07/2015,26.4,36.4,18.1,0.0,Bardenas
Tudela,06/07/2015,27.9,38.5,16.0,0.0,Bardenas
Tudela,07/07/2015,28.2,38.8,19.6,0.0,Bardenas
Tudela,08/07/2015,21.2,25.8,16.2,0.0,Bardenas
Tudela,09/07/2015,21.5,29.5,14.7,0.0,Bardenas
Tudela,10/07/2015,24.5,37.3,11.1,0.0,Bardenas
Tudela,11/07/2015,22.4,29.3,17.4,0.0,Bardenas
Tudela,12/07/2015,23.2,33.1,15.5,0.0,Bardenas
Tudela,13/07/2015,23.9,35.0,13.8,0.0,Bardenas
Tudela,14/07/2015,25.8,37.5,15.8,0.0,Bardenas
Tudela,15/07/2015,27.6,37.9,16.0,0.0,Bardenas
Tudela,16/07/2015,26.3,37.6,18.3,0.0,Bardenas
Tudela,17/07/2015,24.3,36.2,15.5,1.4,Bardenas
Tudela,18/07/2015,24.7,34.6,17.8,2.4,Bardenas
Tudela,19/07/2015,25.4,34.1,16.2,0.0,Bardenas
Tudela,20/07/2015,28.2,37.0,18.6,0.0,Bardenas
Tudela,21/07/2015,26.6,37.5,19.2,17.8,Bardenas
Tudela,22/07/2015,23.1,30.4,17.8,0.4,Bardenas
Tudela,23/07/2015,24.3,33.4,16.5,0.0,Bardenas
Tudela,24/07/2015,24.7,34.4,17.2,0.0,Bardenas
Tudela,25/07/2015,20.2,25.3,13.9,0.0,Bardenas
Tudela,26/07/2015,22.1,33.5,9.7,0.0,Bardenas
Tudela,27/07/2015,22.6,28.4,18.6,0.0,Bardenas
Tudela,28/07/2015,23.5,32.5,14.6,0.0,Bardenas
Tudela,29/07/2015,23.0,31.8,15.1,0.0,Bardenas
Tudela,30/07/2015,17.5,22.4,14.2,0.2,Bardenas
Tudela,31/07/2015,17.7,22.0,15.1,1.8,Bardenas
Tudela,01/08/2015,19.4,25.5,13.2,0.2,Bardenas
Tudela,02/08/2015,23.5,33.3,11.4,0.0,Bardenas
Tudela,03/08/2015,26.0,34.7,18.5,2.8,Bardenas
Tudela,04/08/2015,23.6,30.4,18.0,0.2,Bardenas
Tudela,05/08/2015,25.7,35.3,15.5,0.0,Bardenas
Tudela,06/08/2015,26.3,36.5,14.0,0.0,Bardenas
Tudela,07/08/2015,24.3,30.8,19.2,0.0,Bardenas
Tudela,08/08/2015,18.3,22.3,11.9,1.4,Bardenas
Tudela,09/08/2015,19.0,25.9,10.5,0.0,Bardenas
Tudela,10/08/2015,23.1,34.1,12.1,0.0,Bardenas
Tudela,11/08/2015,25.9,35.0,14.1,0.0,Bardenas
Tudela,12/08/2015,27.6,35.2,21.1,0.0,Bardenas
Tudela,13/08/2015,22.8,29.1,17.5,0.8,Bardenas
Tudela,14/08/2015,18.9,23.7,14.0,0.0,Bardenas
Tudela,15/08/2015,19.2,25.4,14.0,0.0,Bardenas
Tudela,16/08/2015,20.3,29.5,8.4,0.0,Bardenas
Tudela,17/08/2015,21.2,27.6,17.0,0.0,Bardenas
Tudela,18/08/2015,20.2,27.4,13.9,0.0,Bardenas
Tudela,19/08/2015,20.4,30.1,9.9,0.0,Bardenas
Tudela,20/08/2015,21.9,33.7,10.0,0.0,Bardenas
Tudela,21/08/2015,24.7,34.9,13.0,0.0,Bardenas
Tudela,22/08/2015,25.0,32.2,19.4,2.4,Bardenas
Tudela,23/08/2015,23.4,29.5,17.5,0.2,Bardenas
Tudela,24/08/2015,20.3,26.8,11.5,0.0,Bardenas
Tudela,25/08/2015,19.3,29.8,8.4,0.0,Bardenas
Tudela,26/08/2015,25.5,33.6,17.5,0.0,Bardenas
Tudela,27/08/2015,26.1,36.2,19.4,0.0,Bardenas
Tudela,28/08/2015,27.2,35.3,18.2,0.0,Bardenas
Tudela,29/08/2015,27.7,35.6,20.4,0.0,Bardenas
Tudela,30/08/2015,26.1,34.0,19.6,3.6,Bardenas
Tudela,31/08/2015,21.7,31.8,17.4,0.4,Bardenas
Tudela,01/09/2015,19.7,25.9,14.3,1.8,Bardenas
Tudela,02/09/2015,17.9,24.2,12.3,4.6,Bardenas
Tudela,03/09/2015,17.6,23.5,13.4,1.6,Bardenas
Tudela,04/09/2015,16.7,22.7,11.6,0.2,Bardenas
Tudela,05/09/2015,15.8,23.3,8.8,0.0,Bardenas
Tudela,06/09/2015,16.2,25.3,5.9,0.0,Bardenas
Tudela,07/09/2015,16.2,24.6,8.2,0.0,Bardenas
Tudela,08/09/2015,16.2,24.6,8.2,0.0,Bardenas
Tudela,09/09/2015,19.4,25.9,10.9,0.0,Bardenas
Tudela,10/09/2015,20.4,25.9,16.3,0.6,Bardenas
Tudela,11/09/2015,20.9,26.7,16.3,0.0,Bardenas
Tudela,12/09/2015,21.4,24.9,18.6,0.0,Bardenas
Tudela,13/09/2015,19.5,24.0,13.7,0.0,Bardenas
Tudela,14/09/2015,17.4,23.5,12.5,0.0,Bardenas
Tudela,15/09/2015,15.9,19.2,14.0,14.2,Bardenas
Tudela,16/09/2015,19.9,27.1,14.7,2.8,Bardenas
Tudela,17/09/2015,14.5,19.2,9.8,1.8,Bardenas
Tudela,18/09/2015,14.0,21.6,6.8,0.2,Bardenas
Tudela,19/09/2015,15.1,22.9,8.7,0.0,Bardenas
Tudela,20/09/2015,16.1,25.7,8.8,0.0,Bardenas
Tudela,21/09/2015,17.1,26.7,7.4,0.0,Bardenas
Tudela,22/09/2015,15.5,21.5,9.1,0.0,Bardenas
Tudela,23/09/2015,14.3,18.6,10.0,0.0,Bardenas
Tudela,24/09/2015,16.5,24.2,10.3,0.0,Bardenas
Tudela,25/09/2015,18.2,28.5,10.7,0.0,Bardenas
Tudela,26/09/2015,17.3,27.3,11.1,0.0,Bardenas
Tudela,27/09/2015,15.9,23.9,10.0,0.0,Bardenas
Tudela,28/09/2015,15.8,23.4,8.2,0.0,Bardenas
Tudela,29/09/2015,16.5,23.9,8.9,1.4,Bardenas
Tudela,30/09/2015,16.6,22.8,11.9,0.0,Bardenas
Tudela,01/10/2015,16.3,25.2,7.8,0.0,Bardenas
Tudela,02/10/2015,13.9,19.3,9.7,0.2,Bardenas
Tudela,03/10/2015,13.6,20.9,7.3,0.0,Bardenas
Tudela,04/10/2015,14.0,17.1,10.4,3.9,Bardenas
Tudela,05/10/2015,20.6,25.2,15.2,0.8,Bardenas
Tudela,06/10/2015,19.8,25.8,13.7,0.0,Bardenas
Tudela,07/10/2015,15.0,20.8,9.9,0.0,Bardenas
Tudela,08/10/2015,14.5,21.6,8.4,0.0,Bardenas
Tudela,09/10/2015,12.4,23.2,3.3,0.0,Bardenas
Tudela,10/10/2015,14.3,24.9,3.5,0.0,Bardenas
Tudela,11/10/2015,15.3,19.0,9.0,0.4,Bardenas
Tudela,12/10/2015,15.1,24.3,6.9,0.4,Bardenas
Tudela,13/10/2015,13.4,18.1,10.9,0.6,Bardenas
Tudela,14/10/2015,11.1,16.4,7.2,0.0,Bardenas
Tudela,15/10/2015,10.6,17.8,3.9,0.0,Bardenas
Tudela,16/10/2015,8.4,19.0,-0.9,0.0,Bardenas
Tudela,17/10/2015,11.7,20.8,0.9,3.4,Bardenas
Tudela,18/10/2015,16.4,22.1,13.7,0.2,Bardenas
Tudela,19/10/2015,16.1,17.6,14.8,4.8,Bardenas
Tudela,20/10/2015,13.8,16.3,11.3,2.0,Bardenas
Tudela,21/10/2015,12.0,15.8,8.4,0.0,Bardenas
Tudela,22/10/2015,13.2,17.8,9.4,0.0,Bardenas
Tudela,23/10/2015,13.2,21.2,5.1,0.0,Bardenas
Tudela,24/10/2015,15.3,20.0,11.0,0.0,Bardenas
Tudela,25/10/2015,16.0,22.1,11.5,0.0,Bardenas
Tudela,26/10/2015,16.5,21.8,12.5,0.0,Bardenas
Tudela,27/10/2015,15.1,22.7,9.1,0.0,Bardenas
Tudela,28/10/2015,13.3,18.6,10.0,0.4,Bardenas
Tudela,29/10/2015,14.2,21.6,7.9,0.0,Bardenas
Tudela,30/10/2015,15.9,23.5,9.5,0.0,Bardenas
Tudela,31/10/2015,15.4,20.6,10.7,0.0,Bardenas
Tudela,01/11/2015,13.9,18.5,7.9,0.0,Bardenas
Tudela,02/11/2015,13.4,15.9,10.7,33.2,Bardenas
Tudela,03/11/2015,12.4,15.5,9.4,2.0,Bardenas
Tudela,04/11/2015,13.7,19.0,9.7,0.4,Bardenas
Tudela,05/11/2015,12.4,16.6,9.1,0.0,Bardenas
Tudela,06/11/2015,13.9,22.6,8.2,0.4,Bardenas
Tudela,07/11/2015,12.8,20.0,8.7,0.2,Bardenas
Tudela,08/11/2015,13.5,19.0,9.0,0.2,Bardenas
Tudela,09/11/2015,15.4,22.3,9.9,0.4,Bardenas
Tudela,10/11/2015,12.6,14.9,8.7,0.0,Bardenas
Tudela,11/11/2015,11.4,12.2,10.2,0.4,Bardenas
Tudela,12/11/2015,10.2,11.0,9.3,0.2,Bardenas
Tudela,13/11/2015,12.5,18.9,7.5,0.0,Bardenas
Tudela,14/11/2015,11.5,17.6,6.3,0.0,Bardenas
Tudela,15/11/2015,8.1,9.6,5.7,0.4,Bardenas
Tudela,16/11/2015,8.0,15.4,2.5,0.2,Bardenas
Tudela,17/11/2015,8.7,17.3,0.6,0.2,Bardenas
Tudela,18/11/2015,11.7,20.4,5.7,0.0,Bardenas
Tudela,19/11/2015,12.3,20.3,6.0,0.0,Bardenas
Tudela,20/11/2015,10.4,17.6,3.8,0.2,Bardenas
Tudela,21/11/2015,8.5,12.3,4.9,8.0,Bardenas
Tudela,22/11/2015,5.8,9.8,3.5,1.6,Bardenas
Tudela,23/11/2015,4.8,9.6,1.8,0.2,Bardenas
Tudela,24/11/2015,4.8,9.6,1.8,0.2,Bardenas
Tudela,25/11/2015,12.3,15.5,9.7,0.0,Bardenas
Tudela,26/11/2015,12.3,15.0,9.8,0.0,Bardenas
Tudela,27/11/2015,10.6,13.8,8.8,0.0,Bardenas
Tudela,28/11/2015,9.7,13.7,2.8,0.2,Bardenas
Tudela,29/11/2015,5.9,14.1,0.0,0.0,Bardenas
Tudela,30/11/2015,3.0,13.7,-2.8,0.2,Bardenas
Tudela,01/12/2015,1.3,12.3,-3.7,0.0,Bardenas
Tudela,02/12/2015,3.1,13.2,-3.2,0.2,Bardenas
Tudela,03/12/2015,3.3,12.2,-3.0,0.0,Bardenas
Tudela,04/12/2015,5.9,17.2,-2.4,0.2,Bardenas
Tudela,05/12/2015,6.0,14.6,0.7,0.0,Bardenas
Tudela,06/12/2015,8.0,12.8,2.4,0.0,Bardenas
Tudela,07/12/2015,10.1,13.2,7.9,0.0,Bardenas
Tudela,08/12/2015,9.3,12.2,5.2,0.0,Bardenas
Tudela,09/12/2015,9.4,16.2,3.6,0.0,Bardenas
Tudela,10/12/2015,6.2,7.0,5.2,0.6,Bardenas
Tudela,11/12/2015,6.1,6.5,5.6,0.6,Bardenas
Tudela,12/12/2015,5.5,6.2,4.8,0.2,Bardenas
Tudela,13/12/2015,5.5,6.3,4.6,0.0,Bardenas
Tudela,14/12/2015,5.2,6.9,3.7,0.0,Bardenas
Tudela,15/12/2015,4.9,9.9,1.0,0.2,Bardenas
Tudela,16/12/2015,5.5,14.5,1.4,0.0,Bardenas
Tudela,17/12/2015,4.6,10.8,0.9,0.4,Bardenas
Tudela,18/12/2015,5.9,11.7,1.4,0.0,Bardenas
Tudela,19/12/2015,5.4,9.6,1.3,0.2,Bardenas
Tudela,20/12/2015,8.8,10.8,5.6,0.0,Bardenas
Tudela,21/12/2015,8.0,14.5,0.5,0.2,Bardenas
Tudela,22/12/2015,4.7,6.8,-0.6,0.0,Bardenas
Tudela,23/12/2015,4.8,5.7,3.6,0.0,Bardenas
Tudela,24/12/2015,6.6,7.8,5.3,0.2,Bardenas
Tudela,25/12/2015,6.0,7.3,5.0,0.2,Bardenas
Tudela,26/12/2015,4.3,5.3,3.5,0.0,Bardenas
Tudela,27/12/2015,3.7,5.7,2.7,0.2,Bardenas
Tudela,28/12/2015,9.3,14.1,5.1,0.2,Bardenas
Tudela,29/12/2015,8.1,14.1,2.4,0.0,Bardenas
Tudela,30/12/2015,5.9,13.1,-1.3,0.0,Bardenas
Tudela,31/12/2015,8.0,11.4,1.9,1.0,Bardenas
