Comarca,Fecha, Temperatura media, Temperatura maxima, Temperatura minima, Precipitacion acumulada,Localidad
Tudela,01/01/2019,0.0,17.0,-3.0,0.0,Cabanillas
Tudela,02/01/2019,0.0,11.0,3.0,0.0,Cabanillas
Tudela,03/01/2019,0.0,8.0,-3.0,0.0,Cabanillas
Tudela,04/01/2019,0.0,4.0,-5.0,0.0,Cabanillas
Tudela,05/01/2019,0.0,15.0,-6.0,0.0,Cabanillas
Tudela,06/01/2019,0.0,14.0,4.0,0.0,Cabanillas
Tudela,07/01/2019,0.0,6.0,3.0,0.0,Cabanillas
Tudela,08/01/2019,0.0,10.0,3.0,0.0,Cabanillas
Tudela,09/01/2019,0.0,13.0,4.0,0.0,Cabanillas
Tudela,10/01/2019,0.0,7.0,3.0,0.0,Cabanillas
Tudela,11/01/2019,0.0,7.0,1.0,0.0,Cabanillas
Tudela,12/01/2019,0.0,10.0,2.0,0.0,Cabanillas
Tudela,13/01/2019,0.0,12.0,8.0,0.0,Cabanillas
Tudela,14/01/2019,0.0,13.0,7.0,0.0,Cabanillas
Tudela,15/01/2019,0.0,13.0,2.0,0.0,Cabanillas
Tudela,16/01/2019,0.0,5.0,-2.0,0.0,Cabanillas
Tudela,17/01/2019,0.0,11.0,0.0,0.0,Cabanillas
Tudela,18/01/2019,0.0,9.0,0.0,0.7,Cabanillas
Tudela,19/01/2019,0.0,10.0,-2.0,4.8,Cabanillas
Tudela,20/01/2019,0.0,11.0,2.0,0.0,Cabanillas
Tudela,21/01/2019,0.0,8.0,4.0,0.0,Cabanillas
Tudela,22/01/2019,0.0,11.0,1.0,0.5,Cabanillas
Tudela,23/01/2019,0.0,11.0,1.0,4.7,Cabanillas
Tudela,24/01/2019,0.0,11.0,4.0,0.0,Cabanillas
Tudela,25/01/2019,0.0,13.0,5.0,0.0,Cabanillas
Tudela,26/01/2019,0.0,14.0,8.0,0.0,Cabanillas
Tudela,27/01/2019,0.0,13.0,2.0,0.0,Cabanillas
Tudela,28/01/2019,0.0,12.0,3.0,0.0,Cabanillas
Tudela,29/01/2019,0.0,13.0,5.0,4.5,Cabanillas
Tudela,30/01/2019,0.0,11.0,3.0,5.0,Cabanillas
Tudela,31/01/2019,0.0,16.0,4.0,0.5,Cabanillas
Tudela,01/02/2019,0.0,14.0,5.0,1.8,Cabanillas
Tudela,02/02/2019,0.0,8.0,4.0,3.0,Cabanillas
Tudela,03/02/2019,0.0,7.0,1.0,0.0,Cabanillas
Tudela,04/02/2019,0.0,13.0,2.0,0.0,Cabanillas
Tudela,05/02/2019,0.0,16.0,1.0,0.0,Cabanillas
Tudela,06/02/2019,0.0,16.0,4.0,0.0,Cabanillas
Tudela,07/02/2019,0.0,15.0,2.0,0.0,Cabanillas
Tudela,08/02/2019,0.0,14.0,0.0,0.0,Cabanillas
Tudela,09/02/2019,0.0,15.0,1.0,0.0,Cabanillas
Tudela,10/02/2019,0.0,17.0,7.0,0.0,Cabanillas
Tudela,11/02/2019,0.0,12.0,6.0,0.0,Cabanillas
Tudela,12/02/2019,0.0,13.0,2.0,0.0,Cabanillas
Tudela,13/02/2019,0.0,14.0,-2.0,0.0,Cabanillas
Tudela,14/02/2019,0.0,13.0,0.0,0.0,Cabanillas
Tudela,15/02/2019,0.0,12.0,-2.0,0.0,Cabanillas
Tudela,16/02/2019,0.0,15.0,-2.0,0.0,Cabanillas
Tudela,17/02/2019,0.0,16.0,-1.0,0.0,Cabanillas
Tudela,18/02/2019,0.0,14.0,2.0,0.0,Cabanillas
Tudela,19/02/2019,0.0,12.0,0.0,0.0,Cabanillas
Tudela,20/02/2019,0.0,14.0,1.0,0.0,Cabanillas
Tudela,21/02/2019,0.0,17.0,-2.0,0.0,Cabanillas
Tudela,22/02/2019,0.0,20.0,0.0,0.0,Cabanillas
Tudela,23/02/2019,0.0,23.0,2.0,0.0,Cabanillas
Tudela,24/02/2019,0.0,17.0,2.0,0.0,Cabanillas
Tudela,25/02/2019,0.0,17.0,1.0,0.0,Cabanillas
Tudela,26/02/2019,0.0,21.0,1.0,0.0,Cabanillas
Tudela,27/02/2019,0.0,21.0,0.0,0.0,Cabanillas
Tudela,28/02/2019,0.0,18.0,6.0,0.0,Cabanillas
Tudela,01/03/2019,0.0,18.0,3.0,0.0,Cabanillas
Tudela,02/03/2019,0.0,20.0,8.0,0.0,Cabanillas
Tudela,03/03/2019,0.0,21.0,2.0,0.0,Cabanillas
Tudela,04/03/2019,0.0,16.0,11.0,0.0,Cabanillas
Tudela,05/03/2019,0.0,19.0,4.0,0.0,Cabanillas
Tudela,06/03/2019,0.0,19.0,10.0,1.6,Cabanillas
Tudela,07/03/2019,0.0,16.0,5.0,0.3,Cabanillas
Tudela,08/03/2019,0.0,16.0,7.0,0.0,Cabanillas
Tudela,09/03/2019,0.0,19.0,3.0,0.0,Cabanillas
Tudela,10/03/2019,0.0,19.0,3.0,0.0,Cabanillas
Tudela,11/03/2019,0.0,16.0,6.0,0.0,Cabanillas
Tudela,12/03/2019,0.0,18.0,0.0,0.0,Cabanillas
Tudela,13/03/2019,0.0,13.0,6.0,0.0,Cabanillas
Tudela,14/03/2019,0.0,15.0,8.0,0.0,Cabanillas
Tudela,15/03/2019,0.0,18.0,5.0,0.0,Cabanillas
Tudela,16/03/2019,0.0,23.0,1.0,0.0,Cabanillas
Tudela,17/03/2019,0.0,17.0,4.0,0.0,Cabanillas
Tudela,18/03/2019,0.0,15.0,4.0,0.0,Cabanillas
Tudela,19/03/2019,0.0,14.0,4.0,0.0,Cabanillas
Tudela,20/03/2019,0.0,16.0,6.0,0.0,Cabanillas
Tudela,21/03/2019,0.0,17.0,1.0,0.0,Cabanillas
Tudela,22/03/2019,0.0,19.0,0.0,0.0,Cabanillas
Tudela,23/03/2019,0.0,22.0,3.0,0.0,Cabanillas
Tudela,24/03/2019,0.0,24.0,4.0,0.0,Cabanillas
Tudela,25/03/2019,0.0,17.0,8.0,0.0,Cabanillas
Tudela,26/03/2019,0.0,20.0,8.0,0.0,Cabanillas
Tudela,27/03/2019,0.0,20.0,3.0,0.0,Cabanillas
Tudela,28/03/2019,0.0,20.0,6.0,0.0,Cabanillas
Tudela,29/03/2019,0.0,20.0,2.0,0.0,Cabanillas
Tudela,30/03/2019,0.0,19.0,3.0,0.0,Cabanillas
Tudela,31/03/2019,0.0,14.0,3.0,6.5,Cabanillas
Tudela,01/04/2019,0.0,16.0,6.0,1.7,Cabanillas
Tudela,02/04/2019,0.0,19.0,8.0,0.0,Cabanillas
Tudela,03/04/2019,0.0,10.0,9.0,3.0,Cabanillas
Tudela,04/04/2019,0.0,14.0,-2.0,0.0,Cabanillas
Tudela,05/04/2019,0.0,13.0,6.0,4.4,Cabanillas
Tudela,06/04/2019,0.0,14.0,3.0,1.5,Cabanillas
Tudela,07/04/2019,0.0,17.0,4.0,2.3,Cabanillas
Tudela,08/04/2019,0.0,17.0,6.0,0.0,Cabanillas
Tudela,09/04/2019,0.0,17.0,5.0,3.5,Cabanillas
Tudela,10/04/2019,0.0,17.0,5.0,0.0,Cabanillas
Tudela,11/04/2019,0.0,15.0,6.0,0.0,Cabanillas
Tudela,12/04/2019,0.0,17.0,8.0,0.0,Cabanillas
Tudela,13/04/2019,0.0,23.0,7.0,0.0,Cabanillas
Tudela,14/04/2019,0.0,25.0,8.0,0.0,Cabanillas
Tudela,15/04/2019,0.0,23.0,8.0,9.9,Cabanillas
Tudela,16/04/2019,0.0,20.0,9.0,0.0,Cabanillas
Tudela,17/04/2019,0.0,21.0,10.0,0.0,Cabanillas
Tudela,18/04/2019,0.0,19.0,11.0,8.1,Cabanillas
Tudela,19/04/2019,0.0,19.0,11.0,0.0,Cabanillas
Tudela,20/04/2019,0.0,22.0,8.0,0.0,Cabanillas
Tudela,21/04/2019,0.0,15.0,9.0,0.0,Cabanillas
Tudela,22/04/2019,0.0,19.0,8.0,0.0,Cabanillas
Tudela,23/04/2019,0.0,17.0,9.0,0.0,Cabanillas
Tudela,24/04/2019,0.0,16.0,9.0,8.9,Cabanillas
Tudela,25/04/2019,0.0,17.0,9.0,0.1,Cabanillas
Tudela,26/04/2019,0.0,19.0,7.0,0.0,Cabanillas
Tudela,27/04/2019,0.0,20.0,6.0,0.0,Cabanillas
Tudela,28/04/2019,0.0,22.0,8.0,0.0,Cabanillas
Tudela,29/04/2019,0.0,24.0,8.0,0.0,Cabanillas
Tudela,30/04/2019,0.0,24.0,8.0,0.0,Cabanillas
Tudela,01/05/2019,0.0,25.0,7.0,0.0,Cabanillas
Tudela,02/05/2019,0.0,20.0,12.0,0.0,Cabanillas
Tudela,03/05/2019,0.0,16.0,8.0,0.8,Cabanillas
Tudela,04/05/2019,0.0,18.0,7.0,0.0,Cabanillas
Tudela,05/05/2019,0.0,17.0,6.0,0.0,Cabanillas
Tudela,06/05/2019,0.0,23.0,4.0,0.0,Cabanillas
Tudela,07/05/2019,0.0,25.0,10.0,0.0,Cabanillas
Tudela,08/05/2019,0.0,25.0,12.0,0.0,Cabanillas
Tudela,09/05/2019,0.0,23.0,8.0,0.0,Cabanillas
Tudela,10/05/2019,0.0,28.0,13.0,0.4,Cabanillas
Tudela,11/05/2019,0.0,21.0,14.0,0.0,Cabanillas
Tudela,12/05/2019,0.0,22.0,8.0,0.0,Cabanillas
Tudela,13/05/2019,0.0,23.0,11.0,0.0,Cabanillas
Tudela,14/05/2019,0.0,27.0,8.0,0.0,Cabanillas
Tudela,15/05/2019,0.0,29.0,12.0,0.0,Cabanillas
Tudela,16/05/2019,0.0,26.0,9.0,33.6,Cabanillas
Tudela,17/05/2019,0.0,15.0,9.0,1.2,Cabanillas
Tudela,18/05/2019,0.0,17.0,9.0,0.2,Cabanillas
Tudela,19/05/2019,0.0,17.0,10.0,0.0,Cabanillas
Tudela,20/05/2019,0.0,20.0,7.0,0.0,Cabanillas
Tudela,21/05/2019,0.0,24.0,7.0,0.0,Cabanillas
Tudela,22/05/2019,0.0,26.0,8.0,0.0,Cabanillas
Tudela,23/05/2019,0.0,27.0,10.0,7.0,Cabanillas
Tudela,24/05/2019,0.0,18.0,12.0,0.0,Cabanillas
Tudela,25/05/2019,0.0,20.0,11.0,0.0,Cabanillas
Tudela,26/05/2019,0.0,21.0,12.0,0.0,Cabanillas
Tudela,27/05/2019,0.0,22.0,12.0,0.0,Cabanillas
Tudela,28/05/2019,0.0,21.0,12.0,0.0,Cabanillas
Tudela,29/05/2019,0.0,21.0,11.0,0.0,Cabanillas
Tudela,30/05/2019,0.0,29.0,11.0,0.0,Cabanillas
Tudela,31/05/2019,0.0,29.0,11.0,0.0,Cabanillas
Tudela,01/06/2019,0.0,31.0,13.0,1.0,Cabanillas
Tudela,02/06/2019,0.0,32.0,14.0,0.3,Cabanillas
Tudela,03/06/2019,0.0,31.0,18.0,0.0,Cabanillas
Tudela,04/06/2019,0.0,32.0,17.0,3.9,Cabanillas
Tudela,05/06/2019,0.0,19.0,12.0,4.0,Cabanillas
Tudela,06/06/2019,0.0,26.0,12.0,0.0,Cabanillas
Tudela,07/06/2019,0.0,23.0,12.0,0.0,Cabanillas
Tudela,08/06/2019,0.0,26.0,9.0,0.0,Cabanillas
Tudela,09/06/2019,0.0,29.0,15.0,0.0,Cabanillas
Tudela,10/06/2019,0.0,20.0,13.0,0.9,Cabanillas
Tudela,11/06/2019,0.0,19.0,10.0,0.2,Cabanillas
Tudela,12/06/2019,0.0,23.0,6.0,0.0,Cabanillas
Tudela,13/06/2019,0.0,28.0,12.0,0.0,Cabanillas
Tudela,14/06/2019,0.0,28.0,14.0,0.0,Cabanillas
Tudela,15/06/2019,0.0,25.0,14.0,0.0,Cabanillas
Tudela,16/06/2019,0.0,30.0,11.0,0.0,Cabanillas
Tudela,17/06/2019,0.0,33.0,12.0,0.0,Cabanillas
Tudela,18/06/2019,0.0,34.0,16.0,0.0,Cabanillas
Tudela,19/06/2019,0.0,31.0,15.0,0.9,Cabanillas
Tudela,20/06/2019,0.0,26.0,16.0,3.5,Cabanillas
Tudela,21/06/2019,0.0,21.0,15.0,0.0,Cabanillas
Tudela,22/06/2019,0.0,31.0,11.0,0.0,Cabanillas
Tudela,23/06/2019,0.0,36.0,17.0,0.0,Cabanillas
Tudela,24/06/2019,0.0,32.0,20.0,0.0,Cabanillas
Tudela,25/06/2019,0.0,35.0,19.0,0.0,Cabanillas
Tudela,26/06/2019,0.0,36.0,19.0,0.0,Cabanillas
Tudela,27/06/2019,0.0,39.0,22.0,0.0,Cabanillas
Tudela,28/06/2019,0.0,41.0,20.0,0.0,Cabanillas
Tudela,29/06/2019,0.0,42.0,19.0,0.0,Cabanillas
Tudela,30/06/2019,0.0,40.5,20.5,0.0,Cabanillas
Tudela,01/07/2019,0.0,33.0,19.0,1.0,Cabanillas
Tudela,02/07/2019,0.0,33.0,20.0,0.0,Cabanillas
Tudela,03/07/2019,0.0,35.0,20.0,0.0,Cabanillas
Tudela,04/07/2019,0.0,36.0,20.0,0.0,Cabanillas
Tudela,05/07/2019,0.0,37.0,20.0,0.0,Cabanillas
Tudela,06/07/2019,0.0,38.0,21.0,0.0,Cabanillas
Tudela,07/07/2019,0.0,35.0,20.0,0.0,Cabanillas
Tudela,08/07/2019,0.0,32.0,20.5,3.2,Cabanillas
Tudela,09/07/2019,0.0,25.0,18.0,0.0,Cabanillas
Tudela,10/07/2019,0.0,32.0,17.0,0.0,Cabanillas
Tudela,11/07/2019,0.0,36.0,17.0,0.0,Cabanillas
Tudela,12/07/2019,0.0,37.0,19.0,0.0,Cabanillas
Tudela,13/07/2019,0.0,34.0,21.0,3.5,Cabanillas
Tudela,14/07/2019,0.0,29.0,19.0,0.0,Cabanillas
Tudela,15/07/2019,0.0,29.0,19.0,0.0,Cabanillas
Tudela,16/07/2019,0.0,31.0,16.0,1.5,Cabanillas
Tudela,17/07/2019,0.0,31.0,19.0,0.0,Cabanillas
Tudela,18/07/2019,0.0,31.0,18.0,0.0,Cabanillas
Tudela,19/07/2019,0.0,33.0,16.0,0.0,Cabanillas
Tudela,20/07/2019,0.0,36.0,22.0,0.0,Cabanillas
Tudela,21/07/2019,0.0,36.0,21.0,0.0,Cabanillas
Tudela,22/07/2019,0.0,38.0,21.0,0.0,Cabanillas
Tudela,23/07/2019,0.0,39.0,21.0,0.0,Cabanillas
Tudela,24/07/2019,0.0,39.0,22.0,0.0,Cabanillas
Tudela,25/07/2019,0.0,37.0,23.0,0.0,Cabanillas
Tudela,26/07/2019,0.0,29.0,22.0,0.4,Cabanillas
Tudela,27/07/2019,0.0,23.0,19.0,0.0,Cabanillas
Tudela,28/07/2019,0.0,27.0,16.0,0.0,Cabanillas
Tudela,29/07/2019,0.0,35.0,12.0,0.0,Cabanillas
Tudela,30/07/2019,0.0,27.0,17.0,0.0,Cabanillas
Tudela,31/07/2019,0.0,29.0,15.0,0.0,Cabanillas
Tudela,01/08/2019,0.0,31.0,17.0,0.0,Cabanillas
Tudela,02/08/2019,0.0,33.0,19.0,0.0,Cabanillas
Tudela,03/08/2019,0.0,35.0,17.0,0.0,Cabanillas
Tudela,04/08/2019,0.0,37.0,18.0,0.0,Cabanillas
Tudela,05/08/2019,0.0,35.0,20.0,0.0,Cabanillas
Tudela,06/08/2019,0.0,34.0,20.0,0.0,Cabanillas
Tudela,07/08/2019,0.0,30.0,20.0,0.0,Cabanillas
Tudela,08/08/2019,0.0,36.0,21.0,0.0,Cabanillas
Tudela,09/08/2019,0.0,37.0,22.0,4.5,Cabanillas
Tudela,10/08/2019,0.0,31.0,18.0,0.0,Cabanillas
Tudela,11/08/2019,0.0,29.0,19.0,0.0,Cabanillas
Tudela,12/08/2019,0.0,25.0,17.0,0.0,Cabanillas
Tudela,13/08/2019,0.0,26.0,16.0,0.0,Cabanillas
Tudela,14/08/2019,0.0,33.0,12.0,0.0,Cabanillas
Tudela,15/08/2019,0.0,28.0,18.0,0.0,Cabanillas
Tudela,16/08/2019,0.0,33.0,14.0,0.0,Cabanillas
Tudela,17/08/2019,0.0,37.0,15.0,0.0,Cabanillas
Tudela,18/08/2019,0.0,35.0,22.0,0.0,Cabanillas
Tudela,19/08/2019,0.0,24.0,18.0,11.6,Cabanillas
Tudela,20/08/2019,0.0,24.0,16.0,0.0,Cabanillas
Tudela,21/08/2019,0.0,28.0,16.0,0.0,Cabanillas
Tudela,22/08/2019,0.0,31.0,16.0,0.0,Cabanillas
Tudela,23/08/2019,0.0,31.0,13.0,0.0,Cabanillas
Tudela,24/08/2019,0.0,34.0,18.0,0.0,Cabanillas
Tudela,25/08/2019,0.0,34.0,16.0,0.0,Cabanillas
Tudela,26/08/2019,0.0,31.0,17.0,16.3,Cabanillas
Tudela,27/08/2019,0.0,26.0,17.0,0.0,Cabanillas
Tudela,28/08/2019,0.0,31.0,17.0,0.0,Cabanillas
Tudela,29/08/2019,0.0,32.0,17.0,0.0,Cabanillas
Tudela,30/08/2019,0.0,34.0,20.0,0.0,Cabanillas
Tudela,31/08/2019,0.0,34.0,18.0,0.8,Cabanillas
Tudela,01/09/2019,0.0,27.0,19.0,0.0,Cabanillas
Tudela,02/09/2019,0.0,25.0,16.0,0.0,Cabanillas
Tudela,03/09/2019,0.0,29.0,12.0,0.0,Cabanillas
Tudela,04/09/2019,0.0,29.0,12.0,0.0,Cabanillas
Tudela,05/09/2019,0.0,23.0,15.0,0.0,Cabanillas
Tudela,06/09/2019,0.0,23.0,15.0,0.0,Cabanillas
Tudela,07/09/2019,0.0,26.0,13.0,0.0,Cabanillas
Tudela,08/09/2019,0.0,25.0,13.0,0.0,Cabanillas
Tudela,09/09/2019,0.0,24.0,9.0,0.0,Cabanillas
Tudela,10/09/2019,0.0,20.0,13.0,0.0,Cabanillas
Tudela,11/09/2019,0.0,25.0,15.0,0.0,Cabanillas
Tudela,12/09/2019,0.0,28.0,13.0,0.0,Cabanillas
Tudela,13/09/2019,0.0,26.0,13.0,0.5,Cabanillas
Tudela,14/09/2019,0.0,27.0,15.0,6.0,Cabanillas
Tudela,15/09/2019,0.0,24.0,15.0,4.3,Cabanillas
Tudela,16/09/2019,0.0,28.0,17.0,0.0,Cabanillas
Tudela,17/09/2019,0.0,29.0,17.0,1.9,Cabanillas
Tudela,18/09/2019,0.0,27.0,18.0,0.0,Cabanillas
Tudela,19/09/2019,0.0,27.0,16.0,0.1,Cabanillas
Tudela,20/09/2019,0.0,28.0,16.0,13.2,Cabanillas
Tudela,21/09/2019,0.0,26.0,18.0,0.5,Cabanillas
Tudela,22/09/2019,0.0,24.0,18.0,0.0,Cabanillas
Tudela,23/09/2019,0.0,24.0,12.0,0.0,Cabanillas
Tudela,24/09/2019,0.0,28.0,12.0,0.0,Cabanillas
Tudela,25/09/2019,0.0,23.0,15.0,0.0,Cabanillas
Tudela,26/09/2019,0.0,28.0,12.0,0.0,Cabanillas
Tudela,27/09/2019,0.0,28.0,12.0,0.0,Cabanillas
Tudela,28/09/2019,0.0,26.0,13.0,0.0,Cabanillas
Tudela,29/09/2019,0.0,28.0,13.0,0.0,Cabanillas
Tudela,30/09/2019,0.0,28.0,12.0,0.0,Cabanillas
Tudela,01/10/2019,0.0,28.0,13.0,0.0,Cabanillas
Tudela,02/10/2019,0.0,22.0,12.0,0.0,Cabanillas
Tudela,03/10/2019,0.0,26.0,12.0,0.0,Cabanillas
Tudela,04/10/2019,0.0,26.0,11.0,0.0,Cabanillas
Tudela,05/10/2019,0.0,27.0,12.0,0.0,Cabanillas
Tudela,06/10/2019,0.0,23.0,11.0,0.0,Cabanillas
Tudela,07/10/2019,0.0,26.0,0.0,0.0,Cabanillas
Tudela,08/10/2019,0.0,28.0,10.0,0.0,Cabanillas
Tudela,09/10/2019,0.0,23.0,15.0,0.0,Cabanillas
Tudela,10/10/2019,0.0,22.0,8.0,0.0,Cabanillas
Tudela,11/10/2019,0.0,26.0,8.0,0.0,Cabanillas
Tudela,12/10/2019,0.0,27.0,13.0,0.0,Cabanillas
Tudela,13/10/2019,0.0,27.0,17.0,0.0,Cabanillas
Tudela,14/10/2019,0.0,22.0,17.0,2.0,Cabanillas
Tudela,15/10/2019,0.0,19.0,8.0,0.0,Cabanillas
Tudela,16/10/2019,0.0,22.0,8.0,0.0,Cabanillas
Tudela,17/10/2019,0.0,22.0,11.0,4.5,Cabanillas
Tudela,18/10/2019,0.0,20.0,13.0,0.0,Cabanillas
Tudela,19/10/2019,0.0,22.0,15.0,1.1,Cabanillas
Tudela,20/10/2019,0.0,20.0,13.0,0.4,Cabanillas
Tudela,21/10/2019,0.0,17.0,8.0,0.0,Cabanillas
Tudela,22/10/2019,0.0,11.0,7.0,9.5,Cabanillas
Tudela,23/10/2019,0.0,16.0,7.0,2.1,Cabanillas
Tudela,24/10/2019,0.0,17.0,10.0,0.0,Cabanillas
Tudela,25/10/2019,0.0,22.0,8.0,0.0,Cabanillas
Tudela,26/10/2019,0.0,21.0,8.0,0.0,Cabanillas
Tudela,27/10/2019,0.0,21.0,8.0,0.0,Cabanillas
Tudela,28/10/2019,0.0,20.0,0.0,0.0,Cabanillas
Tudela,29/10/2019,0.0,23.0,10.0,0.0,Cabanillas
Tudela,30/10/2019,0.0,21.0,8.0,0.5,Cabanillas
Tudela,31/10/2019,0.0,21.0,10.0,0.0,Cabanillas
Tudela,01/11/2019,0.0,22.0,11.0,0.6,Cabanillas
Tudela,02/11/2019,0.0,22.0,12.0,4.8,Cabanillas
Tudela,03/11/2019,0.0,18.0,10.0,0.1,Cabanillas
Tudela,04/11/2019,0.0,22.0,0.0,1.6,Cabanillas
Tudela,05/11/2019,0.0,16.0,6.0,0.0,Cabanillas
Tudela,06/11/2019,0.0,16.0,8.0,2.3,Cabanillas
Tudela,07/11/2019,0.0,13.0,8.0,3.5,Cabanillas
Tudela,08/11/2019,0.0,13.0,3.0,13.5,Cabanillas
Tudela,09/11/2019,0.0,13.0,4.0,5.6,Cabanillas
Tudela,10/11/2019,0.0,10.0,6.0,1.0,Cabanillas
Tudela,11/11/2019,0.0,11.0,4.0,1.6,Cabanillas
Tudela,12/11/2019,0.0,14.0,5.0,5.7,Cabanillas
Tudela,13/11/2019,0.0,13.0,7.0,5.6,Cabanillas
Tudela,14/11/2019,0.0,11.0,5.0,0.0,Cabanillas
Tudela,15/11/2019,0.0,10.0,3.0,0.0,Cabanillas
Tudela,16/11/2019,0.0,8.0,1.0,0.0,Cabanillas
Tudela,17/11/2019,0.0,12.0,1.0,5.6,Cabanillas
Tudela,18/11/2019,0.0,10.0,5.0,0.0,Cabanillas
Tudela,19/11/2019,0.0,12.0,2.0,0.0,Cabanillas
Tudela,20/11/2019,0.0,11.0,1.0,0.7,Cabanillas
Tudela,21/11/2019,0.0,13.0,1.0,0.0,Cabanillas
Tudela,22/11/2019,0.0,12.0,4.0,4.0,Cabanillas
Tudela,23/11/2019,0.0,13.0,8.0,0.0,Cabanillas
Tudela,24/11/2019,0.0,12.0,7.0,0.6,Cabanillas
Tudela,25/11/2019,0.0,16.0,5.0,0.0,Cabanillas
Tudela,26/11/2019,0.0,17.0,5.0,0.0,Cabanillas
Tudela,27/11/2019,0.0,16.0,0.0,0.0,Cabanillas
Tudela,28/11/2019,0.0,17.0,4.0,0.0,Cabanillas
Tudela,29/11/2019,0.0,16.0,8.0,0.0,Cabanillas
Tudela,30/11/2019,0.0,17.0,6.0,4.3,Cabanillas
Tudela,01/12/2019,0.0,0.0,4.0,0.0,Cabanillas
Tudela,02/12/2019,0.0,0.0,0.0,0.0,Cabanillas
Tudela,03/12/2019,0.0,0.0,0.0,0.0,Cabanillas
Tudela,04/12/2019,0.0,0.0,0.0,0.0,Cabanillas
Tudela,05/12/2019,0.0,0.0,0.0,0.0,Cabanillas
Tudela,06/12/2019,0.0,0.0,0.0,0.0,Cabanillas
Tudela,07/12/2019,0.0,0.0,0.0,0.0,Cabanillas
Tudela,08/12/2019,0.0,0.0,0.0,0.0,Cabanillas
Tudela,09/12/2019,0.0,0.0,0.0,0.0,Cabanillas
Tudela,10/12/2019,0.0,0.0,0.0,0.0,Cabanillas
Tudela,11/12/2019,0.0,0.0,0.0,0.0,Cabanillas
Tudela,12/12/2019,0.0,0.0,0.0,0.0,Cabanillas
Tudela,13/12/2019,0.0,0.0,0.0,0.0,Cabanillas
Tudela,14/12/2019,0.0,0.0,0.0,0.0,Cabanillas
Tudela,15/12/2019,0.0,0.0,0.0,0.0,Cabanillas
Tudela,16/12/2019,0.0,0.0,0.0,0.0,Cabanillas
Tudela,17/12/2019,0.0,0.0,0.0,0.0,Cabanillas
Tudela,18/12/2019,0.0,0.0,0.0,0.0,Cabanillas
Tudela,19/12/2019,0.0,0.0,0.0,0.0,Cabanillas
Tudela,20/12/2019,0.0,0.0,0.0,0.0,Cabanillas
Tudela,21/12/2019,0.0,0.0,0.0,0.0,Cabanillas
Tudela,22/12/2019,0.0,0.0,0.0,0.0,Cabanillas
Tudela,23/12/2019,0.0,0.0,0.0,0.0,Cabanillas
Tudela,24/12/2019,0.0,0.0,0.0,0.0,Cabanillas
Tudela,25/12/2019,0.0,0.0,0.0,0.0,Cabanillas
Tudela,26/12/2019,0.0,0.0,0.0,0.0,Cabanillas
Tudela,27/12/2019,0.0,0.0,0.0,0.0,Cabanillas
