Comarca,Fecha, Temperatura media, Temperatura maxima, Temperatura minima, Precipitacion acumulada,Localidad
Tudela,01/01/2014,5.5,13.3,-3.1,0.2,Cadreita
Tudela,02/01/2014,10.7,15.1,6.6,0.9,Cadreita
Tudela,03/01/2014,10.1,13.7,6.3,0.9,Cadreita
Tudela,04/01/2014,9.9,14.2,3.0,2.1,Cadreita
Tudela,05/01/2014,4.3,9.8,1.2,0.2,Cadreita
Tudela,06/01/2014,7.0,13.2,1.3,0.0,Cadreita
Tudela,07/01/2014,10.7,15.9,7.4,0.0,Cadreita
Tudela,08/01/2014,9.9,15.2,6.7,0.0,Cadreita
Tudela,09/01/2014,5.6,9.8,-0.8,0.0,Cadreita
Tudela,10/01/2014,2.8,5.1,-1.2,0.4,Cadreita
Tudela,11/01/2014,5.8,7.6,4.1,0.0,Cadreita
Tudela,12/01/2014,7.0,8.7,5.8,1.1,Cadreita
Tudela,13/01/2014,6.0,12.0,-0.1,0.4,Cadreita
Tudela,14/01/2014,5.5,9.0,0.9,2.3,Cadreita
Tudela,15/01/2014,8.2,12.5,3.5,0.0,Cadreita
Tudela,16/01/2014,9.2,14.1,6.5,1.9,Cadreita
Tudela,17/01/2014,7.5,12.4,2.1,0.0,Cadreita
Tudela,18/01/2014,6.6,9.3,3.9,1.7,Cadreita
Tudela,19/01/2014,5.4,9.9,1.5,0.2,Cadreita
Tudela,20/01/2014,5.2,9.4,0.9,0.0,Cadreita
Tudela,21/01/2014,5.4,10.5,0.1,0.2,Cadreita
Tudela,22/01/2014,7.3,12.4,4.8,4.0,Cadreita
Tudela,23/01/2014,8.4,11.7,6.2,0.0,Cadreita
Tudela,24/01/2014,10.7,14.7,7.8,0.2,Cadreita
Tudela,25/01/2014,13.1,17.8,8.4,0.0,Cadreita
Tudela,26/01/2014,12.1,15.3,8.4,0.2,Cadreita
Tudela,27/01/2014,8.2,12.3,4.4,9.8,Cadreita
Tudela,28/01/2014,4.9,11.3,1.0,0.9,Cadreita
Tudela,29/01/2014,3.9,9.4,-0.8,0.9,Cadreita
Tudela,30/01/2014,6.0,9.8,2.9,1.3,Cadreita
Tudela,31/01/2014,6.7,11.5,2.0,0.6,Cadreita
Tudela,01/02/2014,5.0,10.8,-0.8,1.3,Cadreita
Tudela,02/02/2014,3.4,10.7,-2.5,0.2,Cadreita
Tudela,03/02/2014,2.3,7.2,-2.1,0.4,Cadreita
Tudela,04/02/2014,3.9,11.1,-3.2,0.2,Cadreita
Tudela,05/02/2014,7.8,14.3,1.2,0.0,Cadreita
Tudela,06/02/2014,11.1,16.5,2.1,0.0,Cadreita
Tudela,07/02/2014,9.8,14.5,3.8,0.0,Cadreita
Tudela,08/02/2014,11.2,16.8,3.5,0.0,Cadreita
Tudela,09/02/2014,4.1,8.1,-1.3,1.3,Cadreita
Tudela,10/02/2014,6.5,9.8,3.1,0.9,Cadreita
Tudela,11/02/2014,3.4,8.8,-2.1,0.0,Cadreita
Tudela,12/02/2014,5.2,12.2,-3.4,0.2,Cadreita
Tudela,13/02/2014,8.4,19.6,-0.2,0.0,Cadreita
Tudela,14/02/2014,15.0,21.3,4.3,0.0,Cadreita
Tudela,15/02/2014,10.1,16.0,5.3,0.6,Cadreita
Tudela,16/02/2014,6.4,13.6,-0.8,0.0,Cadreita
Tudela,17/02/2014,5.5,14.0,-1.7,0.2,Cadreita
Tudela,18/02/2014,7.2,10.9,3.8,0.0,Cadreita
Tudela,19/02/2014,8.0,14.0,1.3,0.0,Cadreita
Tudela,20/02/2014,7.6,17.2,-1.9,0.2,Cadreita
Tudela,21/02/2014,7.6,13.1,-1.3,0.4,Cadreita
Tudela,22/02/2014,4.6,14.7,-4.9,0.0,Cadreita
Tudela,23/02/2014,6.7,16.1,-3.9,0.0,Cadreita
Tudela,24/02/2014,8.3,15.8,1.7,0.0,Cadreita
Tudela,25/02/2014,8.3,17.7,1.1,2.3,Cadreita
Tudela,26/02/2014,4.6,11.7,-0.7,0.2,Cadreita
Tudela,27/02/2014,3.7,10.4,-1.1,1.1,Cadreita
Tudela,28/02/2014,4.6,9.0,-0.2,4.7,Cadreita
Tudela,01/03/2014,5.9,8.0,2.9,7.4,Cadreita
Tudela,02/03/2014,10.6,16.4,5.8,2.5,Cadreita
Tudela,03/03/2014,8.5,13.7,3.5,4.2,Cadreita
Tudela,04/03/2014,8.0,11.9,5.2,3.0,Cadreita
Tudela,05/03/2014,10.5,13.7,4.9,0.2,Cadreita
Tudela,06/03/2014,11.3,18.3,3.9,0.0,Cadreita
Tudela,07/03/2014,8.2,18.0,0.2,0.0,Cadreita
Tudela,08/03/2014,9.3,20.1,-0.4,0.2,Cadreita
Tudela,09/03/2014,10.0,18.6,2.6,0.0,Cadreita
Tudela,10/03/2014,9.6,20.8,-1.2,0.0,Cadreita
Tudela,11/03/2014,13.0,20.2,5.9,0.0,Cadreita
Tudela,12/03/2014,9.8,17.7,1.7,0.0,Cadreita
Tudela,13/03/2014,8.7,15.9,1.0,0.0,Cadreita
Tudela,14/03/2014,9.6,20.1,-1.2,0.0,Cadreita
Tudela,15/03/2014,12.1,17.2,7.8,0.0,Cadreita
Tudela,16/03/2014,13.2,21.0,7.8,0.0,Cadreita
Tudela,17/03/2014,12.6,24.6,1.7,0.0,Cadreita
Tudela,18/03/2014,11.1,17.8,4.5,0.0,Cadreita
Tudela,19/03/2014,12.1,19.1,6.3,0.0,Cadreita
Tudela,20/03/2014,12.4,22.5,2.2,0.0,Cadreita
Tudela,21/03/2014,14.4,21.3,9.0,0.0,Cadreita
Tudela,22/03/2014,10.3,17.3,2.9,1.3,Cadreita
Tudela,23/03/2014,6.1,12.0,0.3,0.0,Cadreita
Tudela,24/03/2014,4.5,9.9,-2.6,4.9,Cadreita
Tudela,25/03/2014,7.4,10.9,4.8,7.6,Cadreita
Tudela,26/03/2014,6.7,10.7,3.7,5.1,Cadreita
Tudela,27/03/2014,8.5,14.1,3.2,0.6,Cadreita
Tudela,28/03/2014,10.2,16.0,4.3,0.0,Cadreita
Tudela,29/03/2014,11.4,14.5,7.6,0.0,Cadreita
Tudela,30/03/2014,11.1,14.0,7.1,0.2,Cadreita
Tudela,31/03/2014,13.4,18.9,7.7,0.0,Cadreita
Tudela,01/04/2014,14.5,20.6,8.0,0.2,Cadreita
Tudela,02/04/2014,12.2,16.9,8.8,4.9,Cadreita
Tudela,03/04/2014,10.9,13.3,8.2,0.0,Cadreita
Tudela,04/04/2014,13.3,19.0,9.2,0.0,Cadreita
Tudela,05/04/2014,15.8,21.6,10.1,0.0,Cadreita
Tudela,06/04/2014,16.6,26.3,7.0,0.0,Cadreita
Tudela,07/04/2014,17.7,28.5,7.1,0.0,Cadreita
Tudela,08/04/2014,14.9,20.5,8.8,0.0,Cadreita
Tudela,09/04/2014,13.3,22.2,5.0,0.0,Cadreita
Tudela,10/04/2014,15.2,25.5,5.7,4.2,Cadreita
Tudela,11/04/2014,15.7,23.5,10.2,0.2,Cadreita
Tudela,12/04/2014,14.8,22.3,10.7,0.0,Cadreita
Tudela,13/04/2014,16.2,24.6,10.0,0.0,Cadreita
Tudela,14/04/2014,16.5,25.1,9.0,0.0,Cadreita
Tudela,15/04/2014,18.3,26.8,12.0,0.0,Cadreita
Tudela,16/04/2014,18.5,28.9,8.1,0.0,Cadreita
Tudela,17/04/2014,17.0,27.5,6.7,0.0,Cadreita
Tudela,18/04/2014,17.5,28.3,5.6,0.0,Cadreita
Tudela,19/04/2014,14.5,22.3,5.4,3.4,Cadreita
Tudela,20/04/2014,11.0,14.1,5.8,5.7,Cadreita
Tudela,21/04/2014,10.7,18.4,4.1,8.7,Cadreita
Tudela,22/04/2014,13.5,20.0,7.1,0.2,Cadreita
Tudela,23/04/2014,14.1,22.2,6.4,0.0,Cadreita
Tudela,24/04/2014,12.3,16.1,9.0,6.8,Cadreita
Tudela,25/04/2014,11.4,17.1,7.4,0.0,Cadreita
Tudela,26/04/2014,11.6,19.6,6.6,3.4,Cadreita
Tudela,27/04/2014,12.4,18.1,6.5,0.0,Cadreita
Tudela,28/04/2014,13.7,17.8,10.4,0.2,Cadreita
Tudela,29/04/2014,15.3,21.3,10.7,0.0,Cadreita
Tudela,30/04/2014,15.3,20.3,10.6,0.0,Cadreita
Tudela,01/05/2014,14.4,20.1,9.8,0.0,Cadreita
Tudela,02/05/2014,13.4,17.0,10.5,0.0,Cadreita
Tudela,03/05/2014,13.4,18.4,8.8,0.0,Cadreita
Tudela,04/05/2014,14.0,22.7,7.2,0.0,Cadreita
Tudela,05/05/2014,16.4,26.9,4.6,0.0,Cadreita
Tudela,06/05/2014,17.5,22.6,12.8,0.0,Cadreita
Tudela,07/05/2014,18.6,25.7,12.9,0.0,Cadreita
Tudela,08/05/2014,18.0,27.1,9.6,0.0,Cadreita
Tudela,09/05/2014,18.2,25.8,11.3,0.0,Cadreita
Tudela,10/05/2014,18.5,28.4,9.4,0.0,Cadreita
Tudela,11/05/2014,15.1,19.1,9.0,0.0,Cadreita
Tudela,12/05/2014,14.2,22.1,5.7,0.0,Cadreita
Tudela,13/05/2014,13.5,18.3,9.5,0.0,Cadreita
Tudela,14/05/2014,14.3,21.5,7.2,0.0,Cadreita
Tudela,15/05/2014,16.8,25.1,10.0,0.0,Cadreita
Tudela,16/05/2014,16.5,24.1,8.8,0.0,Cadreita
Tudela,17/05/2014,16.5,23.7,10.4,0.0,Cadreita
Tudela,18/05/2014,16.5,24.5,5.6,0.0,Cadreita
Tudela,19/05/2014,17.2,24.0,10.9,0.6,Cadreita
Tudela,20/05/2014,16.8,19.9,11.8,0.4,Cadreita
Tudela,21/05/2014,17.3,22.1,13.1,4.7,Cadreita
Tudela,22/05/2014,14.5,18.6,8.9,0.2,Cadreita
Tudela,23/05/2014,15.4,21.4,8.3,0.0,Cadreita
Tudela,24/05/2014,13.2,21.1,6.3,6.8,Cadreita
Tudela,25/05/2014,14.1,21.0,10.5,10.8,Cadreita
Tudela,26/05/2014,13.2,18.6,8.6,2.1,Cadreita
Tudela,27/05/2014,14.4,20.6,8.0,0.0,Cadreita
Tudela,28/05/2014,13.6,17.8,9.7,6.8,Cadreita
Tudela,29/05/2014,15.4,21.0,9.3,0.4,Cadreita
Tudela,30/05/2014,14.5,19.2,10.5,1.3,Cadreita
Tudela,31/05/2014,15.5,21.1,10.3,0.0,Cadreita
Tudela,01/06/2014,16.7,22.2,12.3,0.0,Cadreita
Tudela,02/06/2014,16.0,21.3,10.9,0.0,Cadreita
Tudela,03/06/2014,18.9,28.0,10.5,0.0,Cadreita
Tudela,04/06/2014,15.5,18.8,10.9,0.0,Cadreita
Tudela,05/06/2014,19.6,29.1,9.2,0.0,Cadreita
Tudela,06/06/2014,22.3,32.3,15.3,0.0,Cadreita
Tudela,07/06/2014,24.1,31.8,17.4,0.0,Cadreita
Tudela,08/06/2014,24.2,33.6,13.3,0.0,Cadreita
Tudela,09/06/2014,22.8,33.0,15.4,1.9,Cadreita
Tudela,10/06/2014,20.7,28.2,15.5,0.2,Cadreita
Tudela,11/06/2014,21.6,30.0,15.4,0.0,Cadreita
Tudela,12/06/2014,23.2,32.8,16.8,0.2,Cadreita
Tudela,13/06/2014,23.2,30.4,14.9,0.0,Cadreita
Tudela,14/06/2014,20.7,25.1,16.4,0.0,Cadreita
Tudela,15/06/2014,19.5,24.6,15.2,0.0,Cadreita
Tudela,16/06/2014,18.8,23.1,15.0,0.0,Cadreita
Tudela,17/06/2014,19.5,26.2,13.8,0.0,Cadreita
Tudela,18/06/2014,20.0,27.8,13.1,0.0,Cadreita
Tudela,19/06/2014,20.6,29.6,10.7,0.0,Cadreita
Tudela,20/06/2014,24.0,32.0,17.6,2.1,Cadreita
Tudela,21/06/2014,24.8,33.1,16.8,0.0,Cadreita
Tudela,22/06/2014,22.9,32.6,16.0,2.3,Cadreita
Tudela,23/06/2014,21.2,28.3,15.1,2.1,Cadreita
Tudela,24/06/2014,18.3,23.1,15.1,23.7,Cadreita
Tudela,25/06/2014,20.0,25.5,15.2,0.0,Cadreita
Tudela,26/06/2014,19.2,24.1,14.4,0.0,Cadreita
Tudela,27/06/2014,21.3,29.6,12.6,0.0,Cadreita
Tudela,28/06/2014,21.4,31.5,14.5,0.0,Cadreita
Tudela,29/06/2014,18.1,24.2,12.4,0.0,Cadreita
Tudela,30/06/2014,19.4,29.3,9.4,0.0,Cadreita
Tudela,01/07/2014,20.8,29.6,15.1,6.8,Cadreita
Tudela,02/07/2014,18.9,25.2,15.5,5.9,Cadreita
Tudela,03/07/2014,17.0,22.5,14.4,30.1,Cadreita
Tudela,04/07/2014,19.9,25.9,14.9,0.2,Cadreita
Tudela,05/07/2014,22.9,31.2,14.0,0.0,Cadreita
Tudela,06/07/2014,19.0,25.7,14.1,19.5,Cadreita
Tudela,07/07/2014,16.9,21.6,12.3,0.2,Cadreita
Tudela,08/07/2014,18.0,24.1,11.6,0.0,Cadreita
Tudela,09/07/2014,17.5,21.3,14.3,0.0,Cadreita
Tudela,10/07/2014,17.1,22.2,11.8,0.0,Cadreita
Tudela,11/07/2014,18.1,23.1,13.9,0.0,Cadreita
Tudela,12/07/2014,18.5,24.1,14.1,0.0,Cadreita
Tudela,13/07/2014,20.4,29.5,11.9,0.0,Cadreita
Tudela,14/07/2014,21.4,27.2,14.8,0.0,Cadreita
Tudela,15/07/2014,22.0,30.8,13.1,0.0,Cadreita
Tudela,16/07/2014,25.3,34.1,16.8,0.0,Cadreita
Tudela,17/07/2014,27.1,36.7,18.6,0.0,Cadreita
Tudela,18/07/2014,25.8,33.6,18.2,0.0,Cadreita
Tudela,19/07/2014,21.9,27.8,15.8,0.2,Cadreita
Tudela,20/07/2014,19.9,26.1,15.4,0.0,Cadreita
Tudela,21/07/2014,19.8,25.4,13.8,0.0,Cadreita
Tudela,22/07/2014,21.0,28.3,14.5,0.0,Cadreita
Tudela,23/07/2014,22.9,31.2,16.2,0.0,Cadreita
Tudela,24/07/2014,23.5,30.7,16.6,0.0,Cadreita
Tudela,25/07/2014,23.4,30.7,17.6,0.0,Cadreita
Tudela,26/07/2014,23.4,30.4,16.6,0.0,Cadreita
Tudela,27/07/2014,23.3,29.8,17.4,0.0,Cadreita
Tudela,28/07/2014,21.5,26.9,17.3,0.0,Cadreita
Tudela,29/07/2014,19.0,24.4,14.4,0.0,Cadreita
Tudela,30/07/2014,19.7,25.3,14.4,0.0,Cadreita
Tudela,31/07/2014,22.1,31.4,14.1,0.0,Cadreita
Tudela,01/08/2014,21.4,28.4,16.0,0.6,Cadreita
Tudela,02/08/2014,21.2,28.5,15.6,1.3,Cadreita
Tudela,03/08/2014,21.6,27.3,16.4,0.2,Cadreita
Tudela,04/08/2014,22.0,28.7,16.7,0.0,Cadreita
Tudela,05/08/2014,22.5,30.1,17.0,0.0,Cadreita
Tudela,06/08/2014,22.2,30.1,14.1,0.0,Cadreita
Tudela,07/08/2014,23.7,32.4,14.4,0.0,Cadreita
Tudela,08/08/2014,23.3,33.2,17.4,7.2,Cadreita
Tudela,09/08/2014,23.5,29.8,16.7,0.0,Cadreita
Tudela,10/08/2014,24.7,32.8,17.6,0.0,Cadreita
Tudela,11/08/2014,21.4,26.9,16.4,0.0,Cadreita
Tudela,12/08/2014,21.4,29.2,13.7,0.0,Cadreita
Tudela,13/08/2014,17.7,21.5,11.9,1.7,Cadreita
Tudela,14/08/2014,17.6,24.3,10.1,0.0,Cadreita
Tudela,15/08/2014,18.7,25.5,11.2,0.0,Cadreita
Tudela,16/08/2014,17.3,22.6,11.2,0.0,Cadreita
Tudela,17/08/2014,17.9,28.6,7.5,0.0,Cadreita
Tudela,18/08/2014,19.4,31.8,12.7,34.1,Cadreita
Tudela,19/08/2014,19.7,25.9,15.0,0.0,Cadreita
Tudela,20/08/2014,18.5,24.2,14.1,0.0,Cadreita
Tudela,21/08/2014,18.6,26.5,11.3,0.0,Cadreita
Tudela,22/08/2014,16.7,19.1,13.0,1.1,Cadreita
Tudela,23/08/2014,17.6,25.0,9.6,0.0,Cadreita
Tudela,24/08/2014,19.3,30.6,9.8,0.0,Cadreita
Tudela,25/08/2014,21.6,35.3,11.3,0.0,Cadreita
Tudela,26/08/2014,23.5,33.4,13.9,0.0,Cadreita
Tudela,27/08/2014,24.0,33.4,17.7,0.0,Cadreita
Tudela,28/08/2014,23.9,32.4,16.8,0.0,Cadreita
Tudela,29/08/2014,21.5,26.5,17.6,0.0,Cadreita
Tudela,30/08/2014,21.0,28.3,16.2,0.0,Cadreita
Tudela,31/08/2014,21.6,28.8,15.6,0.0,Cadreita
Tudela,01/09/2014,22.5,30.6,15.6,0.0,Cadreita
Tudela,02/09/2014,22.9,31.0,16.2,0.0,Cadreita
Tudela,03/09/2014,22.9,32.9,13.5,0.0,Cadreita
Tudela,04/09/2014,22.1,28.9,15.5,0.0,Cadreita
Tudela,05/09/2014,21.7,30.3,13.9,0.0,Cadreita
Tudela,06/09/2014,22.3,31.6,15.4,0.0,Cadreita
Tudela,07/09/2014,22.6,32.0,15.9,5.7,Cadreita
Tudela,08/09/2014,20.6,27.0,16.4,0.6,Cadreita
Tudela,09/09/2014,21.0,29.7,14.4,0.0,Cadreita
Tudela,10/09/2014,22.9,31.8,15.2,0.2,Cadreita
Tudela,11/09/2014,23.4,30.9,16.7,0.0,Cadreita
Tudela,12/09/2014,22.1,30.8,14.5,0.0,Cadreita
Tudela,13/09/2014,20.1,30.8,11.3,0.0,Cadreita
Tudela,14/09/2014,20.1,29.3,13.9,0.0,Cadreita
Tudela,15/09/2014,19.5,28.8,13.9,0.0,Cadreita
Tudela,16/09/2014,20.3,29.4,13.5,7.6,Cadreita
Tudela,17/09/2014,21.8,28.0,16.8,0.0,Cadreita
Tudela,18/09/2014,23.0,29.5,17.0,0.0,Cadreita
Tudela,19/09/2014,21.2,26.4,15.7,0.0,Cadreita
Tudela,20/09/2014,20.4,28.8,12.5,0.0,Cadreita
Tudela,21/09/2014,20.2,26.9,13.6,0.0,Cadreita
Tudela,22/09/2014,18.5,20.7,16.4,8.5,Cadreita
Tudela,23/09/2014,17.7,22.1,12.2,0.2,Cadreita
Tudela,24/09/2014,15.5,21.0,11.6,0.0,Cadreita
Tudela,25/09/2014,16.6,22.8,11.7,0.0,Cadreita
Tudela,26/09/2014,15.0,24.0,7.4,0.0,Cadreita
Tudela,27/09/2014,16.0,25.0,6.2,0.0,Cadreita
Tudela,28/09/2014,18.0,22.2,15.4,1.3,Cadreita
Tudela,29/09/2014,17.5,21.1,15.6,2.8,Cadreita
Tudela,30/09/2014,18.3,24.6,13.9,0.0,Cadreita
Tudela,01/10/2014,17.5,25.3,9.6,0.2,Cadreita
Tudela,02/10/2014,17.7,25.7,10.4,0.0,Cadreita
Tudela,03/10/2014,17.1,26.0,10.3,0.0,Cadreita
Tudela,04/10/2014,17.3,26.0,8.7,0.2,Cadreita
Tudela,05/10/2014,16.3,21.2,9.0,0.0,Cadreita
Tudela,06/10/2014,16.2,25.3,7.0,0.0,Cadreita
Tudela,07/10/2014,19.6,27.5,11.0,0.0,Cadreita
Tudela,08/10/2014,20.6,28.6,13.7,3.2,Cadreita
Tudela,09/10/2014,18.5,22.8,16.1,10.8,Cadreita
Tudela,10/10/2014,16.6,22.2,12.8,17.6,Cadreita
Tudela,11/10/2014,16.9,23.1,12.2,0.6,Cadreita
Tudela,12/10/2014,17.9,23.1,13.5,1.7,Cadreita
Tudela,13/10/2014,15.6,20.0,13.2,3.0,Cadreita
Tudela,14/10/2014,15.2,21.2,10.0,0.2,Cadreita
Tudela,15/10/2014,14.7,20.4,8.0,1.1,Cadreita
Tudela,16/10/2014,20.4,26.3,14.3,0.0,Cadreita
Tudela,17/10/2014,19.8,26.1,13.0,0.0,Cadreita
Tudela,18/10/2014,19.1,27.9,11.5,0.0,Cadreita
Tudela,19/10/2014,17.6,26.5,11.7,0.0,Cadreita
Tudela,20/10/2014,17.0,27.4,9.4,0.0,Cadreita
Tudela,21/10/2014,18.1,28.8,9.6,0.4,Cadreita
Tudela,22/10/2014,15.2,20.2,8.3,0.0,Cadreita
Tudela,23/10/2014,15.6,26.1,5.0,0.0,Cadreita
Tudela,24/10/2014,17.1,28.4,7.9,0.0,Cadreita
Tudela,25/10/2014,16.4,27.7,9.4,0.0,Cadreita
Tudela,26/10/2014,15.1,26.3,7.8,0.0,Cadreita
Tudela,27/10/2014,12.4,20.0,6.8,0.0,Cadreita
Tudela,28/10/2014,13.7,19.6,8.5,0.2,Cadreita
Tudela,29/10/2014,12.7,19.2,8.2,0.2,Cadreita
Tudela,30/10/2014,11.2,15.6,7.7,0.2,Cadreita
Tudela,31/10/2014,12.3,18.4,7.3,0.2,Cadreita
Tudela,01/11/2014,11.8,17.1,7.2,0.4,Cadreita
Tudela,02/11/2014,13.3,18.7,9.0,17.6,Cadreita
Tudela,03/11/2014,14.5,18.6,9.8,2.8,Cadreita
Tudela,04/11/2014,10.0,16.2,7.2,4.9,Cadreita
Tudela,05/11/2014,8.6,12.7,5.4,0.4,Cadreita
Tudela,06/11/2014,8.6,15.5,2.9,0.0,Cadreita
Tudela,07/11/2014,8.2,15.3,3.4,0.6,Cadreita
Tudela,08/11/2014,7.4,14.7,1.3,0.2,Cadreita
Tudela,09/11/2014,9.3,14.9,3.0,0.0,Cadreita
Tudela,10/11/2014,6.8,13.9,-0.8,0.0,Cadreita
Tudela,11/11/2014,7.7,9.6,3.9,7.6,Cadreita
Tudela,12/11/2014,7.9,14.7,3.3,0.0,Cadreita
Tudela,13/11/2014,11.7,16.0,2.9,0.0,Cadreita
Tudela,14/11/2014,11.9,15.5,5.9,4.5,Cadreita
Tudela,15/11/2014,8.8,16.1,3.5,0.2,Cadreita
Tudela,16/11/2014,8.1,14.8,0.0,0.6,Cadreita
Tudela,17/11/2014,8.8,15.0,3.5,10.2,Cadreita
Tudela,18/11/2014,5.9,12.1,0.2,0.0,Cadreita
Tudela,19/11/2014,7.8,14.8,2.1,0.2,Cadreita
Tudela,20/11/2014,9.3,15.1,3.7,0.0,Cadreita
Tudela,21/11/2014,11.2,14.2,7.5,0.0,Cadreita
Tudela,22/11/2014,12.8,14.5,11.0,0.0,Cadreita
Tudela,23/11/2014,14.9,18.3,12.5,0.0,Cadreita
Tudela,24/11/2014,14.3,20.4,10.7,0.0,Cadreita
Tudela,25/11/2014,13.0,17.0,9.2,6.8,Cadreita
Tudela,26/11/2014,11.3,15.2,5.9,20.6,Cadreita
Tudela,27/11/2014,10.8,12.9,5.7,7.4,Cadreita
Tudela,28/11/2014,12.6,14.5,10.8,5.9,Cadreita
Tudela,29/11/2014,12.3,13.5,11.6,43.9,Cadreita
Tudela,30/11/2014,13.5,16.8,11.3,8.3,Cadreita
Tudela,01/12/2014,11.0,14.3,6.4,5.9,Cadreita
Tudela,02/12/2014,9.6,12.5,7.8,0.0,Cadreita
Tudela,03/12/2014,8.1,10.3,6.3,0.0,Cadreita
Tudela,04/12/2014,5.5,11.5,-0.3,0.0,Cadreita
Tudela,05/12/2014,6.3,12.3,0.4,0.0,Cadreita
Tudela,06/12/2014,5.7,7.6,3.5,2.1,Cadreita
Tudela,07/12/2014,7.0,10.6,3.2,0.0,Cadreita
Tudela,08/12/2014,10.2,13.9,8.1,0.0,Cadreita
Tudela,09/12/2014,6.4,8.8,4.5,0.6,Cadreita
Tudela,10/12/2014,9.0,13.6,4.6,0.0,Cadreita
Tudela,11/12/2014,8.2,13.6,-0.2,0.0,Cadreita
Tudela,12/12/2014,3.7,10.3,-1.0,0.0,Cadreita
Tudela,13/12/2014,8.3,10.7,6.3,1.3,Cadreita
Tudela,14/12/2014,7.8,9.0,6.5,9.3,Cadreita
Tudela,15/12/2014,8.3,10.9,6.9,3.4,Cadreita
Tudela,16/12/2014,9.2,13.4,5.0,4.5,Cadreita
Tudela,17/12/2014,11.0,14.9,8.6,0.0,Cadreita
Tudela,18/12/2014,11.0,15.0,8.7,0.0,Cadreita
Tudela,19/12/2014,9.0,11.9,6.6,0.0,Cadreita
Tudela,20/12/2014,10.2,14.9,5.4,0.0,Cadreita
Tudela,21/12/2014,8.3,14.5,0.4,0.0,Cadreita
Tudela,22/12/2014,2.0,3.4,-0.9,0.4,Cadreita
Tudela,23/12/2014,2.6,3.5,1.7,0.2,Cadreita
Tudela,24/12/2014,2.5,7.5,-0.5,0.0,Cadreita
Tudela,25/12/2014,6.2,13.3,-0.8,0.2,Cadreita
Tudela,26/12/2014,10.4,14.1,8.2,0.0,Cadreita
Tudela,27/12/2014,9.5,11.3,8.2,2.8,Cadreita
Tudela,28/12/2014,5.8,8.8,1.2,3.6,Cadreita
Tudela,29/12/2014,2.8,7.0,-0.8,0.0,Cadreita
Tudela,30/12/2014,3.9,8.1,1.7,0.0,Cadreita
Tudela,31/12/2014,6.6,13.7,1.3,0.0,Cadreita
