Comarca,Fecha, Temperatura media, Temperatura maxima, Temperatura minima, Precipitacion acumulada,Localidad
Tudela,01/01/2013,7.3,12.9,2.0,0.4,Cadreita
Tudela,02/01/2013,7.6,9.6,5.9,0.9,Cadreita
Tudela,03/01/2013,7.0,14.1,-1.4,0.0,Cadreita
Tudela,04/01/2013,5.1,14.5,-3.7,0.0,Cadreita
Tudela,05/01/2013,8.4,18.9,-2.1,0.0,Cadreita
Tudela,06/01/2013,9.6,17.5,2.1,0.0,Cadreita
Tudela,07/01/2013,4.2,15.7,-2.7,0.0,Cadreita
Tudela,08/01/2013,4.2,12.7,-2.8,0.2,Cadreita
Tudela,09/01/2013,3.1,10.3,-4.5,1.1,Cadreita
Tudela,10/01/2013,10.0,15.4,5.2,0.0,Cadreita
Tudela,11/01/2013,5.3,12.2,-2.5,0.0,Cadreita
Tudela,12/01/2013,3.0,11.1,-3.8,1.9,Cadreita
Tudela,13/01/2013,4.9,9.0,1.7,0.0,Cadreita
Tudela,14/01/2013,5.9,9.2,4.1,3.6,Cadreita
Tudela,15/01/2013,6.4,10.1,2.8,5.5,Cadreita
Tudela,16/01/2013,7.9,12.0,3.2,2.1,Cadreita
Tudela,17/01/2013,7.2,10.9,4.7,0.6,Cadreita
Tudela,18/01/2013,7.2,11.1,4.3,2.3,Cadreita
Tudela,19/01/2013,10.7,14.0,6.4,4.7,Cadreita
Tudela,20/01/2013,6.7,10.0,4.7,0.0,Cadreita
Tudela,21/01/2013,5.4,9.6,-0.8,1.1,Cadreita
Tudela,22/01/2013,3.4,7.8,-1.7,1.9,Cadreita
Tudela,23/01/2013,4.6,8.2,-0.6,2.3,Cadreita
Tudela,24/01/2013,5.7,10.0,3.1,8.3,Cadreita
Tudela,25/01/2013,5.6,10.4,0.4,2.5,Cadreita
Tudela,26/01/2013,7.9,12.4,1.2,0.6,Cadreita
Tudela,27/01/2013,5.1,8.4,1.7,9.3,Cadreita
Tudela,28/01/2013,6.9,12.3,0.6,0.0,Cadreita
Tudela,29/01/2013,4.6,14.3,-1.0,0.0,Cadreita
Tudela,30/01/2013,4.4,11.1,-0.0,0.2,Cadreita
Tudela,31/01/2013,8.2,18.6,1.0,0.2,Cadreita
Tudela,01/02/2013,7.9,14.3,3.7,2.3,Cadreita
Tudela,02/02/2013,5.8,9.2,3.0,13.8,Cadreita
Tudela,03/02/2013,4.9,8.6,1.5,0.6,Cadreita
Tudela,04/02/2013,9.2,13.5,4.0,0.0,Cadreita
Tudela,05/02/2013,10.7,14.7,5.2,0.9,Cadreita
Tudela,06/02/2013,5.2,8.8,2.7,7.4,Cadreita
Tudela,07/02/2013,4.5,8.0,1.6,4.5,Cadreita
Tudela,08/02/2013,4.8,8.2,2.5,4.9,Cadreita
Tudela,09/02/2013,5.6,9.2,1.7,0.0,Cadreita
Tudela,10/02/2013,4.7,10.8,-0.6,2.3,Cadreita
Tudela,11/02/2013,5.1,9.0,1.0,0.0,Cadreita
Tudela,12/02/2013,5.1,9.4,1.2,7.8,Cadreita
Tudela,13/02/2013,8.4,11.2,4.9,0.0,Cadreita
Tudela,14/02/2013,9.4,13.0,4.9,0.0,Cadreita
Tudela,15/02/2013,8.1,13.5,3.5,0.0,Cadreita
Tudela,16/02/2013,5.2,12.6,-1.5,0.0,Cadreita
Tudela,17/02/2013,4.4,11.1,-0.4,0.2,Cadreita
Tudela,18/02/2013,8.5,14.4,5.2,0.6,Cadreita
Tudela,19/02/2013,9.3,11.1,6.6,0.0,Cadreita
Tudela,20/02/2013,9.7,15.0,6.5,0.0,Cadreita
Tudela,21/02/2013,10.2,17.5,5.6,0.9,Cadreita
Tudela,22/02/2013,7.6,10.5,2.9,2.3,Cadreita
Tudela,23/02/2013,1.5,3.4,-0.5,0.0,Cadreita
Tudela,24/02/2013,2.5,5.6,0.7,0.2,Cadreita
Tudela,25/02/2013,2.4,4.9,0.4,0.2,Cadreita
Tudela,26/02/2013,2.6,5.1,-0.0,1.5,Cadreita
Tudela,27/02/2013,2.9,9.8,-3.3,0.2,Cadreita
Tudela,28/02/2013,5.3,9.9,1.7,0.6,Cadreita
Tudela,01/03/2013,7.4,12.6,4.5,1.3,Cadreita
Tudela,02/03/2013,7.0,14.0,0.8,0.0,Cadreita
Tudela,03/03/2013,6.3,14.3,-2.1,0.0,Cadreita
Tudela,04/03/2013,8.3,11.6,2.7,3.2,Cadreita
Tudela,05/03/2013,11.0,12.2,9.6,6.8,Cadreita
Tudela,06/03/2013,12.3,18.3,7.9,0.6,Cadreita
Tudela,07/03/2013,13.1,18.5,6.4,1.1,Cadreita
Tudela,08/03/2013,11.2,19.4,3.7,1.1,Cadreita
Tudela,09/03/2013,10.1,17.8,2.3,0.2,Cadreita
Tudela,10/03/2013,11.1,16.1,3.9,0.0,Cadreita
Tudela,11/03/2013,9.1,15.9,2.6,0.4,Cadreita
Tudela,12/03/2013,8.8,13.8,2.2,1.1,Cadreita
Tudela,13/03/2013,3.5,6.0,2.1,0.9,Cadreita
Tudela,14/03/2013,4.4,8.2,1.4,1.1,Cadreita
Tudela,15/03/2013,5.6,11.3,0.3,0.0,Cadreita
Tudela,16/03/2013,6.5,10.6,1.1,0.0,Cadreita
Tudela,17/03/2013,7.6,9.7,5.3,10.4,Cadreita
Tudela,18/03/2013,6.3,13.9,-0.8,0.2,Cadreita
Tudela,19/03/2013,6.4,13.0,-1.2,10.0,Cadreita
Tudela,20/03/2013,8.6,13.9,2.1,0.0,Cadreita
Tudela,21/03/2013,8.2,16.5,-1.2,0.0,Cadreita
Tudela,22/03/2013,10.6,19.3,3.2,0.0,Cadreita
Tudela,23/03/2013,8.5,17.5,-0.0,0.2,Cadreita
Tudela,24/03/2013,10.3,17.6,2.7,0.0,Cadreita
Tudela,25/03/2013,10.0,14.4,5.7,5.1,Cadreita
Tudela,26/03/2013,11.0,16.3,7.2,7.0,Cadreita
Tudela,27/03/2013,12.7,17.0,9.8,4.0,Cadreita
Tudela,28/03/2013,13.1,19.5,8.3,0.4,Cadreita
Tudela,29/03/2013,13.4,17.2,10.8,8.5,Cadreita
Tudela,30/03/2013,11.4,15.5,8.3,5.9,Cadreita
Tudela,31/03/2013,12.0,18.0,4.9,0.2,Cadreita
Tudela,01/04/2013,11.4,16.0,8.3,7.8,Cadreita
Tudela,02/04/2013,10.5,15.9,6.3,0.6,Cadreita
Tudela,03/04/2013,10.0,16.1,2.3,7.8,Cadreita
Tudela,04/04/2013,9.4,14.7,5.3,3.2,Cadreita
Tudela,05/04/2013,6.0,10.2,3.1,1.3,Cadreita
Tudela,06/04/2013,5.7,9.1,3.5,2.5,Cadreita
Tudela,07/04/2013,8.8,13.1,5.1,0.0,Cadreita
Tudela,08/04/2013,10.7,16.7,5.0,0.0,Cadreita
Tudela,09/04/2013,13.0,18.3,6.2,0.0,Cadreita
Tudela,10/04/2013,13.3,22.7,2.9,0.0,Cadreita
Tudela,11/04/2013,14.6,21.2,4.7,0.6,Cadreita
Tudela,12/04/2013,11.5,20.3,2.5,0.2,Cadreita
Tudela,13/04/2013,13.6,21.7,3.4,0.2,Cadreita
Tudela,14/04/2013,16.0,24.2,7.6,0.0,Cadreita
Tudela,15/04/2013,15.6,25.2,7.8,0.0,Cadreita
Tudela,16/04/2013,17.6,26.3,11.1,0.0,Cadreita
Tudela,17/04/2013,18.0,26.9,7.8,0.0,Cadreita
Tudela,18/04/2013,14.0,19.9,9.2,0.0,Cadreita
Tudela,19/04/2013,10.7,14.8,5.9,0.4,Cadreita
Tudela,20/04/2013,9.9,15.9,5.0,0.0,Cadreita
Tudela,21/04/2013,10.3,17.4,3.4,0.0,Cadreita
Tudela,22/04/2013,10.7,15.9,6.5,0.0,Cadreita
Tudela,23/04/2013,12.7,21.4,6.2,0.0,Cadreita
Tudela,24/04/2013,13.1,21.8,2.9,0.0,Cadreita
Tudela,25/04/2013,13.1,21.6,4.0,1.1,Cadreita
Tudela,26/04/2013,12.8,16.2,8.4,3.4,Cadreita
Tudela,27/04/2013,7.3,11.3,3.9,7.2,Cadreita
Tudela,28/04/2013,6.9,11.4,3.6,5.3,Cadreita
Tudela,29/04/2013,7.4,9.7,6.0,16.5,Cadreita
Tudela,30/04/2013,9.8,15.5,6.3,9.8,Cadreita
Tudela,01/05/2013,11.4,16.9,7.9,1.9,Cadreita
Tudela,02/05/2013,10.7,15.1,8.0,3.0,Cadreita
Tudela,03/05/2013,11.2,16.4,6.4,0.0,Cadreita
Tudela,04/05/2013,13.2,20.8,5.4,0.0,Cadreita
Tudela,05/05/2013,15.1,22.4,8.8,0.0,Cadreita
Tudela,06/05/2013,15.3,24.8,4.8,0.0,Cadreita
Tudela,07/05/2013,17.8,23.2,11.9,0.0,Cadreita
Tudela,08/05/2013,17.6,22.2,14.1,0.4,Cadreita
Tudela,09/05/2013,14.8,20.0,11.7,1.5,Cadreita
Tudela,10/05/2013,13.0,18.1,7.5,0.0,Cadreita
Tudela,11/05/2013,11.9,17.9,6.5,0.0,Cadreita
Tudela,12/05/2013,11.7,17.3,6.5,0.0,Cadreita
Tudela,13/05/2013,14.5,23.8,5.3,0.0,Cadreita
Tudela,14/05/2013,13.4,19.0,7.6,3.4,Cadreita
Tudela,15/05/2013,9.7,12.3,5.9,5.3,Cadreita
Tudela,16/05/2013,9.0,15.7,3.5,1.3,Cadreita
Tudela,17/05/2013,9.9,14.5,6.8,14.8,Cadreita
Tudela,18/05/2013,9.9,15.3,6.2,6.4,Cadreita
Tudela,19/05/2013,11.2,16.2,6.6,0.2,Cadreita
Tudela,20/05/2013,11.0,17.2,4.9,0.0,Cadreita
Tudela,21/05/2013,9.6,14.2,2.1,0.2,Cadreita
Tudela,22/05/2013,13.5,18.0,10.7,0.0,Cadreita
Tudela,23/05/2013,12.2,15.5,10.4,0.0,Cadreita
Tudela,24/05/2013,10.8,16.1,5.1,0.2,Cadreita
Tudela,25/05/2013,11.1,16.4,4.4,0.0,Cadreita
Tudela,26/05/2013,10.8,20.7,1.2,6.2,Cadreita
Tudela,27/05/2013,13.0,18.6,9.5,5.3,Cadreita
Tudela,28/05/2013,11.1,16.4,5.8,0.9,Cadreita
Tudela,29/05/2013,9.6,16.6,2.0,1.7,Cadreita
Tudela,30/05/2013,12.2,16.8,7.0,0.2,Cadreita
Tudela,31/05/2013,12.9,16.8,10.9,0.0,Cadreita
Tudela,01/06/2013,13.6,17.2,10.5,0.0,Cadreita
Tudela,02/06/2013,14.2,19.2,9.2,0.0,Cadreita
Tudela,03/06/2013,14.9,21.3,9.6,0.0,Cadreita
Tudela,04/06/2013,16.6,25.5,5.5,0.0,Cadreita
Tudela,05/06/2013,18.7,27.3,8.7,0.0,Cadreita
Tudela,06/06/2013,18.7,27.0,13.1,3.4,Cadreita
Tudela,07/06/2013,16.6,23.7,10.0,21.0,Cadreita
Tudela,08/06/2013,13.7,16.8,10.9,17.8,Cadreita
Tudela,09/06/2013,15.1,21.2,12.0,14.2,Cadreita
Tudela,10/06/2013,18.3,24.4,12.3,0.0,Cadreita
Tudela,11/06/2013,20.7,27.3,14.3,0.0,Cadreita
Tudela,12/06/2013,23.0,31.8,13.5,0.0,Cadreita
Tudela,13/06/2013,19.3,24.5,14.5,0.0,Cadreita
Tudela,14/06/2013,20.4,29.0,11.5,0.0,Cadreita
Tudela,15/06/2013,20.5,28.1,13.3,0.0,Cadreita
Tudela,16/06/2013,23.0,32.2,12.6,0.0,Cadreita
Tudela,17/06/2013,20.1,29.4,15.4,0.0,Cadreita
Tudela,18/06/2013,15.0,19.4,11.2,15.1,Cadreita
Tudela,19/06/2013,13.9,18.7,11.0,0.2,Cadreita
Tudela,20/06/2013,15.9,21.6,11.4,1.3,Cadreita
Tudela,21/06/2013,16.2,21.4,11.5,0.9,Cadreita
Tudela,22/06/2013,18.7,26.7,10.2,0.0,Cadreita
Tudela,23/06/2013,16.2,20.2,10.2,0.0,Cadreita
Tudela,24/06/2013,14.7,21.4,9.8,0.0,Cadreita
Tudela,25/06/2013,16.5,23.9,9.8,0.0,Cadreita
Tudela,26/06/2013,17.6,24.4,11.6,0.0,Cadreita
Tudela,27/06/2013,18.1,24.1,12.5,0.0,Cadreita
Tudela,28/06/2013,18.4,24.9,12.3,0.0,Cadreita
Tudela,29/06/2013,19.8,27.1,13.6,0.0,Cadreita
Tudela,30/06/2013,22.0,30.5,14.9,0.0,Cadreita
Tudela,01/07/2013,22.0,30.2,13.5,0.0,Cadreita
Tudela,02/07/2013,23.5,31.2,15.1,0.0,Cadreita
Tudela,03/07/2013,22.3,28.8,15.6,0.0,Cadreita
Tudela,04/07/2013,23.3,30.3,17.8,0.0,Cadreita
Tudela,05/07/2013,24.2,34.5,13.7,0.0,Cadreita
Tudela,06/07/2013,25.3,34.6,16.0,0.0,Cadreita
Tudela,07/07/2013,25.5,34.1,16.4,0.0,Cadreita
Tudela,08/07/2013,25.7,34.5,16.0,0.0,Cadreita
Tudela,09/07/2013,26.8,34.4,17.3,0.0,Cadreita
Tudela,10/07/2013,25.5,33.4,18.8,3.6,Cadreita
Tudela,11/07/2013,24.1,32.8,17.0,0.2,Cadreita
Tudela,12/07/2013,24.7,34.1,17.5,1.9,Cadreita
Tudela,13/07/2013,24.1,32.1,16.1,0.2,Cadreita
Tudela,14/07/2013,22.7,32.4,15.8,4.0,Cadreita
Tudela,15/07/2013,22.0,31.2,15.4,0.9,Cadreita
Tudela,16/07/2013,22.6,30.7,16.2,0.2,Cadreita
Tudela,17/07/2013,23.4,31.3,15.6,0.0,Cadreita
Tudela,18/07/2013,23.8,30.9,17.3,0.0,Cadreita
Tudela,19/07/2013,22.7,30.0,16.0,4.2,Cadreita
Tudela,20/07/2013,22.6,31.3,17.2,1.9,Cadreita
Tudela,21/07/2013,23.7,31.2,16.8,0.0,Cadreita
Tudela,22/07/2013,24.6,34.1,14.2,0.9,Cadreita
Tudela,23/07/2013,23.7,33.7,18.1,2.5,Cadreita
Tudela,24/07/2013,24.7,33.9,16.2,0.0,Cadreita
Tudela,25/07/2013,27.6,38.1,17.5,0.0,Cadreita
Tudela,26/07/2013,27.1,37.0,16.5,0.0,Cadreita
Tudela,27/07/2013,24.9,32.0,16.7,0.0,Cadreita
Tudela,28/07/2013,21.9,28.8,15.7,3.6,Cadreita
Tudela,29/07/2013,20.6,29.0,11.9,0.0,Cadreita
Tudela,30/07/2013,23.2,32.9,14.7,0.0,Cadreita
Tudela,31/07/2013,26.3,37.3,13.9,0.0,Cadreita
Tudela,01/08/2013,27.3,37.1,16.0,0.0,Cadreita
Tudela,02/08/2013,27.2,36.3,20.2,0.0,Cadreita
Tudela,03/08/2013,23.8,32.0,18.1,0.0,Cadreita
Tudela,04/08/2013,24.6,32.4,19.0,0.0,Cadreita
Tudela,05/08/2013,24.0,33.3,16.4,0.0,Cadreita
Tudela,06/08/2013,22.7,29.1,17.0,0.0,Cadreita
Tudela,07/08/2013,20.1,27.6,14.5,8.1,Cadreita
Tudela,08/08/2013,18.0,24.5,12.1,0.6,Cadreita
Tudela,09/08/2013,20.2,28.7,12.3,0.0,Cadreita
Tudela,10/08/2013,21.9,29.9,15.0,0.0,Cadreita
Tudela,11/08/2013,23.3,33.8,13.4,0.0,Cadreita
Tudela,12/08/2013,22.9,33.0,16.2,2.1,Cadreita
Tudela,13/08/2013,22.4,29.1,18.0,0.0,Cadreita
Tudela,14/08/2013,22.3,30.4,15.9,0.0,Cadreita
Tudela,15/08/2013,22.0,31.6,12.4,0.0,Cadreita
Tudela,16/08/2013,21.2,31.0,15.6,4.7,Cadreita
Tudela,17/08/2013,22.3,29.6,15.4,0.0,Cadreita
Tudela,18/08/2013,23.3,32.8,14.7,0.0,Cadreita
Tudela,19/08/2013,22.2,28.5,16.2,0.0,Cadreita
Tudela,20/08/2013,21.4,30.2,15.2,0.0,Cadreita
Tudela,21/08/2013,21.6,33.4,11.7,0.0,Cadreita
Tudela,22/08/2013,23.9,32.2,16.0,0.0,Cadreita
Tudela,23/08/2013,23.5,31.2,16.0,0.0,Cadreita
Tudela,24/08/2013,20.5,26.1,14.3,0.0,Cadreita
Tudela,25/08/2013,19.8,27.1,13.7,0.0,Cadreita
Tudela,26/08/2013,19.6,25.6,14.1,0.0,Cadreita
Tudela,27/08/2013,19.7,26.6,13.7,0.0,Cadreita
Tudela,28/08/2013,20.1,26.7,15.3,0.0,Cadreita
Tudela,29/08/2013,20.2,27.1,15.0,0.0,Cadreita
Tudela,30/08/2013,20.5,27.6,15.0,0.0,Cadreita
Tudela,31/08/2013,20.0,26.8,14.5,0.0,Cadreita
Tudela,01/09/2013,20.9,27.4,15.7,0.0,Cadreita
Tudela,02/09/2013,21.2,29.5,14.5,0.0,Cadreita
Tudela,03/09/2013,20.1,31.2,10.5,0.0,Cadreita
Tudela,04/09/2013,21.0,31.2,11.5,0.0,Cadreita
Tudela,05/09/2013,20.3,30.1,11.1,7.4,Cadreita
Tudela,06/09/2013,19.1,26.6,14.1,0.2,Cadreita
Tudela,07/09/2013,17.8,23.6,15.0,2.3,Cadreita
Tudela,08/09/2013,17.0,22.7,11.7,0.0,Cadreita
Tudela,09/09/2013,17.0,26.3,7.6,0.2,Cadreita
Tudela,10/09/2013,18.2,25.5,12.2,0.0,Cadreita
Tudela,11/09/2013,15.9,21.8,10.1,0.0,Cadreita
Tudela,12/09/2013,16.5,23.7,10.2,0.0,Cadreita
Tudela,13/09/2013,19.5,26.9,12.5,0.0,Cadreita
Tudela,14/09/2013,19.1,28.3,10.0,0.0,Cadreita
Tudela,15/09/2013,17.7,22.7,10.7,0.0,Cadreita
Tudela,16/09/2013,17.3,27.3,7.8,0.0,Cadreita
Tudela,17/09/2013,16.8,21.9,11.9,0.0,Cadreita
Tudela,18/09/2013,18.0,25.1,10.5,0.0,Cadreita
Tudela,19/09/2013,19.1,24.0,16.1,0.0,Cadreita
Tudela,20/09/2013,19.9,25.9,14.9,0.0,Cadreita
Tudela,21/09/2013,19.9,28.2,11.7,0.0,Cadreita
Tudela,22/09/2013,17.5,29.4,7.9,0.0,Cadreita
Tudela,23/09/2013,19.1,29.0,10.2,0.0,Cadreita
Tudela,24/09/2013,19.5,28.3,12.4,0.0,Cadreita
Tudela,25/09/2013,21.8,30.8,14.5,0.0,Cadreita
Tudela,26/09/2013,23.0,31.7,16.6,0.0,Cadreita
Tudela,27/09/2013,23.0,31.0,16.2,0.0,Cadreita
Tudela,28/09/2013,20.1,27.3,16.0,1.3,Cadreita
Tudela,29/09/2013,17.8,25.1,11.3,0.2,Cadreita
Tudela,30/09/2013,19.2,27.3,13.2,0.0,Cadreita
Tudela,01/10/2013,19.6,26.9,16.3,0.4,Cadreita
Tudela,02/10/2013,21.8,29.6,15.5,0.0,Cadreita
Tudela,03/10/2013,22.5,28.3,19.1,0.6,Cadreita
Tudela,04/10/2013,18.1,22.4,14.1,54.7,Cadreita
Tudela,05/10/2013,16.2,22.5,11.5,0.2,Cadreita
Tudela,06/10/2013,16.7,22.2,12.4,0.0,Cadreita
Tudela,07/10/2013,15.6,22.2,10.5,0.0,Cadreita
Tudela,08/10/2013,14.4,22.0,7.4,0.0,Cadreita
Tudela,09/10/2013,15.4,20.8,10.4,0.0,Cadreita
Tudela,10/10/2013,14.0,20.8,9.0,0.0,Cadreita
Tudela,11/10/2013,11.3,17.6,5.3,0.0,Cadreita
Tudela,12/10/2013,9.5,18.0,1.7,0.0,Cadreita
Tudela,13/10/2013,10.9,19.6,2.9,0.0,Cadreita
Tudela,14/10/2013,14.6,22.2,7.4,0.2,Cadreita
Tudela,15/10/2013,15.5,19.8,11.7,0.0,Cadreita
Tudela,16/10/2013,17.6,26.7,9.2,0.0,Cadreita
Tudela,17/10/2013,17.2,25.2,10.3,0.0,Cadreita
Tudela,18/10/2013,19.1,28.2,10.7,0.0,Cadreita
Tudela,19/10/2013,19.3,24.5,15.2,0.4,Cadreita
Tudela,20/10/2013,17.0,23.6,12.6,0.0,Cadreita
Tudela,21/10/2013,16.9,23.7,10.0,0.0,Cadreita
Tudela,22/10/2013,17.2,19.0,15.5,0.2,Cadreita
Tudela,23/10/2013,16.7,23.9,10.8,0.0,Cadreita
Tudela,24/10/2013,16.9,22.3,10.1,2.5,Cadreita
Tudela,25/10/2013,18.7,23.6,15.7,8.9,Cadreita
Tudela,26/10/2013,18.6,22.9,14.5,0.0,Cadreita
Tudela,27/10/2013,14.4,22.1,7.8,0.0,Cadreita
Tudela,28/10/2013,14.4,21.7,10.0,0.0,Cadreita
Tudela,29/10/2013,11.5,14.9,8.2,0.0,Cadreita
Tudela,30/10/2013,11.2,16.1,8.3,0.0,Cadreita
Tudela,31/10/2013,10.3,18.4,2.5,0.0,Cadreita
Tudela,01/11/2013,8.4,16.1,1.7,0.0,Cadreita
Tudela,02/11/2013,13.2,21.6,6.5,0.2,Cadreita
Tudela,03/11/2013,13.2,17.8,7.6,0.0,Cadreita
Tudela,04/11/2013,11.6,14.5,8.1,5.3,Cadreita
Tudela,05/11/2013,17.6,22.9,12.5,0.0,Cadreita
Tudela,06/11/2013,16.2,24.2,9.8,0.0,Cadreita
Tudela,07/11/2013,12.4,19.8,6.6,0.0,Cadreita
Tudela,08/11/2013,10.6,18.1,4.8,0.2,Cadreita
Tudela,09/11/2013,10.8,16.5,3.9,0.0,Cadreita
Tudela,10/11/2013,14.0,18.4,8.4,0.0,Cadreita
Tudela,11/11/2013,14.2,17.0,12.7,0.0,Cadreita
Tudela,12/11/2013,14.7,18.6,12.5,0.0,Cadreita
Tudela,13/11/2013,14.3,18.2,11.9,0.0,Cadreita
Tudela,14/11/2013,11.7,13.5,8.9,0.2,Cadreita
Tudela,15/11/2013,6.9,9.8,3.4,4.0,Cadreita
Tudela,16/11/2013,4.9,8.6,-0.3,2.5,Cadreita
Tudela,17/11/2013,8.3,9.2,7.0,5.9,Cadreita
Tudela,18/11/2013,9.3,11.6,7.2,5.1,Cadreita
Tudela,19/11/2013,9.1,11.6,5.1,0.2,Cadreita
Tudela,20/11/2013,5.2,8.0,2.4,1.5,Cadreita
Tudela,21/11/2013,5.5,8.7,0.8,1.1,Cadreita
Tudela,22/11/2013,5.5,8.3,3.8,2.2,Cadreita
Tudela,23/11/2013,6.2,9.6,3.7,0.0,Cadreita
Tudela,24/11/2013,6.0,8.4,4.7,0.0,Cadreita
Tudela,25/11/2013,5.9,8.8,4.3,0.0,Cadreita
Tudela,26/11/2013,4.5,7.6,2.6,0.0,Cadreita
Tudela,27/11/2013,3.2,7.9,-5.1,0.0,Cadreita
Tudela,28/11/2013,-0.4,8.2,-7.5,0.0,Cadreita
Tudela,29/11/2013,5.3,8.7,1.3,0.0,Cadreita
Tudela,30/11/2013,7.1,10.2,4.3,0.8,Cadreita
Tudela,01/12/2013,5.3,9.6,2.2,0.0,Cadreita
Tudela,02/12/2013,4.3,10.8,-3.3,0.0,Cadreita
Tudela,03/12/2013,2.3,12.2,-3.5,0.0,Cadreita
Tudela,04/12/2013,4.8,15.8,-4.3,0.0,Cadreita
Tudela,05/12/2013,9.4,12.0,6.9,0.0,Cadreita
Tudela,06/12/2013,7.8,13.5,4.5,0.0,Cadreita
Tudela,07/12/2013,4.7,13.4,-2.6,0.0,Cadreita
Tudela,08/12/2013,0.3,9.6,-5.1,0.0,Cadreita
Tudela,09/12/2013,-0.8,7.1,-5.1,0.2,Cadreita
Tudela,10/12/2013,1.6,3.1,-1.9,0.0,Cadreita
Tudela,11/12/2013,1.6,3.2,0.2,0.2,Cadreita
Tudela,12/12/2013,2.4,3.9,0.6,0.2,Cadreita
Tudela,13/12/2013,3.4,9.9,0.4,0.9,Cadreita
Tudela,14/12/2013,7.9,13.5,-1.4,0.0,Cadreita
Tudela,15/12/2013,0.2,2.5,-3.7,0.2,Cadreita
Tudela,16/12/2013,2.1,4.4,-0.1,0.2,Cadreita
Tudela,17/12/2013,5.2,8.4,2.9,0.0,Cadreita
Tudela,18/12/2013,4.4,5.9,3.7,0.4,Cadreita
Tudela,19/12/2013,7.1,10.3,3.9,1.9,Cadreita
Tudela,20/12/2013,6.5,10.5,-0.3,0.0,Cadreita
Tudela,21/12/2013,1.2,8.1,-5.5,0.0,Cadreita
Tudela,22/12/2013,0.1,10.2,-6.2,0.2,Cadreita
Tudela,23/12/2013,3.4,11.7,-3.7,0.0,Cadreita
Tudela,24/12/2013,11.1,15.2,6.5,0.0,Cadreita
Tudela,25/12/2013,7.0,12.5,0.8,1.3,Cadreita
Tudela,26/12/2013,4.5,11.2,-0.4,0.2,Cadreita
Tudela,27/12/2013,6.0,15.5,-2.3,0.0,Cadreita
Tudela,28/12/2013,8.3,14.8,-2.6,0.6,Cadreita
Tudela,29/12/2013,2.4,10.6,-3.6,0.0,Cadreita
Tudela,30/12/2013,1.2,9.2,-6.0,0.2,Cadreita
Tudela,31/12/2013,2.7,8.5,-1.5,0.4,Cadreita
