Comarca,Fecha, Temperatura media, Temperatura maxima, Temperatura minima, Precipitacion acumulada,Localidad
Tudela,01/01/2014,0.0,13.5,9.5,0.0,San_Anton
Tudela,02/01/2014,0.0,14.2,10.0,4.3,San_Anton
Tudela,03/01/2014,0.0,14.0,11.3,1.8,San_Anton
Tudela,04/01/2014,0.0,13.0,11.5,14.6,San_Anton
Tudela,05/01/2014,0.0,14.5,8.0,2.2,San_Anton
Tudela,06/01/2014,0.0,15.5,8.5,0.0,San_Anton
Tudela,07/01/2014,0.0,16.5,14.2,0.0,San_Anton
Tudela,08/01/2014,0.0,18.0,15.8,0.0,San_Anton
Tudela,09/01/2014,0.0,17.5,16.0,0.0,San_Anton
Tudela,10/01/2014,0.0,17.5,7.5,0.0,San_Anton
Tudela,11/01/2014,0.0,12.2,8.0,0.0,San_Anton
Tudela,12/01/2014,0.0,17.0,8.0,11.5,San_Anton
Tudela,13/01/2014,0.0,10.5,7.2,2.5,San_Anton
Tudela,14/01/2014,0.0,10.5,7.9,9.7,San_Anton
Tudela,15/01/2014,0.0,12.0,8.0,5.8,San_Anton
Tudela,16/01/2014,0.0,11.5,9.0,0.0,San_Anton
Tudela,17/01/2014,0.0,11.0,8.5,0.0,San_Anton
Tudela,18/01/2014,0.0,10.5,8.8,5.3,San_Anton
Tudela,19/01/2014,0.0,7.5,2.9,26.8,San_Anton
Tudela,20/01/2014,0.0,6.0,4.0,12.8,San_Anton
Tudela,21/01/2014,0.0,11.5,4.0,7.1,San_Anton
Tudela,22/01/2014,0.0,8.5,8.0,43.9,San_Anton
Tudela,23/01/2014,0.0,8.5,6.5,25.2,San_Anton
Tudela,24/01/2014,0.0,11.0,8.0,153.5,San_Anton
Tudela,25/01/2014,0.0,10.8,10.5,85.0,San_Anton
Tudela,26/01/2014,0.0,16.5,10.0,36.4,San_Anton
Tudela,27/01/2014,0.0,6.5,5.0,41.8,San_Anton
Tudela,28/01/2014,0.0,7.5,5.3,5.5,San_Anton
Tudela,29/01/2014,0.0,7.3,5.5,31.6,San_Anton
Tudela,30/01/2014,0.0,7.5,4.5,24.0,San_Anton
Tudela,31/01/2014,0.0,11.5,6.5,20.6,San_Anton
Tudela,01/02/2014,0.0,8.0,7.5,42.2,San_Anton
Tudela,02/02/2014,0.0,7.5,4.9,0.6,San_Anton
Tudela,03/02/2014,0.0,8.0,1.6,9.3,San_Anton
Tudela,04/02/2014,0.0,11.2,0.0,0.0,San_Anton
Tudela,05/02/2014,0.0,13.0,5.5,0.2,San_Anton
Tudela,06/02/2014,0.0,16.5,6.9,11.5,San_Anton
Tudela,07/02/2014,0.0,11.5,6.2,1.8,San_Anton
Tudela,08/02/2014,0.0,13.9,9.5,18.0,San_Anton
Tudela,09/02/2014,0.0,9.5,3.5,4.8,San_Anton
Tudela,10/02/2014,0.0,7.5,7.0,38.6,San_Anton
Tudela,11/02/2014,0.0,7.5,3.2,9.8,San_Anton
Tudela,12/02/2014,0.0,15.0,3.2,1.4,San_Anton
Tudela,13/02/2014,0.0,17.0,8.8,2.7,San_Anton
Tudela,14/02/2014,0.0,18.5,9.2,3.3,San_Anton
Tudela,15/02/2014,0.0,10.0,8.7,0.3,San_Anton
Tudela,16/02/2014,0.0,10.0,6.5,0.0,San_Anton
Tudela,17/02/2014,0.0,12.5,3.0,0.0,San_Anton
Tudela,18/02/2014,0.0,10.0,8.0,12.1,San_Anton
Tudela,19/02/2014,0.0,9.9,7.0,5.4,San_Anton
Tudela,20/02/2014,0.0,16.0,7.0,24.2,San_Anton
Tudela,21/02/2014,0.0,7.5,4.5,3.0,San_Anton
Tudela,22/02/2014,0.0,12.5,3.0,0.0,San_Anton
Tudela,23/02/2014,0.0,15.3,6.0,0.0,San_Anton
Tudela,24/02/2014,0.0,14.5,10.5,0.0,San_Anton
Tudela,25/02/2014,0.0,14.0,10.5,16.4,San_Anton
Tudela,26/02/2014,0.0,6.0,5.5,15.7,San_Anton
Tudela,27/02/2014,0.0,10.9,4.6,5.5,San_Anton
Tudela,28/02/2014,0.0,10.2,5.0,33.4,San_Anton
Tudela,01/03/2014,0.0,7.0,4.5,13.5,San_Anton
Tudela,02/03/2014,0.0,11.0,6.0,23.0,San_Anton
Tudela,03/03/2014,0.0,10.0,6.2,36.3,San_Anton
Tudela,04/03/2014,0.0,9.5,7.5,58.3,San_Anton
Tudela,05/03/2014,0.0,9.5,8.9,49.4,San_Anton
Tudela,06/03/2014,0.0,12.5,7.5,0.0,San_Anton
Tudela,07/03/2014,0.0,16.5,6.0,0.0,San_Anton
Tudela,08/03/2014,0.0,21.0,7.0,0.0,San_Anton
Tudela,09/03/2014,0.0,19.5,8.5,0.0,San_Anton
Tudela,10/03/2014,0.0,17.5,5.0,0.0,San_Anton
Tudela,11/03/2014,0.0,13.5,6.5,0.0,San_Anton
Tudela,12/03/2014,0.0,18.5,6.4,0.0,San_Anton
Tudela,13/03/2014,0.0,17.0,7.5,0.0,San_Anton
Tudela,14/03/2014,0.0,18.0,7.5,0.0,San_Anton
Tudela,15/03/2014,0.0,10.0,3.5,0.0,San_Anton
Tudela,16/03/2014,0.0,14.0,8.0,0.0,San_Anton
Tudela,17/03/2014,0.0,19.5,5.5,0.0,San_Anton
Tudela,18/03/2014,0.0,10.5,5.0,2.3,San_Anton
Tudela,19/03/2014,0.0,14.0,8.0,0.0,San_Anton
Tudela,20/03/2014,0.0,22.5,5.2,0.0,San_Anton
Tudela,21/03/2014,0.0,18.0,10.5,3.7,San_Anton
Tudela,22/03/2014,0.0,9.0,7.9,55.0,San_Anton
Tudela,23/03/2014,0.0,6.8,2.2,14.0,San_Anton
Tudela,24/03/2014,0.0,9.0,2.0,26.0,San_Anton
Tudela,25/03/2014,0.0,9.0,7.0,35.5,San_Anton
Tudela,26/03/2014,0.0,8.0,7.0,27.9,San_Anton
Tudela,27/03/2014,0.0,11.0,4.0,0.0,San_Anton
Tudela,28/03/2014,0.0,14.0,7.5,0.0,San_Anton
Tudela,29/03/2014,0.0,17.5,11.8,0.0,San_Anton
Tudela,30/03/2014,0.0,14.5,13.0,0.0,San_Anton
Tudela,31/03/2014,0.0,18.0,12.5,0.0,San_Anton
Tudela,01/04/2014,0.0,19.0,10.0,0.0,San_Anton
Tudela,02/04/2014,0.0,19.0,15.7,1.0,San_Anton
Tudela,03/04/2014,0.0,10.8,10.0,35.9,San_Anton
Tudela,04/04/2014,0.0,14.9,9.0,8.4,San_Anton
Tudela,05/04/2014,0.0,18.5,10.0,0.0,San_Anton
Tudela,06/04/2014,0.0,24.5,11.0,0.0,San_Anton
Tudela,07/04/2014,0.0,24.5,11.5,8.5,San_Anton
Tudela,08/04/2014,0.0,13.0,9.8,0.6,San_Anton
Tudela,09/04/2014,0.0,18.3,6.5,0.0,San_Anton
Tudela,10/04/2014,0.0,23.3,8.0,0.2,San_Anton
Tudela,11/04/2014,0.0,14.0,10.0,0.0,San_Anton
Tudela,12/04/2014,0.0,11.2,10.0,0.0,San_Anton
Tudela,13/04/2014,0.0,16.3,10.0,0.0,San_Anton
Tudela,14/04/2014,0.0,18.5,8.0,0.0,San_Anton
Tudela,15/04/2014,0.0,23.5,8.0,0.0,San_Anton
Tudela,16/04/2014,0.0,23.8,6.0,0.0,San_Anton
Tudela,17/04/2014,0.0,18.0,7.0,0.0,San_Anton
Tudela,18/04/2014,0.0,21.0,2.0,0.0,San_Anton
Tudela,19/04/2014,0.0,13.1,2.5,8.0,San_Anton
Tudela,20/04/2014,0.0,10.9,8.0,2.0,San_Anton
Tudela,21/04/2014,0.0,17.0,5.5,14.6,San_Anton
Tudela,22/04/2014,0.0,13.0,7.5,4.4,San_Anton
Tudela,23/04/2014,0.0,18.0,8.5,2.6,San_Anton
Tudela,24/04/2014,0.0,13.9,10.0,36.8,San_Anton
Tudela,25/04/2014,0.0,14.5,7.3,8.1,San_Anton
Tudela,26/04/2014,0.0,13.5,8.0,14.8,San_Anton
Tudela,27/04/2014,0.0,12.8,7.8,9.3,San_Anton
Tudela,28/04/2014,0.0,11.0,8.6,15.7,San_Anton
Tudela,29/04/2014,0.0,14.0,8.5,19.9,San_Anton
Tudela,30/04/2014,0.0,14.0,10.8,12.4,San_Anton
Tudela,01/05/2014,0.0,11.5,11.0,15.7,San_Anton
Tudela,02/05/2014,0.0,10.5,9.0,21.2,San_Anton
Tudela,03/05/2014,0.0,13.0,10.0,0.2,San_Anton
Tudela,04/05/2014,0.0,15.5,7.0,0.0,San_Anton
Tudela,05/05/2014,0.0,24.5,7.5,0.0,San_Anton
Tudela,06/05/2014,0.0,17.5,11.0,0.0,San_Anton
Tudela,07/05/2014,0.0,17.5,12.5,0.0,San_Anton
Tudela,08/05/2014,0.0,18.5,9.5,0.0,San_Anton
Tudela,09/05/2014,0.0,16.0,11.8,0.0,San_Anton
Tudela,10/05/2014,0.0,19.0,10.5,16.4,San_Anton
Tudela,11/05/2014,0.0,13.0,10.0,3.2,San_Anton
Tudela,12/05/2014,0.0,13.5,8.5,2.2,San_Anton
Tudela,13/05/2014,0.0,12.5,8.5,0.8,San_Anton
Tudela,14/05/2014,0.0,15.0,8.5,0.0,San_Anton
Tudela,15/05/2014,0.0,19.5,9.5,0.0,San_Anton
Tudela,16/05/2014,0.0,16.5,9.0,0.0,San_Anton
Tudela,17/05/2014,0.0,17.5,9.0,0.0,San_Anton
Tudela,18/05/2014,0.0,24.0,9.5,0.0,San_Anton
Tudela,19/05/2014,0.0,23.5,12.0,44.3,San_Anton
Tudela,20/05/2014,0.0,17.9,10.0,6.8,San_Anton
Tudela,21/05/2014,0.0,19.0,11.5,2.3,San_Anton
Tudela,22/05/2014,0.0,15.0,12.5,13.4,San_Anton
Tudela,23/05/2014,0.0,13.5,7.5,9.8,San_Anton
Tudela,24/05/2014,0.0,14.5,10.2,16.1,San_Anton
Tudela,25/05/2014,0.0,11.0,9.5,26.2,San_Anton
Tudela,26/05/2014,0.0,13.0,8.5,9.3,San_Anton
Tudela,27/05/2014,0.0,15.5,10.0,0.8,San_Anton
Tudela,28/05/2014,0.0,10.5,10.0,8.1,San_Anton
Tudela,29/05/2014,0.0,16.0,9.8,8.8,San_Anton
Tudela,30/05/2014,0.0,12.9,10.5,41.2,San_Anton
Tudela,31/05/2014,0.0,15.0,11.5,6.6,San_Anton
Tudela,01/06/2014,0.0,14.0,11.5,1.8,San_Anton
Tudela,02/06/2014,0.0,13.5,12.0,5.7,San_Anton
Tudela,03/06/2014,0.0,17.5,10.0,0.7,San_Anton
Tudela,04/06/2014,0.0,12.5,12.0,13.8,San_Anton
Tudela,05/06/2014,0.0,24.5,8.5,0.0,San_Anton
Tudela,06/06/2014,0.0,28.4,13.0,1.1,San_Anton
Tudela,07/06/2014,0.0,24.5,14.9,0.0,San_Anton
Tudela,08/06/2014,0.0,25.5,13.5,0.0,San_Anton
Tudela,09/06/2014,0.0,24.0,13.9,14.3,San_Anton
Tudela,10/06/2014,0.0,18.5,14.5,0.0,San_Anton
Tudela,11/06/2014,0.0,19.5,14.0,0.0,San_Anton
Tudela,12/06/2014,0.0,25.5,15.2,0.0,San_Anton
Tudela,13/06/2014,0.0,24.0,16.0,0.0,San_Anton
Tudela,14/06/2014,0.0,17.5,16.0,0.0,San_Anton
Tudela,15/06/2014,0.0,17.5,16.0,0.0,San_Anton
Tudela,16/06/2014,0.0,17.5,14.0,0.0,San_Anton
Tudela,17/06/2014,0.0,18.5,15.0,0.0,San_Anton
Tudela,18/06/2014,0.0,19.0,14.5,0.0,San_Anton
Tudela,19/06/2014,0.0,24.0,12.5,0.0,San_Anton
Tudela,20/06/2014,0.0,29.0,13.5,7.2,San_Anton
Tudela,21/06/2014,0.0,27.0,16.5,3.7,San_Anton
Tudela,22/06/2014,0.0,22.0,17.0,7.6,San_Anton
Tudela,23/06/2014,0.0,23.5,15.5,1.4,San_Anton
Tudela,24/06/2014,0.0,19.9,16.0,0.1,San_Anton
Tudela,25/06/2014,0.0,18.0,17.0,5.9,San_Anton
Tudela,26/06/2014,0.0,17.0,16.0,11.6,San_Anton
Tudela,27/06/2014,0.0,22.0,12.5,0.0,San_Anton
Tudela,28/06/2014,0.0,24.0,13.5,6.2,San_Anton
Tudela,29/06/2014,0.0,16.0,13.0,2.2,San_Anton
Tudela,30/06/2014,0.0,23.0,11.0,0.0,San_Anton
Tudela,01/07/2014,0.0,19.5,12.0,12.5,San_Anton
Tudela,02/07/2014,0.0,17.0,14.5,4.0,San_Anton
Tudela,03/07/2014,0.0,18.0,16.0,49.4,San_Anton
Tudela,04/07/2014,0.0,18.5,16.0,14.5,San_Anton
Tudela,05/07/2014,0.0,24.5,16.0,7.1,San_Anton
Tudela,06/07/2014,0.0,22.0,16.3,46.5,San_Anton
Tudela,07/07/2014,0.0,15.5,14.0,4.7,San_Anton
Tudela,08/07/2014,0.0,16.5,13.0,20.1,San_Anton
Tudela,09/07/2014,0.0,15.3,14.0,3.5,San_Anton
Tudela,10/07/2014,0.0,16.0,14.0,7.8,San_Anton
Tudela,11/07/2014,0.0,15.5,14.9,22.1,San_Anton
Tudela,12/07/2014,0.0,15.5,14.2,15.4,San_Anton
Tudela,13/07/2014,0.0,21.5,13.9,6.3,San_Anton
Tudela,14/07/2014,0.0,18.5,15.5,2.3,San_Anton
Tudela,15/07/2014,0.0,23.5,15.0,0.0,San_Anton
Tudela,16/07/2014,0.0,27.0,15.3,0.0,San_Anton
Tudela,17/07/2014,0.0,33.5,20.0,0.0,San_Anton
Tudela,18/07/2014,0.0,24.5,16.5,4.7,San_Anton
Tudela,19/07/2014,0.0,24.5,17.0,2.8,San_Anton
Tudela,20/07/2014,0.0,18.0,15.5,22.2,San_Anton
Tudela,21/07/2014,0.0,17.5,15.0,14.2,San_Anton
Tudela,22/07/2014,0.0,22.0,15.0,0.0,San_Anton
Tudela,23/07/2014,0.0,24.0,16.0,0.0,San_Anton
Tudela,24/07/2014,0.0,21.0,16.0,1.7,San_Anton
Tudela,25/07/2014,0.0,23.0,16.0,1.5,San_Anton
Tudela,26/07/2014,0.0,24.0,19.0,0.0,San_Anton
Tudela,27/07/2014,0.0,24.0,16.0,0.0,San_Anton
Tudela,28/07/2014,0.0,21.0,16.5,26.7,San_Anton
Tudela,29/07/2014,0.0,19.0,15.0,9.5,San_Anton
Tudela,30/07/2014,0.0,18.0,15.0,0.4,San_Anton
Tudela,31/07/2014,0.0,23.3,15.5,0.0,San_Anton
Tudela,01/08/2014,0.0,21.9,17.0,1.2,San_Anton
Tudela,02/08/2014,0.0,23.5,16.5,1.9,San_Anton
Tudela,03/08/2014,0.0,23.9,17.0,8.3,San_Anton
Tudela,04/08/2014,0.0,18.8,15.5,0.0,San_Anton
Tudela,05/08/2014,0.0,23.0,15.5,0.0,San_Anton
Tudela,06/08/2014,0.0,24.0,14.5,0.0,San_Anton
Tudela,07/08/2014,0.0,24.9,16.0,0.0,San_Anton
Tudela,08/08/2014,0.0,28.5,17.5,11.0,San_Anton
Tudela,09/08/2014,0.0,26.0,17.3,0.0,San_Anton
Tudela,10/08/2014,0.0,27.0,18.5,10.7,San_Anton
Tudela,11/08/2014,0.0,17.0,15.5,2.4,San_Anton
Tudela,12/08/2014,0.0,22.0,15.0,31.8,San_Anton
Tudela,13/08/2014,0.0,15.5,14.0,14.8,San_Anton
Tudela,14/08/2014,0.0,18.0,14.0,1.8,San_Anton
Tudela,15/08/2014,0.0,15.5,14.9,5.8,San_Anton
Tudela,16/08/2014,0.0,17.5,14.0,2.9,San_Anton
Tudela,17/08/2014,0.0,22.5,11.9,0.0,San_Anton
Tudela,18/08/2014,0.0,17.5,12.5,1.6,San_Anton
Tudela,19/08/2014,0.0,19.0,14.0,0.1,San_Anton
Tudela,20/08/2014,0.0,18.0,15.0,0.1,San_Anton
Tudela,21/08/2014,0.0,18.0,12.0,0.0,San_Anton
Tudela,22/08/2014,0.0,15.0,12.0,2.2,San_Anton
Tudela,23/08/2014,0.0,19.0,11.0,0.0,San_Anton
Tudela,24/08/2014,0.0,24.0,11.0,0.0,San_Anton
Tudela,25/08/2014,0.0,25.5,11.0,0.0,San_Anton
Tudela,26/08/2014,0.0,25.0,15.0,17.6,San_Anton
Tudela,27/08/2014,0.0,26.0,16.0,0.0,San_Anton
Tudela,28/08/2014,0.0,23.5,18.0,11.0,San_Anton
Tudela,29/08/2014,0.0,18.0,15.5,4.9,San_Anton
Tudela,30/08/2014,0.0,17.5,15.5,0.0,San_Anton
Tudela,31/08/2014,0.0,22.0,15.0,0.0,San_Anton
Tudela,01/09/2014,0.0,23.5,14.0,0.0,San_Anton
Tudela,02/09/2014,0.0,24.3,14.5,0.0,San_Anton
Tudela,03/09/2014,0.0,25.3,14.0,0.0,San_Anton
Tudela,04/09/2014,0.0,22.9,14.0,3.1,San_Anton
Tudela,05/09/2014,0.0,23.5,13.5,0.0,San_Anton
Tudela,06/09/2014,0.0,28.0,14.0,0.0,San_Anton
Tudela,07/09/2014,0.0,28.5,15.0,15.1,San_Anton
Tudela,08/09/2014,0.0,23.5,17.5,0.0,San_Anton
Tudela,09/09/2014,0.0,26.0,16.0,0.0,San_Anton
Tudela,10/09/2014,0.0,28.5,17.0,0.0,San_Anton
Tudela,11/09/2014,0.0,24.0,18.0,0.0,San_Anton
Tudela,12/09/2014,0.0,24.0,14.0,0.0,San_Anton
Tudela,13/09/2014,0.0,25.0,12.0,0.0,San_Anton
Tudela,14/09/2014,0.0,23.0,13.0,7.2,San_Anton
Tudela,15/09/2014,0.0,24.5,13.0,0.0,San_Anton
Tudela,16/09/2014,0.0,25.5,14.0,1.7,San_Anton
Tudela,17/09/2014,0.0,25.9,18.0,10.3,San_Anton
Tudela,18/09/2014,0.0,25.0,16.5,0.0,San_Anton
Tudela,19/09/2014,0.0,25.0,17.2,0.0,San_Anton
Tudela,20/09/2014,0.0,25.5,17.5,0.0,San_Anton
Tudela,21/09/2014,0.0,23.5,15.0,0.0,San_Anton
Tudela,22/09/2014,0.0,18.5,15.0,0.0,San_Anton
Tudela,23/09/2014,0.0,16.5,13.2,0.0,San_Anton
Tudela,24/09/2014,0.0,16.2,14.0,0.0,San_Anton
Tudela,25/09/2014,0.0,18.0,11.5,0.0,San_Anton
Tudela,26/09/2014,0.0,21.5,11.0,0.0,San_Anton
Tudela,27/09/2014,0.0,24.0,10.8,0.0,San_Anton
Tudela,28/09/2014,0.0,22.5,12.5,0.1,San_Anton
Tudela,29/09/2014,0.0,18.5,16.0,12.4,San_Anton
Tudela,30/09/2014,0.0,18.4,16.0,0.0,San_Anton
Tudela,01/10/2014,0.0,21.0,14.5,0.0,San_Anton
Tudela,02/10/2014,0.0,22.5,13.0,0.0,San_Anton
Tudela,03/10/2014,0.0,23.5,12.0,0.0,San_Anton
Tudela,04/10/2014,0.0,21.5,12.0,36.5,San_Anton
Tudela,05/10/2014,0.0,17.0,12.5,2.3,San_Anton
Tudela,06/10/2014,0.0,22.0,9.8,0.0,San_Anton
Tudela,07/10/2014,0.0,23.0,14.0,0.0,San_Anton
Tudela,08/10/2014,0.0,23.2,15.0,3.7,San_Anton
Tudela,09/10/2014,0.0,17.0,17.0,5.1,San_Anton
Tudela,10/10/2014,0.0,18.0,13.5,1.2,San_Anton
Tudela,11/10/2014,0.0,21.0,12.0,0.6,San_Anton
Tudela,12/10/2014,0.0,21.5,14.0,1.2,San_Anton
Tudela,13/10/2014,0.0,17.5,14.0,0.8,San_Anton
Tudela,14/10/2014,0.0,21.0,13.5,0.0,San_Anton
Tudela,15/10/2014,0.0,20.0,12.0,5.3,San_Anton
Tudela,16/10/2014,0.0,23.5,16.5,0.0,San_Anton
Tudela,17/10/2014,0.0,24.5,16.3,0.0,San_Anton
Tudela,18/10/2014,0.0,26.0,14.0,0.0,San_Anton
Tudela,19/10/2014,0.0,28.0,14.5,0.0,San_Anton
Tudela,20/10/2014,0.0,25.9,13.5,0.0,San_Anton
Tudela,21/10/2014,0.0,21.5,15.0,9.5,San_Anton
Tudela,22/10/2014,0.0,16.0,11.0,0.0,San_Anton
Tudela,23/10/2014,0.0,20.5,6.0,0.0,San_Anton
Tudela,24/10/2014,0.0,24.5,10.0,0.0,San_Anton
Tudela,25/10/2014,0.0,24.0,13.5,0.0,San_Anton
Tudela,26/10/2014,0.0,24.0,12.0,0.0,San_Anton
Tudela,27/10/2014,0.0,23.9,12.0,0.0,San_Anton
Tudela,28/10/2014,0.0,25.0,13.2,0.0,San_Anton
Tudela,29/10/2014,0.0,24.5,12.5,0.0,San_Anton
Tudela,30/10/2014,0.0,25.5,12.5,0.0,San_Anton
Tudela,31/10/2014,0.0,23.9,13.9,0.0,San_Anton
Tudela,01/11/2014,0.0,21.0,13.9,0.4,San_Anton
Tudela,02/11/2014,0.0,17.0,13.0,1.3,San_Anton
Tudela,03/11/2014,0.0,16.0,11.0,31.4,San_Anton
Tudela,04/11/2014,0.0,9.5,8.0,58.9,San_Anton
Tudela,05/11/2014,0.0,11.0,6.0,36.5,San_Anton
Tudela,06/11/2014,0.0,15.0,6.0,5.1,San_Anton
Tudela,07/11/2014,0.0,13.3,7.5,15.3,San_Anton
Tudela,08/11/2014,0.0,13.9,6.0,7.4,San_Anton
Tudela,09/11/2014,0.0,11.9,6.0,6.5,San_Anton
Tudela,10/11/2014,0.0,13.9,5.0,0.0,San_Anton
Tudela,11/11/2014,0.0,12.5,5.0,0.0,San_Anton
Tudela,12/11/2014,0.0,17.0,8.9,0.0,San_Anton
Tudela,13/11/2014,0.0,18.3,8.8,6.2,San_Anton
Tudela,14/11/2014,0.0,14.2,12.0,1.0,San_Anton
Tudela,15/11/2014,0.0,14.0,10.5,0.4,San_Anton
Tudela,16/11/2014,0.0,13.5,9.0,22.5,San_Anton
Tudela,17/11/2014,0.0,10.8,8.0,13.3,San_Anton
Tudela,18/11/2014,0.0,14.7,7.5,0.0,San_Anton
Tudela,19/11/2014,0.0,17.5,6.5,0.0,San_Anton
Tudela,20/11/2014,0.0,21.0,8.8,0.0,San_Anton
Tudela,21/11/2014,0.0,20.5,13.5,0.0,San_Anton
Tudela,22/11/2014,0.0,21.0,14.9,0.0,San_Anton
Tudela,23/11/2014,0.0,23.5,15.0,0.0,San_Anton
Tudela,24/11/2014,0.0,17.0,13.5,5.1,San_Anton
Tudela,25/11/2014,0.0,13.5,12.0,7.9,San_Anton
Tudela,26/11/2014,0.0,11.5,10.3,3.1,San_Anton
Tudela,27/11/2014,0.0,15.5,8.0,0.0,San_Anton
Tudela,28/11/2014,0.0,17.0,10.5,1.4,San_Anton
Tudela,29/11/2014,0.0,13.3,12.0,10.5,San_Anton
Tudela,30/11/2014,0.0,13.0,11.2,14.2,San_Anton
Tudela,01/12/2014,0.0,10.2,9.5,21.9,San_Anton
Tudela,02/12/2014,0.0,7.9,6.5,1.0,San_Anton
Tudela,03/12/2014,0.0,7.2,4.9,0.7,San_Anton
Tudela,04/12/2014,0.0,8.7,2.5,1.8,San_Anton
Tudela,05/12/2014,0.0,8.0,3.0,51.9,San_Anton
Tudela,06/12/2014,0.0,4.5,2.3,13.3,San_Anton
Tudela,07/12/2014,0.0,9.0,1.5,47.2,San_Anton
Tudela,08/12/2014,0.0,9.0,1.5,65.5,San_Anton
Tudela,09/12/2014,0.0,7.5,3.0,0.5,San_Anton
Tudela,10/12/2014,0.0,10.0,2.0,34.3,San_Anton
Tudela,11/12/2014,0.0,9.9,2.9,1.8,San_Anton
Tudela,12/12/2014,0.0,12.0,4.0,0.0,San_Anton
Tudela,13/12/2014,0.0,12.5,6.5,3.6,San_Anton
Tudela,14/12/2014,0.0,10.5,8.0,12.6,San_Anton
Tudela,15/12/2014,0.0,9.5,6.0,8.6,San_Anton
Tudela,16/12/2014,0.0,10.0,6.0,36.3,San_Anton
Tudela,17/12/2014,0.0,10.5,8.0,17.1,San_Anton
Tudela,18/12/2014,0.0,10.0,9.0,0.6,San_Anton
Tudela,19/12/2014,0.0,9.5,8.5,0.2,San_Anton
Tudela,20/12/2014,0.0,10.5,8.5,15.8,San_Anton
Tudela,21/12/2014,0.0,11.5,7.0,0.0,San_Anton
Tudela,22/12/2014,0.0,13.5,2.0,0.0,San_Anton
Tudela,23/12/2014,0.0,14.3,2.0,0.0,San_Anton
Tudela,24/12/2014,0.0,13.0,3.9,0.0,San_Anton
Tudela,25/12/2014,0.0,10.0,3.5,7.0,San_Anton
Tudela,26/12/2014,0.0,10.0,5.9,15.7,San_Anton
Tudela,27/12/2014,0.0,9.5,6.3,84.6,San_Anton
