Comarca,Fecha, Temperatura media, Temperatura maxima, Temperatura minima, Precipitacion acumulada,Localidad
Tudela,01/01/2011,8.1,14.0,4.1,0.0,Tudela
Tudela,02/01/2011,8.6,12.5,3.1,0.0,Tudela
Tudela,03/01/2011,3.0,7.9,-1.5,0.0,Tudela
Tudela,04/01/2011,2.5,6.6,-2.0,1.8,Tudela
Tudela,05/01/2011,6.4,9.5,3.5,3.0,Tudela
Tudela,06/01/2011,10.6,12.8,7.6,0.0,Tudela
Tudela,07/01/2011,13.3,14.9,10.5,0.0,Tudela
Tudela,08/01/2011,12.6,15.4,10.2,0.9,Tudela
Tudela,09/01/2011,9.3,12.5,4.9,0.9,Tudela
Tudela,10/01/2011,5.7,11.3,0.4,0.0,Tudela
Tudela,11/01/2011,8.6,17.1,2.3,0.0,Tudela
Tudela,12/01/2011,12.0,17.1,8.9,0.0,Tudela
Tudela,13/01/2011,9.3,16.6,4.9,0.0,Tudela
Tudela,14/01/2011,6.2,14.1,0.4,0.0,Tudela
Tudela,15/01/2011,5.9,11.7,1.7,0.0,Tudela
Tudela,16/01/2011,3.7,5.3,1.5,0.1,Tudela
Tudela,17/01/2011,5.2,11.1,2.5,0.0,Tudela
Tudela,18/01/2011,2.6,5.2,-0.7,0.0,Tudela
Tudela,19/01/2011,6.1,8.3,4.3,1.2,Tudela
Tudela,20/01/2011,6.5,12.5,1.9,0.0,Tudela
Tudela,21/01/2011,1.9,6.3,-1.0,0.0,Tudela
Tudela,22/01/2011,0.6,5.5,-2.4,0.0,Tudela
Tudela,23/01/2011,0.9,6.9,-2.8,0.0,Tudela
Tudela,24/01/2011,1.0,7.6,-5.3,0.0,Tudela
Tudela,25/01/2011,1.7,8.2,-4.6,0.0,Tudela
Tudela,26/01/2011,0.1,7.5,-4.9,0.0,Tudela
Tudela,27/01/2011,0.9,4.9,-4.2,0.3,Tudela
Tudela,28/01/2011,3.4,5.3,1.6,11.3,Tudela
Tudela,29/01/2011,5.1,8.6,3.5,0.4,Tudela
Tudela,30/01/2011,5.3,6.9,4.3,0.0,Tudela
Tudela,31/01/2011,3.8,6.3,0.8,0.0,Tudela
Tudela,01/02/2011,4.9,8.0,2.1,0.0,Tudela
Tudela,02/02/2011,6.8,10.9,2.5,0.0,Tudela
Tudela,03/02/2011,8.2,12.6,5.6,0.0,Tudela
Tudela,04/02/2011,8.7,15.4,2.9,0.0,Tudela
Tudela,05/02/2011,9.4,19.8,2.1,0.0,Tudela
Tudela,06/02/2011,7.0,18.0,-0.4,0.0,Tudela
Tudela,07/02/2011,5.9,16.2,-1.7,0.0,Tudela
Tudela,08/02/2011,5.2,13.8,-1.2,0.0,Tudela
Tudela,09/02/2011,4.7,14.4,-2.4,0.0,Tudela
Tudela,10/02/2011,5.1,13.1,-1.7,0.0,Tudela
Tudela,11/02/2011,5.1,12.6,-0.1,0.0,Tudela
Tudela,12/02/2011,6.3,15.3,-0.8,0.0,Tudela
Tudela,13/02/2011,8.2,14.3,0.4,0.0,Tudela
Tudela,14/02/2011,7.5,11.8,3.6,1.6,Tudela
Tudela,15/02/2011,6.2,9.6,3.8,1.8,Tudela
Tudela,16/02/2011,6.0,12.2,-0.7,0.1,Tudela
Tudela,17/02/2011,7.3,11.8,3.9,0.0,Tudela
Tudela,18/02/2011,9.3,16.2,3.9,0.0,Tudela
Tudela,19/02/2011,7.3,9.8,3.2,2.8,Tudela
Tudela,20/02/2011,8.6,16.0,2.6,0.0,Tudela
Tudela,21/02/2011,7.7,12.6,4.0,5.1,Tudela
Tudela,22/02/2011,11.6,14.5,7.7,1.7,Tudela
Tudela,23/02/2011,12.0,16.5,8.1,0.0,Tudela
Tudela,24/02/2011,11.6,15.8,9.1,0.0,Tudela
Tudela,25/02/2011,12.9,20.9,6.9,0.0,Tudela
Tudela,26/02/2011,11.8,17.1,6.1,0.0,Tudela
Tudela,27/02/2011,8.1,10.7,5.6,0.0,Tudela
Tudela,28/02/2011,5.6,9.5,3.3,2.2,Tudela
Tudela,01/03/2011,5.7,9.6,2.9,0.4,Tudela
Tudela,02/03/2011,6.6,10.2,4.4,0.0,Tudela
Tudela,03/03/2011,4.6,7.8,0.8,0.9,Tudela
Tudela,04/03/2011,3.5,6.7,1.7,3.0,Tudela
Tudela,05/03/2011,6.7,13.9,1.1,0.0,Tudela
Tudela,06/03/2011,7.2,16.8,-0.3,0.0,Tudela
Tudela,07/03/2011,8.2,16.3,-0.7,0.0,Tudela
Tudela,08/03/2011,8.2,11.6,2.7,0.0,Tudela
Tudela,09/03/2011,8.0,14.4,3.0,0.0,Tudela
Tudela,10/03/2011,8.4,17.2,0.7,0.0,Tudela
Tudela,11/03/2011,9.2,17.7,1.4,3.0,Tudela
Tudela,12/03/2011,8.8,12.2,6.9,6.8,Tudela
Tudela,13/03/2011,10.4,16.9,4.1,0.0,Tudela
Tudela,14/03/2011,11.0,13.0,9.1,0.8,Tudela
Tudela,15/03/2011,10.0,11.1,8.8,31.4,Tudela
Tudela,16/03/2011,11.4,13.5,9.5,2.5,Tudela
Tudela,17/03/2011,11.3,14.2,8.7,0.0,Tudela
Tudela,18/03/2011,10.8,18.1,7.2,0.0,Tudela
Tudela,19/03/2011,10.4,16.4,6.1,0.0,Tudela
Tudela,20/03/2011,10.6,18.1,5.3,0.0,Tudela
Tudela,21/03/2011,8.8,16.3,3.1,0.0,Tudela
Tudela,22/03/2011,8.0,11.5,5.3,0.9,Tudela
Tudela,23/03/2011,8.3,14.5,2.3,0.0,Tudela
Tudela,24/03/2011,8.5,11.9,4.5,4.7,Tudela
Tudela,25/03/2011,11.6,16.8,7.5,0.0,Tudela
Tudela,26/03/2011,14.9,20.9,9.1,0.0,Tudela
Tudela,27/03/2011,11.7,16.6,6.2,6.0,Tudela
Tudela,28/03/2011,11.6,17.5,5.7,0.4,Tudela
Tudela,29/03/2011,12.8,17.8,8.8,1.2,Tudela
Tudela,30/03/2011,12.9,17.2,7.8,2.8,Tudela
Tudela,31/03/2011,16.3,23.1,9.7,0.0,Tudela
Tudela,01/04/2011,17.1,25.9,7.9,0.0,Tudela
Tudela,02/04/2011,17.8,25.3,10.1,0.0,Tudela
Tudela,03/04/2011,13.1,18.2,10.0,0.9,Tudela
Tudela,04/04/2011,12.9,18.7,9.1,0.0,Tudela
Tudela,05/04/2011,15.6,25.5,7.2,0.0,Tudela
Tudela,06/04/2011,17.8,27.0,9.1,0.0,Tudela
Tudela,07/04/2011,18.1,27.6,9.0,0.0,Tudela
Tudela,08/04/2011,18.8,30.6,8.0,0.0,Tudela
Tudela,09/04/2011,20.2,31.8,10.3,0.0,Tudela
Tudela,10/04/2011,15.1,19.3,12.7,0.0,Tudela
Tudela,11/04/2011,14.2,17.1,11.7,0.0,Tudela
Tudela,12/04/2011,14.4,19.2,9.6,0.0,Tudela
Tudela,13/04/2011,14.4,24.9,6.8,0.0,Tudela
Tudela,14/04/2011,13.5,20.9,6.4,0.0,Tudela
Tudela,15/04/2011,13.1,18.7,8.1,0.0,Tudela
Tudela,16/04/2011,13.4,20.7,4.9,0.0,Tudela
Tudela,17/04/2011,15.7,22.8,8.1,0.0,Tudela
Tudela,18/04/2011,15.5,22.4,8.0,0.0,Tudela
Tudela,19/04/2011,13.7,18.7,9.4,0.0,Tudela
Tudela,20/04/2011,14.2,19.2,9.7,0.3,Tudela
Tudela,21/04/2011,14.4,18.8,12.2,5.8,Tudela
Tudela,22/04/2011,13.0,16.0,10.6,5.7,Tudela
Tudela,23/04/2011,14.2,21.1,9.5,0.0,Tudela
Tudela,24/04/2011,14.2,20.4,11.6,0.8,Tudela
Tudela,25/04/2011,15.7,20.2,12.3,0.0,Tudela
Tudela,26/04/2011,16.2,21.2,12.4,0.0,Tudela
Tudela,27/04/2011,16.7,22.8,10.8,0.0,Tudela
Tudela,28/04/2011,16.3,23.0,10.4,0.0,Tudela
Tudela,29/04/2011,15.0,23.0,6.1,0.0,Tudela
Tudela,30/04/2011,14.8,20.7,10.3,0.3,Tudela
Tudela,01/05/2011,16.7,22.8,11.9,0.8,Tudela
Tudela,02/05/2011,16.8,24.0,8.8,0.0,Tudela
Tudela,03/05/2011,16.6,22.4,10.9,0.0,Tudela
Tudela,04/05/2011,16.6,23.5,9.0,0.0,Tudela
Tudela,05/05/2011,17.9,24.6,9.0,0.0,Tudela
Tudela,06/05/2011,19.0,25.6,14.1,0.0,Tudela
Tudela,07/05/2011,14.0,17.4,10.5,16.6,Tudela
Tudela,08/05/2011,16.1,24.0,9.9,0.0,Tudela
Tudela,09/05/2011,19.2,27.2,9.9,0.0,Tudela
Tudela,10/05/2011,19.8,26.1,13.0,0.0,Tudela
Tudela,11/05/2011,20.3,28.6,12.9,0.0,Tudela
Tudela,12/05/2011,19.0,25.2,13.7,0.0,Tudela
Tudela,13/05/2011,18.0,23.7,14.6,0.3,Tudela
Tudela,14/05/2011,14.7,17.5,10.7,0.0,Tudela
Tudela,15/05/2011,14.2,19.6,9.8,0.0,Tudela
Tudela,16/05/2011,16.8,25.6,8.6,0.0,Tudela
Tudela,17/05/2011,18.6,27.4,8.5,0.0,Tudela
Tudela,18/05/2011,18.8,23.7,11.3,0.0,Tudela
Tudela,19/05/2011,18.9,24.2,12.2,0.0,Tudela
Tudela,20/05/2011,18.9,27.8,9.1,0.0,Tudela
Tudela,21/05/2011,20.7,29.1,12.8,0.0,Tudela
Tudela,22/05/2011,19.8,25.7,15.6,0.0,Tudela
Tudela,23/05/2011,21.9,31.9,12.4,0.0,Tudela
Tudela,24/05/2011,21.0,27.9,14.7,0.0,Tudela
Tudela,25/05/2011,23.1,33.7,12.4,0.0,Tudela
Tudela,26/05/2011,19.0,25.3,14.2,0.1,Tudela
Tudela,27/05/2011,15.9,20.1,11.6,0.0,Tudela
Tudela,28/05/2011,18.3,27.7,7.7,0.0,Tudela
Tudela,29/05/2011,19.6,27.5,11.5,0.0,Tudela
Tudela,30/05/2011,18.4,25.1,15.9,8.2,Tudela
Tudela,31/05/2011,15.5,19.4,11.2,1.1,Tudela
Tudela,01/06/2011,14.3,18.7,10.1,0.0,Tudela
Tudela,02/06/2011,16.1,19.9,12.3,0.0,Tudela
Tudela,03/06/2011,18.1,26.2,11.7,0.0,Tudela
Tudela,04/06/2011,17.5,24.1,12.5,4.0,Tudela
Tudela,05/06/2011,18.2,25.0,12.5,0.1,Tudela
Tudela,06/06/2011,17.7,22.8,13.9,16.7,Tudela
Tudela,07/06/2011,14.6,17.7,11.1,12.3,Tudela
Tudela,08/06/2011,15.7,20.6,11.2,0.0,Tudela
Tudela,09/06/2011,16.8,24.4,9.5,1.0,Tudela
Tudela,10/06/2011,16.1,21.5,11.5,0.0,Tudela
Tudela,11/06/2011,17.1,23.3,8.9,0.0,Tudela
Tudela,12/06/2011,21.6,30.4,12.0,0.0,Tudela
Tudela,13/06/2011,22.8,31.1,16.2,0.0,Tudela
Tudela,14/06/2011,23.6,32.2,16.0,0.0,Tudela
Tudela,15/06/2011,24.5,32.7,17.7,0.0,Tudela
Tudela,16/06/2011,20.3,25.8,16.0,0.0,Tudela
Tudela,17/06/2011,21.4,31.3,13.9,0.0,Tudela
Tudela,18/06/2011,17.8,23.4,13.3,0.0,Tudela
Tudela,19/06/2011,20.1,29.7,9.8,0.0,Tudela
Tudela,20/06/2011,24.5,33.6,14.0,0.0,Tudela
Tudela,21/06/2011,24.6,34.4,18.8,9.7,Tudela
Tudela,22/06/2011,20.7,26.3,15.3,0.0,Tudela
Tudela,23/06/2011,18.5,24.1,14.4,0.0,Tudela
Tudela,24/06/2011,20.1,28.3,12.1,0.0,Tudela
Tudela,25/06/2011,24.3,35.5,13.7,0.0,Tudela
Tudela,26/06/2011,27.8,35.8,19.1,0.0,Tudela
Tudela,27/06/2011,27.0,34.9,19.5,2.2,Tudela
Tudela,28/06/2011,23.3,32.3,16.4,0.0,Tudela
Tudela,29/06/2011,16.7,21.2,12.9,0.0,Tudela
Tudela,30/06/2011,18.1,25.2,12.2,0.0,Tudela
Tudela,01/07/2011,21.4,29.6,13.6,0.0,Tudela
Tudela,02/07/2011,24.1,33.8,14.3,0.0,Tudela
Tudela,03/07/2011,22.6,31.5,18.5,13.2,Tudela
Tudela,04/07/2011,22.1,29.2,17.1,0.0,Tudela
Tudela,05/07/2011,23.5,33.8,13.6,0.0,Tudela
Tudela,06/07/2011,21.5,29.3,15.8,0.0,Tudela
Tudela,07/07/2011,19.6,27.3,14.4,0.0,Tudela
Tudela,08/07/2011,21.5,30.2,12.0,0.0,Tudela
Tudela,09/07/2011,24.9,32.7,17.4,0.0,Tudela
Tudela,10/07/2011,23.6,31.1,19.3,0.0,Tudela
Tudela,11/07/2011,24.7,32.7,16.5,0.0,Tudela
Tudela,12/07/2011,22.5,32.4,15.3,3.5,Tudela
Tudela,13/07/2011,18.2,22.8,14.4,0.3,Tudela
Tudela,14/07/2011,19.7,25.2,15.0,0.0,Tudela
Tudela,15/07/2011,22.0,30.5,12.6,0.0,Tudela
Tudela,16/07/2011,25.1,34.1,17.4,0.0,Tudela
Tudela,17/07/2011,18.6,21.8,14.8,0.0,Tudela
Tudela,18/07/2011,19.5,26.8,10.9,0.0,Tudela
Tudela,19/07/2011,17.9,22.4,12.8,7.9,Tudela
Tudela,20/07/2011,19.9,27.6,11.4,0.0,Tudela
Tudela,21/07/2011,19.2,25.1,14.8,0.0,Tudela
Tudela,22/07/2011,17.6,22.9,12.9,0.0,Tudela
Tudela,23/07/2011,17.4,22.9,12.2,0.0,Tudela
Tudela,24/07/2011,19.1,24.2,15.4,0.0,Tudela
Tudela,25/07/2011,21.9,26.7,18.2,0.0,Tudela
Tudela,26/07/2011,21.3,26.1,16.5,0.0,Tudela
Tudela,27/07/2011,20.3,25.9,15.0,0.0,Tudela
Tudela,28/07/2011,20.9,27.8,14.9,0.0,Tudela
Tudela,29/07/2011,22.2,31.1,15.2,0.0,Tudela
Tudela,30/07/2011,22.6,28.6,17.0,0.0,Tudela
Tudela,31/07/2011,23.3,32.4,14.8,0.0,Tudela
Tudela,01/08/2011,24.1,31.6,15.3,0.1,Tudela
Tudela,02/08/2011,24.4,32.3,19.1,0.4,Tudela
Tudela,03/08/2011,24.3,31.1,19.0,0.0,Tudela
Tudela,04/08/2011,25.4,34.3,16.7,0.0,Tudela
Tudela,05/08/2011,24.5,32.5,19.4,0.0,Tudela
Tudela,06/08/2011,24.6,34.4,16.9,0.0,Tudela
Tudela,07/08/2011,23.4,30.5,18.3,0.0,Tudela
Tudela,08/08/2011,19.3,23.4,14.7,0.0,Tudela
Tudela,09/08/2011,18.5,24.3,13.1,0.0,Tudela
Tudela,10/08/2011,20.3,29.8,12.2,0.0,Tudela
Tudela,11/08/2011,23.5,33.9,13.1,0.0,Tudela
Tudela,12/08/2011,24.2,34.2,16.8,0.0,Tudela
Tudela,13/08/2011,25.6,35.5,17.8,0.0,Tudela
Tudela,14/08/2011,25.6,32.3,19.2,0.0,Tudela
Tudela,15/08/2011,25.3,32.4,20.4,0.0,Tudela
Tudela,16/08/2011,26.1,34.4,16.7,0.0,Tudela
Tudela,17/08/2011,26.5,35.4,20.0,0.0,Tudela
Tudela,18/08/2011,23.9,31.7,17.9,1.1,Tudela
Tudela,19/08/2011,26.6,34.7,18.1,0.0,Tudela
Tudela,20/08/2011,29.2,37.5,20.8,0.0,Tudela
Tudela,21/08/2011,27.8,35.5,20.8,0.0,Tudela
Tudela,22/08/2011,26.3,34.6,19.9,0.0,Tudela
Tudela,23/08/2011,25.5,33.5,18.3,0.0,Tudela
Tudela,24/08/2011,23.8,30.5,19.1,0.0,Tudela
Tudela,25/08/2011,24.4,33.1,15.5,0.0,Tudela
Tudela,26/08/2011,20.7,25.3,15.4,2.1,Tudela
Tudela,27/08/2011,18.9,25.1,12.0,0.0,Tudela
Tudela,28/08/2011,21.0,31.8,11.0,0.0,Tudela
Tudela,29/08/2011,22.2,30.6,15.8,0.0,Tudela
Tudela,30/08/2011,22.7,32.4,13.5,0.0,Tudela
Tudela,31/08/2011,23.9,31.0,18.6,0.0,Tudela
Tudela,01/09/2011,24.1,32.0,18.1,9.4,Tudela
Tudela,02/09/2011,22.5,28.9,16.8,0.3,Tudela
Tudela,03/09/2011,21.6,27.9,18.0,0.0,Tudela
Tudela,04/09/2011,20.8,27.1,15.8,0.0,Tudela
Tudela,05/09/2011,18.8,24.9,14.7,0.0,Tudela
Tudela,06/09/2011,19.7,29.3,11.0,0.0,Tudela
Tudela,07/09/2011,22.1,30.1,14.5,0.0,Tudela
Tudela,08/09/2011,23.7,33.2,15.1,0.0,Tudela
Tudela,09/09/2011,24.1,34.2,14.4,0.0,Tudela
Tudela,10/09/2011,25.9,35.8,19.1,0.0,Tudela
Tudela,11/09/2011,21.1,26.9,14.8,0.0,Tudela
Tudela,12/09/2011,22.8,31.8,13.6,0.0,Tudela
Tudela,13/09/2011,22.9,32.9,15.5,0.0,Tudela
Tudela,14/09/2011,22.9,29.9,18.0,0.0,Tudela
Tudela,15/09/2011,25.4,33.2,18.6,0.0,Tudela
Tudela,16/09/2011,23.8,32.8,18.2,0.0,Tudela
Tudela,17/09/2011,21.7,28.1,18.0,0.0,Tudela
Tudela,18/09/2011,16.7,19.9,12.6,0.0,Tudela
Tudela,19/09/2011,16.1,22.0,10.9,0.0,Tudela
Tudela,20/09/2011,18.3,28.4,11.3,0.0,Tudela
Tudela,21/09/2011,19.7,31.2,10.3,0.0,Tudela
Tudela,22/09/2011,21.2,29.3,16.2,0.0,Tudela
Tudela,23/09/2011,19.6,27.1,13.4,0.0,Tudela
Tudela,24/09/2011,19.4,27.1,13.3,0.0,Tudela
Tudela,25/09/2011,19.5,27.5,12.4,0.0,Tudela
Tudela,26/09/2011,19.7,29.2,11.6,0.0,Tudela
Tudela,27/09/2011,20.6,29.9,12.7,0.0,Tudela
Tudela,28/09/2011,20.9,29.1,14.5,0.0,Tudela
Tudela,29/09/2011,19.7,27.5,11.9,0.0,Tudela
Tudela,30/09/2011,18.8,26.5,12.1,0.0,Tudela
Tudela,01/10/2011,18.0,25.7,10.5,0.0,Tudela
Tudela,02/10/2011,17.8,27.6,9.7,0.0,Tudela
Tudela,03/10/2011,18.9,30.1,8.7,0.0,Tudela
Tudela,04/10/2011,20.2,30.4,10.7,0.0,Tudela
Tudela,05/10/2011,20.3,28.5,13.6,0.0,Tudela
Tudela,06/10/2011,19.3,27.5,12.5,0.0,Tudela
Tudela,07/10/2011,15.9,18.0,12.0,0.0,Tudela
Tudela,08/10/2011,14.2,18.1,11.4,0.1,Tudela
Tudela,09/10/2011,16.2,21.4,13.3,0.0,Tudela
Tudela,10/10/2011,16.9,27.6,9.6,0.0,Tudela
Tudela,11/10/2011,20.1,31.2,10.5,0.0,Tudela
Tudela,12/10/2011,20.3,31.9,11.8,0.0,Tudela
Tudela,13/10/2011,18.5,27.1,13.3,0.0,Tudela
Tudela,14/10/2011,16.7,25.7,10.9,0.0,Tudela
Tudela,15/10/2011,15.8,23.8,8.9,0.0,Tudela
Tudela,16/10/2011,14.6,23.0,8.3,0.0,Tudela
Tudela,17/10/2011,13.7,23.6,6.1,0.0,Tudela
Tudela,18/10/2011,14.1,23.4,6.7,0.0,Tudela
Tudela,19/10/2011,13.6,21.5,8.8,0.0,Tudela
Tudela,20/10/2011,11.9,17.0,8.1,0.0,Tudela
Tudela,21/10/2011,9.0,16.3,2.5,0.0,Tudela
Tudela,22/10/2011,12.4,19.9,5.1,0.0,Tudela
Tudela,23/10/2011,16.2,22.4,10.0,0.0,Tudela
Tudela,24/10/2011,14.0,16.4,10.5,6.2,Tudela
Tudela,25/10/2011,12.0,17.7,8.0,0.0,Tudela
Tudela,26/10/2011,12.3,17.4,4.4,0.0,Tudela
Tudela,27/10/2011,14.0,17.7,11.2,3.3,Tudela
Tudela,28/10/2011,13.3,17.0,9.7,0.0,Tudela
Tudela,29/10/2011,13.0,17.7,10.3,0.0,Tudela
Tudela,30/10/2011,13.7,22.6,8.3,0.0,Tudela
Tudela,31/10/2011,13.2,20.1,5.8,0.0,Tudela
Tudela,01/11/2011,16.0,19.8,13.5,1.5,Tudela
Tudela,02/11/2011,15.7,17.5,13.9,0.4,Tudela
Tudela,03/11/2011,14.8,17.5,10.3,6.0,Tudela
Tudela,04/11/2011,12.9,16.9,10.1,3.9,Tudela
Tudela,05/11/2011,10.5,12.8,8.7,37.2,Tudela
Tudela,06/11/2011,11.9,13.1,10.1,0.3,Tudela
Tudela,07/11/2011,12.9,15.0,11.0,2.9,Tudela
Tudela,08/11/2011,12.7,19.5,7.5,0.1,Tudela
Tudela,09/11/2011,11.8,16.9,6.5,0.0,Tudela
Tudela,10/11/2011,12.9,17.2,10.3,4.4,Tudela
Tudela,11/11/2011,14.0,19.3,9.7,0.0,Tudela
Tudela,12/11/2011,13.8,17.8,10.1,0.0,Tudela
Tudela,13/11/2011,14.2,16.4,12.2,0.0,Tudela
Tudela,14/11/2011,14.0,15.5,12.5,1.7,Tudela
Tudela,15/11/2011,12.4,15.7,9.8,6.5,Tudela
Tudela,16/11/2011,11.8,17.4,7.9,0.0,Tudela
Tudela,17/11/2011,9.7,14.4,4.9,0.0,Tudela
Tudela,18/11/2011,11.2,14.6,8.5,0.0,Tudela
Tudela,19/11/2011,11.9,14.2,9.6,0.0,Tudela
Tudela,20/11/2011,12.8,15.0,11.5,0.1,Tudela
Tudela,21/11/2011,12.3,17.2,8.3,0.0,Tudela
Tudela,22/11/2011,10.7,14.7,6.2,1.1,Tudela
Tudela,23/11/2011,13.6,18.0,10.9,0.0,Tudela
Tudela,24/11/2011,11.2,18.0,6.1,0.0,Tudela
Tudela,25/11/2011,8.9,16.5,2.9,0.0,Tudela
Tudela,26/11/2011,10.2,16.9,5.1,0.0,Tudela
Tudela,27/11/2011,4.9,5.7,3.2,0.0,Tudela
Tudela,28/11/2011,4.8,5.3,3.8,0.3,Tudela
Tudela,29/11/2011,5.4,6.1,4.9,0.0,Tudela
Tudela,30/11/2011,5.1,6.0,4.2,0.0,Tudela
Tudela,01/12/2011,4.8,5.4,4.3,0.0,Tudela
Tudela,02/12/2011,6.5,8.5,4.5,4.7,Tudela
Tudela,03/12/2011,8.1,12.0,5.5,0.0,Tudela
Tudela,04/12/2011,7.9,14.0,3.4,0.0,Tudela
Tudela,05/12/2011,10.1,15.3,6.7,0.0,Tudela
Tudela,06/12/2011,10.0,15.1,5.1,0.0,Tudela
Tudela,07/12/2011,7.7,14.7,2.0,0.0,Tudela
Tudela,08/12/2011,7.4,15.2,2.7,0.0,Tudela
Tudela,09/12/2011,4.3,10.0,0.9,0.0,Tudela
Tudela,10/12/2011,3.0,5.3,0.9,0.1,Tudela
Tudela,11/12/2011,4.7,6.2,2.4,0.4,Tudela
Tudela,12/12/2011,6.2,13.2,2.6,1.0,Tudela
Tudela,13/12/2011,8.4,13.5,2.5,0.0,Tudela
Tudela,14/12/2011,10.4,15.9,5.1,0.0,Tudela
Tudela,15/12/2011,7.4,12.1,1.6,0.0,Tudela
Tudela,16/12/2011,11.4,18.2,6.6,6.0,Tudela
Tudela,17/12/2011,6.9,9.8,4.7,0.0,Tudela
Tudela,18/12/2011,5.7,8.8,3.5,0.0,Tudela
Tudela,19/12/2011,6.0,10.7,1.9,0.0,Tudela
Tudela,20/12/2011,8.4,13.3,1.4,0.0,Tudela
Tudela,21/12/2011,12.7,14.7,10.8,0.0,Tudela
Tudela,22/12/2011,10.9,13.7,5.4,0.0,Tudela
Tudela,23/12/2011,7.4,12.8,-0.2,0.0,Tudela
Tudela,24/12/2011,8.3,11.0,5.7,0.0,Tudela
Tudela,25/12/2011,5.9,11.9,-0.6,0.0,Tudela
Tudela,26/12/2011,1.1,8.4,-4.0,0.0,Tudela
Tudela,27/12/2011,1.2,9.4,-4.1,0.0,Tudela
Tudela,28/12/2011,4.5,12.4,-3.3,0.0,Tudela
Tudela,29/12/2011,7.4,9.9,4.3,0.0,Tudela
Tudela,30/12/2011,7.6,11.5,4.6,0.0,Tudela
Tudela,31/12/2011,10.0,15.7,5.7,0.0,Tudela
