Fecha, Temperatura media, Temperatura maxima, Temperatura minima, Precipitacion acumulada
01/01/2012,8.2,12.8,3.7,0.0
02/01/2012,7.5,10.2,4.6,0.0
03/01/2012,4.8,12.4,-0.4,3.2
04/01/2012,6.5,11.5,1.2,0.0
05/01/2012,7.1,11.8,0.5,0.2
06/01/2012,9.3,11.5,5.2,0.6
07/01/2012,9.2,12.3,7.5,0.0
08/01/2012,8.9,10.9,7.4,0.0
09/01/2012,6.1,9.4,-0.6,0.0
10/01/2012,1.8,9.2,-2.7,0.2
11/01/2012,-0.3,3.5,-3.5,0.2
12/01/2012,-0.2,1.7,-2.7,0.2
13/01/2012,3.2,8.4,-0.5,0.0
14/01/2012,2.8,6.1,-2.5,0.0
15/01/2012,1.1,5.9,-4.8,0.4
16/01/2012,3.3,7.8,0.2,7.6
17/01/2012,3.4,10.3,-1.5,0.2
18/01/2012,4.6,12.6,-2.3,0.2
19/01/2012,9.3,13.6,4.5,0.2
20/01/2012,9.8,13.2,6.0,0.0
21/01/2012,9.0,13.4,4.8,0.0
22/01/2012,9.4,12.0,7.6,0.0
23/01/2012,9.4,12.2,7.9,0.2
24/01/2012,7.3,9.0,3.9,0.0
25/01/2012,4.2,10.4,-2.4,0.0
26/01/2012,4.4,12.0,-2.5,0.2
27/01/2012,5.2,7.3,3.4,0.8
28/01/2012,4.4,8.2,2.1,0.2
29/01/2012,2.5,5.0,1.1,0.6
30/01/2012,3.0,7.5,-0.8,6.8
31/01/2012,3.9,9.8,-1.6,0.0
01/02/2012,4.1,8.5,0.0,1.0
02/02/2012,-2.5,0.1,-4.9,0.0
03/02/2012,-3.3,-0.9,-5.6,0.0
04/02/2012,-1.7,2.0,-5.3,0.0
05/02/2012,2.7,6.4,-0.5,7.4
06/02/2012,2.8,5.0,0.0,1.0
07/02/2012,0.3,3.7,-2.2,0.4
08/02/2012,-3.2,-0.7,-5.1,0.0
09/02/2012,-1.4,0.8,-3.9,0.0
10/02/2012,0.9,4.6,-2.4,0.0
11/02/2012,-1.6,1.8,-4.5,0.0
12/02/2012,-1.7,1.5,-4.4,0.0
13/02/2012,1.3,3.9,-2.0,0.0
14/02/2012,3.0,5.7,0.8,7.8
15/02/2012,4.5,8.7,0.8,0.4
16/02/2012,5.4,8.0,4.0,0.8
17/02/2012,5.3,9.0,1.1,0.0
18/02/2012,3.9,12.2,-3.8,0.0
19/02/2012,5.4,9.5,2.9,0.4
20/02/2012,3.2,7.5,-0.6,0.0
21/02/2012,3.4,9.8,-2.0,0.0
22/02/2012,5.5,13.8,-3.3,0.0
23/02/2012,9.8,15.8,3.0,0.0
24/02/2012,11.3,18.3,3.8,0.0
25/02/2012,7.1,13.4,0.1,0.0
26/02/2012,10.1,13.2,8.0,0.0
27/02/2012,9.3,14.2,6.8,0.0
28/02/2012,8.0,17.3,-1.0,0.0
29/02/2012,10.0,20.1,0.2,0.0
01/03/2012,8.9,19.1,1.1,0.0
02/03/2012,9.6,17.9,0.5,0.0
03/03/2012,9.9,17.9,2.8,0.0
04/03/2012,7.4,14.8,3.1,2.6
05/03/2012,5.3,9.5,2.5,0.8
06/03/2012,4.5,8.3,1.5,0.4
07/03/2012,6.8,11.6,0.1,0.0
08/03/2012,7.2,9.8,4.9,0.8
09/03/2012,7.2,12.3,3.9,0.0
10/03/2012,7.7,14.0,1.5,0.0
11/03/2012,8.8,13.1,6.4,0.0
12/03/2012,10.9,18.5,3.6,0.0
13/03/2012,11.8,24.7,1.1,0.0
14/03/2012,13.4,25.7,3.3,0.0
15/03/2012,12.5,24.5,3.2,0.0
16/03/2012,12.6,21.6,2.7,0.0
17/03/2012,10.4,18.8,2.1,0.8
18/03/2012,6.6,12.5,1.6,0.2
19/03/2012,5.6,10.5,0.7,0.2
20/03/2012,6.7,10.6,3.6,0.0
21/03/2012,5.5,7.7,3.9,14.3
22/03/2012,6.6,14.7,-1.2,6.0
23/03/2012,7.8,16.4,-0.6,0.0
24/03/2012,10.4,20.4,1.8,0.2
25/03/2012,12.2,21.7,2.0,0.0
26/03/2012,13.0,21.5,2.6,0.0
27/03/2012,11.7,20.3,3.1,0.0
28/03/2012,12.1,22.0,3.0,0.0
29/03/2012,13.5,22.5,2.5,0.0
30/03/2012,15.0,22.2,5.9,0.0
31/03/2012,14.3,21.7,5.4,0.0
01/04/2012,13.4,20.2,6.0,0.0
02/04/2012,12.6,22.0,2.6,0.0
03/04/2012,9.0,10.2,7.1,5.6
04/04/2012,9.4,13.7,6.8,0.2
05/04/2012,8.7,12.3,6.7,3.6
06/04/2012,7.1,11.6,1.3,1.6
07/04/2012,5.6,10.1,-1.1,0.8
08/04/2012,9.0,13.4,5.3,0.4
09/04/2012,11.9,20.4,3.6,0.2
10/04/2012,10.0,17.0,3.0,0.0
11/04/2012,7.9,13.2,0.7,0.2
12/04/2012,8.1,13.1,4.3,4.4
13/04/2012,7.1,10.9,2.6,0.0
14/04/2012,6.4,8.9,3.6,8.0
15/04/2012,6.0,8.7,2.4,4.4
16/04/2012,5.0,8.7,2.2,3.2
17/04/2012,7.8,15.8,0.7,2.8
18/04/2012,7.7,11.9,2.8,6.4
19/04/2012,8.4,12.9,5.8,0.4
20/04/2012,9.5,14.5,5.5,1.6
21/04/2012,9.3,16.9,5.7,8.0
22/04/2012,9.2,15.0,5.7,0.0
23/04/2012,8.4,14.3,2.2,1.8
24/04/2012,8.6,13.9,3.7,0.4
25/04/2012,14.5,20.0,10.0,0.0
26/04/2012,10.9,15.6,7.6,1.0
27/04/2012,12.5,22.7,4.0,3.6
28/04/2012,8.5,10.2,6.3,36.4
29/04/2012,8.9,14.5,5.0,1.4
30/04/2012,8.8,15.6,5.8,13.9
01/05/2012,10.1,17.9,2.8,1.2
02/05/2012,13.4,20.7,3.2,0.0
03/05/2012,15.7,22.7,6.4,0.2
04/05/2012,12.1,19.2,6.2,1.4
05/05/2012,10.6,17.0,4.7,0.2
06/05/2012,11.2,17.6,5.5,0.2
07/05/2012,14.0,23.1,3.5,0.0
08/05/2012,16.5,24.1,12.1,0.2
09/05/2012,19.4,27.3,10.6,0.4
10/05/2012,21.3,30.1,11.9,0.0
11/05/2012,21.5,32.4,11.2,0.2
12/05/2012,17.4,21.7,13.8,0.0
13/05/2012,15.2,19.4,10.8,0.0
14/05/2012,14.9,22.5,7.1,0.0
15/05/2012,11.8,17.9,6.8,0.0
16/05/2012,13.4,22.8,6.4,0.0
17/05/2012,15.9,25.3,7.7,0.0
18/05/2012,15.3,23.9,11.1,0.0
19/05/2012,12.3,17.7,9.0,0.0
20/05/2012,9.4,10.6,7.8,0.0
21/05/2012,9.7,11.1,8.0,0.0
22/05/2012,12.6,17.0,10.0,0.0
23/05/2012,16.0,23.0,9.1,0.0
24/05/2012,20.4,28.0,14.1,0.2
25/05/2012,21.6,31.1,11.2,0.2
26/05/2012,17.0,23.2,12.2,0.2
27/05/2012,17.3,25.6,7.0,0.0
28/05/2012,18.8,25.6,12.3,0.0
29/05/2012,19.8,29.5,10.7,0.0
30/05/2012,20.5,30.1,11.2,0.0
31/05/2012,21.5,31.3,12.8,0.0
01/06/2012,23.9,35.4,12.5,1.0
02/06/2012,21.9,34.1,13.3,13.3
03/06/2012,15.9,19.8,13.6,4.2
04/06/2012,16.9,22.6,10.8,0.0
05/06/2012,19.5,31.1,6.9,0.0
06/06/2012,20.6,29.0,12.1,15.9
07/06/2012,20.6,28.6,13.6,0.2
08/06/2012,15.1,19.1,11.2,0.0
09/06/2012,15.3,22.6,6.2,0.0
10/06/2012,17.7,23.8,15.0,0.2
11/06/2012,15.1,24.2,9.2,4.8
12/06/2012,13.3,19.6,7.0,1.4
13/06/2012,14.9,20.8,10.2,0.0
14/06/2012,20.4,30.5,8.0,0.0
15/06/2012,22.3,32.5,10.4,0.0
16/06/2012,20.0,32.0,11.2,0.0
17/06/2012,22.7,32.2,12.1,0.0
18/06/2012,17.9,22.8,15.5,3.6
19/06/2012,18.2,23.5,13.7,7.2
20/06/2012,22.3,30.2,13.2,0.0
21/06/2012,18.2,27.0,12.6,0.0
22/06/2012,16.7,23.7,11.4,0.0
23/06/2012,20.1,28.4,12.0,0.0
24/06/2012,21.6,30.9,11.9,0.0
25/06/2012,22.6,30.9,12.4,0.0
26/06/2012,25.5,35.1,14.4,0.0
27/06/2012,26.8,35.2,15.3,0.0
28/06/2012,23.9,35.1,16.3,0.0
29/06/2012,20.5,30.9,12.8,0.0
30/06/2012,17.6,26.3,11.3,0.0
01/07/2012,14.4,18.6,11.5,0.0
02/07/2012,17.6,25.7,7.6,0.0
03/07/2012,21.8,31.9,12.1,0.0
04/07/2012,20.2,27.4,14.9,0.0
05/07/2012,17.4,21.7,12.3,0.0
06/07/2012,18.1,24.6,11.9,0.0
07/07/2012,21.0,30.4,13.6,0.0
08/07/2012,18.8,24.8,12.1,0.0
09/07/2012,18.8,27.3,14.7,0.4
10/07/2012,18.0,23.1,15.3,0.0
11/07/2012,16.7,21.3,12.7,0.0
12/07/2012,18.6,28.7,9.0,0.0
13/07/2012,20.6,31.4,11.3,0.0
14/07/2012,17.7,22.2,14.6,0.0
15/07/2012,17.0,23.0,12.0,0.0
16/07/2012,19.4,27.8,11.3,0.0
17/07/2012,25.5,34.5,15.3,0.0
18/07/2012,24.5,36.6,13.1,0.4
19/07/2012,19.1,24.8,15.4,0.0
20/07/2012,18.5,23.4,15.2,0.0
21/07/2012,18.2,23.5,14.7,0.0
22/07/2012,19.3,25.1,15.1,0.4
23/07/2012,21.5,28.9,13.8,0.0
24/07/2012,22.6,31.9,12.4,0.0
25/07/2012,29.5,35.2,17.2,0.0
26/07/2012,26.6,35.3,19.4,0.6
27/07/2012,21.8,31.5,15.6,7.1
28/07/2012,19.4,24.5,15.7,0.0
29/07/2012,19.6,26.5,14.7,1.8
30/07/2012,20.8,31.3,11.3,0.0
31/07/2012,24.9,34.9,12.7,0.0
01/08/2012,23.3,32.8,15.1,1.2
02/08/2012,21.0,28.2,17.2,0.2
03/08/2012,20.7,27.5,16.2,0.0
04/08/2012,20.8,28.8,15.7,1.4
05/08/2012,17.5,24.9,13.6,4.0
06/08/2012,18.2,25.5,11.1,0.0
07/08/2012,21.7,32.2,10.1,0.0
08/08/2012,24.6,35.5,13.9,0.0
09/08/2012,27.0,36.9,14.9,0.0
10/08/2012,29.3,39.8,17.7,0.0
11/08/2012,24.0,32.7,18.3,3.6
12/08/2012,21.0,27.2,16.7,0.0
13/08/2012,22.4,31.5,14.1,0.0
14/08/2012,24.8,32.6,14.4,0.0
15/08/2012,22.3,27.5,13.9,0.0
16/08/2012,22.6,33.2,10.9,0.0
17/08/2012,27.2,37.2,17.2,0.0
18/08/2012,28.7,37.1,17.4,0.0
19/08/2012,27.6,36.0,20.9,0.0
20/08/2012,28.2,37.5,18.9,0.0
21/08/2012,25.0,36.9,16.8,0.0
22/08/2012,23.3,33.4,18.8,0.0
23/08/2012,23.4,34.5,16.0,0.0
24/08/2012,22.9,31.9,12.8,0.0
25/08/2012,19.2,23.6,14.7,0.6
26/08/2012,19.4,27.2,13.0,0.0
27/08/2012,22.9,33.9,11.3,0.0
28/08/2012,23.6,32.0,13.3,0.0
29/08/2012,21.8,30.9,17.4,0.0
30/08/2012,17.3,21.8,13.4,0.2
31/08/2012,15.9,20.8,12.2,0.0
01/09/2012,15.2,20.4,11.8,0.0
02/09/2012,15.8,22.1,10.6,0.0
03/09/2012,17.4,21.7,13.8,0.0
04/09/2012,18.4,23.2,14.9,0.0
05/09/2012,20.1,25.7,16.4,0.0
06/09/2012,21.7,29.4,12.8,0.0
07/09/2012,22.6,32.4,12.7,0.0
08/09/2012,22.0,32.6,14.2,0.6
09/09/2012,22.1,32.0,12.3,0.2
10/09/2012,22.2,29.9,14.9,0.0
11/09/2012,21.7,30.3,15.0,0.0
12/09/2012,18.0,22.0,13.6,0.0
13/09/2012,15.6,20.4,10.6,0.6
14/09/2012,17.0,23.3,12.6,0.0
15/09/2012,19.2,27.9,12.5,0.0
16/09/2012,19.8,29.5,8.7,0.0
17/09/2012,21.7,30.3,14.2,0.0
18/09/2012,17.9,21.5,16.1,0.2
19/09/2012,16.8,21.6,12.8,0.0
20/09/2012,18.5,28.7,7.1,0.0
21/09/2012,21.0,29.7,14.9,2.8
22/09/2012,21.2,29.1,12.5,0.0
23/09/2012,21.9,31.0,17.6,2.2
24/09/2012,18.9,25.8,13.4,0.4
25/09/2012,15.9,21.2,11.3,5.7
26/09/2012,13.8,19.7,9.6,5.7
27/09/2012,14.2,21.6,7.4,0.0
28/09/2012,15.6,19.9,11.0,4.9
29/09/2012,13.2,15.1,11.8,6.3
30/09/2012,13.4,18.0,8.8,0.0
01/10/2012,13.1,22.2,4.9,0.0
02/10/2012,15.1,25.2,6.1,0.0
03/10/2012,16.5,25.9,8.0,0.2
04/10/2012,16.4,25.0,9.2,0.0
05/10/2012,17.5,26.7,9.2,0.0
06/10/2012,18.2,27.2,9.4,0.0
07/10/2012,19.8,27.0,14.7,0.0
08/10/2012,20.1,30.0,14.3,0.0
09/10/2012,20.9,29.5,13.1,0.0
10/10/2012,19.5,26.4,15.2,16.2
11/10/2012,16.5,23.9,13.6,14.8
12/10/2012,13.0,16.0,10.1,0.4
13/10/2012,11.9,19.0,5.7,0.4
14/10/2012,10.6,18.2,6.1,0.0
15/10/2012,10.4,15.8,5.7,0.0
16/10/2012,12.7,19.0,6.0,0.2
17/10/2012,17.6,22.0,13.8,0.0
18/10/2012,19.6,21.5,17.6,0.0
19/10/2012,14.6,21.7,11.9,0.2
20/10/2012,12.4,13.4,11.7,1.4
21/10/2012,14.0,18.2,11.5,78.8
22/10/2012,14.0,21.0,10.2,2.2
23/10/2012,13.4,20.9,8.2,0.2
24/10/2012,14.3,21.0,7.9,2.4
25/10/2012,15.4,19.3,13.0,30.7
26/10/2012,14.3,16.4,11.3,1.4
27/10/2012,8.2,12.5,2.8,9.3
28/10/2012,4.6,7.9,1.7,1.0
29/10/2012,5.7,14.3,-0.5,0.2
30/10/2012,6.2,11.5,0.0,0.2
31/10/2012,9.2,15.4,3.9,0.0
01/11/2012,9.1,15.1,3.2,1.2
02/11/2012,12.7,19.1,7.1,0.0
03/11/2012,13.6,15.3,10.1,1.2
04/11/2012,10.8,12.8,6.4,10.5
05/11/2012,7.3,13.4,2.1,0.2
06/11/2012,7.4,11.0,4.2,0.4
07/11/2012,6.5,13.3,0.2,0.0
08/11/2012,9.4,13.8,6.6,1.0
09/11/2012,11.5,15.2,9.2,2.6
10/11/2012,10.7,15.1,7.1,4.0
11/11/2012,7.5,10.2,4.7,0.0
12/11/2012,8.0,11.3,5.2,0.2
13/11/2012,8.7,15.9,4.1,0.0
14/11/2012,10.4,19.4,3.8,0.0
15/11/2012,10.8,18.3,5.6,0.2
16/11/2012,10.3,18.2,5.7,0.2
17/11/2012,12.4,16.4,9.8,2.2
18/11/2012,10.2,13.2,6.4,11.7
19/11/2012,7.5,14.5,2.0,0.2
20/11/2012,7.7,13.8,2.3,0.0
21/11/2012,9.9,12.9,6.8,0.4
22/11/2012,6.8,14.3,1.5,0.0
23/11/2012,7.6,13.3,1.8,0.2
24/11/2012,11.9,14.4,8.1,0.0
25/11/2012,11.3,14.3,9.7,1.4
26/11/2012,8.7,12.8,4.6,13.1
27/11/2012,5.6,8.5,3.8,0.4
28/11/2012,3.9,5.8,1.3,31.7
29/11/2012,3.4,4.7,2.0,8.5
30/11/2012,3.0,4.5,1.7,12.1
01/12/2012,2.2,4.8,0.6,1.8
02/12/2012,5.1,9.6,0.0,0.0
03/12/2012,7.9,14.4,3.2,0.0
04/12/2012,6.3,9.0,3.8,1.0
05/12/2012,4.9,7.1,2.7,5.9
06/12/2012,5.0,10.4,1.2,0.0
07/12/2012,6.1,11.1,2.2,1.2
08/12/2012,6.1,8.8,4.4,3.2
09/12/2012,4.5,8.8,0.5,0.0
10/12/2012,4.4,8.5,-1.1,0.2
11/12/2012,5.1,9.1,-1.9,0.0
12/12/2012,0.4,3.9,-3.3,0.0
13/12/2012,4.4,7.4,1.2,4.7
14/12/2012,9.8,12.3,5.6,6.5
15/12/2012,9.8,13.7,6.1,0.0
16/12/2012,9.4,13.0,6.4,3.2
17/12/2012,7.8,13.2,3.6,0.2
18/12/2012,5.8,10.5,0.7,1.4
19/12/2012,8.5,10.7,6.5,0.0
20/12/2012,10.4,13.6,8.7,0.6
21/12/2012,9.7,14.4,6.6,0.2
22/12/2012,8.6,16.0,4.9,0.0
23/12/2012,5.5,8.4,2.8,0.4
24/12/2012,8.9,15.2,2.9,0.2
25/12/2012,9.7,14.7,6.5,0.0
26/12/2012,7.6,13.0,0.9,0.0
27/12/2012,5.3,12.4,-0.8,0.2
28/12/2012,7.4,13.7,2.8,0.0
29/12/2012,4.2,8.8,-0.3,0.2
30/12/2012,3.8,10.2,-0.5,0.2
31/12/2012,3.1,8.5,-2.4,2.4
