Fecha, Temperatura media, Temperatura maxima, Temperatura minima, Precipitacion acumulada
01/01/2011,5.3,11.3,0.2,0.0
02/01/2011,5.0,7.9,0.8,0.0
03/01/2011,0.1,4.2,-3.5,0.0
04/01/2011,1.3,5.0,-3.3,1.3
05/01/2011,6.7,9.2,3.7,1.6
06/01/2011,11.1,13.7,8.7,0.2
07/01/2011,11.4,12.6,9.3,0.0
08/01/2011,10.4,11.9,8.7,1.5
09/01/2011,6.2,9.7,1.1,5.2
10/01/2011,3.0,8.6,-2.6,1.3
11/01/2011,6.2,9.5,3.9,8.3
12/01/2011,9.2,13.2,6.2,0.3
13/01/2011,7.7,14.8,2.6,0.1
14/01/2011,5.3,13.8,-0.2,0.1
15/01/2011,5.6,13.4,0.2,0.0
16/01/2011,4.6,14.0,-0.6,0.0
17/01/2011,3.6,12.4,-1.1,0.3
18/01/2011,3.8,7.7,-0.2,0.0
19/01/2011,5.2,8.4,2.9,0.1
20/01/2011,3.2,10.2,-1.4,0.0
21/01/2011,-0.9,1.5,-3.2,0.0
22/01/2011,-3.0,0.6,-5.3,0.0
23/01/2011,-1.5,5.1,-4.3,0.0
24/01/2011,-1.3,5.5,-6.5,0.0
25/01/2011,-1.6,4.5,-6.3,0.0
26/01/2011,-1.6,6.9,-7.3,0.0
27/01/2011,-0.1,7.1,-6.0,0.0
28/01/2011,1.6,3.7,-1.5,11.0
29/01/2011,3.1,7.0,1.5,0.0
30/01/2011,2.8,4.6,1.5,0.0
31/01/2011,2.0,4.1,0.8,0.0
01/02/2011,2.3,3.7,0.6,0.0
02/02/2011,4.4,7.7,0.3,0.0
03/02/2011,5.7,8.9,1.5,0.0
04/02/2011,7.0,12.7,2.4,0.0
05/02/2011,8.5,18.8,2.1,0.0
06/02/2011,5.8,17.2,-1.8,0.0
07/02/2011,5.5,16.7,-1.9,0.0
08/02/2011,4.9,15.1,-1.9,0.0
09/02/2011,4.3,14.3,-3.1,0.1
10/02/2011,4.8,14.1,-2.3,0.0
11/02/2011,4.8,14.2,-1.0,0.0
12/02/2011,3.8,11.0,-1.8,0.0
13/02/2011,5.5,10.8,-1.2,5.8
14/02/2011,4.8,9.1,0.9,2.6
15/02/2011,4.0,6.6,1.2,5.0
16/02/2011,4.7,7.9,0.1,0.1
17/02/2011,5.5,10.1,2.4,0.0
18/02/2011,7.1,14.1,1.0,0.0
19/02/2011,6.1,9.0,4.1,2.9
20/02/2011,5.6,13.9,-1.9,0.8
21/02/2011,5.0,9.0,3.0,30.5
22/02/2011,8.5,10.2,6.0,11.4
23/02/2011,9.2,11.4,8.0,3.4
24/02/2011,9.0,12.7,5.9,0.0
25/02/2011,10.1,16.0,6.0,0.0
26/02/2011,8.6,11.9,4.5,0.5
27/02/2011,3.8,6.4,1.3,11.7
28/02/2011,1.5,3.6,-0.3,23.1
01/03/2011,2.3,3.9,0.5,0.1
02/03/2011,3.2,4.4,1.9,0.1
03/03/2011,2.4,5.5,-0.2,0.0
04/03/2011,2.5,8.0,-0.9,2.9
05/03/2011,4.9,12.5,-1.1,0.0
06/03/2011,5.2,14.1,-2.4,0.0
07/03/2011,6.5,15.2,-1.9,0.0
08/03/2011,7.9,11.0,3.7,0.0
09/03/2011,8.0,14.3,1.7,0.0
10/03/2011,7.3,16.3,-0.3,0.0
11/03/2011,8.0,15.4,0.5,0.9
12/03/2011,6.7,9.5,4.8,5.4
13/03/2011,8.2,15.0,1.7,0.0
14/03/2011,10.5,14.0,5.9,0.0
15/03/2011,9.3,11.6,8.0,19.2
16/03/2011,9.6,12.3,8.0,6.3
17/03/2011,8.2,9.4,6.4,5.2
18/03/2011,8.2,14.2,4.4,0.0
19/03/2011,8.1,12.2,3.9,0.0
20/03/2011,7.8,14.0,2.1,0.0
21/03/2011,6.9,15.3,-0.2,0.0
22/03/2011,5.5,8.6,2.3,0.0
23/03/2011,6.8,15.3,-1.6,0.0
24/03/2011,8.2,12.3,1.5,0.0
25/03/2011,10.8,14.7,7.4,0.0
26/03/2011,12.4,18.2,5.2,0.0
27/03/2011,8.9,12.8,4.5,5.5
28/03/2011,8.7,14.2,5.4,1.7
29/03/2011,9.8,14.5,6.7,3.9
30/03/2011,9.8,14.8,4.9,1.9
31/03/2011,13.7,20.5,7.5,0.0
01/04/2011,14.6,22.8,4.6,0.0
02/04/2011,16.2,23.4,8.9,0.0
03/04/2011,9.9,13.8,7.1,6.2
04/04/2011,9.1,14.0,4.5,0.0
05/04/2011,13.5,24.9,3.0,0.0
06/04/2011,15.9,26.3,6.7,0.0
07/04/2011,16.4,26.7,7.4,0.0
08/04/2011,17.3,28.2,7.9,0.0
09/04/2011,16.1,28.3,7.5,0.0
10/04/2011,11.5,13.8,9.6,0.0
11/04/2011,11.1,13.1,9.7,0.0
12/04/2011,11.0,15.5,6.4,0.0
13/04/2011,12.0,21.7,4.6,0.0
14/04/2011,10.5,16.6,4.3,0.0
15/04/2011,10.0,15.3,5.4,0.0
16/04/2011,10.6,19.1,2.1,0.0
17/04/2011,12.9,20.0,5.2,0.0
18/04/2011,13.3,20.4,6.3,0.0
19/04/2011,13.0,20.5,4.2,0.0
20/04/2011,13.4,17.8,9.0,0.2
21/04/2011,14.5,19.7,9.5,0.0
22/04/2011,11.3,14.4,8.5,8.0
23/04/2011,11.8,17.1,6.7,4.1
24/04/2011,11.9,16.8,9.6,9.9
25/04/2011,12.4,16.3,10.3,0.0
26/04/2011,13.0,18.4,8.0,0.0
27/04/2011,13.1,18.3,7.4,0.0
28/04/2011,12.8,18.6,7.1,0.0
29/04/2011,12.1,21.0,3.4,0.0
30/04/2011,13.9,20.5,6.7,0.0
01/05/2011,15.3,19.7,12.1,0.0
02/05/2011,14.2,20.7,6.9,0.0
03/05/2011,12.3,18.0,5.7,0.0
04/05/2011,12.6,19.7,4.1,0.0
05/05/2011,14.2,23.7,3.8,0.0
06/05/2011,17.3,22.8,9.4,0.0
07/05/2011,13.5,18.2,10.2,13.6
08/05/2011,14.4,22.1,6.3,0.0
09/05/2011,15.6,25.4,5.2,0.0
10/05/2011,16.9,25.2,8.3,0.0
11/05/2011,18.3,28.0,8.7,0.0
12/05/2011,15.4,20.6,11.2,0.0
13/05/2011,15.3,22.9,9.1,0.1
14/05/2011,11.6,13.8,7.8,3.0
15/05/2011,10.2,16.2,5.2,0.0
16/05/2011,13.1,21.0,3.8,0.0
17/05/2011,15.5,26.2,4.0,0.0
18/05/2011,17.1,25.8,6.3,0.0
19/05/2011,15.1,23.2,8.3,1.9
20/05/2011,15.2,23.5,6.5,0.0
21/05/2011,17.3,25.9,7.7,0.0
22/05/2011,15.7,21.2,11.4,0.0
23/05/2011,17.5,28.4,6.3,0.0
24/05/2011,16.6,22.7,11.2,0.0
25/05/2011,19.1,31.6,5.7,6.7
26/05/2011,15.3,20.4,10.8,0.3
27/05/2011,12.6,17.5,7.8,0.0
28/05/2011,14.4,24.3,4.0,0.0
29/05/2011,17.9,29.8,5.8,0.0
30/05/2011,17.3,25.2,13.3,2.0
31/05/2011,12.4,16.2,7.2,0.8
01/06/2011,11.1,15.3,7.1,0.0
02/06/2011,13.1,17.1,10.9,0.0
03/06/2011,15.5,23.0,6.5,0.0
04/06/2011,15.7,23.1,10.3,0.3
05/06/2011,15.2,22.0,8.0,2.5
06/06/2011,14.9,22.8,10.1,26.0
07/06/2011,11.9,13.6,9.4,5.7
08/06/2011,11.6,16.6,7.1,0.2
09/06/2011,14.0,23.3,6.2,1.9
10/06/2011,12.3,17.7,6.6,1.4
11/06/2011,13.6,20.2,5.8,0.0
12/06/2011,18.3,28.0,7.6,0.0
13/06/2011,18.8,27.3,11.0,0.0
14/06/2011,19.8,29.3,10.7,0.0
15/06/2011,20.6,30.1,12.6,0.0
16/06/2011,15.9,21.0,11.8,0.0
17/06/2011,18.0,29.0,9.2,0.0
18/06/2011,14.2,19.0,8.6,0.0
19/06/2011,17.0,25.5,6.4,0.0
20/06/2011,21.9,33.0,9.5,0.4
21/06/2011,22.3,34.9,13.8,2.6
22/06/2011,16.7,21.8,12.1,0.0
23/06/2011,14.9,20.8,10.5,0.0
24/06/2011,16.5,24.5,7.9,0.0
25/06/2011,21.7,34.7,8.0,0.0
26/06/2011,26.6,36.8,14.1,0.0
27/06/2011,27.6,35.9,17.6,0.1
28/06/2011,19.7,27.8,13.1,2.3
29/06/2011,13.4,16.7,11.2,0.0
30/06/2011,16.2,23.3,10.4,0.0
01/07/2011,18.3,26.4,9.7,0.0
02/07/2011,21.2,33.7,7.6,0.0
03/07/2011,21.7,31.9,16.1,0.3
04/07/2011,19.5,26.0,12.7,0.0
05/07/2011,20.5,33.0,8.6,0.0
06/07/2011,18.1,24.8,12.2,0.0
07/07/2011,16.1,23.9,11.0,0.0
08/07/2011,19.0,28.8,6.4,0.0
09/07/2011,21.2,30.9,14.2,8.4
10/07/2011,19.6,26.8,15.5,0.0
11/07/2011,23.6,33.1,13.3,0.0
12/07/2011,19.4,29.5,13.2,3.2
13/07/2011,14.6,19.0,12.5,0.0
14/07/2011,17.3,23.0,12.3,0.0
15/07/2011,18.7,27.9,7.9,0.0
16/07/2011,21.6,31.4,14.0,0.0
17/07/2011,15.1,19.7,8.8,0.5
18/07/2011,17.1,25.1,8.3,0.3
19/07/2011,13.2,15.5,11.2,2.6
20/07/2011,15.9,23.4,9.6,0.1
21/07/2011,16.6,21.9,13.2,0.0
22/07/2011,14.6,20.0,10.8,0.0
23/07/2011,14.5,19.6,10.9,0.0
24/07/2011,15.4,19.9,12.4,1.7
25/07/2011,16.8,20.3,14.3,0.3
26/07/2011,17.5,22.1,13.7,0.0
27/07/2011,17.7,23.9,13.2,0.0
28/07/2011,18.1,24.3,12.2,0.0
29/07/2011,19.2,27.1,10.7,0.0
30/07/2011,20.1,26.1,14.4,0.0
31/07/2011,19.9,28.5,10.1,0.0
01/08/2011,22.6,32.7,9.6,0.0
02/08/2011,23.0,29.1,18.1,3.1
03/08/2011,20.6,27.5,15.5,0.0
04/08/2011,21.6,32.8,10.5,0.0
05/08/2011,21.3,31.4,15.8,0.0
06/08/2011,21.6,30.3,15.0,0.0
07/08/2011,20.0,29.2,13.9,0.0
08/08/2011,16.2,21.4,11.7,0.0
09/08/2011,15.9,21.4,11.2,0.0
10/08/2011,18.8,29.7,8.2,0.0
11/08/2011,20.5,33.6,9.7,0.0
12/08/2011,20.6,33.6,11.3,0.0
13/08/2011,23.6,34.2,13.6,0.0
14/08/2011,22.3,29.9,14.9,0.0
15/08/2011,21.7,28.3,16.1,0.0
16/08/2011,23.8,35.2,13.1,0.0
17/08/2011,24.1,36.9,15.7,0.0
18/08/2011,21.2,29.5,14.0,0.8
19/08/2011,26.3,36.5,14.4,0.0
20/08/2011,29.5,39.2,17.5,0.3
21/08/2011,28.7,38.2,20.2,0.0
22/08/2011,25.8,33.3,19.6,0.0
23/08/2011,22.2,31.5,16.0,0.0
24/08/2011,19.8,26.8,15.3,0.6
25/08/2011,22.9,31.8,11.7,0.0
26/08/2011,17.7,21.9,12.4,2.0
27/08/2011,15.3,22.3,8.8,0.0
28/08/2011,18.0,30.6,6.2,0.0
29/08/2011,18.8,29.5,12.0,0.0
30/08/2011,20.7,31.5,9.4,0.0
31/08/2011,22.1,28.6,15.5,3.2
01/09/2011,22.3,30.9,14.9,3.3
02/09/2011,20.4,28.1,13.4,13.7
03/09/2011,18.4,25.7,13.7,0.9
04/09/2011,17.2,23.8,12.5,0.0
05/09/2011,14.8,20.1,9.6,0.0
06/09/2011,17.2,28.7,6.2,0.0
07/09/2011,19.2,28.5,10.3,0.0
08/09/2011,21.0,31.9,12.1,0.0
09/09/2011,22.2,34.0,10.6,0.0
10/09/2011,24.3,34.7,16.3,0.0
11/09/2011,18.4,24.4,12.9,0.0
12/09/2011,20.1,30.4,10.3,0.0
13/09/2011,19.9,33.3,10.8,0.0
14/09/2011,21.1,29.5,15.3,0.1
15/09/2011,22.9,32.7,16.2,7.1
16/09/2011,21.8,31.3,16.2,1.1
17/09/2011,17.8,24.2,14.3,0.3
18/09/2011,12.8,16.5,10.0,1.1
19/09/2011,12.6,16.6,9.3,1.6
20/09/2011,16.7,27.1,8.7,0.0
21/09/2011,17.8,29.9,7.7,0.0
22/09/2011,17.7,27.3,12.1,0.0
23/09/2011,18.9,29.1,9.7,0.0
24/09/2011,18.3,25.5,11.8,0.0
25/09/2011,17.9,26.2,9.3,0.0
26/09/2011,18.9,30.1,9.4,0.0
27/09/2011,19.4,30.1,9.6,0.0
28/09/2011,19.3,28.2,11.0,0.0
29/09/2011,18.9,27.9,10.3,0.0
30/09/2011,17.9,26.7,9.6,0.0
01/10/2011,17.1,26.2,8.4,0.0
02/10/2011,16.8,27.7,6.6,0.0
03/10/2011,17.3,29.4,6.3,0.0
04/10/2011,18.5,29.4,9.5,0.0
05/10/2011,18.3,26.9,12.5,0.0
06/10/2011,17.0,23.2,10.7,0.0
07/10/2011,12.2,15.6,9.1,1.9
08/10/2011,11.1,14.8,8.9,0.8
09/10/2011,13.5,18.4,10.0,0.0
10/10/2011,16.3,28.0,6.0,0.0
11/10/2011,17.7,29.2,7.1,0.0
12/10/2011,16.6,28.3,7.8,0.0
13/10/2011,15.0,22.0,10.7,0.0
14/10/2011,14.0,24.5,5.6,0.0
15/10/2011,13.5,22.7,6.0,0.0
16/10/2011,13.3,23.0,5.9,0.0
17/10/2011,11.8,22.1,3.3,0.0
18/10/2011,12.9,22.9,4.0,0.0
19/10/2011,10.7,17.2,6.6,0.7
20/10/2011,9.0,14.2,5.5,0.0
21/10/2011,7.7,16.5,-0.7,0.0
22/10/2011,10.6,20.0,2.2,0.0
23/10/2011,15.3,21.0,7.3,0.0
24/10/2011,12.9,15.1,8.7,4.0
25/10/2011,8.8,14.1,3.7,0.0
26/10/2011,10.8,14.6,4.5,0.0
27/10/2011,12.1,14.6,7.3,3.5
28/10/2011,11.3,14.0,8.6,0.8
29/10/2011,12.4,16.0,9.5,0.5
30/10/2011,10.9,19.7,4.8,0.0
31/10/2011,12.4,19.3,4.9,0.0
01/11/2011,15.0,17.4,12.4,2.7
02/11/2011,15.6,16.6,14.0,1.3
03/11/2011,13.3,15.5,10.2,24.1
04/11/2011,11.5,14.5,9.0,3.2
05/11/2011,9.3,11.0,7.6,26.6
06/11/2011,10.6,12.6,8.8,30.6
07/11/2011,11.1,12.7,9.5,0.5
08/11/2011,10.8,16.7,7.4,0.0
09/11/2011,11.2,17.0,6.3,2.1
10/11/2011,12.1,15.9,9.1,4.7
11/11/2011,13.9,18.0,11.1,0.0
12/11/2011,14.1,19.6,9.0,0.0
13/11/2011,14.7,17.7,12.2,0.0
14/11/2011,13.3,14.7,10.8,0.0
15/11/2011,10.3,12.9,6.5,8.4
16/11/2011,9.0,14.7,5.9,0.0
17/11/2011,7.8,13.9,2.5,0.0
18/11/2011,9.6,12.9,4.7,0.0
19/11/2011,11.1,14.0,8.7,0.3
20/11/2011,11.9,14.9,8.9,0.0
21/11/2011,10.1,16.3,5.8,0.0
22/11/2011,8.4,12.6,3.4,0.3
23/11/2011,11.3,15.4,6.3,0.0
24/11/2011,9.4,15.9,3.5,0.0
25/11/2011,7.1,13.4,0.1,0.0
26/11/2011,8.9,15.3,2.7,0.0
27/11/2011,4.7,13.5,-0.7,0.0
28/11/2011,2.0,7.9,-2.6,0.0
29/11/2011,4.1,10.2,1.5,0.1
30/11/2011,3.0,4.6,1.5,0.3
01/12/2011,3.7,7.1,2.0,0.0
02/12/2011,6.1,7.6,4.5,6.9
03/12/2011,6.3,9.1,3.0,0.0
04/12/2011,7.1,12.1,3.7,0.0
05/12/2011,7.5,9.9,5.7,3.1
06/12/2011,7.8,10.8,5.9,0.8
07/12/2011,8.9,13.2,7.1,0.0
08/12/2011,8.1,14.0,2.9,0.0
09/12/2011,3.8,8.3,0.3,0.0
10/12/2011,3.5,5.2,1.6,0.1
11/12/2011,3.7,5.7,1.3,0.1
12/12/2011,5.9,11.3,3.3,0.5
13/12/2011,6.9,10.1,2.2,0.0
14/12/2011,7.9,12.6,2.3,0.0
15/12/2011,5.9,10.3,2.1,0.0
16/12/2011,6.7,9.5,3.9,10.9
17/12/2011,1.9,5.3,-0.2,29.3
18/12/2011,0.7,4.0,-0.3,20.0
19/12/2011,2.2,4.2,-0.1,5.2
20/12/2011,5.6,9.2,2.1,5.7
21/12/2011,9.6,12.5,7.9,0.8
22/12/2011,8.2,10.3,4.3,0.0
23/12/2011,5.3,11.6,-0.4,0.1
24/12/2011,5.1,7.8,1.8,0.9
25/12/2011,3.2,7.9,-1.8,0.0
26/12/2011,0.6,10.1,-4.1,0.0
27/12/2011,0.9,9.1,-4.1,0.1
28/12/2011,3.7,10.5,-3.9,0.0
29/12/2011,4.5,6.7,2.1,4.3
30/12/2011,5.1,7.3,2.8,1.9
31/12/2011,8.1,10.2,5.7,0.5
