Fecha, Temperatura media, Temperatura maxima, Temperatura minima, Precipitacion acumulada
01/01/2013,-,9.0,1.0,28.6
02/01/2013,-,9.0,7.0,1.0
03/01/2013,-,13.0,2.0,0.0
04/01/2013,-,13.0,-1.0,0.2
05/01/2013,-,8.0,0.0,0.0
06/01/2013,-,8.0,4.0,0.0
07/01/2013,-,5.0,4.0,0.0
08/01/2013,-,9.0,3.0,0.0
09/01/2013,-,8.0,1.0,2.0
10/01/2013,-,13.0,1.0,4.3
11/01/2013,-,13.0,4.0,0.0
12/01/2013,-,9.0,0.0,12.3
13/01/2013,-,5.0,1.0,27.3
14/01/2013,-,8.0,2.0,62.3
15/01/2013,-,8.0,4.0,66.9
16/01/2013,-,9.0,6.0,40.0
17/01/2013,-,7.0,3.0,14.8
18/01/2013,-,14.0,4.0,18.0
19/01/2013,-,13.0,7.0,35.9
20/01/2013,-,7.0,5.0,13.0
21/01/2013,-,7.0,5.0,6.1
22/01/2013,-,9.0,-1.0,10.5
23/01/2013,-,5.0,0.0,67.0
24/01/2013,-,8.0,3.0,16.1
25/01/2013,-,10.0,0.0,21.8
26/01/2013,-,12.0,2.0,11.8
27/01/2013,-,12.0,4.0,21.0
28/01/2013,-,13.0,6.0,0.0
29/01/2013,-,15.0,2.0,0.0
30/01/2013,-,17.0,4.0,0.0
31/01/2013,-,20.0,8.0,0.0
01/02/2013,-,17.0,6.0,41.2
02/02/2013,-,8.0,4.0,18.2
03/02/2013,-,8.0,0.0,3.2
04/02/2013,-,10.0,5.0,11.1
05/02/2013,-,12.0,8.0,23.1
06/02/2013,-,8.0,4.0,42.0
07/02/2013,-,5.0,2.0,30.6
08/02/2013,-,5.0,4.0,28.1
09/02/2013,-,5.0,2.0,18.5
10/02/2013,-,9.0,4.0,11.3
11/02/2013,-,9.0,3.0,17.5
12/02/2013,-,6.0,4.0,28.4
13/02/2013,-,9.0,4.0,35.4
14/02/2013,-,9.0,5.0,3.0
15/02/2013,-,13.0,8.0,0.0
16/02/2013,-,13.0,0.0,0.0
17/02/2013,-,13.0,0.0,1.2
18/02/2013,-,13.0,2.0,0.0
19/02/2013,-,16.0,3.0,0.0
20/02/2013,-,17.0,2.0,0.0
21/02/2013,-,13.0,4.0,2.5
22/02/2013,-,9.0,5.0,0.0
23/02/2013,-,1.0,-1.0,0.3
24/02/2013,-,1.0,0.0,7.0
25/02/2013,-,4.0,0.0,11.5
26/02/2013,-,5.0,0.0,0.6
27/02/2013,-,9.0,-2.0,0.0
28/02/2013,-,9.0,0.0,0.6
01/03/2013,-,12.0,3.0,0.0
02/03/2013,-,9.0,1.0,0.0
03/03/2013,-,17.0,-1.0,0.0
04/03/2013,-,17.0,2.0,0.0
05/03/2013,-,16.0,12.0,0.0
06/03/2013,-,21.0,9.0,0.0
07/03/2013,-,21.0,11.0,14.9
08/03/2013,-,17.0,7.0,1.5
09/03/2013,-,17.0,6.0,0.0
10/03/2013,-,17.0,8.0,0.0
11/03/2013,-,17.0,4.0,19.7
12/03/2013,-,9.0,7.0,22.5
13/03/2013,-,2.0,1.0,15.0
14/03/2013,-,5.0,0.0,7.5
15/03/2013,-,9.0,0.0,0.0
16/03/2013,-,12.0,0.0,2.4
17/03/2013,-,9.0,8.0,4.0
18/03/2013,-,12.0,3.0,2.6
19/03/2013,-,14.0,4.0,4.4
20/03/2013,-,13.0,6.0,0.0
21/03/2013,-,20.0,1.0,0.0
22/03/2013,-,21.0,5.0,0.0
23/03/2013,-,17.0,6.0,0.0
24/03/2013,-,17.0,4.0,0.8
25/03/2013,-,13.0,6.0,15.2
26/03/2013,-,13.0,9.0,3.0
27/03/2013,-,17.0,10.0,19.0
28/03/2013,-,13.0,9.0,3.0
29/03/2013,-,10.0,9.0,28.4
30/03/2013,-,13.0,12.0,1.5
31/03/2013,-,17.0,5.0,12.0
01/04/2013,-,13.0,8.0,4.0
02/04/2013,-,13.0,9.0,2.7
03/04/2013,-,21.0,5.0,4.5
04/04/2013,-,10.0,5.0,4.6
05/04/2013,-,7.0,5.0,29.0
06/04/2013,-,9.0,1.0,1.0
07/04/2013,-,13.0,2.0,5.2
08/04/2013,-,13.0,7.0,0.0
09/04/2013,-,13.0,8.0,0.5
10/04/2013,-,21.0,5.0,0.0
11/04/2013,-,19.0,9.0,5.0
12/04/2013,-,17.0,8.0,0.6
13/04/2013,-,25.0,7.0,0.0
14/04/2013,-,29.0,10.0,0.4
15/04/2013,-,25.0,9.0,0.0
16/04/2013,-,25.0,9.0,0.0
17/04/2013,-,29.0,10.0,0.0
18/04/2013,-,15.0,9.0,3.3
19/04/2013,-,13.0,8.0,0.0
20/04/2013,-,13.0,4.0,0.0
21/04/2013,-,16.0,4.0,0.0
22/04/2013,-,13.0,5.0,0.0
23/04/2013,-,17.0,8.0,0.0
24/04/2013,-,24.0,4.0,0.0
25/04/2013,-,25.0,8.0,0.6
26/04/2013,-,13.0,12.0,17.3
27/04/2013,-,12.0,5.0,6.4
28/04/2013,-,12.0,3.0,4.7
29/04/2013,-,13.0,4.0,16.0
30/04/2013,-,17.0,8.0,6.2
01/05/2013,-,17.0,8.0,7.0
02/05/2013,-,12.0,9.0,10.0
03/05/2013,-,13.0,9.0,0.9
04/05/2013,-,17.0,9.0,0.0
05/05/2013,-,21.0,8.0,0.0
06/05/2013,-,25.0,8.0,0.5
07/05/2013,-,21.0,12.0,0.0
08/05/2013,-,17.0,13.0,1.9
09/05/2013,-,15.0,12.0,12.5
10/05/2013,-,16.0,11.0,0.0
11/05/2013,-,16.0,8.0,0.4
12/05/2013,-,13.0,9.0,0.0
13/05/2013,-,17.0,9.0,0.0
14/05/2013,-,25.0,10.0,12.1
15/05/2013,-,9.0,7.0,10.0
16/05/2013,-,13.0,8.0,0.0
17/05/2013,-,16.0,6.0,45.0
18/05/2013,-,10.0,6.0,29.8
19/05/2013,-,13.0,8.0,2.6
20/05/2013,-,17.0,8.0,0.5
21/05/2013,-,11.0,4.0,7.3
22/05/2013,-,13.0,5.0,10.0
23/05/2013,-,13.0,11.0,5.3
24/05/2013,-,13.0,8.0,4.4
25/05/2013,-,13.0,8.0,0.7
26/05/2013,-,21.0,4.0,0.0
27/05/2013,-,17.0,8.0,20.5
28/05/2013,-,13.0,9.0,10.3
29/05/2013,-,12.0,8.0,18.3
30/05/2013,-,12.0,8.0,15.9
31/05/2013,-,13.0,11.0,29.0
01/06/2013,-,13.0,11.0,3.5
02/06/2013,-,13.0,11.0,1.2
03/06/2013,-,17.0,11.0,0.0
04/06/2013,-,21.0,8.0,0.0
05/06/2013,-,29.0,8.0,0.0
06/06/2013,-,28.0,12.0,0.0
07/06/2013,-,24.0,16.0,18.0
08/06/2013,-,14.0,12.0,76.3
09/06/2013,-,17.0,12.0,6.5
10/06/2013,-,21.0,12.0,0.5
11/06/2013,-,25.0,13.0,0.0
12/06/2013,-,29.0,12.0,0.0
13/06/2013,-,17.0,16.0,2.0
14/06/2013,-,29.0,12.0,0.0
15/06/2013,-,21.0,12.0,0.0
16/06/2013,-,33.0,13.0,0.0
17/06/2013,-,25.0,16.0,7.9
18/06/2013,-,15.0,13.0,27.0
19/06/2013,-,17.0,12.0,4.4
20/06/2013,-,13.0,12.0,8.8
21/06/2013,-,17.0,12.0,1.3
22/06/2013,-,25.0,12.0,1.2
23/06/2013,-,17.0,13.0,0.8
24/06/2013,-,17.0,12.0,0.0
25/06/2013,-,19.0,12.0,0.0
26/06/2013,-,21.0,12.0,0.0
27/06/2013,-,21.0,12.0,0.0
28/06/2013,-,21.0,12.0,0.0
29/06/2013,-,17.0,12.0,0.0
30/06/2013,-,21.0,13.0,0.0
01/07/2013,-,24.0,12.0,0.0
02/07/2013,-,25.0,13.0,0.0
03/07/2013,-,21.0,16.0,1.0
04/07/2013,-,23.0,17.0,0.0
05/07/2013,-,28.0,16.0,0.0
06/07/2013,-,29.0,16.0,0.0
07/07/2013,-,29.0,12.0,0.0
08/07/2013,-,29.0,16.0,0.0
09/07/2013,-,33.0,18.0,0.0
10/07/2013,-,29.0,16.0,0.0
11/07/2013,-,29.0,17.0,0.0
12/07/2013,-,33.0,20.0,8.0
13/07/2013,-,29.0,17.0,0.0
14/07/2013,-,28.0,16.0,0.0
15/07/2013,-,29.0,16.0,0.0
16/07/2013,-,29.0,17.0,6.5
17/07/2013,-,25.0,17.0,0.0
18/07/2013,-,25.0,16.0,0.0
19/07/2013,-,31.0,16.0,0.0
20/07/2013,-,33.0,18.0,0.0
21/07/2013,-,31.0,17.0,0.0
22/07/2013,-,33.0,16.0,7.5
23/07/2013,-,29.0,20.0,0.0
24/07/2013,-,31.0,20.0,0.0
25/07/2013,-,29.0,21.0,0.0
26/07/2013,-,33.0,20.0,1.0
27/07/2013,-,29.0,20.0,3.0
28/07/2013,-,29.0,17.0,2.4
29/07/2013,-,25.0,13.0,0.0
30/07/2013,-,29.0,16.0,0.0
31/07/2013,-,37.0,16.0,0.0
01/08/2013,-,37.0,17.0,0.0
02/08/2013,-,37.0,20.0,1.2
03/08/2013,-,25.0,18.0,0.0
04/08/2013,-,29.0,19.0,0.0
05/08/2013,-,21.0,17.0,0.9
06/08/2013,-,21.0,18.0,0.5
07/08/2013,-,21.0,17.0,2.0
08/08/2013,-,21.0,15.0,2.5
09/08/2013,-,25.0,13.0,0.0
10/08/2013,-,25.0,14.0,0.0
11/08/2013,-,29.0,16.0,0.0
12/08/2013,-,27.0,16.0,0.0
13/08/2013,-,25.0,16.0,0.0
14/08/2013,-,25.0,13.0,0.0
15/08/2013,-,29.0,12.0,0.0
16/08/2013,-,25.0,13.0,0.0
17/08/2013,-,28.0,16.0,0.0
18/08/2013,-,29.0,16.0,0.0
19/08/2013,-,20.0,16.0,0.0
20/08/2013,-,25.0,16.0,0.0
21/08/2013,-,33.0,12.0,0.0
22/08/2013,-,29.0,13.0,0.0
23/08/2013,-,21.0,18.0,1.1
24/08/2013,-,21.0,17.0,1.3
25/08/2013,-,23.0,13.0,3.5
26/08/2013,-,21.0,14.0,1.0
27/08/2013,-,21.0,15.0,0.0
28/08/2013,-,24.0,15.0,0.0
29/08/2013,-,24.0,12.0,0.0
30/08/2013,-,25.0,14.0,0.0
31/08/2013,-,24.0,12.0,0.0
01/09/2013,-,24.0,15.0,0.0
02/09/2013,-,25.0,12.0,0.0
03/09/2013,-,33.0,12.0,0.0
04/09/2013,-,33.0,12.0,0.0
05/09/2013,-,33.0,14.0,0.0
06/09/2013,-,25.0,15.0,2.0
07/09/2013,-,17.0,15.0,5.5
08/09/2013,-,17.0,14.0,0.1
09/09/2013,-,24.0,12.0,3.6
10/09/2013,-,17.0,12.0,2.2
11/09/2013,-,21.0,12.0,0.0
12/09/2013,-,20.0,12.0,0.3
13/09/2013,-,21.0,14.0,0.0
14/09/2013,-,25.0,14.0,2.0
15/09/2013,-,21.0,13.0,0.0
16/09/2013,-,21.0,9.0,4.2
17/09/2013,-,17.0,10.0,5.5
18/09/2013,-,17.0,13.0,5.4
19/09/2013,-,19.0,14.0,4.2
20/09/2013,-,22.0,14.0,1.0
21/09/2013,-,21.0,13.0,0.0
22/09/2013,-,27.0,11.0,0.0
23/09/2013,-,29.0,12.0,0.0
24/09/2013,-,29.0,12.0,0.0
25/09/2013,-,29.0,16.0,0.0
26/09/2013,-,33.0,16.0,0.0
27/09/2013,-,29.0,16.0,0.0
28/09/2013,-,27.0,16.0,0.0
29/09/2013,-,21.0,16.0,1.0
30/09/2013,-,25.0,15.0,0.0
01/10/2013,-,25.0,16.0,0.0
02/10/2013,-,29.0,16.0,0.5
03/10/2013,-,29.0,17.0,43.0
04/10/2013,-,25.0,16.0,2.2
05/10/2013,-,17.0,13.0,3.2
06/10/2013,-,21.0,13.0,0.8
07/10/2013,-,17.0,10.0,0.0
08/10/2013,-,17.0,11.0,0.0
09/10/2013,-,17.0,12.0,0.0
10/10/2013,-,13.0,8.0,3.0
11/10/2013,-,13.0,6.0,0.5
12/10/2013,-,17.0,5.0,0.0
13/10/2013,-,21.0,4.0,0.0
14/10/2013,-,21.0,6.0,0.2
15/10/2013,-,19.0,12.0,0.5
16/10/2013,-,25.0,15.0,0.8
17/10/2013,-,25.0,15.0,0.0
18/10/2013,-,27.0,12.0,0.0
19/10/2013,-,24.0,13.0,0.0
20/10/2013,-,25.0,13.0,0.0
21/10/2013,-,22.0,11.0,0.0
22/10/2013,-,21.0,13.0,3.0
23/10/2013,-,24.0,12.0,0.0
24/10/2013,-,23.0,11.0,1.6
25/10/2013,-,25.0,13.0,5.4
26/10/2013,-,21.0,16.0,0.2
27/10/2013,-,20.0,10.0,0.0
28/10/2013,-,20.0,14.0,1.6
29/10/2013,-,12.0,9.0,19.0
30/10/2013,-,15.0,8.0,0.0
31/10/2013,-,15.0,4.0,0.0
01/11/2013,-,17.0,4.0,0.5
02/11/2013,-,21.0,7.0,14.0
03/11/2013,-,13.0,12.0,8.5
04/11/2013,-,15.0,10.0,82.6
05/11/2013,-,17.0,12.0,18.5
06/11/2013,-,21.0,15.0,0.0
07/11/2013,-,21.0,11.0,0.0
08/11/2013,-,16.0,10.0,6.2
09/11/2013,-,14.0,6.0,16.6
10/11/2013,-,13.0,8.0,28.3
11/11/2013,-,13.0,12.0,14.8
12/11/2013,-,13.0,12.0,19.2
13/11/2013,-,13.0,12.0,3.9
14/11/2013,-,12.0,9.0,18.4
15/11/2013,-,9.0,5.0,4.5
16/11/2013,-,9.0,4.0,1.3
17/11/2013,-,8.0,4.0,6.0
18/11/2013,-,9.0,7.0,35.2
19/11/2013,-,9.0,7.0,21.2
20/11/2013,-,8.0,3.0,24.5
21/11/2013,-,9.0,4.0,32.2
22/11/2013,-,5.0,3.0,5.0
23/11/2013,-,5.0,4.0,0.0
24/11/2013,-,5.0,4.0,0.0
25/11/2013,-,5.0,4.0,0.0
26/11/2013,-,5.0,0.0,0.0
27/11/2013,-,5.0,-3.0,0.0
28/11/2013,-,9.0,-4.0,0.0
29/11/2013,-,5.0,-2.0,4.0
30/11/2013,-,8.0,3.0,9.2
01/12/2013,-,5.0,1.0,0.0
02/12/2013,-,5.0,3.0,0.0
03/12/2013,-,13.0,-2.0,0.0
04/12/2013,-,13.0,-2.0,0.0
05/12/2013,-,9.0,7.0,0.0
06/12/2013,-,9.0,3.0,0.0
07/12/2013,-,13.0,0.0,0.0
08/12/2013,-,13.0,-1.0,0.0
09/12/2013,-,12.0,-2.0,0.0
10/12/2013,-,13.0,-2.0,0.0
11/12/2013,-,12.0,0.0,0.0
12/12/2013,-,9.0,1.0,0.0
13/12/2013,-,9.0,-1.0,12.2
14/12/2013,-,13.0,0.0,0.0
15/12/2013,-,16.0,0.0,0.0
16/12/2013,-,18.0,5.0,0.0
17/12/2013,-,13.0,9.0,0.0
18/12/2013,-,13.0,5.0,4.3
19/12/2013,-,9.0,7.0,24.0
20/12/2013,-,9.0,4.0,0.9
21/12/2013,-,9.0,0.0,0.0
22/12/2013,-,13.0,2.0,0.0
23/12/2013,-,13.0,0.0,0.0
24/12/2013,-,13.0,12.0,7.0
25/12/2013,-,13.0,8.0,11.8
26/12/2013,-,8.0,4.0,6.5
27/12/2013,-,16.0,4.0,5.5
