Fecha, Temperatura media, Temperatura maxima, Temperatura minima, Precipitacion acumulada
01/01/2019,3.4,6.6,-0.4,0.0
02/01/2019,-1.0,0.1,-2.6,0.0
03/01/2019,1.1,6.8,-3.4,0.0
04/01/2019,2.3,6.5,0.2,0.0
05/01/2019,2.7,7.0,0.5,0.0
06/01/2019,-0.8,3.0,-2.8,0.0
07/01/2019,-2.5,-1.0,-3.5,0.0
08/01/2019,0.4,2.5,-1.1,0.0
09/01/2019,1.3,3.0,-2.3,0.0
10/01/2019,-3.5,-2.1,-5.0,0.0
11/01/2019,-3.3,-0.9,-5.8,0.1
12/01/2019,0.4,2.2,-2.0,0.2
13/01/2019,2.7,4.0,1.4,0.0
14/01/2019,3.9,4.7,3.1,0.0
15/01/2019,4.1,8.4,1.1,0.0
16/01/2019,4.3,6.9,2.5,0.0
17/01/2019,1.7,3.4,-0.0,0.4
18/01/2019,0.6,2.4,-0.6,0.0
19/01/2019,1.3,3.3,-0.4,3.1
20/01/2019,1.1,2.5,0.2,2.6
21/01/2019,-0.4,0.5,-1.3,1.9
22/01/2019,-0.6,0.1,-1.6,15.1
23/01/2019,1.0,2.9,-0.6,45.1
24/01/2019,-1.4,-0.2,-2.3,9.6
25/01/2019,3.4,4.6,-0.3,0.9
26/01/2019,5.2,8.5,3.1,0.8
27/01/2019,1.8,6.0,-0.1,9.6
28/01/2019,1.3,2.8,-0.2,24.0
29/01/2019,1.2,3.3,-0.7,5.7
30/01/2019,0.5,3.2,-1.0,8.0
31/01/2019,3.4,7.4,0.1,20.6
01/02/2019,3.0,6.0,-0.4,2.4
02/02/2019,-1.4,0.1,-2.6,26.2
03/02/2019,-2.0,-0.4,-3.3,6.3
04/02/2019,0.2,4.5,-2.8,4.2
05/02/2019,5.0,6.2,3.4,0.1
06/02/2019,7.5,11.2,3.9,0.0
07/02/2019,4.5,7.9,2.2,0.0
08/02/2019,5.1,8.0,2.1,0.0
09/02/2019,6.2,9.1,3.7,0.0
10/02/2019,3.8,6.6,0.5,0.9
11/02/2019,1.5,2.7,0.4,1.9
12/02/2019,3.4,8.9,-0.4,0.2
13/02/2019,6.0,9.4,3.7,0.0
14/02/2019,5.5,10.0,1.5,0.0
15/02/2019,6.1,9.4,2.9,0.0
16/02/2019,7.2,11.2,4.1,0.0
17/02/2019,8.6,12.6,6.0,0.0
18/02/2019,6.3,10.7,2.4,0.0
19/02/2019,5.8,9.8,3.3,0.0
20/02/2019,5.8,9.4,2.6,0.0
21/02/2019,7.8,12.6,4.0,0.0
22/02/2019,11.2,15.1,8.5,0.0
23/02/2019,9.9,13.9,6.1,0.0
24/02/2019,8.9,12.7,5.3,0.0
25/02/2019,9.7,13.1,7.5,0.0
26/02/2019,11.5,16.1,7.2,0.0
27/02/2019,13.3,18.1,6.3,0.0
28/02/2019,5.7,9.8,3.1,0.0
01/03/2019,5.1,9.5,2.7,0.0
02/03/2019,7.9,11.8,3.9,0.0
03/03/2019,10.5,13.8,8.2,0.0
04/03/2019,6.7,10.2,3.0,0.0
05/03/2019,7.7,11.4,3.3,0.0
06/03/2019,7.1,10.3,3.2,7.6
07/03/2019,4.5,8.4,1.0,0.5
08/03/2019,4.7,7.3,2.5,0.5
09/03/2019,8.8,12.3,5.5,0.0
10/03/2019,7.8,10.4,4.4,0.0
11/03/2019,4.0,7.1,1.2,0.0
12/03/2019,6.3,11.7,2.4,0.0
13/03/2019,1.6,4.0,0.3,0.8
14/03/2019,2.7,6.0,0.6,0.4
15/03/2019,4.9,8.5,2.2,0.0
16/03/2019,13.7,18.0,8.2,0.0
17/03/2019,5.1,12.8,-0.2,0.0
18/03/2019,1.4,4.7,-0.1,0.9
19/03/2019,1.5,4.1,0.2,1.2
20/03/2019,2.3,6.4,-0.3,0.0
21/03/2019,4.8,10.6,0.3,0.0
22/03/2019,9.3,13.9,5.0,0.0
23/03/2019,12.6,17.6,9.2,0.0
24/03/2019,10.9,16.3,5.7,0.0
25/03/2019,4.2,7.3,1.5,0.0
26/03/2019,3.5,9.6,-1.0,0.0
27/03/2019,4.5,11.1,1.2,0.0
28/03/2019,5.1,11.6,1.4,0.0
29/03/2019,8.2,13.2,3.4,0.0
30/03/2019,8.3,13.4,4.0,0.0
31/03/2019,6.7,11.6,3.4,0.0
01/04/2019,6.0,9.3,3.4,1.0
02/04/2019,6.9,12.4,3.2,0.1
03/04/2019,1.3,4.7,-2.2,1.2
04/04/2019,2.4,8.0,-2.7,0.0
05/04/2019,3.4,6.6,0.7,4.6
06/04/2019,2.7,7.1,0.3,3.4
07/04/2019,4.3,8.3,0.7,0.1
08/04/2019,4.8,7.0,3.2,2.6
09/04/2019,5.1,11.1,2.1,12.4
10/04/2019,3.6,7.9,1.7,0.3
11/04/2019,3.0,5.3,1.6,0.6
12/04/2019,4.6,9.1,1.7,0.0
13/04/2019,8.9,16.1,1.4,0.0
14/04/2019,11.2,16.7,8.2,0.0
15/04/2019,11.4,17.1,5.7,27.2
16/04/2019,8.6,13.8,3.7,0.2
17/04/2019,9.9,15.1,4.4,0.0
18/04/2019,8.8,13.6,6.3,0.1
19/04/2019,11.0,16.1,5.5,1.0
20/04/2019,11.4,16.9,5.5,1.5
21/04/2019,6.2,9.3,4.3,0.0
22/04/2019,9.1,13.2,5.0,0.0
23/04/2019,7.8,12.2,3.6,5.9
24/04/2019,4.3,7.1,2.0,5.1
25/04/2019,6.2,10.3,2.8,3.8
26/04/2019,5.0,9.6,2.9,1.1
27/04/2019,6.0,11.2,2.6,0.0
28/04/2019,6.2,12.4,2.1,0.0
29/04/2019,8.8,16.0,3.1,0.0
30/04/2019,9.1,15.8,4.4,0.1
01/05/2019,8.9,16.7,4.6,0.0
02/05/2019,5.7,9.6,3.5,0.0
03/05/2019,3.8,6.1,1.9,1.3
04/05/2019,4.9,11.1,1.7,1.5
05/05/2019,2.3,8.5,-2.3,0.0
06/05/2019,8.6,16.6,-0.1,0.0
07/05/2019,13.8,17.9,8.6,0.0
08/05/2019,12.3,16.1,8.4,0.6
09/05/2019,9.2,14.0,5.4,14.6
10/05/2019,12.8,19.3,8.9,6.3
11/05/2019,7.7,12.7,4.1,0.0
12/05/2019,7.5,13.4,3.1,0.0
13/05/2019,8.6,14.1,3.7,0.0
14/05/2019,11.8,20.1,6.1,0.1
15/05/2019,12.9,19.7,8.0,0.0
16/05/2019,10.6,19.1,5.5,10.6
17/05/2019,4.9,6.4,3.4,23.8
18/05/2019,4.2,8.4,1.7,3.1
19/05/2019,4.8,6.3,3.6,6.6
20/05/2019,6.8,12.7,3.0,0.1
21/05/2019,8.7,14.2,4.5,0.1
22/05/2019,12.2,19.1,5.7,0.0
23/05/2019,13.7,18.7,7.7,5.4
24/05/2019,7.4,8.3,6.5,8.6
25/05/2019,7.1,9.6,5.5,0.6
26/05/2019,7.2,9.5,5.6,1.0
27/05/2019,8.0,11.6,5.2,0.0
28/05/2019,6.3,10.8,4.4,0.2
29/05/2019,7.6,12.4,4.8,0.3
30/05/2019,12.7,21.0,5.3,0.0
31/05/2019,17.1,23.5,10.7,0.0
01/06/2019,19.9,25.8,14.2,0.0
02/06/2019,20.0,25.7,15.1,0.0
03/06/2019,19.6,24.8,14.0,0.0
04/06/2019,15.0,24.7,6.9,0.9
05/06/2019,6.9,10.5,5.1,16.7
06/06/2019,11.7,18.4,4.7,0.0
07/06/2019,9.0,15.5,4.8,2.4
08/06/2019,10.9,18.5,4.4,0.0
09/06/2019,12.5,20.1,7.0,0.0
10/06/2019,7.0,11.7,4.7,0.0
11/06/2019,6.0,10.3,4.1,1.5
12/06/2019,8.3,15.4,3.5,0.0
13/06/2019,12.5,20.4,7.7,0.0
14/06/2019,10.7,18.9,7.2,0.0
15/06/2019,10.2,15.8,6.6,0.0
16/06/2019,15.0,22.9,6.7,0.0
17/06/2019,21.2,26.6,16.3,0.0
18/06/2019,21.9,28.1,16.0,0.0
19/06/2019,16.8,22.1,10.4,0.0
20/06/2019,11.1,13.6,10.2,2.7
21/06/2019,10.0,12.7,7.6,1.6
22/06/2019,17.0,24.4,7.3,0.0
23/06/2019,22.3,28.4,17.2,0.0
24/06/2019,22.3,26.6,17.7,0.0
25/06/2019,22.1,29.2,16.8,0.0
26/06/2019,24.4,31.5,15.9,0.0
27/06/2019,27.9,34.5,21.7,0.0
28/06/2019,29.0,32.5,24.7,0.0
29/06/2019,27.1,35.9,13.2,0.0
30/06/2019,22.6,34.8,12.5,0.0
01/07/2019,13.6,18.5,11.5,1.1
02/07/2019,15.1,21.2,11.6,0.8
03/07/2019,21.1,30.1,13.2,0.0
04/07/2019,24.7,30.3,20.3,0.0
05/07/2019,23.5,30.4,19.9,0.0
06/07/2019,20.2,30.9,14.3,0.0
07/07/2019,16.6,24.1,13.3,0.0
08/07/2019,15.4,20.0,12.4,27.0
09/07/2019,13.2,16.6,10.5,0.1
10/07/2019,15.8,22.8,10.2,0.0
11/07/2019,19.1,26.2,13.7,0.0
12/07/2019,19.0,26.0,13.6,0.0
13/07/2019,16.4,22.8,12.0,0.0
14/07/2019,16.0,20.9,12.0,0.4
15/07/2019,15.2,20.5,11.2,0.0
16/07/2019,15.9,22.9,10.4,0.0
17/07/2019,15.4,21.5,11.7,0.2
18/07/2019,14.2,18.7,10.5,0.0
19/07/2019,20.8,29.3,11.0,0.0
20/07/2019,19.1,27.8,14.6,0.0
21/07/2019,19.6,29.2,14.3,1.8
22/07/2019,25.7,32.6,15.9,0.3
23/07/2019,26.9,33.4,22.3,0.1
24/07/2019,27.4,32.9,21.6,0.0
25/07/2019,25.3,32.8,16.5,0.0
26/07/2019,14.7,17.1,12.2,2.3
27/07/2019,11.0,12.2,9.4,3.4
28/07/2019,13.2,18.2,9.5,0.7
29/07/2019,17.0,26.3,10.7,0.0
30/07/2019,12.1,17.3,8.8,0.0
31/07/2019,13.4,21.0,8.1,0.0
01/08/2019,15.9,24.1,12.0,4.3
02/08/2019,16.0,21.4,12.8,0.0
03/08/2019,20.5,30.1,13.2,0.0
04/08/2019,17.9,27.1,14.3,0.0
05/08/2019,17.9,27.7,13.9,0.0
06/08/2019,19.4,28.5,14.5,0.0
07/08/2019,18.8,24.2,13.6,0.0
08/08/2019,23.5,29.6,17.4,0.0
09/08/2019,22.8,29.9,15.0,1.3
10/08/2019,15.7,21.2,12.6,0.1
11/08/2019,13.6,19.4,10.3,2.0
12/08/2019,11.2,15.8,8.4,0.0
13/08/2019,11.7,17.0,8.5,0.0
14/08/2019,17.2,24.3,9.4,0.0
15/08/2019,14.3,19.1,9.9,0.0
16/08/2019,19.2,28.7,9.8,0.0
17/08/2019,22.9,30.4,16.5,0.0
18/08/2019,18.0,26.5,10.7,0.0
19/08/2019,11.9,15.6,9.7,0.0
20/08/2019,12.3,17.6,9.8,0.6
21/08/2019,15.0,21.9,10.2,0.0
22/08/2019,15.7,22.7,11.1,0.0
23/08/2019,21.6,28.6,13.7,0.0
24/08/2019,23.4,30.1,16.4,0.0
25/08/2019,22.3,30.0,15.8,0.0
26/08/2019,20.5,25.6,13.3,6.7
27/08/2019,17.3,21.9,13.9,0.1
28/08/2019,18.8,25.9,14.2,0.1
29/08/2019,19.8,28.8,14.1,0.0
30/08/2019,22.6,29.2,14.3,0.0
31/08/2019,20.7,29.6,13.5,0.0
01/09/2019,14.4,19.5,10.0,0.0
02/09/2019,11.5,16.7,8.2,0.0
03/09/2019,13.8,20.9,9.4,0.0
04/09/2019,13.7,20.5,9.9,0.0
05/09/2019,10.8,15.1,7.8,0.0
06/09/2019,9.8,14.0,6.9,0.0
07/09/2019,10.6,16.1,6.9,0.0
08/09/2019,11.1,16.7,6.9,0.0
09/09/2019,11.7,19.4,6.5,0.0
10/09/2019,8.4,12.2,5.7,2.3
11/09/2019,11.3,15.5,8.6,0.0
12/09/2019,14.0,22.5,8.2,0.0
13/09/2019,17.3,24.2,12.5,0.0
14/09/2019,19.2,25.0,14.3,0.9
15/09/2019,17.5,24.5,13.0,5.4
16/09/2019,19.1,24.6,16.1,0.0
17/09/2019,19.3,25.1,15.7,0.0
18/09/2019,15.8,20.7,12.2,13.3
19/09/2019,16.4,23.0,11.5,0.2
20/09/2019,17.8,22.6,13.8,0.0
21/09/2019,15.8,19.4,12.7,6.5
22/09/2019,13.8,17.1,10.0,5.0
23/09/2019,13.9,17.7,9.2,0.1
24/09/2019,15.3,21.4,10.0,0.0
25/09/2019,12.0,16.8,9.2,0.0
26/09/2019,17.2,22.2,12.2,0.0
27/09/2019,15.1,20.5,11.3,0.0
28/09/2019,15.6,21.7,10.1,0.0
29/09/2019,17.2,24.0,12.5,0.0
30/09/2019,17.9,23.9,12.1,0.0
01/10/2019,15.5,19.2,10.5,0.0
02/10/2019,9.8,12.0,8.7,1.3
03/10/2019,10.8,16.2,7.2,0.1
04/10/2019,12.6,17.2,10.0,0.0
05/10/2019,10.8,14.4,8.6,0.0
06/10/2019,10.1,14.0,7.5,0.0
07/10/2019,11.0,16.0,7.1,0.1
08/10/2019,16.6,23.4,11.1,0.0
09/10/2019,9.8,13.2,6.9,0.0
10/10/2019,10.9,15.7,6.5,0.2
11/10/2019,16.1,21.6,10.9,0.0
12/10/2019,17.2,21.0,13.8,1.6
13/10/2019,16.7,21.4,13.1,0.0
14/10/2019,12.9,16.5,5.9,10.0
15/10/2019,7.6,12.6,3.3,3.3
16/10/2019,11.0,15.9,7.6,0.0
17/10/2019,12.4,16.1,9.0,0.0
18/10/2019,11.9,13.9,10.4,0.6
19/10/2019,11.9,14.3,10.3,1.6
20/10/2019,7.4,10.3,4.4,9.4
21/10/2019,6.2,10.0,4.0,0.0
22/10/2019,5.1,6.9,3.7,14.9
23/10/2019,7.4,9.4,5.6,4.7
24/10/2019,6.9,9.2,4.2,6.7
25/10/2019,13.1,17.6,8.9,0.0
26/10/2019,12.7,16.6,9.8,0.0
27/10/2019,12.3,15.3,10.0,0.0
28/10/2019,12.8,16.4,10.7,0.0
29/10/2019,13.2,16.8,11.2,0.0
30/10/2019,12.6,14.8,10.4,0.1
31/10/2019,10.9,12.7,10.1,1.2
01/11/2019,12.8,15.4,11.0,6.2
02/11/2019,11.1,12.7,9.2,3.0
03/11/2019,7.9,10.4,4.6,2.4
04/11/2019,8.3,12.8,4.2,5.6
05/11/2019,3.9,5.3,2.9,15.8
06/11/2019,5.2,7.0,3.7,4.8
07/11/2019,3.3,6.0,-0.1,6.0
08/11/2019,0.4,2.3,-0.8,27.5
09/11/2019,2.9,4.5,1.4,8.7
10/11/2019,-0.1,1.4,-1.2,11.8
11/11/2019,2.1,3.8,0.3,16.5
12/11/2019,3.6,5.9,2.0,1.4
13/11/2019,4.3,5.5,3.5,3.5
14/11/2019,1.3,5.1,-1.2,7.1
15/11/2019,-0.6,1.1,-1.4,1.9
16/11/2019,-0.3,1.3,-1.6,3.8
17/11/2019,1.9,3.5,0.2,1.4
18/11/2019,0.0,1.8,-1.1,1.2
19/11/2019,1.7,5.0,-1.1,0.1
20/11/2019,2.3,5.1,-0.1,0.8
21/11/2019,3.2,5.9,1.7,0.1
22/11/2019,4.5,7.3,2.8,3.4
23/11/2019,3.1,5.5,1.5,8.0
24/11/2019,3.4,5.4,1.7,4.2
25/11/2019,7.4,11.4,3.2,0.2
26/11/2019,8.3,11.3,6.2,3.7
27/11/2019,6.5,9.1,5.0,5.6
28/11/2019,7.1,8.5,5.4,1.9
29/11/2019,7.6,8.6,6.2,0.3
30/11/2019,6.7,10.3,4.1,17.1
01/12/2019,-,-,-,-
02/12/2019,-,-,-,-
03/12/2019,-,-,-,-
04/12/2019,-,-,-,-
05/12/2019,-,-,-,-
06/12/2019,-,-,-,-
07/12/2019,-,-,-,-
08/12/2019,-,-,-,-
09/12/2019,-,-,-,-
10/12/2019,-,-,-,-
11/12/2019,-,-,-,-
12/12/2019,-,-,-,-
13/12/2019,-,-,-,-
14/12/2019,-,-,-,-
15/12/2019,-,-,-,-
16/12/2019,-,-,-,-
17/12/2019,-,-,-,-
18/12/2019,-,-,-,-
19/12/2019,-,-,-,-
20/12/2019,-,-,-,-
21/12/2019,-,-,-,-
22/12/2019,-,-,-,-
23/12/2019,-,-,-,-
24/12/2019,-,-,-,-
25/12/2019,-,-,-,-
26/12/2019,-,-,-,-
27/12/2019,-,-,-,-
28/12/2019,-,-,-,-
29/12/2019,-,-,-,-
30/12/2019,-,-,-,-
31/12/2019,-,-,-,-
