Fecha, Temperatura media, Temperatura maxima, Temperatura minima, Precipitacion acumulada
01/01/2015,3.7,6.7,0.7,0.1
02/01/2015,6.3,8.3,4.5,0.0
03/01/2015,8.1,11.7,3.9,0.0
04/01/2015,5.2,6.9,3.6,0.0
05/01/2015,4.8,8.1,3.2,0.0
06/01/2015,3.6,5.9,1.7,0.0
07/01/2015,3.2,7.2,1.5,0.0
08/01/2015,4.5,7.0,2.9,0.0
09/01/2015,7.5,10.5,4.2,0.0
10/01/2015,10.0,15.3,4.5,0.0
11/01/2015,4.0,9.1,0.8,0.3
12/01/2015,5.2,9.0,1.0,0.0
13/01/2015,5.0,7.5,2.8,0.0
14/01/2015,4.8,7.4,3.1,0.0
15/01/2015,4.0,5.6,2.5,0.0
16/01/2015,1.3,5.1,-1.1,4.0
17/01/2015,0.1,2.8,-1.6,11.7
18/01/2015,-1.1,-0.1,-2.0,0.0
19/01/2015,-1.4,-0.2,-2.8,5.9
20/01/2015,-2.1,-0.2,-3.7,1.3
21/01/2015,-1.1,-0.3,-2.0,2.3
22/01/2015,-0.9,-0.1,-2.1,2.2
23/01/2015,-1.4,-0.1,-2.4,0.2
24/01/2015,-0.4,2.8,-2.6,1.3
25/01/2015,-2.0,0.6,-3.2,0.0
26/01/2015,-0.6,1.3,-2.5,0.0
27/01/2015,1.9,3.2,0.5,1.7
28/01/2015,2.2,4.3,0.5,0.2
29/01/2015,4.3,7.3,1.8,2.1
30/01/2015,1.7,6.2,-0.1,41.5
31/01/2015,-0.8,1.8,-2.2,28.9
01/02/2015,-2.2,-0.7,-3.1,24.5
02/02/2015,-1.0,0.2,-2.4,17.7
03/02/2015,-2.6,-0.1,-5.6,8.3
04/02/2015,-5.7,-4.9,-6.4,0.0
05/02/2015,-5.8,-3.9,-7.5,0.0
06/02/2015,-7.1,-6.0,-8.3,0.0
07/02/2015,-5.5,-3.3,-7.0,1.2
08/02/2015,-3.8,-2.8,-5.6,1.1
09/02/2015,-1.7,2.1,-5.0,0.0
10/02/2015,1.9,4.4,-0.5,1.3
11/02/2015,1.6,3.3,0.3,0.0
12/02/2015,2.3,5.2,0.4,0.2
13/02/2015,3.4,6.1,1.1,0.0
14/02/2015,2.2,3.6,0.6,8.2
15/02/2015,3.2,5.0,0.5,4.9
16/02/2015,2.0,4.4,0.2,3.1
17/02/2015,0.5,1.5,-0.6,0.9
18/02/2015,-0.4,2.3,-1.8,0.0
19/02/2015,3.6,7.6,0.4,0.0
20/02/2015,2.9,5.0,1.4,2.3
21/02/2015,0.3,2.1,-1.3,9.7
22/02/2015,0.5,4.9,-1.5,19.5
23/02/2015,3.6,7.9,-0.3,3.4
24/02/2015,-0.8,-0.0,-1.8,20.3
25/02/2015,2.9,5.5,-0.1,28.3
26/02/2015,5.4,5.9,4.9,3.1
27/02/2015,0.6,5.2,-0.8,4.0
28/02/2015,3.6,7.6,-0.6,1.3
01/03/2015,8.9,10.9,7.1,0.0
02/03/2015,8.2,11.4,4.9,0.0
03/03/2015,7.9,12.9,4.9,0.2
04/03/2015,1.0,4.8,-1.2,3.6
05/03/2015,-0.8,2.3,-3.1,1.9
06/03/2015,7.2,14.9,-0.9,0.0
07/03/2015,10.8,16.5,7.3,0.0
08/03/2015,8.6,12.7,4.9,0.0
09/03/2015,8.5,15.6,3.7,0.0
10/03/2015,9.8,15.3,5.4,0.0
11/03/2015,9.1,14.7,3.1,0.0
12/03/2015,9.7,16.2,3.5,0.0
13/03/2015,2.5,5.0,-0.9,0.1
14/03/2015,-0.5,0.4,-1.8,6.6
15/03/2015,-0.3,1.5,-1.2,4.9
16/03/2015,2.2,6.4,-0.5,0.0
17/03/2015,5.7,9.8,1.5,0.0
18/03/2015,5.6,7.2,4.1,0.6
19/03/2015,5.7,9.1,3.3,9.1
20/03/2015,3.2,5.1,0.5,2.4
21/03/2015,1.7,3.2,-0.0,8.4
22/03/2015,1.8,3.3,-0.5,10.1
23/03/2015,2.7,5.0,-0.9,30.8
24/03/2015,2.2,4.2,-0.6,0.4
25/03/2015,-1.0,0.2,-2.0,3.1
26/03/2015,2.5,6.2,-1.4,2.1
27/03/2015,5.3,7.5,2.9,0.0
28/03/2015,6.8,11.2,4.8,0.0
29/03/2015,8.3,12.7,5.0,0.0
30/03/2015,8.2,9.8,6.5,0.0
31/03/2015,7.5,10.5,5.0,0.0
01/04/2015,3.7,7.1,0.3,0.1
02/04/2015,6.1,13.1,-0.0,0.0
03/04/2015,7.7,14.6,3.7,0.0
04/04/2015,3.7,6.3,1.8,1.1
05/04/2015,4.5,8.5,2.2,0.0
06/04/2015,6.9,13.1,2.2,0.0
07/04/2015,8.4,13.2,4.5,0.0
08/04/2015,7.1,12.5,2.7,0.0
09/04/2015,7.5,12.2,3.7,0.0
10/04/2015,8.5,13.5,3.9,0.3
11/04/2015,8.8,13.0,6.4,0.0
12/04/2015,12.4,17.4,8.3,0.0
13/04/2015,14.1,18.5,8.8,0.0
14/04/2015,16.0,20.8,12.3,0.0
15/04/2015,10.5,14.8,8.0,0.0
16/04/2015,8.6,11.1,6.9,5.6
17/04/2015,9.6,12.6,6.6,0.0
18/04/2015,9.6,15.3,5.8,5.6
19/04/2015,5.9,10.1,3.4,0.0
20/04/2015,9.2,15.4,4.0,0.0
21/04/2015,13.0,17.4,9.6,0.0
22/04/2015,10.5,14.6,7.5,0.9
23/04/2015,10.4,15.8,6.9,0.0
24/04/2015,13.1,17.1,10.0,1.1
25/04/2015,12.2,15.4,9.8,0.0
26/04/2015,8.3,11.0,5.2,13.9
27/04/2015,6.0,9.9,3.2,1.3
28/04/2015,5.1,9.7,2.4,0.1
29/04/2015,8.4,13.6,5.6,0.0
30/04/2015,11.6,16.5,6.6,0.0
01/05/2015,12.0,13.1,9.8,1.2
02/05/2015,15.0,18.1,11.3,0.0
03/05/2015,14.5,16.2,12.8,0.2
04/05/2015,16.1,20.1,12.5,0.6
05/05/2015,11.6,16.6,6.3,0.0
06/05/2015,9.0,15.2,4.8,0.0
07/05/2015,15.3,20.8,10.1,0.0
08/05/2015,13.1,19.0,8.6,0.0
09/05/2015,12.6,17.5,8.4,0.0
10/05/2015,19.6,24.2,14.5,0.0
11/05/2015,20.9,26.0,14.8,0.0
12/05/2015,21.3,26.8,14.0,0.0
13/05/2015,21.9,26.5,16.5,0.0
14/05/2015,12.5,22.2,4.1,0.0
15/05/2015,5.4,5.9,4.4,7.1
16/05/2015,6.6,7.9,5.7,3.2
17/05/2015,9.1,12.1,6.6,0.0
18/05/2015,10.8,20.3,5.1,0.0
19/05/2015,5.6,8.8,3.6,0.0
20/05/2015,4.4,8.5,3.0,1.1
21/05/2015,4.4,7.7,2.6,0.2
22/05/2015,5.8,10.3,2.6,0.0
23/05/2015,6.5,10.0,4.7,0.0
24/05/2015,9.3,12.3,7.2,0.0
25/05/2015,8.3,10.0,6.5,0.0
26/05/2015,7.1,10.6,4.3,0.0
27/05/2015,9.8,15.2,6.0,0.0
28/05/2015,12.3,20.3,7.0,0.0
29/05/2015,9.0,13.4,5.6,0.0
30/05/2015,10.4,17.0,5.0,0.0
31/05/2015,14.1,21.8,8.3,0.0
01/06/2015,14.0,23.1,10.0,0.0
02/06/2015,17.2,25.6,11.1,0.0
03/06/2015,18.7,27.0,12.1,0.0
04/06/2015,22.3,27.0,17.4,0.0
05/06/2015,19.4,26.7,11.2,0.0
06/06/2015,13.9,21.5,10.4,0.0
07/06/2015,17.6,27.0,10.3,0.0
08/06/2015,18.0,24.5,12.2,0.1
09/06/2015,12.3,17.4,8.7,0.2
10/06/2015,11.5,14.6,8.1,58.2
11/06/2015,12.6,15.2,10.7,29.6
12/06/2015,13.2,19.4,9.9,0.5
13/06/2015,12.6,18.2,9.6,20.2
14/06/2015,11.5,17.9,8.6,0.5
15/06/2015,10.6,15.7,8.1,0.0
16/06/2015,8.7,10.5,7.2,0.7
17/06/2015,9.9,14.2,7.3,0.0
18/06/2015,10.9,14.7,7.8,0.0
19/06/2015,10.9,15.1,8.0,0.0
20/06/2015,12.9,18.3,8.4,0.0
21/06/2015,16.0,23.0,10.1,0.0
22/06/2015,19.0,27.9,13.2,3.0
23/06/2015,13.4,18.3,8.9,0.0
24/06/2015,14.4,21.0,8.7,0.0
25/06/2015,19.2,26.2,11.3,0.1
26/06/2015,21.1,28.9,13.5,0.0
27/06/2015,16.6,23.7,11.2,0.0
28/06/2015,20.3,26.1,13.9,0.0
29/06/2015,22.5,30.9,12.8,0.0
30/06/2015,25.3,31.7,17.7,0.0
01/07/2015,25.6,30.1,21.1,0.0
02/07/2015,20.4,25.2,14.9,0.0
03/07/2015,23.6,29.2,17.6,0.0
04/07/2015,22.6,30.5,15.2,0.1
05/07/2015,18.7,26.1,12.1,0.0
06/07/2015,23.4,31.6,11.8,0.0
07/07/2015,20.6,27.4,12.9,0.0
08/07/2015,12.8,15.4,9.4,0.0
09/07/2015,13.4,18.4,9.4,0.0
10/07/2015,20.6,31.6,12.2,0.0
11/07/2015,14.0,18.4,11.9,0.0
12/07/2015,14.8,21.0,11.0,0.0
13/07/2015,15.9,23.4,10.4,0.0
14/07/2015,17.2,24.8,11.9,0.0
15/07/2015,21.9,29.8,13.8,0.0
16/07/2015,23.5,29.5,17.8,0.0
17/07/2015,23.3,29.8,19.2,0.2
18/07/2015,21.1,28.0,15.5,10.1
19/07/2015,19.1,26.1,14.5,0.0
20/07/2015,20.8,28.6,14.9,0.1
21/07/2015,20.5,25.2,14.4,5.3
22/07/2015,16.1,20.8,13.2,0.2
23/07/2015,17.6,24.8,12.8,0.0
24/07/2015,18.2,26.6,12.3,0.0
25/07/2015,12.2,16.4,9.3,0.0
26/07/2015,17.4,25.6,9.2,0.0
27/07/2015,14.2,19.2,11.3,0.0
28/07/2015,15.9,24.1,11.1,0.0
29/07/2015,15.3,21.6,10.1,0.0
30/07/2015,9.5,10.6,8.4,10.7
31/07/2015,12.7,15.6,9.6,13.1
01/08/2015,12.3,17.5,9.0,0.0
02/08/2015,20.4,26.7,13.7,0.0
03/08/2015,21.9,27.9,12.1,1.7
04/08/2015,15.3,20.4,11.8,0.1
05/08/2015,20.7,29.6,13.9,0.0
06/08/2015,22.0,30.1,14.0,0.0
07/08/2015,15.2,18.9,11.8,0.0
08/08/2015,11.1,12.7,9.3,3.1
09/08/2015,11.9,16.1,9.3,0.5
10/08/2015,16.6,22.1,10.1,0.1
11/08/2015,22.0,30.0,17.4,8.0
12/08/2015,22.5,29.3,16.7,0.0
13/08/2015,16.2,21.3,11.5,4.0
14/08/2015,12.1,16.5,10.0,0.6
15/08/2015,11.6,16.9,8.9,1.7
16/08/2015,14.5,21.2,8.2,0.1
17/08/2015,12.8,17.6,9.8,0.0
18/08/2015,12.2,18.2,9.1,0.0
19/08/2015,13.5,20.5,8.5,0.3
20/08/2015,19.5,25.8,11.9,0.0
21/08/2015,23.5,29.0,18.5,0.0
22/08/2015,20.0,25.4,14.6,10.5
23/08/2015,17.0,21.1,13.1,0.1
24/08/2015,12.7,17.7,9.0,0.2
25/08/2015,17.1,23.8,10.0,0.0
26/08/2015,21.2,26.9,14.7,0.0
27/08/2015,21.9,27.4,16.2,0.0
28/08/2015,23.5,29.3,17.6,0.0
29/08/2015,24.3,29.3,19.9,0.0
30/08/2015,22.4,27.9,15.7,0.5
31/08/2015,17.6,26.2,12.6,40.0
01/09/2015,12.3,14.6,8.8,0.1
02/09/2015,11.4,16.3,8.2,6.4
03/09/2015,10.6,14.2,8.2,1.0
04/09/2015,9.3,14.0,6.5,0.2
05/09/2015,9.5,13.7,7.2,0.0
06/09/2015,10.4,16.0,6.6,0.2
07/09/2015,10.7,16.2,7.7,0.1
08/09/2015,13.4,18.9,7.7,0.0
09/09/2015,16.3,21.1,12.6,0.0
10/09/2015,13.4,17.9,11.2,0.7
11/09/2015,16.5,21.9,13.0,0.0
12/09/2015,16.5,19.7,14.1,3.0
13/09/2015,14.2,15.5,11.8,0.3
14/09/2015,11.5,14.4,9.0,0.0
15/09/2015,11.8,13.2,10.7,0.8
16/09/2015,15.1,19.3,12.0,1.1
17/09/2015,9.2,13.9,6.7,0.1
18/09/2015,9.9,15.1,6.7,0.0
19/09/2015,10.4,15.6,7.2,0.2
20/09/2015,11.3,17.4,7.2,0.2
21/09/2015,13.5,19.0,9.2,0.0
22/09/2015,10.6,14.6,8.3,0.1
23/09/2015,8.3,9.5,7.3,3.5
24/09/2015,10.5,16.4,7.1,0.1
25/09/2015,13.1,18.2,10.0,0.0
26/09/2015,12.4,18.0,9.1,0.1
27/09/2015,10.5,15.6,8.0,0.3
28/09/2015,13.2,17.9,8.0,0.0
29/09/2015,13.2,17.6,9.4,13.9
30/09/2015,12.8,17.3,9.4,5.0
01/10/2015,13.2,17.3,9.7,0.0
02/10/2015,8.4,10.1,5.8,0.8
03/10/2015,9.8,13.3,5.4,0.0
04/10/2015,12.3,15.1,10.1,1.6
05/10/2015,16.2,19.2,13.9,0.2
06/10/2015,12.3,15.7,8.0,4.6
07/10/2015,8.1,10.3,6.8,0.0
08/10/2015,8.0,11.8,5.5,0.0
09/10/2015,10.2,14.8,5.7,0.3
10/10/2015,13.7,18.0,10.1,0.0
11/10/2015,12.6,14.5,11.4,0.1
12/10/2015,12.1,15.9,7.1,1.9
13/10/2015,6.7,8.0,4.6,0.2
14/10/2015,3.6,6.9,0.5,0.0
15/10/2015,3.4,9.2,-0.3,0.0
16/10/2015,6.6,11.3,2.2,0.1
17/10/2015,10.2,14.7,6.4,1.3
18/10/2015,12.1,14.4,10.2,0.0
19/10/2015,12.5,14.0,10.7,4.0
20/10/2015,6.9,10.6,4.7,0.7
21/10/2015,4.8,7.6,3.2,0.0
22/10/2015,6.3,7.7,3.8,0.0
23/10/2015,11.2,17.2,6.2,0.0
24/10/2015,11.8,14.7,9.6,0.0
25/10/2015,11.3,15.2,8.9,0.0
26/10/2015,11.5,14.4,9.4,0.0
27/10/2015,9.9,12.8,7.0,4.4
28/10/2015,7.5,10.5,5.6,0.7
29/10/2015,10.6,13.9,7.9,0.0
30/10/2015,12.7,16.4,9.9,0.0
31/10/2015,11.2,13.6,9.1,0.0
01/11/2015,10.4,13.5,8.0,0.0
02/11/2015,9.3,11.8,6.9,17.7
03/11/2015,8.0,9.6,6.2,7.3
04/11/2015,9.9,12.6,7.8,0.1
05/11/2015,10.7,12.6,9.1,0.1
06/11/2015,13.3,15.7,11.2,0.0
07/11/2015,13.4,17.3,11.2,0.0
08/11/2015,13.9,17.7,12.1,0.0
09/11/2015,12.7,16.3,10.2,0.0
10/11/2015,14.7,18.2,12.2,0.0
11/11/2015,13.5,16.8,10.2,0.0
12/11/2015,10.1,12.7,5.6,0.0
13/11/2015,8.8,10.1,7.2,0.0
14/11/2015,9.7,12.9,7.7,0.0
15/11/2015,9.7,12.3,6.4,0.0
16/11/2015,9.0,11.9,7.0,0.0
17/11/2015,9.6,12.6,6.5,0.0
18/11/2015,11.5,16.3,8.4,0.0
19/11/2015,10.8,14.0,9.0,0.0
20/11/2015,11.0,13.8,8.7,0.0
21/11/2015,3.1,9.3,-0.2,11.6
22/11/2015,-0.4,1.2,-2.0,23.8
23/11/2015,-1.6,0.3,-4.6,0.8
24/11/2015,1.6,4.8,-1.3,1.9
25/11/2015,6.0,7.6,4.4,14.7
26/11/2015,5.1,6.5,4.3,0.8
27/11/2015,4.2,6.2,2.2,0.5
28/11/2015,3.8,6.3,1.7,4.2
29/11/2015,4.0,7.4,1.5,0.1
30/11/2015,8.7,11.2,6.9,0.0
01/12/2015,8.5,10.7,5.7,0.0
02/12/2015,8.3,12.2,5.4,0.0
03/12/2015,7.1,9.7,3.9,0.0
04/12/2015,8.2,9.7,6.7,0.0
05/12/2015,8.1,10.2,5.9,0.0
06/12/2015,5.9,6.4,4.5,0.0
07/12/2015,6.6,9.0,5.9,0.0
08/12/2015,6.5,7.3,5.1,0.2
09/12/2015,6.3,10.4,4.4,0.1
10/12/2015,5.2,6.5,3.1,0.1
11/12/2015,2.8,4.7,1.3,0.1
12/12/2015,1.9,3.9,0.5,0.2
13/12/2015,3.0,5.0,0.0,0.1
14/12/2015,3.7,6.8,-0.0,0.1
15/12/2015,8.2,10.5,5.6,0.0
16/12/2015,9.9,11.7,8.5,0.0
17/12/2015,9.7,11.4,8.3,0.0
18/12/2015,9.9,12.1,8.3,0.0
19/12/2015,10.2,12.1,8.1,0.0
20/12/2015,8.7,11.5,4.6,0.0
21/12/2015,5.1,7.5,3.9,0.1
22/12/2015,5.0,7.8,2.5,0.1
23/12/2015,5.4,10.0,1.2,0.0
24/12/2015,3.9,5.2,1.7,0.0
25/12/2015,5.3,8.2,3.2,0.1
26/12/2015,6.5,8.9,4.4,0.0
27/12/2015,7.7,9.4,2.2,0.0
28/12/2015,6.5,8.7,2.2,0.2
29/12/2015,5.5,7.7,3.3,0.3
30/12/2015,5.0,7.2,2.9,0.0
31/12/2015,5.0,6.7,3.3,1.8
