Fecha, Temperatura media, Temperatura maxima, Temperatura minima, Precipitacion acumulada
01/01/2012,-,9.1,4.2,11.0
02/01/2012,-,6.7,3.0,1.9
03/01/2012,-,7.8,1.3,1.1
04/01/2012,-,8.2,2.4,0.7
05/01/2012,-,8.8,2.4,22.6
06/01/2012,-,8.0,5.6,3.2
07/01/2012,-,7.0,1.6,0.2
08/01/2012,-,7.0,3.7,0.2
09/01/2012,-,3.8,0.0,0.0
10/01/2012,-,8.9,0.2,0.0
11/01/2012,-,9.0,0.7,0.0
12/01/2012,-,8.8,0.7,0.0
13/01/2012,-,7.0,-2.4,0.0
14/01/2012,-,5.0,-1.1,0.0
15/01/2012,-,4.9,-4.8,1.0
16/01/2012,-,3.7,-1.0,0.0
17/01/2012,-,7.8,-1.4,0.0
18/01/2012,-,9.7,-1.0,0.2
19/01/2012,-,9.9,2.8,1.4
20/01/2012,-,8.2,5.0,2.5
21/01/2012,-,9.0,4.9,0.2
22/01/2012,-,7.9,5.1,0.1
23/01/2012,-,8.6,4.9,0.2
24/01/2012,-,5.0,3.2,0.0
25/01/2012,-,6.5,0.1,0.0
26/01/2012,-,8.8,0.7,4.7
27/01/2012,-,3.8,0.6,0.3
28/01/2012,-,3.9,0.4,20.8
29/01/2012,-,1.1,-2.0,0.9
30/01/2012,-,4.3,-2.1,0.0
31/01/2012,-,4.4,-1.5,15.2
01/02/2012,-,4.5,1.3,4.9
02/02/2012,-,-4.5,-5.8,2.2
03/02/2012,-,-4.3,-8.6,0.4
04/02/2012,-,-0.2,-8.0,11.3
05/02/2012,-,4.7,-5.8,16.5
06/02/2012,-,1.6,-1.5,4.9
07/02/2012,-,-0.5,-4.1,0.0
08/02/2012,-,-3.5,-7.9,0.1
09/02/2012,-,0.8,-8.0,0.0
10/02/2012,-,0.1,-5.1,0.0
11/02/2012,-,-2.5,-7.3,0.0
12/02/2012,-,-2.8,-8.0,0.0
13/02/2012,-,1.2,-7.1,10.1
14/02/2012,-,1.9,-4.1,2.7
15/02/2012,-,4.6,-1.6,11.3
16/02/2012,-,2.5,0.0,0.1
17/02/2012,-,3.5,0.2,0.0
18/02/2012,-,7.8,-2.7,0.3
19/02/2012,-,4.8,-0.8,2.6
20/02/2012,-,4.1,-3.0,0.0
21/02/2012,-,6.7,-3.0,0.0
22/02/2012,-,10.8,0.9,0.0
23/02/2012,-,12.5,3.5,0.0
24/02/2012,-,13.4,6.0,0.0
25/02/2012,-,13.2,2.3,0.0
26/02/2012,-,9.5,4.3,0.0
27/02/2012,-,11.0,3.1,0.0
28/02/2012,-,13.3,2.8,0.0
29/02/2012,-,16.8,3.5,0.0
01/03/2012,-,15.0,5.1,0.0
02/03/2012,-,12.8,6.9,0.0
03/03/2012,-,13.4,4.0,0.1
04/03/2012,-,9.6,4.4,14.5
05/03/2012,-,3.8,0.0,2.2
06/03/2012,-,4.0,-0.2,7.4
07/03/2012,-,8.9,-1.1,5.0
08/03/2012,-,4.7,1.0,0.0
09/03/2012,-,8.5,0.1,0.0
10/03/2012,-,11.3,1.7,0.0
11/03/2012,-,10.6,2.4,0.0
12/03/2012,-,14.0,3.6,0.0
13/03/2012,-,20.9,6.6,0.0
14/03/2012,-,21.0,8.5,0.0
15/03/2012,-,20.3,10.6,0.0
16/03/2012,-,16.7,8.3,0.0
17/03/2012,-,13.3,5.0,3.3
18/03/2012,-,7.7,1.9,7.8
19/03/2012,-,5.8,-0.9,2.8
20/03/2012,-,4.5,0.7,5.4
21/03/2012,-,4.7,0.0,19.1
22/03/2012,-,10.1,-0.6,0.0
23/03/2012,-,12.4,2.7,0.0
24/03/2012,-,15.0,6.1,0.0
25/03/2012,-,18.2,7.6,0.0
26/03/2012,-,17.2,8.4,0.0
27/03/2012,-,16.7,7.4,0.0
28/03/2012,-,18.1,7.9,0.0
29/03/2012,-,18.5,7.6,0.0
30/03/2012,-,18.3,9.9,0.0
31/03/2012,-,17.6,9.2,0.0
01/04/2012,-,16.8,8.5,0.0
02/04/2012,-,17.1,6.6,0.0
03/04/2012,-,7.8,5.8,1.0
04/04/2012,-,8.9,2.9,0.5
05/04/2012,-,8.2,3.1,10.6
06/04/2012,-,7.6,3.5,18.8
07/04/2012,-,6.8,0.4,3.6
08/04/2012,-,7.5,1.5,0.7
09/04/2012,-,14.5,3.1,0.3
10/04/2012,-,12.6,5.6,7.6
11/04/2012,-,8.8,0.9,0.3
12/04/2012,-,8.1,2.9,8.2
13/04/2012,-,6.2,1.7,6.2
14/04/2012,-,4.8,0.5,16.6
15/04/2012,-,4.0,0.0,24.5
16/04/2012,-,3.2,-0.5,0.4
17/04/2012,-,11.2,-1.7,4.2
18/04/2012,-,7.9,1.0,15.6
19/04/2012,-,6.4,2.9,18.4
20/04/2012,-,9.9,1.8,2.7
21/04/2012,-,9.6,3.6,16.1
22/04/2012,-,9.2,2.4,0.2
23/04/2012,-,10.5,2.1,18.8
24/04/2012,-,9.6,0.7,0.4
25/04/2012,-,13.9,1.0,10.4
26/04/2012,-,11.5,4.4,0.0
27/04/2012,-,17.2,5.3,18.3
28/04/2012,-,7.9,4.6,18.6
29/04/2012,-,8.9,2.3,9.3
30/04/2012,-,9.9,3.5,5.6
01/05/2012,-,11.8,2.9,1.1
02/05/2012,-,15.1,4.4,0.0
03/05/2012,-,16.2,8.3,0.9
04/05/2012,-,13.0,6.0,0.8
05/05/2012,-,12.8,5.4,2.6
06/05/2012,-,13.5,3.6,0.0
07/05/2012,-,16.4,5.0,3.2
08/05/2012,-,17.2,9.5,6.6
09/05/2012,-,21.8,10.6,0.0
10/05/2012,-,25.0,10.2,0.0
11/05/2012,-,25.6,16.4,0.0
12/05/2012,-,20.5,14.0,0.0
13/05/2012,-,16.4,10.2,0.0
14/05/2012,-,20.0,7.3,0.0
15/05/2012,-,13.2,4.1,0.0
16/05/2012,-,18.4,3.4,0.0
17/05/2012,-,18.6,6.5,0.0
18/05/2012,-,17.1,9.6,10.3
19/05/2012,-,13.9,7.9,29.4
20/05/2012,-,7.0,5.4,12.6
21/05/2012,-,10.4,3.9,22.8
22/05/2012,-,13.2,4.5,2.4
23/05/2012,-,20.7,5.7,0.0
24/05/2012,-,23.2,11.0,0.0
25/05/2012,-,25.1,14.1,0.0
26/05/2012,-,18.4,13.9,0.0
27/05/2012,-,21.0,8.7,0.0
28/05/2012,-,21.2,9.8,0.0
29/05/2012,-,24.1,11.0,0.0
30/05/2012,-,24.8,10.8,0.0
31/05/2012,-,25.5,10.0,0.0
01/06/2012,-,29.9,13.2,0.7
02/06/2012,-,28.2,17.8,16.7
03/06/2012,-,13.9,10.3,0.0
04/06/2012,-,17.2,8.1,0.0
05/06/2012,-,25.0,8.5,0.0
06/06/2012,-,22.2,10.9,0.0
07/06/2012,-,23.1,12.6,0.0
08/06/2012,-,14.5,8.7,0.0
09/06/2012,-,17.5,6.7,0.0
10/06/2012,-,18.7,9.5,1.3
11/06/2012,-,18.3,9.9,11.2
12/06/2012,-,13.3,7.4,2.0
13/06/2012,-,14.6,7.4,0.0
14/06/2012,-,25.2,7.8,0.0
15/06/2012,-,26.4,12.5,0.0
16/06/2012,-,25.8,14.9,0.0
17/06/2012,-,26.8,8.5,0.0
18/06/2012,-,17.8,11.8,11.0
19/06/2012,-,18.2,11.9,1.3
20/06/2012,-,25.1,13.3,5.7
21/06/2012,-,21.2,13.4,0.0
22/06/2012,-,17.9,8.4,0.0
23/06/2012,-,23.5,9.5,0.0
24/06/2012,-,25.2,13.8,0.0
25/06/2012,-,25.8,14.3,0.0
26/06/2012,-,28.8,17.3,0.0
27/06/2012,-,31.7,21.4,0.9
28/06/2012,-,29.8,19.8,0.0
29/06/2012,-,24.8,12.4,0.0
30/06/2012,-,21.2,11.3,0.0
01/07/2012,-,13.1,10.0,0.3
02/07/2012,-,21.5,6.2,0.0
03/07/2012,-,27.6,13.2,1.1
04/07/2012,-,21.6,12.8,0.0
05/07/2012,-,15.9,12.0,0.0
06/07/2012,-,19.3,9.9,3.1
07/07/2012,-,25.2,12.3,0.5
08/07/2012,-,18.3,11.5,0.0
09/07/2012,-,21.5,11.1,0.0
10/07/2012,-,17.2,13.1,0.0
11/07/2012,-,15.2,11.8,0.0
12/07/2012,-,23.2,8.7,0.0
13/07/2012,-,29.0,12.3,0.0
14/07/2012,-,16.2,12.3,0.0
15/07/2012,-,16.6,10.0,0.0
16/07/2012,-,22.7,8.5,0.0
17/07/2012,-,29.5,13.7,0.0
18/07/2012,-,32.8,20.5,0.0
19/07/2012,-,22.0,12.8,0.0
20/07/2012,-,18.1,11.4,0.0
21/07/2012,-,18.5,12.3,0.0
22/07/2012,-,20.6,12.7,0.0
23/07/2012,-,23.9,13.9,0.0
24/07/2012,-,27.0,14.5,0.0
25/07/2012,-,30.3,17.0,0.0
26/07/2012,-,31.8,19.0,7.5
27/07/2012,-,25.5,15.3,0.8
28/07/2012,-,19.6,14.4,0.0
29/07/2012,-,21.4,11.7,0.0
30/07/2012,-,26.3,12.2,0.0
31/07/2012,-,31.2,15.0,0.0
01/08/2012,-,28.7,17.4,0.0
02/08/2012,-,22.1,14.3,0.0
03/08/2012,-,21.6,12.9,0.0
04/08/2012,-,24.1,12.5,0.4
05/08/2012,-,19.6,12.8,10.6
06/08/2012,-,20.3,10.1,0.0
07/08/2012,-,26.4,11.8,0.0
08/08/2012,-,29.6,15.7,0.0
09/08/2012,-,33.6,20.3,0.0
10/08/2012,-,36.9,23.4,0.0
11/08/2012,-,29.4,22.3,0.0
12/08/2012,-,21.9,14.8,0.0
13/08/2012,-,26.0,13.1,0.0
14/08/2012,-,29.5,15.4,0.0
15/08/2012,-,22.3,18.5,0.1
16/08/2012,-,29.4,15.0,0.0
17/08/2012,-,33.5,17.8,0.0
18/08/2012,-,34.7,22.3,0.0
19/08/2012,-,33.1,23.8,0.0
20/08/2012,-,33.8,23.4,0.0
21/08/2012,-,33.7,22.4,0.0
22/08/2012,-,29.5,15.7,0.0
23/08/2012,-,30.5,14.8,0.0
24/08/2012,-,30.2,14.9,0.0
25/08/2012,-,17.9,14.8,0.0
26/08/2012,-,21.8,11.7,0.0
27/08/2012,-,29.0,13.5,35.1
28/08/2012,-,27.4,14.2,0.0
29/08/2012,-,24.4,15.9,0.0
30/08/2012,-,15.2,12.9,0.6
31/08/2012,-,14.8,10.7,0.5
01/09/2012,-,15.1,10.0,0.0
02/09/2012,-,17.0,9.6,0.0
03/09/2012,-,17.1,10.6,0.0
04/09/2012,-,18.2,12.3,0.0
05/09/2012,-,19.3,13.9,0.0
06/09/2012,-,24.4,14.7,0.0
07/09/2012,-,27.3,16.0,0.0
08/09/2012,-,28.9,17.8,0.0
09/09/2012,-,27.2,13.0,0.0
10/09/2012,-,25.6,16.8,0.0
11/09/2012,-,24.9,16.7,0.0
12/09/2012,-,17.4,15.3,2.7
13/09/2012,-,13.5,10.0,7.4
14/09/2012,-,18.9,9.3,0.0
15/09/2012,-,24.8,9.6,0.0
16/09/2012,-,25.6,13.4,0.0
17/09/2012,-,25.3,16.3,0.0
18/09/2012,-,15.9,14.2,0.0
19/09/2012,-,16.5,11.4,0.0
20/09/2012,-,22.6,9.6,0.0
21/09/2012,-,25.2,13.0,0.8
22/09/2012,-,25.0,13.4,0.0
23/09/2012,-,26.4,16.2,7.5
24/09/2012,-,19.6,12.3,0.0
25/09/2012,-,16.0,12.0,14.8
26/09/2012,-,13.6,8.1,0.0
27/09/2012,-,15.4,8.0,0.0
28/09/2012,-,15.0,9.1,11.4
29/09/2012,-,11.3,10.5,0.6
30/09/2012,-,13.1,8.4,0.0
01/10/2012,-,17.0,3.8,0.0
02/10/2012,-,20.1,4.9,0.0
03/10/2012,-,20.6,10.6,0.0
04/10/2012,-,18.6,11.7,0.0
05/10/2012,-,21.1,12.9,0.0
06/10/2012,-,20.3,13.9,0.0
07/10/2012,-,21.9,10.9,0.0
08/10/2012,-,25.6,10.7,0.0
09/10/2012,-,22.8,13.5,0.0
10/10/2012,-,21.0,14.0,6.9
11/10/2012,-,18.3,12.8,4.8
12/10/2012,-,12.7,9.9,0.7
13/10/2012,-,13.5,7.4,0.3
14/10/2012,-,12.6,8.2,13.7
15/10/2012,-,10.2,6.3,0.1
16/10/2012,-,12.9,6.9,0.8
17/10/2012,-,13.9,8.0,0.0
18/10/2012,-,17.9,10.6,10.6
19/10/2012,-,12.8,12.7,19.0
20/10/2012,-,12.4,9.6,41.1
21/10/2012,-,13.7,10.2,10.2
22/10/2012,-,14.8,11.2,0.7
23/10/2012,-,17.2,10.3,0.0
24/10/2012,-,16.5,10.9,15.4
25/10/2012,-,13.4,11.6,8.8
26/10/2012,-,12.5,11.4,28.8
27/10/2012,-,9.2,9.0,20.2
28/10/2012,-,4.6,0.8,0.2
29/10/2012,-,9.8,0.8,0.0
30/10/2012,-,7.8,2.7,0.0
31/10/2012,-,11.5,5.0,0.0
01/11/2012,-,12.6,5.4,6.0
02/11/2012,-,13.4,6.3,0.0
03/11/2012,-,10.8,8.8,6.1
04/11/2012,-,9.8,9.4,3.8
05/11/2012,-,9.1,2.1,2.3
06/11/2012,-,6.2,4.3,4.6
07/11/2012,-,8.3,1.7,0.0
08/11/2012,-,9.6,5.4,0.4
09/11/2012,-,10.9,7.8,3.8
10/11/2012,-,10.9,6.4,6.1
11/11/2012,-,5.8,3.7,0.7
12/11/2012,-,7.5,3.9,0.0
13/11/2012,-,13.1,4.5,0.0
14/11/2012,-,13.9,2.3,0.0
15/11/2012,-,13.0,10.8,0.0
16/11/2012,-,11.9,9.9,0.0
17/11/2012,-,9.9,8.7,41.6
18/11/2012,-,9.5,8.3,1.4
19/11/2012,-,9.7,3.6,0.0
20/11/2012,-,11.1,4.9,0.4
21/11/2012,-,8.4,7.3,0.0
22/11/2012,-,8.6,-1.6,0.0
23/11/2012,-,8.8,5.5,0.0
24/11/2012,-,9.5,6.4,0.2
25/11/2012,-,9.2,8.0,12.4
26/11/2012,-,6.2,6.2,1.2
27/11/2012,-,4.0,2.6,34.2
28/11/2012,-,3.4,1.6,70.2
29/11/2012,-,1.8,0.8,23.2
30/11/2012,-,0.9,0.0,0.0
01/12/2012,-,1.3,-1.0,0.0
02/12/2012,-,5.8,-1.2,4.2
03/12/2012,-,8.8,1.3,9.9
04/12/2012,-,4.3,4.3,24.2
05/12/2012,-,2.7,0.8,17.7
06/12/2012,-,5.8,1.1,0.0
07/12/2012,-,7.6,2.0,19.2
08/12/2012,-,4.8,3.0,8.4
09/12/2012,-,7.2,1.5,0.0
10/12/2012,-,4.9,0.5,0.0
11/12/2012,-,5.2,1.4,0.0
12/12/2012,-,2.1,-1.4,0.2
13/12/2012,-,5.3,0.0,15.2
14/12/2012,-,8.9,2.5,25.8
15/12/2012,-,10.1,5.8,0.0
16/12/2012,-,9.5,6.8,13.5
17/12/2012,-,8.1,4.8,0.2
18/12/2012,-,8.9,2.8,0.6
19/12/2012,-,8.5,4.7,1.3
20/12/2012,-,10.2,6.5,0.6
21/12/2012,-,10.8,5.6,1.1
22/12/2012,-,12.2,5.8,0.0
23/12/2012,-,11.4,5.4,0.0
24/12/2012,-,12.0,7.5,0.0
25/12/2012,-,11.1,9.6,0.2
26/12/2012,-,8.4,5.5,0.0
27/12/2012,-,8.9,1.5,0.1
