Fecha, Temperatura media, Temperatura maxima, Temperatura minima, Precipitacion acumulada
01/01/2011,-,12.3,0.6,0.0
02/01/2011,-,8.5,1.6,0.1
03/01/2011,-,5.1,-2.0,0.0
04/01/2011,-,5.4,-2.2,0.4
05/01/2011,-,11.2,4.3,0.5
06/01/2011,-,16.8,9.8,0.4
07/01/2011,-,14.8,10.6,0.0
08/01/2011,-,14.5,10.7,1.3
09/01/2011,-,11.4,1.5,0.0
10/01/2011,-,11.1,-1.4,1.5
11/01/2011,-,11.2,5.3,3.1
12/01/2011,-,15.0,7.6,0.1
13/01/2011,-,14.0,3.8,0.0
14/01/2011,-,9.1,2.1,0.0
15/01/2011,-,13.5,-0.7,0.0
16/01/2011,-,9.8,-0.1,0.0
17/01/2011,-,12.0,2.2,0.0
18/01/2011,-,9.8,0.2,0.0
19/01/2011,-,11.0,5.2,0.0
20/01/2011,-,11.0,-0.3,0.0
21/01/2011,-,3.6,-1.9,0.0
22/01/2011,-,2.2,-2.9,0.0
23/01/2011,-,5.0,-4.3,0.0
24/01/2011,-,5.6,-3.1,0.0
25/01/2011,-,5.4,-5.3,0.0
26/01/2011,-,8.6,-6.2,0.0
27/01/2011,-,7.7,-4.2,0.1
28/01/2011,-,6.0,1.3,8.1
29/01/2011,-,7.5,2.3,0.2
30/01/2011,-,7.1,2.9,0.0
31/01/2011,-,5.3,2.6,0.0
01/02/2011,-,5.4,2.7,0.0
02/02/2011,-,10.1,2.7,0.0
03/02/2011,-,11.1,4.9,0.0
04/02/2011,-,13.8,2.4,0.0
05/02/2011,-,18.7,-0.1,0.0
06/02/2011,-,17.8,-1.7,0.0
07/02/2011,-,17.6,-1.6,0.0
08/02/2011,-,15.9,-1.4,0.0
09/02/2011,-,15.7,-1.9,0.0
10/02/2011,-,15.7,-1.1,0.0
11/02/2011,-,14.7,0.1,0.0
12/02/2011,-,11.2,-1.8,0.0
13/02/2011,-,13.5,-2.6,7.6
14/02/2011,-,10.9,2.0,0.5
15/02/2011,-,8.0,3.6,2.4
16/02/2011,-,11.3,1.3,0.0
17/02/2011,-,12.6,3.0,0.0
18/02/2011,-,15.1,4.8,0.0
19/02/2011,-,9.7,6.1,4.5
20/02/2011,-,14.0,1.9,4.4
21/02/2011,-,11.2,5.0,28.1
22/02/2011,-,11.7,8.5,8.7
23/02/2011,-,13.2,8.8,0.0
24/02/2011,-,14.2,8.3,0.0
25/02/2011,-,16.7,6.7,0.0
26/02/2011,-,12.8,5.6,3.1
27/02/2011,-,8.5,3.2,23.9
28/02/2011,-,7.5,0.3,3.9
01/03/2011,-,7.3,0.8,0.4
02/03/2011,-,6.8,3.7,0.0
03/03/2011,-,7.0,2.2,1.5
04/03/2011,-,8.3,0.7,0.7
05/03/2011,-,13.8,-0.2,0.0
06/03/2011,-,16.0,-1.3,0.0
07/03/2011,-,17.4,-0.8,0.0
08/03/2011,-,13.3,6.4,0.1
09/03/2011,-,14.6,3.6,0.0
10/03/2011,-,17.6,1.2,0.0
11/03/2011,-,18.3,1.3,1.0
12/03/2011,-,12.9,6.4,0.0
13/03/2011,-,17.2,3.5,0.0
14/03/2011,-,15.4,10.0,3.2
15/03/2011,-,12.8,9.8,27.2
16/03/2011,-,13.9,9.1,1.0
17/03/2011,-,10.3,6.8,4.7
18/03/2011,-,14.3,6.3,0.0
19/03/2011,-,13.8,6.0,0.0
20/03/2011,-,14.2,3.7,0.0
21/03/2011,-,17.1,1.7,0.0
22/03/2011,-,10.8,3.7,0.0
23/03/2011,-,16.2,0.2,0.0
24/03/2011,-,13.0,3.8,0.0
25/03/2011,-,18.0,7.9,0.0
26/03/2011,-,19.6,5.5,1.9
27/03/2011,-,14.9,7.0,8.2
28/03/2011,-,15.9,6.2,0.8
29/03/2011,-,16.3,9.0,9.3
30/03/2011,-,14.3,7.8,0.0
31/03/2011,-,22.1,9.3,0.0
01/04/2011,-,25.7,6.2,0.0
02/04/2011,-,26.1,11.3,0.0
03/04/2011,-,14.2,8.3,3.3
04/04/2011,-,15.9,6.2,0.0
05/04/2011,-,25.6,4.6,0.0
06/04/2011,-,26.8,8.4,0.0
07/04/2011,-,27.8,9.0,0.0
08/04/2011,-,29.9,9.2,0.0
09/04/2011,-,28.9,9.2,0.0
10/04/2011,-,14.8,11.0,0.2
11/04/2011,-,13.6,11.0,0.0
12/04/2011,-,17.3,6.9,0.0
13/04/2011,-,23.4,4.5,0.0
14/04/2011,-,17.8,7.1,0.0
15/04/2011,-,17.0,6.7,0.0
16/04/2011,-,20.8,4.6,0.0
17/04/2011,-,22.4,5.4,0.0
18/04/2011,-,22.8,7.1,0.0
19/04/2011,-,22.6,6.9,0.0
20/04/2011,-,19.9,9.3,5.8
21/04/2011,-,21.3,12.5,2.7
22/04/2011,-,16.7,10.0,0.7
23/04/2011,-,19.1,9.4,4.4
24/04/2011,-,19.5,11.2,1.7
25/04/2011,-,18.2,11.6,0.0
26/04/2011,-,19.7,11.2,0.0
27/04/2011,-,20.0,8.5,0.0
28/04/2011,-,21.0,9.0,0.0
29/04/2011,-,22.5,5.9,0.0
30/04/2011,-,22.1,8.0,0.0
01/05/2011,-,22.7,13.2,0.1
02/05/2011,-,22.0,9.6,0.0
03/05/2011,-,19.2,8.8,0.0
04/05/2011,-,21.2,7.0,0.0
05/05/2011,-,25.7,6.9,0.0
06/05/2011,-,24.6,13.6,1.6
07/05/2011,-,17.8,10.0,15.6
08/05/2011,-,23.6,8.3,0.0
09/05/2011,-,26.9,8.2,0.0
10/05/2011,-,27.5,10.3,0.0
11/05/2011,-,29.6,10.4,0.5
12/05/2011,-,21.8,12.3,0.0
13/05/2011,-,26.2,11.0,1.7
14/05/2011,-,15.5,8.8,0.3
15/05/2011,-,17.7,8.1,0.0
16/05/2011,-,22.3,6.9,0.0
17/05/2011,-,27.7,6.8,0.0
18/05/2011,-,27.7,9.2,0.0
19/05/2011,-,25.1,10.7,1.2
20/05/2011,-,24.2,9.4,0.0
21/05/2011,-,27.9,12.0,0.0
22/05/2011,-,22.1,13.3,0.0
23/05/2011,-,29.8,9.2,0.0
24/05/2011,-,22.2,13.0,0.0
25/05/2011,-,32.3,8.3,5.0
26/05/2011,-,21.4,12.5,0.0
27/05/2011,-,18.5,10.3,0.0
28/05/2011,-,24.4,6.4,0.0
29/05/2011,-,31.4,9.2,0.3
30/05/2011,-,27.1,14.6,9.5
31/05/2011,-,17.7,9.8,0.1
01/06/2011,-,17.3,8.7,0.0
02/06/2011,-,17.6,12.7,0.0
03/06/2011,-,23.7,8.6,0.0
04/06/2011,-,24.7,13.2,0.0
05/06/2011,-,24.3,10.5,0.9
06/06/2011,-,24.0,12.6,73.3
07/06/2011,-,16.6,11.5,3.1
08/06/2011,-,18.3,9.4,0.0
09/06/2011,-,23.4,8.2,5.6
10/06/2011,-,18.3,9.0,0.0
11/06/2011,-,21.3,7.6,0.0
12/06/2011,-,28.7,10.9,0.0
13/06/2011,-,27.1,13.0,0.0
14/06/2011,-,30.4,12.6,0.0
15/06/2011,-,31.2,14.5,0.0
16/06/2011,-,20.3,13.9,0.0
17/06/2011,-,29.4,11.6,0.0
18/06/2011,-,19.8,11.4,0.0
19/06/2011,-,25.4,9.1,0.0
20/06/2011,-,33.6,12.1,0.0
21/06/2011,-,34.7,14.9,10.5
22/06/2011,-,21.1,14.2,0.0
23/06/2011,-,21.4,11.4,0.0
24/06/2011,-,24.0,9.6,0.0
25/06/2011,-,34.0,10.7,0.0
26/06/2011,-,37.9,16.3,0.0
27/06/2011,-,37.6,19.7,0.5
28/06/2011,-,24.9,15.1,0.0
29/06/2011,-,16.9,12.8,0.0
30/06/2011,-,22.4,12.7,0.0
01/07/2011,-,26.4,12.3,0.0
02/07/2011,-,33.2,10.4,0.0
03/07/2011,-,32.7,17.3,0.6
04/07/2011,-,26.3,14.6,0.0
05/07/2011,-,33.7,11.6,0.0
06/07/2011,-,25.1,13.9,0.0
07/07/2011,-,22.4,11.4,0.0
08/07/2011,-,30.6,8.6,0.0
09/07/2011,-,30.3,16.6,2.3
10/07/2011,-,25.9,17.0,0.0
11/07/2011,-,35.2,14.6,0.0
12/07/2011,-,27.5,14.7,1.5
13/07/2011,-,19.8,13.8,0.4
14/07/2011,-,23.9,13.9,0.0
15/07/2011,-,28.6,9.8,0.0
16/07/2011,-,30.4,15.8,1.7
17/07/2011,-,21.1,12.8,0.0
18/07/2011,-,26.6,11.3,2.5
19/07/2011,-,18.9,13.4,1.1
20/07/2011,-,24.5,12.3,0.0
21/07/2011,-,22.8,14.5,0.0
22/07/2011,-,20.9,13.2,0.0
23/07/2011,-,21.3,12.5,0.0
24/07/2011,-,21.6,12.8,0.0
25/07/2011,-,21.8,16.4,0.1
26/07/2011,-,23.7,15.3,0.0
27/07/2011,-,24.5,14.3,0.0
28/07/2011,-,24.7,13.9,0.0
29/07/2011,-,27.4,12.7,0.0
30/07/2011,-,26.9,15.5,0.0
31/07/2011,-,28.7,11.9,0.0
01/08/2011,-,35.1,12.2,0.5
02/08/2011,-,32.2,19.3,0.0
03/08/2011,-,27.2,17.0,0.0
04/08/2011,-,32.5,13.9,0.0
05/08/2011,-,32.0,17.1,0.0
06/08/2011,-,32.6,16.5,0.0
07/08/2011,-,29.0,15.4,0.0
08/08/2011,-,21.6,13.2,0.0
09/08/2011,-,22.6,12.9,0.0
10/08/2011,-,28.9,11.5,0.0
11/08/2011,-,33.1,11.8,0.0
12/08/2011,-,31.7,14.2,0.0
13/08/2011,-,35.0,15.3,0.0
14/08/2011,-,30.5,16.2,0.0
15/08/2011,-,28.4,17.7,0.0
16/08/2011,-,35.9,15.3,0.0
17/08/2011,-,37.8,17.4,0.0
18/08/2011,-,31.0,15.6,0.8
19/08/2011,-,38.5,15.6,0.0
20/08/2011,-,41.0,18.9,0.0
21/08/2011,-,39.6,22.8,0.0
22/08/2011,-,35.0,20.6,0.0
23/08/2011,-,30.9,17.3,0.0
24/08/2011,-,25.7,17.1,0.0
25/08/2011,-,34.0,14.1,0.0
26/08/2011,-,25.5,14.0,1.0
27/08/2011,-,23.1,12.0,0.0
28/08/2011,-,31.1,8.9,0.0
29/08/2011,-,27.5,13.8,0.0
30/08/2011,-,33.2,11.9,0.0
31/08/2011,-,31.1,16.0,0.0
01/09/2011,-,32.2,16.6,3.8
02/09/2011,-,30.3,15.9,11.6
03/09/2011,-,24.9,15.6,0.4
04/09/2011,-,24.4,14.3,0.0
05/09/2011,-,21.6,12.0,0.0
06/09/2011,-,29.7,8.4,0.0
07/09/2011,-,28.2,11.3,0.0
08/09/2011,-,30.8,13.3,0.0
09/09/2011,-,35.7,13.2,0.0
10/09/2011,-,35.8,16.3,0.0
11/09/2011,-,26.2,14.0,0.0
12/09/2011,-,30.4,12.1,0.0
13/09/2011,-,32.3,13.0,0.0
14/09/2011,-,29.2,17.0,0.0
15/09/2011,-,34.5,16.1,0.0
16/09/2011,-,30.7,17.2,2.0
17/09/2011,-,24.9,15.8,0.0
18/09/2011,-,18.1,11.8,1.6
19/09/2011,-,18.1,11.3,0.5
20/09/2011,-,27.0,9.8,0.0
21/09/2011,-,30.0,9.5,0.0
22/09/2011,-,25.1,13.8,0.0
23/09/2011,-,29.6,11.4,0.0
24/09/2011,-,25.6,14.7,0.0
25/09/2011,-,28.9,11.7,0.0
26/09/2011,-,30.5,11.6,0.0
27/09/2011,-,31.3,11.5,0.0
28/09/2011,-,30.7,12.6,0.0
29/09/2011,-,29.6,11.2,0.0
30/09/2011,-,28.4,12.6,0.0
01/10/2011,-,28.1,9.7,0.0
02/10/2011,-,29.4,8.7,0.0
03/10/2011,-,29.6,8.0,0.0
04/10/2011,-,29.0,8.7,0.0
05/10/2011,-,25.9,13.1,0.0
06/10/2011,-,23.8,9.6,1.1
07/10/2011,-,15.9,10.7,2.6
08/10/2011,-,17.1,10.4,0.0
09/10/2011,-,19.3,11.4,0.0
10/10/2011,-,28.5,7.4,0.0
11/10/2011,-,29.4,8.5,0.0
12/10/2011,-,26.3,9.0,0.0
13/10/2011,-,21.1,13.1,0.0
14/10/2011,-,25.5,7.0,0.0
15/10/2011,-,25.2,6.8,0.0
16/10/2011,-,24.4,7.0,0.0
17/10/2011,-,23.9,5.0,0.0
18/10/2011,-,24.8,5.3,0.0
19/10/2011,-,19.1,8.0,2.4
20/10/2011,-,15.6,5.5,0.0
21/10/2011,-,18.5,0.4,0.0
22/10/2011,-,21.5,2.6,0.0
23/10/2011,-,22.7,8.3,0.0
24/10/2011,-,17.3,9.7,3.1
25/10/2011,-,16.3,5.8,0.0
26/10/2011,-,17.8,2.5,1.6
27/10/2011,-,17.7,9.2,7.2
28/10/2011,-,14.8,8.5,0.0
29/10/2011,-,18.5,10.1,0.0
30/10/2011,-,21.3,8.5,0.0
31/10/2011,-,22.1,5.2,1.0
01/11/2011,-,19.3,13.3,1.2
02/11/2011,-,18.8,15.3,1.7
03/11/2011,-,17.7,10.8,10.7
04/11/2011,-,15.8,10.3,17.6
05/11/2011,-,12.7,9.1,22.2
06/11/2011,-,13.5,9.9,9.6
07/11/2011,-,13.5,10.9,2.2
08/11/2011,-,18.0,8.1,0.0
09/11/2011,-,18.2,6.8,2.4
10/11/2011,-,19.0,9.4,1.1
11/11/2011,-,20.6,11.7,0.0
12/11/2011,-,22.0,7.9,0.0
13/11/2011,-,19.5,13.3,0.0
14/11/2011,-,16.0,13.8,6.6
15/11/2011,-,16.3,7.6,0.0
16/11/2011,-,16.1,6.3,0.0
17/11/2011,-,16.4,3.7,0.0
18/11/2011,-,16.6,5.1,0.0
19/11/2011,-,16.6,10.3,0.3
20/11/2011,-,16.3,10.8,0.0
21/11/2011,-,18.1,6.7,0.0
22/11/2011,-,13.0,4.4,0.4
23/11/2011,-,17.6,10.1,0.0
24/11/2011,-,18.0,5.4,0.0
25/11/2011,-,15.6,1.4,0.0
26/11/2011,-,15.6,3.8,0.0
27/11/2011,-,14.0,0.3,0.0
28/11/2011,-,5.9,-0.2,0.0
29/11/2011,-,8.4,4.0,0.0
30/11/2011,-,7.0,3.1,0.0
01/12/2011,-,8.8,4.3,1.8
02/12/2011,-,8.3,4.6,2.3
03/12/2011,-,10.3,3.3,0.0
04/12/2011,-,13.1,3.6,0.3
05/12/2011,-,11.2,6.5,1.2
06/12/2011,-,13.3,6.2,0.5
07/12/2011,-,15.1,7.1,0.0
08/12/2011,-,15.6,4.9,0.0
09/12/2011,-,8.8,1.8,0.0
10/12/2011,-,10.8,2.1,0.0
11/12/2011,-,6.8,2.2,0.1
12/12/2011,-,13.0,3.8,0.0
13/12/2011,-,13.8,3.4,0.0
14/12/2011,-,14.6,5.0,0.0
15/12/2011,-,13.5,6.2,0.0
16/12/2011,-,13.9,5.1,14.2
17/12/2011,-,6.9,0.7,37.4
18/12/2011,-,6.6,0.4,4.6
19/12/2011,-,7.2,1.4,2.1
20/12/2011,-,11.5,2.7,5.2
21/12/2011,-,12.6,9.4,0.0
22/12/2011,-,11.6,6.1,0.0
23/12/2011,-,12.6,1.7,0.4
24/12/2011,-,9.7,2.9,0.0
25/12/2011,-,9.2,-1.1,0.0
26/12/2011,-,9.3,-3.3,0.0
27/12/2011,-,10.1,-3.3,0.0
