Fecha, Temperatura media, Temperatura maxima, Temperatura minima, Precipitacion acumulada
01/01/2019,-,13.8,3.2,0.0
02/01/2019,-,5.9,3.2,0.0
03/01/2019,-,14.7,1.0,0.0
04/01/2019,-,12.8,1.9,0.0
05/01/2019,-,14.3,2.8,0.0
06/01/2019,-,10.8,3.4,0.0
07/01/2019,-,5.7,0.7,0.0
08/01/2019,-,7.3,1.6,0.0
09/01/2019,-,9.7,5.5,0.3
10/01/2019,-,4.1,2.2,0.0
11/01/2019,-,5.7,-0.6,0.0
12/01/2019,-,9.2,1.9,0.0
13/01/2019,-,9.8,6.4,0.0
14/01/2019,-,10.9,7.6,0.0
15/01/2019,-,13.8,4.9,0.0
16/01/2019,-,9.8,-0.3,0.0
17/01/2019,-,9.8,0.8,0.9
18/01/2019,-,7.2,1.0,0.0
19/01/2019,-,8.3,1.4,5.1
20/01/2019,-,8.0,4.2,6.6
21/01/2019,-,6.2,3.4,0.6
22/01/2019,-,4.1,1.7,36.7
23/01/2019,-,6.8,0.3,47.2
24/01/2019,-,4.2,1.4,0.7
25/01/2019,-,10.1,1.8,0.0
26/01/2019,-,13.2,7.4,0.0
27/01/2019,-,7.1,1.9,21.8
28/01/2019,-,8.6,3.4,14.4
29/01/2019,-,7.9,4.5,20.0
30/01/2019,-,7.8,1.4,15.2
31/01/2019,-,8.9,2.6,12.6
01/02/2019,-,10.8,4.8,28.2
02/02/2019,-,5.1,1.9,17.0
03/02/2019,-,5.8,0.0,2.3
04/02/2019,-,10.0,-1.3,0.0
05/02/2019,-,12.8,5.1,0.0
06/02/2019,-,15.2,6.5,0.0
07/02/2019,-,10.6,4.0,0.0
08/02/2019,-,13.8,0.7,0.0
09/02/2019,-,14.4,3.6,0.0
10/02/2019,-,10.0,7.1,4.2
11/02/2019,-,9.0,5.2,1.3
12/02/2019,-,14.8,1.4,0.0
13/02/2019,-,14.8,-0.1,0.0
14/02/2019,-,16.1,1.4,0.0
15/02/2019,-,14.8,0.5,0.0
16/02/2019,-,17.0,0.7,0.0
17/02/2019,-,18.2,4.8,0.0
18/02/2019,-,14.8,1.4,0.0
19/02/2019,-,14.9,2.4,0.0
20/02/2019,-,15.0,1.7,0.0
21/02/2019,-,17.8,2.6,0.0
22/02/2019,-,21.1,2.2,0.0
23/02/2019,-,20.0,2.1,0.0
24/02/2019,-,18.0,3.8,0.0
25/02/2019,-,18.7,3.4,0.0
26/02/2019,-,21.3,3.2,0.0
27/02/2019,-,23.1,3.5,0.0
28/02/2019,-,15.0,7.2,0.0
01/03/2019,-,15.0,3.4,0.0
02/03/2019,-,16.9,4.9,0.0
03/03/2019,-,16.0,3.8,0.0
04/03/2019,-,13.6,9.7,0.0
05/03/2019,-,17.0,4.2,0.0
06/03/2019,-,16.8,12.4,7.3
07/03/2019,-,14.1,3.2,1.4
08/03/2019,-,13.2,7.3,0.0
09/03/2019,-,17.9,5.8,0.0
10/03/2019,-,15.1,6.1,0.0
11/03/2019,-,13.0,7.0,0.0
12/03/2019,-,17.0,0.5,0.0
13/03/2019,-,9.5,5.3,4.3
14/03/2019,-,10.0,5.4,0.0
15/03/2019,-,14.0,7.4,0.0
16/03/2019,-,22.3,0.8,0.0
17/03/2019,-,11.2,7.8,1.8
18/03/2019,-,10.2,4.3,2.1
19/03/2019,-,9.1,4.3,2.6
20/03/2019,-,12.6,4.2,0.0
21/03/2019,-,16.0,0.4,0.0
22/03/2019,-,19.0,1.7,0.0
23/03/2019,-,22.2,3.4,0.0
24/03/2019,-,21.3,5.3,0.0
25/03/2019,-,13.6,8.7,0.0
26/03/2019,-,14.8,5.0,0.0
27/03/2019,-,16.5,5.6,0.0
28/03/2019,-,17.0,4.4,0.0
29/03/2019,-,19.0,2.4,0.0
30/03/2019,-,18.8,4.4,0.0
31/03/2019,-,17.2,3.7,1.1
01/04/2019,-,15.7,7.8,0.0
02/04/2019,-,17.2,7.8,2.1
03/04/2019,-,9.8,6.3,0.1
04/04/2019,-,13.4,1.3,0.0
05/04/2019,-,11.9,7.4,5.1
06/04/2019,-,12.8,4.3,4.7
07/04/2019,-,13.2,4.8,0.0
08/04/2019,-,12.3,7.3,2.6
09/04/2019,-,14.8,2.4,10.4
10/04/2019,-,14.0,5.7,0.9
11/04/2019,-,11.9,6.6,0.2
12/04/2019,-,14.8,7.5,0.0
13/04/2019,-,21.9,3.4,0.0
14/04/2019,-,20.9,7.5,0.0
15/04/2019,-,22.8,8.4,29.6
16/04/2019,-,19.3,8.3,0.0
17/04/2019,-,21.7,10.9,0.0
18/04/2019,-,18.8,10.8,0.0
19/04/2019,-,21.3,9.7,0.0
20/04/2019,-,22.7,7.7,0.0
21/04/2019,-,15.3,10.8,0.0
22/04/2019,-,22.9,8.7,0.0
23/04/2019,-,17.0,11.8,5.9
24/04/2019,-,12.5,6.7,9.9
25/04/2019,-,16.4,7.6,0.0
26/04/2019,-,14.8,7.8,0.0
27/04/2019,-,16.4,5.3,0.0
28/04/2019,-,17.2,8.5,0.0
29/04/2019,-,20.8,6.3,0.0
30/04/2019,-,20.3,7.0,0.0
01/05/2019,-,21.2,5.4,0.0
02/05/2019,-,14.3,9.5,0.0
03/05/2019,-,13.2,7.2,1.9
04/05/2019,-,14.8,7.7,1.9
05/05/2019,-,13.2,2.9,0.0
06/05/2019,-,21.4,2.8,0.0
07/05/2019,-,23.2,6.8,0.0
08/05/2019,-,21.9,15.2,0.0
09/05/2019,-,19.3,7.4,18.3
10/05/2019,-,23.9,10.9,0.0
11/05/2019,-,16.8,11.8,0.0
12/05/2019,-,18.8,8.9,0.0
13/05/2019,-,19.8,8.9,0.0
14/05/2019,-,23.8,6.4,0.0
15/05/2019,-,24.7,10.6,0.0
16/05/2019,-,24.3,8.6,36.6
17/05/2019,-,12.8,8.9,4.2
18/05/2019,-,12.8,6.3,24.8
19/05/2019,-,12.9,7.6,0.6
20/05/2019,-,17.7,6.4,0.0
21/05/2019,-,19.6,6.4,0.0
22/05/2019,-,23.9,8.3,0.0
23/05/2019,-,24.8,9.4,14.9
24/05/2019,-,14.9,11.7,0.0
25/05/2019,-,16.8,11.8,0.4
26/05/2019,-,15.7,10.3,0.0
27/05/2019,-,16.8,11.6,0.4
28/05/2019,-,15.7,10.4,0.6
29/05/2019,-,17.9,9.8,0.0
30/05/2019,-,25.7,8.4,0.0
31/05/2019,-,29.0,11.0,0.0
01/06/2019,-,30.9,12.2,0.0
02/06/2019,-,31.8,15.1,0.0
03/06/2019,-,30.1,15.9,0.0
04/06/2019,-,30.4,14.2,18.1
05/06/2019,-,14.8,10.7,7.6
06/06/2019,-,23.1,8.6,2.1
07/06/2019,-,20.3,10.8,0.0
08/06/2019,-,24.2,6.4,0.1
09/06/2019,-,25.3,11.9,0.0
10/06/2019,-,16.2,11.3,0.0
11/06/2019,-,15.9,9.3,1.9
12/06/2019,-,21.0,5.2,0.0
13/06/2019,-,26.7,7.4,0.2
14/06/2019,-,24.5,11.3,0.0
15/06/2019,-,21.0,12.3,0.0
16/06/2019,-,27.9,9.2,0.0
17/06/2019,-,31.6,13.2,0.0
18/06/2019,-,33.7,17.2,0.0
19/06/2019,-,26.8,15.6,0.0
20/06/2019,-,22.2,15.4,3.9
21/06/2019,-,19.3,13.4,0.0
22/06/2019,-,30.0,9.3,0.0
23/06/2019,-,33.2,17.2,0.0
24/06/2019,-,31.8,17.4,0.0
25/06/2019,-,34.0,17.6,0.0
26/06/2019,-,36.4,17.9,0.0
27/06/2019,-,39.2,19.3,0.0
28/06/2019,-,37.4,19.3,0.0
29/06/2019,-,39.8,18.3,0.0
30/06/2019,-,39.2,15.9,0.0
01/07/2019,-,25.6,17.4,4.2
02/07/2019,-,26.9,16.0,0.0
03/07/2019,-,34.1,17.2,0.0
04/07/2019,-,33.8,18.8,0.0
05/07/2019,-,34.8,19.2,0.0
06/07/2019,-,33.9,18.1,0.0
07/07/2019,-,29.8,19.2,1.0
08/07/2019,-,26.7,19.1,27.3
09/07/2019,-,22.2,16.4,0.0
10/07/2019,-,27.7,15.6,0.0
11/07/2019,-,30.0,15.0,0.0
12/07/2019,-,31.4,16.2,0.0
13/07/2019,-,27.8,17.3,0.0
14/07/2019,-,25.9,19.2,0.0
15/07/2019,-,25.6,18.0,0.0
16/07/2019,-,27.3,14.9,0.0
17/07/2019,-,26.3,16.7,0.0
18/07/2019,-,24.7,16.6,0.0
19/07/2019,-,33.9,12.9,0.0
20/07/2019,-,31.8,19.7,0.0
21/07/2019,-,32.1,17.9,9.3
22/07/2019,-,37.2,18.8,0.0
23/07/2019,-,37.4,21.0,0.0
24/07/2019,-,37.1,19.7,0.0
25/07/2019,-,37.6,23.9,1.3
26/07/2019,-,26.3,19.4,1.0
27/07/2019,-,18.8,15.8,3.3
28/07/2019,-,23.5,14.0,0.0
29/07/2019,-,32.2,11.3,0.0
30/07/2019,-,22.3,15.7,0.0
31/07/2019,-,26.3,11.8,3.3
01/08/2019,-,29.8,15.6,0.4
02/08/2019,-,27.4,16.6,0.0
03/08/2019,-,33.9,14.3,0.0
04/08/2019,-,32.1,18.7,0.0
05/08/2019,-,32.0,17.4,0.0
06/08/2019,-,33.3,18.7,0.0
07/08/2019,-,30.2,18.8,0.0
08/08/2019,-,34.0,20.3,0.0
09/08/2019,-,35.1,23.7,2.7
10/08/2019,-,26.9,15.9,2.1
11/08/2019,-,25.2,16.8,0.0
12/08/2019,-,21.8,14.4,0.0
13/08/2019,-,21.7,13.3,0.0
14/08/2019,-,27.9,10.6,0.0
15/08/2019,-,24.2,16.3,0.0
16/08/2019,-,33.3,11.2,0.0
17/08/2019,-,34.8,15.7,0.0
18/08/2019,-,32.2,17.4,0.0
19/08/2019,-,22.1,15.7,0.0
20/08/2019,-,23.2,16.8,0.0
21/08/2019,-,27.1,13.3,0.0
22/08/2019,-,27.4,14.2,0.0
23/08/2019,-,33.0,12.0,0.0
24/08/2019,-,34.4,15.7,0.0
25/08/2019,-,34.3,17.3,0.0
26/08/2019,-,32.3,17.3,3.1
27/08/2019,-,26.8,16.6,0.0
28/08/2019,-,31.5,15.8,0.0
29/08/2019,-,34.8,16.9,0.0
30/08/2019,-,33.7,17.1,0.0
31/08/2019,-,33.7,17.2,0.0
01/09/2019,-,24.8,17.1,0.0
02/09/2019,-,22.7,14.4,0.0
03/09/2019,-,26.5,12.0,0.0
04/09/2019,-,26.7,10.7,0.0
05/09/2019,-,20.2,14.7,0.0
06/09/2019,-,20.2,12.9,0.0
07/09/2019,-,21.8,11.3,0.0
08/09/2019,-,21.9,13.6,0.0
09/09/2019,-,23.9,7.5,1.7
10/09/2019,-,19.4,11.0,3.3
11/09/2019,-,22.9,11.9,0.0
12/09/2019,-,27.7,11.8,0.0
13/09/2019,-,29.7,12.6,0.3
14/09/2019,-,31.5,15.3,0.2
15/09/2019,-,27.9,15.4,3.9
16/09/2019,-,30.2,16.4,0.0
17/09/2019,-,31.3,15.8,0.0
18/09/2019,-,27.7,14.4,48.6
19/09/2019,-,27.9,15.0,0.0
20/09/2019,-,27.9,16.1,5.8
21/09/2019,-,25.9,16.7,6.4
22/09/2019,-,22.0,16.9,0.0
23/09/2019,-,23.2,10.9,0.0
24/09/2019,-,26.7,13.8,0.0
25/09/2019,-,21.8,15.0,0.0
26/09/2019,-,27.3,11.5,0.0
27/09/2019,-,26.4,12.6,0.0
28/09/2019,-,26.9,13.3,0.0
29/09/2019,-,29.5,13.0,0.0
30/09/2019,-,29.4,12.9,0.0
01/10/2019,-,24.4,13.7,0.2
02/10/2019,-,18.4,13.4,0.0
03/10/2019,-,22.3,10.7,0.0
04/10/2019,-,21.9,10.8,0.0
05/10/2019,-,-,12.9,-
06/10/2019,-,19.9,-,0.0
07/10/2019,-,21.4,10.8,0.0
08/10/2019,-,28.6,9.5,0.0
09/10/2019,-,19.2,14.0,0.0
10/10/2019,-,22.8,8.3,0.0
11/10/2019,-,-,9.4,-
12/10/2019,-,27.3,-,0.4
13/10/2019,-,26.6,14.6,0.0
14/10/2019,-,23.6,19.8,17.3
15/10/2019,-,17.5,7.8,0.0
16/10/2019,-,21.3,9.8,0.6
17/10/2019,-,22.2,12.3,2.4
18/10/2019,-,-,13.7,-
19/10/2019,-,19.7,-,12.0
20/10/2019,-,16.4,12.0,0.9
21/10/2019,-,15.3,6.5,0.0
22/10/2019,-,11.9,5.3,18.0
23/10/2019,-,-,5.7,-
24/10/2019,-,13.2,-,11.8
25/10/2019,-,20.4,7.4,0.0
26/10/2019,-,22.0,7.8,0.0
27/10/2019,-,20.5,9.3,0.0
28/10/2019,-,21.2,12.3,0.0
29/10/2019,-,-,10.2,-
30/10/2019,-,21.4,-,1.9
31/10/2019,-,-,14.9,-
01/11/2019,-,19.0,-,5.6
02/11/2019,-,18.9,14.9,4.7
03/11/2019,-,16.0,9.9,0.7
04/11/2019,-,18.3,9.8,4.7
05/11/2019,-,10.4,6.4,25.2
06/11/2019,-,11.9,7.9,8.2
07/11/2019,-,11.6,8.4,9.3
08/11/2019,-,7.8,1.9,53.3
09/11/2019,-,10.0,3.7,29.7
10/11/2019,-,4.3,1.6,17.0
11/11/2019,-,8.8,0.7,10.2
12/11/2019,-,11.7,3.7,2.1
13/11/2019,-,11.8,6.8,6.3
14/11/2019,-,9.6,3.3,2.7
15/11/2019,-,7.2,2.4,5.7
16/11/2019,-,5.3,-0.9,10.2
17/11/2019,-,7.6,2.4,4.1
18/11/2019,-,7.4,4.3,0.0
19/11/2019,-,11.3,1.3,0.0
20/11/2019,-,10.4,0.8,1.2
21/11/2019,-,11.3,4.8,0.0
22/11/2019,-,12.9,5.4,18.2
23/11/2019,-,8.8,6.0,12.1
24/11/2019,-,-,5.8,-
25/11/2019,-,15.4,-,0.0
26/11/2019,-,16.5,6.7,2.1
27/11/2019,-,14.0,9.4,1.4
28/11/2019,-,14.3,9.4,2.1
29/11/2019,-,15.5,10.8,0.0
30/11/2019,-,14.3,5.6,16.9
01/12/2019,-,-,4.3,-
02/12/2019,-,-,-,-
03/12/2019,-,-,-,-
04/12/2019,-,-,-,-
05/12/2019,-,-,-,-
06/12/2019,-,-,-,-
07/12/2019,-,-,-,-
08/12/2019,-,-,-,-
09/12/2019,-,-,-,-
10/12/2019,-,-,-,-
11/12/2019,-,-,-,-
12/12/2019,-,-,-,-
13/12/2019,-,-,-,-
14/12/2019,-,-,-,-
15/12/2019,-,-,-,-
16/12/2019,-,-,-,-
17/12/2019,-,-,-,-
18/12/2019,-,-,-,-
19/12/2019,-,-,-,-
20/12/2019,-,-,-,-
21/12/2019,-,-,-,-
22/12/2019,-,-,-,-
23/12/2019,-,-,-,-
24/12/2019,-,-,-,-
25/12/2019,-,-,-,-
26/12/2019,-,-,-,-
27/12/2019,-,-,-,-
