Fecha, Temperatura media, Temperatura maxima, Temperatura minima, Precipitacion acumulada
01/01/2019,-,13.0,-1.0,0.0
02/01/2019,-,5.5,2.0,0.0
03/01/2019,-,12.7,-2.0,0.0
04/01/2019,-,11.7,0.5,0.0
05/01/2019,-,11.5,0.2,0.0
06/01/2019,-,12.0,-3.0,0.0
07/01/2019,-,4.0,0.0,0.0
08/01/2019,-,7.0,0.0,0.0
09/01/2019,-,6.5,2.0,0.0
10/01/2019,-,2.7,0.5,0.0
11/01/2019,-,4.5,-1.5,0.0
12/01/2019,-,8.5,-0.5,0.0
13/01/2019,-,8.0,4.5,0.0
14/01/2019,-,10.0,7.0,0.0
15/01/2019,-,12.5,1.0,0.0
16/01/2019,-,11.0,-3.0,0.4
17/01/2019,-,8.5,-2.0,0.3
18/01/2019,-,5.5,0.0,0.9
19/01/2019,-,6.0,0.0,6.6
20/01/2019,-,6.7,1.5,6.0
21/01/2019,-,6.0,3.0,0.5
22/01/2019,-,3.2,0.0,35.0
23/01/2019,-,4.0,0.0,55.0
24/01/2019,-,7.0,0.0,8.0
25/01/2019,-,9.0,0.0,0.8
26/01/2019,-,12.0,6.0,0.4
27/01/2019,-,6.0,0.2,26.7
28/01/2019,-,7.0,3.0,16.7
29/01/2019,-,5.0,3.0,27.0
30/01/2019,-,5.0,1.0,19.2
31/01/2019,-,9.0,1.0,14.2
01/02/2019,-,9.0,2.0,15.0
02/02/2019,-,4.5,0.5,27.0
03/02/2019,-,4.0,0.0,0.0
04/02/2019,-,9.0,-2.0,0.7
05/02/2019,-,10.7,0.0,0.0
06/02/2019,-,14.0,2.0,0.1
07/02/2019,-,9.7,3.0,0.0
08/02/2019,-,14.0,-1.5,0.0
09/02/2019,-,13.5,-0.5,0.8
10/02/2019,-,9.0,2.5,3.6
11/02/2019,-,8.0,4.0,0.7
12/02/2019,-,13.5,0.0,0.0
13/02/2019,-,14.0,-2.0,0.0
14/02/2019,-,15.5,-1.5,0.0
15/02/2019,-,14.7,-2.2,0.0
16/02/2019,-,16.5,-2.7,0.0
17/02/2019,-,17.2,2.0,0.0
18/02/2019,-,15.2,0.2,0.0
19/02/2019,-,13.2,0.2,0.0
20/02/2019,-,14.2,-1.0,0.0
21/02/2019,-,17.0,-0.2,0.0
22/02/2019,-,20.0,0.0,0.0
23/02/2019,-,18.5,0.0,0.0
24/02/2019,-,17.5,0.5,0.0
25/02/2019,-,17.0,0.5,0.0
26/02/2019,-,20.0,0.5,0.0
27/02/2019,-,21.0,0.0,0.0
28/02/2019,-,14.0,1.0,0.0
01/03/2019,-,14.0,4.2,0.0
02/03/2019,-,15.0,4.0,0.0
03/03/2019,-,17.5,1.0,0.0
04/03/2019,-,13.2,4.5,0.0
05/03/2019,-,17.5,1.5,0.0
06/03/2019,-,13.0,6.5,7.5
07/03/2019,-,12.5,0.0,1.1
08/03/2019,-,12.0,1.0,0.0
09/03/2019,-,16.2,4.0,0.0
10/03/2019,-,15.0,3.0,0.0
11/03/2019,-,12.0,3.0,0.0
12/03/2019,-,17.0,-2.0,0.1
13/03/2019,-,8.0,1.0,4.5
14/03/2019,-,8.0,4.0,0.7
15/03/2019,-,13.0,7.0,0.0
16/03/2019,-,22.5,-0.5,0.0
17/03/2019,-,11.0,0.0,3.4
18/03/2019,-,9.0,3.0,2.4
19/03/2019,-,8.0,3.0,0.4
20/03/2019,-,10.0,4.0,0.0
21/03/2019,-,15.5,-1.0,0.0
22/03/2019,-,18.0,-1.0,0.0
23/03/2019,-,21.0,0.0,0.0
24/03/2019,-,21.0,2.0,0.0
25/03/2019,-,12.0,3.0,0.0
26/03/2019,-,13.0,2.5,0.0
27/03/2019,-,15.5,3.0,0.0
28/03/2019,-,16.0,4.0,0.0
29/03/2019,-,18.0,0.5,0.0
30/03/2019,-,17.8,1.5,0.0
31/03/2019,-,17.0,0.5,1.5
01/04/2019,-,13.0,6.5,4.0
02/04/2019,-,15.7,7.0,1.7
03/04/2019,-,8.5,5.0,1.4
04/04/2019,-,11.5,0.5,0.0
05/04/2019,-,9.0,1.0,8.9
06/04/2019,-,10.7,3.8,5.9
07/04/2019,-,11.5,3.7,1.5
08/04/2019,-,11.0,4.5,0.8
09/04/2019,-,13.0,0.5,9.9
10/04/2019,-,11.7,6.0,1.4
11/04/2019,-,10.0,4.5,0.3
12/04/2019,-,13.2,6.0,0.0
13/04/2019,-,20.5,0.7,0.0
14/04/2019,-,19.5,4.5,0.0
15/04/2019,-,21.0,6.0,40.9
16/04/2019,-,18.0,6.0,0.0
17/04/2019,-,20.5,8.0,0.0
18/04/2019,-,18.0,8.0,0.2
19/04/2019,-,19.0,7.7,0.0
20/04/2019,-,21.0,9.0,0.6
21/04/2019,-,13.0,8.5,0.0
22/04/2019,-,17.7,5.5,0.0
23/04/2019,-,16.0,7.0,5.8
24/04/2019,-,11.0,6.0,18.9
25/04/2019,-,14.0,6.0,2.2
26/04/2019,-,13.0,7.0,0.0
27/04/2019,-,14.0,4.0,0.0
28/04/2019,-,16.0,6.0,0.0
29/04/2019,-,19.5,5.0,0.0
30/04/2019,-,18.5,5.5,0.0
01/05/2019,-,21.7,3.7,0.0
02/05/2019,-,13.2,8.0,1.0
03/05/2019,-,11.0,6.0,0.3
04/05/2019,-,13.0,4.0,2.3
05/05/2019,-,11.0,2.7,0.0
06/05/2019,-,20.7,1.0,0.0
07/05/2019,-,21.5,3.5,0.8
08/05/2019,-,19.0,11.0,0.0
09/05/2019,-,18.0,4.0,17.5
10/05/2019,-,21.0,11.0,2.0
11/05/2019,-,15.0,11.0,0.0
12/05/2019,-,16.7,8.0,0.0
13/05/2019,-,18.0,9.0,0.0
14/05/2019,-,23.0,3.7,0.0
15/05/2019,-,23.5,6.7,0.0
16/05/2019,-,24.0,6.0,40.2
17/05/2019,-,9.0,8.5,5.5
18/05/2019,-,10.5,4.0,43.7
19/05/2019,-,12.0,7.0,1.3
20/05/2019,-,16.0,5.0,0.0
21/05/2019,-,17.0,5.5,0.0
22/05/2019,-,23.0,6.0,0.0
23/05/2019,-,23.0,6.5,15.4
24/05/2019,-,13.2,11.5,0.0
25/05/2019,-,14.5,11.2,0.1
26/05/2019,-,15.5,9.7,0.0
27/05/2019,-,16.0,11.0,0.0
28/05/2019,-,13.0,10.0,1.1
29/05/2019,-,17.0,8.0,0.0
30/05/2019,-,23.2,8.0,0.0
31/05/2019,-,26.5,8.2,0.0
01/06/2019,-,28.5,9.0,0.0
02/06/2019,-,29.5,9.0,0.0
03/06/2019,-,28.5,9.2,0.0
04/06/2019,-,29.0,11.5,33.0
05/06/2019,-,14.0,9.0,3.6
06/06/2019,-,21.5,7.5,3.9
07/06/2019,-,18.2,8.5,0.0
08/06/2019,-,22.5,4.5,0.0
09/06/2019,-,24.5,10.5,0.0
10/06/2019,-,14.0,11.0,0.0
11/06/2019,-,13.0,8.5,0.5
12/06/2019,-,19.0,3.0,0.0
13/06/2019,-,24.5,5.2,0.0
14/06/2019,-,23.5,9.5,0.0
15/06/2019,-,19.0,11.5,0.0
16/06/2019,-,26.0,7.0,0.0
17/06/2019,-,29.0,10.0,0.0
18/06/2019,-,30.0,13.0,0.0
19/06/2019,-,25.0,12.5,0.0
20/06/2019,-,21.0,15.0,2.5
21/06/2019,-,17.0,13.0,0.0
22/06/2019,-,28.0,7.5,0.0
23/06/2019,-,31.8,15.0,0.0
24/06/2019,-,30.0,16.5,0.0
25/06/2019,-,33.0,16.8,0.0
26/06/2019,-,35.2,15.5,0.0
27/06/2019,-,37.5,18.0,0.0
28/06/2019,-,38.0,16.0,0.0
29/06/2019,-,38.5,14.0,0.0
30/06/2019,-,38.2,14.2,0.0
01/07/2019,-,23.2,16.0,2.8
02/07/2019,-,27.5,15.0,1.1
03/07/2019,-,32.5,14.0,4.3
04/07/2019,-,33.0,16.0,0.0
05/07/2019,-,33.5,22.0,0.0
06/07/2019,-,34.0,17.5,0.0
07/07/2019,-,32.5,18.0,8.6
08/07/2019,-,25.0,16.5,43.5
09/07/2019,-,21.0,14.5,0.0
10/07/2019,-,26.0,12.0,0.0
11/07/2019,-,29.5,12.5,0.0
12/07/2019,-,30.5,13.0,0.0
13/07/2019,-,28.0,15.5,0.0
14/07/2019,-,24.0,18.0,0.0
15/07/2019,-,23.5,15.0,0.0
16/07/2019,-,26.7,12.0,0.0
17/07/2019,-,25.0,16.5,0.0
18/07/2019,-,22.7,16.0,0.0
19/07/2019,-,32.2,10.7,0.0
20/07/2019,-,32.0,16.0,0.0
21/07/2019,-,31.5,16.1,0.0
22/07/2019,-,36.0,19.0,0.0
23/07/2019,-,37.0,18.0,0.7
24/07/2019,-,36.2,16.0,0.0
25/07/2019,-,37.2,23.5,0.8
26/07/2019,-,24.6,19.0,2.8
27/07/2019,-,18.0,15.4,3.2
28/07/2019,-,23.0,12.0,0.0
29/07/2019,-,30.5,8.5,0.0
30/07/2019,-,20.2,14.5,0.0
31/07/2019,-,27.5,10.0,0.0
01/08/2019,-,27.7,13.5,1.5
02/08/2019,-,27.2,14.0,0.0
03/08/2019,-,33.7,12.0,0.0
04/08/2019,-,33.0,16.0,0.0
05/08/2019,-,32.5,15.0,0.0
06/08/2019,-,32.2,15.0,0.0
07/08/2019,-,31.0,18.0,0.0
08/08/2019,-,32.7,17.5,0.0
09/08/2019,-,34.5,20.0,7.9
10/08/2019,-,25.0,13.9,0.9
11/08/2019,-,23.0,16.0,0.0
12/08/2019,-,19.5,14.5,0.0
13/08/2019,-,20.5,12.5,0.0
14/08/2019,-,27.5,8.0,0.0
15/08/2019,-,23.0,15.5,0.0
16/08/2019,-,32.0,8.5,0.0
17/08/2019,-,34.5,13.5,0.0
18/08/2019,-,30.5,15.5,0.0
19/08/2019,-,19.0,14.5,1.9
20/08/2019,-,20.5,14.0,0.0
21/08/2019,-,27.0,11.5,0.0
22/08/2019,-,30.7,11.5,0.0
23/08/2019,-,32.0,9.2,0.0
24/08/2019,-,31.2,17.0,0.0
25/08/2019,-,33.7,15.5,0.0
26/08/2019,-,29.7,14.0,1.2
27/08/2019,-,26.5,15.0,0.0
28/08/2019,-,30.5,13.0,0.0
29/08/2019,-,33.0,14.5,0.0
30/08/2019,-,34.2,15.5,0.0
31/08/2019,-,33.5,17.2,0.0
01/09/2019,-,23.5,15.2,0.0
02/09/2019,-,20.5,13.0,0.0
03/09/2019,-,24.7,9.2,0.0
04/09/2019,-,24.7,8.5,0.0
05/09/2019,-,20.0,13.7,0.0
06/09/2019,-,21.5,12.0,0.0
07/09/2019,-,20.0,11.2,0.0
08/09/2019,-,21.0,12.0,0.0
09/09/2019,-,24.2,5.0,2.8
10/09/2019,-,16.7,9.5,1.3
11/09/2019,-,20.0,10.0,0.0
12/09/2019,-,28.7,9.0,0.0
13/09/2019,-,28.7,11.0,0.0
14/09/2019,-,30.0,12.5,3.2
15/09/2019,-,28.0,13.0,1.8
16/09/2019,-,29.5,12.5,0.0
17/09/2019,-,30.5,13.5,3.7
18/09/2019,-,27.0,15.5,0.0
19/09/2019,-,27.2,13.0,0.0
20/09/2019,-,28.5,12.5,12.9
21/09/2019,-,25.2,15.0,11.0
22/09/2019,-,21.0,16.5,0.0
23/09/2019,-,21.2,9.0,0.0
24/09/2019,-,25.5,10.5,0.0
25/09/2019,-,19.7,13.2,0.0
26/09/2019,-,27.5,9.5,0.0
27/09/2019,-,25.0,9.2,0.0
28/09/2019,-,26.7,10.5,0.0
29/09/2019,-,29.0,9.0,0.0
30/09/2019,-,28.7,11.0,0.0
01/10/2019,-,23.0,10.5,1.9
02/10/2019,-,15.0,12.5,1.2
03/10/2019,-,20.7,9.0,0.0
04/10/2019,-,21.0,8.7,0.0
05/10/2019,-,21.2,9.2,0.0
06/10/2019,-,18.5,10.0,0.0
07/10/2019,-,-,8.5,-
08/10/2019,-,-,-,-
09/10/2019,-,19.0,-,0.0
10/10/2019,-,23.5,7.0,0.0
11/10/2019,-,27.7,5.5,0.0
12/10/2019,-,25.0,13.0,0.0
13/10/2019,-,26.0,17.0,0.0
14/10/2019,-,21.0,18.0,19.8
15/10/2019,-,17.0,6.0,0.0
16/10/2019,-,19.5,6.5,0.9
17/10/2019,-,20.0,9.2,0.9
18/10/2019,-,-,10.0,-
19/10/2019,-,-,-,-
20/10/2019,-,14.5,-,0.5
21/10/2019,-,16.7,4.0,0.0
22/10/2019,-,-,-,-
23/10/2019,-,15.5,-,6.0
24/10/2019,-,11.5,8.0,1.2
25/10/2019,-,20.7,5.0,0.0
26/10/2019,-,22.0,4.7,0.0
27/10/2019,-,20.7,5.2,0.0
28/10/2019,-,21.5,6.0,0.0
29/10/2019,-,21.0,8.0,0.0
30/10/2019,-,18.0,8.0,2.0
31/10/2019,-,17.0,7.7,2.8
01/11/2019,-,17.5,8.5,2.8
02/11/2019,-,16.5,13.0,8.3
03/11/2019,-,13.0,9.0,3.1
04/11/2019,-,15.0,8.5,7.6
05/11/2019,-,8.5,4.0,33.8
06/11/2019,-,11.0,5.0,12.9
07/11/2019,-,10.5,7.0,12.3
08/11/2019,-,6.0,1.0,47.3
09/11/2019,-,8.0,0.7,24.9
10/11/2019,-,1.5,2.0,18.0
11/11/2019,-,6.0,0.5,13.3
12/11/2019,-,9.0,0.5,1.2
13/11/2019,-,10.2,6.5,11.3
14/11/2019,-,7.5,2.7,6.0
15/11/2019,-,4.8,1.0,5.3
16/11/2019,-,3.0,0.4,17.0
17/11/2019,-,5.0,1.0,5.4
18/11/2019,-,6.5,2.5,0.0
19/11/2019,-,10.0,0.2,0.0
20/11/2019,-,6.5,-1.5,2.6
21/11/2019,-,8.0,0.0,0.2
22/11/2019,-,8.5,3.0,22.0
23/11/2019,-,7.5,5.0,25.2
24/11/2019,-,9.5,5.0,1.8
25/11/2019,-,15.2,5.0,0.0
26/11/2019,-,14.0,4.5,2.5
27/11/2019,-,-,5.0,-
28/11/2019,-,11.5,-,5.5
29/11/2019,-,-,8.0,-
30/11/2019,-,13.7,-,23.8
01/12/2019,-,-,2.5,-
02/12/2019,-,-,-,-
03/12/2019,-,-,-,-
04/12/2019,-,-,-,-
05/12/2019,-,-,-,-
06/12/2019,-,-,-,-
07/12/2019,-,-,-,-
08/12/2019,-,-,-,-
09/12/2019,-,-,-,-
10/12/2019,-,-,-,-
11/12/2019,-,-,-,-
12/12/2019,-,-,-,-
13/12/2019,-,-,-,-
14/12/2019,-,-,-,-
15/12/2019,-,-,-,-
16/12/2019,-,-,-,-
17/12/2019,-,-,-,-
18/12/2019,-,-,-,-
19/12/2019,-,-,-,-
20/12/2019,-,-,-,-
21/12/2019,-,-,-,-
22/12/2019,-,-,-,-
23/12/2019,-,-,-,-
24/12/2019,-,-,-,-
25/12/2019,-,-,-,-
26/12/2019,-,-,-,-
27/12/2019,-,-,-,-
