Fecha, Temperatura media, Temperatura maxima, Temperatura minima, Precipitacion acumulada
01/01/2012,-,17.0,7.0,9.1
02/01/2012,-,10.0,8.0,11.2
03/01/2012,-,14.0,7.0,9.2
04/01/2012,-,11.0,7.0,2.5
05/01/2012,-,13.0,7.0,56.7
06/01/2012,-,11.0,7.0,0.0
07/01/2012,-,12.0,7.0,6.3
08/01/2012,-,10.0,8.0,1.9
09/01/2012,-,8.0,7.0,0.0
10/01/2012,-,10.0,2.0,0.0
11/01/2012,-,10.0,-1.0,0.0
12/01/2012,-,7.0,-1.0,0.0
13/01/2012,-,7.0,2.0,0.0
14/01/2012,-,5.0,3.0,0.0
15/01/2012,-,12.0,-2.0,0.0
16/01/2012,-,9.0,5.0,0.0
17/01/2012,-,9.0,1.0,0.0
18/01/2012,-,14.0,-2.0,3.1
19/01/2012,-,12.0,6.0,12.1
20/01/2012,-,9.0,6.0,44.9
21/01/2012,-,10.0,6.0,37.2
22/01/2012,-,11.0,8.0,16.8
23/01/2012,-,11.0,9.0,3.4
24/01/2012,-,9.0,8.0,0.0
25/01/2012,-,8.0,3.0,0.0
26/01/2012,-,9.0,1.0,18.3
27/01/2012,-,9.0,5.0,6.3
28/01/2012,-,8.0,2.0,13.9
29/01/2012,-,5.0,2.0,0.0
30/01/2012,-,9.0,-1.0,0.0
31/01/2012,-,10.0,-1.0,31.9
01/02/2012,-,5.0,0.0,8.5
02/02/2012,-,2.0,-2.0,1.6
03/02/2012,-,0.0,-7.0,1.2
04/02/2012,-,0.0,-6.0,13.9
05/02/2012,-,6.0,-4.0,16.5
06/02/2012,-,5.0,2.0,3.2
07/02/2012,-,2.0,2.0,0.0
08/02/2012,-,-2.0,-5.0,0.0
09/02/2012,-,0.0,-3.0,0.0
10/02/2012,-,3.0,0.0,0.0
11/02/2012,-,1.0,-7.0,0.0
12/02/2012,-,3.0,-6.0,0.0
13/02/2012,-,3.0,-2.0,1.2
14/02/2012,-,5.0,0.0,22.5
15/02/2012,-,8.0,3.0,14.5
16/02/2012,-,9.0,1.0,0.0
17/02/2012,-,5.0,3.0,0.0
18/02/2012,-,9.0,-1.0,3.4
19/02/2012,-,6.0,2.0,0.0
20/02/2012,-,7.0,0.0,0.0
21/02/2012,-,7.0,-1.0,0.0
22/02/2012,-,11.0,0.0,0.0
23/02/2012,-,14.0,-1.0,0.0
24/02/2012,-,15.0,3.0,0.0
25/02/2012,-,12.0,4.0,1.3
26/02/2012,-,12.0,5.0,0.0
27/02/2012,-,13.0,5.0,0.0
28/02/2012,-,15.0,-1.0,0.0
29/02/2012,-,19.0,2.0,0.0
01/03/2012,-,16.0,5.0,0.0
02/03/2012,-,16.0,3.0,0.0
03/03/2012,-,17.0,5.0,0.0
04/03/2012,-,14.0,7.0,19.2
05/03/2012,-,13.0,5.0,9.2
06/03/2012,-,9.0,5.0,5.9
07/03/2012,-,10.0,2.0,1.7
08/03/2012,-,9.0,4.0,3.2
09/03/2012,-,10.0,1.0,0.0
10/03/2012,-,12.0,0.0,0.0
11/03/2012,-,11.0,0.0,0.0
12/03/2012,-,16.0,8.0,0.0
13/03/2012,-,20.0,5.0,0.0
14/03/2012,-,24.0,6.0,0.0
15/03/2012,-,25.0,5.0,0.0
16/03/2012,-,18.0,9.0,0.0
17/03/2012,-,22.0,6.0,3.5
18/03/2012,-,13.0,7.0,15.5
19/03/2012,-,10.0,5.0,4.2
20/03/2012,-,9.0,4.0,3.8
21/03/2012,-,8.0,4.0,14.9
22/03/2012,-,17.0,3.0,0.0
23/03/2012,-,22.0,3.0,0.0
24/03/2012,-,25.0,6.0,0.0
25/03/2012,-,24.0,7.0,0.0
26/03/2012,-,20.0,5.0,0.0
27/03/2012,-,23.0,16.0,0.0
28/03/2012,-,22.0,7.0,0.0
29/03/2012,-,22.0,6.0,0.0
30/03/2012,-,21.0,6.0,0.0
31/03/2012,-,17.0,6.0,0.0
01/04/2012,-,17.0,7.0,0.0
02/04/2012,-,16.0,7.0,0.0
03/04/2012,-,13.0,8.0,7.8
04/04/2012,-,14.0,6.0,6.2
05/04/2012,-,12.0,10.0,4.8
06/04/2012,-,11.0,10.0,5.9
07/04/2012,-,12.0,7.0,12.6
08/04/2012,-,13.0,7.0,6.2
09/04/2012,-,21.0,9.0,0.0
10/04/2012,-,19.0,8.0,11.2
11/04/2012,-,15.0,8.0,1.3
12/04/2012,-,11.0,8.0,27.6
13/04/2012,-,10.0,7.0,21.4
14/04/2012,-,9.0,8.0,31.4
15/04/2012,-,8.0,5.0,11.6
16/04/2012,-,12.0,4.0,1.3
17/04/2012,-,16.0,3.0,7.4
18/04/2012,-,12.0,3.0,7.6
19/04/2012,-,12.0,9.0,24.3
20/04/2012,-,12.0,6.0,5.8
21/04/2012,-,16.0,8.0,4.7
22/04/2012,-,13.0,7.0,6.3
23/04/2012,-,14.0,8.0,18.6
24/04/2012,-,13.0,8.0,7.1
25/04/2012,-,21.0,7.0,3.2
26/04/2012,-,19.0,10.0,0.0
27/04/2012,-,18.0,9.0,26.3
28/04/2012,-,12.0,9.0,25.4
29/04/2012,-,14.0,8.0,1.2
30/04/2012,-,14.0,8.0,3.3
01/05/2012,-,18.0,8.0,0.0
02/05/2012,-,22.0,8.0,0.0
03/05/2012,-,24.0,8.0,0.0
04/05/2012,-,24.0,9.0,0.0
05/05/2012,-,21.0,10.0,5.3
06/05/2012,-,15.0,11.0,0.0
07/05/2012,-,24.0,6.0,3.2
08/05/2012,-,26.0,7.0,1.8
09/05/2012,-,30.0,14.0,0.0
10/05/2012,-,31.0,12.0,0.0
11/05/2012,-,26.0,13.0,0.0
12/05/2012,-,14.0,12.0,0.0
13/05/2012,-,18.0,8.0,0.0
14/05/2012,-,19.0,6.0,0.0
15/05/2012,-,16.0,7.0,0.0
16/05/2012,-,22.0,7.0,0.0
17/05/2012,-,24.0,7.0,0.0
18/05/2012,-,15.0,12.0,19.2
19/05/2012,-,12.0,11.0,27.2
20/05/2012,-,12.0,10.0,54.2
21/05/2012,-,13.0,9.0,47.5
22/05/2012,-,13.0,10.0,14.2
23/05/2012,-,19.0,7.0,0.0
24/05/2012,-,24.0,9.0,0.0
25/05/2012,-,29.0,12.0,0.0
26/05/2012,-,22.0,14.0,0.0
27/05/2012,-,24.0,13.0,0.0
28/05/2012,-,22.0,12.0,0.0
29/05/2012,-,27.0,10.0,0.0
30/05/2012,-,22.0,10.0,0.0
31/05/2012,-,23.0,12.0,0.0
01/06/2012,-,33.0,12.0,0.0
02/06/2012,-,30.0,12.0,16.4
03/06/2012,-,18.0,14.0,2.9
04/06/2012,-,20.0,13.0,0.0
05/06/2012,-,28.0,10.0,0.0
06/06/2012,-,26.0,13.0,0.0
07/06/2012,-,25.0,16.0,0.0
08/06/2012,-,18.0,12.0,0.0
09/06/2012,-,20.0,10.0,0.0
10/06/2012,-,21.0,12.0,13.1
11/06/2012,-,20.0,14.0,18.9
12/06/2012,-,18.0,13.0,2.9
13/06/2012,-,21.0,12.0,0.0
14/06/2012,-,29.0,10.0,0.0
15/06/2012,-,30.0,9.0,0.0
16/06/2012,-,29.0,10.0,0.0
17/06/2012,-,28.0,12.0,1.8
18/06/2012,-,20.0,15.0,4.5
19/06/2012,-,22.0,15.0,5.6
20/06/2012,-,28.0,15.0,2.1
21/06/2012,-,23.0,14.0,0.0
22/06/2012,-,21.0,9.0,0.0
23/06/2012,-,24.0,10.0,0.0
24/06/2012,-,25.0,10.0,0.0
25/06/2012,-,26.0,10.0,0.0
26/06/2012,-,28.0,10.0,0.0
27/06/2012,-,34.0,15.0,0.0
28/06/2012,-,25.0,15.0,0.0
29/06/2012,-,20.0,16.0,0.0
30/06/2012,-,23.0,15.0,14.5
01/07/2012,-,17.0,14.0,8.1
02/07/2012,-,24.0,9.0,0.0
03/07/2012,-,23.0,10.0,0.0
04/07/2012,-,21.0,10.0,9.1
05/07/2012,-,19.0,10.0,2.1
06/07/2012,-,21.0,14.0,0.0
07/07/2012,-,27.0,14.0,0.0
08/07/2012,-,21.0,13.0,0.0
09/07/2012,-,18.0,14.0,1.2
10/07/2012,-,17.0,13.0,2.9
11/07/2012,-,18.0,13.0,3.3
12/07/2012,-,22.0,13.0,0.0
13/07/2012,-,29.0,9.0,4.2
14/07/2012,-,19.0,12.0,0.0
15/07/2012,-,20.0,14.0,0.0
16/07/2012,-,23.0,11.0,0.0
17/07/2012,-,29.0,11.0,0.0
18/07/2012,-,29.0,14.0,0.0
19/07/2012,-,23.0,10.0,0.0
20/07/2012,-,23.0,14.0,0.0
21/07/2012,-,24.0,13.0,0.0
22/07/2012,-,23.0,12.0,0.0
23/07/2012,-,25.0,14.0,0.0
24/07/2012,-,28.0,9.0,0.0
25/07/2012,-,29.0,11.0,0.0
26/07/2012,-,31.0,16.0,7.6
27/07/2012,-,24.0,19.0,0.0
28/07/2012,-,21.0,20.0,0.0
29/07/2012,-,22.0,14.0,0.0
30/07/2012,-,28.0,16.0,0.0
31/07/2012,-,29.0,15.0,0.0
01/08/2012,-,28.0,15.0,0.0
02/08/2012,-,24.0,12.0,2.1
03/08/2012,-,23.0,12.0,0.0
04/08/2012,-,21.0,12.0,0.5
05/08/2012,-,20.0,13.0,12.5
06/08/2012,-,24.0,14.0,0.0
07/08/2012,-,26.0,12.0,0.0
08/08/2012,-,35.0,12.0,0.0
09/08/2012,-,35.0,18.0,0.0
10/08/2012,-,39.0,16.0,0.0
11/08/2012,-,26.0,15.0,0.0
12/08/2012,-,26.0,15.0,0.0
13/08/2012,-,28.0,15.0,0.0
14/08/2012,-,32.0,14.0,0.0
15/08/2012,-,29.0,19.0,0.0
16/08/2012,-,32.0,15.0,0.0
17/08/2012,-,38.0,18.0,0.0
18/08/2012,-,31.0,18.0,0.0
19/08/2012,-,32.0,20.0,0.0
20/08/2012,-,29.0,21.0,0.0
21/08/2012,-,25.0,22.0,0.0
22/08/2012,-,24.0,21.0,0.0
23/08/2012,-,23.0,16.0,0.0
24/08/2012,-,25.0,14.0,1.2
25/08/2012,-,22.0,14.0,12.8
26/08/2012,-,25.0,15.0,0.0
27/08/2012,-,34.0,11.0,1.4
28/08/2012,-,24.0,11.0,0.0
29/08/2012,-,24.0,16.0,4.2
30/08/2012,-,18.0,17.0,16.7
31/08/2012,-,17.0,15.0,1.6
01/09/2012,-,18.0,14.0,0.0
02/09/2012,-,19.0,13.0,0.0
03/09/2012,-,17.0,13.0,0.0
04/09/2012,-,19.0,14.0,0.0
05/09/2012,-,19.0,14.0,0.0
06/09/2012,-,26.0,15.0,0.0
07/09/2012,-,29.0,15.0,0.0
08/09/2012,-,30.0,18.0,0.0
09/09/2012,-,28.0,16.0,0.0
10/09/2012,-,25.0,16.0,13.4
11/09/2012,-,23.0,16.0,7.2
12/09/2012,-,17.0,17.0,16.4
13/09/2012,-,17.0,13.0,22.3
14/09/2012,-,18.0,13.0,0.0
15/09/2012,-,20.0,12.0,0.0
16/09/2012,-,23.0,11.0,0.0
17/09/2012,-,20.0,11.0,1.2
18/09/2012,-,19.0,11.0,7.8
19/09/2012,-,18.0,10.0,0.0
20/09/2012,-,26.0,12.0,0.0
21/09/2012,-,25.0,12.0,1.2
22/09/2012,-,25.0,13.0,0.0
23/09/2012,-,25.0,14.0,3.8
24/09/2012,-,25.0,14.0,0.0
25/09/2012,-,20.0,12.0,21.2
26/09/2012,-,19.0,11.0,0.0
27/09/2012,-,18.0,11.0,0.0
28/09/2012,-,14.0,12.0,12.8
29/09/2012,-,15.0,11.0,5.2
30/09/2012,-,15.0,10.0,0.0
01/10/2012,-,-,-,-
02/10/2012,-,-,-,-
03/10/2012,-,-,-,-
04/10/2012,-,-,-,-
05/10/2012,-,-,-,-
06/10/2012,-,-,-,-
07/10/2012,-,-,-,-
08/10/2012,-,-,-,-
09/10/2012,-,-,-,-
10/10/2012,-,-,-,-
11/10/2012,-,-,-,-
12/10/2012,-,-,-,-
13/10/2012,-,-,-,-
14/10/2012,-,-,-,-
15/10/2012,-,-,-,-
16/10/2012,-,-,-,-
17/10/2012,-,-,-,-
18/10/2012,-,-,-,-
19/10/2012,-,-,-,-
20/10/2012,-,-,-,-
21/10/2012,-,-,-,-
22/10/2012,-,-,-,-
23/10/2012,-,-,-,-
24/10/2012,-,-,-,-
25/10/2012,-,-,-,-
26/10/2012,-,-,-,-
27/10/2012,-,-,-,-
28/10/2012,-,-,-,-
29/10/2012,-,-,-,-
30/10/2012,-,-,-,-
31/10/2012,-,-,-,-
01/11/2012,-,16.0,3.0,17.8
02/11/2012,-,16.0,7.0,0.0
03/11/2012,-,16.0,8.0,3.1
04/11/2012,-,13.0,13.0,14.2
05/11/2012,-,13.0,6.0,9.1
06/11/2012,-,8.0,7.0,0.0
07/11/2012,-,15.0,1.0,0.0
08/11/2012,-,18.0,3.0,1.2
09/11/2012,-,18.0,11.0,12.3
10/11/2012,-,14.0,9.0,0.7
11/11/2012,-,11.0,7.0,10.2
12/11/2012,-,11.0,5.0,0.0
13/11/2012,-,10.0,0.0,0.0
14/11/2012,-,17.0,1.0,0.0
15/11/2012,-,17.0,5.0,0.0
16/11/2012,-,17.0,7.0,0.0
17/11/2012,-,16.0,10.0,25.1
18/11/2012,-,13.0,13.0,13.5
19/11/2012,-,13.0,10.0,0.0
20/11/2012,-,13.0,8.0,4.6
21/11/2012,-,13.0,6.0,3.5
22/11/2012,-,12.0,6.0,0.0
23/11/2012,-,14.0,5.0,0.0
24/11/2012,-,16.0,9.0,7.2
25/11/2012,-,13.0,10.0,11.5
26/11/2012,-,11.0,9.0,3.1
27/11/2012,-,9.0,4.0,68.2
28/11/2012,-,10.0,4.0,43.5
29/11/2012,-,6.0,5.0,15.1
30/11/2012,-,5.0,3.0,0.0
01/12/2012,-,4.0,-2.0,0.0
02/12/2012,-,10.0,-1.0,15.2
03/12/2012,-,14.0,3.0,9.8
04/12/2012,-,11.0,9.0,41.6
05/12/2012,-,9.0,8.0,25.3
06/12/2012,-,9.0,7.0,1.3
07/12/2012,-,10.0,5.0,21.8
08/12/2012,-,10.0,7.0,1.6
09/12/2012,-,9.0,0.0,0.0
10/12/2012,-,7.0,-2.0,1.2
11/12/2012,-,7.0,0.0,0.0
12/12/2012,-,8.0,-3.0,0.0
13/12/2012,-,14.0,-2.0,5.6
14/12/2012,-,14.0,8.0,32.8
15/12/2012,-,14.0,10.0,0.0
16/12/2012,-,15.0,7.0,5.2
17/12/2012,-,11.0,9.0,2.1
18/12/2012,-,10.0,6.0,1.3
19/12/2012,-,15.0,6.0,0.0
20/12/2012,-,15.0,9.0,11.3
21/12/2012,-,16.0,10.0,0.0
22/12/2012,-,13.0,8.0,0.0
23/12/2012,-,18.0,6.0,0.0
24/12/2012,-,20.0,9.0,0.0
25/12/2012,-,13.0,10.0,5.1
26/12/2012,-,13.0,9.0,0.0
27/12/2012,-,14.0,8.0,2.1
