Fecha, Temperatura media, Temperatura maxima, Temperatura minima, Precipitacion acumulada
01/01/2016,-,16.0,6.0,1.2
02/01/2016,-,15.0,9.0,2.3
03/01/2016,-,15.0,8.0,26.3
04/01/2016,-,13.0,6.0,4.1
05/01/2016,-,14.0,5.0,10.5
06/01/2016,-,13.0,6.0,2.0
07/01/2016,-,16.0,5.0,9.5
08/01/2016,-,15.0,7.0,10.3
09/01/2016,-,18.0,8.0,14.6
10/01/2016,-,17.0,9.0,16.5
11/01/2016,-,13.0,8.0,10.6
12/01/2016,-,11.0,6.0,6.9
13/01/2016,-,10.0,5.0,7.8
14/01/2016,-,13.0,5.0,10.6
15/01/2016,-,14.0,6.0,16.3
16/01/2016,-,12.0,3.0,2.1
17/01/2016,-,10.0,3.0,6.2
18/01/2016,-,12.0,2.0,2.9
19/01/2016,-,7.0,4.0,0.0
20/01/2016,-,9.0,1.0,0.0
21/01/2016,-,7.0,3.0,0.0
22/01/2016,-,9.0,1.0,3.2
23/01/2016,-,16.0,6.0,0.0
24/01/2016,-,17.0,6.0,0.0
25/01/2016,-,18.0,10.0,0.0
26/01/2016,-,17.0,10.0,0.0
27/01/2016,-,18.0,9.0,0.0
28/01/2016,-,15.0,11.0,4.2
29/01/2016,-,14.0,10.0,0.0
30/01/2016,-,11.0,3.0,0.0
31/01/2016,-,13.0,4.0,3.5
01/02/2016,-,11.0,8.0,0.0
02/02/2016,-,13.0,6.0,6.2
03/02/2016,-,12.0,5.0,11.9
04/02/2016,-,10.0,5.0,0.0
05/02/2016,-,14.0,2.0,0.0
06/02/2016,-,12.0,3.0,21.4
07/02/2016,-,9.0,4.0,0.0
08/02/2016,-,13.0,3.0,0.0
09/02/2016,-,17.0,7.0,58.6
10/02/2016,-,10.0,7.0,16.8
11/02/2016,-,9.0,8.0,19.7
12/02/2016,-,13.0,7.0,46.9
13/02/2016,-,16.0,8.0,10.2
14/02/2016,-,10.0,6.0,37.7
15/02/2016,-,6.0,2.0,11.3
16/02/2016,-,4.0,0.0,0.0
17/02/2016,-,9.0,-2.0,12.8
18/02/2016,-,7.0,1.0,6.1
19/02/2016,-,8.0,6.0,0.0
20/02/2016,-,14.0,1.0,0.0
21/02/2016,-,17.0,3.0,0.0
22/02/2016,-,14.0,6.0,4.6
23/02/2016,-,13.0,7.0,0.0
24/02/2016,-,16.0,6.0,2.4
25/02/2016,-,12.0,10.0,17.3
26/02/2016,-,14.0,7.0,47.8
27/02/2016,-,10.0,3.0,52.8
28/02/2016,-,11.0,7.0,10.2
29/02/2016,-,9.0,8.0,0.0
01/03/2016,-,10.0,6.0,2.3
02/03/2016,-,9.0,7.0,24.7
03/03/2016,-,10.0,8.0,22.4
04/03/2016,-,18.0,7.0,36.9
05/03/2016,-,8.0,6.0,46.7
06/03/2016,-,7.0,3.0,10.2
07/03/2016,-,9.0,4.0,24.1
08/03/2016,-,11.0,3.0,6.4
09/03/2016,-,9.0,4.0,69.8
10/03/2016,-,11.0,2.0,21.3
11/03/2016,-,9.0,5.0,3.9
12/03/2016,-,10.0,6.0,0.0
13/03/2016,-,9.0,4.0,2.8
14/03/2016,-,10.0,5.0,2.4
15/03/2016,-,17.0,5.0,1.3
16/03/2016,-,12.0,3.0,6.9
17/03/2016,-,11.0,2.0,0.0
18/03/2016,-,12.0,1.0,0.0
19/03/2016,-,8.0,4.0,3.4
20/03/2016,-,15.0,5.0,0.0
21/03/2016,-,15.0,3.0,3.4
22/03/2016,-,12.0,7.0,0.0
23/03/2016,-,14.0,8.0,0.0
24/03/2016,-,14.0,9.0,0.0
25/03/2016,-,13.0,5.0,0.0
26/03/2016,-,21.0,7.0,13.9
27/03/2016,-,16.0,4.0,0.0
28/03/2016,-,17.0,10.0,3.0
29/03/2016,-,20.0,8.0,0.0
30/03/2016,-,22.0,9.0,9.0
31/03/2016,-,10.0,8.0,80.2
01/04/2016,-,-,-,-
02/04/2016,-,-,-,-
03/04/2016,-,-,-,-
04/04/2016,-,-,-,-
05/04/2016,-,-,-,-
06/04/2016,-,-,-,-
07/04/2016,-,-,-,-
08/04/2016,-,-,-,-
09/04/2016,-,-,-,-
10/04/2016,-,-,-,-
11/04/2016,-,-,-,-
12/04/2016,-,-,-,-
13/04/2016,-,-,-,-
14/04/2016,-,-,-,-
15/04/2016,-,-,-,-
16/04/2016,-,-,-,-
17/04/2016,-,-,-,-
18/04/2016,-,-,-,-
19/04/2016,-,-,-,-
20/04/2016,-,-,-,-
21/04/2016,-,-,-,-
22/04/2016,-,-,-,-
23/04/2016,-,-,-,-
24/04/2016,-,-,-,-
25/04/2016,-,-,-,-
26/04/2016,-,-,-,-
27/04/2016,-,-,-,-
28/04/2016,-,-,-,-
29/04/2016,-,-,-,-
30/04/2016,-,-,-,-
01/05/2016,-,13.0,5.0,0.0
02/05/2016,-,15.0,3.0,0.0
03/05/2016,-,17.0,5.0,0.0
04/05/2016,-,28.0,6.0,0.0
05/05/2016,-,30.0,10.0,0.0
06/05/2016,-,26.0,12.0,0.0
07/05/2016,-,23.0,16.0,3.2
08/05/2016,-,21.0,13.0,3.9
09/05/2016,-,24.0,15.0,4.3
10/05/2016,-,20.0,13.0,0.0
11/05/2016,-,21.0,13.0,0.0
12/05/2016,-,16.0,9.0,0.0
13/05/2016,-,15.0,13.0,22.1
14/05/2016,-,14.0,11.0,15.9
15/05/2016,-,16.0,12.0,0.6
16/05/2016,-,17.0,13.0,0.0
17/05/2016,-,18.0,14.0,0.0
18/05/2016,-,20.0,13.0,11.3
19/05/2016,-,16.0,13.0,4.5
20/05/2016,-,23.0,12.0,0.0
21/05/2016,-,31.0,14.0,24.6
22/05/2016,-,17.0,13.0,3.8
23/05/2016,-,19.0,19.0,1.5
24/05/2016,-,23.0,10.0,6.4
25/05/2016,-,21.0,12.0,2.3
26/05/2016,-,22.0,10.0,11.3
27/05/2016,-,23.0,10.0,6.8
28/05/2016,-,26.0,16.0,5.7
29/05/2016,-,18.0,12.0,6.9
30/05/2016,-,18.0,13.0,8.5
31/05/2016,-,19.0,14.0,4.1
01/06/2016,-,18.0,13.0,0.0
02/06/2016,-,22.0,15.0,0.0
03/06/2016,-,22.0,16.0,0.0
04/06/2016,-,21.0,15.0,0.0
05/06/2016,-,22.0,13.0,0.0
06/06/2016,-,23.0,14.0,0.0
07/06/2016,-,28.0,16.0,0.0
08/06/2016,-,30.0,16.0,0.0
09/06/2016,-,28.0,16.0,0.0
10/06/2016,-,20.0,15.0,6.8
11/06/2016,-,18.0,10.0,4.5
12/06/2016,-,22.0,10.0,0.0
13/06/2016,-,16.0,11.0,8.7
14/06/2016,-,20.0,10.0,6.8
15/06/2016,-,18.0,10.0,13.4
16/06/2016,-,15.0,11.0,12.9
17/06/2016,-,18.0,10.0,19.4
18/06/2016,-,16.0,12.0,1.7
19/06/2016,-,17.0,11.0,0.0
20/06/2016,-,23.0,10.0,0.0
21/06/2016,-,28.0,15.0,0.0
22/06/2016,-,32.0,15.0,0.0
23/06/2016,-,35.0,18.0,0.6
24/06/2016,-,22.0,16.0,0.4
25/06/2016,-,18.0,16.0,2.1
26/06/2016,-,17.0,15.0,0.0
27/06/2016,-,19.0,14.0,0.0
28/06/2016,-,21.0,13.0,0.0
29/06/2016,-,20.0,14.0,0.0
30/06/2016,-,22.0,13.0,0.0
01/07/2016,-,18.0,13.0,0.0
02/07/2016,-,21.0,14.0,7.2
03/07/2016,-,23.0,14.0,0.0
04/07/2016,-,22.0,15.0,13.5
05/07/2016,-,18.0,14.0,0.9
06/07/2016,-,27.0,15.0,1.6
07/07/2016,-,30.0,17.0,0.0
08/07/2016,-,22.0,20.0,2.1
09/07/2016,-,29.0,18.0,0.0
10/07/2016,-,28.0,17.0,0.0
11/07/2016,-,21.0,16.0,6.4
12/07/2016,-,20.0,16.0,5.8
13/07/2016,-,20.0,16.0,3.4
14/07/2016,-,21.0,15.0,0.0
15/07/2016,-,28.0,10.0,0.0
16/07/2016,-,29.0,10.0,0.0
17/07/2016,-,30.0,13.0,0.0
18/07/2016,-,32.0,22.0,0.0
19/07/2016,-,34.0,24.0,0.0
20/07/2016,-,24.0,19.0,2.7
21/07/2016,-,20.0,15.0,0.0
22/07/2016,-,19.0,17.0,19.8
23/07/2016,-,21.0,16.0,8.1
24/07/2016,-,19.0,16.0,1.9
25/07/2016,-,20.0,15.0,0.0
26/07/2016,-,24.0,16.0,0.0
27/07/2016,-,25.0,18.0,0.0
28/07/2016,-,24.0,19.0,0.0
29/07/2016,-,25.0,16.0,0.0
30/07/2016,-,26.0,19.0,7.9
31/07/2016,-,23.0,20.0,0.4
01/08/2016,-,24.0,17.0,0.0
02/08/2016,-,25.0,12.0,0.0
03/08/2016,-,24.0,14.0,0.7
04/08/2016,-,25.0,15.0,8.3
05/08/2016,-,22.0,16.0,0.0
06/08/2016,-,23.0,14.0,0.0
07/08/2016,-,24.0,10.0,0.0
08/08/2016,-,23.0,14.0,2.3
09/08/2016,-,22.0,16.0,0.3
10/08/2016,-,21.0,15.0,0.0
11/08/2016,-,21.0,13.0,0.0
12/08/2016,-,28.0,10.0,0.0
13/08/2016,-,32.0,14.0,0.0
14/08/2016,-,33.0,15.0,0.0
15/08/2016,-,31.0,16.0,0.8
16/08/2016,-,27.0,18.0,0.0
17/08/2016,-,23.0,18.0,5.9
18/08/2016,-,22.0,18.0,0.0
19/08/2016,-,26.0,12.0,4.9
20/08/2016,-,20.0,14.0,8.9
21/08/2016,-,22.0,14.0,0.0
22/08/2016,-,27.0,9.0,0.0
23/08/2016,-,30.0,12.0,0.0
24/08/2016,-,32.0,18.0,0.0
25/08/2016,-,34.0,17.0,0.0
26/08/2016,-,30.0,20.0,0.0
27/08/2016,-,30.0,21.0,0.0
28/08/2016,-,19.0,15.0,3.6
29/08/2016,-,20.0,16.0,3.8
30/08/2016,-,21.0,15.0,0.0
31/08/2016,-,25.0,16.0,0.0
01/09/2016,-,26.0,14.0,0.0
02/09/2016,-,25.0,11.0,0.0
03/09/2016,-,29.0,14.0,0.0
04/09/2016,-,26.0,15.0,0.0
05/09/2016,-,25.0,14.0,0.0
06/09/2016,-,31.0,15.0,0.0
07/09/2016,-,34.0,17.0,0.0
08/09/2016,-,24.0,22.0,4.9
09/09/2016,-,22.0,18.0,5.4
10/09/2016,-,27.0,16.0,0.0
11/09/2016,-,29.0,16.0,0.0
12/09/2016,-,34.0,19.0,0.0
13/09/2016,-,31.0,22.0,34.7
14/09/2016,-,18.0,13.0,6.8
15/09/2016,-,19.0,14.0,42.5
16/09/2016,-,18.0,11.0,29.3
17/09/2016,-,18.0,12.0,34.2
18/09/2016,-,17.0,13.0,7.9
19/09/2016,-,17.0,12.0,4.3
20/09/2016,-,18.0,14.0,0.0
21/09/2016,-,24.0,15.0,0.0
22/09/2016,-,23.0,15.0,0.0
23/09/2016,-,20.0,14.0,0.0
24/09/2016,-,24.0,16.0,0.0
25/09/2016,-,20.0,17.0,3.0
26/09/2016,-,24.0,15.0,0.0
27/09/2016,-,18.0,13.0,8.0
28/09/2016,-,26.0,15.0,0.0
29/09/2016,-,25.0,15.0,0.0
30/09/2016,-,25.0,15.0,5.0
01/10/2016,-,18.0,12.0,1.9
02/10/2016,-,19.0,12.0,1.2
03/10/2016,-,21.0,14.0,0.0
04/10/2016,-,20.0,14.0,0.0
05/10/2016,-,17.0,14.0,0.0
06/10/2016,-,19.0,13.0,0.0
07/10/2016,-,17.0,11.0,0.0
08/10/2016,-,16.0,12.0,0.0
09/10/2016,-,16.0,9.0,0.0
10/10/2016,-,16.0,7.0,0.0
11/10/2016,-,16.0,6.0,0.0
12/10/2016,-,16.0,9.0,3.8
13/10/2016,-,14.0,12.0,13.8
14/10/2016,-,19.0,9.0,24.5
15/10/2016,-,20.0,12.0,0.0
16/10/2016,-,20.0,13.0,0.0
17/10/2016,-,20.0,11.0,0.0
18/10/2016,-,19.0,9.0,0.0
19/10/2016,-,16.0,8.0,0.0
20/10/2016,-,14.0,9.0,0.0
21/10/2016,-,18.0,6.0,0.0
22/10/2016,-,20.0,8.0,0.0
23/10/2016,-,21.0,8.0,3.6
24/10/2016,-,23.0,14.0,0.0
25/10/2016,-,16.0,15.0,0.0
26/10/2016,-,16.0,11.0,0.0
27/10/2016,-,18.0,8.0,0.0
28/10/2016,-,14.0,7.0,0.0
29/10/2016,-,20.0,9.0,0.0
30/10/2016,-,17.0,7.0,0.0
31/10/2016,-,16.0,7.0,0.0
01/11/2016,-,19.0,8.0,0.0
02/11/2016,-,20.0,7.0,0.0
03/11/2016,-,16.0,8.0,0.0
04/11/2016,-,16.0,9.0,23.4
05/11/2016,-,10.0,9.0,38.5
06/11/2016,-,9.0,7.0,32.7
07/11/2016,-,6.0,5.0,48.5
08/11/2016,-,11.0,4.0,22.6
09/11/2016,-,12.0,7.0,7.5
10/11/2016,-,13.0,8.0,12.9
11/11/2016,-,13.0,8.0,12.9
12/11/2016,-,12.0,9.0,39.1
13/11/2016,-,13.0,8.0,1.7
14/11/2016,-,12.0,9.0,0.0
15/11/2016,-,10.0,8.0,0.0
16/11/2016,-,11.0,2.0,0.0
17/11/2016,-,13.0,4.0,0.0
18/11/2016,-,12.0,8.0,1.3
19/11/2016,-,16.0,7.0,2.7
20/11/2016,-,15.0,10.0,1.4
21/11/2016,-,16.0,10.0,3.2
22/11/2016,-,12.0,8.0,42.3
23/11/2016,-,8.0,5.0,52.6
24/11/2016,-,13.0,3.0,0.0
25/11/2016,-,11.0,2.0,0.0
26/11/2016,-,13.0,3.0,0.0
27/11/2016,-,16.0,8.0,0.0
28/11/2016,-,12.0,6.0,0.0
29/11/2016,-,14.0,9.0,0.0
30/11/2016,-,12.0,9.0,0.0
01/12/2016,-,18.0,6.0,0.0
02/12/2016,-,13.0,6.0,0.0
03/12/2016,-,16.0,4.0,0.0
04/12/2016,-,12.0,8.0,0.0
05/12/2016,-,20.0,14.0,0.0
06/12/2016,-,22.0,12.0,0.0
07/12/2016,-,13.0,6.0,0.0
08/12/2016,-,17.0,7.0,0.0
09/12/2016,-,18.0,12.0,0.0
10/12/2016,-,14.0,12.0,0.0
11/12/2016,-,16.0,7.0,0.0
12/12/2016,-,18.0,6.0,0.0
13/12/2016,-,14.0,4.0,0.0
14/12/2016,-,16.0,3.0,0.0
15/12/2016,-,16.0,7.0,0.0
16/12/2016,-,13.0,6.0,0.0
17/12/2016,-,16.0,13.0,0.0
18/12/2016,-,10.0,1.0,0.0
19/12/2016,-,9.0,1.0,11.3
20/12/2016,-,10.0,4.0,2.1
21/12/2016,-,9.0,6.0,5.4
22/12/2016,-,9.0,5.0,2.1
23/12/2016,-,12.0,6.0,2.4
24/12/2016,-,13.0,8.0,0.0
25/12/2016,-,14.0,10.0,0.0
26/12/2016,-,10.0,6.0,0.0
27/12/2016,-,12.0,5.0,0.0
