Fecha, Temperatura media, Temperatura maxima, Temperatura minima, Precipitacion acumulada
01/01/2010,5.1,9.4,1.1,0.0
02/01/2010,3.1,9.1,-0.6,0.0
03/01/2010,4.3,5.2,2.8,13.8
04/01/2010,5.1,6.8,3.9,0.8
05/01/2010,4.3,6.9,1.2,0.1
06/01/2010,2.3,6.4,-0.9,0.0
07/01/2010,0.9,3.8,-1.3,0.0
08/01/2010,-1.5,1.2,-3.5,0.0
09/01/2010,-2.0,1.2,-3.9,0.0
10/01/2010,-1.0,3.7,-3.6,0.0
11/01/2010,-0.1,5.5,-3.9,0.0
12/01/2010,-0.4,2.9,-3.3,12.0
13/01/2010,2.2,5.5,-2.4,10.5
14/01/2010,4.5,6.3,2.8,44.1
15/01/2010,6.4,12.1,2.6,0.5
16/01/2010,4.9,7.2,2.2,2.8
17/01/2010,6.9,11.2,3.4,0.0
18/01/2010,5.7,8.8,3.3,0.0
19/01/2010,7.5,9.4,6.0,0.2
20/01/2010,7.0,10.6,3.4,0.0
21/01/2010,4.6,9.6,1.6,0.0
22/01/2010,3.7,10.4,-0.3,0.0
23/01/2010,4.3,7.2,1.8,0.0
24/01/2010,5.4,9.2,2.8,0.0
25/01/2010,3.5,6.0,-2.3,0.0
26/01/2010,0.5,8.0,-5.3,0.0
27/01/2010,0.3,6.7,-4.4,0.0
28/01/2010,3.5,7.4,-4.0,0.0
29/01/2010,5.3,8.1,3.0,11.9
30/01/2010,3.2,5.4,1.8,9.3
31/01/2010,1.9,5.2,-0.7,0.0
01/02/2010,1.0,5.2,-3.1,0.0
02/02/2010,1.5,8.6,-2.0,0.0
03/02/2010,2.4,9.8,-2.8,0.0
04/02/2010,4.5,7.7,1.4,2.8
05/02/2010,6.7,12.0,1.8,2.4
06/02/2010,6.1,9.4,2.6,6.6
07/02/2010,7.8,12.2,4.4,0.0
08/02/2010,4.1,5.2,3.0,3.9
09/02/2010,3.6,5.2,1.3,0.0
10/02/2010,1.2,3.9,-1.5,0.0
11/02/2010,-2.4,1.6,-4.7,0.7
12/02/2010,-2.6,0.9,-5.5,0.0
13/02/2010,-3.6,2.2,-8.4,0.0
14/02/2010,-2.0,3.3,-6.3,0.0
15/02/2010,-2.2,3.1,-7.0,0.0
16/02/2010,2.8,6.0,-1.4,8.5
17/02/2010,6.0,7.1,4.9,21.7
18/02/2010,6.5,10.8,3.9,0.0
19/02/2010,5.4,8.4,2.3,0.0
20/02/2010,3.3,9.8,-2.0,0.0
21/02/2010,3.2,4.9,0.5,3.1
22/02/2010,6.8,10.4,3.7,6.8
23/02/2010,9.0,14.2,6.1,0.2
24/02/2010,8.2,12.5,5.4,2.5
25/02/2010,9.0,12.5,6.4,1.4
26/02/2010,8.4,14.0,3.8,0.0
27/02/2010,10.0,17.0,5.2,6.4
28/02/2010,10.7,16.0,7.0,0.0
01/03/2010,8.2,13.7,4.3,1.9
02/03/2010,8.8,15.5,2.1,0.0
03/03/2010,5.8,11.1,4.4,6.7
04/03/2010,7.3,10.6,4.5,0.8
05/03/2010,7.5,14.4,3.6,0.0
06/03/2010,5.9,12.1,1.8,0.0
07/03/2010,3.8,10.8,0.1,0.0
08/03/2010,0.4,2.7,-2.7,0.0
09/03/2010,1.2,5.2,-2.0,0.2
10/03/2010,-0.4,2.2,-2.7,0.0
11/03/2010,1.5,5.5,-1.0,0.0
12/03/2010,2.3,7.9,-2.9,0.0
13/03/2010,6.0,12.3,1.6,0.0
14/03/2010,3.8,10.8,-2.3,0.0
15/03/2010,4.8,16.7,-3.0,0.0
16/03/2010,6.3,17.0,-1.6,0.0
17/03/2010,9.3,20.1,0.7,0.0
18/03/2010,11.6,16.3,5.6,0.0
19/03/2010,11.9,18.7,6.8,2.6
20/03/2010,14.3,19.3,11.5,1.5
21/03/2010,12.2,17.8,7.9,0.0
22/03/2010,11.4,19.9,4.2,0.0
23/03/2010,11.4,19.8,3.2,0.5
24/03/2010,12.6,16.7,9.3,10.3
25/03/2010,11.2,14.9,7.7,13.0
26/03/2010,8.7,13.8,2.8,0.8
27/03/2010,8.8,15.0,2.8,0.0
28/03/2010,9.7,17.8,3.4,0.0
29/03/2010,12.4,17.9,6.8,1.1
30/03/2010,8.1,13.3,4.7,5.2
31/03/2010,7.4,14.2,1.8,2.2
01/04/2010,7.2,12.5,3.7,0.0
02/04/2010,8.1,14.4,2.3,0.0
03/04/2010,8.5,12.3,6.0,2.4
04/04/2010,7.7,11.2,3.6,0.5
05/04/2010,8.3,17.3,-0.5,0.0
06/04/2010,11.9,20.1,3.3,0.0
07/04/2010,10.1,13.2,7.9,0.9
08/04/2010,10.5,14.6,6.8,0.0
09/04/2010,10.6,19.4,2.6,0.0
10/04/2010,12.8,22.2,4.7,0.0
11/04/2010,13.2,21.5,5.0,0.0
12/04/2010,10.0,14.0,3.6,0.1
13/04/2010,8.7,15.1,2.2,0.0
14/04/2010,8.4,12.5,3.6,0.0
15/04/2010,9.2,11.2,6.6,0.0
16/04/2010,12.4,19.7,5.6,0.0
17/04/2010,12.3,19.0,7.2,0.0
18/04/2010,12.0,18.2,8.3,2.6
19/04/2010,14.0,21.1,9.0,0.0
20/04/2010,14.7,23.5,7.2,0.0
21/04/2010,16.7,24.1,9.8,0.0
22/04/2010,13.9,16.8,11.7,6.1
23/04/2010,13.4,17.7,8.8,0.0
24/04/2010,14.8,24.6,6.4,0.0
25/04/2010,16.7,24.7,10.1,0.0
26/04/2010,17.2,26.3,9.3,0.0
27/04/2010,17.4,27.1,9.1,0.0
28/04/2010,18.4,27.6,10.2,0.0
29/04/2010,19.3,26.9,13.4,2.7
30/04/2010,16.0,23.9,9.7,13.1
01/05/2010,13.6,17.7,8.6,1.7
02/05/2010,11.1,14.7,6.8,0.0
03/05/2010,8.9,13.3,5.4,6.8
04/05/2010,5.4,6.7,3.8,1.3
05/05/2010,6.7,10.1,4.7,0.1
06/05/2010,8.2,11.8,4.6,0.8
07/05/2010,8.2,14.8,0.8,2.7
08/05/2010,13.1,17.8,8.2,0.0
09/05/2010,12.4,17.4,10.3,17.8
10/05/2010,13.3,20.4,8.3,3.4
11/05/2010,11.6,17.8,7.0,0.6
12/05/2010,10.8,17.2,6.1,0.2
13/05/2010,9.3,13.1,6.8,0.0
14/05/2010,9.4,14.4,5.6,0.5
15/05/2010,8.6,12.0,6.2,1.5
16/05/2010,9.8,15.1,6.4,0.0
17/05/2010,13.1,19.0,7.4,0.0
18/05/2010,14.6,24.0,5.5,0.0
19/05/2010,14.5,19.5,8.5,0.0
20/05/2010,17.0,25.4,8.5,0.0
21/05/2010,17.9,28.1,8.6,0.0
22/05/2010,19.9,28.4,11.4,0.0
23/05/2010,19.7,28.4,12.8,0.0
24/05/2010,21.2,27.7,13.5,0.0
25/05/2010,21.6,27.3,15.9,0.0
26/05/2010,18.2,25.2,12.0,0.0
27/05/2010,16.6,23.8,8.1,0.0
28/05/2010,15.2,20.0,9.3,0.8
29/05/2010,15.7,23.3,6.0,0.0
30/05/2010,18.4,23.0,11.6,0.0
31/05/2010,19.9,24.4,15.5,0.0
01/06/2010,19.2,25.6,13.0,0.0
02/06/2010,18.4,24.5,11.5,0.0
03/06/2010,17.9,28.1,8.2,0.0
04/06/2010,19.7,28.6,10.6,0.0
05/06/2010,22.4,32.8,14.0,10.4
06/06/2010,17.1,21.6,14.2,1.8
07/06/2010,18.9,26.4,12.6,1.0
08/06/2010,19.6,27.3,14.3,0.8
09/06/2010,15.7,18.1,13.7,5.1
10/06/2010,16.3,19.6,13.5,3.6
11/06/2010,14.8,17.6,12.6,7.3
12/06/2010,15.1,19.8,12.2,13.0
13/06/2010,16.6,23.7,10.6,4.3
14/06/2010,14.4,18.0,10.3,0.0
15/06/2010,13.1,19.1,8.1,0.0
16/06/2010,11.9,17.0,9.6,18.9
17/06/2010,12.6,17.1,10.1,0.6
18/06/2010,14.6,20.9,8.5,0.0
19/06/2010,14.8,18.4,12.0,0.3
20/06/2010,12.7,15.7,10.3,0.5
21/06/2010,15.6,20.7,9.6,0.0
22/06/2010,17.7,25.4,9.7,0.0
23/06/2010,18.0,27.9,7.4,0.0
24/06/2010,20.2,30.9,9.2,0.0
25/06/2010,22.6,31.5,13.5,0.0
26/06/2010,21.7,31.4,15.8,3.9
27/06/2010,21.2,29.6,17.3,0.8
28/06/2010,21.7,30.2,15.1,0.0
29/06/2010,22.1,29.3,14.7,0.0
30/06/2010,22.1,31.0,14.2,0.0
01/07/2010,25.2,34.2,16.6,0.0
02/07/2010,23.5,28.3,18.9,2.7
03/07/2010,22.9,31.0,16.5,0.1
04/07/2010,22.1,29.7,15.3,0.0
05/07/2010,21.1,29.0,13.1,0.0
06/07/2010,21.1,29.8,11.8,0.0
07/07/2010,24.0,35.9,11.1,0.0
08/07/2010,28.8,37.8,20.6,0.0
09/07/2010,27.5,33.3,18.2,0.0
10/07/2010,25.2,35.0,14.9,0.0
11/07/2010,28.5,36.6,21.2,2.1
12/07/2010,25.9,35.2,19.7,0.1
13/07/2010,25.3,35.0,15.3,0.0
14/07/2010,23.2,32.7,15.2,0.0
15/07/2010,22.0,32.5,10.7,0.0
16/07/2010,23.5,30.3,17.9,0.0
17/07/2010,20.3,26.9,14.0,0.0
18/07/2010,22.7,34.9,11.3,0.0
19/07/2010,24.1,34.4,13.7,0.0
20/07/2010,23.7,34.2,14.9,15.8
21/07/2010,20.1,26.5,14.9,46.7
22/07/2010,17.3,23.0,14.3,30.9
23/07/2010,18.0,21.9,13.6,0.0
24/07/2010,18.2,25.2,9.9,0.0
25/07/2010,19.2,23.4,14.9,0.0
26/07/2010,20.7,25.4,16.1,0.0
27/07/2010,21.4,30.3,13.5,0.0
28/07/2010,22.9,32.1,13.6,0.0
29/07/2010,21.2,25.0,17.6,0.0
30/07/2010,21.0,28.3,14.0,0.0
31/07/2010,23.8,33.4,15.0,0.0
01/08/2010,23.0,32.8,16.9,2.6
02/08/2010,18.8,22.2,16.3,0.1
03/08/2010,19.3,24.0,14.2,0.0
04/08/2010,19.6,25.2,12.5,0.0
05/08/2010,18.5,23.2,15.1,0.3
06/08/2010,18.9,28.4,10.9,0.0
07/08/2010,22.5,33.7,12.2,0.0
08/08/2010,22.8,31.6,14.1,0.0
09/08/2010,22.4,28.6,14.3,0.2
10/08/2010,22.4,32.8,12.2,0.0
11/08/2010,21.5,29.9,14.2,0.0
12/08/2010,19.9,23.7,16.3,0.0
13/08/2010,18.3,22.9,15.3,0.0
14/08/2010,17.4,22.0,14.7,0.0
15/08/2010,16.8,22.5,11.8,0.0
16/08/2010,18.2,27.7,9.1,0.0
17/08/2010,21.4,31.1,12.6,0.0
18/08/2010,21.8,31.4,13.0,0.0
19/08/2010,20.8,28.9,17.1,1.1
20/08/2010,23.5,33.5,15.6,0.1
21/08/2010,26.5,36.2,18.7,0.0
22/08/2010,28.1,36.4,20.8,0.0
23/08/2010,26.0,35.0,16.9,0.0
24/08/2010,22.1,27.3,16.0,0.0
25/08/2010,24.9,35.8,15.7,0.0
26/08/2010,29.0,38.3,21.6,0.0
27/08/2010,23.9,30.4,19.6,0.0
28/08/2010,20.3,24.7,16.4,0.0
29/08/2010,18.5,26.7,10.6,0.0
30/08/2010,18.3,25.0,11.1,0.0
31/08/2010,19.1,28.8,10.3,0.0
01/09/2010,21.9,29.9,15.7,0.0
02/09/2010,19.6,23.7,16.0,8.6
03/09/2010,20.6,30.0,14.3,0.0
04/09/2010,19.9,31.0,11.4,0.0
05/09/2010,22.7,33.5,13.3,0.0
06/09/2010,24.7,33.2,18.9,0.0
07/09/2010,19.0,24.9,14.0,1.3
08/09/2010,17.1,22.5,11.7,0.0
09/09/2010,17.1,21.0,13.6,0.0
10/09/2010,17.8,27.6,10.0,0.0
11/09/2010,20.2,30.3,12.9,0.0
12/09/2010,18.6,24.4,12.7,0.0
13/09/2010,18.0,26.0,10.5,0.0
14/09/2010,18.7,29.4,11.0,0.0
15/09/2010,20.7,30.0,13.1,0.0
16/09/2010,16.9,18.8,15.7,0.7
17/09/2010,17.0,22.4,14.8,0.2
18/09/2010,16.3,21.4,10.8,0.0
19/09/2010,15.2,26.3,5.5,0.0
20/09/2010,18.6,26.7,11.2,0.0
21/09/2010,19.1,27.7,13.5,4.9
22/09/2010,19.7,28.6,13.1,0.0
23/09/2010,19.5,24.0,15.1,11.5
24/09/2010,15.9,18.3,12.1,0.0
25/09/2010,13.6,17.3,11.2,0.5
26/09/2010,12.3,16.4,8.8,0.0
27/09/2010,11.1,19.6,3.8,0.0
28/09/2010,11.3,19.8,5.3,0.0
29/09/2010,15.1,26.1,5.8,0.0
30/09/2010,14.8,21.9,9.8,0.0
01/10/2010,16.5,24.6,9.0,0.0
02/10/2010,20.8,27.3,15.0,0.0
03/10/2010,18.9,23.8,13.9,4.6
04/10/2010,13.8,16.9,9.9,8.9
05/10/2010,14.0,22.0,6.2,0.0
06/10/2010,17.1,25.4,11.6,0.0
07/10/2010,19.0,25.0,12.4,0.0
08/10/2010,21.0,24.4,16.9,0.0
09/10/2010,18.6,22.1,14.6,26.4
10/10/2010,12.2,14.6,10.6,33.5
11/10/2010,13.4,18.9,10.6,5.4
12/10/2010,15.0,20.5,11.2,0.0
13/10/2010,14.6,19.2,10.6,0.0
14/10/2010,11.7,17.5,6.7,0.0
15/10/2010,10.0,16.4,4.4,0.0
16/10/2010,10.6,15.7,4.9,0.0
17/10/2010,10.0,13.4,7.1,0.0
18/10/2010,8.6,12.7,6.4,0.0
19/10/2010,8.6,17.1,1.5,0.0
20/10/2010,9.6,17.0,3.1,0.0
21/10/2010,9.2,17.4,3.2,0.0
22/10/2010,10.3,18.3,4.3,0.0
23/10/2010,11.6,18.3,7.5,0.0
24/10/2010,11.2,16.3,7.9,3.0
25/10/2010,8.4,11.3,6.2,0.0
26/10/2010,9.0,16.8,3.5,0.0
27/10/2010,8.7,18.5,1.8,0.0
28/10/2010,11.1,19.7,5.0,0.0
29/10/2010,14.1,20.3,8.3,4.2
30/10/2010,10.7,12.9,7.5,0.9
31/10/2010,10.3,13.1,8.5,9.8
01/11/2010,12.7,16.3,8.7,5.5
02/11/2010,12.1,15.4,9.8,1.0
03/11/2010,14.2,18.5,10.3,0.0
04/11/2010,12.5,21.5,7.0,0.0
05/11/2010,11.4,19.1,8.1,0.0
06/11/2010,10.6,15.9,7.0,0.0
07/11/2010,9.1,12.8,4.3,3.0
08/11/2010,4.3,5.0,2.9,10.1
09/11/2010,8.3,11.9,4.7,1.0
10/11/2010,6.5,8.6,4.6,6.3
11/11/2010,7.5,11.2,3.6,0.0
12/11/2010,11.0,18.3,6.5,0.0
13/11/2010,9.9,17.5,5.1,0.0
14/11/2010,9.4,11.8,7.4,5.6
15/11/2010,7.6,11.7,4.9,6.9
16/11/2010,7.4,11.0,2.0,0.4
17/11/2010,4.9,8.4,2.0,1.7
18/11/2010,5.5,11.5,-0.3,0.0
19/11/2010,6.4,8.4,3.8,0.1
20/11/2010,7.5,9.2,5.9,15.1
21/11/2010,6.4,7.7,5.4,17.0
22/11/2010,5.6,7.0,4.1,2.4
23/11/2010,5.7,8.5,1.7,0.1
24/11/2010,4.6,9.4,0.3,0.0
25/11/2010,3.2,7.3,0.5,0.7
26/11/2010,2.5,6.1,-2.1,0.0
27/11/2010,-0.2,4.4,-2.6,0.0
28/11/2010,0.1,5.4,-3.6,0.0
29/11/2010,-0.4,3.8,-3.4,0.0
30/11/2010,3.8,6.7,0.5,0.0
01/12/2010,3.1,5.2,-0.0,0.6
02/12/2010,0.9,4.3,-1.7,3.2
03/12/2010,0.4,2.7,-1.9,0.6
04/12/2010,2.1,6.4,-2.9,0.0
05/12/2010,6.2,8.0,4.7,2.3
06/12/2010,10.4,13.8,7.9,5.3
07/12/2010,12.0,13.9,9.8,10.0
08/12/2010,12.5,18.0,9.3,6.8
09/12/2010,7.0,11.3,0.7,3.0
10/12/2010,2.9,8.3,-0.9,0.0
11/12/2010,2.5,8.2,-0.6,0.0
12/12/2010,4.1,10.5,0.5,0.0
13/12/2010,5.3,11.5,2.2,0.0
14/12/2010,3.7,9.2,-0.8,0.0
15/12/2010,-0.5,2.0,-3.1,0.0
16/12/2010,-0.0,3.0,-3.8,0.0
17/12/2010,1.1,4.8,-2.7,0.0
18/12/2010,0.5,6.3,-5.4,0.0
19/12/2010,3.3,8.3,0.0,0.0
20/12/2010,2.3,8.0,-1.8,0.0
21/12/2010,6.0,8.4,1.6,7.6
22/12/2010,9.7,12.8,7.8,3.8
23/12/2010,5.9,8.3,3.3,7.0
24/12/2010,2.6,4.2,1.1,0.2
25/12/2010,-0.2,1.3,-1.8,0.0
26/12/2010,-1.2,5.1,-6.0,0.0
27/12/2010,0.0,7.0,-4.2,0.0
28/12/2010,2.7,8.3,-1.2,0.0
29/12/2010,5.3,12.8,0.6,0.0
30/12/2010,5.7,10.5,1.1,0.0
31/12/2010,7.4,10.1,5.1,0.0
