Fecha, Temperatura media, Temperatura maxima, Temperatura minima, Precipitacion acumulada
01/01/2015,-,11.0,-6.0,0.0
02/01/2015,-,13.0,-3.0,0.0
03/01/2015,-,15.0,-5.0,0.0
04/01/2015,-,11.0,-4.0,0.0
05/01/2015,-,12.0,-5.0,0.0
06/01/2015,-,8.0,-4.0,0.0
07/01/2015,-,10.0,-3.0,0.0
08/01/2015,-,11.0,-7.0,0.0
09/01/2015,-,15.0,-5.0,0.0
10/01/2015,-,13.0,-2.0,1.0
11/01/2015,-,9.0,-1.0,1.1
12/01/2015,-,12.0,-8.0,0.0
13/01/2015,-,12.0,-4.0,0.0
14/01/2015,-,11.0,-2.0,0.0
15/01/2015,-,9.0,2.0,6.7
16/01/2015,-,6.0,3.0,35.6
17/01/2015,-,5.0,0.0,0.0
18/01/2015,-,3.0,-4.0,8.8
19/01/2015,-,2.0,0.0,4.6
20/01/2015,-,2.0,-4.0,2.6
21/01/2015,-,1.0,-3.0,26.1
22/01/2015,-,4.0,0.0,3.9
23/01/2015,-,3.0,0.0,0.0
24/01/2015,-,5.0,0.0,1.4
25/01/2015,-,4.0,0.0,0.0
26/01/2015,-,6.0,0.0,4.8
27/01/2015,-,6.0,0.0,5.8
28/01/2015,-,5.0,2.0,2.5
29/01/2015,-,9.0,1.0,30.5
30/01/2015,-,3.0,1.0,68.1
31/01/2015,-,2.0,0.0,54.8
01/02/2015,-,1.0,0.0,47.3
02/02/2015,-,3.0,-2.0,18.0
03/02/2015,-,1.0,-2.0,0.0
04/02/2015,-,-2.0,-4.0,0.0
05/02/2015,-,-2.0,-4.0,0.0
06/02/2015,-,-3.0,-6.0,0.0
07/02/2015,-,1.0,-5.0,0.0
08/02/2015,-,0.0,-8.0,0.0
09/02/2015,-,7.0,-2.0,0.0
10/02/2015,-,8.0,-9.0,0.0
11/02/2015,-,8.0,-10.0,4.1
12/02/2015,-,8.0,-5.0,0.0
13/02/2015,-,8.0,-3.0,1.4
14/02/2015,-,4.0,0.0,26.9
15/02/2015,-,8.0,0.0,5.0
16/02/2015,-,7.0,1.0,25.9
17/02/2015,-,5.0,2.0,2.3
18/02/2015,-,6.0,1.0,0.0
19/02/2015,-,11.0,-5.0,0.0
20/02/2015,-,9.0,-4.0,29.7
21/02/2015,-,3.0,-2.0,32.8
22/02/2015,-,4.0,0.0,3.8
23/02/2015,-,9.0,2.0,32.0
24/02/2015,-,5.0,0.0,48.0
25/02/2015,-,8.0,0.0,46.7
26/02/2015,-,9.0,4.0,26.7
27/02/2015,-,5.0,2.0,2.4
28/02/2015,-,9.0,1.0,7.7
01/03/2015,-,11.0,2.0,2.7
02/03/2015,-,11.0,7.0,0.5
03/03/2015,-,15.0,7.0,2.7
04/03/2015,-,4.0,2.0,8.2
05/03/2015,-,8.0,1.0,0.0
06/03/2015,-,18.0,1.0,0.0
07/03/2015,-,20.0,-4.0,0.0
08/03/2015,-,16.0,-2.0,0.0
09/03/2015,-,18.0,-4.0,0.0
10/03/2015,-,17.0,0.0,0.0
11/03/2015,-,17.0,0.0,0.0
12/03/2015,-,21.0,-2.0,4.0
13/03/2015,-,8.0,2.0,28.6
14/03/2015,-,4.0,0.0,7.8
15/03/2015,-,5.0,0.0,0.0
16/03/2015,-,9.0,0.0,0.0
17/03/2015,-,12.0,-3.0,0.0
18/03/2015,-,12.0,0.0,3.1
19/03/2015,-,14.0,2.0,0.0
20/03/2015,-,8.0,5.0,5.1
21/03/2015,-,6.0,3.0,0.2
22/03/2015,-,6.0,4.0,19.7
23/03/2015,-,9.0,0.0,21.4
24/03/2015,-,7.0,1.0,13.4
25/03/2015,-,5.0,0.0,3.3
26/03/2015,-,10.0,1.0,3.0
27/03/2015,-,10.0,3.0,3.2
28/03/2015,-,13.0,6.0,0.0
29/03/2015,-,15.0,9.0,0.0
30/03/2015,-,13.0,7.0,0.0
31/03/2015,-,12.0,6.0,0.0
01/04/2015,-,10.0,5.0,0.0
02/04/2015,-,15.0,0.0,0.0
03/04/2015,-,16.0,0.0,0.3
04/04/2015,-,10.0,5.0,0.0
05/04/2015,-,10.0,5.0,0.0
06/04/2015,-,16.0,-2.0,0.0
07/04/2015,-,17.0,-2.0,0.0
08/04/2015,-,17.0,0.0,0.0
09/04/2015,-,17.0,2.0,0.0
10/04/2015,-,17.0,8.0,0.7
11/04/2015,-,15.0,6.0,0.0
12/04/2015,-,21.0,1.0,0.0
13/04/2015,-,23.0,2.0,0.0
14/04/2015,-,24.0,2.0,0.0
15/04/2015,-,19.0,10.0,0.2
16/04/2015,-,15.0,6.0,4.1
17/04/2015,-,17.0,5.0,0.8
18/04/2015,-,19.0,5.0,7.3
19/04/2015,-,12.0,7.0,0.0
20/04/2015,-,16.0,1.0,0.0
21/04/2015,-,20.0,0.0,0.0
22/04/2015,-,18.0,6.0,2.2
23/04/2015,-,16.0,5.0,0.0
24/04/2015,-,20.0,2.0,0.8
25/04/2015,-,18.0,9.0,0.6
26/04/2015,-,15.0,11.0,31.2
27/04/2015,-,11.0,7.0,3.7
28/04/2015,-,11.0,5.0,0.2
29/04/2015,-,14.0,2.0,0.0
30/04/2015,-,19.0,2.0,1.4
01/05/2015,-,15.0,9.0,7.7
02/05/2015,-,21.0,10.0,0.0
03/05/2015,-,19.0,12.0,1.8
04/05/2015,-,23.0,14.0,0.0
05/05/2015,-,19.0,11.0,0.0
06/05/2015,-,16.0,4.0,0.0
07/05/2015,-,23.0,2.0,0.0
08/05/2015,-,20.0,6.0,0.0
09/05/2015,-,20.0,6.0,0.0
10/05/2015,-,27.0,4.0,0.0
11/05/2015,-,29.0,9.0,0.0
12/05/2015,-,29.0,6.0,0.0
13/05/2015,-,29.0,12.0,0.0
14/05/2015,-,19.0,11.0,4.8
15/05/2015,-,10.0,7.0,5.9
16/05/2015,-,12.0,8.0,0.0
17/05/2015,-,15.0,9.0,0.0
18/05/2015,-,22.0,4.0,0.2
19/05/2015,-,11.0,8.0,2.1
20/05/2015,-,11.0,6.0,7.8
21/05/2015,-,12.0,5.0,0.2
22/05/2015,-,12.0,6.0,1.2
23/05/2015,-,13.0,8.0,2.4
24/05/2015,-,15.0,8.0,0.0
25/05/2015,-,13.0,11.0,0.0
26/05/2015,-,14.0,8.0,0.0
27/05/2015,-,16.0,10.0,0.0
28/05/2015,-,22.0,6.0,0.0
29/05/2015,-,15.0,7.0,0.0
30/05/2015,-,18.0,8.0,0.0
31/05/2015,-,24.0,4.0,0.0
01/06/2015,-,26.0,11.0,0.0
02/06/2015,-,28.0,10.0,0.0
03/06/2015,-,29.0,13.0,0.0
04/06/2015,-,31.0,10.0,0.0
05/06/2015,-,29.0,10.0,0.0
06/06/2015,-,26.0,13.0,0.0
07/06/2015,-,28.0,11.0,0.0
08/06/2015,-,25.0,11.0,0.0
09/06/2015,-,20.0,11.0,51.4
10/06/2015,-,17.0,12.0,35.5
11/06/2015,-,20.0,12.0,7.0
12/06/2015,-,22.0,9.0,4.2
13/06/2015,-,22.0,11.0,19.2
14/06/2015,-,20.0,9.0,6.3
15/06/2015,-,18.0,8.0,0.6
16/06/2015,-,13.0,12.0,0.3
17/06/2015,-,16.0,11.0,0.0
18/06/2015,-,17.0,12.0,0.0
19/06/2015,-,18.0,11.0,0.0
20/06/2015,-,20.0,12.0,0.0
21/06/2015,-,24.0,12.0,0.0
22/06/2015,-,29.0,9.0,0.2
23/06/2015,-,19.0,14.0,0.0
24/06/2015,-,21.0,9.0,0.0
25/06/2015,-,28.0,7.0,0.0
26/06/2015,-,30.0,9.0,0.0
27/06/2015,-,25.0,15.0,0.0
28/06/2015,-,29.0,10.0,0.0
29/06/2015,-,33.0,12.0,0.0
30/06/2015,-,35.0,14.0,0.0
01/07/2015,-,33.0,21.0,0.0
02/07/2015,-,30.0,19.0,0.0
03/07/2015,-,32.0,14.0,0.0
04/07/2015,-,34.0,19.0,0.3
05/07/2015,-,29.0,17.0,0.0
06/07/2015,-,35.0,13.0,0.0
07/07/2015,-,32.0,18.0,0.0
08/07/2015,-,16.0,15.0,0.0
09/07/2015,-,21.0,13.0,0.0
10/07/2015,-,34.0,8.0,0.0
11/07/2015,-,19.0,14.0,0.0
12/07/2015,-,21.0,15.0,0.0
13/07/2015,-,25.0,13.0,0.0
14/07/2015,-,26.0,13.0,0.0
15/07/2015,-,31.0,13.0,0.0
16/07/2015,-,35.0,15.0,0.0
17/07/2015,-,35.0,12.0,10.7
18/07/2015,-,31.0,16.0,0.7
19/07/2015,-,26.0,15.0,0.0
20/07/2015,-,29.0,17.0,0.0
21/07/2015,-,31.0,16.0,9.7
22/07/2015,-,24.0,17.0,0.0
23/07/2015,-,28.0,16.0,0.0
24/07/2015,-,28.0,14.0,0.9
25/07/2015,-,18.0,14.0,0.0
26/07/2015,-,28.0,7.0,0.0
27/07/2015,-,21.0,16.0,0.0
28/07/2015,-,27.0,13.0,0.0
29/07/2015,-,24.0,11.0,23.0
30/07/2015,-,15.0,10.0,10.6
31/07/2015,-,18.0,10.0,6.9
01/08/2015,-,19.0,11.0,0.0
02/08/2015,-,30.0,8.0,0.0
03/08/2015,-,32.0,13.0,2.4
04/08/2015,-,21.0,15.0,0.0
05/08/2015,-,32.0,13.0,0.0
06/08/2015,-,32.0,15.0,0.0
07/08/2015,-,22.0,17.0,2.9
08/08/2015,-,16.0,14.0,1.9
09/08/2015,-,18.0,10.0,0.0
10/08/2015,-,23.0,11.0,0.0
11/08/2015,-,31.0,9.0,1.5
12/08/2015,-,32.0,15.0,2.0
13/08/2015,-,24.0,17.0,0.0
14/08/2015,-,19.0,14.0,0.0
15/08/2015,-,17.0,13.0,0.0
16/08/2015,-,25.0,5.0,0.0
17/08/2015,-,19.0,12.0,0.0
18/08/2015,-,19.0,9.0,0.0
19/08/2015,-,22.0,5.0,0.0
20/08/2015,-,28.0,4.0,0.0
21/08/2015,-,32.0,8.0,0.0
22/08/2015,-,27.0,15.0,12.9
23/08/2015,-,23.0,16.0,0.7
24/08/2015,-,19.0,11.0,0.0
25/08/2015,-,25.0,5.0,0.0
26/08/2015,-,29.0,10.0,0.0
27/08/2015,-,30.0,13.0,0.0
28/08/2015,-,32.0,12.0,0.0
29/08/2015,-,32.0,16.0,0.0
30/08/2015,-,32.0,18.0,1.8
31/08/2015,-,30.0,15.0,53.1
01/09/2015,-,18.0,14.0,0.3
02/09/2015,-,18.0,10.0,6.8
03/09/2015,-,17.0,13.0,0.0
04/09/2015,-,15.0,9.0,0.0
05/09/2015,-,16.0,7.0,0.0
06/09/2015,-,18.0,5.0,0.0
07/09/2015,-,18.0,5.0,0.0
08/09/2015,-,22.0,6.0,0.0
09/09/2015,-,25.0,5.0,0.5
10/09/2015,-,21.0,12.0,0.0
11/09/2015,-,24.0,9.0,2.0
12/09/2015,-,22.0,12.0,4.0
13/09/2015,-,19.0,15.0,0.8
14/09/2015,-,16.0,9.0,0.0
15/09/2015,-,18.0,9.0,1.6
16/09/2015,-,22.0,14.0,0.0
17/09/2015,-,15.0,11.0,0.7
18/09/2015,-,18.0,3.0,0.0
19/09/2015,-,18.0,3.0,0.0
20/09/2015,-,19.0,9.0,0.0
21/09/2015,-,22.0,0.0,0.0
22/09/2015,-,16.0,8.0,5.6
23/09/2015,-,13.0,10.0,0.0
24/09/2015,-,18.0,6.0,0.0
25/09/2015,-,21.0,5.0,0.0
26/09/2015,-,20.0,7.0,0.0
27/09/2015,-,18.0,4.0,0.0
28/09/2015,-,22.0,3.0,0.0
29/09/2015,-,19.0,4.0,10.7
30/09/2015,-,21.0,8.0,0.0
01/10/2015,-,21.0,4.0,3.7
02/10/2015,-,12.0,10.0,0.6
03/10/2015,-,16.0,5.0,0.0
04/10/2015,-,18.0,2.0,1.5
05/10/2015,-,21.0,9.0,0.0
06/10/2015,-,19.0,15.0,10.9
07/10/2015,-,13.0,10.0,0.3
08/10/2015,-,14.0,10.0,0.0
09/10/2015,-,18.0,1.0,0.0
10/10/2015,-,19.0,0.0,0.0
11/10/2015,-,18.0,5.0,0.2
12/10/2015,-,19.0,11.0,20.4
13/10/2015,-,12.0,7.0,0.0
14/10/2015,-,10.0,5.0,0.0
15/10/2015,-,11.0,-2.0,0.0
16/10/2015,-,15.0,-3.0,0.0
17/10/2015,-,18.0,-2.0,3.6
18/10/2015,-,18.0,2.0,0.5
19/10/2015,-,17.0,10.0,1.3
20/10/2015,-,11.0,10.0,0.0
21/10/2015,-,9.0,7.0,0.2
22/10/2015,-,10.0,6.0,0.0
23/10/2015,-,21.0,5.0,0.0
24/10/2015,-,18.0,7.0,0.0
25/10/2015,-,18.0,12.0,0.0
26/10/2015,-,18.0,4.0,0.4
27/10/2015,-,15.0,11.0,16.0
28/10/2015,-,12.0,5.0,1.0
29/10/2015,-,16.0,6.0,0.2
30/10/2015,-,19.0,4.0,0.0
31/10/2015,-,18.0,6.0,0.0
01/11/2015,-,17.0,3.0,0.0
02/11/2015,-,17.0,5.0,18.8
03/11/2015,-,13.0,9.0,4.8
04/11/2015,-,15.0,6.0,0.0
05/11/2015,-,15.0,7.0,0.2
06/11/2015,-,20.0,5.0,0.0
07/11/2015,-,21.0,5.0,0.0
08/11/2015,-,21.0,4.0,0.0
09/11/2015,-,20.0,4.0,0.0
10/11/2015,-,21.0,2.0,0.0
11/11/2015,-,20.0,-1.0,0.0
12/11/2015,-,15.0,-2.0,0.0
13/11/2015,-,14.0,0.0,0.0
14/11/2015,-,17.0,1.0,0.0
15/11/2015,-,16.0,-2.0,0.0
16/11/2015,-,18.0,-4.0,0.0
17/11/2015,-,17.0,-3.0,0.0
18/11/2015,-,20.0,-2.0,0.0
19/11/2015,-,15.0,4.0,0.0
20/11/2015,-,15.0,1.0,13.8
21/11/2015,-,6.0,1.0,52.4
22/11/2015,-,2.0,0.0,2.2
23/11/2015,-,4.0,-5.0,0.9
24/11/2015,-,9.0,-5.0,30.5
25/11/2015,-,10.0,-2.0,46.3
26/11/2015,-,9.0,8.0,4.5
27/11/2015,-,9.0,5.0,6.9
28/11/2015,-,7.0,5.0,0.3
29/11/2015,-,11.0,0.0,0.0
30/11/2015,-,14.0,-5.0,0.0
01/12/2015,-,10.0,-8.0,0.0
02/12/2015,-,11.0,-7.0,0.0
03/12/2015,-,13.0,-5.0,0.0
04/12/2015,-,14.0,-5.0,0.0
05/12/2015,-,15.0,-1.0,0.0
06/12/2015,-,11.0,-1.0,0.0
07/12/2015,-,12.0,0.0,0.0
08/12/2015,-,11.0,1.0,0.0
09/12/2015,-,14.0,7.0,0.0
10/12/2015,-,11.0,-1.0,0.0
11/12/2015,-,8.0,2.0,0.0
12/12/2015,-,9.0,0.0,0.0
13/12/2015,-,9.0,0.0,0.0
14/12/2015,-,10.0,1.0,0.0
15/12/2015,-,13.0,2.0,0.0
16/12/2015,-,15.0,-1.0,0.0
17/12/2015,-,15.0,-1.0,0.0
18/12/2015,-,15.0,0.0,0.0
19/12/2015,-,16.0,0.0,0.0
20/12/2015,-,16.0,0.0,0.0
21/12/2015,-,12.0,3.0,0.0
22/12/2015,-,12.0,-5.0,0.0
23/12/2015,-,13.0,-4.0,0.0
24/12/2015,-,11.0,-2.0,0.0
25/12/2015,-,13.0,0.0,0.0
26/12/2015,-,12.0,-5.0,0.0
27/12/2015,-,14.0,-4.0,0.0
