Fecha, Temperatura media, Temperatura maxima, Temperatura minima, Precipitacion acumulada
01/01/2013,5.3,9.4,2.5,6.8
02/01/2013,6.1,10.2,2.9,3.1
03/01/2013,5.6,14.4,-0.5,0.0
04/01/2013,6.3,19.7,-1.7,0.0
05/01/2013,12.2,19.2,4.2,0.0
06/01/2013,8.7,19.3,0.6,0.0
07/01/2013,4.9,17.0,-1.2,0.0
08/01/2013,3.2,13.6,-2.0,0.0
09/01/2013,1.7,6.9,-4.0,2.0
10/01/2013,7.5,14.8,2.7,0.1
11/01/2013,4.5,12.1,-1.3,0.0
12/01/2013,3.2,9.3,-0.8,3.5
13/01/2013,3.2,6.6,-0.2,3.3
14/01/2013,2.2,4.1,0.0,33.4
15/01/2013,3.3,5.3,0.1,34.9
16/01/2013,6.3,9.4,2.9,12.2
17/01/2013,4.7,7.9,2.1,3.7
18/01/2013,6.1,8.5,3.5,18.7
19/01/2013,7.5,10.0,3.8,19.0
20/01/2013,4.4,7.0,2.3,17.3
21/01/2013,3.2,7.9,-1.8,1.3
22/01/2013,1.0,4.7,-1.6,2.0
23/01/2013,2.4,6.1,-0.9,13.1
24/01/2013,3.2,6.5,1.1,29.5
25/01/2013,4.2,10.7,-1.4,4.1
26/01/2013,6.0,11.4,-0.1,9.0
27/01/2013,4.4,8.2,0.7,13.1
28/01/2013,5.7,14.0,-0.5,0.3
29/01/2013,4.3,12.8,-0.7,0.0
30/01/2013,6.1,14.7,0.5,0.0
31/01/2013,9.1,17.8,2.7,0.0
01/02/2013,8.8,14.4,3.5,10.1
02/02/2013,3.6,6.5,0.7,30.2
03/02/2013,3.9,7.1,0.3,3.8
04/02/2013,7.5,13.8,3.6,0.4
05/02/2013,8.5,14.2,1.9,2.8
06/02/2013,2.3,5.5,0.7,35.5
07/02/2013,1.7,5.2,0.0,17.7
08/02/2013,2.0,4.2,0.4,33.7
09/02/2013,3.2,7.1,0.5,5.4
10/02/2013,2.8,7.6,-0.2,5.6
11/02/2013,2.6,6.5,-0.0,8.8
12/02/2013,2.0,4.4,-0.4,36.2
13/02/2013,5.6,8.3,3.0,3.7
14/02/2013,6.7,10.0,2.4,0.1
15/02/2013,5.5,11.9,-0.7,0.0
16/02/2013,3.7,12.6,-2.3,0.1
17/02/2013,3.6,8.3,-1.1,0.0
18/02/2013,6.6,13.4,3.3,4.2
19/02/2013,8.0,10.0,6.6,0.0
20/02/2013,8.5,15.2,3.6,0.0
21/02/2013,9.3,14.8,4.8,0.0
22/02/2013,5.1,8.7,-0.1,0.0
23/02/2013,-0.7,2.0,-2.5,0.0
24/02/2013,0.0,3.6,-1.4,2.5
25/02/2013,0.6,2.5,-0.9,1.1
26/02/2013,0.2,2.9,-1.9,9.2
27/02/2013,2.2,10.3,-3.5,0.1
28/02/2013,4.0,12.7,-1.5,0.0
01/03/2013,6.0,11.0,1.9,0.0
02/03/2013,5.7,14.1,-0.7,0.0
03/03/2013,6.1,13.8,-1.1,0.0
04/03/2013,7.8,10.4,3.7,1.6
05/03/2013,9.4,10.0,8.5,4.6
06/03/2013,11.2,18.3,6.3,7.9
07/03/2013,10.8,15.5,7.1,24.0
08/03/2013,9.9,15.6,3.9,5.1
09/03/2013,7.8,15.0,2.2,0.1
10/03/2013,8.2,13.4,3.5,0.0
11/03/2013,8.0,14.6,4.2,2.1
12/03/2013,5.8,11.7,0.4,9.0
13/03/2013,0.6,1.7,-1.0,1.6
14/03/2013,1.7,6.4,-0.3,14.7
15/03/2013,2.9,9.9,-1.5,0.1
16/03/2013,4.3,7.6,-0.7,0.7
17/03/2013,5.3,6.9,2.1,12.1
18/03/2013,4.3,12.7,-1.9,0.0
19/03/2013,5.0,11.0,-1.8,2.4
20/03/2013,6.7,14.3,-0.1,0.0
21/03/2013,7.1,13.8,-1.4,0.0
22/03/2013,9.0,17.9,1.8,1.8
23/03/2013,7.3,16.8,0.2,0.4
24/03/2013,9.3,18.3,1.6,0.0
25/03/2013,7.1,11.1,2.8,24.1
26/03/2013,9.6,15.1,6.2,18.9
27/03/2013,9.5,14.0,7.5,25.8
28/03/2013,11.8,16.9,8.7,2.0
29/03/2013,11.6,15.6,8.8,30.4
30/03/2013,9.0,14.2,5.6,2.6
31/03/2013,10.2,17.3,2.9,0.0
01/04/2013,8.9,14.6,5.4,12.7
02/04/2013,8.3,15.8,2.3,0.3
03/04/2013,8.7,16.2,0.9,4.5
04/04/2013,6.9,10.2,3.3,4.2
05/04/2013,4.4,9.3,1.5,0.8
06/04/2013,3.4,8.4,-0.3,14.7
07/04/2013,8.0,12.5,3.7,0.0
08/04/2013,9.8,14.1,6.4,0.8
09/04/2013,9.0,15.9,4.1,1.7
10/04/2013,10.3,18.3,2.0,0.0
11/04/2013,11.5,18.1,8.1,1.8
12/04/2013,10.9,15.3,3.5,0.0
13/04/2013,12.5,21.1,3.7,0.0
14/04/2013,15.5,23.3,6.0,0.3
15/04/2013,14.2,23.5,5.5,0.0
16/04/2013,15.7,24.9,7.2,0.0
17/04/2013,17.3,27.3,8.4,0.0
18/04/2013,12.2,18.9,6.9,0.0
19/04/2013,9.3,14.7,2.9,0.0
20/04/2013,8.0,16.0,0.4,0.0
21/04/2013,9.2,18.1,0.2,0.0
22/04/2013,9.4,16.7,4.7,0.0
23/04/2013,11.3,19.8,3.8,0.0
24/04/2013,12.0,21.4,3.0,0.0
25/04/2013,13.6,23.1,3.6,0.0
26/04/2013,11.1,14.3,6.4,1.7
27/04/2013,6.1,11.1,1.5,0.4
28/04/2013,5.4,11.0,-0.4,2.6
29/04/2013,7.0,10.7,4.9,6.6
30/04/2013,7.6,12.5,4.5,6.0
01/05/2013,9.2,15.8,6.3,0.5
02/05/2013,8.4,13.0,5.6,2.8
03/05/2013,9.5,18.0,3.5,0.0
04/05/2013,11.9,21.6,3.2,0.0
05/05/2013,14.3,23.2,5.4,0.0
06/05/2013,13.4,24.6,2.4,1.2
07/05/2013,16.7,24.7,10.7,0.0
08/05/2013,15.7,20.1,8.7,0.4
09/05/2013,11.9,16.9,8.0,6.6
10/05/2013,11.0,18.9,4.4,0.0
11/05/2013,10.6,18.3,3.7,0.0
12/05/2013,9.7,16.4,3.0,0.0
13/05/2013,11.8,24.9,1.0,0.0
14/05/2013,12.6,21.9,3.5,8.7
15/05/2013,8.0,11.9,3.7,0.8
16/05/2013,7.4,13.3,2.3,1.1
17/05/2013,6.3,12.0,3.3,55.2
18/05/2013,6.8,11.3,2.9,13.1
19/05/2013,8.4,13.7,2.3,1.4
20/05/2013,7.7,15.8,0.3,0.0
21/05/2013,7.0,11.4,-0.1,0.3
22/05/2013,12.3,17.5,8.9,0.0
23/05/2013,9.5,12.7,7.5,0.1
24/05/2013,9.2,15.5,5.0,0.1
25/05/2013,8.3,15.4,0.8,1.7
26/05/2013,9.7,20.1,-1.5,1.8
27/05/2013,11.4,18.8,8.1,32.1
28/05/2013,9.2,15.7,3.1,5.5
29/05/2013,7.7,14.9,2.2,1.7
30/05/2013,8.4,12.4,5.2,8.9
31/05/2013,10.6,14.9,7.6,0.5
01/06/2013,11.2,15.9,8.2,0.1
02/06/2013,12.1,18.3,7.4,0.0
03/06/2013,13.6,21.6,7.6,0.0
04/06/2013,14.4,25.5,3.5,0.0
05/06/2013,16.2,26.2,6.0,0.0
06/06/2013,16.9,27.0,8.7,0.0
07/06/2013,14.5,22.6,8.2,26.4
08/06/2013,10.9,12.7,9.3,28.7
09/06/2013,12.7,18.3,10.4,26.2
10/06/2013,16.4,23.7,10.4,0.0
11/06/2013,18.6,26.1,12.3,0.0
12/06/2013,20.7,30.2,11.1,0.0
13/06/2013,16.7,21.1,12.1,0.0
14/06/2013,17.2,28.7,8.6,0.0
15/06/2013,17.6,27.2,8.0,0.0
16/06/2013,20.9,31.0,10.5,0.0
17/06/2013,18.6,27.2,12.3,0.1
18/06/2013,13.2,18.3,9.5,4.3
19/06/2013,11.7,15.8,9.3,5.0
20/06/2013,12.6,18.1,9.1,1.6
21/06/2013,13.4,19.7,8.5,10.2
22/06/2013,16.3,26.7,5.9,0.0
23/06/2013,14.3,20.3,10.0,0.0
24/06/2013,13.6,21.6,7.0,0.0
25/06/2013,14.2,23.1,4.8,0.0
26/06/2013,16.2,23.8,9.9,0.0
27/06/2013,15.9,23.6,8.4,0.0
28/06/2013,16.5,24.7,8.4,0.0
29/06/2013,18.1,26.4,8.5,0.0
30/06/2013,20.1,29.2,11.6,0.0
01/07/2013,19.4,29.8,10.5,0.0
02/07/2013,21.2,29.9,11.7,0.0
03/07/2013,20.2,26.8,15.9,0.0
04/07/2013,22.1,29.8,15.3,0.0
05/07/2013,22.6,32.6,11.8,0.0
06/07/2013,23.1,33.3,12.8,0.0
07/07/2013,22.4,32.5,11.1,0.0
08/07/2013,23.9,33.5,13.5,0.0
09/07/2013,24.3,33.1,14.6,0.0
10/07/2013,24.2,33.3,14.9,0.0
11/07/2013,23.3,32.1,13.8,0.0
12/07/2013,23.6,33.5,15.3,0.5
13/07/2013,23.7,31.9,15.9,0.0
14/07/2013,22.1,31.0,14.0,0.0
15/07/2013,21.5,32.0,12.2,0.7
16/07/2013,21.6,29.9,15.4,6.6
17/07/2013,20.3,30.0,13.4,0.0
18/07/2013,21.1,29.4,13.2,0.0
19/07/2013,21.6,31.7,11.9,0.0
20/07/2013,23.2,32.6,14.7,0.0
21/07/2013,23.8,32.6,16.7,0.0
22/07/2013,23.4,33.1,13.0,1.8
23/07/2013,22.4,32.5,16.1,6.8
24/07/2013,23.0,32.7,14.9,0.0
25/07/2013,26.2,35.8,16.5,0.0
26/07/2013,25.6,34.9,16.3,0.0
27/07/2013,21.3,28.4,14.4,0.0
28/07/2013,20.8,28.8,13.1,0.1
29/07/2013,19.4,28.8,10.1,0.0
30/07/2013,21.8,33.3,11.3,0.0
31/07/2013,24.8,36.0,13.1,0.0
01/08/2013,26.4,35.9,14.1,0.0
02/08/2013,25.9,34.9,18.2,0.0
03/08/2013,22.0,31.2,14.2,0.0
04/08/2013,23.1,32.5,14.0,0.0
05/08/2013,22.3,30.9,15.3,0.0
06/08/2013,20.7,27.0,15.4,0.0
07/08/2013,17.7,27.0,12.6,5.5
08/08/2013,16.2,24.2,9.9,0.0
09/08/2013,17.6,28.5,8.0,0.0
10/08/2013,19.7,29.4,10.0,0.0
11/08/2013,22.5,35.3,9.9,0.0
12/08/2013,22.0,32.2,15.2,20.3
13/08/2013,19.9,27.3,14.3,0.0
14/08/2013,20.5,29.6,12.0,0.0
15/08/2013,21.4,32.3,10.5,0.0
16/08/2013,21.1,31.5,14.2,0.0
17/08/2013,21.6,30.6,13.4,0.0
18/08/2013,22.1,33.2,12.3,0.0
19/08/2013,20.0,27.1,14.2,0.0
20/08/2013,20.4,30.1,12.2,0.0
21/08/2013,20.9,33.1,10.3,0.0
22/08/2013,22.3,32.7,14.3,0.0
23/08/2013,21.8,30.4,15.6,0.0
24/08/2013,19.1,25.1,14.4,0.0
25/08/2013,18.7,27.1,13.2,0.0
26/08/2013,17.6,24.9,11.6,0.0
27/08/2013,17.4,25.3,9.4,0.0
28/08/2013,19.2,26.3,14.7,0.0
29/08/2013,19.3,26.7,14.1,0.0
30/08/2013,19.1,26.8,13.0,0.0
31/08/2013,18.5,25.9,10.7,0.0
01/09/2013,19.5,27.0,12.0,0.0
02/09/2013,20.0,28.6,12.4,0.0
03/09/2013,19.7,30.8,10.2,0.0
04/09/2013,20.7,30.9,11.6,0.0
05/09/2013,19.6,29.7,10.1,8.5
06/09/2013,18.1,27.1,13.4,22.4
07/09/2013,14.6,20.3,11.6,4.7
08/09/2013,14.0,19.5,8.1,3.2
09/09/2013,15.4,25.5,6.6,0.0
10/09/2013,16.4,21.4,12.2,0.0
11/09/2013,13.5,21.2,8.7,0.0
12/09/2013,13.6,21.6,6.8,0.0
13/09/2013,16.6,25.8,10.3,0.0
14/09/2013,17.2,27.2,7.3,0.0
15/09/2013,15.5,21.2,8.0,0.0
16/09/2013,15.2,26.2,5.9,0.0
17/09/2013,15.3,22.0,11.4,0.0
18/09/2013,17.0,24.3,11.6,0.0
19/09/2013,16.8,22.1,13.0,0.0
20/09/2013,17.6,25.2,12.2,0.0
21/09/2013,17.6,26.8,10.0,0.0
22/09/2013,17.3,28.8,7.2,0.0
23/09/2013,18.2,27.5,9.1,0.0
24/09/2013,19.1,28.4,10.9,0.0
25/09/2013,21.8,30.5,14.7,0.0
26/09/2013,21.7,30.3,14.1,0.0
27/09/2013,22.0,29.8,13.5,0.0
28/09/2013,17.9,25.7,12.3,10.0
29/09/2013,15.3,23.0,10.7,4.2
30/09/2013,17.7,26.3,12.0,0.0
01/10/2013,17.1,22.0,14.1,2.5
02/10/2013,20.1,27.3,15.3,3.9
03/10/2013,20.9,24.6,18.5,1.7
04/10/2013,17.6,23.1,11.5,11.3
05/10/2013,15.1,22.4,9.5,0.0
06/10/2013,14.9,21.3,10.7,0.0
07/10/2013,14.5,23.5,7.6,0.0
08/10/2013,13.1,21.7,5.8,0.0
09/10/2013,13.1,20.9,6.8,0.0
10/10/2013,11.9,19.5,5.8,0.0
11/10/2013,9.0,16.0,3.2,0.0
12/10/2013,8.0,17.0,0.3,0.0
13/10/2013,11.3,19.5,3.5,0.0
14/10/2013,14.5,20.4,8.8,0.9
15/10/2013,15.5,18.7,12.3,0.8
16/10/2013,18.9,26.8,13.6,0.0
17/10/2013,17.2,24.2,10.1,0.0
18/10/2013,18.9,27.0,10.4,0.0
19/10/2013,18.7,23.0,15.2,0.0
20/10/2013,15.9,22.9,9.5,0.0
21/10/2013,15.4,20.9,8.0,0.0
22/10/2013,15.7,17.3,13.4,4.5
23/10/2013,14.4,22.5,8.8,0.1
24/10/2013,15.4,19.4,8.4,1.2
25/10/2013,17.4,19.7,15.7,3.2
26/10/2013,15.6,20.2,8.7,0.1
27/10/2013,12.3,19.9,6.5,0.0
28/10/2013,12.4,18.3,7.4,1.1
29/10/2013,10.1,14.5,5.7,0.0
30/10/2013,9.7,15.8,5.1,0.1
31/10/2013,8.4,18.8,1.4,0.0
01/11/2013,8.6,14.2,2.5,0.7
02/11/2013,13.7,20.8,7.4,2.1
03/11/2013,11.6,17.0,6.4,0.0
04/11/2013,10.2,13.8,7.6,27.8
05/11/2013,14.4,17.7,10.2,4.1
06/11/2013,15.0,21.7,10.0,0.0
07/11/2013,12.3,18.8,7.2,0.0
08/11/2013,10.9,18.1,7.5,0.8
09/11/2013,9.6,14.5,2.9,0.7
10/11/2013,11.5,13.9,10.1,3.9
11/11/2013,12.5,16.0,10.2,0.8
12/11/2013,13.4,18.7,11.0,0.0
13/11/2013,13.1,17.5,10.6,0.0
14/11/2013,9.8,13.0,5.9,2.5
15/11/2013,4.3,8.5,1.2,25.7
16/11/2013,4.7,8.5,-0.8,0.1
17/11/2013,6.9,9.0,3.3,1.3
18/11/2013,8.8,11.3,6.7,1.8
19/11/2013,7.0,11.1,2.2,11.1
20/11/2013,3.5,5.4,1.0,10.0
21/11/2013,4.1,5.5,2.3,29.2
22/11/2013,3.8,7.5,1.3,5.2
23/11/2013,5.1,9.3,2.4,0.5
24/11/2013,5.7,9.1,3.8,0.0
25/11/2013,4.9,9.1,2.5,0.0
26/11/2013,3.1,7.6,-0.8,0.0
27/11/2013,1.8,7.1,-3.1,0.0
28/11/2013,0.2,9.1,-4.9,0.0
29/11/2013,5.1,9.6,0.5,0.0
30/11/2013,5.4,8.3,2.6,3.3
01/12/2013,4.0,9.6,-0.3,0.0
02/12/2013,3.4,10.3,-1.7,0.0
03/12/2013,2.7,13.0,-2.6,0.0
04/12/2013,4.6,16.4,-2.1,0.0
05/12/2013,6.1,12.3,0.7,0.0
06/12/2013,6.2,13.4,-0.7,0.0
07/12/2013,3.5,12.5,-2.1,0.0
08/12/2013,1.7,10.7,-3.4,0.0
09/12/2013,1.6,5.0,-2.9,0.0
10/12/2013,1.8,5.5,-1.9,0.0
11/12/2013,2.9,5.8,-2.7,0.1
12/12/2013,3.1,4.4,0.6,0.0
13/12/2013,3.2,8.8,-0.1,3.9
14/12/2013,6.3,14.2,-0.5,0.1
15/12/2013,2.2,11.9,-2.3,0.0
16/12/2013,2.3,9.7,-2.8,0.1
17/12/2013,5.7,9.5,3.2,0.0
18/12/2013,5.9,8.3,4.4,0.5
19/12/2013,6.4,8.7,4.5,13.2
20/12/2013,4.6,9.4,-1.1,6.9
21/12/2013,0.9,6.3,-3.4,0.0
22/12/2013,2.3,10.0,-2.5,0.0
23/12/2013,3.4,8.6,-1.6,0.0
24/12/2013,7.7,9.9,6.1,10.1
25/12/2013,6.0,8.3,2.6,1.6
26/12/2013,4.2,8.4,-0.1,2.4
27/12/2013,7.6,11.3,2.1,0.0
28/12/2013,6.4,11.6,-0.8,5.0
29/12/2013,1.5,8.8,-1.5,0.1
30/12/2013,0.9,5.4,-3.0,0.1
31/12/2013,3.0,9.1,-0.9,0.0
