Fecha, Temperatura media, Temperatura maxima, Temperatura minima, Precipitacion acumulada
01/01/2019,-,5.0,-3.0,1.7
02/01/2019,-,5.0,3.0,0.0
03/01/2019,-,6.0,-3.0,0.0
04/01/2019,-,5.0,-2.0,0.0
05/01/2019,-,7.0,-4.0,0.0
06/01/2019,-,5.0,-1.0,0.0
07/01/2019,-,5.0,2.0,0.0
08/01/2019,-,8.0,3.0,7.0
09/01/2019,-,7.0,5.0,0.0
10/01/2019,-,4.0,0.0,0.0
11/01/2019,-,6.0,-2.0,0.0
12/01/2019,-,8.0,0.0,0.4
13/01/2019,-,9.0,5.0,5.3
14/01/2019,-,10.0,7.0,4.9
15/01/2019,-,11.0,7.0,0.0
16/01/2019,-,14.0,3.0,2.2
17/01/2019,-,10.0,6.0,15.1
18/01/2019,-,8.0,3.0,1.8
19/01/2019,-,10.0,5.0,1.9
20/01/2019,-,9.0,6.0,21.8
21/01/2019,-,7.0,5.0,1.1
22/01/2019,-,11.0,4.0,56.2
23/01/2019,-,9.0,7.0,39.4
24/01/2019,-,10.0,3.0,13.9
25/01/2019,-,10.0,5.0,13.2
26/01/2019,-,11.0,8.0,4.7
27/01/2019,-,10.0,6.0,42.1
28/01/2019,-,10.0,8.0,24.3
29/01/2019,-,8.0,6.0,16.4
30/01/2019,-,9.0,4.0,12.6
31/01/2019,-,12.0,6.0,27.8
01/02/2019,-,12.0,7.0,25.8
02/02/2019,-,8.0,6.0,22.1
03/02/2019,-,7.0,0.0,7.3
04/02/2019,-,9.0,-1.0,5.9
05/02/2019,-,11.0,7.0,4.9
06/02/2019,-,17.0,8.0,0.0
07/02/2019,-,10.0,7.0,1.1
08/02/2019,-,17.0,3.0,0.0
09/02/2019,-,16.0,1.0,0.0
10/02/2019,-,13.0,9.0,9.7
11/02/2019,-,11.0,7.0,4.1
12/02/2019,-,12.0,2.0,0.0
13/02/2019,-,17.0,-1.0,0.0
14/02/2019,-,19.0,4.0,0.0
15/02/2019,-,19.0,13.0,0.0
16/02/2019,-,18.0,6.0,0.0
17/02/2019,-,21.0,15.0,0.0
18/02/2019,-,18.0,12.0,0.0
19/02/2019,-,13.0,6.0,0.0
20/02/2019,-,19.0,5.0,0.0
21/02/2019,-,21.0,9.0,0.0
22/02/2019,-,22.0,4.0,0.0
23/02/2019,-,19.0,3.0,0.0
24/02/2019,-,21.0,4.0,0.0
25/02/2019,-,23.0,4.0,0.0
26/02/2019,-,24.0,8.0,0.0
27/02/2019,-,27.0,7.0,0.0
28/02/2019,-,17.0,6.0,0.0
01/03/2019,-,15.0,4.0,0.1
02/03/2019,-,16.0,6.0,0.0
03/03/2019,-,22.0,3.0,0.0
04/03/2019,-,12.0,11.0,0.6
05/03/2019,-,18.0,6.0,0.0
06/03/2019,-,19.0,14.0,3.9
07/03/2019,-,16.0,8.0,8.1
08/03/2019,-,13.0,9.0,3.0
09/03/2019,-,17.0,6.0,0.7
10/03/2019,-,14.0,7.0,5.3
11/03/2019,-,13.0,7.0,0.2
12/03/2019,-,19.0,2.0,15.9
13/03/2019,-,10.0,7.0,15.6
14/03/2019,-,11.0,8.0,1.6
15/03/2019,-,13.0,7.0,0.0
16/03/2019,-,26.0,3.0,0.0
17/03/2019,-,11.0,8.0,11.6
18/03/2019,-,11.0,5.0,16.7
19/03/2019,-,10.0,7.0,0.0
20/03/2019,-,12.0,6.0,0.0
21/03/2019,-,14.0,2.0,0.0
22/03/2019,-,21.0,1.0,0.0
23/03/2019,-,20.0,3.0,0.0
24/03/2019,-,19.0,4.0,0.0
25/03/2019,-,13.0,2.0,0.0
26/03/2019,-,14.0,1.0,0.0
27/03/2019,-,14.0,2.0,0.0
28/03/2019,-,14.0,2.0,0.0
29/03/2019,-,21.0,4.0,0.0
30/03/2019,-,21.0,9.0,0.0
31/03/2019,-,20.0,4.0,2.2
01/04/2019,-,16.0,10.0,3.1
02/04/2019,-,14.0,9.0,6.8
03/04/2019,-,9.0,7.0,11.7
04/04/2019,-,14.0,4.0,0.4
05/04/2019,-,13.0,9.0,10.8
06/04/2019,-,15.0,6.0,0.8
07/04/2019,-,13.0,6.0,0.3
08/04/2019,-,13.0,5.0,8.9
09/04/2019,-,16.0,3.0,0.0
10/04/2019,-,13.0,7.0,9.0
11/04/2019,-,12.0,7.0,3.8
12/04/2019,-,14.0,9.0,0.0
13/04/2019,-,19.0,2.0,0.0
14/04/2019,-,18.0,9.0,0.0
15/04/2019,-,23.0,8.0,12.9
16/04/2019,-,17.0,9.0,0.0
17/04/2019,-,23.0,10.0,0.0
18/04/2019,-,17.0,16.0,0.0
19/04/2019,-,20.0,10.0,0.0
20/04/2019,-,19.0,9.0,0.0
21/04/2019,-,17.0,7.0,0.0
22/04/2019,-,21.0,9.0,0.0
23/04/2019,-,19.0,13.0,6.2
24/04/2019,-,16.0,8.0,8.7
25/04/2019,-,18.0,11.0,5.9
26/04/2019,-,17.0,8.0,1.7
27/04/2019,-,13.0,8.0,0.7
28/04/2019,-,16.0,8.0,0.0
29/04/2019,-,18.0,5.0,0.0
30/04/2019,-,19.0,6.0,0.0
01/05/2019,-,19.0,4.0,2.3
02/05/2019,-,14.0,8.0,1.8
03/05/2019,-,15.0,9.0,10.4
04/05/2019,-,14.0,8.0,10.8
05/05/2019,-,12.0,4.0,0.0
06/05/2019,-,21.0,2.0,0.0
07/05/2019,-,25.0,7.0,0.0
08/05/2019,-,18.0,14.0,3.4
09/05/2019,-,19.0,8.0,11.4
10/05/2019,-,25.0,10.0,0.9
11/05/2019,-,16.0,12.0,0.0
12/05/2019,-,17.0,9.0,0.0
13/05/2019,-,17.0,5.0,0.0
14/05/2019,-,20.0,6.0,0.0
15/05/2019,-,21.0,7.0,0.0
16/05/2019,-,23.0,8.0,38.4
17/05/2019,-,12.0,11.0,21.2
18/05/2019,-,11.0,9.0,64.7
19/05/2019,-,11.0,9.0,43.3
20/05/2019,-,16.0,9.0,0.0
21/05/2019,-,17.0,9.0,0.0
22/05/2019,-,22.0,10.0,0.0
23/05/2019,-,20.0,10.0,4.6
24/05/2019,-,13.0,11.0,3.4
25/05/2019,-,14.0,12.0,6.7
26/05/2019,-,14.0,13.0,10.8
27/05/2019,-,14.0,13.0,3.9
28/05/2019,-,14.0,11.0,1.3
29/05/2019,-,16.0,11.0,0.0
30/05/2019,-,23.0,7.0,0.0
31/05/2019,-,26.0,9.0,0.0
01/06/2019,-,32.0,12.0,0.0
02/06/2019,-,30.0,13.0,0.0
03/06/2019,-,23.0,14.0,0.0
04/06/2019,-,27.0,14.0,36.4
05/06/2019,-,15.0,12.0,17.8
06/06/2019,-,25.0,10.0,1.6
07/06/2019,-,19.0,13.0,0.0
08/06/2019,-,20.0,6.0,0.9
09/06/2019,-,20.0,11.0,0.4
10/06/2019,-,16.0,12.0,2.0
11/06/2019,-,13.0,11.0,11.9
12/06/2019,-,17.0,9.0,0.0
13/06/2019,-,19.0,9.0,1.6
14/06/2019,-,16.0,11.0,4.1
15/06/2019,-,19.0,13.0,0.0
16/06/2019,-,24.0,10.0,0.0
17/06/2019,-,28.0,10.0,0.0
18/06/2019,-,34.0,16.0,0.0
19/06/2019,-,24.0,12.0,1.9
20/06/2019,-,17.0,16.0,14.1
21/06/2019,-,18.0,14.0,0.6
22/06/2019,-,24.0,9.0,0.0
23/06/2019,-,31.0,15.0,0.0
24/06/2019,-,26.0,16.0,0.0
25/06/2019,-,29.0,16.0,0.0
26/06/2019,-,33.0,18.0,0.0
27/06/2019,-,33.0,18.0,0.0
28/06/2019,-,26.0,16.0,0.0
29/06/2019,-,24.0,16.0,0.0
30/06/2019,-,21.0,16.0,0.0
01/07/2019,-,19.0,17.0,3.6
02/07/2019,-,22.0,17.0,0.5
03/07/2019,-,26.0,18.0,0.1
04/07/2019,-,31.0,19.0,0.0
05/07/2019,-,28.0,16.0,0.0
06/07/2019,-,25.0,17.0,0.1
07/07/2019,-,21.0,17.0,11.8
08/07/2019,-,19.0,18.0,32.1
09/07/2019,-,21.0,17.0,6.9
10/07/2019,-,24.0,14.0,0.0
11/07/2019,-,26.0,16.0,0.0
12/07/2019,-,27.0,13.0,0.0
13/07/2019,-,24.0,14.0,0.0
14/07/2019,-,24.0,14.0,0.0
15/07/2019,-,24.0,14.0,0.0
16/07/2019,-,24.0,14.0,0.0
17/07/2019,-,23.0,17.0,0.0
18/07/2019,-,22.0,17.0,0.0
19/07/2019,-,29.0,14.0,0.3
20/07/2019,-,21.0,18.0,1.0
21/07/2019,-,25.0,18.0,0.0
22/07/2019,-,33.0,19.0,0.0
23/07/2019,-,38.0,21.0,0.0
24/07/2019,-,35.0,18.0,0.0
25/07/2019,-,33.0,19.0,14.3
26/07/2019,-,22.0,19.0,7.2
27/07/2019,-,17.0,16.0,30.7
28/07/2019,-,23.0,15.0,1.2
29/07/2019,-,26.0,11.0,0.1
30/07/2019,-,20.0,14.0,0.0
31/07/2019,-,22.0,11.0,22.1
01/08/2019,-,25.0,15.0,17.8
02/08/2019,-,24.0,16.0,0.0
03/08/2019,-,29.0,13.0,0.0
04/08/2019,-,23.0,15.0,0.5
05/08/2019,-,23.0,18.0,1.3
06/08/2019,-,26.0,18.0,18.7
07/08/2019,-,26.0,18.0,0.0
08/08/2019,-,33.0,18.0,0.0
09/08/2019,-,31.0,21.0,3.8
10/08/2019,-,23.0,17.0,8.5
11/08/2019,-,20.0,16.0,12.9
12/08/2019,-,19.0,14.0,8.1
13/08/2019,-,20.0,13.0,0.0
14/08/2019,-,25.0,11.0,3.1
15/08/2019,-,22.0,15.0,0.9
16/08/2019,-,28.0,12.0,0.0
17/08/2019,-,28.0,14.0,0.0
18/08/2019,-,24.0,14.0,5.2
19/08/2019,-,23.0,15.0,0.0
20/08/2019,-,22.0,14.0,0.0
21/08/2019,-,24.0,15.0,0.0
22/08/2019,-,24.0,11.0,0.0
23/08/2019,-,30.0,10.0,0.0
24/08/2019,-,32.0,11.0,0.0
25/08/2019,-,26.0,16.0,0.3
26/08/2019,-,29.0,17.0,3.5
27/08/2019,-,27.0,17.0,0.0
28/08/2019,-,29.0,16.0,0.0
29/08/2019,-,28.0,17.0,0.0
30/08/2019,-,26.0,16.0,0.0
31/08/2019,-,23.0,17.0,0.9
01/09/2019,-,23.0,15.0,0.8
02/09/2019,-,21.0,13.0,0.0
03/09/2019,-,23.0,11.0,0.0
04/09/2019,-,23.0,10.0,4.4
05/09/2019,-,18.0,14.0,0.0
06/09/2019,-,19.0,10.0,0.0
07/09/2019,-,20.0,8.0,2.3
08/09/2019,-,20.0,13.0,0.6
09/09/2019,-,20.0,8.0,20.7
10/09/2019,-,18.0,11.0,8.3
11/09/2019,-,21.0,12.0,0.0
12/09/2019,-,22.0,10.0,0.0
13/09/2019,-,25.0,12.0,0.1
14/09/2019,-,27.0,13.0,0.0
15/09/2019,-,27.0,15.0,0.9
16/09/2019,-,26.0,16.0,0.0
17/09/2019,-,26.0,15.0,0.0
18/09/2019,-,24.0,16.0,0.8
19/09/2019,-,25.0,15.0,0.0
20/09/2019,-,30.0,14.0,0.0
21/09/2019,-,26.0,21.0,22.8
22/09/2019,-,21.0,16.0,2.6
23/09/2019,-,23.0,11.0,0.0
24/09/2019,-,25.0,11.0,0.0
25/09/2019,-,20.0,15.0,0.0
26/09/2019,-,22.0,13.0,0.0
27/09/2019,-,23.0,12.0,0.0
28/09/2019,-,22.0,14.0,0.0
29/09/2019,-,29.0,10.0,0.0
30/09/2019,-,25.0,16.0,0.0
01/10/2019,-,21.0,-,15.4
02/10/2019,-,-,14.0,-
03/10/2019,-,-,-,-
04/10/2019,-,17.0,-,3.1
05/10/2019,-,20.0,13.0,0.3
06/10/2019,-,17.0,14.0,3.1
07/10/2019,-,-,11.0,-
08/10/2019,-,-,-,4.8
09/10/2019,-,16.0,14.0,2.2
10/10/2019,-,19.0,10.0,0.0
11/10/2019,-,27.0,13.0,0.0
12/10/2019,-,26.0,19.0,0.0
13/10/2019,-,-,21.0,-
14/10/2019,-,27.0,-,13.4
15/10/2019,-,-,10.0,-
16/10/2019,-,20.0,-,1.4
17/10/2019,-,-,14.0,-
18/10/2019,-,17.0,-,2.1
19/10/2019,-,21.0,13.0,13.4
20/10/2019,-,-,13.0,-
21/10/2019,-,16.0,-,1.5
22/10/2019,-,-,9.0,-
23/10/2019,-,-,-,-
24/10/2019,-,-,-,-
25/10/2019,-,22.0,-,0.0
26/10/2019,-,23.0,8.0,0.0
27/10/2019,-,-,-,-
28/10/2019,-,21.0,-,0.0
29/10/2019,-,22.0,12.0,0.0
30/10/2019,-,-,10.0,-
31/10/2019,-,21.0,-,14.8
01/11/2019,-,20.0,13.0,24.6
02/11/2019,-,15.0,14.0,19.7
03/11/2019,-,-,12.0,-
04/11/2019,-,16.0,-,15.7
05/11/2019,-,12.0,9.0,36.9
06/11/2019,-,-,10.0,-
07/11/2019,-,11.0,-,9.9
08/11/2019,-,11.0,5.0,41.3
09/11/2019,-,11.0,8.0,46.6
10/11/2019,-,8.0,5.0,14.1
11/11/2019,-,-,5.0,-
12/11/2019,-,12.0,-,10.9
13/11/2019,-,12.0,8.0,20.6
14/11/2019,-,11.0,5.0,9.6
15/11/2019,-,9.0,6.0,14.3
16/11/2019,-,-,3.0,-
17/11/2019,-,-,-,-
18/11/2019,-,9.0,-,0.3
19/11/2019,-,10.0,2.0,0.0
20/11/2019,-,12.0,4.0,0.1
21/11/2019,-,13.0,10.0,0.0
22/11/2019,-,14.0,-,10.9
23/11/2019,-,12.0,9.0,57.4
24/11/2019,-,12.0,8.0,6.3
25/11/2019,-,-,8.0,0.3
26/11/2019,-,-,10.0,-
27/11/2019,-,16.0,-,0.9
28/11/2019,-,14.0,10.0,8.0
29/11/2019,-,15.0,10.0,0.4
30/11/2019,-,16.0,7.0,27.2
01/12/2019,-,-,5.0,-
02/12/2019,-,-,-,-
03/12/2019,-,-,-,-
04/12/2019,-,-,-,-
05/12/2019,-,-,-,-
06/12/2019,-,-,-,-
07/12/2019,-,-,-,-
08/12/2019,-,-,-,-
09/12/2019,-,-,-,-
10/12/2019,-,-,-,-
11/12/2019,-,-,-,-
12/12/2019,-,-,-,-
13/12/2019,-,-,-,-
14/12/2019,-,-,-,-
15/12/2019,-,-,-,-
16/12/2019,-,-,-,-
17/12/2019,-,-,-,-
18/12/2019,-,-,-,-
19/12/2019,-,-,-,-
20/12/2019,-,-,-,-
21/12/2019,-,-,-,-
22/12/2019,-,-,-,-
23/12/2019,-,-,-,-
24/12/2019,-,-,-,-
25/12/2019,-,-,-,-
26/12/2019,-,-,-,-
27/12/2019,-,-,-,-
