Fecha, Temperatura media, Temperatura maxima, Temperatura minima, Precipitacion acumulada
01/01/2009,-,14.0,10.0,0.0
02/01/2009,-,14.0,6.0,0.0
03/01/2009,-,8.0,4.0,0.0
04/01/2009,-,8.0,3.0,0.0
05/01/2009,-,5.0,4.0,7.2
06/01/2009,-,3.0,1.0,0.0
07/01/2009,-,-1.0,-2.0,0.4
08/01/2009,-,0.0,-2.0,1.8
09/01/2009,-,6.0,-4.0,0.0
10/01/2009,-,5.0,-3.0,0.0
11/01/2009,-,11.0,-2.0,0.0
12/01/2009,-,10.0,-2.0,0.0
13/01/2009,-,8.0,3.0,30.8
14/01/2009,-,10.0,5.0,0.0
15/01/2009,-,11.0,4.0,0.0
16/01/2009,-,13.0,2.0,0.0
17/01/2009,-,13.0,6.0,0.0
18/01/2009,-,14.0,5.0,0.7
19/01/2009,-,13.0,11.0,27.4
20/01/2009,-,11.0,0.0,12.0
21/01/2009,-,8.0,4.0,15.4
22/01/2009,-,14.0,4.0,11.7
23/01/2009,-,13.0,8.0,34.7
24/01/2009,-,10.0,7.0,20.6
25/01/2009,-,9.0,6.0,16.3
26/01/2009,-,8.0,5.0,45.1
27/01/2009,-,7.0,6.0,34.3
28/01/2009,-,11.0,6.0,5.8
29/01/2009,-,14.0,6.0,0.2
30/01/2009,-,17.0,8.0,0.0
31/01/2009,-,13.0,8.0,0.4
01/02/2009,-,12.0,5.0,0.1
02/02/2009,-,10.0,6.0,7.9
03/02/2009,-,10.0,2.0,0.0
04/02/2009,-,13.0,4.0,0.7
05/02/2009,-,12.0,9.0,0.7
06/02/2009,-,7.0,4.0,42.1
07/02/2009,-,6.0,2.0,31.9
08/02/2009,-,11.0,3.0,11.6
09/02/2009,-,15.0,4.0,1.8
10/02/2009,-,9.0,8.0,46.7
11/02/2009,-,11.0,7.0,113.2
12/02/2009,-,9.0,6.0,0.1
13/02/2009,-,9.0,0.0,0.0
14/02/2009,-,8.0,1.0,0.0
15/02/2009,-,8.0,-2.0,0.0
16/02/2009,-,9.0,-2.0,0.0
17/02/2009,-,10.0,-3.0,0.0
18/02/2009,-,10.0,3.0,0.0
19/02/2009,-,13.0,6.0,0.0
20/02/2009,-,12.0,3.0,0.0
21/02/2009,-,11.0,0.0,0.0
22/02/2009,-,10.0,4.0,0.2
23/02/2009,-,9.0,5.0,0.0
24/02/2009,-,9.0,6.0,0.0
25/02/2009,-,14.0,0.0,0.0
26/02/2009,-,17.0,3.0,0.0
27/02/2009,-,17.0,2.0,0.0
28/02/2009,-,19.0,2.0,0.0
01/03/2009,-,12.0,7.0,9.8
02/03/2009,-,10.0,8.0,5.8
03/03/2009,-,10.0,2.0,1.4
04/03/2009,-,7.0,4.0,31.4
05/03/2009,-,8.0,3.0,12.4
06/03/2009,-,11.0,6.0,9.9
07/03/2009,-,11.0,9.0,6.7
08/03/2009,-,12.0,8.0,5.3
09/03/2009,-,11.0,7.0,0.7
10/03/2009,-,15.0,1.0,0.0
11/03/2009,-,13.0,2.0,0.0
12/03/2009,-,19.0,5.0,0.0
13/03/2009,-,24.0,8.0,0.0
14/03/2009,-,17.0,4.0,1.2
15/03/2009,-,14.0,8.0,0.4
16/03/2009,-,18.0,3.0,0.0
17/03/2009,-,21.0,7.0,0.0
18/03/2009,-,23.0,5.0,0.0
19/03/2009,-,22.0,5.0,0.0
20/03/2009,-,18.0,4.0,0.0
21/03/2009,-,17.0,0.0,0.0
22/03/2009,-,13.0,0.0,0.0
23/03/2009,-,13.0,0.0,0.0
24/03/2009,-,10.0,3.0,1.9
25/03/2009,-,13.0,2.0,0.0
26/03/2009,-,16.0,5.0,0.0
27/03/2009,-,15.0,4.0,2.1
28/03/2009,-,9.0,6.0,5.1
29/03/2009,-,9.0,4.0,0.0
30/03/2009,-,10.0,3.0,0.0
31/03/2009,-,11.0,6.0,0.0
01/04/2009,-,12.0,7.0,0.0
02/04/2009,-,12.0,5.0,0.0
03/04/2009,-,13.0,6.0,0.0
04/04/2009,-,16.0,5.0,0.2
05/04/2009,-,14.0,7.0,0.0
06/04/2009,-,21.0,7.0,20.2
07/04/2009,-,11.0,7.0,0.3
08/04/2009,-,13.0,4.0,0.0
09/04/2009,-,21.0,6.0,0.0
10/04/2009,-,16.0,12.0,72.1
11/04/2009,-,13.0,5.0,14.8
12/04/2009,-,11.0,5.0,2.6
13/04/2009,-,16.0,6.0,0.0
14/04/2009,-,15.0,7.0,20.4
15/04/2009,-,15.0,9.0,2.1
16/04/2009,-,16.0,6.0,3.7
17/04/2009,-,16.0,7.0,0.0
18/04/2009,-,16.0,2.0,0.0
19/04/2009,-,13.0,7.0,20.6
20/04/2009,-,12.0,9.0,0.6
21/04/2009,-,13.0,8.0,0.0
22/04/2009,-,14.0,9.0,0.0
23/04/2009,-,22.0,6.0,0.0
24/04/2009,-,21.0,6.0,5.4
25/04/2009,-,10.0,8.0,18.4
26/04/2009,-,11.0,7.0,26.7
27/04/2009,-,14.0,8.0,8.9
28/04/2009,-,12.0,9.0,2.4
29/04/2009,-,14.0,10.0,11.4
30/04/2009,-,15.0,7.0,16.5
01/05/2009,-,13.0,8.0,2.9
02/05/2009,-,15.0,8.0,0.0
03/05/2009,-,17.0,8.0,1.1
04/05/2009,-,13.0,11.0,1.9
05/05/2009,-,15.0,8.0,0.0
06/05/2009,-,24.0,7.0,0.0
07/05/2009,-,15.0,10.0,0.6
08/05/2009,-,13.0,11.0,2.0
09/05/2009,-,25.0,11.0,6.7
10/05/2009,-,23.0,14.0,0.3
11/05/2009,-,26.0,15.0,14.1
12/05/2009,-,23.0,11.0,0.0
13/05/2009,-,18.0,12.0,17.6
14/05/2009,-,13.0,12.0,19.9
15/05/2009,-,14.0,10.0,0.3
16/05/2009,-,25.0,7.0,0.0
17/05/2009,-,17.0,10.0,0.0
18/05/2009,-,16.0,11.0,0.0
19/05/2009,-,17.0,10.0,0.0
20/05/2009,-,24.0,9.0,0.4
21/05/2009,-,17.0,12.0,0.0
22/05/2009,-,21.0,13.0,0.1
23/05/2009,-,24.0,14.0,11.8
24/05/2009,-,16.0,14.0,2.4
25/05/2009,-,18.0,14.0,14.0
26/05/2009,-,16.0,11.0,4.6
27/05/2009,-,16.0,9.0,0.0
28/05/2009,-,21.0,7.0,0.0
29/05/2009,-,27.0,11.0,0.0
30/05/2009,-,26.0,13.0,0.0
31/05/2009,-,24.0,12.0,0.0
01/06/2009,-,23.0,11.0,0.0
02/06/2009,-,23.0,10.0,0.0
03/06/2009,-,26.0,11.0,0.0
04/06/2009,-,20.0,13.0,8.7
05/06/2009,-,16.0,16.0,3.9
06/06/2009,-,20.0,11.0,7.6
07/06/2009,-,22.0,12.0,3.2
08/06/2009,-,22.0,13.0,2.6
09/06/2009,-,21.0,10.0,0.0
10/06/2009,-,27.0,11.0,0.0
11/06/2009,-,21.0,16.0,0.0
12/06/2009,-,26.0,15.0,0.0
13/06/2009,-,27.0,15.0,0.0
14/06/2009,-,26.0,16.0,7.4
15/06/2009,-,19.0,17.0,2.4
16/06/2009,-,19.0,16.0,2.8
17/06/2009,-,29.0,16.0,7.4
18/06/2009,-,21.0,17.0,1.7
19/06/2009,-,16.0,16.0,1.0
20/06/2009,-,20.0,10.0,0.0
21/06/2009,-,20.0,11.0,0.0
22/06/2009,-,24.0,11.0,0.0
23/06/2009,-,28.0,10.0,0.0
24/06/2009,-,24.0,9.0,0.3
25/06/2009,-,24.0,15.0,0.2
26/06/2009,-,23.0,13.0,0.0
27/06/2009,-,27.0,14.0,0.0
28/06/2009,-,31.0,17.0,0.0
29/06/2009,-,31.0,17.0,0.6
30/06/2009,-,30.0,17.0,0.0
01/07/2009,-,29.0,17.0,0.0
02/07/2009,-,22.0,18.0,0.0
03/07/2009,-,24.0,18.0,4.1
04/07/2009,-,24.0,18.0,4.7
05/07/2009,-,22.0,18.0,0.0
06/07/2009,-,19.0,17.0,2.1
07/07/2009,-,18.0,14.0,1.2
08/07/2009,-,19.0,13.0,0.0
09/07/2009,-,19.0,14.0,0.0
10/07/2009,-,22.0,12.0,0.0
11/07/2009,-,29.0,12.0,0.0
12/07/2009,-,27.0,14.0,0.0
13/07/2009,-,25.0,16.0,1.7
14/07/2009,-,23.0,16.0,0.0
15/07/2009,-,27.0,16.0,0.0
16/07/2009,-,32.0,15.0,6.9
17/07/2009,-,17.0,16.0,14.7
18/07/2009,-,22.0,13.0,0.0
19/07/2009,-,24.0,14.0,0.0
20/07/2009,-,31.0,13.0,0.0
21/07/2009,-,38.0,21.0,0.0
22/07/2009,-,34.0,19.0,0.3
23/07/2009,-,26.0,17.0,0.0
24/07/2009,-,26.0,14.0,0.0
25/07/2009,-,26.0,13.0,0.0
26/07/2009,-,28.0,13.0,0.0
27/07/2009,-,22.0,16.0,5.7
28/07/2009,-,27.0,17.0,0.0
29/07/2009,-,21.0,16.0,1.7
30/07/2009,-,22.0,17.0,0.0
31/07/2009,-,26.0,12.0,0.0
01/08/2009,-,28.0,14.0,15.3
02/08/2009,-,20.0,15.0,0.0
03/08/2009,-,23.0,14.0,0.0
04/08/2009,-,29.0,13.0,0.0
05/08/2009,-,27.0,16.0,4.6
06/08/2009,-,23.0,17.0,3.9
07/08/2009,-,19.0,16.0,0.6
08/08/2009,-,18.0,16.0,16.8
09/08/2009,-,19.0,15.0,3.8
10/08/2009,-,19.0,16.0,0.0
11/08/2009,-,21.0,17.0,0.0
12/08/2009,-,24.0,16.0,0.0
13/08/2009,-,24.0,17.0,0.0
14/08/2009,-,27.0,16.0,0.0
15/08/2009,-,36.0,17.0,0.0
16/08/2009,-,30.0,17.0,0.0
17/08/2009,-,26.0,18.0,3.6
18/08/2009,-,30.0,16.0,0.0
19/08/2009,-,31.0,17.0,0.0
20/08/2009,-,24.0,18.0,0.0
21/08/2009,-,22.0,17.0,6.3
22/08/2009,-,25.0,13.0,0.0
23/08/2009,-,35.0,13.0,0.0
24/08/2009,-,22.0,20.0,0.0
25/08/2009,-,22.0,17.0,2.0
26/08/2009,-,27.0,14.0,0.0
27/08/2009,-,28.0,14.0,0.0
28/08/2009,-,19.0,15.0,2.0
29/08/2009,-,21.0,14.0,0.0
30/08/2009,-,23.0,9.0,0.0
31/08/2009,-,35.0,10.0,0.0
01/09/2009,-,19.0,18.0,3.9
02/09/2009,-,23.0,16.0,0.0
03/09/2009,-,20.0,17.0,1.8
04/09/2009,-,20.0,14.0,2.4
05/09/2009,-,19.0,10.0,0.0
06/09/2009,-,27.0,8.0,0.0
07/09/2009,-,26.0,13.0,0.0
08/09/2009,-,33.0,14.0,0.0
09/09/2009,-,25.0,16.0,0.0
10/09/2009,-,26.0,16.0,0.0
11/09/2009,-,24.0,15.0,0.0
12/09/2009,-,23.0,13.0,0.0
13/09/2009,-,21.0,13.0,0.0
14/09/2009,-,21.0,14.0,0.0
15/09/2009,-,19.0,10.0,10.7
16/09/2009,-,17.0,12.0,0.0
17/09/2009,-,21.0,9.0,30.7
18/09/2009,-,15.0,11.0,49.8
19/09/2009,-,17.0,13.0,3.7
20/09/2009,-,17.0,13.0,43.7
21/09/2009,-,18.0,13.0,3.8
22/09/2009,-,19.0,14.0,0.0
23/09/2009,-,24.0,14.0,0.0
24/09/2009,-,22.0,15.0,0.0
25/09/2009,-,22.0,14.0,0.0
26/09/2009,-,21.0,15.0,0.0
27/09/2009,-,21.0,14.0,0.0
28/09/2009,-,22.0,11.0,0.0
29/09/2009,-,24.0,14.0,0.0
30/09/2009,-,25.0,13.0,0.0
01/10/2009,-,21.0,16.0,0.0
02/10/2009,-,19.0,14.0,0.0
03/10/2009,-,20.0,9.0,0.0
04/10/2009,-,26.0,8.0,0.0
05/10/2009,-,25.0,18.0,0.0
06/10/2009,-,29.0,17.0,0.0
07/10/2009,-,27.0,18.0,0.3
08/10/2009,-,19.0,18.0,1.9
09/10/2009,-,21.0,14.0,0.0
10/10/2009,-,20.0,14.0,3.6
11/10/2009,-,18.0,16.0,10.9
12/10/2009,-,18.0,16.0,7.4
13/10/2009,-,18.0,6.0,0.0
14/10/2009,-,14.0,4.0,0.0
15/10/2009,-,15.0,5.0,0.0
16/10/2009,-,13.0,-2.0,0.0
17/10/2009,-,18.0,0.0,0.0
18/10/2009,-,19.0,1.0,0.0
19/10/2009,-,17.0,1.0,0.0
20/10/2009,-,21.0,7.0,19.4
21/10/2009,-,17.0,10.0,3.6
22/10/2009,-,17.0,10.0,39.7
23/10/2009,-,16.0,10.0,17.4
24/10/2009,-,24.0,9.0,3.6
25/10/2009,-,22.0,12.0,0.4
26/10/2009,-,19.0,11.0,0.0
27/10/2009,-,26.0,9.0,0.0
28/10/2009,-,24.0,10.0,0.0
29/10/2009,-,22.0,11.0,0.0
30/10/2009,-,26.0,11.0,0.0
31/10/2009,-,25.0,9.0,0.0
01/11/2009,-,24.0,15.0,33.6
02/11/2009,-,16.0,11.0,4.0
03/11/2009,-,16.0,11.0,6.7
04/11/2009,-,13.0,11.0,27.4
05/11/2009,-,12.0,8.0,27.9
06/11/2009,-,13.0,7.0,18.6
07/11/2009,-,12.0,10.0,54.7
08/11/2009,-,11.0,9.0,61.7
09/11/2009,-,9.0,7.0,0.4
10/11/2009,-,14.0,3.0,71.1
11/11/2009,-,17.0,9.0,0.9
12/11/2009,-,18.0,12.0,0.0
13/11/2009,-,21.0,10.0,0.1
14/11/2009,-,20.0,13.0,0.0
15/11/2009,-,21.0,12.0,0.0
16/11/2009,-,21.0,16.0,0.0
17/11/2009,-,20.0,15.0,0.3
18/11/2009,-,17.0,6.0,0.0
19/11/2009,-,22.0,10.0,0.0
20/11/2009,-,20.0,10.0,0.0
21/11/2009,-,21.0,16.0,2.6
22/11/2009,-,18.0,10.0,0.0
23/11/2009,-,17.0,9.0,0.0
24/11/2009,-,17.0,3.0,0.0
25/11/2009,-,16.0,7.0,3.2
26/11/2009,-,14.0,8.0,0.0
27/11/2009,-,13.0,3.0,0.0
28/11/2009,-,14.0,5.0,2.7
29/11/2009,-,12.0,10.0,5.8
30/11/2009,-,9.0,6.0,46.7
01/12/2009,-,12.0,6.0,7.8
02/12/2009,-,14.0,7.0,6.7
03/12/2009,-,12.0,6.0,5.0
04/12/2009,-,13.0,9.0,10.0
05/12/2009,-,14.0,6.0,0.0
06/12/2009,-,16.0,7.0,0.0
07/12/2009,-,16.0,12.0,0.0
08/12/2009,-,16.0,8.0,0.0
09/12/2009,-,16.0,4.0,0.0
10/12/2009,-,14.0,3.0,0.0
11/12/2009,-,13.0,4.0,0.0
12/12/2009,-,10.0,5.0,0.0
13/12/2009,-,6.0,2.0,0.0
14/12/2009,-,3.0,2.0,0.0
15/12/2009,-,2.0,0.0,0.0
16/12/2009,-,2.0,-2.0,0.2
17/12/2009,-,2.0,0.0,0.0
18/12/2009,-,3.0,-3.0,7.2
19/12/2009,-,2.0,-2.0,0.4
20/12/2009,-,9.0,3.0,0.0
21/12/2009,-,14.0,-2.0,0.0
22/12/2009,-,14.0,9.0,0.0
23/12/2009,-,15.0,6.0,17.2
24/12/2009,-,17.0,5.0,7.8
25/12/2009,-,14.0,5.0,5.2
26/12/2009,-,9.0,4.0,9.8
27/12/2009,-,12.0,2.0,2.8
