Fecha, Temperatura media, Temperatura maxima, Temperatura minima, Precipitacion acumulada
01/01/2013,-,11.0,4.0,26.7
02/01/2013,-,10.0,7.0,0.0
03/01/2013,-,11.0,3.0,0.0
04/01/2013,-,13.0,0.0,0.0
05/01/2013,-,7.0,2.0,0.4
06/01/2013,-,8.0,5.0,0.0
07/01/2013,-,6.0,5.0,0.0
08/01/2013,-,11.0,3.0,0.0
09/01/2013,-,9.0,1.0,1.2
10/01/2013,-,11.0,4.0,5.4
11/01/2013,-,12.0,5.0,0.0
12/01/2013,-,10.0,4.0,16.9
13/01/2013,-,8.0,5.0,26.0
14/01/2013,-,9.0,4.0,84.4
15/01/2013,-,9.0,3.0,59.7
16/01/2013,-,11.0,7.0,49.6
17/01/2013,-,12.0,3.0,18.2
18/01/2013,-,14.0,5.0,17.3
19/01/2013,-,13.0,8.0,44.1
20/01/2013,-,10.0,5.0,14.8
21/01/2013,-,8.0,5.0,7.6
22/01/2013,-,9.0,0.0,13.0
23/01/2013,-,9.0,4.0,66.7
24/01/2013,-,8.0,6.0,13.2
25/01/2013,-,11.0,-1.0,15.9
26/01/2013,-,13.0,1.0,9.8
27/01/2013,-,13.0,6.0,23.1
28/01/2013,-,13.0,7.0,0.1
29/01/2013,-,16.0,4.0,0.0
30/01/2013,-,19.0,5.0,0.2
31/01/2013,-,18.0,9.0,0.0
01/02/2013,-,15.0,7.0,33.6
02/02/2013,-,14.0,6.0,12.4
03/02/2013,-,10.0,1.0,1.8
04/02/2013,-,11.0,6.0,22.4
05/02/2013,-,11.0,7.0,29.8
06/02/2013,-,12.0,5.0,33.9
07/02/2013,-,7.0,3.0,28.6
08/02/2013,-,7.0,4.0,28.7
09/02/2013,-,8.0,1.0,9.9
10/02/2013,-,11.0,3.0,16.4
11/02/2013,-,8.0,5.0,16.8
12/02/2013,-,8.0,4.0,32.7
13/02/2013,-,11.0,5.0,26.8
14/02/2013,-,13.0,6.0,2.4
15/02/2013,-,12.0,9.0,0.2
16/02/2013,-,13.0,0.0,0.0
17/02/2013,-,14.0,0.0,0.2
18/02/2013,-,14.0,4.0,0.0
19/02/2013,-,15.0,3.0,0.0
20/02/2013,-,16.0,2.0,0.0
21/02/2013,-,14.0,3.0,0.0
22/02/2013,-,9.0,-3.0,0.0
23/02/2013,-,3.0,-3.0,1.9
24/02/2013,-,6.0,-2.0,4.8
25/02/2013,-,4.0,0.0,5.4
26/02/2013,-,5.0,0.0,0.0
27/02/2013,-,9.0,-2.0,0.0
28/02/2013,-,8.0,1.0,0.1
01/03/2013,-,10.0,3.0,0.0
02/03/2013,-,8.0,0.0,0.0
03/03/2013,-,17.0,0.0,0.0
04/03/2013,-,17.0,1.0,0.0
05/03/2013,-,19.0,13.0,0.0
06/03/2013,-,21.0,9.0,0.0
07/03/2013,-,21.0,11.0,9.4
08/03/2013,-,18.0,8.0,0.0
09/03/2013,-,17.0,7.0,0.0
10/03/2013,-,17.0,8.0,0.0
11/03/2013,-,17.0,6.0,20.9
12/03/2013,-,9.0,7.0,23.2
13/03/2013,-,4.0,1.0,17.6
14/03/2013,-,5.0,1.0,3.6
15/03/2013,-,10.0,0.0,0.0
16/03/2013,-,12.0,0.0,1.0
17/03/2013,-,11.0,9.0,9.6
18/03/2013,-,10.0,2.0,8.1
19/03/2013,-,15.0,3.0,8.9
20/03/2013,-,12.0,4.0,0.0
21/03/2013,-,19.0,4.0,0.0
22/03/2013,-,20.0,13.0,2.3
23/03/2013,-,18.0,6.0,0.0
24/03/2013,-,17.0,5.0,3.3
25/03/2013,-,14.0,7.0,11.3
26/03/2013,-,13.0,9.0,2.3
27/03/2013,-,14.0,9.0,15.9
28/03/2013,-,15.0,8.0,4.6
29/03/2013,-,18.0,9.0,27.6
30/03/2013,-,13.0,12.0,0.2
31/03/2013,-,17.0,5.0,16.1
01/04/2013,-,14.0,9.0,9.6
02/04/2013,-,13.0,10.0,2.1
03/04/2013,-,16.0,4.0,7.9
04/04/2013,-,12.0,6.0,5.7
05/04/2013,-,7.0,4.0,37.0
06/04/2013,-,8.0,1.0,0.8
07/04/2013,-,13.0,3.0,9.4
08/04/2013,-,14.0,5.0,0.6
09/04/2013,-,13.0,10.0,0.0
10/04/2013,-,21.0,7.0,0.0
11/04/2013,-,19.0,7.0,3.3
12/04/2013,-,15.0,6.0,0.6
13/04/2013,-,24.0,9.0,0.0
14/04/2013,-,28.0,9.0,0.0
15/04/2013,-,24.0,11.0,0.0
16/04/2013,-,21.0,9.0,0.0
17/04/2013,-,30.0,10.0,0.0
18/04/2013,-,13.0,11.0,10.9
19/04/2013,-,12.0,8.0,1.3
20/04/2013,-,13.0,5.0,0.0
21/04/2013,-,14.0,4.0,0.0
22/04/2013,-,13.0,5.0,0.0
23/04/2013,-,17.0,8.0,0.0
24/04/2013,-,24.0,6.0,0.0
25/04/2013,-,23.0,7.0,0.2
26/04/2013,-,14.0,13.0,16.8
27/04/2013,-,10.0,6.0,12.1
28/04/2013,-,11.0,2.0,1.8
29/04/2013,-,13.0,4.0,14.9
30/04/2013,-,16.0,8.0,9.1
01/05/2013,-,17.0,8.0,1.7
02/05/2013,-,12.0,9.0,18.7
03/05/2013,-,12.0,9.0,4.4
04/05/2013,-,16.0,10.0,0.0
05/05/2013,-,19.0,7.0,0.0
06/05/2013,-,25.0,7.0,0.5
07/05/2013,-,22.0,11.0,0.4
08/05/2013,-,20.0,13.0,2.8
09/05/2013,-,14.0,11.0,18.3
10/05/2013,-,15.0,10.0,0.0
11/05/2013,-,14.0,7.0,0.4
12/05/2013,-,13.0,7.0,0.0
13/05/2013,-,20.0,6.0,0.0
14/05/2013,-,19.0,8.0,9.4
15/05/2013,-,12.0,9.0,9.1
16/05/2013,-,12.0,7.0,1.3
17/05/2013,-,14.0,6.0,39.8
18/05/2013,-,11.0,7.0,57.3
19/05/2013,-,13.0,7.0,2.7
20/05/2013,-,14.0,6.0,0.1
21/05/2013,-,12.0,5.0,5.6
22/05/2013,-,13.0,8.0,14.9
23/05/2013,-,12.0,11.0,4.3
24/05/2013,-,12.0,8.0,3.9
25/05/2013,-,13.0,9.0,2.3
26/05/2013,-,21.0,3.0,0.0
27/05/2013,-,16.0,8.0,24.2
28/05/2013,-,12.0,9.0,13.7
29/05/2013,-,11.0,7.0,21.2
30/05/2013,-,11.0,8.0,27.8
31/05/2013,-,11.0,9.0,26.7
01/06/2013,-,12.0,10.0,3.8
02/06/2013,-,13.0,11.0,1.1
03/06/2013,-,18.0,11.0,0.0
04/06/2013,-,19.0,7.0,0.0
05/06/2013,-,25.0,8.0,0.0
06/06/2013,-,27.0,12.0,11.4
07/06/2013,-,20.0,14.0,15.4
08/06/2013,-,14.0,11.0,91.4
09/06/2013,-,16.0,10.0,6.6
10/06/2013,-,19.0,13.0,0.4
11/06/2013,-,24.0,13.0,0.0
12/06/2013,-,28.0,14.0,0.0
13/06/2013,-,18.0,14.0,4.3
14/06/2013,-,26.0,13.0,0.0
15/06/2013,-,21.0,11.0,0.0
16/06/2013,-,33.0,13.0,0.0
17/06/2013,-,17.0,16.0,4.8
18/06/2013,-,15.0,13.0,42.6
19/06/2013,-,18.0,12.0,6.6
20/06/2013,-,14.0,10.0,5.9
21/06/2013,-,18.0,12.0,8.2
22/06/2013,-,22.0,11.0,2.6
23/06/2013,-,16.0,12.0,0.5
24/06/2013,-,16.0,13.0,0.0
25/06/2013,-,17.0,11.0,0.0
26/06/2013,-,21.0,13.0,0.0
27/06/2013,-,20.0,10.0,0.0
28/06/2013,-,19.0,11.0,0.0
29/06/2013,-,17.0,10.0,0.1
30/06/2013,-,19.0,12.0,0.0
01/07/2013,-,22.0,14.0,0.0
02/07/2013,-,24.0,14.0,0.0
03/07/2013,-,21.0,17.0,2.2
04/07/2013,-,20.0,16.0,0.0
05/07/2013,-,25.0,14.0,0.0
06/07/2013,-,27.0,15.0,0.0
07/07/2013,-,26.0,14.0,0.0
08/07/2013,-,28.0,15.0,0.0
09/07/2013,-,30.0,16.0,0.0
10/07/2013,-,28.0,17.0,0.0
11/07/2013,-,27.0,18.0,0.0
12/07/2013,-,31.0,18.0,21.3
13/07/2013,-,26.0,17.0,0.0
14/07/2013,-,25.0,17.0,0.0
15/07/2013,-,26.0,16.0,0.0
16/07/2013,-,25.0,17.0,0.5
17/07/2013,-,25.0,16.0,0.0
18/07/2013,-,24.0,16.0,0.0
19/07/2013,-,29.0,15.0,0.0
20/07/2013,-,32.0,18.0,0.0
21/07/2013,-,31.0,18.0,0.0
22/07/2013,-,30.0,19.0,2.9
23/07/2013,-,25.0,19.0,1.9
24/07/2013,-,27.0,19.0,0.0
25/07/2013,-,27.0,20.0,0.0
26/07/2013,-,29.0,20.0,2.0
27/07/2013,-,25.0,20.0,0.1
28/07/2013,-,27.0,18.0,0.4
29/07/2013,-,25.0,15.0,0.0
30/07/2013,-,28.0,14.0,0.0
31/07/2013,-,38.0,16.0,0.0
01/08/2013,-,38.0,21.0,0.0
02/08/2013,-,29.0,20.0,2.5
03/08/2013,-,24.0,17.0,0.0
04/08/2013,-,26.0,17.0,0.0
05/08/2013,-,24.0,17.0,3.9
06/08/2013,-,19.0,17.0,3.7
07/08/2013,-,19.0,17.0,13.9
08/08/2013,-,20.0,14.0,7.6
09/08/2013,-,22.0,14.0,0.0
10/08/2013,-,23.0,15.0,0.0
11/08/2013,-,26.0,14.0,0.0
12/08/2013,-,25.0,15.0,0.0
13/08/2013,-,22.0,17.0,0.0
14/08/2013,-,23.0,14.0,0.0
15/08/2013,-,26.0,12.0,0.0
16/08/2013,-,24.0,13.0,0.0
17/08/2013,-,24.0,14.0,0.0
18/08/2013,-,26.0,15.0,0.0
19/08/2013,-,21.0,16.0,2.0
20/08/2013,-,28.0,15.0,0.0
21/08/2013,-,30.0,14.0,0.0
22/08/2013,-,25.0,16.0,0.0
23/08/2013,-,24.0,16.0,0.3
24/08/2013,-,21.0,15.0,1.4
25/08/2013,-,22.0,14.0,3.1
26/08/2013,-,21.0,14.0,4.0
27/08/2013,-,22.0,14.0,3.5
28/08/2013,-,23.0,14.0,0.0
29/08/2013,-,22.0,13.0,0.0
30/08/2013,-,22.0,13.0,0.0
31/08/2013,-,21.0,13.0,0.0
01/09/2013,-,22.0,14.0,0.0
02/09/2013,-,23.0,15.0,0.0
03/09/2013,-,29.0,10.0,0.0
04/09/2013,-,32.0,13.0,0.0
05/09/2013,-,29.0,14.0,0.8
06/09/2013,-,22.0,17.0,1.9
07/09/2013,-,17.0,14.0,4.3
08/09/2013,-,17.0,13.0,0.6
09/09/2013,-,22.0,10.0,0.3
10/09/2013,-,17.0,11.0,11.1
11/09/2013,-,18.0,12.0,0.6
12/09/2013,-,18.0,12.0,0.0
13/09/2013,-,22.0,14.0,0.4
14/09/2013,-,23.0,13.0,7.0
15/09/2013,-,19.0,12.0,0.0
16/09/2013,-,19.0,9.0,9.8
17/09/2013,-,17.0,12.0,8.9
18/09/2013,-,19.0,13.0,8.6
19/09/2013,-,18.0,14.0,3.7
20/09/2013,-,21.0,14.0,1.6
21/09/2013,-,21.0,12.0,0.0
22/09/2013,-,27.0,11.0,0.0
23/09/2013,-,29.0,12.0,0.0
24/09/2013,-,28.0,14.0,0.0
25/09/2013,-,29.0,17.0,0.0
26/09/2013,-,31.0,14.0,0.0
27/09/2013,-,29.0,17.0,0.0
28/09/2013,-,26.0,15.0,0.0
29/09/2013,-,24.0,14.0,0.0
30/09/2013,-,25.0,15.0,0.0
01/10/2013,-,26.0,17.0,0.0
02/10/2013,-,29.0,20.0,0.0
03/10/2013,-,27.0,22.0,118.7
04/10/2013,-,24.0,16.0,11.3
05/10/2013,-,20.0,12.0,5.4
06/10/2013,-,19.0,13.0,0.0
07/10/2013,-,18.0,10.0,0.0
08/10/2013,-,19.0,11.0,0.0
09/10/2013,-,17.0,13.0,0.0
10/10/2013,-,14.0,9.0,6.9
11/10/2013,-,13.0,5.0,0.0
12/10/2013,-,19.0,4.0,0.0
13/10/2013,-,21.0,6.0,0.0
14/10/2013,-,21.0,10.0,1.6
15/10/2013,-,20.0,11.0,2.1
16/10/2013,-,25.0,16.0,5.0
17/10/2013,-,24.0,14.0,0.0
18/10/2013,-,28.0,16.0,0.0
19/10/2013,-,24.0,19.0,0.0
20/10/2013,-,24.0,19.0,0.0
21/10/2013,-,23.0,13.0,0.0
22/10/2013,-,22.0,18.0,1.7
23/10/2013,-,23.0,17.0,0.0
24/10/2013,-,24.0,12.0,0.0
25/10/2013,-,24.0,18.0,0.1
26/10/2013,-,22.0,17.0,0.0
27/10/2013,-,21.0,14.0,0.0
28/10/2013,-,21.0,13.0,4.7
29/10/2013,-,14.0,9.0,28.7
30/10/2013,-,14.0,8.0,0.0
31/10/2013,-,15.0,4.0,0.0
01/11/2013,-,19.0,2.0,0.0
02/11/2013,-,21.0,7.0,18.6
03/11/2013,-,18.0,12.0,9.8
04/11/2013,-,18.0,10.0,98.3
05/11/2013,-,17.0,14.0,36.8
06/11/2013,-,21.0,14.0,1.0
07/11/2013,-,20.0,14.0,0.0
08/11/2013,-,16.0,10.0,14.2
09/11/2013,-,16.0,7.0,20.9
10/11/2013,-,15.0,10.0,30.7
11/11/2013,-,14.0,12.0,15.6
12/11/2013,-,14.0,12.0,32.6
13/11/2013,-,14.0,13.0,4.8
14/11/2013,-,13.0,9.0,18.8
15/11/2013,-,9.0,5.0,4.8
16/11/2013,-,9.0,4.0,0.9
17/11/2013,-,8.0,8.0,5.6
18/11/2013,-,10.0,7.0,45.8
19/11/2013,-,8.0,7.0,25.7
20/11/2013,-,9.0,3.0,32.9
21/11/2013,-,9.0,5.0,15.2
22/11/2013,-,7.0,3.0,5.9
23/11/2013,-,6.0,3.0,0.0
24/11/2013,-,7.0,5.0,0.0
25/11/2013,-,7.0,4.0,0.0
26/11/2013,-,5.0,1.0,0.0
27/11/2013,-,5.0,-3.0,0.0
28/11/2013,-,7.0,-4.0,0.0
29/11/2013,-,7.0,-1.0,4.4
30/11/2013,-,9.0,0.0,3.0
01/12/2013,-,9.0,1.0,0.0
02/12/2013,-,8.0,1.0,0.0
03/12/2013,-,9.0,1.0,0.0
04/12/2013,-,13.0,0.0,0.0
05/12/2013,-,10.0,8.0,0.0
06/12/2013,-,10.0,4.0,0.0
07/12/2013,-,9.0,0.0,0.0
08/12/2013,-,10.0,-1.0,0.0
09/12/2013,-,12.0,0.0,0.0
10/12/2013,-,14.0,1.0,0.0
11/12/2013,-,16.0,3.0,0.0
12/12/2013,-,14.0,5.0,0.0
13/12/2013,-,12.0,2.0,2.1
14/12/2013,-,12.0,4.0,0.0
15/12/2013,-,17.0,4.0,0.0
16/12/2013,-,17.0,9.0,0.0
17/12/2013,-,14.0,10.0,0.0
18/12/2013,-,14.0,6.0,2.0
19/12/2013,-,12.0,6.0,18.1
20/12/2013,-,10.0,6.0,2.3
21/12/2013,-,11.0,-2.0,0.0
22/12/2013,-,14.0,7.0,0.0
23/12/2013,-,14.0,8.0,0.0
24/12/2013,-,14.0,11.0,4.2
25/12/2013,-,12.0,10.0,16.9
26/12/2013,-,13.0,6.0,4.8
27/12/2013,-,16.0,7.0,2.9
