Fecha, Temperatura media, Temperatura maxima, Temperatura minima, Precipitacion acumulada
01/01/2010,-,10.0,4.0,0.0
02/01/2010,-,9.5,0.0,3.2
03/01/2010,-,7.0,0.8,4.3
04/01/2010,-,7.1,3.4,3.9
05/01/2010,-,9.1,4.0,0.0
06/01/2010,-,8.4,0.4,0.0
07/01/2010,-,5.3,0.0,0.0
08/01/2010,-,3.0,0.0,0.0
09/01/2010,-,2.0,-1.0,0.0
10/01/2010,-,2.5,-0.9,0.0
11/01/2010,-,6.0,-1.0,0.0
12/01/2010,-,4.0,-2.0,3.0
13/01/2010,-,9.5,-1.0,10.7
14/01/2010,-,8.8,0.3,3.2
15/01/2010,-,11.0,4.1,0.0
16/01/2010,-,10.0,3.7,0.6
17/01/2010,-,12.2,4.0,0.0
18/01/2010,-,12.0,6.0,0.4
19/01/2010,-,12.0,7.5,0.7
20/01/2010,-,7.9,5.0,0.1
21/01/2010,-,12.0,3.0,0.0
22/01/2010,-,12.1,1.0,0.0
23/01/2010,-,9.0,1.8,0.8
24/01/2010,-,9.5,7.0,0.3
25/01/2010,-,7.2,4.2,0.0
26/01/2010,-,8.1,3.0,0.0
27/01/2010,-,5.4,0.0,0.0
28/01/2010,-,8.0,0.0,0.0
29/01/2010,-,11.8,3.6,0.7
30/01/2010,-,9.4,5.0,2.2
31/01/2010,-,7.0,4.2,1.7
01/02/2010,-,9.0,1.0,0.0
02/02/2010,-,9.0,-1.0,0.0
03/02/2010,-,9.1,-3.5,4.9
04/02/2010,-,8.4,1.0,5.4
05/02/2010,-,13.3,3.8,0.0
06/02/2010,-,13.1,4.0,0.0
07/02/2010,-,11.5,8.0,0.4
08/02/2010,-,6.0,3.5,5.5
09/02/2010,-,8.6,4.5,0.0
10/02/2010,-,7.2,4.0,0.0
11/02/2010,-,1.7,-1.6,0.0
12/02/2010,-,4.0,-2.8,0.0
13/02/2010,-,2.2,-2.0,0.0
14/02/2010,-,3.0,0.0,0.0
15/02/2010,-,4.2,-2.5,3.5
16/02/2010,-,7.9,0.0,11.3
17/02/2010,-,8.6,1.0,0.0
18/02/2010,-,11.1,2.1,0.0
19/02/2010,-,9.4,3.6,0.0
20/02/2010,-,10.9,-3.1,2.0
21/02/2010,-,7.6,-2.0,2.2
22/02/2010,-,13.7,2.7,0.0
23/02/2010,-,16.5,3.8,0.0
24/02/2010,-,14.9,3.4,0.0
25/02/2010,-,18.1,8.2,0.0
26/02/2010,-,15.4,6.0,0.6
27/02/2010,-,18.0,4.0,0.4
28/02/2010,-,15.0,6.2,0.0
01/03/2010,-,16.3,7.7,0.0
02/03/2010,-,15.6,1.2,1.4
03/03/2010,-,10.2,3.4,3.5
04/03/2010,-,13.0,5.5,0.0
05/03/2010,-,13.0,4.8,0.0
06/03/2010,-,12.6,6.0,0.0
07/03/2010,-,9.4,4.2,0.0
08/03/2010,-,3.3,0.0,0.0
09/03/2010,-,6.0,1.5,0.0
10/03/2010,-,4.5,0.0,0.4
11/03/2010,-,4.8,0.0,0.0
12/03/2010,-,8.0,2.3,0.0
13/03/2010,-,11.2,2.7,0.0
14/03/2010,-,10.8,3.5,0.0
15/03/2010,-,16.3,3.0,0.0
16/03/2010,-,16.2,0.0,0.0
17/03/2010,-,19.0,0.5,0.0
18/03/2010,-,14.5,5.6,0.2
19/03/2010,-,16.6,4.6,0.0
20/03/2010,-,20.4,12.5,0.0
21/03/2010,-,17.0,11.0,0.0
22/03/2010,-,20.3,10.5,0.0
23/03/2010,-,20.0,3.6,0.0
24/03/2010,-,16.8,9.2,11.4
25/03/2010,-,17.0,11.5,4.6
26/03/2010,-,16.4,3.5,0.1
27/03/2010,-,16.8,6.0,0.0
28/03/2010,-,17.0,5.7,0.0
29/03/2010,-,19.6,8.0,2.4
30/03/2010,-,15.3,8.0,0.4
31/03/2010,-,16.5,4.8,1.3
01/04/2010,-,13.2,3.6,0.0
02/04/2010,-,16.3,1.8,0.0
03/04/2010,-,15.0,7.5,2.3
04/04/2010,-,13.2,7.0,0.0
05/04/2010,-,17.0,1.0,0.0
06/04/2010,-,20.0,4.4,0.0
07/04/2010,-,13.8,9.5,0.4
08/04/2010,-,15.6,7.5,0.0
09/04/2010,-,19.2,4.5,0.0
10/04/2010,-,21.0,4.0,0.0
11/04/2010,-,20.3,5.0,0.0
12/04/2010,-,15.0,8.5,0.0
13/04/2010,-,15.4,6.4,0.0
14/04/2010,-,13.2,7.3,0.6
15/04/2010,-,13.8,8.0,0.0
16/04/2010,-,19.3,9.8,0.0
17/04/2010,-,17.0,10.6,1.3
18/04/2010,-,17.0,9.5,0.0
19/04/2010,-,22.8,9.0,0.0
20/04/2010,-,24.0,8.5,0.0
21/04/2010,-,23.8,8.5,2.3
22/04/2010,-,16.5,13.0,5.0
23/04/2010,-,20.0,11.8,0.0
24/04/2010,-,24.0,8.0,0.0
25/04/2010,-,24.2,11.3,0.0
26/04/2010,-,26.5,13.0,0.0
27/04/2010,-,28.2,8.8,0.0
28/04/2010,-,27.3,10.5,0.0
29/04/2010,-,26.5,14.8,9.8
30/04/2010,-,21.8,11.8,5.3
01/05/2010,-,16.8,13.0,0.0
02/05/2010,-,15.8,9.0,0.0
03/05/2010,-,13.0,8.8,1.8
04/05/2010,-,8.2,6.3,0.7
05/05/2010,-,10.8,7.0,0.0
06/05/2010,-,13.2,8.0,0.0
07/05/2010,-,14.0,2.0,3.0
08/05/2010,-,20.0,7.5,9.7
09/05/2010,-,22.5,9.2,0.6
10/05/2010,-,20.4,7.0,0.0
11/05/2010,-,18.5,6.5,4.0
12/05/2010,-,16.8,9.8,1.0
13/05/2010,-,13.0,8.0,0.0
14/05/2010,-,16.2,5.3,0.8
15/05/2010,-,15.3,8.3,0.0
16/05/2010,-,16.5,7.5,0.0
17/05/2010,-,16.0,8.2,0.0
18/05/2010,-,23.7,8.3,0.0
19/05/2010,-,19.8,11.0,0.0
20/05/2010,-,23.2,10.0,0.0
21/05/2010,-,27.5,9.2,0.0
22/05/2010,-,29.0,11.0,0.0
23/05/2010,-,28.0,13.0,0.0
24/05/2010,-,28.2,15.0,1.1
25/05/2010,-,28.0,16.0,0.0
26/05/2010,-,25.5,11.8,0.0
27/05/2010,-,24.4,11.7,0.0
28/05/2010,-,19.5,15.0,0.0
29/05/2010,-,24.5,8.8,0.0
30/05/2010,-,26.0,12.0,0.0
31/05/2010,-,26.0,18.5,0.0
01/06/2010,-,27.5,14.2,0.0
02/06/2010,-,24.6,15.7,0.0
03/06/2010,-,29.7,11.5,0.0
04/06/2010,-,30.8,14.0,0.0
05/06/2010,-,33.0,15.5,2.2
06/06/2010,-,20.6,16.2,0.0
07/06/2010,-,29.0,14.0,6.0
08/06/2010,-,28.0,16.4,3.4
09/06/2010,-,20.6,15.5,0.2
10/06/2010,-,23.4,15.5,0.0
11/06/2010,-,21.5,15.0,3.0
12/06/2010,-,18.2,14.8,0.3
13/06/2010,-,23.0,14.8,0.0
14/06/2010,-,20.5,15.2,0.0
15/06/2010,-,20.4,8.4,0.3
16/06/2010,-,17.0,12.0,4.0
17/06/2010,-,17.0,11.8,0.0
18/06/2010,-,21.0,11.5,0.0
19/06/2010,-,21.0,15.0,0.0
20/06/2010,-,17.0,13.5,0.0
21/06/2010,-,22.6,10.3,0.0
22/06/2010,-,26.2,12.8,0.0
23/06/2010,-,29.3,10.8,0.0
24/06/2010,-,31.5,12.5,0.0
25/06/2010,-,32.0,15.0,0.0
26/06/2010,-,32.0,19.4,0.0
27/06/2010,-,31.0,18.2,34.1
28/06/2010,-,29.8,19.0,0.0
29/06/2010,-,29.3,18.2,0.0
30/06/2010,-,31.0,18.5,0.0
01/07/2010,-,34.7,18.5,0.0
02/07/2010,-,31.0,22.8,3.7
03/07/2010,-,30.8,18.8,2.4
04/07/2010,-,30.2,20.5,0.0
05/07/2010,-,27.0,17.5,0.0
06/07/2010,-,27.6,17.2,0.0
07/07/2010,-,35.5,17.0,0.0
08/07/2010,-,34.2,19.0,0.0
09/07/2010,-,34.3,23.8,0.0
10/07/2010,-,34.8,18.8,0.0
11/07/2010,-,37.5,20.0,0.2
12/07/2010,-,34.0,21.6,0.0
13/07/2010,-,34.8,19.7,0.0
14/07/2010,-,33.3,19.7,0.0
15/07/2010,-,31.2,16.5,0.0
16/07/2010,-,29.4,18.0,0.0
17/07/2010,-,24.0,18.0,0.0
18/07/2010,-,33.5,16.2,0.0
19/07/2010,-,35.4,18.0,0.0
20/07/2010,-,34.2,19.8,0.0
21/07/2010,-,24.0,19.0,1.9
22/07/2010,-,23.3,15.8,0.3
23/07/2010,-,24.0,15.2,0.0
24/07/2010,-,24.2,14.8,0.0
25/07/2010,-,24.0,15.8,0.0
26/07/2010,-,24.3,16.2,0.0
27/07/2010,-,31.0,17.8,0.0
28/07/2010,-,32.2,18.0,0.0
29/07/2010,-,26.6,19.0,0.0
30/07/2010,-,27.3,16.3,0.0
31/07/2010,-,33.8,15.4,0.0
01/08/2010,-,32.2,19.0,0.0
02/08/2010,-,22.5,19.8,0.0
03/08/2010,-,24.0,15.3,0.0
04/08/2010,-,26.2,17.2,0.0
05/08/2010,-,24.0,16.0,0.0
06/08/2010,-,27.3,14.0,0.0
07/08/2010,-,32.1,15.0,0.0
08/08/2010,-,30.1,19.0,0.0
09/08/2010,-,28.1,20.4,0.0
10/08/2010,-,33.3,15.4,0.0
11/08/2010,-,31.0,18.4,0.0
12/08/2010,-,24.0,19.4,0.0
13/08/2010,-,23.2,16.3,0.0
14/08/2010,-,23.1,15.2,0.0
15/08/2010,-,23.1,12.2,0.0
16/08/2010,-,27.1,12.2,0.0
17/08/2010,-,30.2,13.4,0.0
18/08/2010,-,31.0,15.0,0.0
19/08/2010,-,27.1,19.4,0.0
20/08/2010,-,31.2,16.0,0.0
21/08/2010,-,35.1,19.0,0.0
22/08/2010,-,37.2,20.0,0.0
23/08/2010,-,35.0,19.1,0.0
24/08/2010,-,27.0,19.4,0.0
25/08/2010,-,34.5,16.4,0.0
26/08/2010,-,37.1,18.0,0.0
27/08/2010,-,31.3,20.3,0.0
28/08/2010,-,24.0,19.0,0.0
29/08/2010,-,27.0,15.2,0.0
30/08/2010,-,24.1,14.4,0.0
31/08/2010,-,27.1,15.2,0.0
01/09/2010,-,27.3,16.0,0.5
02/09/2010,-,26.3,19.1,0.7
03/09/2010,-,29.3,15.1,0.0
04/09/2010,-,31.1,15.4,0.0
05/09/2010,-,31.1,15.1,0.0
06/09/2010,-,33.1,19.1,0.0
07/09/2010,-,23.4,18.4,1.8
08/09/2010,-,23.4,12.1,0.0
09/09/2010,-,23.2,15.4,0.0
10/09/2010,-,27.2,12.0,0.0
11/09/2010,-,28.0,11.4,0.0
12/09/2010,-,24.0,15.0,0.0
13/09/2010,-,24.0,15.0,0.0
14/09/2010,-,29.1,15.1,0.0
15/09/2010,-,29.3,12.3,0.0
16/09/2010,-,21.0,12.1,0.2
17/09/2010,-,20.2,17.3,0.0
18/09/2010,-,20.1,15.0,0.0
19/09/2010,-,22.3,8.2,0.0
20/09/2010,-,24.0,11.0,0.0
21/09/2010,-,27.3,15.2,0.0
22/09/2010,-,27.0,14.4,0.0
23/09/2010,-,24.0,18.0,0.0
24/09/2010,-,20.2,16.3,0.0
25/09/2010,-,16.3,13.0,0.5
26/09/2010,-,16.4,12.3,0.0
27/09/2010,-,20.0,6.2,0.0
28/09/2010,-,20.3,9.2,0.0
29/09/2010,-,26.3,8.4,0.0
30/09/2010,-,22.3,9.0,0.0
01/10/2010,-,23.3,9.0,0.0
02/10/2010,-,27.1,11.4,0.0
03/10/2010,-,23.4,16.2,4.7
04/10/2010,-,20.1,13.3,0.0
05/10/2010,-,23.1,6.0,0.0
06/10/2010,-,25.3,7.0,0.0
07/10/2010,-,23.3,13.0,0.0
08/10/2010,-,26.4,16.4,0.4
09/10/2010,-,20.1,17.1,8.9
10/10/2010,-,16.1,13.0,3.2
11/10/2010,-,18.2,13.2,0.4
12/10/2010,-,19.4,12.4,0.0
13/10/2010,-,18.4,14.0,0.0
14/10/2010,-,17.0,10.0,0.0
15/10/2010,-,17.0,9.0,0.0
16/10/2010,-,16.1,9.0,0.0
17/10/2010,-,13.2,9.0,0.0
18/10/2010,-,13.5,9.0,0.0
19/10/2010,-,16.4,6.8,0.0
20/10/2010,-,16.0,8.2,0.0
21/10/2010,-,16.0,3.0,0.0
22/10/2010,-,15.4,2.2,0.0
23/10/2010,-,19.3,5.5,0.0
24/10/2010,-,18.3,7.2,1.2
25/10/2010,-,12.3,8.4,0.0
26/10/2010,-,16.4,6.0,0.0
27/10/2010,-,22.3,5.2,0.0
28/10/2010,-,20.3,6.0,0.0
29/10/2010,-,18.2,8.4,3.6
30/10/2010,-,14.2,6.0,0.5
31/10/2010,-,15.4,8.0,10.4
01/11/2010,-,15.2,10.0,0.0
02/11/2010,-,16.0,12.0,0.0
03/11/2010,-,19.4,9.4,0.0
04/11/2010,-,22.0,12.3,0.0
05/11/2010,-,19.4,9.3,0.0
06/11/2010,-,16.3,7.0,0.0
07/11/2010,-,13.2,8.0,1.0
08/11/2010,-,13.1,6.0,15.2
09/11/2010,-,15.0,6.0,0.0
10/11/2010,-,12.4,8.2,0.0
11/11/2010,-,13.1,2.0,0.0
12/11/2010,-,19.3,6.0,0.0
13/11/2010,-,17.2,4.4,0.0
14/11/2010,-,12.3,7.3,2.2
15/11/2010,-,12.0,6.0,0.2
16/11/2010,-,14.0,8.3,1.1
17/11/2010,-,9.2,2.0,0.5
18/11/2010,-,13.1,1.2,0.0
19/11/2010,-,9.2,2.0,4.4
20/11/2010,-,13.1,2.3,3.2
21/11/2010,-,11.2,7.4,0.3
22/11/2010,-,11.4,7.0,0.0
23/11/2010,-,11.0,6.4,0.0
24/11/2010,-,10.0,2.4,0.0
25/11/2010,-,12.1,-1.0,0.0
26/11/2010,-,8.4,-1.3,0.0
27/11/2010,-,6.2,-3.2,0.0
28/11/2010,-,8.2,-2.4,0.0
29/11/2010,-,4.0,-4.4,2.9
30/11/2010,-,5.0,-4.0,0.0
01/12/2010,-,7.4,2.0,2.6
02/12/2010,-,6.2,1.1,0.0
03/12/2010,-,7.0,1.0,0.0
04/12/2010,-,7.3,-2.1,1.4
05/12/2010,-,9.4,-2.0,2.9
06/12/2010,-,16.2,5.0,0.5
07/12/2010,-,16.0,9.2,8.6
08/12/2010,-,19.2,10.4,0.5
09/12/2010,-,10.1,8.4,0.0
10/12/2010,-,9.4,0.0,0.0
11/12/2010,-,4.0,-1.0,0.0
12/12/2010,-,13.2,-1.0,0.0
13/12/2010,-,10.1,-0.5,0.0
14/12/2010,-,9.1,3.1,0.0
15/12/2010,-,4.0,1.2,0.0
16/12/2010,-,6.0,-1.0,0.0
17/12/2010,-,8.1,-3.0,0.0
18/12/2010,-,7.4,-2.2,0.0
19/12/2010,-,8.2,-1.2,0.0
20/12/2010,-,9.1,-2.2,1.9
21/12/2010,-,8.4,-1.2,5.8
22/12/2010,-,13.0,5.1,4.1
23/12/2010,-,8.3,7.3,0.0
24/12/2010,-,6.0,3.0,0.0
25/12/2010,-,4.2,1.3,0.0
26/12/2010,-,5.0,-1.1,0.0
27/12/2010,-,5.3,-4.4,0.0
