Fecha, Temperatura media, Temperatura maxima, Temperatura minima, Precipitacion acumulada
01/01/2017,-,2.2,1.0,0.0
02/01/2017,-,2.8,0.5,0.0
03/01/2017,-,7.5,-2.5,0.0
04/01/2017,-,13.0,-1.2,0.0
05/01/2017,-,8.5,0.5,0.0
06/01/2017,-,11.0,2.0,0.0
07/01/2017,-,11.0,0.8,0.0
08/01/2017,-,12.8,-3.2,0.0
09/01/2017,-,11.5,6.0,0.3
10/01/2017,-,11.8,7.0,1.1
11/01/2017,-,15.8,7.5,0.0
12/01/2017,-,12.0,4.5,0.0
13/01/2017,-,8.5,5.8,0.0
14/01/2017,-,7.5,3.0,1.3
15/01/2017,-,11.5,4.0,0.1
16/01/2017,-,11.2,6.8,1.7
17/01/2017,-,4.5,2.0,0.0
18/01/2017,-,2.8,-3.0,0.0
19/01/2017,-,4.5,-4.0,0.0
20/01/2017,-,5.0,-1.5,0.0
21/01/2017,-,11.2,-4.0,0.0
22/01/2017,-,10.0,3.5,0.0
23/01/2017,-,11.2,2.5,0.0
24/01/2017,-,11.5,2.8,0.0
25/01/2017,-,8.5,0.0,0.0
26/01/2017,-,7.8,-5.2,0.0
27/01/2017,-,10.0,2.0,19.4
28/01/2017,-,11.8,5.2,0.0
29/01/2017,-,11.5,0.5,0.0
30/01/2017,-,13.2,5.8,0.0
31/01/2017,-,15.5,3.0,0.0
01/02/2017,-,14.0,5.5,4.1
02/02/2017,-,12.0,8.0,8.5
03/02/2017,-,16.0,4.0,3.0
04/02/2017,-,12.0,8.0,1.3
05/02/2017,-,10.5,7.0,0.5
06/02/2017,-,13.5,5.8,0.5
07/02/2017,-,13.0,7.5,2.2
08/02/2017,-,9.0,3.0,0.3
09/02/2017,-,11.5,2.8,0.0
10/02/2017,-,11.5,1.5,0.0
11/02/2017,-,11.0,2.5,12.1
12/02/2017,-,11.2,6.0,7.1
13/02/2017,-,11.5,9.5,7.2
14/02/2017,-,14.0,6.5,0.0
15/02/2017,-,15.0,5.5,0.0
16/02/2017,-,15.0,3.0,0.0
17/02/2017,-,14.2,1.0,0.0
18/02/2017,-,13.5,1.5,0.0
19/02/2017,-,15.2,2.5,0.0
20/02/2017,-,14.5,2.0,0.0
21/02/2017,-,15.5,2.5,0.0
22/02/2017,-,16.0,1.8,0.0
23/02/2017,-,13.8,3.8,0.0
24/02/2017,-,12.5,8.2,0.0
25/02/2017,-,19.0,2.8,0.0
26/02/2017,-,15.2,1.8,0.0
27/02/2017,-,17.0,2.5,0.0
28/02/2017,-,15.0,6.0,0.6
01/03/2017,-,14.8,1.8,0.0
02/03/2017,-,18.0,2.5,0.0
03/03/2017,-,15.0,7.5,31.4
04/03/2017,-,12.0,3.8,0.1
05/03/2017,-,13.0,5.8,0.4
06/03/2017,-,20.0,7.2,0.0
07/03/2017,-,18.5,8.5,0.0
08/03/2017,-,20.0,9.8,0.0
09/03/2017,-,22.2,6.0,0.0
10/03/2017,-,26.0,6.0,0.0
11/03/2017,-,22.2,5.5,0.0
12/03/2017,-,16.5,11.8,0.6
13/03/2017,-,16.0,8.5,0.0
14/03/2017,-,18.0,9.2,0.0
15/03/2017,-,19.5,8.5,0.0
16/03/2017,-,21.5,3.5,0.0
17/03/2017,-,21.2,3.0,0.0
18/03/2017,-,19.0,8.5,0.0
19/03/2017,-,22.0,8.2,0.0
20/03/2017,-,21.8,8.8,0.0
21/03/2017,-,14.5,7.2,0.0
22/03/2017,-,13.8,2.5,6.1
23/03/2017,-,12.0,2.5,1.6
24/03/2017,-,13.0,3.2,8.2
25/03/2017,-,7.0,3.8,18.5
26/03/2017,-,15.5,3.0,0.0
27/03/2017,-,14.0,8.2,0.3
28/03/2017,-,18.2,6.0,0.0
29/03/2017,-,21.2,4.0,0.0
30/03/2017,-,21.8,5.8,0.0
31/03/2017,-,19.5,10.8,8.3
01/04/2017,-,15.8,9.0,0.0
02/04/2017,-,14.8,7.5,0.0
03/04/2017,-,18.5,6.0,0.0
04/04/2017,-,17.0,6.5,0.0
05/04/2017,-,16.2,7.8,0.0
06/04/2017,-,17.5,10.2,0.0
07/04/2017,-,21.0,6.8,0.0
08/04/2017,-,25.0,5.5,0.0
09/04/2017,-,24.2,6.0,0.0
10/04/2017,-,26.0,6.0,0.0
11/04/2017,-,21.0,11.0,0.0
12/04/2017,-,22.2,8.0,0.0
13/04/2017,-,26.8,9.8,0.0
14/04/2017,-,23.5,8.0,0.0
15/04/2017,-,19.0,11.0,0.0
16/04/2017,-,22.0,9.5,0.0
17/04/2017,-,24.8,9.8,0.0
18/04/2017,-,20.5,10.8,0.0
19/04/2017,-,17.8,9.0,0.0
20/04/2017,-,20.0,5.0,0.0
21/04/2017,-,21.0,5.0,0.0
22/04/2017,-,22.0,3.5,0.0
23/04/2017,-,25.5,5.2,0.0
24/04/2017,-,25.5,6.5,0.0
25/04/2017,-,21.0,12.8,13.5
26/04/2017,-,13.0,8.5,0.0
27/04/2017,-,13.2,6.0,0.0
28/04/2017,-,17.0,4.0,0.0
29/04/2017,-,17.0,1.8,0.5
30/04/2017,-,17.2,10.0,1.8
01/05/2017,-,18.0,2.0,0.0
02/05/2017,-,19.5,10.2,0.0
03/05/2017,-,22.0,8.2,0.0
04/05/2017,-,23.0,11.0,0.0
05/05/2017,-,24.8,13.2,13.9
06/05/2017,-,22.0,9.2,0.0
07/05/2017,-,23.0,8.8,0.0
08/05/2017,-,24.5,10.8,0.0
09/05/2017,-,24.2,10.8,1.1
10/05/2017,-,25.0,12.8,5.8
11/05/2017,-,21.8,11.5,4.2
12/05/2017,-,22.0,11.2,3.2
13/05/2017,-,22.0,10.0,0.0
14/05/2017,-,24.5,10.0,0.0
15/05/2017,-,28.5,10.5,0.0
16/05/2017,-,29.2,14.0,0.0
17/05/2017,-,27.0,15.2,3.8
18/05/2017,-,14.2,11.5,13.2
19/05/2017,-,18.2,8.5,0.0
20/05/2017,-,22.0,6.0,0.0
21/05/2017,-,26.0,9.8,0.0
22/05/2017,-,29.0,15.0,0.0
23/05/2017,-,30.0,16.0,0.0
24/05/2017,-,32.0,14.0,0.0
25/05/2017,-,34.0,15.0,0.0
26/05/2017,-,34.0,16.0,1.7
27/05/2017,-,31.2,17.0,0.0
28/05/2017,-,30.0,17.8,0.0
29/05/2017,-,22.0,20.0,11.5
30/05/2017,-,26.0,15.0,1.2
31/05/2017,-,30.0,16.5,0.4
01/06/2017,-,31.0,16.0,2.2
02/06/2017,-,28.0,17.0,3.2
03/06/2017,-,22.2,16.8,1.0
04/06/2017,-,17.0,13.0,7.5
05/06/2017,-,26.0,12.8,0.0
06/06/2017,-,20.0,13.0,0.0
07/06/2017,-,27.5,11.0,0.0
08/06/2017,-,32.0,14.5,17.0
09/06/2017,-,31.8,17.0,0.0
10/06/2017,-,33.2,16.2,0.0
11/06/2017,-,36.0,19.2,0.0
12/06/2017,-,35.0,18.5,0.0
13/06/2017,-,36.0,19.0,0.0
14/06/2017,-,37.0,19.0,0.0
15/06/2017,-,30.0,18.0,0.0
16/06/2017,-,31.5,18.0,0.0
17/06/2017,-,35.2,17.8,0.0
18/06/2017,-,36.0,18.5,0.0
19/06/2017,-,36.8,22.0,0.0
20/06/2017,-,33.5,20.0,0.0
21/06/2017,-,36.0,19.8,0.0
22/06/2017,-,38.5,20.0,0.0
23/06/2017,-,33.5,20.0,0.0
24/06/2017,-,28.2,17.8,0.0
25/06/2017,-,29.0,17.0,17.4
26/06/2017,-,27.0,19.0,0.0
27/06/2017,-,28.5,17.5,15.1
28/06/2017,-,27.0,15.5,0.3
29/06/2017,-,22.2,14.0,0.2
30/06/2017,-,21.0,10.2,0.2
01/07/2017,-,21.0,12.8,0.0
02/07/2017,-,25.0,12.8,0.0
03/07/2017,-,29.0,16.8,0.0
04/07/2017,-,34.2,15.0,0.0
05/07/2017,-,34.0,19.8,0.0
06/07/2017,-,31.8,21.0,0.2
07/07/2017,-,32.5,17.0,0.0
08/07/2017,-,32.0,21.0,0.5
09/07/2017,-,31.5,17.2,0.8
10/07/2017,-,25.5,17.2,0.0
11/07/2017,-,31.8,17.0,0.0
12/07/2017,-,31.0,19.8,0.0
13/07/2017,-,30.5,18.2,0.0
14/07/2017,-,27.0,17.0,0.0
15/07/2017,-,28.8,16.2,0.0
16/07/2017,-,34.5,16.5,3.5
17/07/2017,-,35.2,21.5,0.0
18/07/2017,-,35.2,21.0,0.0
19/07/2017,-,35.0,21.5,0.2
20/07/2017,-,27.0,18.5,0.0
21/07/2017,-,29.0,16.8,0.0
22/07/2017,-,31.5,16.8,0.0
23/07/2017,-,28.5,16.8,0.0
24/07/2017,-,25.8,18.5,0.0
25/07/2017,-,23.8,17.0,0.0
26/07/2017,-,29.0,15.5,0.0
27/07/2017,-,34.0,16.5,0.0
28/07/2017,-,34.0,20.5,0.0
29/07/2017,-,35.8,17.2,0.0
30/07/2017,-,35.8,20.8,0.0
31/07/2017,-,32.5,18.2,0.0
01/08/2017,-,29.0,18.8,0.0
02/08/2017,-,35.5,17.2,0.0
03/08/2017,-,36.2,20.5,0.0
04/08/2017,-,35.0,20.8,0.0
05/08/2017,-,28.8,22.5,0.0
06/08/2017,-,26.0,16.5,0.0
07/08/2017,-,33.0,17.0,0.0
08/08/2017,-,25.0,18.0,0.0
09/08/2017,-,21.0,13.0,0.0
10/08/2017,-,22.0,14.0,0.0
11/08/2017,-,24.0,13.0,0.0
12/08/2017,-,29.0,12.0,0.0
13/08/2017,-,31.8,17.2,0.0
14/08/2017,-,35.0,18.0,8.4
15/08/2017,-,31.5,17.8,0.0
16/08/2017,-,31.0,20.0,0.0
17/08/2017,-,34.0,15.0,0.0
18/08/2017,-,28.8,20.5,0.0
19/08/2017,-,27.5,18.5,0.0
20/08/2017,-,28.8,16.2,0.0
21/08/2017,-,34.0,13.0,0.0
22/08/2017,-,35.5,17.5,0.0
23/08/2017,-,32.5,20.2,5.8
24/08/2017,-,32.0,17.8,0.0
25/08/2017,-,32.8,17.5,0.0
26/08/2017,-,32.2,17.8,0.0
27/08/2017,-,27.0,19.0,2.2
28/08/2017,-,29.0,17.0,11.0
29/08/2017,-,26.0,16.0,0.0
30/08/2017,-,25.5,16.0,6.0
31/08/2017,-,22.0,16.8,0.0
01/09/2017,-,24.0,11.0,0.0
02/09/2017,-,23.2,14.5,0.0
03/09/2017,-,27.0,13.5,0.0
04/09/2017,-,27.5,16.5,0.0
05/09/2017,-,30.5,15.0,0.0
06/09/2017,-,25.0,17.8,0.0
07/09/2017,-,23.0,13.5,0.0
08/09/2017,-,26.0,11.0,0.0
09/09/2017,-,21.0,15.5,0.8
10/09/2017,-,21.8,13.5,0.0
11/09/2017,-,23.8,14.2,0.0
12/09/2017,-,24.2,16.5,0.0
13/09/2017,-,28.0,12.0,0.0
14/09/2017,-,19.2,17.0,0.0
15/09/2017,-,18.5,11.0,0.0
16/09/2017,-,18.8,7.2,0.0
17/09/2017,-,22.0,6.0,1.7
18/09/2017,-,21.0,13.0,0.3
19/09/2017,-,21.0,11.0,0.0
20/09/2017,-,27.0,7.0,0.0
21/09/2017,-,25.0,9.0,5.1
22/09/2017,-,22.0,12.0,0.0
23/09/2017,-,24.5,11.5,0.0
24/09/2017,-,27.8,11.5,0.0
25/09/2017,-,22.5,16.5,0.0
26/09/2017,-,24.0,16.0,0.0
27/09/2017,-,25.2,9.8,0.0
28/09/2017,-,25.5,10.0,0.0
29/09/2017,-,25.0,13.0,0.9
30/09/2017,-,22.0,16.8,0.0
01/10/2017,-,22.0,13.0,0.0
02/10/2017,-,25.2,16.0,0.0
03/10/2017,-,25.8,14.0,0.0
04/10/2017,-,26.0,12.8,0.0
05/10/2017,-,26.0,12.0,0.0
06/10/2017,-,22.0,13.5,0.0
07/10/2017,-,23.0,10.2,0.0
08/10/2017,-,27.0,7.0,0.0
09/10/2017,-,27.0,9.0,0.0
10/10/2017,-,25.0,7.0,0.0
11/10/2017,-,24.0,7.0,0.0
12/10/2017,-,24.0,9.5,0.0
13/10/2017,-,25.0,10.0,0.0
14/10/2017,-,26.0,12.0,0.0
15/10/2017,-,24.0,13.0,0.0
16/10/2017,-,23.5,16.0,0.0
17/10/2017,-,24.0,14.0,3.1
18/10/2017,-,19.0,16.0,4.8
19/10/2017,-,18.0,11.0,0.0
20/10/2017,-,21.0,10.0,0.0
21/10/2017,-,17.0,10.0,0.0
22/10/2017,-,18.0,10.0,0.0
23/10/2017,-,22.0,7.0,0.0
24/10/2017,-,22.5,8.0,0.0
25/10/2017,-,22.0,6.5,0.0
26/10/2017,-,24.0,7.0,0.0
27/10/2017,-,21.0,12.0,0.0
28/10/2017,-,19.0,14.0,0.0
29/10/2017,-,20.0,10.0,0.0
30/10/2017,-,20.0,13.0,0.0
31/10/2017,-,19.0,6.0,0.0
01/11/2017,-,19.0,5.0,0.0
02/11/2017,-,19.5,10.5,0.0
03/11/2017,-,21.0,12.0,0.0
04/11/2017,-,18.0,11.0,0.0
05/11/2017,-,14.0,10.0,0.4
06/11/2017,-,12.0,8.0,0.3
07/11/2017,-,14.0,6.0,0.0
08/11/2017,-,11.0,9.0,0.0
09/11/2017,-,13.0,4.0,0.3
10/11/2017,-,16.0,6.5,0.0
11/11/2017,-,16.0,11.0,0.0
12/11/2017,-,17.0,9.5,0.0
13/11/2017,-,11.0,6.0,0.0
14/11/2017,-,11.5,5.5,0.0
15/11/2017,-,15.0,3.0,0.0
16/11/2017,-,17.0,-1.0,0.0
17/11/2017,-,18.5,4.0,0.0
18/11/2017,-,16.0,8.5,0.0
19/11/2017,-,17.0,3.0,0.0
20/11/2017,-,14.0,0.0,0.0
21/11/2017,-,13.0,-1.5,0.0
22/11/2017,-,12.0,-2.0,0.0
23/11/2017,-,12.0,4.0,0.3
24/11/2017,-,14.0,9.0,1.5
25/11/2017,-,13.5,9.0,0.0
26/11/2017,-,11.0,6.0,0.0
27/11/2017,-,10.0,2.5,0.0
28/11/2017,-,10.0,-3.0,0.0
29/11/2017,-,10.5,-2.0,0.0
30/11/2017,-,9.0,2.0,3.2
01/12/2017,-,6.0,2.0,5.5
02/12/2017,-,5.5,1.0,0.0
03/12/2017,-,10.0,1.0,0.0
04/12/2017,-,11.0,4.0,0.0
05/12/2017,-,10.0,2.0,0.0
06/12/2017,-,7.0,-3.0,0.0
07/12/2017,-,6.8,-2.0,0.0
08/12/2017,-,11.5,0.5,0.0
09/12/2017,-,10.0,3.0,1.1
10/12/2017,-,14.0,5.2,0.8
11/12/2017,-,12.0,6.5,0.0
12/12/2017,-,10.0,3.5,0.0
13/12/2017,-,7.0,-2.5,4.9
14/12/2017,-,10.5,4.0,3.8
15/12/2017,-,9.0,6.0,0.3
16/12/2017,-,10.0,4.5,0.0
17/12/2017,-,10.0,3.0,0.0
18/12/2017,-,11.5,4.0,0.0
19/12/2017,-,10.0,5.0,0.0
20/12/2017,-,9.0,4.0,0.0
21/12/2017,-,15.0,6.5,0.0
22/12/2017,-,13.0,6.0,0.0
23/12/2017,-,13.0,6.0,0.0
24/12/2017,-,6.0,-0.5,0.0
25/12/2017,-,6.0,2.0,0.5
26/12/2017,-,10.0,2.0,3.4
27/12/2017,-,10.2,3.0,1.1
