Fecha, Temperatura media, Temperatura maxima, Temperatura minima, Precipitacion acumulada
01/01/2015,-,10.5,-2.0,0.0
02/01/2015,-,11.0,1.0,0.0
03/01/2015,-,16.0,0.0,0.0
04/01/2015,-,10.0,3.0,0.0
05/01/2015,-,9.0,-0.5,0.0
06/01/2015,-,9.0,0.0,0.0
07/01/2015,-,12.0,0.0,0.0
08/01/2015,-,10.0,-1.7,0.0
09/01/2015,-,16.8,-1.8,0.0
10/01/2015,-,17.0,1.0,0.0
11/01/2015,-,11.0,1.5,0.0
12/01/2015,-,8.0,-3.2,0.0
13/01/2015,-,8.0,-3.0,0.0
14/01/2015,-,12.0,0.0,0.0
15/01/2015,-,7.8,1.0,3.5
16/01/2015,-,5.0,1.5,3.5
17/01/2015,-,7.0,0.0,0.0
18/01/2015,-,2.5,-2.0,0.9
19/01/2015,-,4.0,0.3,0.6
20/01/2015,-,3.0,0.5,0.0
21/01/2015,-,3.0,0.5,9.5
22/01/2015,-,3.0,1.0,7.0
23/01/2015,-,6.0,1.0,0.0
24/01/2015,-,6.1,-0.5,1.0
25/01/2015,-,5.5,1.0,0.0
26/01/2015,-,6.5,2.2,0.6
27/01/2015,-,7.0,2.5,0.0
28/01/2015,-,7.5,5.0,0.0
29/01/2015,-,10.0,3.6,5.0
30/01/2015,-,7.0,3.3,55.0
31/01/2015,-,3.0,1.0,46.0
01/02/2015,-,3.5,0.4,8.5
02/02/2015,-,6.2,0.7,7.5
03/02/2015,-,3.8,1.0,10.0
04/02/2015,-,-1.0,-5.0,3.0
05/02/2015,-,1.0,-1.5,6.5
06/02/2015,-,0.0,-4.0,1.0
07/02/2015,-,0.0,-2.0,0.0
08/02/2015,-,0.2,-3.5,0.0
09/02/2015,-,7.0,-2.6,0.0
10/02/2015,-,7.0,-8.0,0.0
11/02/2015,-,7.0,-5.0,0.0
12/02/2015,-,9.0,-1.0,0.0
13/02/2015,-,9.5,-1.0,0.0
14/02/2015,-,7.0,2.0,12.0
15/02/2015,-,9.5,5.0,3.0
16/02/2015,-,8.0,3.0,5.0
17/02/2015,-,5.5,4.0,2.0
18/02/2015,-,5.5,2.0,0.0
19/02/2015,-,10.0,-2.0,0.0
20/02/2015,-,6.0,-0.5,9.0
21/02/2015,-,5.0,1.0,16.0
22/02/2015,-,8.0,2.2,1.5
23/02/2015,-,9.0,4.0,12.0
24/02/2015,-,5.2,2.0,26.0
25/02/2015,-,9.0,1.2,9.0
26/02/2015,-,11.0,5.0,10.5
27/02/2015,-,6.0,4.0,2.0
28/02/2015,-,11.0,3.5,0.0
01/03/2015,-,14.5,4.5,0.0
02/03/2015,-,13.5,11.0,7.0
03/03/2015,-,18.0,8.5,3.0
04/03/2015,-,6.3,5.0,2.8
05/03/2015,-,9.0,2.7,0.0
06/03/2015,-,19.0,1.0,0.0
07/03/2015,-,24.0,0.5,0.0
08/03/2015,-,17.5,2.2,0.0
09/03/2015,-,20.0,0.0,0.0
10/03/2015,-,23.8,2.5,0.0
11/03/2015,-,20.0,4.8,0.0
12/03/2015,-,20.0,3.0,0.0
13/03/2015,-,9.8,6.0,2.0
14/03/2015,-,5.0,1.5,2.0
15/03/2015,-,4.5,2.0,0.4
16/03/2015,-,10.0,2.5,0.0
17/03/2015,-,13.2,3.0,0.0
18/03/2015,-,9.5,6.0,20.0
19/03/2015,-,13.0,6.5,0.0
20/03/2015,-,7.2,6.2,8.8
21/03/2015,-,7.0,3.0,4.0
22/03/2015,-,6.0,4.2,11.0
23/03/2015,-,7.0,1.0,44.0
24/03/2015,-,6.5,0.8,9.3
25/03/2015,-,6.0,1.0,7.2
26/03/2015,-,8.0,1.6,2.0
27/03/2015,-,12.5,2.7,0.0
28/03/2015,-,17.0,7.5,0.0
29/03/2015,-,18.0,7.0,0.0
30/03/2015,-,16.0,7.2,0.0
31/03/2015,-,16.0,7.0,0.0
01/04/2015,-,12.0,7.8,0.0
02/04/2015,-,18.5,0.8,0.0
03/04/2015,-,18.5,2.5,0.0
04/04/2015,-,10.0,6.0,0.0
05/04/2015,-,14.0,7.0,0.0
06/04/2015,-,18.0,1.2,0.0
07/04/2015,-,16.0,2.0,0.0
08/04/2015,-,14.0,4.0,0.0
09/04/2015,-,15.0,6.0,0.0
10/04/2015,-,19.0,8.5,0.0
11/04/2015,-,18.8,9.5,0.0
12/04/2015,-,20.5,4.0,0.0
13/04/2015,-,20.5,8.7,0.0
14/04/2015,-,23.0,10.5,0.0
15/04/2015,-,17.0,12.5,0.0
16/04/2015,-,16.0,10.0,1.0
17/04/2015,-,17.0,7.5,0.0
18/04/2015,-,17.5,8.0,0.5
19/04/2015,-,14.3,6.5,0.0
20/04/2015,-,20.0,2.0,0.0
21/04/2015,-,21.0,3.0,0.0
22/04/2015,-,19.5,8.0,7.5
23/04/2015,-,22.0,8.5,0.0
24/04/2015,-,21.0,6.0,3.5
25/04/2015,-,20.0,10.0,2.0
26/04/2015,-,14.5,11.0,11.0
27/04/2015,-,15.0,8.0,0.5
28/04/2015,-,15.0,5.5,0.0
29/04/2015,-,16.0,6.5,0.0
30/04/2015,-,21.0,5.0,0.0
01/05/2015,-,17.5,9.0,0.0
02/05/2015,-,21.0,12.0,0.0
03/05/2015,-,20.5,14.5,0.0
04/05/2015,-,25.0,14.5,0.0
05/05/2015,-,22.0,13.2,0.0
06/05/2015,-,21.8,6.0,0.0
07/05/2015,-,25.5,5.8,0.0
08/05/2015,-,23.0,11.5,0.0
09/05/2015,-,22.5,9.8,0.0
10/05/2015,-,29.5,9.0,0.0
11/05/2015,-,31.0,15.0,0.0
12/05/2015,-,31.5,13.5,0.0
13/05/2015,-,31.5,15.0,0.0
14/05/2015,-,20.8,17.0,0.0
15/05/2015,-,12.0,8.6,10.0
16/05/2015,-,16.5,8.8,0.0
17/05/2015,-,18.5,9.2,0.0
18/05/2015,-,25.0,5.0,0.0
19/05/2015,-,13.0,9.0,0.0
20/05/2015,-,12.7,7.8,0.8
21/05/2015,-,12.5,7.0,0.0
22/05/2015,-,12.8,6.0,0.0
23/05/2015,-,16.5,7.5,0.0
24/05/2015,-,17.0,9.5,0.0
25/05/2015,-,16.0,12.5,0.0
26/05/2015,-,16.6,10.0,0.0
27/05/2015,-,20.5,10.5,0.0
28/05/2015,-,26.0,6.5,0.0
29/05/2015,-,16.0,11.2,0.0
30/05/2015,-,23.5,6.5,0.0
31/05/2015,-,27.6,8.0,0.0
01/06/2015,-,28.5,11.5,0.0
02/06/2015,-,30.0,13.0,0.0
03/06/2015,-,31.5,16.0,0.0
04/06/2015,-,32.5,17.0,0.0
05/06/2015,-,32.8,18.5,0.0
06/06/2015,-,29.0,15.5,0.0
07/06/2015,-,32.0,16.0,0.0
08/06/2015,-,30.0,11.0,0.0
09/06/2015,-,23.5,12.0,10.5
10/06/2015,-,17.5,11.0,30.0
11/06/2015,-,18.5,12.5,6.3
12/06/2015,-,22.6,12.8,0.0
13/06/2015,-,21.0,13.8,18.0
14/06/2015,-,23.0,11.5,7.0
15/06/2015,-,20.0,11.0,0.0
16/06/2015,-,16.8,12.5,0.0
17/06/2015,-,20.0,12.5,0.0
18/06/2015,-,22.2,11.0,0.0
19/06/2015,-,21.5,11.5,0.0
20/06/2015,-,26.5,10.0,0.0
21/06/2015,-,29.0,11.0,0.0
22/06/2015,-,33.0,11.8,3.4
23/06/2015,-,26.0,16.0,0.0
24/06/2015,-,28.0,10.0,0.0
25/06/2015,-,32.5,11.2,0.0
26/06/2015,-,35.5,14.5,0.0
27/06/2015,-,31.8,13.5,0.0
28/06/2015,-,33.0,14.8,0.0
29/06/2015,-,35.5,15.5,0.0
30/06/2015,-,36.5,16.5,0.0
01/07/2015,-,35.0,18.7,0.0
02/07/2015,-,32.0,19.0,0.0
03/07/2015,-,34.5,18.0,0.0
04/07/2015,-,35.5,21.5,0.0
05/07/2015,-,31.0,18.0,0.0
06/07/2015,-,36.2,15.5,0.0
07/07/2015,-,32.0,16.8,0.0
08/07/2015,-,24.5,16.5,0.0
09/07/2015,-,27.0,14.0,0.0
10/07/2015,-,33.0,12.0,0.0
11/07/2015,-,25.5,17.0,0.0
12/07/2015,-,28.7,17.0,0.0
13/07/2015,-,31.0,12.5,0.0
14/07/2015,-,34.0,14.0,0.0
15/07/2015,-,34.3,16.0,0.0
16/07/2015,-,33.0,19.0,0.0
17/07/2015,-,34.0,16.0,1.0
18/07/2015,-,34.5,18.0,6.0
19/07/2015,-,32.0,17.8,0.0
20/07/2015,-,36.0,16.8,0.0
21/07/2015,-,32.5,19.0,26.0
22/07/2015,-,24.0,19.0,0.0
23/07/2015,-,32.5,16.5,0.0
24/07/2015,-,31.0,15.8,0.0
25/07/2015,-,23.0,15.0,0.0
26/07/2015,-,34.0,10.0,0.0
27/07/2015,-,24.0,15.0,0.0
28/07/2015,-,32.0,16.0,0.0
29/07/2015,-,25.8,14.5,13.0
30/07/2015,-,17.5,13.0,3.0
31/07/2015,-,21.2,13.5,0.5
01/08/2015,-,23.8,12.5,0.0
02/08/2015,-,32.0,11.5,0.0
03/08/2015,-,32.0,15.0,6.5
04/08/2015,-,26.0,18.0,0.0
05/08/2015,-,31.0,16.0,0.0
06/08/2015,-,34.0,14.0,0.0
07/08/2015,-,24.5,16.2,0.5
08/08/2015,-,18.0,14.5,0.0
09/08/2015,-,22.5,13.0,0.0
10/08/2015,-,32.0,11.0,0.0
11/08/2015,-,32.0,14.0,0.0
12/08/2015,-,32.0,18.7,0.0
13/08/2015,-,26.0,18.0,0.0
14/08/2015,-,20.0,14.5,0.0
15/08/2015,-,21.5,14.0,0.0
16/08/2015,-,26.0,8.5,0.0
17/08/2015,-,23.0,10.5,0.0
18/08/2015,-,23.5,11.5,0.0
19/08/2015,-,27.3,9.0,0.0
20/08/2015,-,33.0,10.0,0.0
21/08/2015,-,34.0,12.5,0.0
22/08/2015,-,30.5,18.0,4.0
23/08/2015,-,25.0,16.0,0.0
24/08/2015,-,23.0,12.5,0.0
25/08/2015,-,28.8,9.0,0.0
26/08/2015,-,33.0,13.8,0.0
27/08/2015,-,31.0,14.0,0.0
28/08/2015,-,34.5,16.0,0.0
29/08/2015,-,34.0,19.5,0.0
30/08/2015,-,32.0,21.5,5.5
31/08/2015,-,26.5,18.5,39.0
01/09/2015,-,19.5,16.0,0.0
02/09/2015,-,22.0,11.0,12.3
03/09/2015,-,17.5,12.0,0.0
04/09/2015,-,18.0,13.0,0.0
05/09/2015,-,19.8,9.5,0.0
06/09/2015,-,21.0,7.5,0.0
07/09/2015,-,20.0,8.0,0.0
08/09/2015,-,23.0,7.0,0.0
09/09/2015,-,24.0,10.0,0.0
10/09/2015,-,23.0,10.5,0.0
11/09/2015,-,26.0,10.2,0.0
12/09/2015,-,25.5,12.5,0.0
13/09/2015,-,21.0,16.0,0.0
14/09/2015,-,21.0,13.0,0.0
15/09/2015,-,18.5,13.0,2.0
16/09/2015,-,20.0,11.8,2.0
17/09/2015,-,16.5,11.0,4.0
18/09/2015,-,20.0,7.0,0.0
19/09/2015,-,21.0,7.0,0.0
20/09/2015,-,23.0,7.5,0.0
21/09/2015,-,24.0,8.0,0.0
22/09/2015,-,19.0,10.0,0.0
23/09/2015,-,15.0,11.5,1.0
24/09/2015,-,21.5,12.0,0.0
25/09/2015,-,25.5,9.0,0.0
26/09/2015,-,25.5,10.8,0.0
27/09/2015,-,21.0,10.2,0.0
28/09/2015,-,22.8,5.8,0.0
29/09/2015,-,22.0,7.0,0.0
30/09/2015,-,20.0,7.8,0.0
01/10/2015,-,23.8,8.5,0.0
02/10/2015,-,16.5,8.2,0.0
03/10/2015,-,19.7,5.0,0.0
04/10/2015,-,18.0,7.5,1.7
05/10/2015,-,24.7,10.8,0.0
06/10/2015,-,22.0,15.0,0.0
07/10/2015,-,19.0,9.0,0.0
08/10/2015,-,18.0,10.0,0.0
09/10/2015,-,22.0,3.0,0.0
10/10/2015,-,20.0,7.0,0.0
11/10/2015,-,19.0,9.0,0.0
12/10/2015,-,19.0,11.0,9.0
13/10/2015,-,12.0,10.0,0.0
14/10/2015,-,12.0,6.0,0.0
15/10/2015,-,15.0,0.8,0.0
16/10/2015,-,13.0,0.0,0.0
17/10/2015,-,18.0,3.2,2.0
18/10/2015,-,14.5,10.0,0.0
19/10/2015,-,14.5,13.0,14.0
20/10/2015,-,11.5,11.0,0.0
21/10/2015,-,12.2,7.2,0.0
22/10/2015,-,11.8,6.8,0.0
23/10/2015,-,21.0,4.0,0.0
24/10/2015,-,17.0,4.0,0.0
25/10/2015,-,18.8,10.0,0.0
26/10/2015,-,18.5,11.8,1.0
27/10/2015,-,16.0,13.0,3.0
28/10/2015,-,16.0,6.5,0.0
29/10/2015,-,19.0,7.8,0.0
30/10/2015,-,20.0,9.5,0.0
31/10/2015,-,17.8,13.0,0.0
01/11/2015,-,16.0,11.7,1.0
02/11/2015,-,12.5,11.8,16.0
03/11/2015,-,16.0,11.0,0.0
04/11/2015,-,16.5,7.0,0.0
05/11/2015,-,16.0,7.5,0.0
06/11/2015,-,21.0,11.0,0.0
07/11/2015,-,20.0,9.0,0.0
08/11/2015,-,19.3,10.0,0.0
09/11/2015,-,20.0,11.0,0.0
10/11/2015,-,19.7,5.5,0.0
11/11/2015,-,15.2,3.0,0.0
12/11/2015,-,11.0,3.8,0.0
13/11/2015,-,14.5,4.5,0.0
14/11/2015,-,19.0,6.9,0.0
15/11/2015,-,17.5,1.0,0.0
16/11/2015,-,19.5,2.2,0.0
17/11/2015,-,16.5,2.3,0.0
18/11/2015,-,20.0,5.2,0.0
19/11/2015,-,19.5,7.0,0.0
20/11/2015,-,16.0,7.0,9.0
21/11/2015,-,8.0,7.0,32.0
22/11/2015,-,5.0,1.0,2.0
23/11/2015,-,6.0,0.6,3.0
24/11/2015,-,8.0,2.5,4.7
25/11/2015,-,11.0,6.6,3.0
26/11/2015,-,10.2,7.5,2.0
27/11/2015,-,9.5,7.5,0.0
28/11/2015,-,9.0,7.0,0.0
29/11/2015,-,12.5,2.2,0.0
30/11/2015,-,13.2,-0.8,0.0
01/12/2015,-,11.5,-3.0,0.0
02/12/2015,-,15.0,-2.2,0.0
03/12/2015,-,9.0,0.0,0.0
04/12/2015,-,15.0,0.3,0.0
05/12/2015,-,14.0,3.0,0.0
06/12/2015,-,11.5,4.0,0.0
07/12/2015,-,11.5,6.0,0.0
08/12/2015,-,11.0,7.0,0.0
09/12/2015,-,14.0,6.2,0.0
10/12/2015,-,8.0,1.2,0.0
11/12/2015,-,5.8,5.0,0.0
12/12/2015,-,4.5,3.5,0.0
13/12/2015,-,5.0,3.0,0.0
14/12/2015,-,6.1,3.0,0.3
15/12/2015,-,9.0,3.2,0.0
16/12/2015,-,15.0,5.0,0.0
17/12/2015,-,14.0,1.7,0.0
18/12/2015,-,14.0,2.3,0.0
19/12/2015,-,12.8,2.0,0.0
20/12/2015,-,12.8,4.8,0.0
21/12/2015,-,13.0,5.0,0.0
22/12/2015,-,7.0,-1.0,0.0
23/12/2015,-,8.2,-1.0,0.0
24/12/2015,-,6.0,0.5,0.0
25/12/2015,-,6.4,4.8,0.0
26/12/2015,-,5.5,3.1,0.0
27/12/2015,-,17.0,2.2,0.0
