Fecha, Temperatura media, Temperatura maxima, Temperatura minima, Precipitacion acumulada
01/01/2010,-,7.4,2.2,0.0
02/01/2010,-,7.4,0.6,0.0
03/01/2010,-,6.0,2.0,10.9
04/01/2010,-,7.4,4.5,2.2
05/01/2010,-,7.2,5.0,0.0
06/01/2010,-,7.0,-1.2,0.0
07/01/2010,-,3.0,-1.0,0.0
08/01/2010,-,-1.0,-2.0,0.0
09/01/2010,-,-0.5,-2.5,0.2
10/01/2010,-,3.0,-2.0,0.0
11/01/2010,-,3.5,-2.2,0.0
12/01/2010,-,3.0,-2.5,12.3
13/01/2010,-,6.5,-2.5,20.3
14/01/2010,-,6.5,0.0,25.3
15/01/2010,-,11.0,2.3,0.0
16/01/2010,-,7.8,2.5,2.9
17/01/2010,-,11.0,3.5,0.0
18/01/2010,-,8.2,2.9,0.4
19/01/2010,-,11.0,3.8,0.0
20/01/2010,-,11.0,4.4,0.0
21/01/2010,-,9.9,1.8,0.0
22/01/2010,-,11.3,-2.0,0.0
23/01/2010,-,7.5,-1.5,0.0
24/01/2010,-,9.0,3.8,0.4
25/01/2010,-,7.0,2.8,0.0
26/01/2010,-,7.2,-4.0,0.0
27/01/2010,-,3.4,-2.5,0.0
28/01/2010,-,7.3,-2.0,0.0
29/01/2010,-,7.0,2.8,9.0
30/01/2010,-,3.7,2.0,3.7
31/01/2010,-,3.3,1.0,0.4
01/02/2010,-,3.2,-2.0,0.0
02/02/2010,-,7.5,-2.3,0.0
03/02/2010,-,11.0,-4.0,0.0
04/02/2010,-,7.5,-2.5,6.6
05/02/2010,-,11.3,2.0,0.0
06/02/2010,-,8.0,2.3,3.4
07/02/2010,-,10.0,3.5,1.3
08/02/2010,-,4.5,2.2,5.1
09/02/2010,-,4.0,3.0,0.2
10/02/2010,-,3.2,1.4,0.0
11/02/2010,-,-1.0,-3.0,1.2
12/02/2010,-,2.0,-2.8,0.0
13/02/2010,-,1.5,-7.0,0.0
14/02/2010,-,3.3,-5.8,0.0
15/02/2010,-,3.0,-7.0,0.4
16/02/2010,-,6.8,-5.0,19.0
17/02/2010,-,7.3,2.0,11.7
18/02/2010,-,11.0,2.2,0.0
19/02/2010,-,7.3,4.0,0.0
20/02/2010,-,10.5,-2.4,0.0
21/02/2010,-,7.5,-1.3,2.5
22/02/2010,-,11.0,2.5,4.8
23/02/2010,-,14.5,6.7,0.2
24/02/2010,-,11.3,6.0,2.4
25/02/2010,-,11.5,6.2,0.6
26/02/2010,-,11.5,5.2,0.4
27/02/2010,-,15.5,6.0,4.0
28/02/2010,-,15.5,6.5,1.2
01/03/2010,-,14.5,5.5,0.0
02/03/2010,-,15.3,1.5,2.5
03/03/2010,-,6.5,2.3,4.2
04/03/2010,-,10.0,5.5,0.1
05/03/2010,-,14.4,4.5,0.0
06/03/2010,-,11.8,2.5,0.0
07/03/2010,-,11.0,1.3,0.0
08/03/2010,-,2.8,-2.0,0.0
09/03/2010,-,3.5,-1.5,0.0
10/03/2010,-,2.5,-2.0,0.0
11/03/2010,-,3.3,-2.0,0.0
12/03/2010,-,7.5,-2.8,0.0
13/03/2010,-,11.5,1.0,0.0
14/03/2010,-,10.0,-2.5,0.0
15/03/2010,-,15.5,-5.0,0.0
16/03/2010,-,15.5,-3.0,0.0
17/03/2010,-,19.8,-2.5,0.0
18/03/2010,-,15.5,5.8,0.0
19/03/2010,-,19.5,6.0,1.8
20/03/2010,-,19.5,11.3,1.0
21/03/2010,-,15.5,9.8,0.0
22/03/2010,-,19.7,7.8,0.0
23/03/2010,-,19.8,1.7,1.0
24/03/2010,-,15.5,2.5,7.6
25/03/2010,-,14.8,10.0,11.5
26/03/2010,-,11.5,2.0,0.4
27/03/2010,-,15.4,3.0,0.0
28/03/2010,-,15.5,3.0,0.0
29/03/2010,-,18.5,5.0,3.5
30/03/2010,-,13.5,5.5,2.0
31/03/2010,-,14.8,1.8,1.8
01/04/2010,-,11.4,2.3,0.0
02/04/2010,-,15.0,1.8,0.0
03/04/2010,-,14.0,6.0,3.8
04/04/2010,-,11.2,6.0,0.2
05/04/2010,-,17.3,-1.0,0.0
06/04/2010,-,19.8,2.2,0.0
07/04/2010,-,11.0,6.0,0.0
08/04/2010,-,15.0,6.5,0.0
09/04/2010,-,19.5,1.8,0.0
10/04/2010,-,23.0,2.5,0.0
11/04/2010,-,19.5,3.0,0.0
12/04/2010,-,15.5,5.0,0.0
13/04/2010,-,15.5,1.7,0.0
14/04/2010,-,11.1,4.0,0.0
15/04/2010,-,11.5,5.5,0.0
16/04/2010,-,19.5,6.0,0.0
17/04/2010,-,19.0,8.4,0.5
18/04/2010,-,19.0,9.0,0.2
19/04/2010,-,19.5,10.0,0.0
20/04/2010,-,23.7,6.3,0.0
21/04/2010,-,23.5,8.3,4.2
22/04/2010,-,15.5,11.4,1.0
23/04/2010,-,17.5,10.0,0.0
24/04/2010,-,23.5,6.0,0.0
25/04/2010,-,23.5,7.5,0.0
26/04/2010,-,27.0,6.5,0.0
27/04/2010,-,27.0,8.5,0.0
28/04/2010,-,27.5,10.0,0.0
29/04/2010,-,27.5,14.0,1.6
30/04/2010,-,23.5,10.2,15.8
01/05/2010,-,15.5,11.5,0.0
02/05/2010,-,15.0,6.4,0.0
03/05/2010,-,11.2,7.8,5.8
04/05/2010,-,6.9,4.3,1.0
05/05/2010,-,7.3,5.8,0.6
06/05/2010,-,11.3,5.9,0.0
07/05/2010,-,15.2,1.5,2.2
08/05/2010,-,15.4,5.4,12.6
09/05/2010,-,15.6,10.3,3.5
10/05/2010,-,19.5,6.7,1.2
11/05/2010,-,18.5,6.0,0.7
12/05/2010,-,15.5,6.8,0.0
13/05/2010,-,11.2,7.8,0.0
14/05/2010,-,15.0,6.4,0.3
15/05/2010,-,11.6,7.0,0.0
16/05/2010,-,15.5,6.8,0.0
17/05/2010,-,19.5,6.3,0.0
18/05/2010,-,23.4,4.2,0.0
19/05/2010,-,19.4,9.3,0.0
20/05/2010,-,27.2,7.0,0.0
21/05/2010,-,27.6,6.8,0.0
22/05/2010,-,27.5,10.7,0.0
23/05/2010,-,27.5,10.5,0.0
24/05/2010,-,27.5,14.0,0.0
25/05/2010,-,27.5,14.5,0.0
26/05/2010,-,23.7,14.0,0.0
27/05/2010,-,23.0,9.8,0.7
28/05/2010,-,19.5,12.0,0.0
29/05/2010,-,23.5,6.0,0.0
30/05/2010,-,23.5,11.2,0.0
31/05/2010,-,26.5,16.3,0.0
01/06/2010,-,27.0,11.5,0.0
02/06/2010,-,23.8,14.5,0.0
03/06/2010,-,27.5,6.8,0.0
04/06/2010,-,30.0,10.0,0.0
05/06/2010,-,34.0,13.8,8.8
06/06/2010,-,19.5,14.5,2.1
07/06/2010,-,27.0,14.2,0.6
08/06/2010,-,25.8,15.0,4.8
09/06/2010,-,18.5,14.0,1.2
10/06/2010,-,19.5,14.2,2.7
11/06/2010,-,18.2,11.5,20.0
12/06/2010,-,19.8,12.4,2.2
13/06/2010,-,23.4,11.0,0.0
14/06/2010,-,19.0,12.2,0.0
15/06/2010,-,19.5,8.5,0.0
16/06/2010,-,15.5,10.0,16.0
17/06/2010,-,15.4,10.0,0.0
18/06/2010,-,19.5,9.9,0.0
19/06/2010,-,18.4,13.0,0.4
20/06/2010,-,15.5,10.3,0.0
21/06/2010,-,20.4,10.8,0.0
22/06/2010,-,26.5,10.0,0.0
23/06/2010,-,27.3,11.7,0.0
24/06/2010,-,31.4,9.3,0.0
25/06/2010,-,31.7,14.5,0.0
26/06/2010,-,30.3,16.0,0.0
27/06/2010,-,31.2,18.7,1.2
28/06/2010,-,31.0,15.2,0.0
29/06/2010,-,30.5,15.3,0.0
30/06/2010,-,31.7,14.6,0.0
01/07/2010,-,35.3,14.8,0.8
02/07/2010,-,27.7,17.8,0.0
03/07/2010,-,31.4,18.6,0.0
04/07/2010,-,29.0,16.0,0.0
05/07/2010,-,27.5,14.8,0.0
06/07/2010,-,30.0,12.0,0.0
07/07/2010,-,35.3,11.0,0.0
08/07/2010,-,37.4,18.5,0.0
09/07/2010,-,34.0,25.8,0.0
10/07/2010,-,34.6,14.5,0.0
11/07/2010,-,39.0,19.5,2.2
12/07/2010,-,35.3,18.8,0.0
13/07/2010,-,35.5,15.0,0.0
14/07/2010,-,33.2,18.5,0.0
15/07/2010,-,31.5,11.0,0.0
16/07/2010,-,31.5,18.0,0.0
17/07/2010,-,27.5,14.5,0.0
18/07/2010,-,35.2,10.5,0.0
19/07/2010,-,35.3,14.3,0.0
20/07/2010,-,35.2,15.0,20.8
21/07/2010,-,26.4,17.5,46.0
22/07/2010,-,23.0,14.3,1.9
23/07/2010,-,22.0,14.3,0.0
24/07/2010,-,23.5,10.0,0.0
25/07/2010,-,23.5,15.0,0.0
26/07/2010,-,24.3,18.0,0.0
27/07/2010,-,31.3,11.8,0.0
28/07/2010,-,31.3,14.0,0.0
29/07/2010,-,26.0,18.5,0.0
30/07/2010,-,27.0,14.2,0.0
31/07/2010,-,35.0,14.0,0.0
01/08/2010,-,34.0,16.5,0.0
02/08/2010,-,19.5,17.5,0.0
03/08/2010,-,23.5,14.5,0.0
04/08/2010,-,23.5,14.1,0.0
05/08/2010,-,23.5,15.0,0.0
06/08/2010,-,27.7,10.0,0.0
07/08/2010,-,35.0,10.2,0.0
08/08/2010,-,31.5,14.5,1.1
09/08/2010,-,27.4,18.5,0.0
10/08/2010,-,31.5,12.0,0.0
11/08/2010,-,30.5,11.0,0.0
12/08/2010,-,22.8,18.2,0.0
13/08/2010,-,23.5,14.5,0.0
14/08/2010,-,23.0,14.5,0.0
15/08/2010,-,23.5,13.8,0.0
16/08/2010,-,27.5,10.0,0.0
17/08/2010,-,31.3,10.0,0.0
18/08/2010,-,31.3,14.0,0.0
19/08/2010,-,27.5,18.0,1.8
20/08/2010,-,34.8,14.3,0.0
21/08/2010,-,36.0,16.4,0.0
22/08/2010,-,36.0,15.5,0.0
23/08/2010,-,35.0,18.0,0.0
24/08/2010,-,27.2,18.8,0.0
25/08/2010,-,35.0,14.0,0.0
26/08/2010,-,39.0,22.0,0.0
27/08/2010,-,31.5,18.8,0.0
28/08/2010,-,23.5,18.0,0.0
29/08/2010,-,27.0,10.0,0.0
30/08/2010,-,23.5,10.5,0.0
31/08/2010,-,27.5,9.0,0.0
01/09/2010,-,30.8,14.0,0.0
02/09/2010,-,23.5,16.0,24.0
03/09/2010,-,30.0,14.0,0.0
04/09/2010,-,31.2,10.2,0.0
05/09/2010,-,34.2,10.8,0.0
06/09/2010,-,31.5,15.8,0.0
07/09/2010,-,23.5,17.9,0.7
08/09/2010,-,23.0,10.5,0.0
09/09/2010,-,19.5,14.0,0.0
10/09/2010,-,27.5,10.0,0.0
11/09/2010,-,31.8,10.8,0.0
12/09/2010,-,23.5,12.0,0.0
13/09/2010,-,25.2,10.0,0.0
14/09/2010,-,27.5,10.0,0.0
15/09/2010,-,30.2,11.8,0.0
16/09/2010,-,18.8,15.2,0.4
17/09/2010,-,22.8,14.0,0.2
18/09/2010,-,19.5,13.2,0.0
19/09/2010,-,26.0,5.8,0.0
20/09/2010,-,27.0,7.0,7.4
21/09/2010,-,27.5,13.0,0.0
22/09/2010,-,27.5,11.3,0.0
23/09/2010,-,23.5,12.2,6.0
24/09/2010,-,18.5,14.8,0.0
25/09/2010,-,15.5,11.5,0.0
26/09/2010,-,15.3,10.3,0.0
27/09/2010,-,19.5,2.2,0.0
28/09/2010,-,19.5,3.0,0.0
29/09/2010,-,26.8,5.5,0.0
30/09/2010,-,21.8,6.0,0.0
01/10/2010,-,26.0,9.0,0.0
02/10/2010,-,27.5,9.8,0.0
03/10/2010,-,23.5,17.8,10.7
04/10/2010,-,15.5,11.8,0.0
05/10/2010,-,23.3,6.0,0.0
06/10/2010,-,25.0,9.0,0.0
07/10/2010,-,23.5,11.0,0.0
08/10/2010,-,23.5,18.0,0.0
09/10/2010,-,22.8,18.2,36.8
10/10/2010,-,14.8,11.8,19.0
11/10/2010,-,18.0,10.8,3.0
12/10/2010,-,19.5,10.2,0.0
13/10/2010,-,19.4,10.5,0.0
14/10/2010,-,15.0,7.2,0.0
15/10/2010,-,15.0,6.0,0.0
16/10/2010,-,14.0,6.0,0.0
17/10/2010,-,13.3,10.0,0.0
18/10/2010,-,11.4,6.0,0.0
19/10/2010,-,15.5,4.8,0.0
20/10/2010,-,14.8,3.0,0.0
21/10/2010,-,17.5,2.0,0.0
22/10/2010,-,15.5,2.5,0.0
23/10/2010,-,17.5,6.8,0.0
24/10/2010,-,15.2,7.0,1.8
25/10/2010,-,11.0,6.8,0.0
26/10/2010,-,15.5,5.0,0.0
27/10/2010,-,19.5,2.0,0.0
28/10/2010,-,22.5,2.0,0.0
29/10/2010,-,19.5,6.2,4.3
30/10/2010,-,10.5,6.5,3.2
31/10/2010,-,11.8,9.5,9.2
01/11/2010,-,15.0,10.0,0.6
02/11/2010,-,15.3,10.0,0.0
03/11/2010,-,18.5,10.0,0.0
04/11/2010,-,19.5,6.8,0.0
05/11/2010,-,19.3,8.8,0.0
06/11/2010,-,15.5,6.1,0.6
07/11/2010,-,11.0,7.0,3.0
08/11/2010,-,5.5,4.0,9.7
09/11/2010,-,11.3,5.0,0.5
10/11/2010,-,7.5,5.8,2.4
11/11/2010,-,11.2,5.2,0.0
12/11/2010,-,18.5,5.8,0.0
13/11/2010,-,15.5,6.0,0.0
14/11/2010,-,11.5,6.5,4.3
15/11/2010,-,11.2,5.5,3.5
16/11/2010,-,11.2,5.8,0.0
17/11/2010,-,7.0,1.8,0.6
18/11/2010,-,11.0,-0.3,0.0
19/11/2010,-,7.4,1.7,13.7
20/11/2010,-,7.2,3.7,6.1
21/11/2010,-,7.2,5.8,10.3
22/11/2010,-,6.0,4.3,0.7
23/11/2010,-,7.3,2.5,0.0
24/11/2010,-,7.4,1.5,0.0
25/11/2010,-,7.2,-0.4,1.8
26/11/2010,-,7.0,1.8,0.0
27/11/2010,-,3.4,-2.5,0.0
28/11/2010,-,3.4,-3.0,0.0
29/11/2010,-,3.0,-4.2,0.2
30/11/2010,-,5.5,-2.5,0.1
01/12/2010,-,3.5,1.5,4.3
02/12/2010,-,3.2,0.0,1.5
03/12/2010,-,3.0,-2.0,5.0
04/12/2010,-,7.0,-2.5,0.0
05/12/2010,-,10.3,0.5,6.4
06/12/2010,-,15.3,6.0,8.3
07/12/2010,-,14.5,10.8,4.8
08/12/2010,-,18.0,10.5,2.3
09/12/2010,-,7.5,6.5,0.0
10/12/2010,-,9.5,-1.0,0.0
11/12/2010,-,7.3,-2.5,0.0
12/12/2010,-,10.5,-2.2,0.0
13/12/2010,-,11.2,0.3,0.0
14/12/2010,-,7.2,1.8,0.0
15/12/2010,-,2.5,-1.5,0.0
16/12/2010,-,3.2,-2.6,0.0
17/12/2010,-,3.2,-2.3,0.0
18/12/2010,-,7.2,-4.5,0.0
19/12/2010,-,7.5,-1.5,0.0
20/12/2010,-,7.3,-2.5,1.6
21/12/2010,-,10.0,1.9,7.6
22/12/2010,-,11.5,5.8,8.2
23/12/2010,-,6.5,6.0,1.5
24/12/2010,-,4.5,1.5,0.4
25/12/2010,-,-0.5,-1.5,0.0
26/12/2010,-,3.3,-6.5,0.0
27/12/2010,-,6.5,-6.0,0.0
