Fecha, Temperatura media, Temperatura maxima, Temperatura minima, Precipitacion acumulada
01/01/2019,-,9.0,2.0,0.8
02/01/2019,-,3.0,2.0,0.1
03/01/2019,-,7.0,-2.0,0.0
04/01/2019,-,7.0,-2.5,0.0
05/01/2019,-,12.0,0.0,0.0
06/01/2019,-,4.0,1.0,0.0
07/01/2019,-,2.0,1.0,0.1
08/01/2019,-,5.0,-1.0,11.0
09/01/2019,-,6.0,1.0,5.0
10/01/2019,-,2.0,-1.0,0.0
11/01/2019,-,5.0,-2.0,0.0
12/01/2019,-,5.0,-1.0,2.5
13/01/2019,-,6.0,2.0,14.8
14/01/2019,-,8.0,4.0,8.6
15/01/2019,-,12.0,4.0,0.0
16/01/2019,-,14.0,4.0,6.5
17/01/2019,-,7.0,4.0,9.5
18/01/2019,-,5.0,2.0,2.0
19/01/2019,-,7.0,2.0,5.5
20/01/2019,-,6.0,2.0,44.0
21/01/2019,-,3.0,1.0,11.0
22/01/2019,-,5.0,1.0,70.8
23/01/2019,-,5.0,0.0,109.0
24/01/2019,-,6.0,0.0,36.6
25/01/2019,-,7.0,0.0,35.0
26/01/2019,-,10.0,5.0,2.2
27/01/2019,-,5.0,4.0,51.0
28/01/2019,-,5.0,2.0,49.0
29/01/2019,-,5.0,3.0,37.6
30/01/2019,-,5.0,0.0,30.8
31/01/2019,-,10.0,0.0,39.0
01/02/2019,-,8.0,4.0,38.2
02/02/2019,-,2.0,1.0,26.5
03/02/2019,-,2.0,0.0,4.0
04/02/2019,-,8.0,-2.0,13.6
05/02/2019,-,8.0,-1.0,6.0
06/02/2019,-,16.0,5.0,0.0
07/02/2019,-,7.0,5.0,0.9
08/02/2019,-,12.0,3.0,0.0
09/02/2019,-,14.0,5.0,1.5
10/02/2019,-,9.0,5.0,17.5
11/02/2019,-,6.0,4.0,12.6
12/02/2019,-,11.0,1.0,0.0
13/02/2019,-,14.0,1.0,0.0
14/02/2019,-,13.0,5.0,0.0
15/02/2019,-,15.0,8.0,0.0
16/02/2019,-,14.0,8.0,0.0
17/02/2019,-,16.0,8.0,0.0
18/02/2019,-,13.0,7.0,0.0
19/02/2019,-,14.0,4.0,0.0
20/02/2019,-,15.0,5.0,0.0
21/02/2019,-,15.0,8.0,0.0
22/02/2019,-,20.0,8.0,0.0
23/02/2019,-,18.0,8.0,0.0
24/02/2019,-,18.0,5.0,0.0
25/02/2019,-,21.0,7.0,0.0
26/02/2019,-,19.0,8.0,0.0
27/02/2019,-,24.0,11.0,0.0
28/02/2019,-,12.0,7.0,0.0
01/03/2019,-,14.0,5.0,0.0
02/03/2019,-,14.0,6.0,0.0
03/03/2019,-,18.0,8.0,1.0
04/03/2019,-,7.5,7.0,0.6
05/03/2019,-,14.0,5.0,0.0
06/03/2019,-,14.0,9.0,9.0
07/03/2019,-,12.0,3.0,8.0
08/03/2019,-,9.0,3.0,3.0
09/03/2019,-,15.0,4.0,1.0
10/03/2019,-,11.0,7.0,4.5
11/03/2019,-,9.0,4.0,0.5
12/03/2019,-,17.0,3.0,13.5
13/03/2019,-,6.0,3.0,24.0
14/03/2019,-,7.0,3.0,1.7
15/03/2019,-,11.0,3.0,0.0
16/03/2019,-,22.0,4.0,0.0
17/03/2019,-,7.0,5.0,13.5
18/03/2019,-,8.0,3.0,29.5
19/03/2019,-,6.0,2.0,5.5
20/03/2019,-,10.0,3.0,0.0
21/03/2019,-,13.0,1.0,0.0
22/03/2019,-,17.0,1.0,0.0
23/03/2019,-,21.0,7.0,0.0
24/03/2019,-,18.0,4.0,0.0
25/03/2019,-,11.0,5.0,0.0
26/03/2019,-,13.0,1.0,0.0
27/03/2019,-,14.0,1.0,0.0
28/03/2019,-,14.0,2.0,0.0
29/03/2019,-,17.0,3.0,0.0
30/03/2019,-,17.0,8.0,0.0
31/03/2019,-,17.0,8.0,2.0
01/04/2019,-,18.0,7.0,0.7
02/04/2019,-,14.0,8.0,9.0
03/04/2019,-,10.0,4.0,16.0
04/04/2019,-,10.0,0.0,1.0
05/04/2019,-,14.0,0.0,10.5
06/04/2019,-,11.0,3.0,0.9
07/04/2019,-,11.0,3.0,1.0
08/04/2019,-,14.0,3.0,4.0
09/04/2019,-,14.0,5.0,4.0
10/04/2019,-,10.0,5.0,13.8
11/04/2019,-,7.0,5.0,12.5
12/04/2019,-,11.0,5.0,0.0
13/04/2019,-,18.0,3.0,0.0
14/04/2019,-,15.0,4.0,0.5
15/04/2019,-,20.0,10.0,25.0
16/04/2019,-,17.0,6.0,0.0
17/04/2019,-,18.0,6.0,0.0
18/04/2019,-,15.0,10.0,0.0
19/04/2019,-,18.0,9.0,0.0
20/04/2019,-,18.0,10.0,0.0
21/04/2019,-,13.0,6.0,0.8
22/04/2019,-,17.0,6.0,0.0
23/04/2019,-,17.0,7.0,4.0
24/04/2019,-,9.0,6.0,14.5
25/04/2019,-,14.0,6.0,2.0
26/04/2019,-,10.0,6.0,4.0
27/04/2019,-,11.0,5.0,1.4
28/04/2019,-,14.0,5.0,0.0
29/04/2019,-,18.0,4.0,0.0
30/04/2019,-,17.0,4.0,0.0
01/05/2019,-,18.0,5.0,1.0
02/05/2019,-,11.0,7.0,3.8
03/05/2019,-,7.0,5.0,12.5
04/05/2019,-,11.0,5.0,6.5
05/05/2019,-,10.0,0.0,0.0
06/05/2019,-,19.0,0.0,0.0
07/05/2019,-,22.0,1.0,0.0
08/05/2019,-,18.0,10.0,0.8
09/05/2019,-,18.0,7.0,11.2
10/05/2019,-,22.0,7.0,2.0
11/05/2019,-,13.0,8.0,0.0
12/05/2019,-,16.0,6.0,0.0
13/05/2019,-,17.0,6.0,0.0
14/05/2019,-,20.0,6.0,0.0
15/05/2019,-,21.0,7.0,0.0
16/05/2019,-,21.0,9.0,33.5
17/05/2019,-,9.0,6.0,30.0
18/05/2019,-,7.0,4.0,72.0
19/05/2019,-,8.0,5.0,41.1
20/05/2019,-,13.0,6.0,0.0
21/05/2019,-,16.0,5.0,0.0
22/05/2019,-,21.0,7.0,0.0
23/05/2019,-,20.0,9.0,13.0
24/05/2019,-,11.0,9.0,13.6
25/05/2019,-,11.0,9.0,13.0
26/05/2019,-,12.0,8.0,8.0
27/05/2019,-,13.0,9.0,7.8
28/05/2019,-,11.0,8.0,11.0
29/05/2019,-,13.0,8.0,0.0
30/05/2019,-,22.0,6.0,0.0
31/05/2019,-,25.0,9.0,0.0
01/06/2019,-,28.0,10.0,0.0
02/06/2019,-,28.0,14.0,0.0
03/06/2019,-,24.0,12.0,0.0
04/06/2019,-,25.0,12.0,28.0
05/06/2019,-,10.0,8.0,10.6
06/06/2019,-,21.0,6.0,2.0
07/06/2019,-,17.0,8.0,0.0
08/06/2019,-,22.0,6.0,0.6
09/06/2019,-,17.0,9.0,5.5
10/06/2019,-,12.0,8.0,3.5
11/06/2019,-,10.0,6.0,6.6
12/06/2019,-,16.0,6.0,0.0
13/06/2019,-,19.0,6.0,2.2
14/06/2019,-,15.0,9.0,5.5
15/06/2019,-,17.0,9.0,0.0
16/06/2019,-,24.0,9.0,0.0
17/06/2019,-,28.0,10.0,0.0
18/06/2019,-,29.0,15.0,0.0
19/06/2019,-,22.0,14.0,2.0
20/06/2019,-,14.0,13.0,16.5
21/06/2019,-,19.0,10.0,1.5
22/06/2019,-,25.0,9.0,0.0
23/06/2019,-,28.0,16.0,0.0
24/06/2019,-,25.0,14.0,0.0
25/06/2019,-,27.0,14.0,0.0
26/06/2019,-,32.0,18.0,0.0
27/06/2019,-,32.0,23.0,0.0
28/06/2019,-,28.0,14.0,0.0
29/06/2019,-,34.0,16.0,0.0
30/06/2019,-,24.0,14.0,1.2
01/07/2019,-,16.0,14.0,2.6
02/07/2019,-,19.0,13.0,0.4
03/07/2019,-,26.0,14.0,1.1
04/07/2019,-,29.0,16.0,0.0
05/07/2019,-,28.0,21.0,0.0
06/07/2019,-,28.0,16.0,1.2
07/07/2019,-,22.0,15.0,2.5
08/07/2019,-,18.0,15.0,32.5
09/07/2019,-,18.0,14.0,3.5
10/07/2019,-,24.0,11.0,0.0
11/07/2019,-,25.0,12.0,0.0
12/07/2019,-,25.0,14.0,0.0
13/07/2019,-,22.0,13.0,0.0
14/07/2019,-,21.0,14.0,0.0
15/07/2019,-,21.0,14.0,0.0
16/07/2019,-,22.0,13.0,0.5
17/07/2019,-,21.0,13.0,1.0
18/07/2019,-,21.0,13.0,0.0
19/07/2019,-,29.0,12.0,0.7
20/07/2019,-,20.0,12.0,1.0
21/07/2019,-,23.0,16.0,0.5
22/07/2019,-,33.0,16.0,0.0
23/07/2019,-,34.0,16.0,0.1
24/07/2019,-,34.0,18.0,0.0
25/07/2019,-,34.0,18.0,4.8
26/07/2019,-,18.0,17.0,10.5
27/07/2019,-,15.0,13.0,16.5
28/07/2019,-,19.0,13.0,3.5
29/07/2019,-,25.0,13.0,0.6
30/07/2019,-,17.0,13.0,0.0
31/07/2019,-,21.0,10.0,26.0
01/08/2019,-,22.0,10.0,8.0
02/08/2019,-,22.0,13.0,0.0
03/08/2019,-,27.0,12.0,0.0
04/08/2019,-,21.0,13.0,1.1
05/08/2019,-,21.0,16.0,0.6
06/08/2019,-,25.0,16.0,6.0
07/08/2019,-,24.0,15.0,0.0
08/08/2019,-,30.0,15.0,0.0
09/08/2019,-,28.0,20.0,2.1
10/08/2019,-,19.0,14.0,7.0
11/08/2019,-,19.0,14.0,6.1
12/08/2019,-,16.0,11.0,1.8
13/08/2019,-,18.0,11.0,0.0
14/08/2019,-,24.0,10.0,4.5
15/08/2019,-,19.0,11.0,0.4
16/08/2019,-,28.0,10.0,0.0
17/08/2019,-,29.0,11.0,0.0
18/08/2019,-,23.0,15.0,5.2
19/08/2019,-,17.0,13.0,5.0
20/08/2019,-,17.0,12.0,0.4
21/08/2019,-,21.0,11.0,0.0
22/08/2019,-,24.0,12.0,0.0
23/08/2019,-,29.0,12.0,0.0
24/08/2019,-,31.0,17.0,0.0
25/08/2019,-,26.0,16.0,0.0
26/08/2019,-,28.0,16.0,13.0
27/08/2019,-,23.0,15.0,0.0
28/08/2019,-,26.0,15.0,0.0
29/08/2019,-,26.0,16.0,0.0
30/08/2019,-,28.0,14.0,0.0
31/08/2019,-,23.0,14.0,0.6
01/09/2019,-,21.0,14.0,6.6
02/09/2019,-,17.0,10.0,0.0
03/09/2019,-,21.0,9.0,0.0
04/09/2019,-,20.0,9.0,8.2
05/09/2019,-,15.0,10.0,0.0
06/09/2019,-,16.0,9.0,0.0
07/09/2019,-,18.0,9.0,3.9
08/09/2019,-,17.0,10.0,1.0
09/09/2019,-,17.0,7.0,11.8
10/09/2019,-,13.0,7.0,16.8
11/09/2019,-,19.0,8.0,0.0
12/09/2019,-,21.0,9.0,0.0
13/09/2019,-,25.0,9.0,0.0
14/09/2019,-,26.0,11.0,0.0
15/09/2019,-,24.0,16.0,1.0
16/09/2019,-,27.0,15.0,0.0
17/09/2019,-,26.0,16.0,0.0
18/09/2019,-,24.0,14.0,0.0
19/09/2019,-,23.0,14.0,0.0
20/09/2019,-,25.0,13.0,0.0
21/09/2019,-,22.0,16.0,10.0
22/09/2019,-,19.0,14.0,1.0
23/09/2019,-,19.0,10.0,0.0
24/09/2019,-,23.0,12.0,0.8
25/09/2019,-,17.0,10.0,0.0
26/09/2019,-,23.0,10.0,0.0
27/09/2019,-,22.0,10.0,1.2
28/09/2019,-,23.0,11.0,0.0
29/09/2019,-,26.0,12.0,0.0
30/09/2019,-,25.0,14.0,0.0
01/10/2019,-,18.0,14.0,12.0
02/10/2019,-,14.0,11.0,19.0
03/10/2019,-,19.0,10.0,0.0
04/10/2019,-,15.0,10.0,5.0
05/10/2019,-,15.0,11.0,0.3
06/10/2019,-,14.0,10.0,3.0
07/10/2019,-,18.0,10.0,0.0
08/10/2019,-,24.0,10.0,3.0
09/10/2019,-,14.0,11.0,1.0
10/10/2019,-,18.0,8.0,0.0
11/10/2019,-,24.0,8.0,0.0
12/10/2019,-,23.0,14.0,2.0
13/10/2019,-,24.0,17.0,0.0
14/10/2019,-,22.0,17.0,15.0
15/10/2019,-,15.0,6.0,0.0
16/10/2019,-,17.0,6.0,3.5
17/10/2019,-,18.0,10.0,0.4
18/10/2019,-,15.0,10.0,1.0
19/10/2019,-,17.0,11.0,17.0
20/10/2019,-,-,10.0,5.0
21/10/2019,-,13.0,5.0,0.5
22/10/2019,-,9.0,5.0,28.5
23/10/2019,-,14.0,6.0,12.0
24/10/2019,-,12.0,7.0,10.6
25/10/2019,-,21.0,7.0,0.0
26/10/2019,-,20.0,11.0,0.0
27/10/2019,-,19.0,14.0,0.0
28/10/2019,-,20.0,14.0,0.1
29/10/2019,-,21.0,12.0,0.0
30/10/2019,-,19.0,11.0,7.4
31/10/2019,-,14.0,12.0,8.5
01/11/2019,-,18.0,11.0,22.0
02/11/2019,-,14.0,13.0,31.5
03/11/2019,-,14.0,6.0,3.5
04/11/2019,-,14.0,7.0,16.0
05/11/2019,-,7.0,5.0,67.5
06/11/2019,-,9.0,5.0,27.8
07/11/2019,-,8.0,6.0,16.0
08/11/2019,-,6.0,2.0,78.0
09/11/2019,-,7.0,2.0,74.0
10/11/2019,-,4.0,1.0,35.0
11/11/2019,-,7.0,0.0,26.5
12/11/2019,-,7.0,5.0,12.5
13/11/2019,-,8.0,5.0,21.8
14/11/2019,-,8.0,1.0,3.0
15/11/2019,-,5.0,2.0,27.5
16/11/2019,-,4.0,0.0,36.5
17/11/2019,-,5.0,0.0,25.0
18/11/2019,-,5.0,2.0,1.0
19/11/2019,-,10.0,2.0,0.0
20/11/2019,-,8.0,2.0,1.5
21/11/2019,-,9.0,4.0,0.0
22/11/2019,-,10.0,5.0,20.0
23/11/2019,-,6.0,5.0,64.5
24/11/2019,-,8.0,5.0,6.0
25/11/2019,-,14.0,5.0,0.0
26/11/2019,-,14.0,7.0,0.8
27/11/2019,-,12.0,8.0,2.0
28/11/2019,-,12.0,7.0,6.0
29/11/2019,-,13.0,8.0,0.0
30/11/2019,-,11.0,8.0,22.5
01/12/2019,-,-,5.0,-
02/12/2019,-,-,-,-
03/12/2019,-,-,-,-
04/12/2019,-,-,-,-
05/12/2019,-,-,-,-
06/12/2019,-,-,-,-
07/12/2019,-,-,-,-
08/12/2019,-,-,-,-
09/12/2019,-,-,-,-
10/12/2019,-,-,-,-
11/12/2019,-,-,-,-
12/12/2019,-,-,-,-
13/12/2019,-,-,-,-
14/12/2019,-,-,-,-
15/12/2019,-,-,-,-
16/12/2019,-,-,-,-
17/12/2019,-,-,-,-
18/12/2019,-,-,-,-
19/12/2019,-,-,-,-
20/12/2019,-,-,-,-
21/12/2019,-,-,-,-
22/12/2019,-,-,-,-
23/12/2019,-,-,-,-
24/12/2019,-,-,-,-
25/12/2019,-,-,-,-
26/12/2019,-,-,-,-
27/12/2019,-,-,-,-
