Fecha, Temperatura media, Temperatura maxima, Temperatura minima, Precipitacion acumulada
01/01/2013,-,5.0,4.0,35.0
02/01/2013,-,6.0,5.0,5.0
03/01/2013,-,9.0,2.0,0.0
04/01/2013,-,14.0,2.0,0.0
05/01/2013,-,14.0,2.0,0.0
06/01/2013,-,10.0,2.0,0.0
07/01/2013,-,13.0,0.0,0.0
08/01/2013,-,11.0,2.0,0.0
09/01/2013,-,9.0,1.0,6.0
10/01/2013,-,12.0,3.0,8.0
11/01/2013,-,9.0,2.0,0.0
12/01/2013,-,8.0,3.0,14.5
13/01/2013,-,3.0,1.0,30.0
14/01/2013,-,4.0,0.0,88.0
15/01/2013,-,4.0,0.0,103.0
16/01/2013,-,7.0,1.0,67.0
17/01/2013,-,8.0,0.0,26.5
18/01/2013,-,13.0,0.0,19.5
19/01/2013,-,10.0,7.0,54.0
20/01/2013,-,4.0,2.0,12.0
21/01/2013,-,3.0,2.0,9.0
22/01/2013,-,5.0,1.0,12.6
23/01/2013,-,2.0,0.0,59.0
24/01/2013,-,3.0,0.0,35.1
25/01/2013,-,6.0,0.0,30.5
26/01/2013,-,10.0,0.0,11.0
27/01/2013,-,10.0,3.0,32.0
28/01/2013,-,10.0,3.0,0.0
29/01/2013,-,13.0,4.0,0.0
30/01/2013,-,17.0,3.0,1.5
31/01/2013,-,16.0,9.0,0.0
01/02/2013,-,13.0,8.0,53.0
02/02/2013,-,6.0,2.0,50.5
03/02/2013,-,5.0,-1.0,15.0
04/02/2013,-,7.0,-1.0,31.9
05/02/2013,-,10.0,5.0,22.1
06/02/2013,-,3.0,0.0,76.0
07/02/2013,-,2.0,0.0,40.0
08/02/2013,-,2.0,0.0,51.3
09/02/2013,-,4.0,-1.0,32.2
10/02/2013,-,6.0,0.0,16.2
11/02/2013,-,3.0,0.0,40.5
12/02/2013,-,2.0,0.0,49.8
13/02/2013,-,7.0,0.0,56.5
14/02/2013,-,7.0,2.0,7.1
15/02/2013,-,7.0,4.0,0.0
16/02/2013,-,9.0,1.0,0.0
17/02/2013,-,10.0,1.0,0.6
18/02/2013,-,10.0,6.0,0.0
19/02/2013,-,10.0,6.0,0.0
20/02/2013,-,14.0,5.0,0.0
21/02/2013,-,11.0,5.0,2.6
22/02/2013,-,6.0,2.0,1.0
23/02/2013,-,-2.0,-6.0,10.6
24/02/2013,-,-1.0,-6.0,8.0
25/02/2013,-,0.0,-3.0,25.5
26/02/2013,-,2.0,-3.0,8.1
27/02/2013,-,7.0,-3.0,0.0
28/02/2013,-,8.0,-3.0,1.1
01/03/2013,-,7.0,-1.0,0.0
02/03/2013,-,8.0,0.0,0.0
03/03/2013,-,13.0,0.0,0.0
04/03/2013,-,12.0,6.0,4.0
05/03/2013,-,12.0,6.0,1.1
06/03/2013,-,17.0,6.0,0.0
07/03/2013,-,14.0,8.0,11.7
08/03/2013,-,13.0,6.0,0.5
09/03/2013,-,14.0,6.0,0.0
10/03/2013,-,12.0,8.0,0.0
11/03/2013,-,13.0,5.0,35.5
12/03/2013,-,8.0,3.0,22.2
13/03/2013,-,0.0,-2.0,29.0
14/03/2013,-,1.0,-2.0,20.6
15/03/2013,-,6.0,-1.0,0.0
16/03/2013,-,6.0,-2.0,11.5
17/03/2013,-,6.0,5.0,5.6
18/03/2013,-,7.0,1.0,1.7
19/03/2013,-,11.0,1.0,6.7
20/03/2013,-,10.0,2.0,0.0
21/03/2013,-,15.0,2.0,0.0
22/03/2013,-,15.0,6.0,2.9
23/03/2013,-,14.0,6.0,0.0
24/03/2013,-,15.0,6.0,2.1
25/03/2013,-,10.0,5.0,20.5
26/03/2013,-,10.0,5.0,3.5
27/03/2013,-,12.0,6.0,13.0
28/03/2013,-,11.0,5.0,1.2
29/03/2013,-,15.0,5.0,42.0
30/03/2013,-,10.0,6.0,11.0
31/03/2013,-,14.0,5.0,15.0
01/04/2013,-,10.0,5.0,9.0
02/04/2013,-,10.0,6.0,13.6
03/04/2013,-,15.0,4.0,6.7
04/04/2013,-,7.0,5.0,6.1
05/04/2013,-,3.0,0.0,50.0
06/04/2013,-,2.0,0.0,6.0
07/04/2013,-,9.0,0.0,7.0
08/04/2013,-,10.0,1.0,0.5
09/04/2013,-,9.0,3.0,2.0
10/04/2013,-,16.0,5.0,0.0
11/04/2013,-,14.0,8.0,6.5
12/04/2013,-,16.0,6.0,0.3
13/04/2013,-,18.0,6.0,0.0
14/04/2013,-,21.0,12.0,1.6
15/04/2013,-,22.0,8.0,0.0
16/04/2013,-,21.0,8.0,0.0
17/04/2013,-,25.0,7.0,0.1
18/04/2013,-,12.0,7.0,16.5
19/04/2013,-,10.0,5.0,2.7
20/04/2013,-,10.0,4.0,0.0
21/04/2013,-,10.0,3.0,0.0
22/04/2013,-,10.0,3.0,2.4
23/04/2013,-,13.0,4.0,0.0
24/04/2013,-,20.0,5.0,0.0
25/04/2013,-,21.0,10.0,1.7
26/04/2013,-,11.0,10.0,19.0
27/04/2013,-,6.0,2.0,21.6
28/04/2013,-,7.0,0.0,11.6
29/04/2013,-,7.0,0.0,22.5
30/04/2013,-,10.0,2.0,9.0
01/05/2013,-,10.0,5.0,10.2
02/05/2013,-,8.0,5.0,21.6
03/05/2013,-,9.0,5.0,3.0
04/05/2013,-,14.0,5.0,0.0
05/05/2013,-,18.0,6.0,0.0
06/05/2013,-,23.0,7.0,1.7
07/05/2013,-,19.0,10.0,0.4
08/05/2013,-,15.0,12.0,4.0
09/05/2013,-,11.0,10.0,16.5
10/05/2013,-,10.0,7.0,0.6
11/05/2013,-,10.0,5.0,0.0
12/05/2013,-,9.0,6.0,0.0
13/05/2013,-,15.0,4.0,0.0
14/05/2013,-,19.0,6.0,9.5
15/05/2013,-,7.0,6.0,12.5
16/05/2013,-,9.0,4.0,1.3
17/05/2013,-,10.0,4.0,59.0
18/05/2013,-,6.0,3.0,31.0
19/05/2013,-,9.0,3.0,3.0
20/05/2013,-,10.0,4.0,0.5
21/05/2013,-,8.0,4.0,23.5
22/05/2013,-,10.0,5.0,33.5
23/05/2013,-,9.0,8.0,5.0
24/05/2013,-,9.0,4.0,12.5
25/05/2013,-,10.0,5.0,2.2
26/05/2013,-,18.0,2.0,0.0
27/05/2013,-,14.0,7.0,17.5
28/05/2013,-,8.0,5.0,11.5
29/05/2013,-,6.0,4.0,34.0
30/05/2013,-,9.0,4.0,18.0
31/05/2013,-,8.0,6.0,71.2
01/06/2013,-,9.0,7.0,11.0
02/06/2013,-,9.0,8.0,2.5
03/06/2013,-,15.0,7.0,0.0
04/06/2013,-,18.0,7.0,0.0
05/06/2013,-,24.0,7.0,0.0
06/06/2013,-,24.0,13.0,10.0
07/06/2013,-,21.0,11.0,39.0
08/06/2013,-,10.0,9.0,94.5
09/06/2013,-,16.0,10.0,33.0
10/06/2013,-,18.0,10.0,0.0
11/06/2013,-,21.0,10.0,0.0
12/06/2013,-,28.0,14.0,1.0
13/06/2013,-,19.0,13.0,3.0
14/06/2013,-,24.0,11.0,0.0
15/06/2013,-,18.0,9.0,0.0
16/06/2013,-,28.0,10.0,0.0
17/06/2013,-,20.0,13.0,3.5
18/06/2013,-,12.0,11.0,23.7
19/06/2013,-,13.0,9.0,8.5
20/06/2013,-,12.0,8.0,11.0
21/06/2013,-,14.0,10.0,2.5
22/06/2013,-,20.0,8.0,3.0
23/06/2013,-,12.0,8.0,2.0
24/06/2013,-,14.0,9.0,0.0
25/06/2013,-,14.0,8.0,0.0
26/06/2013,-,17.0,9.0,0.0
27/06/2013,-,17.0,9.0,0.0
28/06/2013,-,17.0,9.0,0.0
29/06/2013,-,16.0,8.0,0.0
30/06/2013,-,20.0,9.0,0.0
01/07/2013,-,18.0,11.0,0.0
02/07/2013,-,24.0,13.0,0.0
03/07/2013,-,18.0,14.0,3.0
04/07/2013,-,19.0,14.0,0.0
05/07/2013,-,25.0,14.0,0.0
06/07/2013,-,25.0,14.0,0.0
07/07/2013,-,25.0,14.0,0.0
08/07/2013,-,27.0,15.0,0.0
09/07/2013,-,28.0,17.0,0.0
10/07/2013,-,27.0,17.0,0.0
11/07/2013,-,25.0,17.0,0.0
12/07/2013,-,28.0,18.0,4.1
13/07/2013,-,26.0,16.0,0.0
14/07/2013,-,24.0,15.0,0.0
15/07/2013,-,24.0,14.0,0.0
16/07/2013,-,24.0,14.0,0.7
17/07/2013,-,23.0,15.0,0.0
18/07/2013,-,24.0,14.0,0.0
19/07/2013,-,27.0,15.0,0.0
20/07/2013,-,29.0,16.0,0.0
21/07/2013,-,28.0,20.0,6.0
22/07/2013,-,29.0,16.0,9.5
23/07/2013,-,25.0,16.0,1.5
24/07/2013,-,28.0,15.0,0.4
25/07/2013,-,28.0,16.0,0.5
26/07/2013,-,31.0,18.0,0.4
27/07/2013,-,25.0,16.0,0.0
28/07/2013,-,24.0,15.0,0.0
29/07/2013,-,23.0,13.0,0.0
30/07/2013,-,27.0,13.0,0.0
31/07/2013,-,32.0,16.0,0.0
01/08/2013,-,32.0,20.0,0.0
02/08/2013,-,31.0,22.0,1.1
03/08/2013,-,21.0,14.0,1.0
04/08/2013,-,25.0,14.0,0.0
05/08/2013,-,18.0,15.0,26.0
06/08/2013,-,17.0,15.0,2.2
07/08/2013,-,17.0,14.0,4.0
08/08/2013,-,17.0,13.0,3.0
09/08/2013,-,18.0,12.0,0.0
10/08/2013,-,20.0,13.0,0.0
11/08/2013,-,25.0,11.0,0.0
12/08/2013,-,22.0,14.0,1.0
13/08/2013,-,20.0,14.0,0.0
14/08/2013,-,22.0,12.0,0.0
15/08/2013,-,25.0,13.0,0.0
16/08/2013,-,20.0,13.0,0.0
17/08/2013,-,24.0,15.0,0.0
18/08/2013,-,26.0,15.0,0.4
19/08/2013,-,17.0,15.0,3.5
20/08/2013,-,21.0,12.0,0.0
21/08/2013,-,29.0,12.0,0.0
22/08/2013,-,27.0,15.0,0.4
23/08/2013,-,17.0,15.0,3.2
24/08/2013,-,15.0,14.0,5.2
25/08/2013,-,17.0,12.0,5.5
26/08/2013,-,16.0,12.0,7.0
27/08/2013,-,17.0,11.0,0.0
28/08/2013,-,18.0,11.0,0.0
29/08/2013,-,20.0,11.0,0.0
30/08/2013,-,20.0,11.0,0.0
31/08/2013,-,17.0,13.0,0.0
01/09/2013,-,19.0,13.0,0.0
02/09/2013,-,21.0,13.0,0.0
03/09/2013,-,27.0,13.0,0.0
04/09/2013,-,27.0,17.0,0.0
05/09/2013,-,27.0,18.0,2.7
06/09/2013,-,21.0,14.0,1.5
07/09/2013,-,14.0,12.0,3.2
08/09/2013,-,14.0,10.0,0.0
09/09/2013,-,19.0,9.0,1.0
10/09/2013,-,14.0,9.0,9.0
11/09/2013,-,15.0,10.0,0.5
12/09/2013,-,14.0,10.0,1.6
13/09/2013,-,18.0,10.0,2.7
14/09/2013,-,21.0,11.0,9.6
15/09/2013,-,14.0,10.0,0.0
16/09/2013,-,17.0,10.0,8.5
17/09/2013,-,13.0,10.0,12.5
18/09/2013,-,14.0,10.0,14.0
19/09/2013,-,14.0,12.0,5.0
20/09/2013,-,18.0,11.0,2.6
21/09/2013,-,19.0,11.0,0.0
22/09/2013,-,25.0,11.0,0.0
23/09/2013,-,25.0,14.0,0.0
24/09/2013,-,28.0,18.0,0.0
25/09/2013,-,25.0,18.0,0.0
26/09/2013,-,27.0,20.0,0.0
27/09/2013,-,25.0,21.0,0.0
28/09/2013,-,21.0,18.0,0.0
29/09/2013,-,21.0,14.0,2.0
30/09/2013,-,21.0,13.0,0.0
01/10/2013,-,20.0,15.0,0.0
02/10/2013,-,23.0,18.0,0.4
03/10/2013,-,23.0,18.0,67.0
04/10/2013,-,20.0,14.0,8.0
05/10/2013,-,16.0,10.0,8.5
06/10/2013,-,17.0,11.0,0.0
07/10/2013,-,16.0,8.0,0.0
08/10/2013,-,14.0,8.0,0.0
09/10/2013,-,14.0,10.0,0.0
10/10/2013,-,11.0,9.0,8.2
11/10/2013,-,11.0,3.0,1.5
12/10/2013,-,15.0,3.0,0.0
13/10/2013,-,17.0,4.0,0.0
14/10/2013,-,17.0,9.0,0.0
15/10/2013,-,15.0,12.0,7.1
16/10/2013,-,23.0,15.0,0.0
17/10/2013,-,21.0,11.0,0.0
18/10/2013,-,23.0,15.0,0.0
19/10/2013,-,20.0,17.0,0.0
20/10/2013,-,20.0,14.0,0.0
21/10/2013,-,17.0,14.0,0.0
22/10/2013,-,17.0,14.0,3.0
23/10/2013,-,19.0,14.0,0.0
24/10/2013,-,18.0,14.0,0.5
25/10/2013,-,18.0,13.0,14.0
26/10/2013,-,18.0,16.0,0.5
27/10/2013,-,18.0,12.0,0.0
28/10/2013,-,16.0,12.0,3.0
29/10/2013,-,9.0,6.0,11.0
30/10/2013,-,12.0,5.0,0.0
31/10/2013,-,14.0,4.0,0.0
01/11/2013,-,14.0,4.0,1.5
02/11/2013,-,17.0,10.0,29.5
03/11/2013,-,13.0,9.0,12.0
04/11/2013,-,12.0,8.0,82.0
05/11/2013,-,13.0,8.0,37.0
06/11/2013,-,18.0,12.0,1.5
07/11/2013,-,18.0,12.0,0.0
08/11/2013,-,14.0,12.0,14.5
09/11/2013,-,10.0,5.0,21.0
10/11/2013,-,10.0,5.0,61.0
11/11/2013,-,10.0,10.0,35.0
12/11/2013,-,10.0,9.0,23.5
13/11/2013,-,10.0,7.0,8.0
14/11/2013,-,10.0,7.0,34.2
15/11/2013,-,4.0,0.0,11.5
16/11/2013,-,6.0,0.0,3.5
17/11/2013,-,6.0,1.0,15.0
18/11/2013,-,6.0,4.0,67.5
19/11/2013,-,7.0,5.0,41.0
20/11/2013,-,4.0,1.0,31.5
21/11/2013,-,6.0,0.0,54.0
22/11/2013,-,3.0,0.0,14.0
23/11/2013,-,2.0,0.0,1.0
24/11/2013,-,2.0,0.0,1.0
25/11/2013,-,2.0,1.0,0.0
26/11/2013,-,3.0,-1.0,0.0
27/11/2013,-,3.0,-3.0,0.0
28/11/2013,-,8.0,-3.0,0.0
29/11/2013,-,5.0,-2.0,11.0
30/11/2013,-,6.0,1.0,30.0
01/12/2013,-,3.0,-2.0,0.0
02/12/2013,-,6.0,-1.0,0.0
03/12/2013,-,14.0,0.0,0.0
04/12/2013,-,12.0,4.0,1.5
05/12/2013,-,6.0,4.0,0.3
06/12/2013,-,6.0,3.0,0.0
07/12/2013,-,10.0,2.0,0.0
08/12/2013,-,14.0,2.0,0.0
09/12/2013,-,10.0,3.0,0.0
10/12/2013,-,13.0,3.0,0.0
11/12/2013,-,11.0,2.0,0.0
12/12/2013,-,12.0,3.0,0.0
13/12/2013,-,10.0,1.0,17.0
14/12/2013,-,12.0,1.0,0.0
15/12/2013,-,13.0,6.0,0.0
16/12/2013,-,10.0,8.0,0.0
17/12/2013,-,10.0,6.0,0.0
18/12/2013,-,10.0,6.0,6.5
19/12/2013,-,10.0,5.0,36.5
20/12/2013,-,7.0,3.0,2.0
21/12/2013,-,7.0,0.0,0.0
22/12/2013,-,12.0,4.0,0.0
23/12/2013,-,9.0,5.0,0.0
24/12/2013,-,9.0,6.0,7.5
25/12/2013,-,8.0,6.0,5.0
26/12/2013,-,9.0,2.0,8.6
27/12/2013,-,15.0,1.0,6.0
