Fecha, Temperatura media, Temperatura maxima, Temperatura minima, Precipitacion acumulada
01/01/2014,-,15.0,5.0,0.0
02/01/2014,-,16.0,9.0,2.1
03/01/2014,-,16.0,10.0,0.6
04/01/2014,-,16.0,9.0,14.9
05/01/2014,-,15.0,4.0,2.7
06/01/2014,-,16.0,7.0,0.0
07/01/2014,-,18.0,14.0,0.0
08/01/2014,-,20.0,15.0,0.0
09/01/2014,-,19.0,15.0,0.0
10/01/2014,-,19.0,4.0,0.0
11/01/2014,-,16.0,4.0,0.0
12/01/2014,-,17.0,6.0,6.1
13/01/2014,-,14.0,8.0,3.7
14/01/2014,-,11.0,5.0,5.6
15/01/2014,-,14.0,5.0,3.7
16/01/2014,-,15.0,8.0,0.0
17/01/2014,-,14.0,7.0,0.0
18/01/2014,-,12.0,8.0,6.3
19/01/2014,-,8.0,1.0,31.7
20/01/2014,-,8.0,1.0,16.4
21/01/2014,-,13.0,3.0,6.1
22/01/2014,-,9.0,4.0,57.8
23/01/2014,-,10.0,6.0,28.3
24/01/2014,-,13.0,7.0,121.2
25/01/2014,-,14.0,10.0,30.2
26/01/2014,-,15.0,10.0,28.4
27/01/2014,-,8.0,6.0,55.7
28/01/2014,-,9.0,3.0,11.2
29/01/2014,-,11.0,1.0,27.1
30/01/2014,-,8.0,2.0,26.3
31/01/2014,-,14.0,4.0,27.1
01/02/2014,-,9.0,7.0,43.2
02/02/2014,-,11.0,3.0,0.9
03/02/2014,-,10.0,1.0,2.4
04/02/2014,-,12.0,0.0,0.0
05/02/2014,-,15.0,1.0,0.0
06/02/2014,-,19.0,4.0,14.7
07/02/2014,-,15.0,6.0,2.1
08/02/2014,-,14.0,5.0,17.6
09/02/2014,-,9.0,0.0,10.1
10/02/2014,-,8.0,2.0,70.2
11/02/2014,-,10.0,1.0,13.8
12/02/2014,-,15.0,2.0,1.6
13/02/2014,-,17.0,2.0,1.9
14/02/2014,-,22.0,7.0,2.2
15/02/2014,-,13.0,10.0,0.0
16/02/2014,-,13.0,5.0,0.0
17/02/2014,-,15.0,2.0,0.0
18/02/2014,-,12.0,6.0,4.7
19/02/2014,-,14.0,5.0,3.4
20/02/2014,-,19.0,4.0,16.7
21/02/2014,-,12.0,6.0,3.4
22/02/2014,-,16.0,0.0,0.0
23/02/2014,-,18.0,0.0,0.0
24/02/2014,-,17.0,11.0,0.0
25/02/2014,-,17.0,8.0,13.2
26/02/2014,-,9.0,3.0,15.3
27/02/2014,-,12.0,3.0,11.0
28/02/2014,-,9.0,5.0,37.7
01/03/2014,-,9.0,6.0,9.9
02/03/2014,-,15.0,6.0,31.8
03/03/2014,-,12.0,7.0,65.9
04/03/2014,-,12.0,6.0,55.4
05/03/2014,-,12.0,7.0,11.7
06/03/2014,-,16.0,7.0,0.0
07/03/2014,-,19.0,2.0,0.0
08/03/2014,-,23.0,3.0,0.0
09/03/2014,-,23.0,4.0,0.0
10/03/2014,-,20.0,4.0,0.0
11/03/2014,-,16.0,2.0,0.0
12/03/2014,-,22.0,2.0,0.0
13/03/2014,-,20.0,4.0,0.0
14/03/2014,-,21.0,2.0,0.0
15/03/2014,-,14.0,3.0,0.0
16/03/2014,-,16.0,5.0,0.0
17/03/2014,-,23.0,3.0,0.0
18/03/2014,-,12.0,3.0,0.3
19/03/2014,-,16.0,9.0,0.0
20/03/2014,-,25.0,3.0,0.0
21/03/2014,-,20.0,9.0,2.6
22/03/2014,-,11.0,10.0,43.7
23/03/2014,-,11.0,1.0,18.9
24/03/2014,-,11.0,0.0,33.4
25/03/2014,-,11.0,2.0,51.2
26/03/2014,-,10.0,5.0,18.9
27/03/2014,-,14.0,4.0,0.0
28/03/2014,-,18.0,5.0,0.0
29/03/2014,-,21.0,7.0,0.0
30/03/2014,-,18.0,8.0,0.0
31/03/2014,-,22.0,9.0,0.0
01/04/2014,-,23.0,14.0,0.0
02/04/2014,-,23.0,15.0,0.3
03/04/2014,-,13.0,10.0,27.4
04/04/2014,-,19.0,10.0,7.8
05/04/2014,-,21.0,11.0,0.0
06/04/2014,-,26.0,8.0,0.0
07/04/2014,-,29.0,8.0,1.3
08/04/2014,-,15.0,11.0,0.0
09/04/2014,-,21.0,6.0,0.0
10/04/2014,-,25.0,7.0,0.8
11/04/2014,-,19.0,8.0,0.0
12/04/2014,-,15.0,10.0,0.0
13/04/2014,-,19.0,10.0,0.0
14/04/2014,-,21.0,7.0,0.0
15/04/2014,-,26.0,7.0,0.0
16/04/2014,-,26.0,6.0,0.0
17/04/2014,-,24.0,5.0,0.0
18/04/2014,-,23.0,3.0,0.0
19/04/2014,-,16.0,4.0,6.3
20/04/2014,-,13.0,9.0,1.8
21/04/2014,-,21.0,6.0,8.7
22/04/2014,-,17.0,8.0,1.6
23/04/2014,-,20.0,6.0,1.5
24/04/2014,-,17.0,7.0,30.3
25/04/2014,-,16.0,9.0,9.1
26/04/2014,-,16.0,10.0,9.8
27/04/2014,-,16.0,8.0,6.6
28/04/2014,-,14.0,8.0,6.8
29/04/2014,-,18.0,10.0,8.1
30/04/2014,-,18.0,11.0,1.9
01/05/2014,-,14.0,12.0,11.9
02/05/2014,-,15.0,10.0,12.8
03/05/2014,-,16.0,10.0,6.7
04/05/2014,-,19.0,6.0,0.0
05/05/2014,-,29.0,5.0,0.0
06/05/2014,-,23.0,10.0,0.0
07/05/2014,-,22.0,12.0,0.0
08/05/2014,-,21.0,10.0,0.0
09/05/2014,-,19.0,10.0,0.0
10/05/2014,-,24.0,12.0,1.9
11/05/2014,-,17.0,12.0,0.9
12/05/2014,-,17.0,8.0,2.6
13/05/2014,-,16.0,9.0,0.0
14/05/2014,-,20.0,7.0,0.0
15/05/2014,-,23.0,6.0,0.0
16/05/2014,-,20.0,5.0,0.0
17/05/2014,-,20.0,5.0,0.0
18/05/2014,-,29.0,6.0,0.0
19/05/2014,-,27.0,16.0,22.8
20/05/2014,-,23.0,10.0,7.6
21/05/2014,-,23.0,11.0,13.3
22/05/2014,-,18.0,13.0,8.3
23/05/2014,-,18.0,10.0,12.3
24/05/2014,-,17.0,8.0,19.4
25/05/2014,-,14.0,10.0,16.1
26/05/2014,-,17.0,10.0,6.3
27/05/2014,-,19.0,10.0,0.8
28/05/2014,-,13.0,9.0,5.4
29/05/2014,-,20.0,10.0,3.5
30/05/2014,-,16.0,10.0,19.7
31/05/2014,-,19.0,12.0,1.6
01/06/2014,-,20.0,12.0,1.2
02/06/2014,-,19.0,11.0,2.0
03/06/2014,-,20.0,10.0,0.0
04/06/2014,-,16.0,10.0,2.9
05/06/2014,-,29.0,8.0,0.0
06/06/2014,-,32.0,12.0,1.9
07/06/2014,-,29.0,13.0,0.0
08/06/2014,-,30.0,11.0,0.0
09/06/2014,-,27.0,11.0,11.3
10/06/2014,-,23.0,13.0,0.0
11/06/2014,-,24.0,15.0,0.0
12/06/2014,-,29.0,14.0,0.0
13/06/2014,-,27.0,15.0,0.0
14/06/2014,-,23.0,13.0,0.0
15/06/2014,-,22.0,14.0,0.0
16/06/2014,-,22.0,16.0,0.0
17/06/2014,-,23.0,12.0,0.0
18/06/2014,-,22.0,11.0,0.0
19/06/2014,-,28.0,10.0,0.0
20/06/2014,-,33.0,10.0,6.4
21/06/2014,-,30.0,13.0,12.6
22/06/2014,-,26.0,17.0,8.4
23/06/2014,-,26.0,17.0,1.3
24/06/2014,-,24.0,17.0,0.0
25/06/2014,-,25.0,17.0,0.4
26/06/2014,-,20.0,16.0,2.3
27/06/2014,-,25.0,13.0,0.6
28/06/2014,-,28.0,14.0,2.6
29/06/2014,-,22.0,13.0,0.9
30/06/2014,-,26.0,11.0,0.0
01/07/2014,-,25.0,11.0,3.5
02/07/2014,-,20.0,15.0,3.8
03/07/2014,-,21.0,16.0,55.2
04/07/2014,-,24.0,17.0,4.7
05/07/2014,-,27.0,15.0,0.0
06/07/2014,-,25.0,16.0,15.3
07/07/2014,-,20.0,15.0,3.2
08/07/2014,-,22.0,14.0,10.1
09/07/2014,-,20.0,14.0,1.4
10/07/2014,-,21.0,14.0,3.5
11/07/2014,-,20.0,14.0,9.7
12/07/2014,-,20.0,15.0,2.6
13/07/2014,-,24.0,13.0,3.2
14/07/2014,-,23.0,15.0,0.9
15/07/2014,-,26.0,14.0,0.0
16/07/2014,-,31.0,16.0,0.0
17/07/2014,-,37.0,17.0,0.0
18/07/2014,-,28.0,16.0,0.3
19/07/2014,-,27.0,17.0,2.3
20/07/2014,-,23.0,15.0,14.2
21/07/2014,-,22.0,16.0,4.1
22/07/2014,-,26.0,15.0,0.0
23/07/2014,-,27.0,17.0,0.0
24/07/2014,-,24.0,15.0,2.8
25/07/2014,-,26.0,15.0,1.2
26/07/2014,-,26.0,17.0,0.0
27/07/2014,-,27.0,15.0,0.0
28/07/2014,-,24.0,17.0,15.6
29/07/2014,-,23.0,15.0,11.2
30/07/2014,-,21.0,15.0,0.5
31/07/2014,-,26.0,16.0,0.0
01/08/2014,-,25.0,17.0,3.1
02/08/2014,-,26.0,17.0,2.5
03/08/2014,-,26.0,16.0,11.3
04/08/2014,-,22.0,16.0,0.0
05/08/2014,-,25.0,15.0,0.0
06/08/2014,-,27.0,14.0,0.0
07/08/2014,-,29.0,14.0,0.0
08/08/2014,-,34.0,18.0,10.7
09/08/2014,-,30.0,18.0,0.0
10/08/2014,-,30.0,18.0,2.3
11/08/2014,-,20.0,17.0,0.0
12/08/2014,-,26.0,14.0,20.8
13/08/2014,-,20.0,15.0,9.4
14/08/2014,-,23.0,14.0,1.5
15/08/2014,-,20.0,14.0,3.7
16/08/2014,-,22.0,13.0,0.8
17/08/2014,-,25.0,11.0,0.5
18/08/2014,-,21.0,12.0,0.0
19/08/2014,-,23.0,16.0,0.0
20/08/2014,-,22.0,16.0,0.0
21/08/2014,-,23.0,12.0,0.0
22/08/2014,-,17.0,12.0,3.2
23/08/2014,-,23.0,11.0,0.0
24/08/2014,-,27.0,12.0,0.0
25/08/2014,-,28.0,12.0,0.0
26/08/2014,-,28.0,13.0,4.1
27/08/2014,-,30.0,18.0,0.0
28/08/2014,-,26.0,18.0,1.1
29/08/2014,-,22.0,18.0,1.0
30/08/2014,-,20.0,17.0,0.0
31/08/2014,-,19.0,16.0,0.0
01/09/2014,-,27.0,14.0,0.0
02/09/2014,-,28.0,14.0,0.0
03/09/2014,-,27.0,12.0,0.0
04/09/2014,-,26.0,13.0,0.0
05/09/2014,-,28.0,13.0,0.0
06/09/2014,-,31.0,14.0,0.0
07/09/2014,-,30.0,16.0,16.7
08/09/2014,-,29.0,17.0,0.0
09/09/2014,-,29.0,17.0,0.0
10/09/2014,-,31.0,18.0,0.0
11/09/2014,-,27.0,18.0,0.0
12/09/2014,-,27.0,15.0,0.0
13/09/2014,-,28.0,12.0,0.0
14/09/2014,-,26.0,11.0,7.8
15/09/2014,-,28.0,11.0,0.0
16/09/2014,-,30.0,13.0,1.2
17/09/2014,-,30.0,15.0,8.4
18/09/2014,-,30.0,14.0,0.0
19/09/2014,-,29.0,13.0,0.0
20/09/2014,-,28.0,14.0,1.6
21/09/2014,-,26.0,14.0,0.0
22/09/2014,-,21.0,14.0,0.0
23/09/2014,-,20.0,13.0,0.0
24/09/2014,-,20.0,10.0,0.0
25/09/2014,-,22.0,10.0,0.0
26/09/2014,-,23.0,10.0,0.0
27/09/2014,-,29.0,8.0,0.0
28/09/2014,-,25.0,8.0,0.0
29/09/2014,-,23.0,15.0,4.4
30/09/2014,-,20.0,14.0,0.0
01/10/2014,-,23.0,15.0,0.0
02/10/2014,-,25.0,14.0,0.0
03/10/2014,-,25.0,13.0,0.0
04/10/2014,-,23.0,13.0,18.3
05/10/2014,-,19.0,13.0,4.6
06/10/2014,-,25.0,8.0,0.0
07/10/2014,-,25.0,12.0,0.0
08/10/2014,-,27.0,14.0,2.4
09/10/2014,-,19.0,17.0,2.1
10/10/2014,-,20.0,14.0,0.0
11/10/2014,-,24.0,14.0,1.1
12/10/2014,-,25.0,14.0,6.4
13/10/2014,-,23.0,13.0,0.0
14/10/2014,-,24.0,11.0,0.0
15/10/2014,-,22.0,10.0,5.6
16/10/2014,-,27.0,15.0,0.0
17/10/2014,-,29.0,15.0,0.0
18/10/2014,-,29.0,15.0,0.0
19/10/2014,-,31.0,14.0,0.0
20/10/2014,-,29.0,13.0,0.0
21/10/2014,-,25.0,12.0,3.8
22/10/2014,-,18.0,12.0,0.0
23/10/2014,-,21.0,6.0,0.0
24/10/2014,-,23.0,4.0,0.0
25/10/2014,-,24.0,5.0,0.0
26/10/2014,-,25.0,8.0,0.0
27/10/2014,-,25.0,8.0,0.0
28/10/2014,-,25.0,9.0,0.0
29/10/2014,-,26.0,10.0,0.0
30/10/2014,-,26.0,11.0,0.0
31/10/2014,-,24.0,11.0,0.0
01/11/2014,-,23.0,12.0,0.6
02/11/2014,-,19.0,12.0,0.3
03/11/2014,-,19.0,9.0,25.9
04/11/2014,-,12.0,9.0,46.5
05/11/2014,-,12.0,8.0,32.0
06/11/2014,-,15.0,7.0,0.8
07/11/2014,-,16.0,7.0,12.2
08/11/2014,-,15.0,6.0,2.3
09/11/2014,-,14.0,6.0,2.9
10/11/2014,-,16.0,4.0,0.0
11/11/2014,-,16.0,4.0,0.0
12/11/2014,-,20.0,4.0,0.0
13/11/2014,-,20.0,5.0,6.4
14/11/2014,-,16.0,13.0,0.9
15/11/2014,-,18.0,7.0,0.4
16/11/2014,-,16.0,7.0,27.6
17/11/2014,-,13.0,7.0,14.7
18/11/2014,-,15.0,4.0,0.0
19/11/2014,-,18.0,4.0,0.0
20/11/2014,-,22.0,8.0,0.0
21/11/2014,-,23.0,10.0,0.0
22/11/2014,-,23.0,12.0,0.0
23/11/2014,-,20.0,13.0,0.0
24/11/2014,-,19.0,11.0,2.2
25/11/2014,-,17.0,11.0,4.5
26/11/2014,-,14.0,12.0,2.8
27/11/2014,-,18.0,7.0,0.0
28/11/2014,-,20.0,8.0,0.3
29/11/2014,-,15.0,13.0,8.5
30/11/2014,-,14.0,12.0,9.9
01/12/2014,-,11.0,10.5,23.8
02/12/2014,-,10.0,8.0,1.5
03/12/2014,-,10.0,5.0,0.4
04/12/2014,-,11.0,2.0,1.9
05/12/2014,-,10.0,3.0,32.1
06/12/2014,-,6.0,4.0,9.9
07/12/2014,-,10.0,0.0,27.9
08/12/2014,-,11.0,6.0,63.1
09/12/2014,-,9.0,4.0,0.4
10/12/2014,-,10.0,1.0,16.8
11/12/2014,-,13.0,3.0,0.9
12/12/2014,-,14.0,3.0,0.0
13/12/2014,-,15.0,7.0,3.1
14/12/2014,-,13.0,9.0,8.9
15/12/2014,-,13.0,8.0,10.2
16/12/2014,-,13.0,6.0,16.7
17/12/2014,-,13.0,8.0,8.7
18/12/2014,-,12.0,8.0,0.4
19/12/2014,-,12.0,9.0,0.0
20/12/2014,-,13.0,9.0,3.1
21/12/2014,-,13.0,7.0,0.0
22/12/2014,-,15.0,2.0,0.0
23/12/2014,-,15.0,0.0,0.0
24/12/2014,-,10.0,-2.0,0.0
25/12/2014,-,11.0,6.0,5.2
26/12/2014,-,12.0,4.0,10.1
27/12/2014,-,12.0,4.0,84.3
