Fecha, Temperatura media, Temperatura maxima, Temperatura minima, Precipitacion acumulada
01/01/2009,-,13.5,8.5,0.0
02/01/2009,-,12.5,7.7,0.0
03/01/2009,-,10.0,3.5,0.0
04/01/2009,-,6.0,3.0,0.0
05/01/2009,-,5.2,3.5,11.5
06/01/2009,-,2.5,1.5,2.3
07/01/2009,-,-1.5,-2.5,0.6
08/01/2009,-,-1.5,-3.0,3.1
09/01/2009,-,4.5,-3.8,0.0
10/01/2009,-,4.7,-2.0,0.0
11/01/2009,-,11.0,-1.3,0.0
12/01/2009,-,11.0,1.5,0.0
13/01/2009,-,6.8,3.0,25.5
14/01/2009,-,10.0,4.0,0.7
15/01/2009,-,10.5,3.0,0.0
16/01/2009,-,11.3,-1.5,0.0
17/01/2009,-,13.0,4.0,0.0
18/01/2009,-,15.0,4.0,0.0
19/01/2009,-,13.0,10.0,41.1
20/01/2009,-,14.0,2.0,18.9
21/01/2009,-,7.0,2.0,18.6
22/01/2009,-,15.0,2.7,7.6
23/01/2009,-,13.5,7.5,38.4
24/01/2009,-,10.0,7.0,12.1
25/01/2009,-,8.5,4.5,16.7
26/01/2009,-,6.5,4.0,39.8
27/01/2009,-,6.5,6.0,47.4
28/01/2009,-,9.0,5.5,10.2
29/01/2009,-,13.5,6.0,0.8
30/01/2009,-,14.0,6.5,0.0
31/01/2009,-,12.5,12.5,0.9
01/02/2009,-,10.0,5.5,0.2
02/02/2009,-,9.0,5.0,13.8
03/02/2009,-,9.5,1.5,0.2
04/02/2009,-,10.5,4.5,2.0
05/02/2009,-,10.0,8.7,3.6
06/02/2009,-,6.5,5.5,45.0
07/02/2009,-,4.5,2.0,26.3
08/02/2009,-,9.0,2.8,13.1
09/02/2009,-,15.0,7.5,1.5
10/02/2009,-,9.5,6.5,34.3
11/02/2009,-,10.2,6.5,123.3
12/02/2009,-,9.5,5.0,0.7
13/02/2009,-,9.0,1.0,0.0
14/02/2009,-,8.0,2.0,0.0
15/02/2009,-,8.5,-1.0,0.0
16/02/2009,-,9.5,-1.0,0.0
17/02/2009,-,10.5,-1.0,0.0
18/02/2009,-,10.3,0.5,0.0
19/02/2009,-,14.0,3.5,0.0
20/02/2009,-,13.0,3.3,0.0
21/02/2009,-,12.0,1.3,0.0
22/02/2009,-,10.0,3.5,0.2
23/02/2009,-,9.5,5.5,1.3
24/02/2009,-,9.0,5.2,0.0
25/02/2009,-,13.0,1.0,0.0
26/02/2009,-,16.0,2.0,0.0
27/02/2009,-,17.0,3.0,0.0
28/02/2009,-,18.5,1.0,0.0
01/03/2009,-,10.0,5.5,9.8
02/03/2009,-,9.9,7.0,1.1
03/03/2009,-,9.0,2.5,2.5
04/03/2009,-,3.5,2.6,27.4
05/03/2009,-,7.5,2.5,9.8
06/03/2009,-,8.3,2.5,17.9
07/03/2009,-,9.0,3.2,19.8
08/03/2009,-,9.2,8.7,13.1
09/03/2009,-,10.5,7.0,1.6
10/03/2009,-,13.3,1.3,0.0
11/03/2009,-,12.0,3.3,0.0
12/03/2009,-,19.5,5.5,0.0
13/03/2009,-,22.5,5.0,0.0
14/03/2009,-,17.0,5.5,0.7
15/03/2009,-,13.5,4.0,0.0
16/03/2009,-,19.5,2.0,0.0
17/03/2009,-,20.7,3.0,0.0
18/03/2009,-,22.5,5.5,0.0
19/03/2009,-,22.5,6.0,0.0
20/03/2009,-,20.0,4.5,0.0
21/03/2009,-,13.0,1.5,0.0
22/03/2009,-,12.0,1.0,0.0
23/03/2009,-,14.0,1.0,0.0
24/03/2009,-,8.0,2.8,4.2
25/03/2009,-,10.9,1.5,0.2
26/03/2009,-,16.5,1.0,0.0
27/03/2009,-,16.0,4.5,12.7
28/03/2009,-,7.0,5.2,8.2
29/03/2009,-,9.5,3.5,0.2
30/03/2009,-,10.3,2.0,0.0
31/03/2009,-,11.0,3.5,0.0
01/04/2009,-,9.5,5.5,0.0
02/04/2009,-,10.3,7.5,0.0
03/04/2009,-,12.0,8.0,0.0
04/04/2009,-,13.5,6.0,2.8
05/04/2009,-,13.5,6.5,0.0
06/04/2009,-,19.9,10.0,27.4
07/04/2009,-,11.5,7.0,14.1
08/04/2009,-,12.5,5.7,0.0
09/04/2009,-,18.0,5.8,0.0
10/04/2009,-,12.0,10.0,87.9
11/04/2009,-,7.0,5.5,15.4
12/04/2009,-,10.3,5.5,3.6
13/04/2009,-,14.5,6.5,0.0
14/04/2009,-,13.5,6.5,14.6
15/04/2009,-,14.0,7.0,5.0
16/04/2009,-,14.3,6.5,1.4
17/04/2009,-,14.5,7.9,0.0
18/04/2009,-,15.0,5.0,0.5
19/04/2009,-,11.5,5.0,16.5
20/04/2009,-,10.2,8.0,2.0
21/04/2009,-,11.0,9.1,0.0
22/04/2009,-,14.5,9.0,0.0
23/04/2009,-,22.0,6.5,0.0
24/04/2009,-,20.8,6.9,15.3
25/04/2009,-,11.5,7.9,17.1
26/04/2009,-,8.5,5.8,25.6
27/04/2009,-,14.0,6.3,14.2
28/04/2009,-,13.8,7.0,8.7
29/04/2009,-,12.5,8.0,23.5
30/04/2009,-,13.3,8.0,38.0
01/05/2009,-,11.0,8.0,8.5
02/05/2009,-,14.0,9.0,0.0
03/05/2009,-,14.3,9.0,4.1
04/05/2009,-,15.0,10.3,6.1
05/05/2009,-,14.0,8.8,0.0
06/05/2009,-,22.5,7.3,0.0
07/05/2009,-,17.3,10.8,1.0
08/05/2009,-,15.2,10.4,3.6
09/05/2009,-,22.2,10.8,15.5
10/05/2009,-,21.8,11.0,0.7
11/05/2009,-,26.5,13.5,10.0
12/05/2009,-,21.2,11.5,0.0
13/05/2009,-,19.5,11.6,19.8
14/05/2009,-,14.0,11.2,41.8
15/05/2009,-,12.2,7.5,3.7
16/05/2009,-,22.5,9.0,1.1
17/05/2009,-,15.0,11.0,0.0
18/05/2009,-,13.8,10.0,0.7
19/05/2009,-,13.5,11.0,0.0
20/05/2009,-,22.0,10.8,3.4
21/05/2009,-,14.0,11.1,0.0
22/05/2009,-,21.0,12.7,0.0
23/05/2009,-,22.5,13.0,2.3
24/05/2009,-,14.8,13.9,8.9
25/05/2009,-,17.0,13.2,16.2
26/05/2009,-,16.3,10.5,17.2
27/05/2009,-,14.5,8.5,0.0
28/05/2009,-,21.0,10.0,0.0
29/05/2009,-,27.5,10.5,0.0
30/05/2009,-,26.9,15.0,0.0
31/05/2009,-,20.5,12.0,0.0
01/06/2009,-,21.5,12.2,0.0
02/06/2009,-,22.3,11.5,0.0
03/06/2009,-,27.9,12.3,0.0
04/06/2009,-,20.8,13.5,4.6
05/06/2009,-,14.3,12.5,3.5
06/06/2009,-,18.5,12.0,4.2
07/06/2009,-,15.0,13.0,4.1
08/06/2009,-,20.5,13.0,0.8
09/06/2009,-,20.0,11.8,1.0
10/06/2009,-,27.0,15.0,0.3
11/06/2009,-,20.5,15.0,0.0
12/06/2009,-,25.0,14.8,0.0
13/06/2009,-,27.5,14.9,0.2
14/06/2009,-,28.0,15.8,10.0
15/06/2009,-,18.9,17.5,2.3
16/06/2009,-,17.5,14.0,5.1
17/06/2009,-,29.0,14.2,0.2
18/06/2009,-,20.0,16.0,3.3
19/06/2009,-,16.0,15.7,6.3
20/06/2009,-,19.0,13.3,0.0
21/06/2009,-,20.0,11.5,0.0
22/06/2009,-,21.5,11.7,0.0
23/06/2009,-,25.5,13.0,0.0
24/06/2009,-,27.0,12.0,0.2
25/06/2009,-,22.0,13.5,1.7
26/06/2009,-,23.3,13.5,3.1
27/06/2009,-,28.0,13.5,0.0
28/06/2009,-,29.0,18.7,0.0
29/06/2009,-,29.3,17.5,1.2
30/06/2009,-,28.5,19.0,0.0
01/07/2009,-,29.7,19.0,0.0
02/07/2009,-,19.9,18.5,3.6
03/07/2009,-,22.5,17.5,0.6
04/07/2009,-,18.8,17.9,7.4
05/07/2009,-,21.5,17.0,0.6
06/07/2009,-,18.0,17.5,16.7
07/07/2009,-,15.3,13.5,4.7
08/07/2009,-,19.2,13.0,0.2
09/07/2009,-,20.0,13.7,0.0
10/07/2009,-,21.3,12.5,0.0
11/07/2009,-,29.0,13.0,0.0
12/07/2009,-,27.0,14.8,0.0
13/07/2009,-,21.5,18.0,14.2
14/07/2009,-,22.0,15.0,0.0
15/07/2009,-,22.5,16.0,0.0
16/07/2009,-,29.0,15.0,19.5
17/07/2009,-,17.9,14.0,26.5
18/07/2009,-,20.0,12.5,0.0
19/07/2009,-,22.5,13.0,0.0
20/07/2009,-,26.7,14.0,0.0
21/07/2009,-,35.4,20.1,0.0
22/07/2009,-,30.2,18.5,1.1
23/07/2009,-,22.5,18.0,0.0
24/07/2009,-,21.5,14.7,0.7
25/07/2009,-,22.5,14.0,0.0
26/07/2009,-,27.0,14.0,1.2
27/07/2009,-,19.0,16.2,14.9
28/07/2009,-,27.0,16.0,0.0
29/07/2009,-,20.1,15.0,2.3
30/07/2009,-,21.0,15.2,0.0
31/07/2009,-,26.8,12.0,0.0
01/08/2009,-,29.0,12.5,26.3
02/08/2009,-,20.0,14.3,0.0
03/08/2009,-,22.2,14.8,0.0
04/08/2009,-,28.5,14.8,0.0
05/08/2009,-,27.5,15.0,6.6
06/08/2009,-,21.5,18.0,11.2
07/08/2009,-,16.0,15.8,1.9
08/08/2009,-,15.5,15.0,30.0
09/08/2009,-,16.5,14.3,7.2
10/08/2009,-,17.3,15.0,1.4
11/08/2009,-,20.0,16.8,0.0
12/08/2009,-,22.5,16.5,0.0
13/08/2009,-,22.8,17.0,0.0
14/08/2009,-,27.3,17.0,0.0
15/08/2009,-,35.7,19.0,0.0
16/08/2009,-,27.3,19.8,0.0
17/08/2009,-,21.5,18.6,1.8
18/08/2009,-,28.0,18.8,0.0
19/08/2009,-,27.4,18.7,0.0
20/08/2009,-,21.5,18.0,14.5
21/08/2009,-,22.0,17.0,0.0
22/08/2009,-,22.8,14.0,0.0
23/08/2009,-,35.5,14.0,0.0
24/08/2009,-,20.5,14.2,0.0
25/08/2009,-,18.5,17.8,13.8
26/08/2009,-,25.2,15.2,0.0
27/08/2009,-,27.0,14.7,1.7
28/08/2009,-,18.8,18.5,15.7
29/08/2009,-,20.0,13.6,0.0
30/08/2009,-,22.5,11.5,0.0
31/08/2009,-,31.0,11.5,0.0
01/09/2009,-,18.7,18.5,8.4
02/09/2009,-,22.0,15.9,0.1
03/09/2009,-,19.0,15.9,10.6
04/09/2009,-,18.3,16.7,8.5
05/09/2009,-,20.0,11.0,0.0
06/09/2009,-,27.5,10.5,0.0
07/09/2009,-,27.5,11.2,0.0
08/09/2009,-,30.2,16.0,0.0
09/09/2009,-,27.7,18.5,0.0
10/09/2009,-,26.8,16.0,0.0
11/09/2009,-,23.0,16.0,0.0
12/09/2009,-,22.2,14.0,0.0
13/09/2009,-,20.0,14.0,0.0
14/09/2009,-,17.0,13.0,0.0
15/09/2009,-,18.0,10.2,18.8
16/09/2009,-,14.3,11.0,0.0
17/09/2009,-,20.5,10.0,23.7
18/09/2009,-,15.0,11.0,42.1
19/09/2009,-,15.0,12.0,9.3
20/09/2009,-,20.2,14.0,52.3
21/09/2009,-,20.0,14.3,4.6
22/09/2009,-,19.9,14.0,0.0
23/09/2009,-,23.0,14.2,0.0
24/09/2009,-,22.5,14.8,0.0
25/09/2009,-,20.0,14.0,0.0
26/09/2009,-,20.0,13.7,0.0
27/09/2009,-,21.8,12.0,0.0
28/09/2009,-,22.2,12.0,0.0
29/09/2009,-,23.2,12.5,0.0
30/09/2009,-,23.3,12.5,0.0
01/10/2009,-,19.9,17.2,0.0
02/10/2009,-,16.1,15.0,0.0
03/10/2009,-,20.0,9.0,0.0
04/10/2009,-,23.3,11.0,0.0
05/10/2009,-,27.5,12.0,0.0
06/10/2009,-,27.5,15.0,0.0
07/10/2009,-,23.0,16.7,0.0
08/10/2009,-,20.5,17.8,11.0
09/10/2009,-,20.3,13.0,0.5
10/10/2009,-,15.7,13.5,7.8
11/10/2009,-,16.0,15.0,34.5
12/10/2009,-,15.0,14.5,19.1
13/10/2009,-,15.0,8.5,0.0
14/10/2009,-,15.2,7.5,0.0
15/10/2009,-,12.0,5.5,0.0
16/10/2009,-,11.5,1.0,0.0
17/10/2009,-,13.3,2.5,0.0
18/10/2009,-,14.0,5.0,0.0
19/10/2009,-,17.5,4.0,0.0
20/10/2009,-,17.0,7.5,25.1
21/10/2009,-,13.5,9.5,2.8
22/10/2009,-,12.5,11.0,45.7
23/10/2009,-,14.5,11.5,16.2
24/10/2009,-,22.5,12.0,6.0
25/10/2009,-,15.3,13.5,1.4
26/10/2009,-,20.0,11.5,0.0
27/10/2009,-,23.0,11.0,0.0
28/10/2009,-,22.5,11.5,0.0
29/10/2009,-,23.0,14.0,0.0
30/10/2009,-,22.7,14.0,0.0
31/10/2009,-,22.3,13.5,0.0
01/11/2009,-,23.5,13.5,47.8
02/11/2009,-,14.7,9.0,9.3
03/11/2009,-,15.0,14.0,16.0
04/11/2009,-,10.5,10.2,23.8
05/11/2009,-,7.0,7.0,29.6
06/11/2009,-,12.5,6.5,24.5
07/11/2009,-,10.5,9.7,53.4
08/11/2009,-,9.0,8.5,37.4
09/11/2009,-,9.0,6.0,1.9
10/11/2009,-,13.0,6.0,124.8
11/11/2009,-,14.8,9.5,2.2
12/11/2009,-,19.0,11.0,0.0
13/11/2009,-,18.2,11.9,0.4
14/11/2009,-,19.5,12.5,0.0
15/11/2009,-,19.5,13.7,0.0
16/11/2009,-,20.5,14.5,0.0
17/11/2009,-,19.7,12.0,5.0
18/11/2009,-,18.0,6.5,0.0
19/11/2009,-,21.5,7.0,0.0
20/11/2009,-,19.0,11.5,0.0
21/11/2009,-,18.3,15.5,3.1
22/11/2009,-,13.2,9.0,0.0
23/11/2009,-,14.5,11.0,0.0
24/11/2009,-,15.0,7.0,0.0
25/11/2009,-,15.0,5.0,10.8
26/11/2009,-,13.0,8.0,0.0
27/11/2009,-,11.5,7.5,0.0
28/11/2009,-,11.2,7.0,2.3
29/11/2009,-,12.0,9.0,3.6
30/11/2009,-,6.0,6.0,29.5
01/12/2009,-,11.2,5.5,8.4
02/12/2009,-,10.0,6.0,22.6
03/12/2009,-,10.0,8.0,27.5
04/12/2009,-,10.0,9.0,33.6
05/12/2009,-,15.5,6.1,0.0
06/12/2009,-,14.2,9.9,1.6
07/12/2009,-,14.0,12.5,1.5
08/12/2009,-,14.5,9.0,0.0
09/12/2009,-,14.0,8.2,0.0
10/12/2009,-,14.0,3.0,0.0
11/12/2009,-,13.5,7.0,0.0
12/12/2009,-,6.0,2.5,0.0
13/12/2009,-,4.2,1.5,0.0
14/12/2009,-,4.0,0.0,0.0
15/12/2009,-,4.0,0.0,0.3
16/12/2009,-,4.0,-1.5,0.0
17/12/2009,-,3.5,-2.0,4.6
18/12/2009,-,3.0,-1.5,6.1
19/12/2009,-,1.5,-2.5,1.1
20/12/2009,-,6.5,-2.7,0.0
21/12/2009,-,12.5,6.0,0.0
22/12/2009,-,11.0,6.0,14.9
23/12/2009,-,14.0,4.5,10.0
24/12/2009,-,15.5,5.7,22.0
25/12/2009,-,10.0,5.0,1.3
26/12/2009,-,6.5,4.5,11.0
27/12/2009,-,12.2,5.5,0.0
