Fecha, Temperatura media, Temperatura maxima, Temperatura minima, Precipitacion acumulada
01/01/2012,-,-,-,-
02/01/2012,-,-,-,-
03/01/2012,-,-,-,-
04/01/2012,-,-,-,-
05/01/2012,-,-,-,-
06/01/2012,-,-,-,-
07/01/2012,-,-,-,-
08/01/2012,-,-,-,-
09/01/2012,-,-,-,-
10/01/2012,-,-,-,-
11/01/2012,-,-,-,-
12/01/2012,-,-,-,-
13/01/2012,-,-,-,-
14/01/2012,-,-,-,-
15/01/2012,-,-,-,-
16/01/2012,-,-,-,-
17/01/2012,-,-,-,-
18/01/2012,-,-,-,-
19/01/2012,-,-,-,-
20/01/2012,-,-,-,-
21/01/2012,-,-,-,-
22/01/2012,-,-,-,-
23/01/2012,-,-,-,-
24/01/2012,-,-,-,-
25/01/2012,-,-,-,-
26/01/2012,-,-,-,-
27/01/2012,-,-,-,-
28/01/2012,-,-,-,-
29/01/2012,-,-,-,-
30/01/2012,-,-,-,-
31/01/2012,-,-,-,-
01/02/2012,-,-,-,-
02/02/2012,-,-,-,-
03/02/2012,-,-,-,-
04/02/2012,-,-,-,-
05/02/2012,-,-,-,-
06/02/2012,-,-,-,-
07/02/2012,-,-,-,-
08/02/2012,-,-,-,-
09/02/2012,-,-,-,-
10/02/2012,-,-,-,-
11/02/2012,-,-,-,-
12/02/2012,-,-,-,-
13/02/2012,-,-,-,-
14/02/2012,-,-,-,-
15/02/2012,-,-,-,-
16/02/2012,-,-,-,-
17/02/2012,-,-,-,-
18/02/2012,-,-,-,-
19/02/2012,-,-,-,-
20/02/2012,-,-,-,-
21/02/2012,-,-,-,-
22/02/2012,-,-,-,-
23/02/2012,-,-,-,-
24/02/2012,-,-,-,-
25/02/2012,-,-,-,-
26/02/2012,-,-,-,-
27/02/2012,-,-,-,-
28/02/2012,-,-,-,-
29/02/2012,-,-,-,-
01/03/2012,-,-,-,-
02/03/2012,-,-,-,-
03/03/2012,-,-,-,-
04/03/2012,-,-,-,-
05/03/2012,-,-,-,-
06/03/2012,-,-,-,-
07/03/2012,-,-,-,-
08/03/2012,-,-,-,-
09/03/2012,-,-,-,-
10/03/2012,-,-,-,-
11/03/2012,-,-,-,-
12/03/2012,-,-,-,-
13/03/2012,-,-,-,-
14/03/2012,-,-,-,-
15/03/2012,-,-,-,-
16/03/2012,-,-,-,-
17/03/2012,-,-,-,-
18/03/2012,-,-,-,-
19/03/2012,-,-,-,-
20/03/2012,-,-,-,-
21/03/2012,-,-,-,-
22/03/2012,-,-,-,-
23/03/2012,-,-,-,-
24/03/2012,-,-,-,-
25/03/2012,-,-,-,-
26/03/2012,-,-,-,-
27/03/2012,-,-,-,-
28/03/2012,-,-,-,-
29/03/2012,-,-,-,-
30/03/2012,-,-,-,-
31/03/2012,-,-,-,-
01/04/2012,-,24.0,9.0,0.0
02/04/2012,-,24.0,8.0,0.0
03/04/2012,-,13.0,10.0,1.9
04/04/2012,-,16.0,8.0,1.2
05/04/2012,-,12.0,8.0,9.5
06/04/2012,-,15.0,8.0,2.0
07/04/2012,-,11.0,1.0,0.0
08/04/2012,-,16.0,4.0,0.0
09/04/2012,-,22.0,8.0,0.3
10/04/2012,-,19.0,10.0,5.2
11/04/2012,-,16.0,4.0,0.0
12/04/2012,-,11.0,7.0,0.4
13/04/2012,-,15.0,6.0,4.2
14/04/2012,-,13.0,7.0,0.0
15/04/2012,-,13.0,5.0,0.0
16/04/2012,-,11.0,4.0,0.0
17/04/2012,-,20.0,4.0,1.3
18/04/2012,-,15.0,7.0,0.0
19/04/2012,-,16.0,8.0,2.1
20/04/2012,-,19.0,7.0,2.0
21/04/2012,-,20.0,7.0,2.0
22/04/2012,-,16.0,7.0,0.1
23/04/2012,-,16.0,5.0,0.0
24/04/2012,-,16.0,5.0,0.2
25/04/2012,-,23.0,8.0,0.3
26/04/2012,-,16.0,10.0,0.2
27/04/2012,-,24.0,7.0,8.0
28/04/2012,-,12.0,8.0,10.0
29/04/2012,-,16.0,6.0,5.7
30/04/2012,-,16.0,7.0,12.0
01/05/2012,-,19.0,5.0,1.0
02/05/2012,-,22.0,8.0,0.0
03/05/2012,-,24.0,11.0,2.4
04/05/2012,-,20.0,11.0,5.0
05/05/2012,-,20.0,7.0,2.0
06/05/2012,-,20.0,8.0,0.0
07/05/2012,-,23.0,7.0,0.8
08/05/2012,-,25.0,13.0,0.0
09/05/2012,-,30.0,12.0,0.0
10/05/2012,-,31.0,16.0,0.0
11/05/2012,-,34.0,17.0,0.0
12/05/2012,-,30.0,18.0,0.0
13/05/2012,-,24.0,13.0,0.0
14/05/2012,-,26.0,10.0,0.0
15/05/2012,-,22.0,9.0,0.0
16/05/2012,-,22.0,8.0,0.0
17/05/2012,-,26.0,13.0,0.0
18/05/2012,-,24.0,15.0,1.0
19/05/2012,-,20.0,12.0,24.0
20/05/2012,-,12.0,10.0,2.0
21/05/2012,-,17.0,9.0,0.0
22/05/2012,-,20.0,11.0,0.0
23/05/2012,-,27.0,11.0,0.0
24/05/2012,-,31.0,14.0,0.0
25/05/2012,-,31.0,15.0,0.0
26/05/2012,-,26.0,16.0,0.0
27/05/2012,-,27.0,11.0,0.0
28/05/2012,-,29.0,12.0,7.9
29/05/2012,-,30.0,16.0,0.0
30/05/2012,-,33.0,13.0,0.0
31/05/2012,-,34.0,15.0,0.0
01/06/2012,-,-,-,-
02/06/2012,-,-,-,-
03/06/2012,-,-,-,-
04/06/2012,-,-,-,-
05/06/2012,-,-,-,-
06/06/2012,-,-,-,-
07/06/2012,-,-,-,-
08/06/2012,-,-,-,-
09/06/2012,-,-,-,-
10/06/2012,-,-,-,-
11/06/2012,-,-,-,-
12/06/2012,-,-,-,-
13/06/2012,-,-,-,-
14/06/2012,-,-,-,-
15/06/2012,-,-,-,-
16/06/2012,-,-,-,-
17/06/2012,-,-,-,-
18/06/2012,-,-,-,-
19/06/2012,-,-,-,-
20/06/2012,-,-,-,-
21/06/2012,-,-,-,-
22/06/2012,-,-,-,-
23/06/2012,-,-,-,-
24/06/2012,-,-,-,-
25/06/2012,-,-,-,-
26/06/2012,-,-,-,-
27/06/2012,-,-,-,-
28/06/2012,-,-,-,-
29/06/2012,-,-,-,-
30/06/2012,-,-,-,-
01/07/2012,-,-,-,-
02/07/2012,-,-,-,-
03/07/2012,-,-,-,-
04/07/2012,-,-,-,-
05/07/2012,-,-,-,-
06/07/2012,-,-,-,-
07/07/2012,-,-,-,-
08/07/2012,-,-,-,-
09/07/2012,-,-,-,-
10/07/2012,-,-,-,-
11/07/2012,-,-,-,-
12/07/2012,-,-,-,-
13/07/2012,-,-,-,-
14/07/2012,-,-,-,-
15/07/2012,-,-,-,-
16/07/2012,-,-,-,-
17/07/2012,-,-,-,-
18/07/2012,-,-,-,-
19/07/2012,-,-,-,-
20/07/2012,-,-,-,-
21/07/2012,-,-,-,-
22/07/2012,-,-,-,-
23/07/2012,-,-,-,-
24/07/2012,-,-,-,-
25/07/2012,-,-,-,-
26/07/2012,-,-,-,-
27/07/2012,-,-,-,-
28/07/2012,-,-,-,-
29/07/2012,-,-,-,-
30/07/2012,-,-,-,-
31/07/2012,-,-,-,-
01/08/2012,-,-,-,-
02/08/2012,-,-,-,-
03/08/2012,-,-,-,-
04/08/2012,-,-,-,-
05/08/2012,-,-,-,-
06/08/2012,-,-,-,-
07/08/2012,-,-,-,-
08/08/2012,-,-,-,-
09/08/2012,-,-,-,-
10/08/2012,-,-,-,-
11/08/2012,-,-,-,-
12/08/2012,-,-,-,-
13/08/2012,-,-,-,-
14/08/2012,-,-,-,-
15/08/2012,-,-,-,-
16/08/2012,-,-,-,-
17/08/2012,-,-,-,-
18/08/2012,-,-,-,-
19/08/2012,-,-,-,-
20/08/2012,-,-,-,-
21/08/2012,-,-,-,-
22/08/2012,-,-,-,-
23/08/2012,-,-,-,-
24/08/2012,-,-,-,-
25/08/2012,-,-,-,-
26/08/2012,-,-,-,-
27/08/2012,-,-,-,-
28/08/2012,-,-,-,-
29/08/2012,-,-,-,-
30/08/2012,-,-,-,-
31/08/2012,-,-,-,-
01/09/2012,-,-,-,-
02/09/2012,-,-,-,-
03/09/2012,-,-,-,-
04/09/2012,-,-,-,-
05/09/2012,-,-,-,-
06/09/2012,-,-,-,-
07/09/2012,-,-,-,-
08/09/2012,-,-,-,-
09/09/2012,-,-,-,-
10/09/2012,-,-,-,-
11/09/2012,-,-,-,-
12/09/2012,-,-,-,-
13/09/2012,-,-,-,-
14/09/2012,-,-,-,-
15/09/2012,-,-,-,-
16/09/2012,-,-,-,-
17/09/2012,-,-,-,-
18/09/2012,-,-,-,-
19/09/2012,-,-,-,-
20/09/2012,-,-,-,-
21/09/2012,-,-,-,-
22/09/2012,-,-,-,-
23/09/2012,-,-,-,-
24/09/2012,-,-,-,-
25/09/2012,-,-,-,-
26/09/2012,-,-,-,-
27/09/2012,-,-,-,-
28/09/2012,-,-,-,-
29/09/2012,-,-,-,-
30/09/2012,-,-,-,-
01/10/2012,-,-,-,-
02/10/2012,-,-,-,-
03/10/2012,-,-,-,-
04/10/2012,-,-,-,-
05/10/2012,-,-,-,-
06/10/2012,-,-,-,-
07/10/2012,-,-,-,-
08/10/2012,-,-,-,-
09/10/2012,-,-,-,-
10/10/2012,-,-,-,-
11/10/2012,-,-,-,-
12/10/2012,-,-,-,-
13/10/2012,-,-,-,-
14/10/2012,-,-,-,-
15/10/2012,-,-,-,-
16/10/2012,-,-,-,-
17/10/2012,-,-,-,-
18/10/2012,-,-,-,-
19/10/2012,-,-,-,-
20/10/2012,-,-,-,-
21/10/2012,-,-,-,-
22/10/2012,-,-,-,-
23/10/2012,-,-,-,-
24/10/2012,-,-,-,-
25/10/2012,-,-,-,-
26/10/2012,-,-,-,-
27/10/2012,-,-,-,-
28/10/2012,-,-,-,-
29/10/2012,-,-,-,-
30/10/2012,-,-,-,-
31/10/2012,-,-,-,-
01/11/2012,-,-,-,-
02/11/2012,-,-,-,-
03/11/2012,-,-,-,-
04/11/2012,-,-,-,-
05/11/2012,-,-,-,-
06/11/2012,-,-,-,-
07/11/2012,-,-,-,-
08/11/2012,-,-,-,-
09/11/2012,-,-,-,-
10/11/2012,-,-,-,-
11/11/2012,-,-,-,-
12/11/2012,-,-,-,-
13/11/2012,-,-,-,-
14/11/2012,-,-,-,-
15/11/2012,-,-,-,-
16/11/2012,-,-,-,-
17/11/2012,-,-,-,-
18/11/2012,-,-,-,-
19/11/2012,-,-,-,-
20/11/2012,-,-,-,-
21/11/2012,-,-,-,-
22/11/2012,-,-,-,-
23/11/2012,-,-,-,-
24/11/2012,-,-,-,-
25/11/2012,-,-,-,-
26/11/2012,-,-,-,-
27/11/2012,-,-,-,-
28/11/2012,-,-,-,-
29/11/2012,-,-,-,-
30/11/2012,-,-,-,-
01/12/2012,-,-,-,-
02/12/2012,-,-,-,-
03/12/2012,-,-,-,-
04/12/2012,-,-,-,-
05/12/2012,-,-,-,-
06/12/2012,-,-,-,-
07/12/2012,-,-,-,-
08/12/2012,-,-,-,-
09/12/2012,-,-,-,-
10/12/2012,-,-,-,-
11/12/2012,-,-,-,-
12/12/2012,-,-,-,-
13/12/2012,-,-,-,-
14/12/2012,-,-,-,-
15/12/2012,-,-,-,-
16/12/2012,-,-,-,-
17/12/2012,-,-,-,-
18/12/2012,-,-,-,-
19/12/2012,-,-,-,-
20/12/2012,-,-,-,-
21/12/2012,-,-,-,-
22/12/2012,-,-,-,-
23/12/2012,-,-,-,-
24/12/2012,-,-,-,-
25/12/2012,-,-,-,-
26/12/2012,-,-,-,-
27/12/2012,-,-,-,-
