Fecha, Temperatura media, Temperatura maxima, Temperatura minima, Precipitacion acumulada
01/01/2011,-,-,-,-
02/01/2011,-,-,-,-
03/01/2011,-,-,-,-
04/01/2011,-,-,-,-
05/01/2011,-,-,-,-
06/01/2011,-,-,-,-
07/01/2011,-,-,-,-
08/01/2011,-,-,-,-
09/01/2011,-,-,-,-
10/01/2011,-,-,-,-
11/01/2011,-,-,-,-
12/01/2011,-,-,-,-
13/01/2011,-,-,-,-
14/01/2011,-,-,-,-
15/01/2011,-,-,-,-
16/01/2011,-,-,-,-
17/01/2011,-,-,-,-
18/01/2011,-,-,-,-
19/01/2011,-,-,-,-
20/01/2011,-,-,-,-
21/01/2011,-,-,-,-
22/01/2011,-,-,-,-
23/01/2011,-,-,-,-
24/01/2011,-,-,-,-
25/01/2011,-,-,-,-
26/01/2011,-,-,-,-
27/01/2011,-,-,-,-
28/01/2011,-,-,-,-
29/01/2011,-,-,-,-
30/01/2011,-,-,-,-
31/01/2011,-,-,-,-
01/02/2011,-,-,-,-
02/02/2011,-,-,-,-
03/02/2011,-,-,-,-
04/02/2011,-,-,-,-
05/02/2011,-,-,-,-
06/02/2011,-,-,-,-
07/02/2011,-,-,-,-
08/02/2011,-,-,-,-
09/02/2011,-,-,-,-
10/02/2011,-,-,-,-
11/02/2011,-,-,-,-
12/02/2011,-,-,-,-
13/02/2011,-,-,-,-
14/02/2011,-,-,-,-
15/02/2011,-,-,-,-
16/02/2011,-,-,-,-
17/02/2011,-,-,-,-
18/02/2011,-,-,-,-
19/02/2011,-,-,-,-
20/02/2011,-,-,-,-
21/02/2011,-,-,-,-
22/02/2011,-,-,-,-
23/02/2011,-,-,-,-
24/02/2011,-,-,-,-
25/02/2011,-,-,-,-
26/02/2011,-,-,-,-
27/02/2011,-,-,-,-
28/02/2011,-,-,-,-
01/03/2011,-,-,-,-
02/03/2011,-,-,-,-
03/03/2011,-,-,-,-
04/03/2011,-,-,-,-
05/03/2011,-,-,-,-
06/03/2011,-,-,-,-
07/03/2011,-,-,-,-
08/03/2011,-,-,-,-
09/03/2011,-,-,-,-
10/03/2011,-,-,-,-
11/03/2011,-,-,-,-
12/03/2011,-,-,-,-
13/03/2011,-,-,-,-
14/03/2011,-,-,-,-
15/03/2011,-,-,-,-
16/03/2011,-,-,-,-
17/03/2011,-,-,-,-
18/03/2011,-,-,-,-
19/03/2011,-,-,-,-
20/03/2011,-,-,-,-
21/03/2011,-,-,-,-
22/03/2011,-,-,-,-
23/03/2011,-,-,-,-
24/03/2011,-,-,-,-
25/03/2011,-,-,-,-
26/03/2011,-,-,-,-
27/03/2011,-,-,-,-
28/03/2011,-,-,-,-
29/03/2011,-,-,-,-
30/03/2011,-,-,-,-
31/03/2011,-,-,-,-
01/04/2011,-,-,-,-
02/04/2011,-,-,-,-
03/04/2011,-,-,-,-
04/04/2011,-,-,-,-
05/04/2011,-,-,-,-
06/04/2011,-,-,-,-
07/04/2011,-,-,-,-
08/04/2011,-,-,-,-
09/04/2011,-,-,-,-
10/04/2011,-,-,-,-
11/04/2011,-,-,-,-
12/04/2011,-,-,-,-
13/04/2011,-,-,-,-
14/04/2011,-,-,-,-
15/04/2011,-,-,-,-
16/04/2011,-,-,-,-
17/04/2011,-,-,-,-
18/04/2011,-,-,-,-
19/04/2011,-,-,-,-
20/04/2011,-,-,-,-
21/04/2011,-,-,-,-
22/04/2011,-,-,-,-
23/04/2011,-,-,-,-
24/04/2011,-,-,-,-
25/04/2011,-,-,-,-
26/04/2011,-,-,-,-
27/04/2011,-,-,-,-
28/04/2011,-,-,-,-
29/04/2011,-,-,-,-
30/04/2011,-,-,-,-
01/05/2011,-,23.0,12.0,0.5
02/05/2011,-,21.0,8.0,0.0
03/05/2011,-,20.0,12.0,0.0
04/05/2011,-,21.0,6.0,0.0
05/05/2011,-,24.0,10.0,0.0
06/05/2011,-,24.0,10.0,1.0
07/05/2011,-,15.0,10.0,20.0
08/05/2011,-,23.0,11.0,0.0
09/05/2011,-,27.0,10.0,0.0
10/05/2011,-,27.0,14.0,0.0
11/05/2011,-,27.0,15.0,0.0
12/05/2011,-,26.0,14.0,0.0
13/05/2011,-,24.0,14.0,1.0
14/05/2011,-,16.0,13.0,0.0
15/05/2011,-,19.0,10.0,0.0
16/05/2011,-,25.0,8.0,0.0
17/05/2011,-,29.0,9.0,0.0
18/05/2011,-,26.0,14.0,0.0
19/05/2011,-,25.0,14.0,0.0
20/05/2011,-,25.0,15.0,0.0
21/05/2011,-,27.0,12.0,0.0
22/05/2011,-,23.0,15.0,0.0
23/05/2011,-,30.0,13.0,0.0
24/05/2011,-,30.0,15.0,0.0
25/05/2011,-,29.0,15.0,1.0
26/05/2011,-,25.0,15.0,3.0
27/05/2011,-,20.0,13.0,0.0
28/05/2011,-,29.0,10.0,0.0
29/05/2011,-,29.0,12.0,0.0
30/05/2011,-,24.0,16.0,1.8
31/05/2011,-,17.0,15.0,0.0
01/06/2011,-,-,-,-
02/06/2011,-,-,-,-
03/06/2011,-,-,-,-
04/06/2011,-,-,-,-
05/06/2011,-,-,-,-
06/06/2011,-,-,-,-
07/06/2011,-,-,-,-
08/06/2011,-,-,-,-
09/06/2011,-,-,-,-
10/06/2011,-,-,-,-
11/06/2011,-,-,-,-
12/06/2011,-,-,-,-
13/06/2011,-,-,-,-
14/06/2011,-,-,-,-
15/06/2011,-,-,-,-
16/06/2011,-,-,-,-
17/06/2011,-,-,-,-
18/06/2011,-,-,-,-
19/06/2011,-,-,-,-
20/06/2011,-,-,-,-
21/06/2011,-,-,-,-
22/06/2011,-,-,-,-
23/06/2011,-,-,-,-
24/06/2011,-,-,-,-
25/06/2011,-,-,-,-
26/06/2011,-,-,-,-
27/06/2011,-,-,-,-
28/06/2011,-,-,-,-
29/06/2011,-,-,-,-
30/06/2011,-,-,-,-
01/07/2011,-,-,-,-
02/07/2011,-,-,-,-
03/07/2011,-,-,-,-
04/07/2011,-,-,-,-
05/07/2011,-,-,-,-
06/07/2011,-,-,-,-
07/07/2011,-,-,-,-
08/07/2011,-,-,-,-
09/07/2011,-,-,-,-
10/07/2011,-,-,-,-
11/07/2011,-,-,-,-
12/07/2011,-,-,-,-
13/07/2011,-,-,-,-
14/07/2011,-,-,-,-
15/07/2011,-,-,-,-
16/07/2011,-,-,-,-
17/07/2011,-,-,-,-
18/07/2011,-,-,-,-
19/07/2011,-,-,-,-
20/07/2011,-,-,-,-
21/07/2011,-,-,-,-
22/07/2011,-,-,-,-
23/07/2011,-,-,-,-
24/07/2011,-,-,-,-
25/07/2011,-,-,-,-
26/07/2011,-,-,-,-
27/07/2011,-,-,-,-
28/07/2011,-,-,-,-
29/07/2011,-,-,-,-
30/07/2011,-,-,-,-
31/07/2011,-,-,-,-
01/08/2011,-,-,-,-
02/08/2011,-,-,-,-
03/08/2011,-,-,-,-
04/08/2011,-,-,-,-
05/08/2011,-,-,-,-
06/08/2011,-,-,-,-
07/08/2011,-,-,-,-
08/08/2011,-,-,-,-
09/08/2011,-,-,-,-
10/08/2011,-,-,-,-
11/08/2011,-,-,-,-
12/08/2011,-,-,-,-
13/08/2011,-,-,-,-
14/08/2011,-,-,-,-
15/08/2011,-,-,-,-
16/08/2011,-,-,-,-
17/08/2011,-,-,-,-
18/08/2011,-,-,-,-
19/08/2011,-,-,-,-
20/08/2011,-,-,-,-
21/08/2011,-,-,-,-
22/08/2011,-,-,-,-
23/08/2011,-,-,-,-
24/08/2011,-,-,-,-
25/08/2011,-,-,-,-
26/08/2011,-,-,-,-
27/08/2011,-,-,-,-
28/08/2011,-,-,-,-
29/08/2011,-,-,-,-
30/08/2011,-,-,-,-
31/08/2011,-,-,-,-
01/09/2011,-,-,-,-
02/09/2011,-,-,-,-
03/09/2011,-,-,-,-
04/09/2011,-,-,-,-
05/09/2011,-,-,-,-
06/09/2011,-,-,-,-
07/09/2011,-,-,-,-
08/09/2011,-,-,-,-
09/09/2011,-,-,-,-
10/09/2011,-,-,-,-
11/09/2011,-,-,-,-
12/09/2011,-,-,-,-
13/09/2011,-,-,-,-
14/09/2011,-,-,-,-
15/09/2011,-,-,-,-
16/09/2011,-,-,-,-
17/09/2011,-,-,-,-
18/09/2011,-,-,-,-
19/09/2011,-,-,-,-
20/09/2011,-,-,-,-
21/09/2011,-,-,-,-
22/09/2011,-,-,-,-
23/09/2011,-,-,-,-
24/09/2011,-,-,-,-
25/09/2011,-,-,-,-
26/09/2011,-,-,-,-
27/09/2011,-,-,-,-
28/09/2011,-,-,-,-
29/09/2011,-,-,-,-
30/09/2011,-,-,-,-
01/10/2011,-,-,-,-
02/10/2011,-,-,-,-
03/10/2011,-,-,-,-
04/10/2011,-,-,-,-
05/10/2011,-,-,-,-
06/10/2011,-,-,-,-
07/10/2011,-,-,-,-
08/10/2011,-,-,-,-
09/10/2011,-,-,-,-
10/10/2011,-,-,-,-
11/10/2011,-,-,-,-
12/10/2011,-,-,-,-
13/10/2011,-,-,-,-
14/10/2011,-,-,-,-
15/10/2011,-,-,-,-
16/10/2011,-,-,-,-
17/10/2011,-,-,-,-
18/10/2011,-,-,-,-
19/10/2011,-,-,-,-
20/10/2011,-,-,-,-
21/10/2011,-,-,-,-
22/10/2011,-,-,-,-
23/10/2011,-,-,-,-
24/10/2011,-,-,-,-
25/10/2011,-,-,-,-
26/10/2011,-,-,-,-
27/10/2011,-,-,-,-
28/10/2011,-,-,-,-
29/10/2011,-,-,-,-
30/10/2011,-,-,-,-
31/10/2011,-,-,-,-
01/11/2011,-,-,-,-
02/11/2011,-,-,-,-
03/11/2011,-,-,-,-
04/11/2011,-,-,-,-
05/11/2011,-,-,-,-
06/11/2011,-,-,-,-
07/11/2011,-,-,-,-
08/11/2011,-,-,-,-
09/11/2011,-,-,-,-
10/11/2011,-,-,-,-
11/11/2011,-,-,-,-
12/11/2011,-,-,-,-
13/11/2011,-,-,-,-
14/11/2011,-,-,-,-
15/11/2011,-,-,-,-
16/11/2011,-,-,-,-
17/11/2011,-,-,-,-
18/11/2011,-,-,-,-
19/11/2011,-,-,-,-
20/11/2011,-,-,-,-
21/11/2011,-,-,-,-
22/11/2011,-,-,-,-
23/11/2011,-,-,-,-
24/11/2011,-,-,-,-
25/11/2011,-,-,-,-
26/11/2011,-,-,-,-
27/11/2011,-,-,-,-
28/11/2011,-,-,-,-
29/11/2011,-,-,-,-
30/11/2011,-,-,-,-
01/12/2011,-,-,-,-
02/12/2011,-,-,-,-
03/12/2011,-,-,-,-
04/12/2011,-,-,-,-
05/12/2011,-,-,-,-
06/12/2011,-,-,-,-
07/12/2011,-,-,-,-
08/12/2011,-,-,-,-
09/12/2011,-,-,-,-
10/12/2011,-,-,-,-
11/12/2011,-,-,-,-
12/12/2011,-,-,-,-
13/12/2011,-,-,-,-
14/12/2011,-,-,-,-
15/12/2011,-,-,-,-
16/12/2011,-,-,-,-
17/12/2011,-,-,-,-
18/12/2011,-,-,-,-
19/12/2011,-,-,-,-
20/12/2011,-,-,-,-
21/12/2011,-,-,-,-
22/12/2011,-,-,-,-
23/12/2011,-,-,-,-
24/12/2011,-,-,-,-
25/12/2011,-,-,-,-
26/12/2011,-,-,-,-
27/12/2011,-,-,-,-
