Fecha, Temperatura media, Temperatura maxima, Temperatura minima, Precipitacion acumulada
01/01/2013,-,7.0,2.0,4.4
02/01/2013,-,6.0,5.5,0.0
03/01/2013,-,11.5,3.5,0.0
04/01/2013,-,14.5,-2.0,0.0
05/01/2013,-,16.0,-0.5,0.0
06/01/2013,-,14.0,1.0,0.0
07/01/2013,-,10.0,-0.5,0.0
08/01/2013,-,9.5,-2.5,0.0
09/01/2013,-,9.5,-2.5,5.2
10/01/2013,-,10.5,-0.5,0.0
11/01/2013,-,9.0,2.0,0.0
12/01/2013,-,8.0,1.5,10.1
13/01/2013,-,5.0,2.5,14.8
14/01/2013,-,3.5,0.5,27.6
15/01/2013,-,6.0,0.5,36.8
16/01/2013,-,7.5,2.5,12.9
17/01/2013,-,5.0,1.5,8.4
18/01/2013,-,10.5,2.5,18.7
19/01/2013,-,7.0,5.0,19.0
20/01/2013,-,5.0,3.0,6.3
21/01/2013,-,5.5,3.5,0.0
22/01/2013,-,2.0,1.0,4.7
23/01/2013,-,2.5,0.5,30.6
24/01/2013,-,3.0,0.5,9.1
25/01/2013,-,6.5,0.0,11.4
26/01/2013,-,8.0,3.5,2.1
27/01/2013,-,6.5,2.0,12.7
28/01/2013,-,10.0,4.0,0.6
29/01/2013,-,10.5,1.0,0.0
30/01/2013,-,12.5,1.0,0.0
31/01/2013,-,15.0,3.5,0.0
01/02/2013,-,8.5,4.0,23.1
02/02/2013,-,5.5,0.5,11.4
03/02/2013,-,5.5,1.5,0.5
04/02/2013,-,9.5,4.0,1.1
05/02/2013,-,10.0,5.5,4.6
06/02/2013,-,2.5,1.5,29.6
07/02/2013,-,1.5,0.0,13.4
08/02/2013,-,1.5,0.5,18.3
09/02/2013,-,3.5,0.5,8.3
10/02/2013,-,6.5,1.5,11.7
11/02/2013,-,1.5,0.5,14.6
12/02/2013,-,3.5,1.0,2.5
13/02/2013,-,7.5,3.0,1.5
14/02/2013,-,8.0,5.5,0.5
15/02/2013,-,10.0,6.5,0.0
16/02/2013,-,9.5,-0.5,0.0
17/02/2013,-,9.5,0.0,0.6
18/02/2013,-,9.5,2.0,0.3
19/02/2013,-,10.5,6.0,0.0
20/02/2013,-,13.0,4.0,0.0
21/02/2013,-,11.0,4.5,0.0
22/02/2013,-,6.0,4.5,0.0
23/02/2013,-,-1.0,-3.5,1.0
24/02/2013,-,-0.5,-1.5,1.2
25/02/2013,-,1.0,-2.0,0.5
26/02/2013,-,2.0,-1.0,0.0
27/02/2013,-,7.0,-3.5,0.0
28/02/2013,-,7.0,-1.5,0.0
01/03/2013,-,11.0,2.5,0.0
02/03/2013,-,12.5,1.5,0.0
03/03/2013,-,15.0,-0.5,0.0
04/03/2013,-,12.0,6.0,12.2
05/03/2013,-,11.0,8.5,8.6
06/03/2013,-,18.0,8.0,3.6
07/03/2013,-,15.0,9.0,12.4
08/03/2013,-,15.5,7.5,5.9
09/03/2013,-,15.5,5.0,0.0
10/03/2013,-,13.5,6.5,0.0
11/03/2013,-,12.0,5.5,9.0
12/03/2013,-,10.5,5.5,18.0
13/03/2013,-,1.0,0.0,0.9
14/03/2013,-,2.5,-1.5,6.1
15/03/2013,-,8.0,0.0,0.0
16/03/2013,-,7.0,1.0,4.0
17/03/2013,-,7.0,5.5,3.6
18/03/2013,-,11.0,0.5,0.3
19/03/2013,-,11.5,0.5,5.9
20/03/2013,-,12.0,1.5,0.0
21/03/2013,-,15.5,1.5,0.0
22/03/2013,-,17.0,5.5,2.2
23/03/2013,-,16.0,3.0,0.0
24/03/2013,-,16.0,2.5,0.0
25/03/2013,-,12.5,3.5,19.3
26/03/2013,-,15.5,6.5,4.2
27/03/2013,-,13.5,6.5,17.3
28/03/2013,-,14.0,8.5,3.8
29/03/2013,-,16.0,9.5,24.6
30/03/2013,-,12.5,8.5,1.9
31/03/2013,-,15.5,4.0,4.8
01/04/2013,-,12.0,4.0,6.2
02/04/2013,-,14.5,5.0,0.0
03/04/2013,-,16.5,1.0,6.4
04/04/2013,-,11.0,1.5,1.3
05/04/2013,-,7.5,2.5,11.1
06/04/2013,-,6.0,0.5,0.0
07/04/2013,-,11.5,1.0,0.0
08/04/2013,-,13.5,3.5,0.0
09/04/2013,-,11.5,6.0,0.8
10/04/2013,-,19.0,2.5,0.0
11/04/2013,-,18.5,4.5,5.1
12/04/2013,-,16.5,7.5,0.0
13/04/2013,-,21.5,5.5,0.0
14/04/2013,-,25.0,8.0,0.0
15/04/2013,-,24.0,8.5,0.0
16/04/2013,-,23.0,8.5,0.0
17/04/2013,-,27.0,11.0,0.0
18/04/2013,-,17.0,9.0,0.0
19/04/2013,-,12.0,7.5,0.0
20/04/2013,-,14.5,5.5,0.0
21/04/2013,-,15.5,4.0,0.0
22/04/2013,-,12.5,5.0,0.0
23/04/2013,-,19.0,5.0,0.0
24/04/2013,-,21.5,5.5,0.0
25/04/2013,-,21.0,5.5,0.0
26/04/2013,-,12.5,6.5,0.5
27/04/2013,-,8.0,1.0,5.0
28/04/2013,-,7.5,0.5,0.5
29/04/2013,-,9.0,4.0,5.0
30/04/2013,-,12.0,5.0,17.3
01/05/2013,-,13.0,5.0,3.0
02/05/2013,-,10.0,6.0,1.0
03/05/2013,-,13.5,6.0,0.0
04/05/2013,-,19.0,4.5,0.0
05/05/2013,-,21.0,4.5,0.0
06/05/2013,-,23.5,4.0,0.2
07/05/2013,-,22.0,10.0,0.0
08/05/2013,-,19.5,13.5,0.0
09/05/2013,-,15.5,9.5,10.3
10/05/2013,-,15.0,8.5,0.0
11/05/2013,-,15.5,6.0,0.0
12/05/2013,-,12.0,7.5,0.0
13/05/2013,-,20.5,5.5,0.0
14/05/2013,-,21.0,5.0,8.2
15/05/2013,-,8.5,6.5,2.9
16/05/2013,-,12.5,5.0,2.4
17/05/2013,-,12.5,4.5,20.6
18/05/2013,-,10.0,3.0,10.0
19/05/2013,-,12.0,2.5,0.0
20/05/2013,-,14.5,1.5,0.0
21/05/2013,-,9.5,0.5,0.2
22/05/2013,-,12.0,5.0,0.9
23/05/2013,-,9.5,8.5,1.1
24/05/2013,-,11.5,5.0,1.3
25/05/2013,-,13.0,5.5,0.4
26/05/2013,-,21.5,1.0,0.0
27/05/2013,-,18.5,5.0,16.5
28/05/2013,-,12.0,7.0,2.1
29/05/2013,-,12.0,4.0,2.9
30/05/2013,-,10.0,4.5,6.2
31/05/2013,-,11.5,7.5,3.6
01/06/2013,-,10.5,8.5,0.0
02/06/2013,-,13.0,9.0,0.0
03/06/2013,-,18.5,8.0,0.0
04/06/2013,-,23.5,4.5,0.0
05/06/2013,-,26.5,6.5,0.0
06/06/2013,-,25.5,14.5,0.7
07/06/2013,-,22.0,12.0,32.0
08/06/2013,-,12.5,10.0,39.2
09/06/2013,-,15.5,10.5,10.4
10/06/2013,-,21.5,11.5,0.0
11/06/2013,-,24.0,11.5,0.0
12/06/2013,-,29.0,11.5,0.0
13/06/2013,-,19.0,14.5,0.0
14/06/2013,-,28.0,11.5,0.0
15/06/2013,-,25.0,14.5,0.0
16/06/2013,-,31.0,10.5,0.0
17/06/2013,-,28.0,18.5,4.1
18/06/2013,-,15.0,12.5,21.7
19/06/2013,-,15.5,10.0,2.9
20/06/2013,-,18.0,10.5,2.0
21/06/2013,-,17.0,10.5,3.0
22/06/2013,-,24.0,5.5,0.0
23/06/2013,-,16.5,12.5,0.0
24/06/2013,-,18.5,9.5,0.0
25/06/2013,-,20.5,9.0,0.0
26/06/2013,-,22.0,10.5,0.0
27/06/2013,-,21.5,8.5,0.0
28/06/2013,-,22.0,11.5,0.0
29/06/2013,-,21.5,10.0,0.0
30/06/2013,-,25.5,12.5,0.0
01/07/2013,-,28.0,10.5,0.0
02/07/2013,-,29.0,13.0,0.0
03/07/2013,-,23.5,17.5,0.0
04/07/2013,-,26.0,16.5,0.0
05/07/2013,-,31.5,11.0,0.0
06/07/2013,-,33.0,13.5,0.0
07/07/2013,-,31.0,11.5,0.0
08/07/2013,-,33.5,14.5,0.0
09/07/2013,-,32.0,15.0,0.0
10/07/2013,-,33.0,15.5,0.0
11/07/2013,-,32.0,15.5,0.0
12/07/2013,-,33.5,16.0,0.0
13/07/2013,-,32.0,17.5,0.0
14/07/2013,-,30.5,14.5,0.0
15/07/2013,-,31.5,14.5,59.3
16/07/2013,-,28.5,16.5,7.1
17/07/2013,-,28.0,16.0,0.0
18/07/2013,-,28.5,15.5,0.0
19/07/2013,-,31.5,14.5,0.9
20/07/2013,-,32.0,17.5,0.0
21/07/2013,-,32.0,18.5,2.3
22/07/2013,-,32.5,15.0,5.5
23/07/2013,-,32.0,15.5,0.2
24/07/2013,-,32.5,17.0,0.0
25/07/2013,-,34.5,16.0,0.0
26/07/2013,-,34.5,16.5,0.0
27/07/2013,-,30.0,15.5,0.0
28/07/2013,-,27.0,16.0,11.5
29/07/2013,-,26.5,11.5,0.0
30/07/2013,-,31.5,11.5,0.0
31/07/2013,-,34.5,14.5,0.0
01/08/2013,-,34.5,15.0,0.0
02/08/2013,-,35.0,21.5,0.0
03/08/2013,-,29.0,16.5,0.0
04/08/2013,-,32.0,16.5,0.0
05/08/2013,-,32.0,15.0,0.0
06/08/2013,-,27.0,15.5,0.0
07/08/2013,-,25.5,16.5,10.2
08/08/2013,-,20.5,12.5,1.3
09/08/2013,-,25.0,12.5,0.0
10/08/2013,-,27.0,12.5,0.0
11/08/2013,-,34.0,11.5,0.0
12/08/2013,-,31.5,11.5,3.4
13/08/2013,-,25.5,16.5,0.0
14/08/2013,-,28.0,14.0,0.0
15/08/2013,-,32.0,10.5,0.0
16/08/2013,-,30.0,14.5,0.0
17/08/2013,-,29.5,15.5,0.0
18/08/2013,-,32.0,13.0,0.0
19/08/2013,-,25.0,15.5,0.0
20/08/2013,-,28.0,14.0,0.0
21/08/2013,-,32.5,10.0,0.0
22/08/2013,-,32.0,10.0,0.0
23/08/2013,-,29.0,17.5,0.0
24/08/2013,-,22.0,17.5,0.0
25/08/2013,-,24.0,13.0,0.0
26/08/2013,-,23.0,11.5,0.0
27/08/2013,-,24.5,11.5,0.0
28/08/2013,-,25.0,13.5,0.0
29/08/2013,-,26.0,12.0,0.0
30/08/2013,-,25.5,12.0,0.0
31/08/2013,-,25.0,12.0,0.0
01/09/2013,-,26.0,14.5,0.0
02/09/2013,-,27.0,14.0,0.0
03/09/2013,-,31.5,10.0,0.0
04/09/2013,-,29.5,10.0,0.0
05/09/2013,-,29.5,15.0,2.6
06/09/2013,-,25.0,13.5,10.3
07/09/2013,-,20.5,13.5,18.0
08/09/2013,-,20.0,13.0,0.0
09/09/2013,-,23.5,7.5,0.0
10/09/2013,-,21.5,10.0,0.0
11/09/2013,-,20.0,11.0,0.0
12/09/2013,-,20.5,10.5,0.0
13/09/2013,-,24.5,12.5,0.0
14/09/2013,-,25.5,9.5,0.0
15/09/2013,-,18.5,10.0,0.0
16/09/2013,-,23.0,5.5,0.0
17/09/2013,-,16.5,7.5,0.6
18/09/2013,-,19.5,12.5,1.9
19/09/2013,-,19.0,12.5,0.0
20/09/2013,-,22.5,12.5,0.0
21/09/2013,-,26.0,11.5,0.0
22/09/2013,-,29.5,8.0,0.0
23/09/2013,-,29.0,10.0,0.0
24/09/2013,-,28.5,9.5,0.0
25/09/2013,-,31.0,11.5,0.0
26/09/2013,-,30.5,16.5,0.0
27/09/2013,-,29.5,16.5,0.0
28/09/2013,-,23.5,17.0,9.1
29/09/2013,-,22.0,15.0,0.5
30/09/2013,-,25.5,13.5,0.0
01/10/2013,-,22.0,15.0,2.6
02/10/2013,-,26.0,17.5,0.8
03/10/2013,-,24.5,18.5,74.5
04/10/2013,-,22.0,15.5,6.6
05/10/2013,-,19.0,10.5,0.0
06/10/2013,-,19.5,10.5,0.0
07/10/2013,-,19.5,8.0,0.0
08/10/2013,-,19.5,6.5,0.0
09/10/2013,-,18.5,11.5,0.0
10/10/2013,-,16.0,9.0,0.0
11/10/2013,-,14.0,5.0,0.0
12/10/2013,-,17.0,1.5,0.0
13/10/2013,-,18.5,3.0,0.0
14/10/2013,-,20.5,7.5,0.7
15/10/2013,-,15.5,10.5,0.5
16/10/2013,-,25.0,11.5,0.0
17/10/2013,-,24.5,10.5,0.0
18/10/2013,-,25.5,10.5,0.0
19/10/2013,-,22.5,16.0,0.6
20/10/2013,-,21.0,14.5,0.0
21/10/2013,-,20.5,11.5,0.0
22/10/2013,-,18.5,13.5,4.7
23/10/2013,-,22.0,12.5,0.0
24/10/2013,-,20.0,12.0,1.4
25/10/2013,-,21.5,13.5,26.9
26/10/2013,-,19.5,16.5,0.0
27/10/2013,-,20.0,9.5,0.0
28/10/2013,-,20.5,9.5,2.9
29/10/2013,-,12.0,7.5,0.0
30/10/2013,-,13.5,6.5,0.0
31/10/2013,-,16.0,5.5,0.0
01/11/2013,-,15.5,2.5,0.6
02/11/2013,-,20.5,5.5,2.2
03/11/2013,-,15.0,10.5,8.5
04/11/2013,-,13.5,9.0,20.2
05/11/2013,-,15.5,9.5,6.9
06/11/2013,-,19.5,13.0,0.0
07/11/2013,-,18.5,10.0,0.0
08/11/2013,-,18.5,9.5,4.8
09/11/2013,-,12.5,4.5,4.0
10/11/2013,-,12.0,6.0,4.0
11/11/2013,-,12.0,10.5,0.3
12/11/2013,-,14.5,11.0,0.0
13/11/2013,-,14.5,11.0,0.0
14/11/2013,-,11.5,8.5,4.1
15/11/2013,-,8.0,2.5,0.5
16/11/2013,-,9.0,0.0,0.0
17/11/2013,-,7.0,1.5,4.1
18/11/2013,-,8.5,5.5,0.3
19/11/2013,-,9.5,6.5,8.4
20/11/2013,-,6.5,1.5,8.2
21/11/2013,-,5.5,1.5,24.4
22/11/2013,-,5.5,2.5,0.0
23/11/2013,-,6.0,2.0,0.0
24/11/2013,-,4.0,3.5,0.0
25/11/2013,-,6.5,3.5,0.0
26/11/2013,-,5.0,1.0,0.0
27/11/2013,-,5.0,0.0,0.0
28/11/2013,-,6.5,-5.0,0.0
29/11/2013,-,6.5,1.5,1.2
30/11/2013,-,7.0,1.5,1.0
01/12/2013,-,5.5,1.5,0.0
02/12/2013,-,7.0,1.5,0.0
03/12/2013,-,9.5,-3.0,0.0
04/12/2013,-,13.0,-2.5,0.0
05/12/2013,-,7.5,3.0,0.0
06/12/2013,-,9.5,3.5,0.0
07/12/2013,-,10.0,-1.5,0.0
08/12/2013,-,8.5,-3.0,0.0
09/12/2013,-,6.0,-3.5,0.0
10/12/2013,-,5.0,-2.0,0.0
11/12/2013,-,7.0,-2.0,0.2
12/12/2013,-,3.0,-2.0,0.0
13/12/2013,-,8.5,-1.5,0.2
14/12/2013,-,8.5,4.0,0.0
15/12/2013,-,9.5,-1.5,0.0
16/12/2013,-,14.5,-2.0,0.0
17/12/2013,-,10.5,3.0,0.0
18/12/2013,-,12.0,6.0,3.1
19/12/2013,-,9.0,6.5,8.1
20/12/2013,-,8.5,4.0,0.0
21/12/2013,-,8.5,-2.5,0.0
22/12/2013,-,8.5,-2.5,0.0
23/12/2013,-,12.0,-0.5,0.0
24/12/2013,-,10.0,3.5,8.5
25/12/2013,-,9.5,5.0,3.7
26/12/2013,-,6.5,3.5,1.0
27/12/2013,-,12.5,1.5,6.5
