Fecha, Temperatura media, Temperatura maxima, Temperatura minima, Precipitacion acumulada
01/01/2009,-,13.3,3.6,0.1
02/01/2009,-,13.6,3.1,0.0
03/01/2009,-,6.3,2.1,0.0
04/01/2009,-,7.7,0.6,0.0
05/01/2009,-,6.0,-0.6,0.2
06/01/2009,-,3.3,-1.1,0.1
07/01/2009,-,0.1,-3.3,0.0
08/01/2009,-,0.4,-3.6,0.0
09/01/2009,-,4.8,-5.1,0.7
10/01/2009,-,5.0,-2.0,0.3
11/01/2009,-,2.3,-2.7,0.0
12/01/2009,-,2.9,-3.3,0.0
13/01/2009,-,2.7,-3.3,3.8
14/01/2009,-,10.0,-0.9,0.0
15/01/2009,-,8.9,-2.7,0.0
16/01/2009,-,9.4,-2.7,0.0
17/01/2009,-,11.8,-1.9,0.0
18/01/2009,-,10.6,-0.1,0.0
19/01/2009,-,13.8,3.3,9.8
20/01/2009,-,8.3,-0.7,0.1
21/01/2009,-,6.5,-0.2,5.0
22/01/2009,-,5.1,-0.3,6.9
23/01/2009,-,14.8,4.6,18.9
24/01/2009,-,14.1,2.1,11.5
25/01/2009,-,8.0,0.3,4.0
26/01/2009,-,5.2,0.5,32.4
27/01/2009,-,6.1,1.9,14.3
28/01/2009,-,9.7,2.8,1.5
29/01/2009,-,11.4,3.7,2.6
30/01/2009,-,16.3,4.9,0.0
31/01/2009,-,11.9,6.1,2.0
01/02/2009,-,8.9,4.3,3.1
02/02/2009,-,7.0,3.1,3.5
03/02/2009,-,9.4,1.0,0.0
04/02/2009,-,11.8,4.9,2.4
05/02/2009,-,9.7,5.5,4.8
06/02/2009,-,7.0,0.3,16.3
07/02/2009,-,3.4,0.1,23.3
08/02/2009,-,4.8,0.5,5.5
09/02/2009,-,13.4,2.6,0.4
10/02/2009,-,12.6,2.2,13.7
11/02/2009,-,10.1,2.9,7.3
12/02/2009,-,9.1,4.1,0.2
13/02/2009,-,9.9,1.2,0.0
14/02/2009,-,9.9,0.3,0.0
15/02/2009,-,12.3,-2.5,0.0
16/02/2009,-,10.6,-3.2,0.0
17/02/2009,-,11.7,-1.1,0.0
18/02/2009,-,11.2,4.2,0.0
19/02/2009,-,12.7,3.6,0.0
20/02/2009,-,12.0,-0.8,0.0
21/02/2009,-,12.3,-0.6,0.0
22/02/2009,-,11.3,4.6,0.0
23/02/2009,-,10.0,4.9,0.0
24/02/2009,-,10.8,1.7,0.0
25/02/2009,-,14.9,-1.5,0.0
26/02/2009,-,16.2,-0.1,0.0
27/02/2009,-,18.5,-0.9,0.0
28/02/2009,-,15.5,-0.3,0.0
01/03/2009,-,13.3,6.0,0.1
02/03/2009,-,11.7,3.9,0.0
03/03/2009,-,13.2,0.1,0.1
04/03/2009,-,7.9,1.9,12.0
05/03/2009,-,5.6,0.7,19.3
06/03/2009,-,8.0,1.7,1.1
07/03/2009,-,11.8,4.1,1.6
08/03/2009,-,12.4,7.2,0.1
09/03/2009,-,12.0,1.8,0.0
10/03/2009,-,17.4,-1.6,0.0
11/03/2009,-,14.2,4.9,0.0
12/03/2009,-,19.5,2.5,0.0
13/03/2009,-,22.6,3.6,0.0
14/03/2009,-,20.1,3.6,0.0
15/03/2009,-,17.5,7.4,0.0
16/03/2009,-,22.3,2.7,0.0
17/03/2009,-,20.1,4.4,0.0
18/03/2009,-,20.6,2.1,0.0
19/03/2009,-,23.8,2.1,0.0
20/03/2009,-,22.3,3.8,0.0
21/03/2009,-,16.6,2.0,0.0
22/03/2009,-,15.5,1.9,0.0
23/03/2009,-,17.5,0.1,0.0
24/03/2009,-,12.4,3.1,0.0
25/03/2009,-,15.1,1.4,0.0
26/03/2009,-,21.6,5.3,0.0
27/03/2009,-,20.8,2.0,0.0
28/03/2009,-,9.7,4.7,0.0
29/03/2009,-,10.6,4.9,0.0
30/03/2009,-,12.4,2.0,0.0
31/03/2009,-,13.0,3.0,0.0
01/04/2009,-,10.4,5.0,0.0
02/04/2009,-,12.7,3.5,0.0
03/04/2009,-,15.6,4.9,0.0
04/04/2009,-,18.6,1.9,0.1
05/04/2009,-,22.3,8.0,0.0
06/04/2009,-,22.9,4.6,21.1
07/04/2009,-,11.5,5.5,0.2
08/04/2009,-,15.3,3.7,0.0
09/04/2009,-,20.3,1.8,0.0
10/04/2009,-,13.9,3.3,22.5
11/04/2009,-,8.7,3.8,2.6
12/04/2009,-,12.2,3.6,0.0
13/04/2009,-,18.8,6.8,0.0
14/04/2009,-,18.0,5.3,4.9
15/04/2009,-,14.8,7.3,0.1
16/04/2009,-,15.3,4.7,3.8
17/04/2009,-,16.6,5.2,0.0
18/04/2009,-,17.6,2.3,0.1
19/04/2009,-,15.4,4.6,2.2
20/04/2009,-,13.5,7.3,0.1
21/04/2009,-,14.8,7.7,0.0
22/04/2009,-,18.2,7.8,0.0
23/04/2009,-,26.8,3.7,0.0
24/04/2009,-,26.4,5.6,0.8
25/04/2009,-,10.0,6.1,14.3
26/04/2009,-,10.0,5.4,0.3
27/04/2009,-,15.5,5.7,3.1
28/04/2009,-,16.1,7.7,0.7
29/04/2009,-,15.7,6.9,0.4
30/04/2009,-,17.1,5.3,0.2
01/05/2009,-,13.7,6.7,0.0
02/05/2009,-,18.5,8.6,0.0
03/05/2009,-,19.6,6.4,0.0
04/05/2009,-,15.6,8.3,0.0
05/05/2009,-,19.6,8.2,0.0
06/05/2009,-,29.6,5.7,0.4
07/05/2009,-,29.1,11.4,1.0
08/05/2009,-,22.6,10.5,0.0
09/05/2009,-,26.6,10.1,8.2
10/05/2009,-,23.8,14.0,0.1
11/05/2009,-,26.0,11.9,5.0
12/05/2009,-,25.4,9.4,0.0
13/05/2009,-,25.0,12.1,6.2
14/05/2009,-,14.7,8.5,0.3
15/05/2009,-,14.7,6.7,0.0
16/05/2009,-,26.2,4.3,0.0
17/05/2009,-,21.6,8.5,0.0
18/05/2009,-,21.1,8.7,0.0
19/05/2009,-,24.4,8.1,0.0
20/05/2009,-,30.1,8.8,7.7
21/05/2009,-,25.5,12.1,0.0
22/05/2009,-,29.6,13.9,0.9
23/05/2009,-,26.8,16.3,8.1
24/05/2009,-,23.5,12.6,5.9
25/05/2009,-,21.6,11.9,6.9
26/05/2009,-,17.2,10.5,0.4
27/05/2009,-,18.0,8.3,0.0
28/05/2009,-,25.2,10.0,0.0
29/05/2009,-,30.6,10.3,0.0
30/05/2009,-,29.0,12.0,0.0
31/05/2009,-,25.4,11.8,0.0
01/06/2009,-,24.5,9.5,0.0
02/06/2009,-,26.2,10.3,0.0
03/06/2009,-,28.9,11.6,0.0
04/06/2009,-,28.0,13.0,0.8
05/06/2009,-,22.5,11.9,10.1
06/06/2009,-,23.2,10.6,7.0
07/06/2009,-,22.7,12.3,0.8
08/06/2009,-,22.3,11.4,1.8
09/06/2009,-,21.9,10.0,0.1
10/06/2009,-,27.7,14.3,0.0
11/06/2009,-,25.2,13.7,0.0
12/06/2009,-,32.6,11.5,0.0
13/06/2009,-,36.3,15.8,0.4
14/06/2009,-,32.7,17.6,0.7
15/06/2009,-,25.6,15.5,0.1
16/06/2009,-,23.7,13.4,2.1
17/06/2009,-,33.5,17.6,31.4
18/06/2009,-,33.8,17.2,2.3
19/06/2009,-,21.3,14.8,0.5
20/06/2009,-,21.0,12.2,0.0
21/06/2009,-,21.2,11.2,0.0
22/06/2009,-,25.3,12.5,0.0
23/06/2009,-,26.9,12.2,0.0
24/06/2009,-,28.4,11.0,0.8
25/06/2009,-,28.2,13.5,0.3
26/06/2009,-,25.9,14.7,0.0
27/06/2009,-,31.1,11.6,0.0
28/06/2009,-,32.8,13.8,0.0
29/06/2009,-,35.0,15.6,1.6
30/06/2009,-,35.4,18.9,0.4
01/07/2009,-,35.4,17.9,0.0
02/07/2009,-,27.5,18.6,0.0
03/07/2009,-,31.5,17.6,0.0
04/07/2009,-,27.1,18.4,0.0
05/07/2009,-,27.7,18.0,0.0
06/07/2009,-,23.3,14.9,0.0
07/07/2009,-,22.7,13.1,0.0
08/07/2009,-,23.7,12.2,0.0
09/07/2009,-,23.5,12.6,0.0
10/07/2009,-,25.8,12.6,0.0
11/07/2009,-,34.8,11.4,0.0
12/07/2009,-,35.4,16.6,0.0
13/07/2009,-,37.5,16.5,0.0
14/07/2009,-,28.2,15.7,0.0
15/07/2009,-,33.0,15.3,0.0
16/07/2009,-,36.4,15.2,0.0
17/07/2009,-,22.1,13.7,0.4
18/07/2009,-,25.4,12.5,0.0
19/07/2009,-,30.4,14.5,0.0
20/07/2009,-,36.1,14.8,0.6
21/07/2009,-,38.0,14.9,0.1
22/07/2009,-,38.7,16.9,0.0
23/07/2009,-,31.1,15.8,0.0
24/07/2009,-,28.8,13.0,0.0
25/07/2009,-,29.8,13.1,0.0
26/07/2009,-,37.7,14.0,0.9
27/07/2009,-,24.3,16.5,0.0
28/07/2009,-,34.8,15.3,0.0
29/07/2009,-,34.1,17.1,0.0
30/07/2009,-,25.8,14.7,0.0
31/07/2009,-,35.5,11.8,0.0
01/08/2009,-,31.7,15.1,1.4
02/08/2009,-,24.9,14.8,0.0
03/08/2009,-,28.0,14.8,0.0
04/08/2009,-,35.8,13.4,0.0
05/08/2009,-,37.0,18.1,10.9
06/08/2009,-,31.2,17.4,1.7
07/08/2009,-,20.9,16.5,0.2
08/08/2009,-,22.8,15.4,0.2
09/08/2009,-,23.7,15.1,0.0
10/08/2009,-,26.8,15.2,0.0
11/08/2009,-,31.3,16.7,0.0
12/08/2009,-,30.9,14.1,0.0
13/08/2009,-,30.4,16.1,0.0
14/08/2009,-,36.5,15.7,0.0
15/08/2009,-,37.9,18.8,0.0
16/08/2009,-,36.6,18.9,0.0
17/08/2009,-,36.1,17.9,0.0
18/08/2009,-,39.5,19.1,0.0
19/08/2009,-,38.5,17.3,0.0
20/08/2009,-,36.4,19.0,0.0
21/08/2009,-,27.1,16.6,0.0
22/08/2009,-,30.8,13.7,0.0
23/08/2009,-,38.1,14.6,0.0
24/08/2009,-,30.5,18.3,0.0
25/08/2009,-,23.7,15.0,11.3
26/08/2009,-,32.7,13.7,0.0
27/08/2009,-,35.3,15.3,0.0
28/08/2009,-,23.9,16.2,0.0
29/08/2009,-,23.0,14.2,0.0
30/08/2009,-,27.7,11.4,0.0
31/08/2009,-,34.7,11.3,0.7
01/09/2009,-,28.6,17.1,0.0
02/09/2009,-,30.5,16.7,0.0
03/09/2009,-,26.0,14.6,0.0
04/09/2009,-,22.4,13.4,0.0
05/09/2009,-,23.0,11.4,0.0
06/09/2009,-,31.7,8.1,0.0
07/09/2009,-,32.4,15.9,0.0
08/09/2009,-,33.1,16.9,0.0
09/09/2009,-,31.3,14.8,0.0
10/09/2009,-,30.6,13.9,0.0
11/09/2009,-,28.2,14.2,0.0
12/09/2009,-,27.2,14.9,0.0
13/09/2009,-,25.2,13.0,0.0
14/09/2009,-,21.2,12.5,0.0
15/09/2009,-,21.3,10.3,0.0
16/09/2009,-,18.4,10.4,0.0
17/09/2009,-,23.0,7.5,23.7
18/09/2009,-,15.2,11.9,11.0
19/09/2009,-,17.5,11.4,0.0
20/09/2009,-,19.5,12.1,8.0
21/09/2009,-,21.8,13.2,0.1
22/09/2009,-,23.6,13.9,0.0
23/09/2009,-,28.5,11.9,0.0
24/09/2009,-,25.4,12.3,0.0
25/09/2009,-,23.2,13.4,0.0
26/09/2009,-,25.8,9.8,0.0
27/09/2009,-,26.2,10.9,0.0
28/09/2009,-,25.9,12.5,1.5
29/09/2009,-,26.2,11.7,0.0
30/09/2009,-,25.6,14.9,0.0
01/10/2009,-,23.8,13.9,0.0
02/10/2009,-,20.8,11.2,0.0
03/10/2009,-,23.4,7.4,0.0
04/10/2009,-,28.3,7.8,0.0
05/10/2009,-,31.7,12.7,0.0
06/10/2009,-,30.3,20.2,0.0
07/10/2009,-,28.3,20.9,0.0
08/10/2009,-,26.1,15.0,0.1
09/10/2009,-,23.3,11.1,0.0
10/10/2009,-,21.0,14.3,1.2
11/10/2009,-,19.2,15.1,2.9
12/10/2009,-,20.4,12.2,0.4
13/10/2009,-,19.5,9.5,0.0
14/10/2009,-,19.6,10.1,0.0
15/10/2009,-,15.5,4.5,0.0
16/10/2009,-,14.1,3.6,0.0
17/10/2009,-,15.8,6.3,0.0
18/10/2009,-,16.0,2.9,0.0
19/10/2009,-,18.4,-0.1,0.0
20/10/2009,-,19.5,10.9,9.4
21/10/2009,-,17.1,9.0,14.5
22/10/2009,-,14.0,9.9,10.5
23/10/2009,-,15.0,8.0,3.5
24/10/2009,-,21.4,11.0,1.4
25/10/2009,-,20.2,12.0,0.0
26/10/2009,-,22.4,8.6,0.0
27/10/2009,-,23.8,6.1,0.0
28/10/2009,-,21.1,8.8,0.0
29/10/2009,-,21.9,11.7,0.0
30/10/2009,-,24.0,8.4,0.0
31/10/2009,-,23.3,12.6,0.0
01/11/2009,-,21.8,10.9,16.4
02/11/2009,-,13.1,9.9,0.2
03/11/2009,-,17.9,9.8,2.2
04/11/2009,-,14.5,7.6,1.7
05/11/2009,-,9.8,5.7,7.6
06/11/2009,-,9.7,5.7,10.2
07/11/2009,-,10.9,6.4,15.5
08/11/2009,-,8.7,5.4,56.7
09/11/2009,-,10.5,4.6,1.9
10/11/2009,-,12.3,2.6,2.8
11/11/2009,-,14.9,7.4,1.2
12/11/2009,-,17.5,5.6,0.0
13/11/2009,-,18.4,8.1,0.0
14/11/2009,-,18.7,11.0,0.1
15/11/2009,-,19.2,10.2,0.4
16/11/2009,-,21.1,15.0,0.0
17/11/2009,-,19.4,9.5,0.0
18/11/2009,-,15.3,6.0,0.0
19/11/2009,-,18.3,4.6,0.0
20/11/2009,-,15.8,6.5,0.0
21/11/2009,-,19.4,9.1,1.3
22/11/2009,-,15.8,5.8,0.0
23/11/2009,-,15.8,4.3,0.0
24/11/2009,-,15.3,1.2,0.0
25/11/2009,-,11.8,2.0,0.3
26/11/2009,-,14.7,7.7,0.5
27/11/2009,-,11.3,2.3,0.0
28/11/2009,-,11.0,1.3,4.2
29/11/2009,-,10.9,2.1,3.9
30/11/2009,-,6.6,0.7,29.1
01/12/2009,-,10.3,2.4,3.2
02/12/2009,-,12.4,4.5,6.9
03/12/2009,-,10.5,7.3,1.6
04/12/2009,-,11.4,4.9,0.2
05/12/2009,-,13.5,3.5,0.0
06/12/2009,-,12.3,8.3,0.1
07/12/2009,-,15.4,9.0,0.1
08/12/2009,-,14.6,3.8,0.0
09/12/2009,-,15.1,2.0,0.0
10/12/2009,-,15.8,2.0,0.0
11/12/2009,-,10.5,1.1,0.0
12/12/2009,-,9.4,-0.3,0.0
13/12/2009,-,4.1,0.6,0.0
14/12/2009,-,3.7,-1.0,0.0
15/12/2009,-,4.4,-0.6,0.0
16/12/2009,-,2.2,-1.7,3.8
17/12/2009,-,2.5,-5.0,0.1
18/12/2009,-,2.5,-5.6,2.2
19/12/2009,-,0.5,-5.9,0.0
20/12/2009,-,5.6,-5.3,0.0
21/12/2009,-,9.7,0.4,1.0
22/12/2009,-,13.2,6.4,2.1
23/12/2009,-,7.6,2.5,17.0
24/12/2009,-,15.0,3.8,1.6
25/12/2009,-,10.6,3.1,5.7
26/12/2009,-,8.0,4.7,5.2
27/12/2009,-,9.7,0.5,1.3
