Fecha, Temperatura media, Temperatura maxima, Temperatura minima, Precipitacion acumulada
01/01/2010,-,10.0,6.0,0.0
02/01/2010,-,6.0,0.0,1.6
03/01/2010,-,5.5,0.5,15.3
04/01/2010,-,6.5,4.0,0.2
05/01/2010,-,6.5,5.5,0.0
06/01/2010,-,6.0,-0.5,0.0
07/01/2010,-,2.0,1.0,0.0
08/01/2010,-,2.0,0.0,6.0
09/01/2010,-,1.0,-2.0,1.0
10/01/2010,-,2.5,-6.0,0.0
11/01/2010,-,3.5,-2.5,0.0
12/01/2010,-,1.5,-2.5,6.0
13/01/2010,-,8.0,-2.0,16.2
14/01/2010,-,6.5,0.0,13.3
15/01/2010,-,10.0,2.5,0.0
16/01/2010,-,8.0,3.5,1.5
17/01/2010,-,10.0,4.5,0.1
18/01/2010,-,9.5,4.5,1.3
19/01/2010,-,10.0,4.5,0.0
20/01/2010,-,10.0,6.5,0.0
21/01/2010,-,10.0,0.0,0.0
22/01/2010,-,10.0,0.0,0.8
23/01/2010,-,6.5,0.5,0.3
24/01/2010,-,9.0,6.0,0.6
25/01/2010,-,6.0,4.0,0.0
26/01/2010,-,6.0,-0.5,0.0
27/01/2010,-,4.0,-1.0,0.0
28/01/2010,-,6.0,-3.0,0.0
29/01/2010,-,9.5,0.0,6.5
30/01/2010,-,6.0,3.0,2.5
31/01/2010,-,4.0,2.0,0.2
01/02/2010,-,6.0,-1.0,0.0
02/02/2010,-,6.0,-1.0,0.0
03/02/2010,-,8.0,-3.5,0.0
04/02/2010,-,8.5,-3.0,8.7
05/02/2010,-,14.5,5.0,0.4
06/02/2010,-,10.0,6.5,0.1
07/02/2010,-,10.0,5.0,0.3
08/02/2010,-,6.0,4.0,3.6
09/02/2010,-,6.0,4.5,0.3
10/02/2010,-,6.0,3.0,0.6
11/02/2010,-,-1.0,-2.0,4.3
12/02/2010,-,1.5,-3.0,0.4
13/02/2010,-,1.0,-2.0,0.0
14/02/2010,-,2.0,-1.0,0.0
15/02/2010,-,3.0,-3.0,1.0
16/02/2010,-,6.5,-3.0,12.6
17/02/2010,-,6.0,0.0,7.5
18/02/2010,-,9.0,2.0,0.0
19/02/2010,-,6.0,2.0,0.4
20/02/2010,-,9.0,-1.5,1.1
21/02/2010,-,6.0,0.0,3.0
22/02/2010,-,12.5,1.0,0.0
23/02/2010,-,14.0,5.0,0.3
24/02/2010,-,12.0,5.0,0.8
25/02/2010,-,13.5,9.0,0.7
26/02/2010,-,13.0,6.5,2.1
27/02/2010,-,13.5,5.5,4.0
28/02/2010,-,14.0,9.0,1.9
01/03/2010,-,13.5,7.0,0.0
02/03/2010,-,14.0,1.5,0.7
03/03/2010,-,9.0,5.0,3.4
04/03/2010,-,10.0,6.5,0.0
05/03/2010,-,10.0,5.5,0.0
06/03/2010,-,10.0,5.0,0.0
07/03/2010,-,9.5,3.0,0.0
08/03/2010,-,2.0,-2.0,0.0
09/03/2010,-,5.0,1.0,0.0
10/03/2010,-,2.0,-1.5,2.5
11/03/2010,-,2.0,0.5,0.0
12/03/2010,-,6.0,1.0,0.0
13/03/2010,-,9.0,2.0,0.0
14/03/2010,-,9.0,2.0,0.0
15/03/2010,-,13.5,2.0,0.0
16/03/2010,-,14.0,-2.0,0.0
17/03/2010,-,17.0,1.0,0.0
18/03/2010,-,13.5,4.0,0.0
19/03/2010,-,16.5,5.5,1.1
20/03/2010,-,17.0,9.0,0.5
21/03/2010,-,16.5,9.0,0.0
22/03/2010,-,17.0,9.5,0.0
23/03/2010,-,17.5,6.0,0.0
24/03/2010,-,13.5,7.0,22.5
25/03/2010,-,13.5,12.0,4.3
26/03/2010,-,13.5,5.0,0.5
27/03/2010,-,16.5,5.0,0.0
28/03/2010,-,16.5,7.5,0.0
29/03/2010,-,17.0,5.0,2.8
30/03/2010,-,13.5,9.0,2.0
31/03/2010,-,12.5,3.5,0.8
01/04/2010,-,10.0,4.0,0.0
02/04/2010,-,13.5,2.5,0.0
03/04/2010,-,13.5,7.0,1.1
04/04/2010,-,11.0,8.0,0.0
05/04/2010,-,18.5,2.5,0.0
06/04/2010,-,17.0,6.0,0.2
07/04/2010,-,10.5,8.5,0.3
08/04/2010,-,13.5,9.0,0.0
09/04/2010,-,17.5,8.5,0.0
10/04/2010,-,21.0,5.5,0.0
11/04/2010,-,23.0,9.5,0.0
12/04/2010,-,17.0,10.0,0.0
13/04/2010,-,13.5,3.0,0.0
14/04/2010,-,11.0,7.5,0.0
15/04/2010,-,12.0,9.5,0.0
16/04/2010,-,17.0,8.5,0.0
17/04/2010,-,17.5,9.0,2.5
18/04/2010,-,13.0,9.5,0.0
19/04/2010,-,17.5,10.0,4.0
20/04/2010,-,21.0,8.0,0.0
21/04/2010,-,21.5,12.0,1.8
22/04/2010,-,14.0,13.5,5.5
23/04/2010,-,17.0,13.0,0.0
24/04/2010,-,21.0,7.0,0.0
25/04/2010,-,21.0,13.0,0.0
26/04/2010,-,25.0,9.0,0.0
27/04/2010,-,25.0,13.0,0.0
28/04/2010,-,25.0,10.0,0.0
29/04/2010,-,25.0,12.5,57.5
30/04/2010,-,20.0,14.0,6.7
01/05/2010,-,13.5,12.0,0.3
02/05/2010,-,13.0,9.0,0.1
03/05/2010,-,10.0,9.0,3.4
04/05/2010,-,7.5,6.0,5.7
05/05/2010,-,10.0,6.5,0.5
06/05/2010,-,10.0,8.5,0.1
07/05/2010,-,10.0,5.5,0.8
08/05/2010,-,17.0,8.5,9.3
09/05/2010,-,17.5,10.0,7.0
10/05/2010,-,17.5,9.0,1.2
11/05/2010,-,16.0,9.5,1.0
12/05/2010,-,12.5,9.0,0.0
13/05/2010,-,10.0,8.5,0.0
14/05/2010,-,14.0,5.0,0.8
15/05/2010,-,11.0,8.5,0.0
16/05/2010,-,13.5,10.0,0.0
17/05/2010,-,16.5,8.5,0.0
18/05/2010,-,21.5,7.5,0.0
19/05/2010,-,17.5,7.5,0.0
20/05/2010,-,21.0,12.5,0.0
21/05/2010,-,25.0,9.0,0.0
22/05/2010,-,28.0,12.5,0.0
23/05/2010,-,25.0,12.5,0.0
24/05/2010,-,25.0,12.5,0.4
25/05/2010,-,25.0,12.5,0.0
26/05/2010,-,24.0,12.5,0.0
27/05/2010,-,21.0,12.5,0.0
28/05/2010,-,17.5,15.0,0.0
29/05/2010,-,21.5,8.5,0.0
30/05/2010,-,21.0,12.5,0.0
31/05/2010,-,21.0,17.0,0.0
01/06/2010,-,25.0,12.5,0.0
02/06/2010,-,21.5,16.0,0.0
03/06/2010,-,28.0,13.0,0.0
04/06/2010,-,29.0,12.5,0.0
05/06/2010,-,32.5,13.5,5.0
06/06/2010,-,18.0,16.0,0.2
07/06/2010,-,25.0,12.5,0.0
08/06/2010,-,25.0,16.0,2.2
09/06/2010,-,23.0,15.0,1.1
10/06/2010,-,21.0,16.0,1.0
11/06/2010,-,19.5,12.5,3.1
12/06/2010,-,19.5,14.5,1.3
13/06/2010,-,21.5,12.5,0.0
14/06/2010,-,17.5,14.5,0.0
15/06/2010,-,17.5,12.5,0.3
16/06/2010,-,14.5,14.0,6.3
17/06/2010,-,15.0,12.5,0.0
18/06/2010,-,20.0,9.0,0.0
19/06/2010,-,17.0,13.0,0.0
20/06/2010,-,15.0,13.0,0.0
21/06/2010,-,20.0,10.5,0.0
22/06/2010,-,21.0,13.5,0.0
23/06/2010,-,24.5,13.0,0.0
24/06/2010,-,29.5,12.5,0.0
25/06/2010,-,32.0,16.5,0.0
26/06/2010,-,31.0,15.0,20.2
27/06/2010,-,29.0,16.5,16.4
28/06/2010,-,28.5,19.0,0.0
29/06/2010,-,28.0,19.5,0.0
30/06/2010,-,29.0,15.0,0.0
01/07/2010,-,33.0,17.5,0.0
02/07/2010,-,29.5,20.5,1.5
03/07/2010,-,29.0,20.0,0.0
04/07/2010,-,25.0,20.0,0.0
05/07/2010,-,25.0,19.0,0.0
06/07/2010,-,25.0,19.5,0.0
07/07/2010,-,36.5,16.0,0.0
08/07/2010,-,36.0,20.5,0.4
09/07/2010,-,29.0,24.5,0.0
10/07/2010,-,33.0,19.0,0.0
11/07/2010,-,37.0,22.5,7.0
12/07/2010,-,29.5,20.0,0.0
13/07/2010,-,33.5,17.0,0.0
14/07/2010,-,29.0,21.0,0.0
15/07/2010,-,29.0,18.0,0.0
16/07/2010,-,25.0,20.5,0.0
17/07/2010,-,21.0,16.5,0.0
18/07/2010,-,33.0,15.0,0.0
19/07/2010,-,33.0,17.0,0.0
20/07/2010,-,33.0,20.0,18.0
21/07/2010,-,21.0,18.0,4.2
22/07/2010,-,21.0,16.5,0.0
23/07/2010,-,21.0,15.0,0.0
24/07/2010,-,21.0,13.0,0.0
25/07/2010,-,21.0,13.0,0.0
26/07/2010,-,22.0,16.5,0.0
27/07/2010,-,29.5,16.2,0.0
28/07/2010,-,29.0,16.5,0.0
29/07/2010,-,24.5,20.0,0.0
30/07/2010,-,25.0,18.0,0.0
31/07/2010,-,33.0,18.5,0.0
01/08/2010,-,31.0,20.0,0.0
02/08/2010,-,21.0,18.0,0.0
03/08/2010,-,21.0,16.0,0.0
04/08/2010,-,21.0,16.0,0.0
05/08/2010,-,21.0,19.0,0.0
06/08/2010,-,25.0,13.5,0.0
07/08/2010,-,33.0,12.0,0.0
08/08/2010,-,29.0,17.0,3.5
09/08/2010,-,23.0,21.0,0.0
10/08/2010,-,32.0,12.0,0.0
11/08/2010,-,29.0,13.0,0.0
12/08/2010,-,21.0,19.0,0.0
13/08/2010,-,22.0,17.0,0.0
14/08/2010,-,21.5,16.0,0.0
15/08/2010,-,21.5,13.0,0.0
16/08/2010,-,24.5,10.0,0.0
17/08/2010,-,29.0,14.0,0.0
18/08/2010,-,29.0,17.0,0.0
19/08/2010,-,29.0,18.5,0.0
20/08/2010,-,33.0,18.0,0.0
21/08/2010,-,36.5,21.0,0.0
22/08/2010,-,36.5,20.0,0.0
23/08/2010,-,33.0,20.5,0.0
24/08/2010,-,24.0,21.0,0.0
25/08/2010,-,33.0,13.5,0.0
26/08/2010,-,37.0,20.5,0.0
27/08/2010,-,29.5,20.0,0.0
28/08/2010,-,21.0,20.0,0.0
29/08/2010,-,25.0,16.5,0.0
30/08/2010,-,21.5,12.5,0.0
31/08/2010,-,27.5,12.5,0.0
01/09/2010,-,25.0,13.0,1.2
02/09/2010,-,25.0,16.5,0.2
03/09/2010,-,29.0,12.0,0.0
04/09/2010,-,29.0,12.0,0.0
05/09/2010,-,33.0,12.0,0.0
06/09/2010,-,33.0,18.5,1.2
07/09/2010,-,24.0,17.0,2.3
08/09/2010,-,21.5,12.5,0.2
09/09/2010,-,21.5,13.5,0.0
10/09/2010,-,26.0,9.5,0.0
11/09/2010,-,29.0,12.5,0.0
12/09/2010,-,21.0,16.5,0.0
13/09/2010,-,21.0,12.0,0.0
14/09/2010,-,29.0,14.0,0.0
15/09/2010,-,29.0,11.0,0.0
16/09/2010,-,20.0,16.5,0.5
17/09/2010,-,18.0,16.5,1.3
18/09/2010,-,18.0,16.5,0.0
19/09/2010,-,25.0,8.5,0.0
20/09/2010,-,25.0,10.0,1.9
21/09/2010,-,25.0,13.0,0.0
22/09/2010,-,25.0,13.0,0.0
23/09/2010,-,21.0,16.0,5.0
24/09/2010,-,17.5,15.0,0.3
25/09/2010,-,17.0,12.5,0.5
26/09/2010,-,14.0,12.5,0.0
27/09/2010,-,17.0,9.0,0.0
28/09/2010,-,17.5,10.0,0.0
29/09/2010,-,25.0,8.5,0.0
30/09/2010,-,17.5,11.0,0.0
01/10/2010,-,21.0,11.0,0.0
02/10/2010,-,25.0,12.0,0.0
03/10/2010,-,21.0,14.0,4.8
04/10/2010,-,17.5,14.0,0.3
05/10/2010,-,21.0,8.0,0.0
06/10/2010,-,25.0,8.5,0.0
07/10/2010,-,21.5,10.0,0.0
08/10/2010,-,25.0,17.0,0.0
09/10/2010,-,19.0,17.5,12.0
10/10/2010,-,13.5,12.0,16.7
11/10/2010,-,18.0,12.0,3.1
12/10/2010,-,18.0,12.0,0.0
13/10/2010,-,17.0,14.0,0.0
14/10/2010,-,16.5,6.5,0.0
15/10/2010,-,13.5,6.0,0.0
16/10/2010,-,14.0,9.0,0.0
17/10/2010,-,12.0,6.5,0.0
18/10/2010,-,13.5,8.5,0.0
19/10/2010,-,14.0,9.0,0.0
20/10/2010,-,14.0,5.5,0.0
21/10/2010,-,14.0,3.5,0.0
22/10/2010,-,14.0,3.0,0.0
23/10/2010,-,18.0,5.0,0.0
24/10/2010,-,14.0,8.5,3.0
25/10/2010,-,10.0,8.0,0.0
26/10/2010,-,13.0,5.5,0.0
27/10/2010,-,21.5,4.0,0.0
28/10/2010,-,21.0,4.0,0.0
29/10/2010,-,17.5,5.0,3.9
30/10/2010,-,11.5,7.5,0.5
31/10/2010,-,13.5,9.0,8.7
01/11/2010,-,14.0,10.5,0.5
02/11/2010,-,14.0,12.0,0.0
03/11/2010,-,17.5,10.0,0.0
04/11/2010,-,21.0,9.5,0.0
05/11/2010,-,17.5,10.0,0.0
06/11/2010,-,13.5,7.5,0.0
07/11/2010,-,11.5,9.5,1.4
08/11/2010,-,7.5,5.5,9.6
09/11/2010,-,13.5,6.0,0.0
10/11/2010,-,10.0,8.0,0.8
11/11/2010,-,10.0,4.0,0.3
12/11/2010,-,17.5,5.0,0.0
13/11/2010,-,14.0,4.0,0.0
14/11/2010,-,12.5,6.0,2.5
15/11/2010,-,10.0,4.0,1.6
16/11/2010,-,10.0,4.5,0.5
17/11/2010,-,6.0,4.0,1.4
18/11/2010,-,10.0,0.0,0.0
19/11/2010,-,9.0,1.0,8.0
20/11/2010,-,10.0,2.5,4.3
21/11/2010,-,9.0,7.0,4.5
22/11/2010,-,6.0,5.5,0.3
23/11/2010,-,10.0,3.5,0.0
24/11/2010,-,6.0,1.5,0.0
25/11/2010,-,8.5,0.0,0.5
26/11/2010,-,6.0,1.0,0.0
27/11/2010,-,2.5,-2.5,0.0
28/11/2010,-,6.5,-2.0,0.0
29/11/2010,-,2.0,-4.5,1.0
30/11/2010,-,2.5,-3.0,0.2
01/12/2010,-,5.5,1.5,4.3
02/12/2010,-,5.0,0.0,0.2
03/12/2010,-,5.5,-0.5,0.5
04/12/2010,-,6.0,-4.0,0.0
05/12/2010,-,10.0,-3.5,2.2
06/12/2010,-,14.0,5.0,2.5
07/12/2010,-,14.0,9.5,3.2
08/12/2010,-,17.0,12.5,3.3
09/12/2010,-,7.5,7.0,0.0
10/12/2010,-,10.0,4.0,0.0
11/12/2010,-,6.0,-2.0,0.0
12/12/2010,-,10.0,-1.5,0.0
13/12/2010,-,10.0,3.5,0.0
14/12/2010,-,8.5,-2.0,0.0
15/12/2010,-,2.0,1.5,0.0
16/12/2010,-,4.0,-4.5,0.0
17/12/2010,-,5.0,-3.0,0.0
18/12/2010,-,6.5,-3.0,0.0
19/12/2010,-,6.0,-3.0,0.0
20/12/2010,-,6.0,-3.0,5.2
21/12/2010,-,9.0,-2.0,12.7
22/12/2010,-,12.5,5.0,12.7
23/12/2010,-,7.5,7.0,0.8
24/12/2010,-,5.5,4.0,3.2
25/12/2010,-,2.5,1.0,0.0
26/12/2010,-,5.0,-4.0,0.0
27/12/2010,-,4.0,-5.0,0.0
