Fecha, Temperatura media, Temperatura maxima, Temperatura minima, Precipitacion acumulada
01/01/2016,-,18.0,4.5,0.5
02/01/2016,-,15.3,4.6,0.3
03/01/2016,-,11.2,2.5,17.1
04/01/2016,-,12.1,9.8,5.3
05/01/2016,-,12.7,7.7,14.9
06/01/2016,-,18.3,5.5,10.1
07/01/2016,-,21.8,6.9,5.5
08/01/2016,-,20.5,9.6,8.5
09/01/2016,-,17.8,10.0,7.8
10/01/2016,-,17.1,9.5,11.1
11/01/2016,-,16.0,7.1,6.8
12/01/2016,-,13.0,4.0,15.4
13/01/2016,-,15.0,1.7,1.6
14/01/2016,-,14.3,1.8,15.4
15/01/2016,-,10.0,4.5,20.2
16/01/2016,-,10.8,1.2,0.8
17/01/2016,-,12.8,0.5,0.5
18/01/2016,-,12.7,2.0,17.9
19/01/2016,-,14.0,9.1,2.0
20/01/2016,-,16.3,1.5,0.0
21/01/2016,-,17.5,-1.0,0.0
22/01/2016,-,17.5,1.0,4.9
23/01/2016,-,21.2,10.2,0.0
24/01/2016,-,22.0,10.0,0.0
25/01/2016,-,19.6,12.0,0.0
26/01/2016,-,18.5,6.8,0.0
27/01/2016,-,18.6,5.0,0.0
28/01/2016,-,15.5,8.5,12.8
29/01/2016,-,12.8,8.8,0.3
30/01/2016,-,14.0,1.8,0.0
31/01/2016,-,16.7,7.6,1.9
01/02/2016,-,15.9,10.2,0.0
02/02/2016,-,14.6,10.0,4.1
03/02/2016,-,13.1,9.8,11.6
04/02/2016,-,14.4,3.5,0.2
05/02/2016,-,18.8,0.8,0.0
06/02/2016,-,17.7,5.0,16.8
07/02/2016,-,12.8,7.6,3.6
08/02/2016,-,20.2,3.0,0.0
09/02/2016,-,19.0,10.8,65.1
10/02/2016,-,14.0,7.0,15.1
11/02/2016,-,15.7,6.0,9.7
12/02/2016,-,15.0,6.6,68.3
13/02/2016,-,19.8,8.8,20.1
14/02/2016,-,13.2,4.0,34.4
15/02/2016,-,9.5,3.2,3.0
16/02/2016,-,8.2,0.2,0.0
17/02/2016,-,12.0,-1.0,5.0
18/02/2016,-,8.0,5.0,9.0
19/02/2016,-,13.0,4.0,0.0
20/02/2016,-,18.0,2.0,0.0
21/02/2016,-,20.0,3.0,0.0
22/02/2016,-,17.0,4.0,3.0
23/02/2016,-,13.0,7.0,1.0
24/02/2016,-,18.0,6.0,3.0
25/02/2016,-,12.1,7.0,9.6
26/02/2016,-,16.6,5.8,42.6
27/02/2016,-,9.5,3.0,72.4
28/02/2016,-,11.5,5.8,5.9
29/02/2016,-,10.7,6.0,0.3
01/03/2016,-,15.0,4.8,1.3
02/03/2016,-,13.5,3.7,29.3
03/03/2016,-,11.2,7.8,20.1
04/03/2016,-,17.1,7.5,29.8
05/03/2016,-,10.2,4.0,36.0
06/03/2016,-,10.8,3.4,19.6
07/03/2016,-,10.5,2.6,5.7
08/03/2016,-,12.2,2.0,5.5
09/03/2016,-,12.8,2.8,61.4
10/03/2016,-,11.8,3.6,8.7
11/03/2016,-,12.8,4.6,0.0
12/03/2016,-,12.4,4.5,0.0
13/03/2016,-,13.0,4.8,2.0
14/03/2016,-,11.5,2.2,1.9
15/03/2016,-,16.1,1.5,0.6
16/03/2016,-,11.8,2.7,5.4
17/03/2016,-,12.5,0.0,0.0
18/03/2016,-,16.5,-1.4,0.0
19/03/2016,-,13.4,6.0,6.6
20/03/2016,-,18.0,5.7,0.0
21/03/2016,-,15.0,2.8,0.2
22/03/2016,-,13.8,7.8,0.0
23/03/2016,-,14.0,6.0,0.0
24/03/2016,-,15.2,7.2,0.0
25/03/2016,-,14.5,1.2,0.5
26/03/2016,-,24.2,7.5,6.2
27/03/2016,-,19.5,3.0,0.0
28/03/2016,-,20.0,4.2,2.7
29/03/2016,-,22.2,8.8,1.7
30/03/2016,-,24.0,6.0,0.0
31/03/2016,-,12.7,7.0,77.4
01/04/2016,-,13.5,5.0,0.0
02/04/2016,-,20.0,0.5,0.0
03/04/2016,-,21.4,6.5,0.0
04/04/2016,-,17.2,9.0,9.0
05/04/2016,-,15.2,9.8,3.6
06/04/2016,-,16.2,7.7,3.2
07/04/2016,-,14.0,6.0,37.4
08/04/2016,-,13.3,4.7,21.1
09/04/2016,-,13.8,5.5,3.5
10/04/2016,-,22.3,5.0,0.6
11/04/2016,-,19.7,7.7,0.8
12/04/2016,-,21.0,9.8,0.0
13/04/2016,-,21.0,8.0,0.0
14/04/2016,-,24.6,10.8,3.7
15/04/2016,-,22.5,12.6,1.5
16/04/2016,-,21.9,8.0,8.6
17/04/2016,-,17.3,8.0,0.8
18/04/2016,-,18.6,7.8,0.0
19/04/2016,-,21.6,4.3,0.0
20/04/2016,-,21.0,8.7,0.0
21/04/2016,-,21.0,12.2,0.0
22/04/2016,-,18.0,6.5,0.0
23/04/2016,-,17.2,7.5,10.2
24/04/2016,-,15.0,8.8,1.4
25/04/2016,-,15.7,6.2,0.0
26/04/2016,-,15.5,4.2,0.0
27/04/2016,-,15.9,5.5,0.0
28/04/2016,-,15.3,5.6,0.0
29/04/2016,-,18.7,2.2,3.9
30/04/2016,-,14.5,5.2,4.5
01/05/2016,-,15.0,4.4,0.5
02/05/2016,-,16.4,1.5,0.0
03/05/2016,-,16.8,3.4,0.0
04/05/2016,-,26.0,5.0,0.0
05/05/2016,-,30.5,6.5,0.0
06/05/2016,-,25.5,16.0,0.0
07/05/2016,-,24.0,16.3,0.0
08/05/2016,-,23.4,16.4,6.0
09/05/2016,-,25.0,14.2,9.0
10/05/2016,-,23.9,12.0,0.0
11/05/2016,-,19.5,11.8,1.6
12/05/2016,-,18.5,6.0,0.0
13/05/2016,-,17.5,7.0,9.6
14/05/2016,-,16.0,11.0,11.6
15/05/2016,-,17.5,12.2,0.0
16/05/2016,-,18.6,10.6,0.0
17/05/2016,-,20.6,8.5,0.0
18/05/2016,-,20.7,9.3,1.6
19/05/2016,-,17.2,10.6,4.9
20/05/2016,-,26.0,11.7,0.0
21/05/2016,-,31.5,15.0,18.9
22/05/2016,-,18.2,11.4,8.1
23/05/2016,-,20.0,8.3,1.6
24/05/2016,-,24.8,6.6,0.0
25/05/2016,-,23.3,8.0,5.7
26/05/2016,-,23.2,12.8,4.6
27/05/2016,-,26.2,12.7,4.6
28/05/2016,-,26.1,14.5,18.2
29/05/2016,-,22.0,12.0,0.5
30/05/2016,-,19.1,12.4,16.2
31/05/2016,-,19.0,12.1,1.0
01/06/2016,-,19.7,13.0,0.0
02/06/2016,-,21.2,13.2,0.0
03/06/2016,-,24.5,13.8,0.0
04/06/2016,-,21.5,14.5,0.0
05/06/2016,-,25.0,15.1,0.0
06/06/2016,-,24.5,14.0,0.0
07/06/2016,-,25.8,13.1,0.0
08/06/2016,-,28.8,13.7,0.0
09/06/2016,-,28.5,14.2,0.0
10/06/2016,-,19.6,14.6,3.5
11/06/2016,-,21.3,13.8,1.5
12/06/2016,-,24.0,10.1,0.2
13/06/2016,-,21.5,13.2,14.7
14/06/2016,-,22.5,13.7,8.3
15/06/2016,-,25.0,12.8,8.4
16/06/2016,-,17.8,9.6,1.6
17/06/2016,-,20.6,10.0,12.5
18/06/2016,-,19.4,10.7,10.6
19/06/2016,-,20.6,10.5,0.0
20/06/2016,-,26.0,10.1,0.0
21/06/2016,-,31.6,11.0,0.0
22/06/2016,-,37.5,11.6,0.0
23/06/2016,-,34.6,16.6,0.0
24/06/2016,-,21.0,16.5,1.3
25/06/2016,-,20.7,15.5,0.0
26/06/2016,-,22.2,13.2,0.0
27/06/2016,-,22.5,12.0,0.0
28/06/2016,-,24.5,11.0,0.0
29/06/2016,-,22.3,11.2,0.0
30/06/2016,-,25.4,13.1,0.0
01/07/2016,-,-,-,-
02/07/2016,-,-,-,-
03/07/2016,-,-,-,-
04/07/2016,-,-,-,-
05/07/2016,-,-,-,-
06/07/2016,-,-,-,-
07/07/2016,-,-,-,-
08/07/2016,-,-,-,-
09/07/2016,-,-,-,-
10/07/2016,-,-,-,-
11/07/2016,-,-,-,-
12/07/2016,-,-,-,-
13/07/2016,-,-,-,-
14/07/2016,-,-,-,-
15/07/2016,-,-,-,-
16/07/2016,-,-,-,-
17/07/2016,-,-,-,-
18/07/2016,-,-,-,-
19/07/2016,-,-,-,-
20/07/2016,-,-,-,-
21/07/2016,-,-,-,-
22/07/2016,-,-,-,-
23/07/2016,-,-,-,-
24/07/2016,-,-,-,-
25/07/2016,-,-,-,-
26/07/2016,-,-,-,-
27/07/2016,-,-,-,-
28/07/2016,-,-,-,-
29/07/2016,-,-,-,-
30/07/2016,-,-,-,-
31/07/2016,-,-,-,-
01/08/2016,-,-,-,-
02/08/2016,-,-,-,-
03/08/2016,-,-,-,-
04/08/2016,-,-,-,-
05/08/2016,-,-,-,-
06/08/2016,-,-,-,-
07/08/2016,-,-,-,-
08/08/2016,-,-,-,-
09/08/2016,-,-,-,-
10/08/2016,-,-,-,-
11/08/2016,-,-,-,-
12/08/2016,-,-,-,-
13/08/2016,-,-,-,-
14/08/2016,-,-,-,-
15/08/2016,-,-,-,-
16/08/2016,-,-,-,-
17/08/2016,-,-,-,-
18/08/2016,-,-,-,-
19/08/2016,-,-,-,-
20/08/2016,-,-,-,-
21/08/2016,-,-,-,-
22/08/2016,-,-,-,-
23/08/2016,-,-,-,-
24/08/2016,-,-,-,-
25/08/2016,-,-,-,-
26/08/2016,-,-,-,-
27/08/2016,-,-,-,-
28/08/2016,-,-,-,-
29/08/2016,-,-,-,-
30/08/2016,-,-,-,-
31/08/2016,-,-,-,-
01/09/2016,-,-,-,-
02/09/2016,-,-,-,-
03/09/2016,-,-,-,-
04/09/2016,-,-,-,-
05/09/2016,-,-,-,-
06/09/2016,-,-,-,-
07/09/2016,-,-,-,-
08/09/2016,-,-,-,-
09/09/2016,-,-,-,-
10/09/2016,-,-,-,-
11/09/2016,-,-,-,-
12/09/2016,-,-,-,-
13/09/2016,-,-,-,-
14/09/2016,-,-,-,-
15/09/2016,-,-,-,-
16/09/2016,-,-,-,-
17/09/2016,-,-,-,-
18/09/2016,-,-,-,-
19/09/2016,-,-,-,-
20/09/2016,-,-,-,-
21/09/2016,-,-,-,-
22/09/2016,-,-,-,-
23/09/2016,-,-,-,-
24/09/2016,-,-,-,-
25/09/2016,-,-,-,-
26/09/2016,-,-,-,-
27/09/2016,-,-,-,-
28/09/2016,-,-,-,-
29/09/2016,-,-,-,-
30/09/2016,-,-,-,-
01/10/2016,-,-,-,-
02/10/2016,-,-,-,-
03/10/2016,-,-,-,-
04/10/2016,-,-,-,-
05/10/2016,-,-,-,-
06/10/2016,-,-,-,-
07/10/2016,-,-,-,-
08/10/2016,-,-,-,-
09/10/2016,-,-,-,-
10/10/2016,-,-,-,-
11/10/2016,-,-,-,-
12/10/2016,-,-,-,-
13/10/2016,-,-,-,-
14/10/2016,-,-,-,-
15/10/2016,-,-,-,-
16/10/2016,-,-,-,-
17/10/2016,-,-,-,-
18/10/2016,-,-,-,-
19/10/2016,-,-,-,-
20/10/2016,-,-,-,-
21/10/2016,-,-,-,-
22/10/2016,-,-,-,-
23/10/2016,-,-,-,-
24/10/2016,-,-,-,-
25/10/2016,-,-,-,-
26/10/2016,-,-,-,-
27/10/2016,-,-,-,-
28/10/2016,-,-,-,-
29/10/2016,-,-,-,-
30/10/2016,-,-,-,-
31/10/2016,-,-,-,-
01/11/2016,-,-,-,-
02/11/2016,-,-,-,-
03/11/2016,-,-,-,-
04/11/2016,-,-,-,-
05/11/2016,-,-,-,-
06/11/2016,-,-,-,-
07/11/2016,-,-,-,-
08/11/2016,-,-,-,-
09/11/2016,-,-,-,-
10/11/2016,-,-,-,-
11/11/2016,-,-,-,-
12/11/2016,-,-,-,-
13/11/2016,-,-,-,-
14/11/2016,-,-,-,-
15/11/2016,-,-,-,-
16/11/2016,-,-,-,-
17/11/2016,-,-,-,-
18/11/2016,-,-,-,-
19/11/2016,-,-,-,-
20/11/2016,-,-,-,-
21/11/2016,-,-,-,-
22/11/2016,-,-,-,-
23/11/2016,-,-,-,-
24/11/2016,-,-,-,-
25/11/2016,-,-,-,-
26/11/2016,-,-,-,-
27/11/2016,-,-,-,-
28/11/2016,-,-,-,-
29/11/2016,-,-,-,-
30/11/2016,-,-,-,-
01/12/2016,-,-,-,-
02/12/2016,-,-,-,-
03/12/2016,-,-,-,-
04/12/2016,-,-,-,-
05/12/2016,-,-,-,-
06/12/2016,-,-,-,-
07/12/2016,-,-,-,-
08/12/2016,-,-,-,-
09/12/2016,-,-,-,-
10/12/2016,-,-,-,-
11/12/2016,-,-,-,-
12/12/2016,-,-,-,-
13/12/2016,-,-,-,-
14/12/2016,-,-,-,-
15/12/2016,-,15.6,-,0.0
16/12/2016,-,15.0,8.4,0.0
17/12/2016,-,16.8,2.6,0.0
18/12/2016,-,13.0,3.5,0.0
19/12/2016,-,10.0,-0.3,3.2
20/12/2016,-,9.0,0.6,2.2
21/12/2016,-,10.6,4.0,4.3
22/12/2016,-,13.8,4.5,3.4
23/12/2016,-,15.1,6.8,2.2
24/12/2016,-,14.9,9.3,0.5
25/12/2016,-,13.7,9.4,0.0
26/12/2016,-,12.0,4.5,0.0
27/12/2016,-,15.2,2.0,0.0
