Fecha, Temperatura media, Temperatura maxima, Temperatura minima, Precipitacion acumulada
01/01/2015,-,10.6,-6.1,0.0
02/01/2015,-,12.7,-6.3,0.0
03/01/2015,-,16.1,-5.0,1.6
04/01/2015,-,13.7,6.7,1.9
05/01/2015,-,17.0,8.0,0.0
06/01/2015,-,9.8,1.5,1.0
07/01/2015,-,14.4,6.0,0.0
08/01/2015,-,15.2,1.8,0.9
09/01/2015,-,20.0,2.5,0.3
10/01/2015,-,12.4,4.2,3.0
11/01/2015,-,12.7,9.8,7.9
12/01/2015,-,18.0,-0.6,0.0
13/01/2015,-,17.3,13.0,0.2
14/01/2015,-,18.0,7.7,0.0
15/01/2015,-,15.2,4.9,6.0
16/01/2015,-,10.2,8.2,20.7
17/01/2015,-,11.8,3.8,3.1
18/01/2015,-,9.3,1.7,10.6
19/01/2015,-,10.2,5.0,17.5
20/01/2015,-,8.2,1.8,3.0
21/01/2015,-,8.7,0.4,26.4
22/01/2015,-,9.3,3.5,6.8
23/01/2015,-,7.6,2.7,0.0
24/01/2015,-,10.5,1.8,3.2
25/01/2015,-,9.7,-0.4,0.0
26/01/2015,-,10.8,-0.4,17.2
27/01/2015,-,11.1,2.8,4.2
28/01/2015,-,12.9,6.2,4.3
29/01/2015,-,14.9,6.1,32.6
30/01/2015,-,10.8,9.6,64.1
31/01/2015,-,9.3,5.8,43.4
01/02/2015,-,8.2,3.7,17.2
02/02/2015,-,10.7,2.9,21.4
03/02/2015,-,8.9,2.1,0.0
04/02/2015,-,5.1,-2.4,0.0
05/02/2015,-,6.7,-2.4,0.0
06/02/2015,-,1.8,-3.2,0.0
07/02/2015,-,7.7,-3.1,0.0
08/02/2015,-,6.8,-1.2,0.0
09/02/2015,-,10.5,-2.2,0.0
10/02/2015,-,15.6,-4.2,0.0
11/02/2015,-,13.2,-4.4,0.8
12/02/2015,-,15.0,5.9,0.0
13/02/2015,-,16.1,5.2,0.3
14/02/2015,-,11.2,5.2,16.5
15/02/2015,-,11.5,8.3,6.2
16/02/2015,-,12.5,3.8,31.1
17/02/2015,-,9.6,6.0,16.4
18/02/2015,-,9.8,4.6,0.0
19/02/2015,-,17.8,1.5,0.0
20/02/2015,-,15.0,1.0,12.8
21/02/2015,-,10.8,7.3,31.3
22/02/2015,-,13.0,5.8,6.6
23/02/2015,-,13.0,6.0,38.9
24/02/2015,-,11.8,5.6,25.8
25/02/2015,-,12.7,6.6,113.2
26/02/2015,-,13.0,10.1,55.3
27/02/2015,-,11.4,7.8,2.5
28/02/2015,-,13.7,5.2,21.7
01/03/2015,-,17.4,5.8,4.1
02/03/2015,-,14.4,8.6,6.0
03/03/2015,-,15.5,10.0,19.6
04/03/2015,-,10.8,7.2,7.2
05/03/2015,-,12.7,3.3,0.0
06/03/2015,-,17.7,0.6,0.0
07/03/2015,-,22.2,0.0,0.0
08/03/2015,-,18.6,0.0,0.0
09/03/2015,-,20.3,1.5,0.0
10/03/2015,-,18.6,2.8,0.0
11/03/2015,-,13.3,4.1,0.0
12/03/2015,-,17.6,6.8,2.2
13/03/2015,-,13.7,5.2,26.2
14/03/2015,-,9.8,5.0,17.8
15/03/2015,-,11.0,4.6,14.1
16/03/2015,-,13.8,4.7,0.4
17/03/2015,-,19.8,1.7,0.0
18/03/2015,-,17.2,5.0,0.0
19/03/2015,-,15.5,5.3,1.6
20/03/2015,-,10.7,6.6,3.3
21/03/2015,-,10.9,7.1,9.8
22/03/2015,-,9.7,7.0,13.1
23/03/2015,-,10.3,4.6,7.9
24/03/2015,-,10.5,6.0,27.6
25/03/2015,-,10.6,3.2,1.7
26/03/2015,-,13.4,3.1,7.2
27/03/2015,-,14.7,6.2,14.2
28/03/2015,-,16.0,9.6,3.0
29/03/2015,-,18.1,11.0,0.4
30/03/2015,-,18.0,9.0,5.0
31/03/2015,-,12.7,11.2,3.7
01/04/2015,-,14.6,10.3,0.0
02/04/2015,-,17.4,2.8,0.0
03/04/2015,-,16.7,3.6,2.7
04/04/2015,-,16.5,4.9,3.0
05/04/2015,-,15.0,9.7,0.0
06/04/2015,-,18.2,0.9,0.0
07/04/2015,-,21.2,1.1,0.0
08/04/2015,-,23.5,9.0,0.0
09/04/2015,-,24.2,11.5,0.0
10/04/2015,-,22.9,14.6,1.8
11/04/2015,-,14.8,11.5,0.0
12/04/2015,-,25.7,6.8,0.0
13/04/2015,-,27.8,7.2,0.0
14/04/2015,-,31.1,7.7,0.0
15/04/2015,-,25.0,17.2,0.0
16/04/2015,-,20.0,10.6,0.0
17/04/2015,-,19.0,11.4,2.2
18/04/2015,-,24.5,9.0,6.7
19/04/2015,-,17.5,10.1,3.7
20/04/2015,-,20.0,7.3,0.0
21/04/2015,-,26.5,7.1,0.0
22/04/2015,-,24.2,8.0,1.8
23/04/2015,-,20.2,12.0,0.4
24/04/2015,-,26.5,7.2,0.4
25/04/2015,-,25.5,7.6,0.0
26/04/2015,-,21.5,13.0,88.9
27/04/2015,-,16.0,12.0,23.7
28/04/2015,-,17.1,8.1,0.0
29/04/2015,-,18.7,7.0,0.0
30/04/2015,-,23.8,6.5,2.1
01/05/2015,-,21.0,7.0,3.4
02/05/2015,-,28.0,12.5,0.0
03/05/2015,-,26.0,14.7,0.3
04/05/2015,-,29.6,15.9,0.0
05/05/2015,-,19.7,15.2,0.0
06/05/2015,-,18.8,10.2,0.0
07/05/2015,-,30.6,7.0,0.0
08/05/2015,-,23.8,8.0,0.0
09/05/2015,-,19.7,10.7,0.0
10/05/2015,-,33.0,10.2,0.0
11/05/2015,-,23.3,11.7,0.0
12/05/2015,-,24.4,14.1,0.0
13/05/2015,-,28.0,14.8,0.0
14/05/2015,-,22.3,15.0,11.6
15/05/2015,-,16.5,11.8,23.6
16/05/2015,-,18.5,11.5,4.1
17/05/2015,-,19.0,12.2,0.0
18/05/2015,-,20.6,10.2,9.2
19/05/2015,-,16.3,11.6,14.2
20/05/2015,-,16.7,10.0,16.9
21/05/2015,-,17.4,9.7,1.6
22/05/2015,-,17.8,7.0,0.0
23/05/2015,-,18.2,7.0,6.0
24/05/2015,-,18.2,12.6,0.2
25/05/2015,-,18.2,14.6,3.7
26/05/2015,-,18.0,10.6,0.5
27/05/2015,-,21.5,9.4,0.0
28/05/2015,-,22.0,9.1,0.0
29/05/2015,-,18.0,11.4,0.0
30/05/2015,-,21.7,9.0,0.0
31/05/2015,-,24.2,9.3,0.0
01/06/2015,-,23.6,12.0,0.0
02/06/2015,-,25.0,16.0,0.4
03/06/2015,-,23.8,16.9,0.0
04/06/2015,-,35.8,14.0,0.0
05/06/2015,-,30.8,14.6,0.4
06/06/2015,-,20.0,16.3,0.6
07/06/2015,-,25.1,16.4,0.0
08/06/2015,-,25.6,14.6,0.0
09/06/2015,-,23.6,13.2,6.1
10/06/2015,-,20.8,14.0,22.3
11/06/2015,-,22.7,14.6,5.1
12/06/2015,-,23.0,14.2,2.6
13/06/2015,-,24.2,14.2,22.1
14/06/2015,-,22.3,13.6,2.1
15/06/2015,-,21.1,12.1,17.7
16/06/2015,-,16.7,13.0,33.6
17/06/2015,-,22.2,13.7,0.0
18/06/2015,-,21.7,12.4,0.5
19/06/2015,-,21.5,12.6,2.7
20/06/2015,-,23.5,13.3,0.0
21/06/2015,-,24.5,13.2,0.0
22/06/2015,-,28.0,13.1,0.0
23/06/2015,-,23.6,14.7,0.0
24/06/2015,-,24.5,13.6,0.0
25/06/2015,-,31.6,12.0,0.0
26/06/2015,-,29.0,12.1,0.0
27/06/2015,-,26.2,15.8,0.0
28/06/2015,-,26.1,15.2,0.0
29/06/2015,-,30.5,16.5,0.0
30/06/2015,-,39.1,17.0,0.0
01/07/2015,-,29.2,18.5,0.0
02/07/2015,-,24.5,19.3,0.0
03/07/2015,-,37.6,18.3,0.0
04/07/2015,-,28.2,17.4,0.0
05/07/2015,-,25.4,17.2,0.0
06/07/2015,-,32.0,17.0,0.0
07/07/2015,-,27.0,16.1,4.0
08/07/2015,-,22.6,18.8,1.2
09/07/2015,-,24.6,14.5,0.0
10/07/2015,-,38.0,13.6,0.0
11/07/2015,-,23.0,14.0,0.3
12/07/2015,-,25.5,18.1,0.0
13/07/2015,-,26.4,14.3,0.0
14/07/2015,-,26.5,14.6,0.0
15/07/2015,-,28.5,17.0,0.0
16/07/2015,-,27.0,17.1,0.0
17/07/2015,-,27.6,16.8,1.9
18/07/2015,-,36.2,18.0,6.1
19/07/2015,-,29.7,19.5,0.0
20/07/2015,-,31.0,17.5,0.0
21/07/2015,-,29.6,17.6,10.1
22/07/2015,-,25.1,18.0,9.5
23/07/2015,-,28.0,18.8,0.0
24/07/2015,-,29.0,17.5,14.0
25/07/2015,-,22.8,17.0,0.0
26/07/2015,-,29.6,13.5,1.9
27/07/2015,-,24.0,13.9,2.0
28/07/2015,-,28.4,17.2,0.0
29/07/2015,-,20.6,15.3,1.1
30/07/2015,-,20.4,15.0,1.1
31/07/2015,-,20.8,15.5,0.9
01/08/2015,-,24.4,15.7,0.0
02/08/2015,-,35.0,11.2,0.0
03/08/2015,-,27.5,16.8,6.8
04/08/2015,-,21.7,17.4,0.3
05/08/2015,-,34.3,17.5,0.0
06/08/2015,-,29.5,18.0,0.0
07/08/2015,-,24.5,18.5,4.2
08/08/2015,-,20.0,16.8,9.9
09/08/2015,-,22.5,15.5,1.6
10/08/2015,-,28.1,15.2,1.0
11/08/2015,-,30.7,15.1,1.0
12/08/2015,-,31.6,15.5,0.5
13/08/2015,-,26.0,18.5,3.8
14/08/2015,-,22.5,16.4,8.0
15/08/2015,-,22.5,15.7,7.0
16/08/2015,-,25.7,12.4,1.1
17/08/2015,-,24.1,13.5,0.0
18/08/2015,-,24.0,13.5,0.0
19/08/2015,-,24.9,13.0,0.0
20/08/2015,-,30.1,13.6,0.0
21/08/2015,-,34.5,14.6,0.0
22/08/2015,-,29.6,15.2,33.7
23/08/2015,-,26.0,16.6,0.0
24/08/2015,-,24.0,14.4,0.0
25/08/2015,-,29.0,11.0,0.0
26/08/2015,-,34.0,11.6,0.0
27/08/2015,-,32.0,15.6,0.0
28/08/2015,-,31.0,15.4,0.0
29/08/2015,-,38.2,15.6,0.0
30/08/2015,-,35.5,17.8,0.0
31/08/2015,-,32.0,22.0,44.8
01/09/2015,-,21.3,18.8,0.3
02/09/2015,-,23.5,13.8,10.4
03/09/2015,-,22.1,12.7,0.0
04/09/2015,-,21.7,12.2,0.0
05/09/2015,-,20.5,12.2,0.9
06/09/2015,-,22.5,10.7,0.0
07/09/2015,-,22.2,10.6,0.0
08/09/2015,-,23.7,9.5,0.0
09/09/2015,-,30.1,12.5,0.6
10/09/2015,-,22.1,18.0,0.0
11/09/2015,-,30.7,14.5,0.0
12/09/2015,-,21.8,18.2,1.3
13/09/2015,-,25.0,16.2,4.7
14/09/2015,-,21.6,16.0,0.0
15/09/2015,-,23.5,12.3,2.4
16/09/2015,-,27.4,17.4,2.0
17/09/2015,-,19.9,13.3,0.5
18/09/2015,-,22.6,10.2,0.0
19/09/2015,-,22.0,11.3,0.0
20/09/2015,-,23.6,11.0,0.0
21/09/2015,-,23.9,12.1,0.8
22/09/2015,-,20.8,12.0,22.4
23/09/2015,-,20.0,14.0,4.9
24/09/2015,-,22.5,11.6,0.0
25/09/2015,-,23.2,12.2,0.0
26/09/2015,-,23.2,10.3,0.0
27/09/2015,-,22.3,13.2,0.0
28/09/2015,-,25.0,12.4,0.0
29/09/2015,-,22.4,12.8,9.8
30/09/2015,-,22.7,13.7,0.0
01/10/2015,-,21.6,11.8,11.4
02/10/2015,-,18.3,13.6,12.5
03/10/2015,-,20.5,12.0,0.0
04/10/2015,-,24.3,8.3,2.1
05/10/2015,-,28.9,20.7,0.0
06/10/2015,-,25.2,19.0,20.2
07/10/2015,-,18.1,13.0,4.4
08/10/2015,-,20.8,12.5,0.0
09/10/2015,-,21.7,11.0,0.0
10/10/2015,-,26.0,8.9,0.0
11/10/2015,-,23.3,10.5,0.3
12/10/2015,-,20.1,13.8,37.4
13/10/2015,-,17.5,12.5,0.0
14/10/2015,-,15.0,6.5,0.0
15/10/2015,-,16.2,2.5,0.0
16/10/2015,-,17.0,3.1,0.0
17/10/2015,-,23.5,4.3,3.8
18/10/2015,-,24.8,14.5,0.0
19/10/2015,-,19.0,13.3,0.9
20/10/2015,-,16.5,12.7,0.0
21/10/2015,-,15.9,9.7,0.0
22/10/2015,-,16.3,6.6,0.3
23/10/2015,-,21.7,8.3,0.0
24/10/2015,-,20.5,11.2,0.0
25/10/2015,-,21.1,13.1,0.0
26/10/2015,-,24.2,12.1,0.0
27/10/2015,-,23.2,16.8,21.4
28/10/2015,-,20.5,8.8,1.0
29/10/2015,-,22.7,7.5,0.0
30/10/2015,-,26.1,13.6,0.0
31/10/2015,-,24.6,16.1,0.0
01/11/2015,-,24.6,11.5,0.0
02/11/2015,-,20.8,7.7,2.9
03/11/2015,-,18.4,3.2,0.0
04/11/2015,-,22.1,14.4,0.0
05/11/2015,-,21.0,15.9,0.0
06/11/2015,-,26.6,14.1,0.0
07/11/2015,-,26.2,13.2,0.0
08/11/2015,-,27.5,13.3,0.0
09/11/2015,-,22.4,12.4,0.0
10/11/2015,-,20.6,10.0,0.4
11/11/2015,-,15.4,12.6,0.0
12/11/2015,-,23.7,12.0,0.0
13/11/2015,-,17.2,7.2,1.1
14/11/2015,-,17.8,8.2,0.0
15/11/2015,-,22.5,7.6,0.0
16/11/2015,-,18.0,4.8,0.0
17/11/2015,-,21.0,4.6,0.0
18/11/2015,-,23.0,7.2,0.0
19/11/2015,-,20.7,9.6,0.0
20/11/2015,-,22.7,9.6,17.5
21/11/2015,-,13.7,10.5,57.3
22/11/2015,-,9.1,5.0,1.6
23/11/2015,-,6.5,-0.4,2.1
24/11/2015,-,14.0,-0.5,38.1
25/11/2015,-,15.5,1.6,89.4
26/11/2015,-,15.0,11.0,5.2
27/11/2015,-,13.5,7.5,27.4
28/11/2015,-,13.3,8.0,0.3
29/11/2015,-,15.5,4.8,0.0
30/11/2015,-,15.5,4.2,0.0
01/12/2015,-,15.0,3.2,0.0
02/12/2015,-,15.8,-0.4,0.0
03/12/2015,-,19.1,-1.0,0.0
04/12/2015,-,17.6,0.0,0.0
05/12/2015,-,21.8,6.3,0.0
06/12/2015,-,18.4,5.2,0.0
07/12/2015,-,18.7,9.5,0.0
08/12/2015,-,17.3,10.8,2.9
09/12/2015,-,17.2,9.8,0.0
10/12/2015,-,17.3,3.0,0.0
11/12/2015,-,17.5,3.0,0.0
12/12/2015,-,15.8,1.7,0.0
13/12/2015,-,15.7,1.0,0.0
14/12/2015,-,17.0,1.8,0.0
15/12/2015,-,19.5,10.8,0.0
16/12/2015,-,21.2,6.1,0.0
17/12/2015,-,22.4,5.5,0.0
18/12/2015,-,22.4,6.2,0.0
19/12/2015,-,22.6,6.8,0.0
20/12/2015,-,22.5,14.6,0.1
21/12/2015,-,19.0,3.5,0.0
22/12/2015,-,18.6,3.2,0.0
23/12/2015,-,20.2,4.2,0.0
24/12/2015,-,17.2,4.5,0.0
25/12/2015,-,20.0,10.0,0.0
26/12/2015,-,19.8,9.0,0.0
27/12/2015,-,19.9,10.7,0.0
