Fecha, Temperatura media, Temperatura maxima, Temperatura minima, Precipitacion acumulada
01/01/2017,2.5,5.6,-0.1,0.0
02/01/2017,1.9,6.3,-3.5,0.0
03/01/2017,4.9,6.8,2.7,0.0
04/01/2017,2.1,5.1,-0.5,0.0
05/01/2017,-2.9,-0.2,-4.7,0.0
06/01/2017,0.7,2.7,-3.5,0.0
07/01/2017,1.2,2.8,-0.7,0.0
08/01/2017,0.8,2.9,-0.5,0.4
09/01/2017,-0.6,1.4,-1.8,0.2
10/01/2017,1.1,1.9,0.1,57.0
11/01/2017,4.4,5.9,1.7,32.9
12/01/2017,4.7,7.0,0.2,3.4
13/01/2017,-2.6,0.1,-4.0,22.8
14/01/2017,-3.2,-2.0,-4.4,26.4
15/01/2017,-1.2,-0.3,-2.2,46.7
16/01/2017,1.1,2.2,-0.3,43.9
17/01/2017,-7.4,0.3,-11.2,1.9
18/01/2017,-9.5,-8.2,-11.5,0.0
19/01/2017,-4.2,-0.9,-8.3,0.0
20/01/2017,-0.6,2.2,-3.0,0.0
21/01/2017,0.7,3.0,-0.5,0.0
22/01/2017,-1.8,-0.1,-3.5,0.0
23/01/2017,-2.0,-0.4,-2.9,0.0
24/01/2017,-2.8,-1.4,-5.1,0.0
25/01/2017,-4.3,-0.9,-6.4,0.0
26/01/2017,-3.7,-0.6,-6.7,0.0
27/01/2017,-0.1,1.0,-1.5,11.0
28/01/2017,-0.6,0.8,-2.3,2.1
29/01/2017,1.8,3.9,-0.5,0.7
30/01/2017,4.3,5.8,3.0,0.0
31/01/2017,4.6,7.2,2.8,0.0
01/02/2017,5.2,7.4,4.0,0.0
02/02/2017,2.1,4.8,-0.3,3.7
03/02/2017,2.2,5.8,-0.2,4.8
04/02/2017,3.8,7.0,2.1,12.6
05/02/2017,-0.5,5.3,-2.7,19.4
06/02/2017,2.0,5.3,-1.8,15.1
07/02/2017,1.7,4.9,-3.0,11.9
08/02/2017,-2.2,-1.5,-3.5,23.3
09/02/2017,-1.1,2.4,-5.0,1.3
10/02/2017,0.1,1.8,-1.4,0.0
11/02/2017,-0.7,0.5,-1.6,4.4
12/02/2017,2.6,4.1,0.4,8.4
13/02/2017,3.2,4.5,1.6,28.8
14/02/2017,3.1,5.6,1.0,0.0
15/02/2017,4.3,6.8,2.5,0.0
16/02/2017,5.1,7.8,2.7,0.0
17/02/2017,6.7,10.0,5.0,0.0
18/02/2017,5.4,8.7,2.1,0.0
19/02/2017,2.4,4.0,1.6,0.1
20/02/2017,1.6,2.8,0.4,0.0
21/02/2017,4.7,8.3,0.3,0.0
22/02/2017,10.0,13.6,7.4,0.0
23/02/2017,7.5,11.9,1.6,0.0
24/02/2017,0.3,3.5,-2.2,6.4
25/02/2017,4.5,10.7,-4.1,0.0
26/02/2017,7.1,10.4,5.1,0.0
27/02/2017,4.7,7.7,1.8,0.0
28/02/2017,0.5,2.9,-1.4,3.9
01/03/2017,2.9,5.9,-0.8,0.9
02/03/2017,5.9,10.1,2.9,0.0
03/03/2017,4.0,8.0,-1.7,13.3
04/03/2017,-2.1,-0.3,-4.0,2.8
05/03/2017,2.1,4.8,-1.2,2.9
06/03/2017,4.2,6.3,0.9,2.8
07/03/2017,3.7,5.6,0.6,4.6
08/03/2017,9.3,13.9,4.1,0.8
09/03/2017,13.8,18.3,10.9,0.0
10/03/2017,15.9,18.3,13.7,0.0
11/03/2017,11.4,17.8,4.9,0.1
12/03/2017,2.1,4.8,-0.4,23.6
13/03/2017,1.7,3.0,-0.3,25.0
14/03/2017,3.2,4.9,2.0,0.4
15/03/2017,7.2,12.4,2.0,0.1
16/03/2017,9.2,12.5,6.4,0.0
17/03/2017,9.9,13.8,3.0,0.0
18/03/2017,8.1,10.8,5.5,0.0
19/03/2017,7.2,10.8,4.1,0.0
20/03/2017,7.2,14.1,0.8,0.0
21/03/2017,1.3,3.2,-0.7,4.1
22/03/2017,0.0,4.6,-2.3,5.1
23/03/2017,-2.5,0.5,-5.3,0.0
24/03/2017,-0.5,3.6,-3.0,1.2
25/03/2017,-1.4,-0.2,-3.2,26.9
26/03/2017,2.7,6.1,-0.9,2.7
27/03/2017,2.8,4.3,1.3,0.1
28/03/2017,5.9,10.2,2.7,0.0
29/03/2017,9.8,13.7,6.0,0.0
30/03/2017,10.1,12.9,7.1,0.0
31/03/2017,7.0,10.3,2.6,3.1
01/04/2017,1.2,2.6,-0.2,13.3
02/04/2017,0.6,2.0,-0.3,15.4
03/04/2017,4.2,10.2,-0.2,0.2
04/04/2017,3.0,4.2,1.2,2.3
05/04/2017,2.3,3.3,0.3,6.3
06/04/2017,3.1,6.4,0.8,0.0
07/04/2017,8.4,13.6,1.3,0.0
08/04/2017,11.5,15.7,7.4,0.0
09/04/2017,12.4,16.0,8.9,0.0
10/04/2017,12.4,16.7,8.3,0.0
11/04/2017,6.5,9.5,4.0,0.0
12/04/2017,9.7,15.0,3.6,0.0
13/04/2017,12.4,17.3,7.5,0.0
14/04/2017,8.3,13.5,3.0,0.0
15/04/2017,4.0,5.2,2.3,0.7
16/04/2017,5.9,11.1,0.8,0.0
17/04/2017,8.2,12.3,3.5,0.0
18/04/2017,4.4,7.2,1.7,0.2
19/04/2017,2.6,5.7,-0.8,0.1
20/04/2017,5.2,8.4,1.0,0.0
21/04/2017,7.6,11.8,2.3,0.0
22/04/2017,10.2,15.2,4.4,0.0
23/04/2017,12.3,16.0,9.8,0.0
24/04/2017,13.9,18.1,10.5,0.0
25/04/2017,7.0,11.5,2.6,4.9
26/04/2017,-1.3,2.7,-3.8,4.3
27/04/2017,-2.2,0.5,-3.8,0.0
28/04/2017,0.7,4.8,-2.8,0.0
29/04/2017,4.1,6.9,1.1,0.0
30/04/2017,2.3,5.1,-1.6,5.2
01/05/2017,2.4,7.3,-2.0,0.2
02/05/2017,4.9,6.2,4.0,1.2
03/05/2017,8.3,13.1,4.1,0.0
04/05/2017,11.7,16.1,6.9,0.0
05/05/2017,10.9,15.4,4.8,12.9
06/05/2017,6.2,11.3,2.8,0.7
07/05/2017,7.9,11.9,4.7,0.0
08/05/2017,8.4,12.6,5.5,0.0
09/05/2017,11.0,14.8,5.8,0.0
10/05/2017,9.9,15.8,6.6,4.1
11/05/2017,7.5,10.0,5.1,5.6
12/05/2017,8.0,12.4,5.9,6.1
13/05/2017,8.5,12.4,4.5,0.1
14/05/2017,11.3,15.9,6.5,0.0
15/05/2017,15.4,19.1,11.7,0.0
16/05/2017,17.4,20.7,14.8,0.0
17/05/2017,13.6,16.2,8.5,0.1
18/05/2017,4.0,8.8,1.3,10.8
19/05/2017,3.1,7.0,0.8,0.0
20/05/2017,7.4,11.5,3.5,0.0
21/05/2017,13.9,18.2,10.3,0.0
22/05/2017,13.9,17.9,11.0,0.0
23/05/2017,13.7,16.8,10.6,0.0
24/05/2017,17.9,21.9,12.1,0.0
25/05/2017,20.4,25.0,16.1,0.0
26/05/2017,18.3,23.9,12.1,3.1
27/05/2017,18.3,21.9,14.5,0.0
28/05/2017,17.3,19.5,14.1,0.0
29/05/2017,11.9,16.0,8.9,4.3
30/05/2017,10.2,11.6,9.3,0.7
31/05/2017,12.7,16.6,8.8,0.2
01/06/2017,16.4,21.1,12.2,0.0
02/06/2017,14.8,20.6,10.3,4.0
03/06/2017,9.0,11.3,5.0,12.7
04/06/2017,5.9,8.2,4.8,16.2
05/06/2017,9.5,14.1,5.1,5.8
06/06/2017,6.5,12.4,3.9,2.1
07/06/2017,11.4,18.1,3.7,0.0
08/06/2017,15.9,21.5,10.2,5.9
09/06/2017,15.5,20.2,11.6,0.0
10/06/2017,18.9,22.7,15.3,0.0
11/06/2017,17.1,24.4,10.8,0.6
12/06/2017,17.1,23.4,10.8,0.8
13/06/2017,20.2,24.9,17.2,0.0
14/06/2017,20.4,25.7,15.7,0.0
15/06/2017,13.8,19.8,11.1,0.8
16/06/2017,13.7,19.5,10.2,0.6
17/06/2017,16.9,20.6,12.1,0.0
18/06/2017,22.1,27.0,15.7,0.0
19/06/2017,21.3,26.3,15.8,0.2
20/06/2017,20.8,25.8,16.7,0.0
21/06/2017,22.5,27.3,18.5,0.0
22/06/2017,22.7,28.8,12.2,0.0
23/06/2017,13.4,21.0,10.3,0.3
24/06/2017,11.4,14.4,9.9,0.1
25/06/2017,15.8,21.2,9.6,5.3
26/06/2017,14.0,17.8,12.0,2.8
27/06/2017,13.3,19.3,9.6,7.7
28/06/2017,9.3,14.9,5.5,8.8
29/06/2017,6.4,11.2,4.6,2.1
30/06/2017,5.3,6.7,4.3,7.0
01/07/2017,5.3,6.2,4.3,7.0
02/07/2017,7.6,11.1,4.8,0.0
03/07/2017,12.1,16.7,8.0,0.3
04/07/2017,20.2,24.7,15.4,0.0
05/07/2017,20.8,25.1,16.7,0.0
06/07/2017,19.0,23.3,16.3,0.0
07/07/2017,20.5,24.6,15.9,0.0
08/07/2017,14.0,18.4,11.9,1.2
09/07/2017,14.0,19.1,10.1,17.2
10/07/2017,11.0,12.4,10.0,1.4
11/07/2017,15.3,22.0,9.2,0.1
12/07/2017,15.7,18.9,11.1,0.0
13/07/2017,13.7,17.5,9.4,0.2
14/07/2017,10.1,11.7,8.8,2.2
15/07/2017,11.6,15.1,8.9,0.2
16/07/2017,18.5,23.0,11.7,0.0
17/07/2017,21.5,25.4,17.2,0.0
18/07/2017,20.1,26.1,12.5,12.4
19/07/2017,16.5,23.2,11.4,0.0
20/07/2017,10.4,12.2,8.6,3.4
21/07/2017,11.9,17.7,8.6,11.2
22/07/2017,12.9,19.4,8.5,1.3
23/07/2017,11.2,15.0,8.5,0.4
24/07/2017,10.8,12.2,8.9,19.1
25/07/2017,8.6,9.6,7.4,3.6
26/07/2017,13.0,16.8,7.5,0.0
27/07/2017,16.6,21.4,13.4,0.2
28/07/2017,15.9,21.1,13.2,0.7
29/07/2017,21.4,25.7,17.0,0.0
30/07/2017,15.4,21.3,10.5,1.1
31/07/2017,13.0,19.6,9.7,1.2
01/08/2017,12.6,18.4,10.8,0.8
02/08/2017,19.9,25.0,15.0,0.0
03/08/2017,18.9,23.3,14.1,0.1
04/08/2017,18.4,21.4,14.4,0.0
05/08/2017,12.9,15.3,9.2,3.9
06/08/2017,10.0,12.3,8.0,1.0
07/08/2017,14.7,21.6,10.1,1.2
08/08/2017,8.1,10.0,5.8,2.3
09/08/2017,6.8,8.3,5.6,1.8
10/08/2017,6.8,8.2,5.1,12.2
11/08/2017,7.9,10.9,5.7,0.0
12/08/2017,12.9,17.4,6.6,0.0
13/08/2017,16.1,20.3,9.7,0.0
14/08/2017,19.8,25.1,15.2,0.0
15/08/2017,15.2,20.5,12.3,3.4
16/08/2017,13.5,15.2,11.8,0.2
17/08/2017,19.3,22.6,15.1,0.0
18/08/2017,14.0,21.2,10.6,0.6
19/08/2017,10.7,13.5,8.3,1.7
20/08/2017,11.7,16.0,7.5,0.2
21/08/2017,21.6,26.4,15.6,0.0
22/08/2017,20.2,25.5,16.3,0.0
23/08/2017,19.6,23.7,16.2,0.0
24/08/2017,18.6,25.1,13.4,0.0
25/08/2017,19.5,25.4,13.7,0.0
26/08/2017,20.1,25.1,16.6,0.0
27/08/2017,17.0,20.4,13.6,5.2
28/08/2017,17.2,22.5,11.5,14.1
29/08/2017,15.3,19.8,11.8,4.2
30/08/2017,13.7,19.1,8.6,16.7
31/08/2017,8.2,10.1,6.7,2.4
01/09/2017,7.8,11.3,6.5,1.7
02/09/2017,8.9,13.6,5.5,1.0
03/09/2017,14.1,17.1,11.6,1.6
04/09/2017,12.7,15.1,11.1,1.4
05/09/2017,14.7,21.2,11.0,0.0
06/09/2017,10.0,11.9,7.3,3.1
07/09/2017,7.8,9.9,6.3,0.0
08/09/2017,11.4,17.7,6.3,0.1
09/09/2017,7.4,10.1,4.9,12.7
10/09/2017,7.3,11.3,4.9,13.9
11/09/2017,9.6,11.8,7.3,10.0
12/09/2017,8.9,12.1,6.5,3.8
13/09/2017,14.3,20.3,10.3,0.0
14/09/2017,7.6,14.4,4.5,1.9
15/09/2017,4.7,7.0,2.8,1.3
16/09/2017,4.1,6.5,2.5,0.6
17/09/2017,6.3,9.4,3.8,0.0
18/09/2017,6.9,8.1,5.8,13.1
19/09/2017,6.4,8.5,4.5,0.3
20/09/2017,13.3,17.3,7.7,0.0
21/09/2017,13.4,18.3,7.4,0.0
22/09/2017,9.7,12.2,7.0,1.7
23/09/2017,13.2,17.6,9.3,0.0
24/09/2017,16.7,20.2,12.2,0.0
25/09/2017,9.4,12.0,7.8,7.8
26/09/2017,9.9,13.7,7.9,3.2
27/09/2017,13.6,17.3,9.6,0.0
28/09/2017,15.0,18.7,11.5,0.0
29/09/2017,14.3,19.9,9.7,0.0
30/09/2017,9.9,11.4,7.7,3.1
01/10/2017,10.3,11.6,6.9,4.8
02/10/2017,12.4,13.8,11.2,5.2
03/10/2017,12.0,14.0,10.8,1.2
04/10/2017,14.4,17.8,10.8,0.2
05/10/2017,13.5,18.5,8.9,0.2
06/10/2017,7.3,10.0,3.6,2.0
07/10/2017,9.4,14.3,3.0,0.2
08/10/2017,11.2,14.2,8.9,0.0
09/10/2017,12.0,15.4,9.3,0.0
10/10/2017,14.7,17.5,11.7,0.0
11/10/2017,14.8,18.8,11.0,0.0
12/10/2017,15.9,18.5,13.7,0.0
13/10/2017,16.5,19.9,13.4,0.0
14/10/2017,14.9,17.6,13.0,0.0
15/10/2017,13.6,16.7,11.1,0.0
16/10/2017,13.9,17.8,10.2,0.0
17/10/2017,11.7,14.3,8.9,0.0
18/10/2017,8.3,10.2,6.4,8.3
19/10/2017,8.3,11.5,5.8,4.5
20/10/2017,10.6,13.7,7.4,0.0
21/10/2017,7.3,12.1,4.5,5.4
22/10/2017,4.3,5.1,3.7,4.2
23/10/2017,9.4,13.8,3.2,0.1
24/10/2017,16.3,19.9,11.9,0.0
25/10/2017,17.1,19.1,14.3,0.0
26/10/2017,15.4,19.3,11.5,0.0
27/10/2017,9.1,11.5,7.0,1.4
28/10/2017,6.0,7.5,4.0,0.9
29/10/2017,5.2,6.6,3.4,7.2
30/10/2017,4.6,6.7,0.7,11.8
31/10/2017,6.0,10.0,-0.2,0.0
01/11/2017,7.6,9.4,5.8,0.0
02/11/2017,8.7,10.4,7.6,0.0
03/11/2017,9.0,11.3,8.0,0.0
04/11/2017,7.2,8.6,5.3,35.0
05/11/2017,2.1,5.1,0.5,34.2
06/11/2017,0.2,1.2,-2.3,12.7
07/11/2017,0.3,4.1,-3.9,2.6
08/11/2017,-0.3,1.6,-1.6,49.1
09/11/2017,0.1,1.0,-0.8,29.2
10/11/2017,3.5,5.0,0.2,12.6
11/11/2017,4.8,5.5,3.9,8.6
12/11/2017,5.0,6.1,2.0,12.3
13/11/2017,-1.2,2.2,-2.7,6.7
14/11/2017,-2.5,-0.9,-3.8,0.0
15/11/2017,6.7,10.7,-2.4,0.0
16/11/2017,9.0,10.8,6.6,0.0
17/11/2017,5.8,8.2,2.7,0.0
18/11/2017,2.6,4.0,1.0,0.0
19/11/2017,4.8,6.8,2.7,0.0
20/11/2017,10.7,13.7,6.0,0.0
21/11/2017,9.9,12.1,7.1,0.0
22/11/2017,8.1,10.8,5.7,0.0
23/11/2017,8.3,10.0,6.0,0.0
24/11/2017,7.1,9.7,5.4,1.4
25/11/2017,1.5,6.6,-1.4,23.9
26/11/2017,-0.9,-0.3,-1.6,11.8
27/11/2017,3.1,7.7,-3.3,0.0
28/11/2017,1.2,2.7,-0.4,1.7
29/11/2017,-1.7,-0.1,-3.2,6.5
30/11/2017,-2.7,-1.8,-3.8,8.2
01/12/2017,-4.1,-1.6,-6.2,17.9
02/12/2017,-4.9,-3.8,-7.0,8.4
03/12/2017,-4.2,-0.2,-8.6,1.3
04/12/2017,-0.6,-0.0,-2.1,1.3
05/12/2017,1.5,6.6,-2.6,0.0
06/12/2017,4.3,6.9,1.2,0.0
07/12/2017,2.1,3.9,0.9,0.0
08/12/2017,1.6,4.1,-0.6,10.6
09/12/2017,0.2,4.5,-1.7,18.4
10/12/2017,4.8,7.3,3.7,6.8
11/12/2017,-0.3,7.4,-3.0,7.2
12/12/2017,-2.3,-1.2,-3.4,0.0
13/12/2017,0.4,3.5,-1.9,0.1
14/12/2017,3.8,5.1,1.5,6.6
15/12/2017,-0.8,1.7,-1.9,28.9
16/12/2017,-1.8,-1.2,-2.4,26.3
17/12/2017,-1.2,-0.4,-2.5,8.1
18/12/2017,1.4,5.0,-0.9,7.4
19/12/2017,-2.1,1.2,-4.2,0.0
20/12/2017,0.4,3.1,-1.7,0.1
21/12/2017,2.5,3.9,0.7,0.0
22/12/2017,1.1,3.4,0.1,0.3
23/12/2017,2.8,7.3,0.3,0.0
24/12/2017,6.8,9.1,4.9,0.0
25/12/2017,2.4,6.0,-0.5,0.7
26/12/2017,-0.6,0.6,-1.4,9.3
27/12/2017,-1.7,0.7,-2.6,41.1
28/12/2017,-0.1,2.1,-2.4,25.4
29/12/2017,3.9,6.2,0.9,9.1
30/12/2017,5.9,7.1,4.6,0.0
31/12/2017,2.6,6.0,-0.7,10.9
