Fecha, Temperatura media, Temperatura maxima, Temperatura minima, Precipitacion acumulada
01/01/2009,-,12.0,5.0,0.0
02/01/2009,-,12.0,6.0,0.0
03/01/2009,-,7.0,5.0,0.0
04/01/2009,-,8.0,1.0,0.0
05/01/2009,-,5.0,0.0,0.0
06/01/2009,-,4.0,0.0,0.0
07/01/2009,-,1.0,-2.0,0.0
08/01/2009,-,0.0,-2.0,0.0
09/01/2009,-,3.0,-3.0,2.8
10/01/2009,-,5.0,-2.0,0.9
11/01/2009,-,6.0,-3.0,0.0
12/01/2009,-,1.0,-7.0,0.0
13/01/2009,-,5.0,-7.0,1.6
14/01/2009,-,7.0,-2.0,0.0
15/01/2009,-,8.0,-2.0,0.0
16/01/2009,-,7.0,-3.0,0.0
17/01/2009,-,12.0,-1.0,0.0
18/01/2009,-,12.0,1.0,0.0
19/01/2009,-,12.0,3.0,5.0
20/01/2009,-,8.0,1.0,0.0
21/01/2009,-,5.0,1.0,4.7
22/01/2009,-,14.0,1.0,3.0
23/01/2009,-,17.0,3.0,1.0
24/01/2009,-,8.0,6.0,2.0
25/01/2009,-,9.0,1.0,0.7
26/01/2009,-,5.0,1.0,19.0
27/01/2009,-,9.0,2.0,8.0
28/01/2009,-,12.0,3.0,2.0
29/01/2009,-,15.0,4.0,0.0
30/01/2009,-,14.0,7.0,0.0
31/01/2009,-,12.0,7.0,4.0
01/02/2009,-,6.0,3.0,0.7
02/02/2009,-,5.0,4.0,1.7
03/02/2009,-,8.0,2.0,0.0
04/02/2009,-,13.0,2.0,1.5
05/02/2009,-,9.0,5.0,5.3
06/02/2009,-,6.0,3.0,0.0
07/02/2009,-,5.0,1.0,9.0
08/02/2009,-,11.0,1.0,0.3
09/02/2009,-,14.0,1.0,0.0
10/02/2009,-,10.0,7.0,0.0
11/02/2009,-,10.0,5.0,4.7
12/02/2009,-,12.0,5.0,0.0
13/02/2009,-,12.0,3.0,0.0
14/02/2009,-,13.0,-1.0,0.0
15/02/2009,-,10.0,-1.0,0.0
16/02/2009,-,12.0,-1.0,0.0
17/02/2009,-,13.0,-1.0,0.0
18/02/2009,-,11.0,0.0,0.0
19/02/2009,-,14.0,2.0,0.0
20/02/2009,-,11.0,2.0,0.0
21/02/2009,-,14.0,1.0,0.0
22/02/2009,-,11.0,2.0,0.0
23/02/2009,-,11.0,3.0,0.0
24/02/2009,-,13.0,5.0,0.0
25/02/2009,-,13.0,3.0,0.0
26/02/2009,-,12.0,4.0,0.0
27/02/2009,-,17.0,0.0,0.0
28/02/2009,-,12.0,2.0,0.0
01/03/2009,-,12.0,3.0,2.2
02/03/2009,-,10.0,6.0,0.0
03/03/2009,-,12.0,3.0,0.0
04/03/2009,-,8.0,4.0,10.0
05/03/2009,-,5.0,3.0,17.0
06/03/2009,-,8.0,2.0,2.2
07/03/2009,-,11.0,3.0,0.3
08/03/2009,-,15.0,8.0,0.0
09/03/2009,-,14.0,6.0,0.0
10/03/2009,-,19.0,2.0,0.0
11/03/2009,-,18.0,3.0,0.0
12/03/2009,-,17.0,5.0,0.0
13/03/2009,-,21.0,5.0,0.0
14/03/2009,-,18.0,7.0,0.0
15/03/2009,-,18.0,8.0,0.0
16/03/2009,-,22.0,5.0,0.0
17/03/2009,-,18.0,8.0,0.0
18/03/2009,-,19.0,6.0,0.0
19/03/2009,-,23.0,4.0,0.0
20/03/2009,-,24.0,5.0,0.0
21/03/2009,-,20.0,3.0,0.0
22/03/2009,-,18.0,4.0,0.0
23/03/2009,-,19.0,3.0,0.0
24/03/2009,-,10.0,5.0,0.0
25/03/2009,-,16.0,1.0,0.0
26/03/2009,-,21.0,3.0,0.0
27/03/2009,-,22.0,5.0,0.0
28/03/2009,-,9.0,6.0,0.0
29/03/2009,-,10.0,5.0,0.0
30/03/2009,-,13.0,4.0,0.0
31/03/2009,-,12.0,4.0,0.0
01/04/2009,-,11.0,5.0,0.0
02/04/2009,-,14.0,5.0,0.0
03/04/2009,-,17.0,6.0,0.7
04/04/2009,-,18.0,6.0,0.0
05/04/2009,-,20.0,8.0,0.0
06/04/2009,-,17.0,10.0,9.0
07/04/2009,-,13.0,7.0,0.0
08/04/2009,-,16.0,6.0,0.0
09/04/2009,-,19.0,6.0,0.0
10/04/2009,-,8.0,7.0,12.0
11/04/2009,-,10.0,6.0,1.7
12/04/2009,-,11.0,5.0,0.0
13/04/2009,-,18.0,5.0,0.0
14/04/2009,-,13.0,6.0,4.0
15/04/2009,-,14.0,7.0,0.7
16/04/2009,-,14.0,6.0,3.2
17/04/2009,-,15.0,6.0,0.0
18/04/2009,-,16.0,5.0,0.0
19/04/2009,-,16.0,6.0,0.0
20/04/2009,-,13.0,7.0,0.0
21/04/2009,-,16.0,8.0,0.0
22/04/2009,-,20.0,7.0,0.0
23/04/2009,-,26.0,7.0,0.0
24/04/2009,-,27.0,8.0,0.0
25/04/2009,-,10.0,10.0,2.0
26/04/2009,-,10.0,7.0,0.0
27/04/2009,-,16.0,6.0,6.0
28/04/2009,-,16.0,6.0,0.0
29/04/2009,-,18.0,9.0,0.0
30/04/2009,-,17.0,9.0,5.0
01/05/2009,-,16.0,8.0,0.0
02/05/2009,-,20.0,7.0,0.0
03/05/2009,-,22.0,9.0,0.0
04/05/2009,-,16.0,11.0,0.0
05/05/2009,-,21.0,6.0,0.0
06/05/2009,-,28.0,8.0,0.0
07/05/2009,-,28.0,12.0,0.0
08/05/2009,-,24.0,12.0,0.0
09/05/2009,-,25.0,13.0,11.5
10/05/2009,-,23.0,13.0,1.0
11/05/2009,-,23.0,14.0,0.0
12/05/2009,-,24.0,11.0,0.0
13/05/2009,-,24.0,13.0,1.5
14/05/2009,-,17.0,13.0,0.0
15/05/2009,-,18.0,8.0,0.0
16/05/2009,-,25.0,9.0,0.0
17/05/2009,-,24.0,12.0,0.0
18/05/2009,-,23.0,10.0,0.0
19/05/2009,-,24.0,11.0,0.0
20/05/2009,-,28.0,10.0,0.5
21/05/2009,-,28.0,14.0,0.0
22/05/2009,-,28.0,14.0,0.0
23/05/2009,-,25.0,15.0,0.0
24/05/2009,-,23.0,16.0,11.5
25/05/2009,-,20.0,14.0,4.0
26/05/2009,-,16.0,12.0,0.0
27/05/2009,-,20.0,9.0,0.0
28/05/2009,-,28.0,9.0,0.0
29/05/2009,-,30.0,11.0,0.0
30/05/2009,-,30.0,15.0,0.0
31/05/2009,-,27.0,15.0,0.0
01/06/2009,-,26.0,12.0,0.0
02/06/2009,-,28.0,13.0,0.0
03/06/2009,-,29.0,14.0,0.0
04/06/2009,-,27.0,15.0,3.0
05/06/2009,-,24.0,15.0,2.0
06/06/2009,-,22.0,12.0,0.0
07/06/2009,-,22.0,13.0,1.0
08/06/2009,-,22.0,14.0,0.0
09/06/2009,-,21.0,12.0,0.6
10/06/2009,-,27.0,14.0,0.0
11/06/2009,-,28.0,17.0,0.0
12/06/2009,-,33.0,15.0,0.0
13/06/2009,-,36.0,18.0,3.2
14/06/2009,-,31.0,20.0,3.0
15/06/2009,-,27.0,18.0,0.0
16/06/2009,-,23.0,15.0,3.0
17/06/2009,-,31.0,17.0,2.0
18/06/2009,-,34.0,17.0,0.5
19/06/2009,-,20.0,18.0,0.0
20/06/2009,-,21.0,14.0,0.0
21/06/2009,-,21.0,11.0,0.0
22/06/2009,-,28.0,11.0,0.0
23/06/2009,-,30.0,14.0,0.0
24/06/2009,-,30.0,14.0,0.0
25/06/2009,-,29.0,15.0,0.7
26/06/2009,-,27.0,16.0,0.0
27/06/2009,-,29.0,12.0,0.0
28/06/2009,-,31.0,15.0,1.2
29/06/2009,-,32.0,16.0,0.0
30/06/2009,-,34.0,19.0,0.0
01/07/2009,-,34.0,20.0,1.1
02/07/2009,-,29.0,20.0,0.0
03/07/2009,-,33.0,19.0,0.0
04/07/2009,-,28.0,18.0,0.0
05/07/2009,-,29.0,18.0,0.0
06/07/2009,-,24.0,17.0,0.0
07/07/2009,-,22.0,15.0,0.0
08/07/2009,-,24.0,13.0,0.0
09/07/2009,-,24.0,13.0,0.0
10/07/2009,-,27.0,13.0,0.0
11/07/2009,-,32.0,11.0,0.0
12/07/2009,-,35.0,17.0,0.0
13/07/2009,-,36.0,18.0,0.0
14/07/2009,-,30.0,17.0,0.0
15/07/2009,-,32.0,16.0,0.0
16/07/2009,-,35.0,16.0,0.0
17/07/2009,-,21.0,16.0,0.0
18/07/2009,-,28.0,13.0,0.0
19/07/2009,-,31.0,13.0,0.0
20/07/2009,-,32.0,16.0,0.0
21/07/2009,-,36.0,20.0,0.0
22/07/2009,-,35.0,20.0,0.0
23/07/2009,-,27.0,20.0,0.0
24/07/2009,-,28.0,15.0,0.0
25/07/2009,-,30.0,16.0,0.0
26/07/2009,-,35.0,16.0,0.0
27/07/2009,-,25.0,20.0,0.0
28/07/2009,-,32.0,16.0,0.0
29/07/2009,-,33.0,16.0,0.0
30/07/2009,-,28.0,18.0,0.0
31/07/2009,-,33.0,14.0,0.0
01/08/2009,-,27.0,16.0,0.5
02/08/2009,-,25.0,11.0,0.0
03/08/2009,-,28.0,15.0,0.0
04/08/2009,-,31.0,15.0,0.0
05/08/2009,-,34.0,15.0,2.0
06/08/2009,-,29.0,19.0,8.0
07/08/2009,-,23.0,18.0,0.0
08/08/2009,-,22.0,12.0,0.5
09/08/2009,-,22.0,16.0,0.0
10/08/2009,-,28.0,15.0,0.0
11/08/2009,-,30.0,16.0,0.0
12/08/2009,-,32.0,17.0,0.0
13/08/2009,-,33.0,17.0,0.0
14/08/2009,-,34.0,18.0,0.0
15/08/2009,-,37.0,20.0,0.7
16/08/2009,-,35.0,21.0,0.0
17/08/2009,-,36.0,20.0,0.0
18/08/2009,-,36.0,20.0,0.0
19/08/2009,-,36.0,20.0,0.0
20/08/2009,-,35.0,23.0,0.0
21/08/2009,-,28.0,20.0,0.0
22/08/2009,-,32.0,16.0,0.0
23/08/2009,-,35.0,16.0,0.0
24/08/2009,-,26.0,19.0,0.0
25/08/2009,-,24.0,17.0,0.0
26/08/2009,-,31.0,16.0,0.0
27/08/2009,-,32.0,16.0,0.0
28/08/2009,-,25.0,19.0,0.0
29/08/2009,-,25.0,15.0,0.0
30/08/2009,-,30.0,12.0,0.0
31/08/2009,-,31.0,15.0,1.0
01/09/2009,-,27.0,19.0,0.0
02/09/2009,-,29.0,17.0,0.0
03/09/2009,-,28.0,17.0,0.0
04/09/2009,-,22.0,16.0,0.0
05/09/2009,-,25.0,12.0,0.0
06/09/2009,-,28.0,10.0,0.0
07/09/2009,-,29.0,12.0,0.0
08/09/2009,-,30.0,15.0,0.0
09/09/2009,-,30.0,17.0,0.0
10/09/2009,-,31.0,15.0,0.0
11/09/2009,-,29.0,16.0,0.0
12/09/2009,-,27.0,15.0,0.0
13/09/2009,-,24.0,14.0,0.0
14/09/2009,-,22.0,15.0,0.0
15/09/2009,-,22.0,10.0,2.7
16/09/2009,-,18.0,11.0,0.0
17/09/2009,-,21.0,8.0,30.0
18/09/2009,-,17.0,10.0,16.0
19/09/2009,-,20.0,12.0,0.5
20/09/2009,-,18.0,12.0,0.0
21/09/2009,-,20.0,14.0,0.0
22/09/2009,-,23.0,13.0,0.0
23/09/2009,-,27.0,12.0,0.0
24/09/2009,-,26.0,13.0,0.0
25/09/2009,-,23.0,12.0,0.0
26/09/2009,-,24.0,12.0,0.0
27/09/2009,-,25.0,12.0,0.0
28/09/2009,-,24.0,13.0,0.0
29/09/2009,-,25.0,13.0,0.0
30/09/2009,-,24.0,13.0,3.5
01/10/2009,-,22.0,16.0,0.0
02/10/2009,-,21.0,14.0,0.0
03/10/2009,-,25.0,11.0,0.0
04/10/2009,-,26.0,11.0,0.0
05/10/2009,-,27.0,14.0,0.0
06/10/2009,-,28.0,16.0,0.0
07/10/2009,-,22.0,18.0,1.3
08/10/2009,-,24.0,15.0,5.0
09/10/2009,-,24.0,13.0,0.0
10/10/2009,-,23.0,13.0,0.0
11/10/2009,-,22.0,15.0,0.0
12/10/2009,-,21.0,16.0,0.0
13/10/2009,-,23.0,10.0,0.0
14/10/2009,-,23.0,8.0,0.0
15/10/2009,-,17.0,8.0,0.0
16/10/2009,-,16.0,4.0,0.0
17/10/2009,-,17.0,4.0,0.0
18/10/2009,-,16.0,5.0,0.0
19/10/2009,-,14.0,1.0,0.0
20/10/2009,-,12.0,1.0,4.5
21/10/2009,-,14.0,7.0,12.7
22/10/2009,-,15.0,7.0,8.5
23/10/2009,-,17.0,9.0,0.0
24/10/2009,-,21.0,10.0,0.0
25/10/2009,-,23.0,14.0,0.0
26/10/2009,-,24.0,14.0,0.0
27/10/2009,-,21.0,8.0,0.0
28/10/2009,-,15.0,10.0,0.0
29/10/2009,-,22.0,12.0,0.0
30/10/2009,-,25.0,10.0,0.0
31/10/2009,-,24.0,11.0,0.0
01/11/2009,-,20.0,13.0,16.0
02/11/2009,-,13.0,11.0,0.0
03/11/2009,-,17.0,11.0,3.0
04/11/2009,-,15.0,11.0,1.0
05/11/2009,-,12.0,8.0,3.5
06/11/2009,-,14.0,7.0,3.0
07/11/2009,-,9.0,8.0,4.5
08/11/2009,-,9.0,8.0,36.0
09/11/2009,-,8.0,7.0,3.0
10/11/2009,-,13.0,7.0,0.5
11/11/2009,-,16.0,8.0,0.0
12/11/2009,-,14.0,8.0,0.0
13/11/2009,-,15.0,8.0,0.0
14/11/2009,-,17.0,8.0,0.0
15/11/2009,-,17.0,10.0,0.0
16/11/2009,-,21.0,12.0,0.0
17/11/2009,-,17.0,13.0,0.0
18/11/2009,-,14.0,8.0,0.0
19/11/2009,-,15.0,7.0,0.0
20/11/2009,-,11.0,7.0,0.0
21/11/2009,-,14.0,10.0,0.0
22/11/2009,-,14.0,10.0,0.0
23/11/2009,-,14.0,9.0,0.0
24/11/2009,-,14.0,2.0,0.0
25/11/2009,-,7.0,2.0,1.0
26/11/2009,-,13.0,2.0,0.0
27/11/2009,-,12.0,6.0,0.0
28/11/2009,-,10.0,2.0,3.0
29/11/2009,-,8.0,3.0,3.5
30/11/2009,-,7.0,4.0,3.0
01/12/2009,-,8.0,3.0,0.5
02/12/2009,-,9.0,3.0,15.0
03/12/2009,-,9.0,6.0,1.0
04/12/2009,-,11.0,6.0,0.0
05/12/2009,-,12.0,6.0,0.0
06/12/2009,-,10.0,7.0,2.5
07/12/2009,-,14.0,8.0,0.0
08/12/2009,-,14.0,8.0,0.0
09/12/2009,-,14.0,5.0,0.0
10/12/2009,-,15.0,5.0,0.0
11/12/2009,-,12.0,4.0,0.0
12/12/2009,-,10.0,4.0,0.0
13/12/2009,-,5.0,4.0,0.0
14/12/2009,-,4.0,0.0,0.0
15/12/2009,-,5.0,0.0,0.0
16/12/2009,-,5.0,-1.0,15.0
17/12/2009,-,2.0,-1.0,0.0
18/12/2009,-,3.0,-5.0,0.0
19/12/2009,-,2.0,-5.0,0.0
20/12/2009,-,2.0,-5.0,0.0
21/12/2009,-,4.0,-4.0,0.0
22/12/2009,-,7.0,-1.0,4.0
23/12/2009,-,7.0,4.0,4.0
24/12/2009,-,12.0,4.0,2.5
25/12/2009,-,9.0,4.0,19.0
26/12/2009,-,8.0,5.0,4.5
27/12/2009,-,8.0,2.0,3.3
