Fecha, Temperatura media, Temperatura maxima, Temperatura minima, Precipitacion acumulada
01/01/2011,-,11.0,-1.0,1.3
02/01/2011,-,8.0,-1.0,0.0
03/01/2011,-,4.0,1.0,0.0
04/01/2011,-,6.0,-2.5,1.5
05/01/2011,-,11.0,-1.0,1.6
06/01/2011,-,15.0,4.0,0.0
07/01/2011,-,13.0,7.0,0.0
08/01/2011,-,11.0,10.0,2.6
09/01/2011,-,9.0,5.0,0.0
10/01/2011,-,10.0,-3.0,6.5
11/01/2011,-,10.0,0.0,9.8
12/01/2011,-,11.0,6.0,1.2
13/01/2011,-,12.0,2.0,0.0
14/01/2011,-,11.0,0.0,0.0
15/01/2011,-,11.0,0.0,0.0
16/01/2011,-,12.0,0.0,0.0
17/01/2011,-,11.0,-1.0,0.0
18/01/2011,-,11.0,0.0,0.0
19/01/2011,-,11.0,4.0,0.0
20/01/2011,-,11.0,-1.0,0.0
21/01/2011,-,1.0,-2.0,0.0
22/01/2011,-,3.0,-4.0,0.0
23/01/2011,-,3.0,-4.0,0.0
24/01/2011,-,4.0,-5.0,0.0
25/01/2011,-,4.0,-6.0,0.0
26/01/2011,-,7.0,-7.0,0.0
27/01/2011,-,6.0,-6.0,0.0
28/01/2011,-,3.0,-4.0,11.0
29/01/2011,-,8.0,2.0,1.5
30/01/2011,-,6.0,3.0,0.0
31/01/2011,-,6.0,-1.0,0.0
01/02/2011,-,5.0,2.0,0.0
02/02/2011,-,8.0,2.0,0.0
03/02/2011,-,10.0,3.0,0.0
04/02/2011,-,11.0,0.0,0.0
05/02/2011,-,16.0,-2.0,0.0
06/02/2011,-,16.0,-3.5,0.0
07/02/2011,-,16.0,-3.5,0.0
08/02/2011,-,15.0,-3.0,0.0
09/02/2011,-,14.0,-3.0,0.0
10/02/2011,-,13.0,-2.0,0.0
11/02/2011,-,13.0,-1.0,0.0
12/02/2011,-,10.0,-2.0,0.0
13/02/2011,-,10.0,-1.0,11.3
14/02/2011,-,10.0,2.0,1.3
15/02/2011,-,7.0,2.0,0.5
16/02/2011,-,8.0,-1.0,1.5
17/02/2011,-,10.0,1.0,0.0
18/02/2011,-,12.0,2.0,0.0
19/02/2011,-,10.0,2.0,3.1
20/02/2011,-,15.0,-1.0,6.0
21/02/2011,-,10.0,0.0,45.0
22/02/2011,-,10.0,6.0,32.0
23/02/2011,-,11.0,8.0,15.0
24/02/2011,-,15.0,7.0,0.0
25/02/2011,-,17.0,3.0,0.0
26/02/2011,-,11.0,4.0,13.0
27/02/2011,-,5.0,4.0,39.2
28/02/2011,-,5.0,0.0,2.9
01/03/2011,-,5.0,2.0,0.0
02/03/2011,-,5.0,2.0,0.6
03/03/2011,-,6.0,2.0,1.2
04/03/2011,-,10.0,-2.0,2.3
05/03/2011,-,12.0,-2.0,0.0
06/03/2011,-,15.0,-3.0,0.0
07/03/2011,-,15.0,-2.0,0.0
08/03/2011,-,13.0,0.0,0.0
09/03/2011,-,14.0,0.0,0.0
10/03/2011,-,15.0,-2.0,0.0
11/03/2011,-,17.0,-1.0,1.3
12/03/2011,-,13.0,0.0,1.2
13/03/2011,-,15.0,4.0,0.0
14/03/2011,-,17.0,5.0,3.5
15/03/2011,-,14.0,7.0,38.5
16/03/2011,-,11.0,8.0,10.3
17/03/2011,-,10.0,8.0,5.5
18/03/2011,-,13.0,5.0,0.0
19/03/2011,-,14.0,5.0,0.0
20/03/2011,-,13.0,3.0,0.0
21/03/2011,-,15.0,0.0,0.0
22/03/2011,-,12.0,1.0,4.5
23/03/2011,-,14.0,-1.0,0.0
24/03/2011,-,14.0,-1.0,1.1
25/03/2011,-,17.0,6.0,0.0
26/03/2011,-,20.0,3.0,3.6
27/03/2011,-,13.0,5.0,9.5
28/03/2011,-,15.0,6.0,1.1
29/03/2011,-,15.0,6.0,5.0
30/03/2011,-,16.0,5.0,0.0
31/03/2011,-,22.0,5.0,0.0
01/04/2011,-,25.0,5.0,0.0
02/04/2011,-,26.0,6.0,0.0
03/04/2011,-,11.0,9.0,6.0
04/04/2011,-,15.0,5.0,0.0
05/04/2011,-,26.0,3.0,0.0
06/04/2011,-,27.0,7.0,0.0
07/04/2011,-,27.0,8.0,0.0
08/04/2011,-,28.0,8.0,0.0
09/04/2011,-,27.0,7.0,0.0
10/04/2011,-,12.0,11.0,0.5
11/04/2011,-,12.0,10.0,0.0
12/04/2011,-,15.0,10.0,0.0
13/04/2011,-,19.0,1.0,0.0
14/04/2011,-,19.0,2.0,0.0
15/04/2011,-,15.0,4.0,0.0
16/04/2011,-,19.0,2.0,0.0
17/04/2011,-,19.0,4.0,0.0
18/04/2011,-,23.0,2.0,0.0
19/04/2011,-,21.0,2.0,0.0
20/04/2011,-,19.0,4.0,1.2
21/04/2011,-,20.0,9.0,7.9
22/04/2011,-,15.0,10.0,0.2
23/04/2011,-,15.0,6.0,6.9
24/04/2011,-,20.0,9.0,1.9
25/04/2011,-,15.0,10.0,1.0
26/04/2011,-,19.0,10.0,0.0
27/04/2011,-,21.0,7.0,0.0
28/04/2011,-,19.0,10.0,0.0
29/04/2011,-,22.0,4.0,0.0
30/04/2011,-,22.0,6.0,0.0
01/05/2011,-,21.0,10.0,0.5
02/05/2011,-,19.0,6.0,0.0
03/05/2011,-,15.0,6.0,0.0
04/05/2011,-,19.0,4.0,0.0
05/05/2011,-,23.0,3.0,0.0
06/05/2011,-,23.0,10.0,3.1
07/05/2011,-,19.0,10.0,18.0
08/05/2011,-,23.0,6.0,0.0
09/05/2011,-,27.0,6.0,0.0
10/05/2011,-,26.0,10.0,0.0
11/05/2011,-,26.0,10.0,0.0
12/05/2011,-,18.0,10.0,0.0
13/05/2011,-,23.0,9.0,4.5
14/05/2011,-,13.0,10.0,0.2
15/05/2011,-,15.0,6.0,0.0
16/05/2011,-,19.0,6.0,0.0
17/05/2011,-,23.0,6.0,0.0
18/05/2011,-,26.0,6.0,0.0
19/05/2011,-,22.0,9.0,1.5
20/05/2011,-,19.0,6.0,0.0
21/05/2011,-,27.0,8.0,0.0
22/05/2011,-,19.0,13.0,0.0
23/05/2011,-,26.0,6.0,0.0
24/05/2011,-,19.0,14.0,0.0
25/05/2011,-,30.0,6.0,1.3
26/05/2011,-,19.0,11.0,0.0
27/05/2011,-,15.0,10.0,0.0
28/05/2011,-,22.0,2.0,0.0
29/05/2011,-,30.0,6.0,0.0
30/05/2011,-,23.0,10.0,34.5
31/05/2011,-,15.0,13.0,1.3
01/06/2011,-,14.0,10.0,0.0
02/06/2011,-,16.0,11.0,0.0
03/06/2011,-,19.0,6.0,0.0
04/06/2011,-,19.0,10.0,0.1
05/06/2011,-,21.0,10.0,0.0
06/06/2011,-,22.0,10.0,21.3
07/06/2011,-,13.0,11.0,1.5
08/06/2011,-,15.0,10.0,0.0
09/06/2011,-,22.0,6.0,5.6
10/06/2011,-,12.0,10.0,0.0
11/06/2011,-,19.0,6.0,0.0
12/06/2011,-,26.0,8.0,0.0
13/06/2011,-,22.0,11.0,0.0
14/06/2011,-,26.0,10.0,0.0
15/06/2011,-,27.0,10.0,0.0
16/06/2011,-,17.0,14.0,0.0
17/06/2011,-,26.0,10.0,0.0
18/06/2011,-,16.0,11.0,0.0
19/06/2011,-,23.0,6.0,0.0
20/06/2011,-,30.0,10.0,0.0
21/06/2011,-,30.0,14.0,3.8
22/06/2011,-,18.0,15.0,0.0
23/06/2011,-,18.0,13.0,0.0
24/06/2011,-,19.0,6.0,0.0
25/06/2011,-,30.0,8.0,0.0
26/06/2011,-,34.0,13.0,0.0
27/06/2011,-,34.0,14.0,0.0
28/06/2011,-,18.0,14.0,0.2
29/06/2011,-,14.0,12.0,0.0
30/06/2011,-,18.0,11.0,0.0
01/07/2011,-,23.0,7.0,0.0
02/07/2011,-,30.0,7.0,0.0
03/07/2011,-,28.0,14.0,0.0
04/07/2011,-,23.0,10.0,0.0
05/07/2011,-,30.0,7.0,0.0
06/07/2011,-,21.0,11.0,0.0
07/07/2011,-,21.0,11.0,0.0
08/07/2011,-,26.0,6.0,0.0
09/07/2011,-,26.0,14.0,1.5
10/07/2011,-,23.0,17.0,0.0
11/07/2011,-,33.0,13.0,0.0
12/07/2011,-,25.0,17.0,0.9
13/07/2011,-,16.0,12.0,3.1
14/07/2011,-,20.0,13.0,0.0
15/07/2011,-,25.0,6.0,0.0
16/07/2011,-,26.0,13.0,4.2
17/07/2011,-,17.0,13.0,0.0
18/07/2011,-,23.0,10.0,6.5
19/07/2011,-,14.0,12.0,4.3
20/07/2011,-,19.0,10.0,0.0
21/07/2011,-,18.0,10.0,0.0
22/07/2011,-,17.0,12.0,0.0
23/07/2011,-,15.0,12.0,0.0
24/07/2011,-,17.0,12.0,5.5
25/07/2011,-,19.0,14.0,1.2
26/07/2011,-,19.0,15.0,0.7
27/07/2011,-,19.0,14.0,0.0
28/07/2011,-,22.0,10.0,0.0
29/07/2011,-,23.0,10.0,0.0
30/07/2011,-,22.0,10.0,0.0
31/07/2011,-,26.0,10.0,0.0
01/08/2011,-,31.0,9.0,11.8
02/08/2011,-,26.0,17.0,0.0
03/08/2011,-,23.0,16.0,0.0
04/08/2011,-,30.0,10.0,0.0
05/08/2011,-,29.0,14.0,0.0
06/08/2011,-,26.0,14.0,2.3
07/08/2011,-,26.0,13.0,0.3
08/08/2011,-,18.0,14.0,0.0
09/08/2011,-,19.0,13.0,0.0
10/08/2011,-,26.0,7.0,0.0
11/08/2011,-,30.0,8.0,0.0
12/08/2011,-,32.0,10.0,0.0
13/08/2011,-,30.0,13.0,0.0
14/08/2011,-,26.0,14.0,0.0
15/08/2011,-,25.0,15.0,0.0
16/08/2011,-,30.0,13.0,0.0
17/08/2011,-,34.0,15.0,0.0
18/08/2011,-,28.0,13.0,0.8
19/08/2011,-,34.0,13.0,0.0
20/08/2011,-,37.0,14.0,0.0
21/08/2011,-,37.0,17.0,0.0
22/08/2011,-,30.0,18.0,0.0
23/08/2011,-,26.0,14.0,0.0
24/08/2011,-,22.0,14.0,0.0
25/08/2011,-,30.0,10.0,3.9
26/08/2011,-,18.0,14.0,0.9
27/08/2011,-,19.0,10.0,0.0
28/08/2011,-,26.0,6.0,0.0
29/08/2011,-,23.0,10.0,0.0
30/08/2011,-,30.0,10.0,0.0
31/08/2011,-,26.0,10.0,1.6
01/09/2011,-,30.0,14.0,4.5
02/09/2011,-,26.0,13.0,6.3
03/09/2011,-,19.0,14.0,0.5
04/09/2011,-,21.0,14.0,0.0
05/09/2011,-,18.0,10.0,0.0
06/09/2011,-,26.0,6.0,0.0
07/09/2011,-,23.0,6.0,0.0
08/09/2011,-,27.0,10.0,0.0
09/09/2011,-,34.0,10.0,0.0
10/09/2011,-,34.0,10.0,0.0
11/09/2011,-,23.0,11.0,0.0
12/09/2011,-,27.0,10.0,0.0
13/09/2011,-,30.0,10.0,0.0
14/09/2011,-,24.0,14.0,0.0
15/09/2011,-,30.0,13.0,0.0
16/09/2011,-,29.0,14.0,3.5
17/09/2011,-,18.0,15.0,0.5
18/09/2011,-,15.0,12.0,8.8
19/09/2011,-,15.0,10.0,1.2
20/09/2011,-,23.0,10.0,0.0
21/09/2011,-,26.0,6.0,0.0
22/09/2011,-,22.0,10.0,0.0
23/09/2011,-,27.0,10.0,4.2
24/09/2011,-,21.0,13.0,0.0
25/09/2011,-,22.0,9.0,0.0
26/09/2011,-,26.0,11.0,0.0
27/09/2011,-,26.0,11.0,0.0
28/09/2011,-,27.0,10.0,0.0
29/09/2011,-,27.0,11.0,0.0
30/09/2011,-,27.0,8.0,0.0
01/10/2011,-,26.0,8.0,0.0
02/10/2011,-,26.0,6.0,0.0
03/10/2011,-,26.0,4.0,0.0
04/10/2011,-,25.0,6.0,0.0
05/10/2011,-,23.0,10.0,0.0
06/10/2011,-,18.0,6.0,1.1
07/10/2011,-,15.0,11.0,6.4
08/10/2011,-,12.0,9.0,0.5
09/10/2011,-,15.0,10.0,0.0
10/10/2011,-,26.0,8.0,0.0
11/10/2011,-,26.0,8.0,0.0
12/10/2011,-,26.0,6.0,0.0
13/10/2011,-,18.0,7.0,0.0
14/10/2011,-,23.0,7.0,0.0
15/10/2011,-,23.0,4.0,0.0
16/10/2011,-,22.0,5.0,0.0
17/10/2011,-,22.0,2.0,0.0
18/10/2011,-,22.0,2.0,0.0
19/10/2011,-,16.0,6.0,1.1
20/10/2011,-,11.0,8.0,0.0
21/10/2011,-,16.0,2.0,0.0
22/10/2011,-,19.0,2.0,0.0
23/10/2011,-,19.0,1.0,0.0
24/10/2011,-,14.0,11.0,4.3
25/10/2011,-,15.0,2.0,0.0
26/10/2011,-,15.0,2.0,1.9
27/10/2011,-,15.0,7.0,7.5
28/10/2011,-,11.0,6.0,0.3
29/10/2011,-,15.0,10.0,0.0
30/10/2011,-,19.0,6.0,0.0
31/10/2011,-,19.0,5.0,17.5
01/11/2011,-,16.0,6.0,0.0
02/11/2011,-,15.0,13.0,1.2
03/11/2011,-,15.0,14.0,17.2
04/11/2011,-,14.0,10.0,14.5
05/11/2011,-,11.0,9.0,71.5
06/11/2011,-,11.0,9.0,17.1
07/11/2011,-,11.0,10.0,1.3
08/11/2011,-,15.0,9.0,0.0
09/11/2011,-,15.0,5.0,3.1
10/11/2011,-,15.0,6.0,0.0
11/11/2011,-,19.0,10.0,0.0
12/11/2011,-,19.0,6.0,0.0
13/11/2011,-,19.0,6.0,0.0
14/11/2011,-,15.0,10.0,14.4
15/11/2011,-,14.0,8.0,0.0
16/11/2011,-,15.0,6.0,0.0
17/11/2011,-,15.0,1.0,0.0
18/11/2011,-,15.0,2.0,0.3
19/11/2011,-,15.0,5.0,0.0
20/11/2011,-,15.0,6.0,0.0
21/11/2011,-,15.0,6.0,0.0
22/11/2011,-,11.0,2.0,0.3
23/11/2011,-,13.0,3.0,0.0
24/11/2011,-,15.0,2.0,0.0
25/11/2011,-,11.0,-1.0,0.0
26/11/2011,-,13.0,2.0,0.0
27/11/2011,-,14.0,-2.0,0.0
28/11/2011,-,8.0,-3.0,0.0
29/11/2011,-,8.0,-2.0,0.0
30/11/2011,-,4.0,0.0,0.0
01/12/2011,-,8.0,2.0,7.5
02/12/2011,-,8.0,3.0,0.0
03/12/2011,-,7.0,2.0,0.4
04/12/2011,-,12.0,3.0,5.5
05/12/2011,-,10.0,7.0,2.5
06/12/2011,-,10.0,6.0,1.5
07/12/2011,-,11.0,6.0,0.0
08/12/2011,-,15.0,5.0,0.0
09/12/2011,-,10.0,0.0,0.0
10/12/2011,-,11.0,2.0,0.0
11/12/2011,-,7.0,2.0,1.8
12/12/2011,-,11.0,2.0,1.3
13/12/2011,-,11.0,3.0,0.0
14/12/2011,-,11.0,7.0,0.0
15/12/2011,-,11.0,-1.0,0.0
16/12/2011,-,8.0,2.0,21.1
17/12/2011,-,5.0,2.0,38.1
18/12/2011,-,5.0,2.0,6.1
19/12/2011,-,5.0,0.0,10.5
20/12/2011,-,7.0,1.0,9.9
21/12/2011,-,11.0,2.0,1.3
22/12/2011,-,10.0,7.0,0.0
23/12/2011,-,11.0,0.0,2.5
24/12/2011,-,8.0,3.0,0.0
25/12/2011,-,7.0,-2.0,0.0
26/12/2011,-,8.0,-5.0,0.0
27/12/2011,-,10.0,-5.0,0.0
