Fecha, Temperatura media, Temperatura maxima, Temperatura minima, Precipitacion acumulada
01/01/2018,0.8,3.2,-1.7,11.9
02/01/2018,4.2,7.2,0.7,8.0
03/01/2018,7.8,8.9,6.4,0.7
04/01/2018,6.8,8.8,5.2,0.0
05/01/2018,4.2,5.8,2.9,4.6
06/01/2018,0.6,3.1,-2.1,61.2
07/01/2018,0.5,1.6,-1.6,7.3
08/01/2018,0.2,2.3,-1.8,0.0
09/01/2018,-0.8,3.1,-3.4,5.0
10/01/2018,-0.4,1.5,-2.2,4.9
11/01/2018,-2.1,-1.0,-2.8,7.0
12/01/2018,-0.5,0.9,-1.9,0.0
13/01/2018,-0.5,1.3,-2.0,11.9
14/01/2018,-1.6,-0.3,-2.4,7.1
15/01/2018,-0.4,0.8,-1.8,0.0
16/01/2018,3.1,4.7,0.5,0.0
17/01/2018,1.0,4.6,-0.8,1.1
18/01/2018,2.8,5.4,-0.8,0.0
19/01/2018,2.3,4.0,0.2,2.0
20/01/2018,3.1,6.2,0.0,2.9
21/01/2018,5.8,6.8,5.3,0.0
22/01/2018,5.2,6.3,3.6,0.4
23/01/2018,6.6,11.9,4.9,0.1
24/01/2018,6.9,11.2,4.4,0.0
25/01/2018,2.8,5.7,-1.4,5.6
26/01/2018,-1.3,-0.1,-2.3,9.1
27/01/2018,-2.0,0.3,-3.3,0.1
28/01/2018,4.5,10.1,-0.1,0.0
29/01/2018,4.7,7.3,2.7,0.0
30/01/2018,6.4,10.5,3.5,0.0
31/01/2018,5.2,9.8,1.9,0.0
01/02/2018,-0.9,3.3,-4.0,2.5
02/02/2018,-4.4,-3.7,-5.2,0.0
03/02/2018,-2.5,-0.5,-4.3,9.2
04/02/2018,-2.1,-1.1,-2.9,3.9
05/02/2018,-2.9,-1.3,-4.0,2.9
06/02/2018,-5.8,-3.3,-7.3,0.0
07/02/2018,-6.8,-5.4,-7.8,0.0
08/02/2018,-6.2,-4.8,-7.1,0.0
09/02/2018,-4.2,-1.5,-6.7,3.2
10/02/2018,-4.1,-1.6,-5.4,0.0
11/02/2018,1.5,4.0,-1.9,4.3
12/02/2018,-3.8,-0.1,-6.5,0.0
13/02/2018,-4.0,-1.3,-6.7,4.1
14/02/2018,1.8,4.7,-1.7,16.0
15/02/2018,6.3,8.3,4.1,0.0
16/02/2018,8.0,12.9,6.2,0.0
17/02/2018,2.0,7.3,-1.4,0.5
18/02/2018,0.2,2.8,-2.4,0.0
19/02/2018,2.8,4.7,0.9,2.1
20/02/2018,1.8,3.6,-0.1,1.0
21/02/2018,-3.1,0.6,-5.6,4.0
22/02/2018,-5.4,-2.4,-7.3,0.0
23/02/2018,-5.9,-3.1,-8.5,0.0
24/02/2018,-0.8,4.5,-5.2,0.0
25/02/2018,0.7,5.7,-3.9,0.0
26/02/2018,-3.8,2.5,-9.7,0.0
27/02/2018,-6.1,0.6,-9.6,0.0
28/02/2018,-2.4,2.4,-6.5,24.7
01/03/2018,3.2,4.9,-1.1,10.0
02/03/2018,-0.3,3.3,-3.5,4.8
03/03/2018,3.3,6.9,0.1,6.3
04/03/2018,3.2,6.8,1.9,4.2
05/03/2018,1.3,5.3,-1.3,23.6
06/03/2018,-0.1,4.5,-2.5,6.4
07/03/2018,-0.9,2.3,-3.5,0.0
08/03/2018,2.4,6.7,-0.6,0.0
09/03/2018,5.7,7.8,3.7,15.1
10/03/2018,6.0,7.4,4.0,22.0
11/03/2018,2.9,5.9,1.5,0.0
12/03/2018,2.1,5.5,0.0,0.6
13/03/2018,2.0,4.4,0.2,1.8
14/03/2018,2.8,4.8,0.8,18.1
15/03/2018,2.3,6.8,0.7,2.2
16/03/2018,1.2,6.1,-0.9,1.1
17/03/2018,-1.1,1.5,-2.8,6.6
18/03/2018,-1.6,0.1,-3.0,6.8
19/03/2018,-2.7,0.5,-5.6,10.7
20/03/2018,-5.1,-3.0,-6.9,2.0
21/03/2018,-5.6,-3.6,-7.4,0.0
22/03/2018,-3.8,0.1,-6.7,0.0
23/03/2018,1.4,4.9,-3.4,11.1
24/03/2018,-0.9,1.8,-3.0,11.9
25/03/2018,-0.4,1.0,-1.8,0.4
26/03/2018,0.1,1.2,-0.9,2.8
27/03/2018,3.6,5.6,-0.5,1.2
28/03/2018,6.5,13.0,2.2,0.5
29/03/2018,4.1,9.9,0.6,0.1
30/03/2018,2.6,7.2,-1.4,1.3
31/03/2018,-1.5,-0.1,-2.5,10.8
01/04/2018,4.4,10.1,-1.8,0.0
02/04/2018,7.3,10.8,4.9,0.0
03/04/2018,7.0,11.0,3.9,0.0
04/04/2018,4.8,9.5,2.3,11.0
05/04/2018,6.5,12.2,0.7,0.1
06/04/2018,8.4,14.7,5.0,4.7
07/04/2018,4.8,7.2,1.6,48.7
08/04/2018,1.6,4.4,-0.2,21.9
09/04/2018,2.1,4.8,-0.9,4.2
10/04/2018,-0.2,0.6,-1.1,25.2
11/04/2018,0.5,2.7,-1.0,51.3
12/04/2018,2.5,6.2,-0.1,7.5
13/04/2018,3.5,6.1,2.1,10.4
14/04/2018,6.3,12.3,1.8,0.1
15/04/2018,7.4,12.5,4.0,0.0
16/04/2018,5.0,7.8,1.9,13.9
17/04/2018,11.2,17.0,5.3,0.0
18/04/2018,13.4,19.7,8.5,0.0
19/04/2018,12.5,18.0,8.7,0.0
20/04/2018,11.7,18.1,7.6,0.0
21/04/2018,12.2,18.7,7.6,0.0
22/04/2018,12.8,16.8,9.8,0.6
23/04/2018,12.7,16.1,10.6,0.0
24/04/2018,14.9,20.5,9.7,0.1
25/04/2018,11.6,17.2,4.6,0.0
26/04/2018,8.5,15.1,3.6,0.0
27/04/2018,8.8,12.9,4.0,0.1
28/04/2018,8.0,12.3,5.7,3.8
29/04/2018,3.2,6.8,0.3,12.2
30/04/2018,1.7,8.4,-0.9,1.2
01/05/2018,1.6,6.5,-1.2,0.0
02/05/2018,5.1,9.1,2.3,0.0
03/05/2018,2.4,5.5,0.3,0.6
04/05/2018,4.5,8.9,0.6,0.0
05/05/2018,9.4,15.0,4.2,0.0
06/05/2018,13.0,19.8,8.5,0.0
07/05/2018,13.1,19.5,10.3,1.6
08/05/2018,10.2,15.8,6.0,0.0
09/05/2018,7.7,12.8,4.2,0.2
10/05/2018,5.9,10.9,2.8,0.0
11/05/2018,12.1,17.7,6.2,0.6
12/05/2018,4.8,10.4,-1.6,0.6
13/05/2018,0.7,5.6,-1.9,0.0
14/05/2018,1.8,4.6,0.1,0.1
15/05/2018,3.6,6.3,1.5,0.0
16/05/2018,8.0,12.9,2.7,0.0
17/05/2018,11.4,16.9,8.2,0.0
18/05/2018,10.7,15.1,7.5,1.6
19/05/2018,11.0,15.5,8.5,0.8
20/05/2018,11.4,19.6,7.9,3.6
21/05/2018,11.1,17.4,8.2,3.9
22/05/2018,11.8,16.6,7.6,0.0
23/05/2018,12.6,17.6,8.9,0.0
24/05/2018,14.2,20.0,9.5,1.3
25/05/2018,13.7,18.3,9.6,1.4
26/05/2018,10.8,14.3,5.9,32.1
27/05/2018,12.9,18.3,9.8,0.0
28/05/2018,9.7,13.1,8.3,8.5
29/05/2018,9.8,16.1,7.6,35.5
30/05/2018,9.5,12.8,7.4,2.0
31/05/2018,11.5,16.4,7.6,1.0
01/06/2018,13.3,20.1,9.6,19.9
02/06/2018,13.7,19.4,8.9,8.7
03/06/2018,13.0,19.3,9.6,3.4
04/06/2018,11.6,16.8,9.8,0.0
05/06/2018,9.1,12.1,7.1,0.2
06/06/2018,8.3,11.0,6.3,0.0
07/06/2018,11.3,17.4,7.0,0.5
08/06/2018,12.5,15.4,9.9,18.8
09/06/2018,11.9,15.5,9.3,9.9
10/06/2018,11.1,15.4,8.6,0.1
11/06/2018,10.1,14.0,6.9,0.0
12/06/2018,8.1,9.1,7.2,7.9
13/06/2018,7.9,9.1,7.2,1.8
14/06/2018,9.4,13.6,6.5,0.0
15/06/2018,11.1,15.6,7.2,0.0
16/06/2018,10.8,14.2,6.0,0.0
17/06/2018,9.8,14.7,5.2,0.0
18/06/2018,12.2,16.6,8.5,0.0
19/06/2018,17.0,22.3,9.4,0.0
20/06/2018,20.5,26.4,15.2,0.0
21/06/2018,19.9,25.1,13.1,0.0
22/06/2018,15.8,20.5,11.9,0.0
23/06/2018,17.2,21.6,11.4,0.0
24/06/2018,17.9,24.1,13.4,0.0
25/06/2018,19.2,24.7,14.4,0.0
26/06/2018,20.5,26.1,15.1,0.0
27/06/2018,19.7,24.4,15.9,0.0
28/06/2018,16.1,20.1,13.8,0.0
29/06/2018,17.5,24.7,13.3,6.4
30/06/2018,18.7,25.5,12.9,0.8
01/07/2018,19.4,26.1,12.9,10.3
02/07/2018,17.7,23.2,13.6,0.0
03/07/2018,20.1,25.1,16.0,0.0
04/07/2018,17.6,25.3,10.2,0.1
05/07/2018,11.8,17.3,8.7,0.2
06/07/2018,14.4,20.8,8.7,0.0
07/07/2018,18.8,26.0,14.9,0.1
08/07/2018,18.7,25.0,12.9,2.6
09/07/2018,17.8,23.4,14.0,0.0
10/07/2018,16.7,22.9,12.8,0.0
11/07/2018,16.6,22.3,12.5,0.0
12/07/2018,16.5,21.7,12.7,1.2
13/07/2018,19.1,26.6,14.4,12.7
14/07/2018,20.1,26.1,13.1,0.2
15/07/2018,20.1,26.9,12.9,0.0
16/07/2018,12.4,14.2,10.2,0.1
17/07/2018,17.5,23.5,10.3,0.0
18/07/2018,18.3,25.6,13.0,5.0
19/07/2018,19.1,27.0,14.0,0.0
20/07/2018,13.6,17.6,9.7,0.0
21/07/2018,11.6,15.3,8.8,0.0
22/07/2018,14.1,20.3,9.5,0.0
23/07/2018,20.4,25.8,13.4,0.0
24/07/2018,21.3,26.7,17.1,0.0
25/07/2018,22.0,27.6,16.2,0.0
26/07/2018,22.6,30.1,17.6,0.0
27/07/2018,21.7,28.6,16.3,0.0
28/07/2018,17.7,21.7,14.1,0.1
29/07/2018,20.7,27.6,15.7,0.0
30/07/2018,23.2,28.9,19.5,0.0
31/07/2018,19.8,27.2,14.7,0.0
01/08/2018,21.6,28.5,14.6,0.0
02/08/2018,24.0,30.2,18.5,0.0
03/08/2018,23.1,30.0,17.7,0.0
04/08/2018,21.4,27.8,17.8,0.0
05/08/2018,23.2,29.4,18.0,0.0
06/08/2018,24.3,29.9,18.6,0.0
07/08/2018,19.7,30.0,12.8,1.6
08/08/2018,18.8,25.7,14.4,1.2
09/08/2018,12.2,17.5,8.2,0.0
10/08/2018,15.4,22.5,8.7,0.0
11/08/2018,20.0,26.6,14.3,0.0
12/08/2018,20.3,28.1,16.1,0.0
13/08/2018,16.1,21.1,10.5,0.0
14/08/2018,12.4,16.5,9.8,0.0
15/08/2018,18.3,25.8,10.2,0.0
16/08/2018,17.6,24.2,12.0,0.0
17/08/2018,12.0,17.3,6.8,0.0
18/08/2018,12.8,18.9,6.7,0.0
19/08/2018,17.1,22.5,13.1,0.0
20/08/2018,18.1,23.8,12.8,0.0
21/08/2018,20.9,27.0,15.9,0.0
22/08/2018,21.2,27.8,15.3,8.6
23/08/2018,17.6,22.5,11.9,0.0
24/08/2018,12.1,17.3,8.1,0.1
25/08/2018,10.1,14.9,7.0,0.0
26/08/2018,15.0,21.8,6.8,0.0
27/08/2018,21.4,27.0,15.2,0.0
28/08/2018,21.3,27.8,14.4,0.0
29/08/2018,16.2,21.2,12.1,0.0
30/08/2018,15.1,20.8,10.6,0.0
31/08/2018,13.6,18.7,9.5,0.0
01/09/2018,15.8,22.7,10.9,0.0
02/09/2018,18.7,24.1,13.6,0.0
03/09/2018,19.2,23.7,15.4,0.3
04/09/2018,17.9,24.7,12.4,0.5
05/09/2018,15.1,23.2,11.2,2.3
06/09/2018,12.0,17.1,9.4,0.0
07/09/2018,13.6,20.0,8.7,0.0
08/09/2018,16.7,23.0,11.9,8.8
09/09/2018,15.2,20.4,11.0,4.2
10/09/2018,15.7,22.1,11.4,0.0
11/09/2018,17.1,23.4,12.5,5.4
12/09/2018,15.4,20.5,12.4,0.0
13/09/2018,13.0,15.9,10.8,0.0
14/09/2018,15.5,21.1,11.4,0.0
15/09/2018,16.0,20.6,12.5,0.0
16/09/2018,18.5,23.5,13.6,0.0
17/09/2018,18.5,25.1,14.4,0.0
18/09/2018,17.8,24.2,13.6,0.0
19/09/2018,18.9,24.0,14.6,0.0
20/09/2018,20.6,25.7,16.1,0.0
21/09/2018,16.7,21.7,11.7,0.0
22/09/2018,17.4,22.4,12.8,0.0
23/09/2018,18.1,24.4,12.1,0.0
24/09/2018,10.5,14.4,5.7,0.0
25/09/2018,12.7,19.0,6.4,0.0
26/09/2018,13.5,19.8,9.8,0.0
27/09/2018,16.0,20.8,11.0,0.0
28/09/2018,16.9,23.4,13.8,0.0
29/09/2018,14.1,18.7,10.8,0.0
30/09/2018,11.9,16.4,5.9,0.0
01/10/2018,5.6,8.8,2.1,0.0
02/10/2018,7.2,12.8,2.3,0.0
03/10/2018,13.5,21.1,8.6,0.0
04/10/2018,16.0,20.6,12.1,0.0
05/10/2018,15.0,21.2,10.9,0.0
06/10/2018,12.6,21.1,4.4,0.2
07/10/2018,4.5,6.5,2.9,10.8
08/10/2018,7.4,13.2,4.8,0.6
09/10/2018,8.4,12.3,7.2,2.6
10/10/2018,9.0,10.8,7.0,3.2
11/10/2018,11.8,14.1,9.7,1.3
12/10/2018,13.8,16.4,11.7,0.0
13/10/2018,14.5,18.8,11.8,0.0
14/10/2018,9.9,12.8,5.7,33.3
15/10/2018,8.4,14.1,5.3,0.4
16/10/2018,10.5,15.9,7.6,0.0
17/10/2018,11.6,15.9,7.6,0.0
18/10/2018,10.8,16.6,8.2,0.1
19/10/2018,11.9,17.8,8.9,0.0
20/10/2018,12.9,18.1,9.8,1.5
21/10/2018,12.7,15.4,9.7,0.0
22/10/2018,8.6,12.2,4.2,0.1
23/10/2018,10.6,13.6,7.4,0.0
24/10/2018,13.0,17.2,9.1,0.0
25/10/2018,17.4,21.9,13.4,0.0
26/10/2018,11.5,17.6,4.8,0.0
27/10/2018,1.5,5.1,-1.4,0.0
28/10/2018,-2.3,-1.0,-3.3,0.0
29/10/2018,-2.1,-0.5,-3.4,10.0
30/10/2018,-0.0,2.5,-2.2,-
31/10/2018,2.5,4.0,0.6,7.1
01/11/2018,2.9,4.9,1.0,0.5
02/11/2018,3.5,6.3,1.4,9.3
03/11/2018,3.9,9.6,0.2,0.0
04/11/2018,7.4,11.6,3.7,0.0
05/11/2018,4.6,6.5,2.1,5.2
06/11/2018,2.2,3.8,0.1,8.5
07/11/2018,4.1,7.0,2.5,0.4
08/11/2018,4.2,6.2,2.7,2.4
09/11/2018,3.5,5.3,2.5,10.9
10/11/2018,5.5,7.8,2.8,2.6
11/11/2018,7.7,9.1,5.7,0.1
12/11/2018,8.7,11.7,7.5,0.0
13/11/2018,9.6,14.3,7.6,0.0
14/11/2018,8.1,9.8,7.1,0.0
15/11/2018,8.2,11.4,6.8,0.2
16/11/2018,7.9,10.4,6.2,0.0
17/11/2018,7.4,11.7,6.0,0.0
18/11/2018,3.7,6.3,2.1,8.2
19/11/2018,3.2,6.6,0.1,0.0
20/11/2018,0.8,2.5,-0.7,5.2
21/11/2018,3.2,5.9,1.9,0.6
22/11/2018,3.0,4.2,1.8,0.0
23/11/2018,2.2,4.0,0.2,7.5
24/11/2018,2.5,6.8,0.3,0.0
25/11/2018,1.3,3.8,0.3,4.5
26/11/2018,0.4,3.0,-0.9,5.3
27/11/2018,2.9,6.8,-0.3,0.0
28/11/2018,6.2,12.3,3.6,0.0
29/11/2018,6.3,11.5,3.8,4.0
30/11/2018,2.4,4.2,1.0,2.1
01/12/2018,2.8,5.4,0.7,2.2
02/12/2018,6.3,11.5,3.6,0.2
03/12/2018,7.9,10.4,6.4,0.0
04/12/2018,9.6,14.5,7.4,0.1
05/12/2018,10.6,15.5,7.2,0.0
06/12/2018,5.0,8.5,2.0,0.0
07/12/2018,4.0,7.1,1.0,0.1
08/12/2018,3.1,6.7,1.2,0.2
09/12/2018,4.2,6.5,1.4,0.0
10/12/2018,2.7,7.0,0.2,0.0
11/12/2018,6.8,9.1,4.6,0.0
12/12/2018,3.9,4.9,2.6,0.0
13/12/2018,2.1,3.6,0.7,12.7
14/12/2018,1.8,3.2,0.6,3.2
15/12/2018,4.2,6.9,0.2,0.4
16/12/2018,3.5,6.1,-0.2,12.3
17/12/2018,0.5,3.3,-0.9,0.0
18/12/2018,3.0,5.1,0.9,0.0
19/12/2018,2.5,5.9,0.8,0.0
20/12/2018,2.6,6.2,0.6,0.0
21/12/2018,4.7,8.3,2.3,0.0
22/12/2018,7.3,10.1,4.9,0.0
23/12/2018,10.1,12.7,7.0,0.0
24/12/2018,8.6,11.0,6.5,0.0
25/12/2018,9.7,13.0,6.2,0.0
26/12/2018,7.8,10.6,5.0,0.0
27/12/2018,5.8,7.7,2.9,0.0
28/12/2018,2.8,5.5,0.3,0.0
29/12/2018,4.2,9.8,0.3,0.0
30/12/2018,9.8,15.4,5.5,0.0
31/12/2018,10.0,11.9,7.8,0.0
