Fecha, Temperatura media, Temperatura maxima, Temperatura minima, Precipitacion acumulada
01/01/2016,8.3,13.3,1.7,5.6
02/01/2016,5.8,12.6,-0.9,0.0
03/01/2016,6.0,9.0,-0.3,9.3
04/01/2016,7.8,9.4,5.6,20.8
05/01/2016,5.6,10.1,1.8,0.4
06/01/2016,6.7,10.6,2.2,1.2
07/01/2016,9.6,15.2,4.1,0.0
08/01/2016,13.7,17.2,10.2,0.6
09/01/2016,11.2,15.1,6.5,0.0
10/01/2016,13.8,17.5,10.8,0.0
11/01/2016,10.1,14.8,3.0,1.4
12/01/2016,5.6,11.4,0.7,0.0
13/01/2016,3.5,8.6,-3.6,0.0
14/01/2016,7.0,9.4,5.2,2.8
15/01/2016,4.7,8.6,1.8,1.4
16/01/2016,3.3,7.3,1.0,4.6
17/01/2016,3.6,9.3,-1.2,0.0
18/01/2016,4.1,10.5,-0.7,3.4
19/01/2016,3.8,11.4,-0.8,0.0
20/01/2016,2.7,11.8,-1.9,0.2
21/01/2016,3.2,12.6,-3.5,0.2
22/01/2016,5.6,12.0,0.4,0.0
23/01/2016,7.2,14.1,2.4,0.2
24/01/2016,7.1,15.5,3.1,0.2
25/01/2016,8.7,10.8,3.5,0.2
26/01/2016,8.8,9.8,8.2,0.2
27/01/2016,8.5,9.8,7.7,0.0
28/01/2016,8.0,9.2,7.1,2.6
29/01/2016,7.3,10.7,0.6,0.2
30/01/2016,3.8,7.7,0.8,0.4
31/01/2016,8.3,13.7,1.8,0.0
01/02/2016,11.2,15.7,6.3,0.0
02/02/2016,8.1,14.0,2.3,0.0
03/02/2016,8.1,12.1,3.6,0.2
04/02/2016,5.4,11.9,-1.3,0.0
05/02/2016,3.6,13.3,-4.0,0.2
06/02/2016,6.2,13.9,-3.6,2.4
07/02/2016,6.8,11.8,1.0,1.0
08/02/2016,8.5,16.9,0.2,0.0
09/02/2016,11.6,16.1,6.6,1.0
10/02/2016,7.3,10.1,5.7,7.7
11/02/2016,7.6,11.1,5.2,2.6
12/02/2016,9.4,12.5,5.9,13.1
13/02/2016,12.3,20.5,8.4,12.3
14/02/2016,7.4,12.8,3.8,1.0
15/02/2016,4.3,7.8,2.2,0.4
16/02/2016,3.1,6.1,-0.1,0.0
17/02/2016,2.6,8.0,-3.0,0.0
18/02/2016,4.1,9.9,0.2,1.2
19/02/2016,3.8,11.2,-1.9,0.0
20/02/2016,4.0,14.3,-4.0,0.2
21/02/2016,5.9,16.9,-2.9,0.0
22/02/2016,6.9,15.2,-0.5,0.0
23/02/2016,8.8,15.2,3.8,0.0
24/02/2016,6.9,15.3,-0.2,0.2
25/02/2016,9.1,14.2,5.8,0.0
26/02/2016,8.5,14.1,4.9,7.3
27/02/2016,3.9,6.9,1.4,18.2
28/02/2016,7.0,11.1,4.5,0.0
29/02/2016,6.3,9.5,3.7,0.2
01/03/2016,6.8,13.0,2.0,0.0
02/03/2016,7.8,15.1,0.6,0.0
03/03/2016,7.6,12.0,2.4,0.0
04/03/2016,6.7,17.0,-0.6,3.2
05/03/2016,5.9,10.6,1.6,0.0
06/03/2016,5.4,10.3,2.6,0.4
07/03/2016,5.7,10.4,2.8,2.8
08/03/2016,5.7,9.5,1.6,0.0
09/03/2016,5.0,10.4,2.2,13.7
10/03/2016,5.0,9.2,1.2,8.3
11/03/2016,6.2,10.2,2.5,0.2
12/03/2016,6.4,10.8,3.0,0.0
13/03/2016,6.6,12.5,1.1,0.0
14/03/2016,2.8,6.0,-0.9,0.0
15/03/2016,6.0,12.8,1.2,0.0
16/03/2016,6.5,10.3,1.6,0.0
17/03/2016,6.5,13.1,1.2,0.0
18/03/2016,6.8,12.7,0.3,2.2
19/03/2016,8.7,10.0,7.5,11.3
20/03/2016,8.9,14.9,2.7,0.6
21/03/2016,8.1,17.1,-0.7,0.2
22/03/2016,8.3,13.1,4.5,0.0
23/03/2016,8.2,12.9,2.4,0.2
24/03/2016,9.7,15.7,4.4,0.0
25/03/2016,8.5,14.1,0.6,0.0
26/03/2016,14.0,22.7,4.6,0.0
27/03/2016,10.6,16.0,4.5,1.6
28/03/2016,12.7,19.0,7.5,0.0
29/03/2016,13.7,19.8,9.0,0.0
30/03/2016,15.9,23.5,9.7,0.0
31/03/2016,9.0,13.7,4.1,1.8
01/04/2016,7.5,12.9,1.7,0.2
02/04/2016,9.1,18.4,-2.5,0.0
03/04/2016,12.6,18.4,8.8,1.4
04/04/2016,9.4,12.4,6.1,7.3
05/04/2016,10.3,14.4,6.7,1.6
06/04/2016,10.0,15.3,4.7,0.0
07/04/2016,9.5,13.9,4.7,0.0
08/04/2016,6.8,12.1,2.2,0.6
09/04/2016,10.1,17.1,3.1,0.0
10/04/2016,13.2,20.0,5.9,2.4
11/04/2016,11.1,19.4,5.2,0.0
12/04/2016,11.3,17.6,6.1,2.6
13/04/2016,12.0,18.6,6.4,0.0
14/04/2016,14.6,22.6,7.8,0.2
15/04/2016,16.7,24.7,8.7,0.0
16/04/2016,12.9,20.4,8.7,3.8
17/04/2016,12.6,19.6,7.4,1.4
18/04/2016,11.8,20.7,3.0,0.2
19/04/2016,13.6,18.0,7.2,0.0
20/04/2016,11.6,14.3,9.3,8.5
21/04/2016,13.5,19.1,7.7,4.0
22/04/2016,10.9,16.5,6.2,0.4
23/04/2016,12.1,18.9,6.6,0.0
24/04/2016,10.2,14.4,4.9,0.0
25/04/2016,9.8,15.4,4.0,0.0
26/04/2016,10.5,18.8,2.5,0.0
27/04/2016,11.5,16.2,8.4,0.2
28/04/2016,10.6,16.5,5.2,0.0
29/04/2016,11.2,19.2,1.0,0.0
30/04/2016,9.7,14.1,4.6,1.0
01/05/2016,8.7,14.4,3.7,0.6
02/05/2016,11.8,19.6,4.8,0.0
03/05/2016,13.1,20.0,6.5,0.0
04/05/2016,14.9,26.1,2.7,0.0
05/05/2016,17.4,25.9,7.8,3.0
06/05/2016,15.6,20.9,13.0,0.0
07/05/2016,14.7,20.8,11.7,4.8
08/05/2016,13.9,19.1,11.6,23.6
09/05/2016,14.4,19.6,10.5,10.9
10/05/2016,13.9,19.0,8.7,2.4
11/05/2016,14.6,19.8,10.2,0.2
12/05/2016,12.5,19.2,8.0,5.2
13/05/2016,12.2,16.4,6.9,0.2
14/05/2016,14.3,19.0,10.6,0.2
15/05/2016,14.2,17.8,9.5,0.0
16/05/2016,13.7,18.9,7.7,0.0
17/05/2016,15.3,22.8,7.8,0.0
18/05/2016,15.8,24.3,7.8,0.2
19/05/2016,14.7,20.0,9.5,0.0
20/05/2016,17.9,27.3,9.8,0.0
21/05/2016,21.2,29.6,12.7,0.0
22/05/2016,14.1,19.7,7.4,9.3
23/05/2016,12.4,18.7,4.5,0.0
24/05/2016,16.8,25.2,7.8,0.0
25/05/2016,19.8,26.5,13.9,0.0
26/05/2016,19.8,27.5,14.4,0.2
27/05/2016,20.7,30.2,10.5,0.0
28/05/2016,17.8,27.5,11.5,0.2
29/05/2016,16.2,23.1,10.9,3.2
30/05/2016,15.5,21.0,11.5,0.2
31/05/2016,15.6,21.4,9.6,0.0
01/06/2016,15.7,23.5,8.4,0.0
02/06/2016,18.2,25.9,10.8,0.0
03/06/2016,20.1,29.5,10.2,0.0
04/06/2016,20.6,27.7,14.5,0.0
05/06/2016,20.7,30.2,10.6,0.0
06/06/2016,22.2,30.7,14.2,0.0
07/06/2016,23.3,32.9,14.7,0.0
08/06/2016,24.4,33.9,14.5,0.0
09/06/2016,24.2,32.7,16.3,0.0
10/06/2016,20.1,25.5,15.8,0.0
11/06/2016,18.6,25.5,12.5,0.0
12/06/2016,19.8,28.1,11.5,0.0
13/06/2016,20.4,26.9,16.2,0.8
14/06/2016,19.4,26.7,14.3,0.0
15/06/2016,17.0,24.1,11.2,0.6
16/06/2016,15.1,21.6,11.4,0.6
17/06/2016,14.8,22.4,9.1,2.2
18/06/2016,14.2,18.9,8.6,0.0
19/06/2016,15.7,21.3,10.1,0.0
20/06/2016,20.7,29.2,11.5,2.0
21/06/2016,24.7,34.8,12.5,0.0
22/06/2016,27.6,35.5,19.2,0.0
23/06/2016,27.1,35.9,19.7,0.0
24/06/2016,21.5,30.9,17.3,3.6
25/06/2016,18.1,22.0,14.9,0.0
26/06/2016,17.6,23.0,13.3,0.0
27/06/2016,19.5,28.8,11.1,0.0
28/06/2016,22.2,34.4,11.6,0.0
29/06/2016,20.6,28.3,14.9,1.4
30/06/2016,22.7,31.8,14.3,0.0
01/07/2016,23.2,33.4,16.3,0.0
02/07/2016,20.0,25.2,15.6,0.0
03/07/2016,21.4,30.4,12.9,0.0
04/07/2016,23.7,34.7,13.6,20.6
05/07/2016,21.7,27.1,17.7,0.2
06/07/2016,24.3,34.5,16.6,0.0
07/07/2016,25.1,32.3,18.5,2.4
08/07/2016,24.7,33.7,18.4,3.8
09/07/2016,25.4,35.9,15.8,0.0
10/07/2016,26.7,37.1,19.0,0.0
11/07/2016,22.0,29.6,17.6,0.2
12/07/2016,19.1,22.8,14.9,0.0
13/07/2016,17.3,21.8,13.5,0.0
14/07/2016,16.4,21.4,11.7,0.0
15/07/2016,18.6,26.7,9.8,0.0
16/07/2016,21.5,32.8,10.6,0.0
17/07/2016,24.8,35.6,12.5,0.0
18/07/2016,27.2,36.2,17.6,0.0
19/07/2016,28.0,38.1,17.0,0.0
20/07/2016,24.4,31.6,18.4,0.0
21/07/2016,21.9,30.3,15.4,0.0
22/07/2016,20.1,24.8,16.7,0.8
23/07/2016,20.2,25.3,15.1,0.0
24/07/2016,20.6,27.6,14.5,0.0
25/07/2016,22.2,30.4,14.1,0.0
26/07/2016,23.1,30.9,15.8,0.0
27/07/2016,21.1,26.5,15.6,0.0
28/07/2016,22.1,31.8,14.4,0.0
29/07/2016,23.5,34.5,14.7,0.0
30/07/2016,25.8,38.5,16.8,0.0
31/07/2016,20.9,25.7,16.6,0.0
01/08/2016,20.1,26.9,13.7,0.0
02/08/2016,21.9,33.4,12.7,0.0
03/08/2016,24.4,35.8,14.0,0.0
04/08/2016,23.0,30.6,16.7,0.0
05/08/2016,20.4,25.1,16.0,0.0
06/08/2016,20.9,27.7,15.9,0.0
07/08/2016,23.4,32.8,14.5,0.0
08/08/2016,22.6,31.9,13.3,0.0
09/08/2016,19.9,25.4,15.1,0.0
10/08/2016,17.9,23.7,12.6,0.0
11/08/2016,17.6,23.3,11.8,0.0
12/08/2016,19.8,32.2,9.5,0.0
13/08/2016,23.9,34.5,12.3,0.0
14/08/2016,25.3,34.9,13.9,0.0
15/08/2016,23.4,34.8,15.6,1.6
16/08/2016,23.3,32.8,14.3,0.2
17/08/2016,23.7,32.2,16.2,0.0
18/08/2016,22.5,30.2,16.0,0.0
19/08/2016,23.2,34.4,13.1,0.0
20/08/2016,20.1,24.2,14.1,0.0
21/08/2016,18.7,25.2,12.3,0.0
22/08/2016,21.2,33.8,11.1,0.0
23/08/2016,25.2,36.3,14.3,0.0
24/08/2016,25.3,35.2,14.6,0.0
25/08/2016,24.5,35.4,12.7,0.0
26/08/2016,24.0,34.3,14.1,0.0
27/08/2016,24.7,34.6,15.6,0.0
28/08/2016,22.4,31.9,16.6,0.0
29/08/2016,20.0,25.1,15.4,0.0
30/08/2016,20.6,29.6,14.2,0.0
31/08/2016,20.9,30.0,13.4,0.0
01/09/2016,22.8,33.0,14.1,0.0
02/09/2016,24.1,35.8,15.8,0.0
03/09/2016,24.2,35.6,15.7,0.0
04/09/2016,25.5,36.6,16.0,0.0
05/09/2016,24.0,31.5,16.3,0.0
06/09/2016,24.8,35.6,14.5,0.0
07/09/2016,24.1,33.7,13.8,0.0
08/09/2016,21.4,27.1,17.2,0.0
09/09/2016,20.3,27.5,15.7,0.0
10/09/2016,20.5,29.7,12.7,0.0
11/09/2016,22.1,32.3,13.0,0.0
12/09/2016,25.9,33.5,18.0,0.0
13/09/2016,20.5,28.5,13.2,3.8
14/09/2016,14.2,21.7,9.0,1.8
15/09/2016,15.2,22.1,9.7,3.2
16/09/2016,16.3,22.3,12.7,3.0
17/09/2016,14.3,17.2,11.9,0.6
18/09/2016,15.6,20.6,11.7,0.0
19/09/2016,16.4,21.8,10.8,0.0
20/09/2016,16.7,23.5,11.5,0.0
21/09/2016,16.1,27.7,7.6,0.0
22/09/2016,17.3,28.2,7.9,0.2
23/09/2016,19.8,27.4,13.5,0.0
24/09/2016,19.0,27.4,9.6,0.0
25/09/2016,18.2,24.4,12.3,0.0
26/09/2016,18.0,26.2,11.5,0.0
27/09/2016,17.5,23.6,10.4,0.0
28/09/2016,18.5,27.1,11.1,0.0
29/09/2016,17.3,27.9,8.2,0.0
30/09/2016,20.2,28.3,12.3,0.0
01/10/2016,19.0,26.0,13.7,0.0
02/10/2016,17.2,26.0,10.6,0.0
03/10/2016,19.4,27.6,10.6,0.0
04/10/2016,20.3,28.7,13.9,0.0
05/10/2016,17.7,26.1,11.5,0.0
06/10/2016,16.4,23.7,8.2,0.0
07/10/2016,14.4,24.2,6.0,0.2
08/10/2016,14.6,21.4,9.0,0.0
09/10/2016,13.3,20.2,7.4,0.0
10/10/2016,12.1,20.4,5.5,0.0
11/10/2016,11.8,21.0,2.1,0.0
12/10/2016,14.4,17.6,12.5,6.5
13/10/2016,14.1,17.2,12.3,1.6
14/10/2016,12.7,17.6,6.9,1.4
15/10/2016,12.6,21.6,2.7,0.2
16/10/2016,16.6,21.8,10.8,0.0
17/10/2016,16.9,21.3,13.7,0.0
18/10/2016,15.9,21.4,11.4,0.0
19/10/2016,13.2,20.1,8.1,0.0
20/10/2016,10.8,16.7,5.2,0.0
21/10/2016,9.8,18.3,1.9,0.0
22/10/2016,14.0,18.2,10.6,0.0
23/10/2016,16.6,20.5,13.7,3.2
24/10/2016,14.3,17.6,11.1,0.2
25/10/2016,15.7,22.6,10.8,0.2
26/10/2016,16.5,24.5,10.9,0.0
27/10/2016,14.9,24.6,5.3,0.0
28/10/2016,10.5,20.6,3.2,0.0
29/10/2016,10.2,22.7,4.7,0.0
30/10/2016,9.3,20.6,3.0,0.0
31/10/2016,8.5,12.4,3.7,0.0
01/11/2016,10.6,16.3,5.1,0.0
02/11/2016,9.6,20.6,5.1,0.0
03/11/2016,8.5,19.3,2.1,0.2
04/11/2016,9.1,14.3,2.8,0.0
05/11/2016,10.6,12.9,7.8,9.4
06/11/2016,7.6,12.5,3.6,0.0
07/11/2016,5.8,11.0,2.0,0.0
08/11/2016,6.1,10.9,2.0,0.0
09/11/2016,8.7,14.0,4.7,0.0
10/11/2016,8.9,15.4,3.2,0.0
11/11/2016,10.4,16.0,5.2,0.0
12/11/2016,9.8,15.6,4.3,0.0
13/11/2016,12.1,16.1,9.6,0.0
14/11/2016,10.5,13.1,8.4,0.0
15/11/2016,9.5,14.9,4.7,0.0
16/11/2016,7.9,17.9,-0.9,5.7
17/11/2016,9.4,21.3,1.0,0.0
18/11/2016,8.2,13.7,4.0,0.0
19/11/2016,9.2,14.1,2.0,0.2
20/11/2016,10.5,12.1,9.7,1.0
21/11/2016,11.8,16.4,8.4,1.4
22/11/2016,7.7,9.4,5.4,0.2
23/11/2016,4.9,7.1,3.3,36.0
24/11/2016,5.8,11.0,0.9,0.0
25/11/2016,3.0,10.0,-2.3,9.3
26/11/2016,5.2,6.7,2.6,0.4
27/11/2016,7.7,12.5,3.6,0.0
28/11/2016,6.1,13.2,0.1,0.0
29/11/2016,6.7,12.1,0.2,0.2
30/11/2016,9.2,12.7,2.7,0.0
01/12/2016,5.3,13.4,-0.4,0.0
02/12/2016,3.6,9.0,-0.7,0.0
03/12/2016,4.8,7.0,3.6,0.0
04/12/2016,8.9,11.6,6.0,0.0
05/12/2016,9.9,16.5,3.0,0.2
06/12/2016,5.9,15.1,1.2,0.0
07/12/2016,5.9,10.0,0.3,0.0
08/12/2016,7.2,9.0,5.9,0.0
09/12/2016,5.4,6.6,3.8,0.0
10/12/2016,5.1,5.7,4.4,0.0
11/12/2016,4.9,9.5,2.8,0.0
12/12/2016,3.7,10.6,0.4,0.2
13/12/2016,3.7,4.7,2.8,0.0
14/12/2016,4.4,6.5,3.4,0.0
15/12/2016,6.1,9.0,4.4,0.2
16/12/2016,7.0,9.8,4.5,0.0
17/12/2016,6.3,12.7,1.3,0.0
18/12/2016,2.4,9.9,-1.1,0.0
19/12/2016,3.4,11.2,-2.6,37.0
20/12/2016,6.8,9.3,4.0,0.0
21/12/2016,7.7,11.2,3.9,0.0
22/12/2016,5.8,9.4,1.4,1.4
23/12/2016,10.3,15.6,5.7,0.0
24/12/2016,11.8,14.9,-,0.0
25/12/2016,7.0,14.4,0.8,0.2
26/12/2016,4.9,12.7,0.2,0.2
27/12/2016,1.7,5.9,-2.1,0.0
28/12/2016,2.2,3.4,1.2,0.2
29/12/2016,0.3,3.4,-1.5,0.0
30/12/2016,-0.5,0.3,-1.5,0.0
31/12/2016,0.9,1.9,-0.1,0.2
