Fecha, Temperatura media, Temperatura maxima, Temperatura minima, Precipitacion acumulada
01/01/2017,1.2,1.8,0.4,0.6
02/01/2017,0.4,2.5,-2.5,0.0
03/01/2017,0.4,8.8,-3.0,0.0
04/01/2017,5.5,13.0,-0.7,0.0
05/01/2017,4.3,9.0,0.2,0.2
06/01/2017,1.8,11.4,-4.9,0.0
07/01/2017,0.5,12.4,-6.8,0.0
08/01/2017,4.4,12.7,-6.7,0.0
09/01/2017,7.4,11.4,5.0,0.0
10/01/2017,7.9,10.9,5.5,0.8
11/01/2017,10.7,15.4,6.9,0.4
12/01/2017,8.2,13.3,1.6,0.0
13/01/2017,5.5,9.4,2.6,0.0
14/01/2017,3.4,6.5,1.2,0.0
15/01/2017,5.5,7.8,2.2,0.0
16/01/2017,8.5,10.9,6.3,0.0
17/01/2017,2.2,7.5,-2.6,0.0
18/01/2017,-2.0,0.9,-5.7,0.0
19/01/2017,-2.4,6.0,-8.3,1.0
20/01/2017,-2.0,4.9,-6.3,0.6
21/01/2017,1.3,11.4,-6.4,0.0
22/01/2017,5.2,9.3,-0.5,0.0
23/01/2017,5.6,10.9,1.6,0.0
24/01/2017,5.5,11.2,0.2,0.0
25/01/2017,2.2,8.7,-5.9,0.0
26/01/2017,1.1,8.0,-7.7,0.0
27/01/2017,7.3,10.8,5.4,5.0
28/01/2017,6.2,11.8,-1.1,0.2
29/01/2017,5.4,12.5,-1.5,0.0
30/01/2017,9.1,15.1,4.3,0.0
31/01/2017,10.0,16.2,4.8,0.0
01/02/2017,10.5,17.1,3.9,0.0
02/02/2017,8.1,11.9,3.3,0.2
03/02/2017,8.9,14.2,3.1,3.4
04/02/2017,11.5,15.4,9.4,0.4
05/02/2017,8.2,13.7,4.7,0.2
06/02/2017,8.1,12.5,4.7,0.0
07/02/2017,8.9,12.7,4.4,0.0
08/02/2017,5.3,8.2,-,0.0
09/02/2017,5.5,11.2,0.8,0.0
10/02/2017,5.7,11.2,-0.3,0.0
11/02/2017,5.4,9.2,0.6,0.0
12/02/2017,10.7,13.1,7.4,0.2
13/02/2017,9.9,11.4,4.7,12.9
14/02/2017,7.7,14.1,1.8,0.0
15/02/2017,8.7,15.7,3.9,0.0
16/02/2017,7.6,15.7,1.6,0.0
17/02/2017,7.3,15.9,-0.5,0.0
18/02/2017,5.0,13.7,0.1,0.0
19/02/2017,6.7,15.1,-0.3,0.2
20/02/2017,8.7,15.1,2.8,0.6
21/02/2017,7.0,16.5,-1.0,0.0
22/02/2017,7.0,17.3,-1.5,0.2
23/02/2017,7.4,12.8,2.0,0.0
24/02/2017,8.4,11.9,4.7,0.0
25/02/2017,9.0,19.7,1.2,0.0
26/02/2017,10.9,17.3,-,0.0
27/02/2017,9.1,18.6,1.4,0.0
28/02/2017,7.5,15.2,1.9,2.0
01/03/2017,7.6,17.0,-0.2,0.2
02/03/2017,9.6,18.1,1.0,0.0
03/03/2017,10.8,15.6,5.8,26.3
04/03/2017,6.5,11.4,2.6,1.4
05/03/2017,8.2,12.9,4.0,0.2
06/03/2017,11.0,18.9,5.8,0.4
07/03/2017,11.7,17.4,6.9,0.0
08/03/2017,13.5,20.7,6.1,0.0
09/03/2017,16.2,23.7,-,0.0
10/03/2017,12.8,26.9,2.3,0.2
11/03/2017,13.2,25.3,2.9,0.0
12/03/2017,10.8,16.3,7.3,1.2
13/03/2017,10.1,13.7,7.5,0.0
14/03/2017,11.6,19.0,5.0,0.0
15/03/2017,10.6,20.2,1.8,0.0
16/03/2017,11.1,21.0,2.0,0.0
17/03/2017,11.3,23.1,0.2,0.0
18/03/2017,11.9,20.0,5.7,0.0
19/03/2017,12.9,23.3,3.9,0.0
20/03/2017,12.3,22.3,4.7,0.0
21/03/2017,9.6,14.7,3.9,0.0
22/03/2017,6.4,14.6,0.8,6.9
23/03/2017,6.1,11.3,0.4,0.4
24/03/2017,9.9,12.6,-,0.0
25/03/2017,4.7,8.4,2.3,34.5
26/03/2017,10.6,16.3,5.7,0.0
27/03/2017,10.1,14.2,7.8,1.2
28/03/2017,11.3,19.0,4.6,0.2
29/03/2017,11.5,22.0,2.1,0.0
30/03/2017,13.7,21.1,3.9,0.2
31/03/2017,13.2,19.2,6.9,3.6
01/04/2017,10.4,15.3,7.1,1.2
02/04/2017,9.7,14.5,5.3,0.0
03/04/2017,11.2,19.7,3.0,0.0
04/04/2017,12.3,16.9,7.9,0.0
05/04/2017,13.4,17.0,-,0.0
06/04/2017,12.9,18.5,8.6,0.0
07/04/2017,12.3,21.2,2.6,0.0
08/04/2017,14.3,24.3,3.1,0.0
09/04/2017,14.8,24.2,5.1,0.0
10/04/2017,15.4,27.3,4.1,0.0
11/04/2017,14.7,21.9,8.4,0.0
12/04/2017,15.0,24.3,4.5,0.0
13/04/2017,15.7,27.2,4.4,0.0
14/04/2017,14.7,25.2,4.1,0.0
15/04/2017,13.4,18.6,8.0,0.0
16/04/2017,14.2,22.4,7.6,0.0
17/04/2017,14.6,25.6,3.3,0.0
18/04/2017,14.5,21.0,8.8,0.0
19/04/2017,12.1,19.0,4.6,0.0
20/04/2017,11.4,20.6,1.6,0.0
21/04/2017,12.4,20.4,3.8,0.0
22/04/2017,12.9,23.3,2.0,0.0
23/04/2017,14.2,26.7,2.5,0.0
24/04/2017,16.3,26.5,4.2,0.0
25/04/2017,14.5,20.6,9.4,12.7
26/04/2017,8.9,12.4,5.8,0.0
27/04/2017,8.2,13.5,2.9,0.0
28/04/2017,9.2,17.8,1.0,0.0
29/04/2017,10.1,15.8,0.9,0.4
30/04/2017,10.6,17.7,4.9,4.0
01/05/2017,9.8,17.8,0.6,0.2
02/05/2017,13.7,20.2,8.9,0.0
03/05/2017,14.6,23.2,7.0,0.0
04/05/2017,17.1,24.5,10.0,0.0
05/05/2017,17.3,25.1,11.9,9.1
06/05/2017,14.9,21.9,8.2,0.4
07/05/2017,15.1,23.4,5.8,0.2
08/05/2017,16.2,24.3,8.8,0.0
09/05/2017,16.2,25.1,7.3,0.4
10/05/2017,17.5,25.4,11.8,1.6
11/05/2017,15.2,21.8,11.0,8.3
12/05/2017,15.2,21.6,10.8,1.0
13/05/2017,16.5,23.6,8.7,0.0
14/05/2017,18.1,26.3,8.9,0.2
15/05/2017,19.2,28.5,9.2,0.0
16/05/2017,21.5,30.4,13.0,0.0
17/05/2017,20.6,27.2,14.8,0.2
18/05/2017,10.4,13.0,-,11.6
19/05/2017,12.5,18.7,6.8,0.0
20/05/2017,14.2,22.5,4.5,0.0
21/05/2017,17.9,26.2,8.8,0.2
22/05/2017,20.7,29.8,12.1,0.0
23/05/2017,20.4,31.0,11.7,0.0
24/05/2017,22.0,32.1,11.0,0.0
25/05/2017,24.6,34.6,13.7,0.0
26/05/2017,23.8,33.6,13.3,3.0
27/05/2017,23.7,31.8,15.3,0.0
28/05/2017,23.7,30.2,18.1,0.0
29/05/2017,18.0,23.2,14.3,14.9
30/05/2017,18.7,25.0,12.5,0.2
31/05/2017,20.4,29.1,12.7,0.0
01/06/2017,22.3,31.9,12.9,0.0
02/06/2017,20.5,29.3,15.8,2.2
03/06/2017,17.5,23.1,12.9,5.0
04/06/2017,13.3,16.3,11.0,12.5
05/06/2017,17.2,25.1,11.6,0.0
06/06/2017,16.2,20.4,11.0,0.2
07/06/2017,18.3,28.8,8.5,0.0
08/06/2017,21.1,31.8,11.7,11.1
09/06/2017,22.6,31.3,15.4,0.0
10/06/2017,24.4,34.2,14.6,0.2
11/06/2017,25.4,36.7,16.4,0.0
12/06/2017,25.1,35.7,16.6,0.0
13/06/2017,26.6,36.5,16.0,0.0
14/06/2017,28.1,38.0,17.6,0.0
15/06/2017,23.6,31.7,18.2,0.0
16/06/2017,23.4,32.1,16.7,0.0
17/06/2017,25.6,35.0,15.6,0.0
18/06/2017,27.6,37.6,14.9,0.0
19/06/2017,28.1,36.2,19.0,3.6
20/06/2017,24.8,34.0,17.8,0.2
21/06/2017,27.0,37.1,17.0,0.0
22/06/2017,27.8,38.2,17.6,0.0
23/06/2017,24.1,34.7,17.9,0.0
24/06/2017,21.9,28.3,16.5,0.2
25/06/2017,23.2,31.9,17.1,6.5
26/06/2017,21.8,27.9,17.9,5.2
27/06/2017,20.5,31.3,15.6,3.0
28/06/2017,19.0,26.8,14.9,6.1
29/06/2017,17.0,22.8,12.1,0.2
30/06/2017,14.3,19.8,9.0,0.4
01/07/2017,14.8,18.9,10.0,0.0
02/07/2017,17.2,23.1,10.7,0.0
03/07/2017,21.4,29.9,12.9,0.0
04/07/2017,25.2,35.2,12.0,0.0
05/07/2017,27.2,35.4,16.5,0.0
06/07/2017,24.9,32.3,18.6,0.0
07/07/2017,24.2,34.3,14.9,0.0
08/07/2017,22.2,32.5,15.8,10.9
09/07/2017,22.9,31.0,16.4,1.8
10/07/2017,20.1,25.5,15.8,13.7
11/07/2017,23.2,33.2,14.6,0.0
12/07/2017,23.7,31.3,15.5,0.0
13/07/2017,22.4,30.0,15.7,0.0
14/07/2017,20.3,26.3,15.8,0.0
15/07/2017,21.6,29.3,14.1,0.0
16/07/2017,24.7,37.0,13.9,0.0
17/07/2017,28.2,35.6,21.1,0.2
18/07/2017,27.4,34.8,21.3,0.4
19/07/2017,25.6,34.7,18.8,0.0
20/07/2017,20.7,26.5,16.3,0.0
21/07/2017,21.6,29.4,15.6,0.0
22/07/2017,22.0,32.1,15.5,0.0
23/07/2017,21.1,28.9,14.8,0.0
24/07/2017,20.4,25.5,16.4,0.0
25/07/2017,18.5,23.1,14.4,0.0
26/07/2017,20.8,29.0,12.5,0.0
27/07/2017,23.8,33.8,13.4,0.0
28/07/2017,25.0,34.6,17.4,0.0
29/07/2017,26.2,37.1,15.4,0.0
30/07/2017,25.0,35.8,18.1,0.0
31/07/2017,23.0,33.6,16.0,0.0
01/08/2017,22.4,31.6,17.1,0.0
02/08/2017,26.3,36.2,16.0,0.0
03/08/2017,26.8,37.3,17.8,0.0
04/08/2017,26.5,35.2,18.4,0.0
05/08/2017,22.5,28.9,17.0,2.4
06/08/2017,20.5,27.0,15.4,0.0
07/08/2017,23.6,34.7,17.2,0.0
08/08/2017,18.9,23.9,13.7,0.0
09/08/2017,16.0,21.7,11.1,0.0
10/08/2017,15.6,21.1,11.3,0.0
11/08/2017,17.0,23.9,10.9,0.0
12/08/2017,19.9,30.1,10.4,0.0
13/08/2017,22.2,33.4,12.2,0.0
14/08/2017,25.4,35.0,17.2,1.4
15/08/2017,23.6,33.6,17.2,0.0
16/08/2017,22.1,31.4,16.4,0.0
17/08/2017,23.6,35.5,13.0,0.0
18/08/2017,21.7,28.6,16.4,0.0
19/08/2017,20.3,27.5,14.6,0.0
20/08/2017,20.0,28.2,13.2,0.0
21/08/2017,23.2,35.2,10.8,0.0
22/08/2017,26.9,37.3,17.6,0.0
23/08/2017,24.1,33.7,17.5,15.5
24/08/2017,24.6,32.4,16.8,0.0
25/08/2017,25.5,33.8,15.9,0.0
26/08/2017,26.2,33.0,20.3,0.0
27/08/2017,20.8,28.1,16.9,4.8
28/08/2017,19.6,29.1,14.5,17.4
29/08/2017,19.1,26.9,15.1,4.6
30/08/2017,19.7,27.1,14.7,7.7
31/08/2017,17.6,22.9,12.9,0.8
01/09/2017,16.3,22.8,10.9,0.0
02/09/2017,16.2,22.6,10.6,0.0
03/09/2017,18.1,26.4,10.8,0.0
04/09/2017,20.7,28.1,13.9,0.2
05/09/2017,21.4,31.0,13.2,0.0
06/09/2017,19.3,25.1,15.1,0.0
07/09/2017,18.6,22.6,-,0.0
08/09/2017,17.0,27.3,8.9,0.0
09/09/2017,15.6,20.4,11.2,1.6
10/09/2017,16.0,20.9,11.0,0.0
11/09/2017,17.7,24.0,13.5,0.0
12/09/2017,17.4,24.0,12.1,0.0
13/09/2017,19.1,29.6,9.8,0.0
14/09/2017,15.1,19.0,11.5,0.2
15/09/2017,13.6,18.9,7.6,14.3
16/09/2017,11.2,18.7,5.3,0.0
17/09/2017,12.6,21.8,4.3,0.2
18/09/2017,14.9,20.6,10.9,1.6
19/09/2017,14.3,20.8,8.7,0.2
20/09/2017,14.7,26.6,4.8,0.0
21/09/2017,16.2,27.9,5.1,0.0
22/09/2017,15.4,20.4,10.9,5.2
23/09/2017,17.1,25.9,10.4,0.2
24/09/2017,18.3,29.3,9.9,0.2
25/09/2017,18.2,23.0,14.1,0.0
26/09/2017,17.0,24.2,10.0,0.0
27/09/2017,16.5,26.3,8.0,0.0
28/09/2017,18.5,27.5,11.5,0.2
29/09/2017,19.3,28.1,11.7,0.0
30/09/2017,16.3,22.0,12.4,1.0
01/10/2017,17.0,22.0,12.3,0.2
02/10/2017,20.0,26.1,14.8,0.0
03/10/2017,18.8,26.1,11.9,0.0
04/10/2017,17.7,27.3,9.5,0.2
05/10/2017,17.8,27.3,9.6,0.0
06/10/2017,16.5,22.0,11.5,0.0
07/10/2017,14.2,23.5,6.9,0.0
08/10/2017,13.9,25.5,2.2,0.0
09/10/2017,15.9,26.9,7.1,0.0
10/10/2017,13.6,27.1,3.6,0.0
11/10/2017,14.0,26.4,4.7,0.0
12/10/2017,15.0,26.8,5.9,0.2
13/10/2017,16.6,27.8,8.0,0.0
14/10/2017,17.9,26.1,8.6,0.0
15/10/2017,18.8,24.7,14.1,0.0
16/10/2017,18.8,26.0,12.3,0.0
17/10/2017,18.7,24.1,13.5,0.0
18/10/2017,15.6,18.6,11.4,20.6
19/10/2017,13.1,19.0,8.3,0.6
20/10/2017,13.3,22.0,7.3,0.0
21/10/2017,12.9,18.0,8.0,0.2
22/10/2017,11.3,16.3,6.6,0.0
23/10/2017,13.0,22.0,5.7,0.2
24/10/2017,13.8,25.7,5.1,0.0
25/10/2017,13.2,26.2,4.5,0.0
26/10/2017,13.6,25.5,5.1,0.2
27/10/2017,15.4,20.9,7.2,0.2
28/10/2017,14.8,18.4,10.6,0.0
29/10/2017,13.5,18.1,9.9,0.0
30/10/2017,13.3,18.0,7.1,0.0
31/10/2017,9.3,17.5,2.0,0.0
01/11/2017,13.0,20.2,4.5,0.0
02/11/2017,15.0,20.4,9.6,0.0
03/11/2017,15.2,21.5,10.1,0.0
04/11/2017,13.1,18.6,8.8,11.7
05/11/2017,10.6,14.0,8.2,0.8
06/11/2017,8.3,11.4,5.9,1.0
07/11/2017,8.1,13.8,3.6,0.0
08/11/2017,7.2,11.0,2.6,0.4
09/11/2017,6.9,11.4,2.8,0.6
10/11/2017,10.0,15.2,4.4,0.0
11/11/2017,12.3,16.1,9.5,0.0
12/11/2017,12.6,17.6,6.9,0.0
13/11/2017,8.0,11.4,5.5,0.4
14/11/2017,7.1,11.6,3.6,0.6
15/11/2017,4.3,15.3,-3.6,0.0
16/11/2017,4.6,15.9,-3.2,0.0
17/11/2017,8.0,19.1,-1.5,0.0
18/11/2017,9.7,15.7,3.9,0.0
19/11/2017,6.4,17.0,-2.1,0.2
20/11/2017,4.6,16.7,-2.6,0.0
21/11/2017,3.6,16.4,-3.4,0.0
22/11/2017,4.8,16.1,-4.0,0.2
23/11/2017,11.9,18.6,8.0,0.0
24/11/2017,11.2,14.9,8.3,1.0
25/11/2017,9.2,12.6,3.6,1.2
26/11/2017,6.3,11.0,1.8,0.0
27/11/2017,4.4,10.1,-2.0,0.0
28/11/2017,1.7,11.9,-4.6,0.2
29/11/2017,4.9,9.8,1.3,0.0
30/11/2017,6.3,8.9,-,0.2
01/12/2017,2.9,6.1,-0.9,7.5
02/12/2017,1.8,4.6,-0.7,0.2
03/12/2017,3.0,6.5,-1.2,0.0
04/12/2017,6.2,11.4,2.2,0.0
05/12/2017,3.7,10.4,-3.4,0.2
06/12/2017,1.5,7.4,-4.6,0.4
07/12/2017,0.8,8.5,-4.6,0.0
08/12/2017,6.0,11.7,-0.2,0.0
09/12/2017,6.4,9.7,2.9,1.0
10/12/2017,9.4,14.8,3.7,0.4
11/12/2017,8.6,15.6,3.4,2.6
12/12/2017,3.9,9.4,-2.1,0.0
13/12/2017,1.8,8.1,-4.1,0.0
14/12/2017,7.1,10.4,3.4,7.1
15/12/2017,6.9,9.8,3.8,0.6
16/12/2017,4.3,7.9,1.5,1.4
17/12/2017,5.3,9.7,1.3,0.0
18/12/2017,7.3,10.5,3.0,0.2
19/12/2017,6.3,9.4,3.4,0.0
20/12/2017,6.8,12.2,1.7,0.0
21/12/2017,9.6,14.7,5.9,0.0
22/12/2017,8.5,11.0,6.6,0.0
23/12/2017,7.3,13.0,-0.5,0.0
24/12/2017,-,-,-,-
25/12/2017,2.1,4.9,0.5,0.2
26/12/2017,5.1,9.2,1.4,1.6
27/12/2017,5.5,9.3,1.6,5.9
28/12/2017,6.1,9.5,3.7,1.6
29/12/2017,7.4,14.1,3.5,2.6
30/12/2017,7.1,17.3,0.4,0.2
31/12/2017,7.3,15.4,1.8,2.8
