Fecha, Temperatura media, Temperatura maxima, Temperatura minima, Precipitacion acumulada
01/01/2010,5.3,9.7,-0.9,0.0
02/01/2010,2.6,9.1,-2.8,0.0
03/01/2010,5.0,6.5,2.8,6.5
04/01/2010,4.2,6.6,1.6,1.8
05/01/2010,4.7,7.8,1.8,3.2
06/01/2010,1.7,7.5,-2.4,0.0
07/01/2010,0.9,4.0,-3.0,0.2
08/01/2010,-0.0,2.0,-2.0,0.0
09/01/2010,-1.2,1.7,-3.4,0.0
10/01/2010,-1.3,3.5,-5.2,0.0
11/01/2010,-0.3,5.4,-4.4,0.0
12/01/2010,-0.6,3.4,-5.6,5.6
13/01/2010,1.8,6.4,-2.8,9.3
14/01/2010,-,-,-,5.2
15/01/2010,-,-,-,0.0
16/01/2010,-,-,-,0.4
17/01/2010,6.0,9.6,3.2,0.0
18/01/2010,5.6,9.1,1.1,0.0
19/01/2010,10.3,12.9,-,0.4
20/01/2010,7.6,12.6,3.7,0.2
21/01/2010,5.0,11.4,-0.1,0.0
22/01/2010,4.4,13.4,-2.3,0.2
23/01/2010,6.7,9.2,3.8,0.4
24/01/2010,6.5,10.6,3.5,0.0
25/01/2010,4.1,7.1,1.0,0.0
26/01/2010,3.7,7.5,0.3,0.0
27/01/2010,1.1,5.6,-2.0,0.0
28/01/2010,3.9,7.9,-2.3,0.0
29/01/2010,6.7,11.1,3.5,0.8
30/01/2010,5.9,8.8,3.8,2.2
31/01/2010,3.6,6.7,0.5,1.2
01/02/2010,2.7,8.4,-1.1,0.0
02/02/2010,1.6,9.2,-3.0,0.0
03/02/2010,1.4,10.0,-5.4,0.2
04/02/2010,5.9,8.1,-0.1,4.8
05/02/2010,7.0,13.4,0.9,0.8
06/02/2010,8.5,13.4,3.2,0.0
07/02/2010,7.1,10.8,2.8,0.0
08/02/2010,4.9,6.7,1.0,5.7
09/02/2010,4.8,8.3,1.9,0.0
10/02/2010,3.0,6.8,-1.6,0.0
11/02/2010,-1.0,0.8,-3.1,0.0
12/02/2010,-1.0,2.1,-3.2,0.0
13/02/2010,-1.0,1.7,-3.2,0.0
14/02/2010,0.2,3.4,-3.0,0.0
15/02/2010,0.1,4.1,-3.8,0.0
16/02/2010,2.7,6.8,-0.3,7.5
17/02/2010,7.3,9.4,4.4,7.1
18/02/2010,7.0,11.4,2.0,0.2
19/02/2010,5.7,10.0,-0.5,0.0
20/02/2010,2.9,11.2,-3.7,0.0
21/02/2010,4.4,7.8,0.0,3.0
22/02/2010,9.0,13.0,4.7,0.8
23/02/2010,11.5,16.2,7.6,0.4
24/02/2010,10.6,14.8,3.0,0.0
25/02/2010,12.9,17.6,7.0,0.2
26/02/2010,8.4,14.9,0.7,0.0
27/02/2010,11.1,18.5,6.8,0.4
28/02/2010,10.6,15.2,5.3,0.0
01/03/2010,9.2,16.0,2.4,2.2
02/03/2010,8.5,15.4,-0.8,0.0
03/03/2010,6.7,9.8,5.7,4.4
04/03/2010,8.5,13.7,5.3,0.0
05/03/2010,7.7,13.6,2.6,0.0
06/03/2010,7.7,11.9,3.3,0.0
07/03/2010,4.5,10.9,-1.1,0.0
08/03/2010,0.8,4.6,-3.7,0.0
09/03/2010,2.6,6.5,-0.7,0.0
10/03/2010,0.6,2.8,-1.7,0.2
11/03/2010,2.0,6.3,-1.2,0.4
12/03/2010,3.3,7.0,1.1,0.0
13/03/2010,6.2,11.0,2.7,0.0
14/03/2010,5.5,10.7,2.1,0.0
15/03/2010,7.2,16.5,-0.9,0.0
16/03/2010,6.0,16.8,-4.0,0.0
17/03/2010,9.9,19.4,-2.0,0.0
18/03/2010,10.5,15.9,5.7,0.0
19/03/2010,11.4,17.8,2.1,0.8
20/03/2010,16.7,21.7,12.7,0.0
21/03/2010,13.7,18.2,9.0,0.0
22/03/2010,12.9,21.4,5.6,0.4
23/03/2010,10.9,19.9,-0.7,0.0
24/03/2010,13.4,17.9,10.4,6.1
25/03/2010,11.5,16.1,7.7,7.5
26/03/2010,9.7,16.3,1.5,0.2
27/03/2010,9.7,17.2,1.8,0.0
28/03/2010,10.2,17.5,3.0,0.0
29/03/2010,13.6,19.7,8.0,1.8
30/03/2010,10.0,15.6,5.7,1.0
31/03/2010,8.9,16.4,1.8,0.4
01/04/2010,8.2,14.4,1.5,0.0
02/04/2010,8.8,17.9,0.3,0.0
03/04/2010,10.9,15.8,6.3,1.2
04/04/2010,8.1,14.0,0.6,0.0
05/04/2010,8.6,18.0,-2.0,0.0
06/04/2010,12.2,19.9,4.6,0.0
07/04/2010,10.2,14.3,5.8,2.2
08/04/2010,10.4,15.7,5.8,0.0
09/04/2010,11.1,20.3,2.8,0.0
10/04/2010,12.0,22.4,1.0,0.0
11/04/2010,12.2,21.2,1.4,0.0
12/04/2010,10.1,14.8,3.4,0.0
13/04/2010,9.0,16.0,1.0,0.0
14/04/2010,9.5,13.2,6.3,0.0
15/04/2010,10.4,12.9,7.5,5.6
16/04/2010,13.1,19.4,8.5,0.2
17/04/2010,12.9,18.7,8.9,0.0
18/04/2010,12.2,17.7,8.8,2.0
19/04/2010,15.0,23.0,9.2,0.0
20/04/2010,15.5,24.7,5.3,0.0
21/04/2010,16.8,24.1,7.1,1.2
22/04/2010,14.0,15.7,12.1,8.7
23/04/2010,14.4,19.7,10.2,0.2
24/04/2010,15.3,24.8,5.9,0.0
25/04/2010,17.4,26.0,9.5,0.0
26/04/2010,18.1,27.5,8.7,0.0
27/04/2010,19.6,28.6,10.5,0.0
28/04/2010,19.0,27.7,9.0,0.0
29/04/2010,18.9,26.0,12.8,5.6
30/04/2010,16.5,23.6,10.4,0.0
01/05/2010,14.0,18.7,8.5,1.6
02/05/2010,11.7,15.9,7.6,0.0
03/05/2010,9.8,14.0,6.4,0.0
04/05/2010,6.9,7.8,6.1,0.6
05/05/2010,7.9,10.0,6.0,0.0
06/05/2010,8.8,13.4,3.2,0.0
07/05/2010,8.8,16.0,-0.5,0.8
08/05/2010,14.0,20.1,8.7,1.2
09/05/2010,14.4,21.4,9.7,10.7
10/05/2010,13.4,21.4,5.6,1.6
11/05/2010,12.1,18.3,4.8,3.8
12/05/2010,11.3,17.0,8.3,1.0
13/05/2010,9.3,13.4,6.3,0.0
14/05/2010,10.2,16.2,4.1,1.0
15/05/2010,10.1,15.5,4.9,0.0
16/05/2010,10.5,16.7,2.9,0.0
17/05/2010,12.8,19.0,5.6,0.0
18/05/2010,16.1,25.0,6.4,0.0
19/05/2010,14.8,20.1,9.3,0.0
20/05/2010,17.6,26.2,9.4,0.0
21/05/2010,18.5,29.6,6.8,0.0
22/05/2010,20.1,29.3,8.6,0.0
23/05/2010,21.1,29.1,11.4,0.0
24/05/2010,22.0,29.4,13.2,0.0
25/05/2010,22.0,29.3,14.9,0.0
26/05/2010,18.6,25.8,11.6,0.0
27/05/2010,18.0,25.5,10.2,0.0
28/05/2010,16.2,21.0,10.2,0.4
29/05/2010,17.4,26.0,7.6,0.0
30/05/2010,19.5,26.8,11.6,0.0
31/05/2010,21.1,26.6,15.3,0.0
01/06/2010,20.1,27.7,12.7,0.0
02/06/2010,18.8,24.9,13.5,0.0
03/06/2010,20.4,30.1,10.2,0.0
04/06/2010,22.2,30.9,12.0,0.0
05/06/2010,23.2,33.5,12.8,0.0
06/06/2010,18.3,22.4,13.0,0.0
07/06/2010,20.9,29.7,11.0,0.0
08/06/2010,20.8,29.9,15.6,1.4
09/06/2010,17.4,21.0,15.1,3.2
10/06/2010,18.2,22.8,14.5,0.8
11/06/2010,17.6,22.3,14.0,1.2
12/06/2010,16.0,19.4,13.2,2.8
13/06/2010,18.2,24.8,11.5,0.0
14/06/2010,15.3,20.6,8.7,0.0
15/06/2010,14.0,20.2,7.6,0.0
16/06/2010,13.2,17.5,10.8,4.0
17/06/2010,14.0,18.5,10.8,0.0
18/06/2010,16.5,23.0,9.8,2.0
19/06/2010,17.0,21.7,13.4,0.4
20/06/2010,14.7,18.3,11.2,0.2
21/06/2010,15.8,21.7,9.1,0.2
22/06/2010,18.6,25.7,11.5,0.0
23/06/2010,19.9,29.5,9.7,0.0
24/06/2010,21.3,32.4,8.6,0.0
25/06/2010,23.2,32.8,11.2,0.0
26/06/2010,23.8,33.3,16.9,0.0
27/06/2010,23.5,31.9,17.2,1.8
28/06/2010,22.7,31.4,16.5,0.4
29/06/2010,23.2,29.8,16.6,0.0
30/06/2010,23.8,31.9,15.1,0.0
01/07/2010,25.8,35.4,14.1,0.0
02/07/2010,24.0,32.5,18.1,2.6
03/07/2010,23.4,32.2,16.8,0.2
04/07/2010,23.2,30.3,18.1,0.0
05/07/2010,21.2,26.9,15.9,0.0
06/07/2010,21.8,28.9,15.6,0.0
07/07/2010,24.5,36.9,13.2,0.2
08/07/2010,29.0,36.4,18.2,0.0
09/07/2010,26.7,34.0,19.2,0.0
10/07/2010,26.4,36.0,16.7,0.0
11/07/2010,29.1,38.2,19.3,0.4
12/07/2010,26.3,34.9,18.5,0.0
13/07/2010,26.0,35.8,16.6,0.0
14/07/2010,24.1,32.9,16.4,0.0
15/07/2010,23.1,32.9,14.9,0.0
16/07/2010,22.8,29.0,15.9,0.0
17/07/2010,20.0,24.8,15.7,0.0
18/07/2010,23.4,34.0,13.8,0.0
19/07/2010,25.2,34.9,15.7,0.0
20/07/2010,24.3,33.9,15.5,33.3
21/07/2010,19.8,25.7,15.9,3.0
22/07/2010,18.1,23.0,15.4,1.4
23/07/2010,18.0,22.6,12.8,0.0
24/07/2010,18.4,24.6,11.2,0.0
25/07/2010,19.0,23.4,14.0,0.0
26/07/2010,19.8,24.4,15.4,0.0
27/07/2010,22.3,31.7,13.4,0.0
28/07/2010,23.0,32.7,12.1,0.0
29/07/2010,21.2,25.2,16.5,0.0
30/07/2010,20.9,26.9,13.4,0.0
31/07/2010,24.0,36.0,13.3,0.0
01/08/2010,23.7,32.5,17.1,0.0
02/08/2010,19.5,22.7,15.7,0.2
03/08/2010,19.4,24.2,14.3,0.0
04/08/2010,19.6,25.2,13.9,0.0
05/08/2010,19.0,23.5,14.7,1.8
06/08/2010,19.7,27.8,12.3,0.0
07/08/2010,22.4,34.8,9.9,0.0
08/08/2010,22.8,30.7,15.1,0.0
09/08/2010,22.1,27.7,16.7,1.2
10/08/2010,21.6,32.4,12.5,0.0
11/08/2010,22.0,29.5,13.0,0.0
12/08/2010,20.0,23.8,16.1,0.0
13/08/2010,18.1,23.0,13.9,0.0
14/08/2010,17.2,23.0,11.8,0.0
15/08/2010,16.9,24.2,11.5,0.0
16/08/2010,18.5,28.7,9.0,0.0
17/08/2010,21.1,31.1,10.2,0.0
18/08/2010,22.5,31.7,13.2,0.0
19/08/2010,21.6,26.9,16.9,1.0
20/08/2010,22.9,34.0,14.1,0.0
21/08/2010,25.7,36.0,15.5,0.0
22/08/2010,28.3,36.0,20.2,0.0
23/08/2010,25.6,35.4,16.0,0.0
24/08/2010,22.3,27.5,15.4,0.0
25/08/2010,24.1,35.2,12.7,0.0
26/08/2010,27.6,38.1,18.6,0.0
27/08/2010,23.0,31.1,16.3,0.0
28/08/2010,19.9,24.3,15.3,0.0
29/08/2010,19.1,26.3,13.5,0.0
30/08/2010,18.0,24.1,12.2,0.0
31/08/2010,18.7,28.3,9.6,0.0
01/09/2010,21.1,28.6,13.7,0.8
02/09/2010,20.8,26.4,16.5,3.0
03/09/2010,20.2,30.1,11.8,0.0
04/09/2010,20.3,31.6,9.4,0.0
05/09/2010,22.2,33.6,10.4,0.0
06/09/2010,25.0,32.3,18.7,0.0
07/09/2010,19.2,25.7,12.7,0.8
08/09/2010,17.1,24.2,9.8,0.2
09/09/2010,17.8,23.3,12.3,0.0
10/09/2010,18.1,28.6,10.6,0.2
11/09/2010,19.1,30.2,9.0,0.0
12/09/2010,19.4,24.6,14.3,0.0
13/09/2010,18.3,25.3,12.3,0.0
14/09/2010,19.4,29.7,11.6,0.0
15/09/2010,18.8,30.7,9.1,0.0
16/09/2010,18.5,20.8,15.6,0.0
17/09/2010,17.3,22.2,13.9,0.0
18/09/2010,16.5,21.5,10.6,0.0
19/09/2010,15.1,25.4,7.1,0.0
20/09/2010,18.0,25.4,7.3,0.0
21/09/2010,20.3,29.2,14.1,0.0
22/09/2010,20.4,28.4,12.0,0.0
23/09/2010,20.3,25.0,15.5,0.0
24/09/2010,16.3,20.4,10.3,0.2
25/09/2010,14.2,19.1,10.2,0.2
26/09/2010,12.7,17.5,7.2,0.0
27/09/2010,12.5,20.4,4.6,0.0
28/09/2010,13.7,21.6,6.3,0.0
29/09/2010,15.8,27.5,3.8,0.0
30/09/2010,16.0,22.3,10.0,0.0
01/10/2010,16.3,25.3,7.4,0.0
02/10/2010,20.8,27.6,13.7,0.0
03/10/2010,18.8,25.5,15.8,1.6
04/10/2010,15.2,20.0,7.2,3.6
05/10/2010,13.7,24.1,3.9,0.0
06/10/2010,16.9,26.4,10.5,0.0
07/10/2010,19.5,24.6,11.5,0.2
08/10/2010,21.2,27.3,16.2,0.4
09/10/2010,18.8,21.2,15.4,4.0
10/10/2010,13.2,15.7,11.7,13.1
11/10/2010,14.5,19.2,11.0,0.0
12/10/2010,14.8,19.9,9.6,0.2
13/10/2010,15.3,20.0,9.5,0.0
14/10/2010,12.6,18.3,7.6,0.0
15/10/2010,11.4,17.3,5.9,0.0
16/10/2010,11.0,17.0,5.7,0.0
17/10/2010,10.1,15.4,6.8,0.0
18/10/2010,9.5,14.4,5.3,0.0
19/10/2010,10.9,17.2,6.7,0.0
20/10/2010,10.2,16.7,5.0,0.0
21/10/2010,8.2,17.8,0.2,0.0
22/10/2010,8.4,17.7,0.1,0.0
23/10/2010,11.7,19.7,6.0,0.0
24/10/2010,11.3,19.2,4.7,4.4
25/10/2010,8.5,12.2,4.7,0.6
26/10/2010,9.3,15.9,5.1,1.0
27/10/2010,9.3,22.1,-1.3,0.0
28/10/2010,10.8,21.9,2.8,0.0
29/10/2010,13.4,18.1,7.6,5.4
30/10/2010,10.8,14.1,4.8,0.2
31/10/2010,11.8,16.7,9.4,5.2
01/11/2010,12.6,16.7,9.8,5.7
02/11/2010,12.0,15.3,8.9,0.0
03/11/2010,14.2,19.1,9.2,0.0
04/11/2010,14.8,22.5,7.5,0.0
05/11/2010,11.4,20.1,5.9,0.2
06/11/2010,9.8,17.7,4.4,0.2
07/11/2010,10.0,14.1,3.5,0.6
08/11/2010,7.0,13.3,3.7,16.8
09/11/2010,9.5,14.9,4.4,0.2
10/11/2010,8.6,12.8,5.3,0.4
11/11/2010,6.9,12.4,0.2,0.0
12/11/2010,10.4,19.4,4.0,0.0
13/11/2010,10.3,17.7,2.0,0.2
14/11/2010,10.3,13.1,5.7,3.6
15/11/2010,8.1,13.0,3.8,0.2
16/11/2010,7.0,12.3,-0.3,0.2
17/11/2010,4.1,9.1,-0.3,1.4
18/11/2010,4.6,13.2,-2.4,0.2
19/11/2010,5.2,9.7,-0.9,0.2
20/11/2010,8.9,13.6,6.1,6.1
21/11/2010,8.0,11.4,6.1,5.4
22/11/2010,7.5,12.1,4.9,0.2
23/11/2010,6.4,12.1,2.0,0.0
24/11/2010,4.2,10.7,-0.5,0.2
25/11/2010,3.5,12.2,-3.7,0.2
26/11/2010,3.2,8.4,-3.1,0.8
27/11/2010,-0.5,6.4,-5.3,0.0
28/11/2010,-0.6,8.3,-5.3,0.2
29/11/2010,-1.6,3.4,-7.0,0.0
30/11/2010,3.1,6.3,0.1,1.4
01/12/2010,3.3,6.7,-0.7,1.4
02/12/2010,1.6,7.4,-1.6,0.8
03/12/2010,1.8,6.3,-2.6,0.2
04/12/2010,1.4,7.5,-5.7,0.0
05/12/2010,5.9,9.4,4.2,5.6
06/12/2010,11.6,17.8,8.2,0.0
07/12/2010,13.2,17.3,10.7,1.8
08/12/2010,13.4,20.1,10.0,7.3
09/12/2010,7.3,10.8,2.2,0.6
10/12/2010,3.5,11.9,-2.0,0.0
11/12/2010,-0.4,2.2,-3.3,0.2
12/12/2010,4.0,11.5,-1.2,0.2
13/12/2010,8.6,13.1,4.9,0.0
14/12/2010,4.3,8.9,1.2,0.0
15/12/2010,0.9,3.8,-2.3,0.0
16/12/2010,-0.3,5.6,-5.3,0.0
17/12/2010,0.9,7.8,-6.8,0.0
18/12/2010,1.3,8.3,-5.0,0.0
19/12/2010,2.8,9.1,-4.2,0.0
20/12/2010,1.6,12.8,-5.5,0.2
21/12/2010,6.8,9.4,2.4,2.2
22/12/2010,10.0,13.3,8.3,6.5
23/12/2010,6.9,9.1,3.7,1.2
24/12/2010,3.4,6.3,0.8,0.2
25/12/2010,0.6,2.6,-2.0,0.0
26/12/2010,-0.2,6.7,-6.5,0.0
27/12/2010,-2.2,5.7,-7.2,0.0
28/12/2010,0.7,10.3,-5.3,0.0
29/12/2010,3.6,11.8,-2.1,0.0
30/12/2010,5.8,8.9,1.6,0.0
31/12/2010,8.2,12.7,6.0,0.0
