Fecha, Temperatura media, Temperatura maxima, Temperatura minima, Precipitacion acumulada
01/01/2014,6.4,13.2,0.1,0.4
02/01/2014,11.1,14.3,8.6,0.8
03/01/2014,11.6,15.0,10.0,0.0
04/01/2014,10.4,14.8,3.1,1.2
05/01/2014,5.1,8.3,3.0,0.4
06/01/2014,8.1,12.6,2.4,0.0
07/01/2014,11.5,15.1,8.7,0.2
08/01/2014,11.4,16.1,7.8,0.0
09/01/2014,6.5,10.2,1.0,0.0
10/01/2014,1.7,7.1,-2.0,0.2
11/01/2014,5.6,7.5,4.3,0.0
12/01/2014,6.8,8.4,4.8,1.4
13/01/2014,6.3,11.4,0.4,0.6
14/01/2014,4.8,8.2,1.0,4.8
15/01/2014,7.3,11.0,4.0,0.0
16/01/2014,8.7,13.5,4.3,1.6
17/01/2014,7.4,12.2,3.1,0.0
18/01/2014,6.9,8.7,5.0,5.6
19/01/2014,5.0,9.1,0.8,0.2
20/01/2014,4.3,8.9,-0.1,0.2
21/01/2014,4.6,10.9,-1.4,0.0
22/01/2014,6.8,11.2,3.9,4.6
23/01/2014,6.9,10.7,3.8,0.2
24/01/2014,9.7,13.7,7.2,1.8
25/01/2014,12.2,16.9,7.3,0.2
26/01/2014,11.4,15.8,7.8,0.0
27/01/2014,8.1,12.3,4.3,4.2
28/01/2014,4.9,10.8,0.8,0.2
29/01/2014,4.1,10.2,-0.2,1.0
30/01/2014,4.9,9.0,1.1,0.0
31/01/2014,5.9,11.2,1.4,3.6
01/02/2014,5.6,10.3,-0.2,4.0
02/02/2014,2.8,10.4,-3.1,0.2
03/02/2014,2.7,8.3,-1.6,0.8
04/02/2014,3.8,10.7,-2.8,0.4
05/02/2014,7.8,14.2,2.3,0.2
06/02/2014,9.7,14.5,2.5,0.6
07/02/2014,9.0,13.2,3.3,0.0
08/02/2014,10.8,15.8,4.6,0.2
09/02/2014,4.2,8.0,-1.4,1.2
10/02/2014,5.9,9.1,3.2,0.6
11/02/2014,2.5,6.5,-2.8,1.0
12/02/2014,4.7,11.6,-3.2,0.8
13/02/2014,9.5,17.9,2.8,0.0
14/02/2014,14.0,20.9,4.7,0.0
15/02/2014,10.5,16.3,6.3,0.4
16/02/2014,5.9,12.6,0.8,0.0
17/02/2014,5.5,13.9,-1.5,0.2
18/02/2014,6.5,10.6,3.4,0.0
19/02/2014,7.5,13.1,3.3,0.0
20/02/2014,6.6,16.5,-1.8,0.0
21/02/2014,7.3,11.4,0.3,1.2
22/02/2014,4.1,14.4,-4.4,0.0
23/02/2014,6.3,15.5,-3.7,0.2
24/02/2014,9.9,15.7,5.9,0.0
25/02/2014,7.9,14.8,2.6,1.2
26/02/2014,4.2,10.4,-0.9,1.0
27/02/2014,3.1,10.4,-1.3,1.6
28/02/2014,4.1,8.2,-0.1,5.2
01/03/2014,5.1,7.1,3.6,10.7
02/03/2014,10.2,15.7,5.3,0.8
03/03/2014,7.8,12.2,2.8,7.7
04/03/2014,6.8,10.0,4.3,6.7
05/03/2014,9.9,13.3,5.3,1.4
06/03/2014,10.5,15.9,5.5,0.0
07/03/2014,8.3,16.9,0.6,0.0
08/03/2014,8.9,19.5,-0.7,0.2
09/03/2014,11.2,18.7,1.8,0.0
10/03/2014,8.7,19.6,-1.3,0.0
11/03/2014,12.2,19.9,5.7,0.0
12/03/2014,9.8,17.7,1.8,0.0
13/03/2014,9.3,16.1,2.0,0.0
14/03/2014,8.5,19.3,-1.6,0.0
15/03/2014,11.2,15.3,6.4,0.0
16/03/2014,12.8,21.8,6.9,0.2
17/03/2014,11.5,24.9,0.3,0.0
18/03/2014,9.7,16.2,2.0,0.0
19/03/2014,11.8,19.1,6.6,0.0
20/03/2014,11.6,22.2,1.5,0.0
21/03/2014,14.2,20.5,8.6,0.0
22/03/2014,10.2,14.9,4.9,1.8
23/03/2014,5.4,10.8,0.4,0.6
24/03/2014,4.0,10.8,-2.9,6.1
25/03/2014,7.2,10.3,3.9,3.6
26/03/2014,5.7,10.0,2.8,7.7
27/03/2014,7.5,13.4,1.2,0.8
28/03/2014,10.4,15.2,6.7,0.0
29/03/2014,11.6,15.4,8.6,0.0
30/03/2014,11.2,13.9,6.7,0.0
31/03/2014,13.0,18.6,7.1,0.0
01/04/2014,14.5,19.9,9.3,0.2
02/04/2014,12.4,17.0,9.8,4.8
03/04/2014,10.3,12.5,8.2,0.2
04/04/2014,12.3,17.8,8.2,0.0
05/04/2014,14.4,20.7,8.9,0.0
06/04/2014,16.2,26.2,6.7,0.0
07/04/2014,17.0,26.3,6.4,0.0
08/04/2014,14.4,19.5,8.9,0.0
09/04/2014,12.7,22.4,3.2,0.0
10/04/2014,15.2,25.6,5.1,2.6
11/04/2014,15.4,23.2,9.1,0.6
12/04/2014,14.3,21.7,9.2,0.0
13/04/2014,14.8,23.0,6.8,0.0
14/04/2014,15.8,25.0,7.5,0.0
15/04/2014,16.8,25.8,9.0,0.0
16/04/2014,16.8,26.7,6.0,0.0
17/04/2014,15.7,25.1,6.2,0.0
18/04/2014,16.1,25.7,5.5,0.0
19/04/2014,13.9,19.7,7.4,5.0
20/04/2014,10.8,14.1,5.0,15.1
21/04/2014,10.5,19.1,3.3,2.2
22/04/2014,12.4,18.9,6.3,0.0
23/04/2014,13.4,23.0,5.3,0.2
24/04/2014,11.5,15.7,8.2,8.3
25/04/2014,10.7,16.1,6.7,0.0
26/04/2014,11.6,17.9,6.4,3.6
27/04/2014,11.7,17.9,5.3,0.2
28/04/2014,12.9,18.4,9.5,0.2
29/04/2014,14.5,21.2,9.2,0.2
30/04/2014,14.4,20.1,9.0,0.2
01/05/2014,14.0,19.2,10.0,0.0
02/05/2014,12.4,16.4,9.3,0.0
03/05/2014,12.7,18.4,7.3,0.0
04/05/2014,13.3,22.4,6.4,0.0
05/05/2014,16.1,26.6,3.5,0.0
06/05/2014,18.0,24.0,13.7,0.0
07/05/2014,17.9,25.0,11.4,0.0
08/05/2014,17.4,27.1,7.6,0.0
09/05/2014,17.6,24.7,10.6,0.0
10/05/2014,18.2,28.1,8.5,0.0
11/05/2014,15.0,19.0,9.0,0.0
12/05/2014,13.8,21.7,6.1,0.0
13/05/2014,12.5,17.6,6.7,0.0
14/05/2014,13.8,21.8,4.8,0.0
15/05/2014,16.0,25.1,6.5,0.0
16/05/2014,15.4,24.0,6.0,0.0
17/05/2014,15.5,23.6,7.8,0.0
18/05/2014,16.2,24.7,4.5,0.0
19/05/2014,17.6,23.1,12.5,0.0
20/05/2014,17.1,20.1,15.1,0.4
21/05/2014,17.2,21.8,12.9,7.3
22/05/2014,13.8,18.4,9.2,0.6
23/05/2014,14.2,19.9,7.5,1.2
24/05/2014,12.5,20.8,4.5,14.5
25/05/2014,13.9,20.8,10.0,12.7
26/05/2014,12.7,18.4,7.8,1.6
27/05/2014,14.9,22.4,7.5,0.0
28/05/2014,13.2,17.1,10.1,6.1
29/05/2014,15.2,21.3,9.3,0.2
30/05/2014,14.8,20.2,10.4,0.8
31/05/2014,15.2,21.6,9.2,0.0
01/06/2014,16.6,22.5,11.8,0.0
02/06/2014,15.4,20.6,9.2,0.0
03/06/2014,18.7,27.1,10.5,0.0
04/06/2014,15.1,18.8,10.1,0.0
05/06/2014,19.4,27.9,7.8,0.0
06/06/2014,22.9,31.4,16.6,0.0
07/06/2014,24.4,32.5,16.4,0.0
08/06/2014,24.3,34.0,12.7,0.0
09/06/2014,22.8,33.1,14.9,3.4
10/06/2014,20.8,29.5,14.5,0.2
11/06/2014,22.3,31.4,14.3,0.0
12/06/2014,23.6,33.0,16.4,0.0
13/06/2014,23.2,31.1,14.0,0.0
14/06/2014,20.1,25.1,14.9,0.0
15/06/2014,19.2,24.4,14.7,0.0
16/06/2014,18.8,24.1,13.3,0.0
17/06/2014,19.0,26.2,11.2,0.0
18/06/2014,19.9,27.7,11.9,0.0
19/06/2014,20.3,29.3,9.3,0.0
20/06/2014,24.8,33.6,16.3,0.2
21/06/2014,25.5,33.9,16.6,0.0
22/06/2014,23.1,33.4,14.2,5.7
23/06/2014,21.7,30.1,14.8,1.4
24/06/2014,18.1,24.0,14.6,36.4
25/06/2014,19.6,25.1,14.9,0.0
26/06/2014,18.7,24.4,13.5,0.0
27/06/2014,21.8,31.3,11.5,0.2
28/06/2014,21.7,31.8,14.3,0.0
29/06/2014,17.6,24.0,12.1,0.0
30/06/2014,20.0,28.9,9.9,0.0
01/07/2014,21.3,29.5,15.1,5.2
02/07/2014,18.8,26.0,15.3,9.7
03/07/2014,17.2,23.7,13.7,28.5
04/07/2014,19.5,25.9,15.3,1.0
05/07/2014,23.2,31.9,14.1,0.6
06/07/2014,19.7,26.8,13.7,16.4
07/07/2014,16.7,21.6,12.0,0.2
08/07/2014,17.7,23.6,10.8,0.0
09/07/2014,16.8,21.0,12.8,0.0
10/07/2014,16.5,22.0,10.7,0.0
11/07/2014,17.9,23.3,12.5,0.0
12/07/2014,18.2,23.2,13.9,0.0
13/07/2014,20.5,29.3,13.0,0.0
14/07/2014,21.0,26.7,14.9,0.0
15/07/2014,22.6,32.8,12.5,0.0
16/07/2014,25.7,35.3,15.5,0.0
17/07/2014,28.6,37.1,21.4,0.0
18/07/2014,27.4,34.5,18.6,0.0
19/07/2014,22.8,28.3,17.2,0.6
20/07/2014,19.6,25.5,14.7,0.0
21/07/2014,18.8,24.4,11.7,0.0
22/07/2014,20.9,27.9,13.8,0.0
23/07/2014,22.8,31.4,14.7,0.0
24/07/2014,23.5,31.3,16.0,0.0
25/07/2014,23.2,31.1,18.3,2.0
26/07/2014,23.2,30.7,16.4,0.0
27/07/2014,22.5,29.1,14.3,0.0
28/07/2014,20.8,26.1,16.7,0.0
29/07/2014,18.3,23.6,14.3,0.2
30/07/2014,19.6,25.5,13.8,0.2
31/07/2014,21.6,31.0,12.3,0.0
01/08/2014,21.5,30.2,15.0,0.0
02/08/2014,21.3,29.1,15.9,11.3
03/08/2014,21.7,28.7,15.9,0.2
04/08/2014,21.6,29.1,16.3,0.0
05/08/2014,22.0,30.5,14.9,0.0
06/08/2014,22.1,29.6,14.4,0.0
07/08/2014,23.7,31.7,15.5,0.0
08/08/2014,23.4,33.6,17.4,5.6
09/08/2014,23.7,30.2,17.6,0.0
10/08/2014,25.1,32.9,18.1,0.0
11/08/2014,20.8,26.2,15.1,0.0
12/08/2014,21.2,29.6,13.0,0.0
13/08/2014,17.5,21.6,11.2,0.0
14/08/2014,16.8,24.0,10.0,0.0
15/08/2014,18.2,25.0,12.0,0.0
16/08/2014,16.7,21.8,10.7,0.0
17/08/2014,17.6,29.3,6.8,0.0
18/08/2014,19.5,31.3,12.1,17.0
19/08/2014,19.4,25.8,14.4,0.0
20/08/2014,18.2,23.9,13.1,0.0
21/08/2014,18.5,27.5,10.7,0.0
22/08/2014,16.2,18.7,11.8,2.6
23/08/2014,16.9,24.2,9.2,0.0
24/08/2014,19.2,30.7,9.3,0.0
25/08/2014,21.9,33.6,10.6,0.2
26/08/2014,23.5,32.4,14.1,0.0
27/08/2014,23.7,32.4,17.0,0.0
28/08/2014,23.6,33.9,15.3,0.0
29/08/2014,21.1,26.3,17.0,0.0
30/08/2014,21.1,28.7,16.5,0.0
31/08/2014,21.1,28.7,14.8,0.0
01/09/2014,22.2,31.0,13.7,0.0
02/09/2014,22.3,30.8,13.8,0.0
03/09/2014,22.7,33.4,12.3,0.0
04/09/2014,21.5,29.7,15.6,0.0
05/09/2014,21.6,30.3,15.1,0.0
06/09/2014,22.8,32.6,13.7,0.0
07/09/2014,23.9,32.6,18.0,25.5
08/09/2014,20.7,26.6,16.6,0.2
09/09/2014,21.2,30.8,14.6,0.0
10/09/2014,22.6,31.9,14.7,1.0
11/09/2014,22.7,29.5,17.2,0.0
12/09/2014,21.5,29.7,15.1,0.0
13/09/2014,20.5,31.4,11.0,0.0
14/09/2014,19.7,30.3,12.8,0.2
15/09/2014,19.1,27.5,13.5,0.0
16/09/2014,21.2,28.7,13.7,35.5
17/09/2014,22.4,28.3,18.0,0.0
18/09/2014,22.0,28.5,16.2,0.0
19/09/2014,21.0,26.6,15.1,0.0
20/09/2014,19.9,29.0,13.0,0.0
21/09/2014,19.9,28.2,13.4,0.2
22/09/2014,17.7,19.6,16.2,5.2
23/09/2014,16.2,20.8,9.8,0.0
24/09/2014,14.6,20.9,9.3,0.2
25/09/2014,15.6,23.4,10.3,0.0
26/09/2014,13.7,24.5,5.6,0.0
27/09/2014,15.5,24.8,6.3,0.2
28/09/2014,18.0,22.0,14.7,1.2
29/09/2014,16.7,20.5,13.7,4.6
30/09/2014,17.0,23.6,12.0,0.0
01/10/2014,16.8,25.8,9.0,0.2
02/10/2014,16.9,26.3,9.3,0.0
03/10/2014,16.4,26.5,8.8,0.2
04/10/2014,17.1,25.9,8.4,0.2
05/10/2014,15.8,21.5,9.0,0.0
06/10/2014,16.1,25.5,7.0,0.0
07/10/2014,19.8,26.7,13.1,0.0
08/10/2014,20.3,27.7,14.5,3.0
09/10/2014,18.0,22.1,16.1,6.5
10/10/2014,16.2,21.0,11.6,13.9
11/10/2014,17.6,23.4,12.1,0.4
12/10/2014,17.1,21.8,12.8,2.4
13/10/2014,15.2,20.2,13.4,4.8
14/10/2014,15.3,21.0,9.7,0.0
15/10/2014,14.1,20.0,8.6,1.4
16/10/2014,20.1,25.7,15.8,0.0
17/10/2014,19.4,26.0,13.0,0.0
18/10/2014,20.0,27.6,13.0,0.0
19/10/2014,18.6,28.0,11.2,0.0
20/10/2014,17.4,28.1,10.6,0.0
21/10/2014,17.5,28.5,8.9,0.0
22/10/2014,14.6,19.1,8.6,0.0
23/10/2014,14.7,25.3,6.5,0.0
24/10/2014,17.4,28.5,8.8,0.0
25/10/2014,16.1,28.5,7.6,0.0
26/10/2014,14.9,26.9,6.9,0.0
27/10/2014,12.7,20.5,7.0,0.0
28/10/2014,14.6,20.5,8.4,0.2
29/10/2014,13.7,20.8,8.4,0.0
30/10/2014,11.0,18.3,6.1,0.2
31/10/2014,11.9,19.2,7.6,0.4
01/11/2014,11.7,16.7,7.8,0.0
02/11/2014,13.1,17.4,9.0,4.8
03/11/2014,13.2,18.4,7.9,4.0
04/11/2014,9.2,13.2,6.3,6.1
05/11/2014,7.5,11.0,5.2,1.2
06/11/2014,8.4,15.2,2.4,0.2
07/11/2014,8.2,14.9,3.4,1.8
08/11/2014,7.7,15.1,0.9,0.0
09/11/2014,8.7,14.9,2.5,0.0
10/11/2014,6.3,14.3,-1.3,0.2
11/11/2014,8.1,10.3,5.6,7.7
12/11/2014,7.1,15.4,2.5,0.2
13/11/2014,12.1,16.1,4.1,0.0
14/11/2014,12.0,15.7,7.0,8.5
15/11/2014,8.8,15.7,5.1,1.6
16/11/2014,7.8,14.3,1.0,1.2
17/11/2014,8.2,14.4,2.5,9.7
18/11/2014,6.3,13.4,-0.1,0.0
19/11/2014,8.2,15.4,2.8,0.2
20/11/2014,9.3,16.4,3.8,0.0
21/11/2014,10.6,15.7,5.4,0.0
22/11/2014,12.3,16.2,9.3,0.2
23/11/2014,15.1,19.3,10.3,0.0
24/11/2014,13.7,20.3,9.5,0.2
25/11/2014,12.6,17.5,9.6,6.7
26/11/2014,10.9,14.5,6.8,11.5
27/11/2014,11.4,14.1,7.7,3.6
28/11/2014,13.1,14.9,11.9,2.8
29/11/2014,12.4,13.3,11.6,32.5
30/11/2014,13.5,16.8,10.2,3.4
01/12/2014,10.5,14.0,5.6,5.4
02/12/2014,8.7,11.0,6.2,0.2
03/12/2014,6.9,10.4,3.2,0.0
04/12/2014,4.4,10.8,-2.1,0.0
05/12/2014,5.3,11.8,-0.1,0.2
06/12/2014,4.7,7.1,2.9,0.6
07/12/2014,6.0,10.6,2.0,0.0
08/12/2014,9.2,13.5,7.3,2.2
09/12/2014,5.8,8.4,2.4,1.0
10/12/2014,8.1,12.5,2.8,0.0
11/12/2014,7.8,12.8,-0.1,0.0
12/12/2014,4.7,11.2,-1.6,0.2
13/12/2014,8.8,11.8,6.7,1.4
14/12/2014,7.6,8.9,6.5,6.9
15/12/2014,8.2,11.2,5.7,3.4
16/12/2014,9.1,14.0,4.8,4.4
17/12/2014,10.5,15.1,7.6,0.0
18/12/2014,10.6,14.5,8.4,0.0
19/12/2014,8.6,13.3,4.9,0.0
20/12/2014,10.3,15.7,6.0,0.0
21/12/2014,8.0,13.8,-0.9,0.0
22/12/2014,0.9,3.2,-3.4,0.2
23/12/2014,2.2,3.3,1.5,0.0
24/12/2014,1.7,7.9,-1.2,0.0
25/12/2014,5.9,12.9,-1.9,0.2
26/12/2014,9.3,13.6,5.9,0.0
27/12/2014,8.8,11.1,6.8,1.6
28/12/2014,5.0,7.9,1.0,3.4
29/12/2014,1.7,5.6,-0.7,0.0
30/12/2014,2.5,7.7,-2.2,0.0
31/12/2014,4.8,13.7,-4.8,0.0
