Fecha, Temperatura media, Temperatura maxima, Temperatura minima, Precipitacion acumulada
01/01/2009,8.4,12.5,5.2,0.2
02/01/2009,8.1,14.1,2.7,0.2
03/01/2009,4.4,6.6,2.2,0.0
04/01/2009,4.3,7.3,2.5,0.0
05/01/2009,3.9,6.3,1.2,0.4
06/01/2009,1.5,3.8,-1.1,0.4
07/01/2009,-1.5,-0.3,-2.9,0.0
08/01/2009,-1.6,-0.5,-3.5,0.0
09/01/2009,0.6,4.9,-4.8,0.0
10/01/2009,1.1,5.5,-3.5,0.4
11/01/2009,-0.1,1.8,-3.6,0.2
12/01/2009,-0.9,2.0,-2.4,0.0
13/01/2009,0.2,4.4,-1.7,4.9
14/01/2009,4.3,9.6,-1.1,1.0
15/01/2009,1.3,7.4,-2.9,0.2
16/01/2009,1.4,8.4,-3.0,0.0
17/01/2009,3.3,10.9,-1.7,0.0
18/01/2009,6.2,10.7,-0.9,0.2
19/01/2009,8.5,13.0,2.2,8.2
20/01/2009,2.3,7.5,-0.4,0.0
21/01/2009,2.1,6.6,-0.7,0.4
22/01/2009,3.0,5.2,-0.2,13.0
23/01/2009,9.8,15.3,4.2,18.7
24/01/2009,6.4,13.3,0.6,15.2
25/01/2009,2.8,8.4,-0.2,4.9
26/01/2009,3.3,6.7,0.5,16.0
27/01/2009,4.4,6.6,2.0,33.5
28/01/2009,5.9,9.4,2.1,3.1
29/01/2009,6.7,10.5,3.2,3.1
30/01/2009,9.8,15.7,5.3,0.0
31/01/2009,8.7,11.4,6.3,2.1
01/02/2009,6.6,9.3,4.6,1.6
02/02/2009,5.2,6.7,3.0,2.7
03/02/2009,4.9,8.8,0.3,0.0
04/02/2009,8.4,12.0,3.9,4.1
05/02/2009,7.5,9.4,5.2,0.2
06/02/2009,4.2,6.0,0.6,17.5
07/02/2009,1.6,3.7,0.1,24.5
08/02/2009,3.5,5.2,1.1,10.7
09/02/2009,8.9,13.4,3.1,0.6
10/02/2009,7.0,11.4,1.9,12.1
11/02/2009,7.7,9.9,2.7,19.5
12/02/2009,7.0,9.5,4.2,3.3
13/02/2009,5.2,9.4,1.8,0.0
14/02/2009,5.5,9.8,2.2,0.0
15/02/2009,4.0,12.4,-2.4,0.0
16/02/2009,3.1,10.7,-3.5,0.2
17/02/2009,6.4,11.6,1.6,0.0
18/02/2009,6.9,10.8,4.6,0.0
19/02/2009,7.7,12.4,5.1,0.0
20/02/2009,4.8,11.3,-0.2,0.0
21/02/2009,5.9,12.0,-0.9,0.0
22/02/2009,7.8,11.4,5.5,0.0
23/02/2009,7.4,9.9,5.4,0.0
24/02/2009,7.3,9.7,4.6,0.0
25/02/2009,5.8,13.8,-1.9,0.0
26/02/2009,5.8,16.0,-2.0,0.0
27/02/2009,6.0,18.1,-2.2,0.2
28/02/2009,6.0,13.6,-1.9,0.2
01/03/2009,8.6,12.3,5.7,0.4
02/03/2009,7.3,10.4,4.0,1.4
03/03/2009,6.8,12.8,1.4,0.0
04/03/2009,4.6,7.1,2.0,12.3
05/03/2009,3.1,6.4,0.5,30.0
06/03/2009,4.8,7.6,1.7,10.3
07/03/2009,8.8,10.3,4.6,0.4
08/03/2009,9.3,12.0,7.4,0.4
09/03/2009,7.2,10.9,0.8,0.0
10/03/2009,6.9,18.0,-2.4,0.0
11/03/2009,9.1,13.7,5.2,0.0
12/03/2009,10.1,18.4,3.0,0.0
13/03/2009,10.8,22.2,1.2,0.0
14/03/2009,10.7,20.0,1.7,0.0
15/03/2009,11.8,16.7,8.9,0.0
16/03/2009,11.4,21.5,1.8,0.0
17/03/2009,9.9,19.0,1.6,0.0
18/03/2009,9.4,19.9,0.2,0.0
19/03/2009,11.5,23.6,-0.5,0.0
20/03/2009,13.2,21.7,3.8,0.0
21/03/2009,8.9,16.8,0.4,0.0
22/03/2009,9.0,15.1,3.5,0.0
23/03/2009,10.1,16.8,3.8,0.0
24/03/2009,6.8,10.8,3.3,0.4
25/03/2009,7.9,14.5,2.3,0.0
26/03/2009,11.9,20.8,4.5,0.0
27/03/2009,10.4,20.0,0.6,0.0
28/03/2009,6.8,10.4,4.5,0.4
29/03/2009,6.9,10.4,3.7,0.0
30/03/2009,7.1,11.8,3.1,0.0
31/03/2009,8.3,12.4,4.4,0.0
01/04/2009,8.2,10.1,6.4,0.0
02/04/2009,8.7,12.6,4.8,0.0
03/04/2009,9.5,14.3,3.6,0.0
04/04/2009,9.2,17.1,0.6,0.2
05/04/2009,12.8,21.2,5.7,0.0
06/04/2009,11.2,20.9,2.7,2.1
07/04/2009,8.0,10.7,6.5,1.9
08/04/2009,9.1,14.1,3.5,0.2
09/04/2009,11.4,19.6,0.1,-
10/04/2009,8.6,14.6,2.3,-
11/04/2009,6.2,8.9,4.2,-
12/04/2009,7.3,11.4,4.1,-
13/04/2009,10.6,18.3,4.6,-
14/04/2009,10.4,17.5,3.7,-
15/04/2009,9.4,13.4,4.4,-
16/04/2009,7.9,15.2,2.2,-
17/04/2009,9.5,15.1,3.5,-
18/04/2009,9.1,16.4,0.4,-
19/04/2009,10.9,14.6,8.0,-
20/04/2009,9.8,12.6,7.4,2.9
21/04/2009,11.0,13.7,8.7,0.0
22/04/2009,12.7,17.5,8.7,0.0
23/04/2009,14.2,25.8,3.8,0.0
24/04/2009,13.0,26.1,2.9,0.8
25/04/2009,8.2,9.7,6.5,10.9
26/04/2009,7.5,9.6,5.7,3.7
27/04/2009,10.3,14.7,5.4,0.8
28/04/2009,10.9,15.1,7.9,0.2
29/04/2009,10.2,15.1,5.7,1.2
30/04/2009,10.7,16.7,4.4,0.8
01/05/2009,9.7,12.3,6.9,0.0
02/05/2009,12.7,17.5,9.0,0.0
03/05/2009,14.2,19.0,10.0,0.0
04/05/2009,11.6,14.5,8.2,0.0
05/05/2009,13.1,18.1,8.4,0.0
06/05/2009,17.0,30.5,5.4,0.0
07/05/2009,17.1,28.7,9.2,2.7
08/05/2009,14.4,21.6,10.0,0.2
09/05/2009,17.7,25.7,9.3,0.0
10/05/2009,17.8,23.2,13.2,11.9
11/05/2009,17.7,25.0,9.6,6.6
12/05/2009,16.8,25.7,7.6,0.0
13/05/2009,17.2,24.2,12.2,9.3
14/05/2009,12.0,13.7,8.4,3.7
15/05/2009,10.2,14.5,5.0,0.0
16/05/2009,14.2,25.1,3.1,0.2
17/05/2009,14.4,20.6,7.4,1.2
18/05/2009,14.0,20.5,9.1,0.0
19/05/2009,14.5,23.4,6.7,0.0
20/05/2009,17.6,29.3,7.6,7.0
21/05/2009,16.8,23.0,11.0,0.2
22/05/2009,20.3,28.9,13.5,0.0
23/05/2009,20.6,25.3,15.2,0.8
24/05/2009,16.4,20.7,12.1,13.0
25/05/2009,14.9,21.1,11.3,9.0
26/05/2009,12.8,15.3,9.8,0.2
27/05/2009,12.7,16.8,8.3,0.0
28/05/2009,17.8,24.1,10.8,0.0
29/05/2009,19.5,30.8,8.6,0.0
30/05/2009,19.8,28.0,10.7,0.0
31/05/2009,17.9,24.7,9.3,0.0
01/06/2009,17.6,23.8,9.5,0.0
02/06/2009,19.3,25.1,13.0,0.0
03/06/2009,20.8,27.9,11.8,0.0
04/06/2009,19.5,26.1,13.2,3.7
05/06/2009,15.8,20.5,11.8,9.5
06/06/2009,15.1,22.1,10.7,7.0
07/06/2009,15.8,21.7,11.7,0.4
08/06/2009,16.1,22.1,9.9,2.5
09/06/2009,15.9,21.1,9.9,0.4
10/06/2009,19.9,27.8,13.7,0.0
11/06/2009,18.8,23.4,13.5,0.0
12/06/2009,21.4,31.6,11.6,0.0
13/06/2009,24.2,35.3,14.2,0.0
14/06/2009,23.8,31.6,16.2,0.8
15/06/2009,19.4,23.4,15.0,1.0
16/06/2009,17.7,22.6,13.8,0.4
17/06/2009,23.1,31.8,16.7,20.1
18/06/2009,23.0,32.5,16.4,0.0
19/06/2009,17.9,20.1,15.0,0.4
20/06/2009,15.8,19.8,11.6,0.0
21/06/2009,15.4,19.5,11.4,0.0
22/06/2009,18.2,23.6,13.0,0.0
23/06/2009,19.7,25.4,13.4,0.0
24/06/2009,19.2,26.9,9.2,0.0
25/06/2009,19.4,26.0,13.3,6.0
26/06/2009,18.5,23.9,14.4,3.1
27/06/2009,20.3,29.5,10.9,0.0
28/06/2009,21.6,31.2,11.7,0.0
29/06/2009,23.9,33.3,14.3,1.0
30/06/2009,24.6,34.2,17.2,0.4
01/07/2009,25.3,34.4,16.8,0.0
02/07/2009,21.3,25.1,18.9,0.0
03/07/2009,23.1,30.3,17.7,0.0
04/07/2009,21.0,24.7,18.3,0.0
05/07/2009,21.5,26.1,18.0,0.0
06/07/2009,18.1,21.1,14.1,0.0
07/07/2009,16.7,21.0,13.4,0.0
08/07/2009,17.1,22.4,11.8,0.0
09/07/2009,17.3,21.8,11.9,0.0
10/07/2009,18.4,24.1,13.3,0.0
11/07/2009,22.4,33.8,10.2,0.0
12/07/2009,24.0,34.0,15.4,0.0
13/07/2009,22.8,35.4,16.0,0.0
14/07/2009,20.3,26.6,15.9,0.0
15/07/2009,22.2,31.5,13.7,0.0
16/07/2009,23.2,35.8,13.7,0.0
17/07/2009,16.3,20.2,13.3,1.2
18/07/2009,17.8,24.0,12.3,0.0
19/07/2009,20.9,28.7,12.4,0.0
20/07/2009,22.2,34.1,12.7,0.6
21/07/2009,25.4,36.2,15.4,0.0
22/07/2009,23.7,36.5,14.6,0.2
23/07/2009,21.9,30.6,13.4,0.0
24/07/2009,19.8,27.4,12.1,0.0
25/07/2009,20.4,28.2,12.2,0.0
26/07/2009,24.6,36.3,12.0,0.2
27/07/2009,19.7,23.0,17.1,0.0
28/07/2009,23.5,33.5,15.6,0.0
29/07/2009,21.7,32.4,15.4,0.0
30/07/2009,19.5,24.4,14.8,0.0
31/07/2009,21.4,34.6,9.9,0.0
01/08/2009,19.2,29.1,13.3,1.4
02/08/2009,18.4,23.7,15.2,0.0
03/08/2009,20.1,27.2,14.8,0.0
04/08/2009,23.3,34.0,11.3,0.0
05/08/2009,25.0,36.3,17.0,6.6
06/08/2009,21.2,29.8,17.5,1.4
07/08/2009,18.0,19.6,16.1,0.0
08/08/2009,17.6,20.5,16.0,0.0
09/08/2009,17.8,22.1,15.3,0.0
10/08/2009,19.7,25.2,15.8,0.0
11/08/2009,21.6,29.7,17.5,0.0
12/08/2009,22.0,29.3,14.2,0.0
13/08/2009,23.1,29.2,18.3,0.0
14/08/2009,24.8,35.7,14.9,0.0
15/08/2009,26.8,37.1,16.0,0.0
16/08/2009,25.7,35.9,16.5,0.0
17/08/2009,24.0,34.4,16.9,0.0
18/08/2009,27.2,37.8,18.6,0.0
19/08/2009,26.2,36.5,15.2,0.0
20/08/2009,24.1,34.6,18.0,0.0
21/08/2009,20.9,25.7,17.0,0.0
22/08/2009,21.6,29.5,14.1,0.0
23/08/2009,25.1,36.8,13.4,0.0
24/08/2009,21.5,28.7,18.3,0.0
25/08/2009,18.9,22.6,15.0,6.2
26/08/2009,21.3,31.8,12.6,0.2
27/08/2009,23.2,34.0,13.7,0.0
28/08/2009,20.0,23.6,15.8,0.0
29/08/2009,17.4,21.7,14.3,0.0
30/08/2009,19.0,26.8,11.6,0.0
31/08/2009,22.0,32.6,8.9,0.0
01/09/2009,21.1,26.0,17.2,0.0
02/09/2009,21.6,29.7,16.0,0.0
03/09/2009,18.7,24.7,13.5,0.0
04/09/2009,16.3,20.1,12.0,0.0
05/09/2009,16.3,21.8,12.4,0.0
06/09/2009,19.0,30.5,6.1,0.0
07/09/2009,22.2,30.4,13.2,0.0
08/09/2009,22.5,31.9,14.7,0.0
09/09/2009,21.0,29.6,12.2,0.0
10/09/2009,21.7,29.6,13.5,0.0
11/09/2009,20.8,27.1,15.4,0.0
12/09/2009,19.3,26.1,14.5,0.0
13/09/2009,17.8,24.6,12.6,0.0
14/09/2009,16.3,20.0,14.6,0.0
15/09/2009,15.4,20.5,11.8,0.0
16/09/2009,13.9,17.5,10.9,0.0
17/09/2009,13.0,21.9,6.1,9.7
18/09/2009,13.1,14.6,11.8,25.9
19/09/2009,14.4,17.6,11.8,1.6
20/09/2009,15.4,19.1,12.7,0.2
21/09/2009,16.7,20.4,13.4,4.1
22/09/2009,17.9,21.9,13.7,0.0
23/09/2009,17.9,28.3,10.5,0.0
24/09/2009,17.9,24.9,10.9,0.2
25/09/2009,17.4,22.6,14.1,0.0
26/09/2009,17.1,24.6,10.1,0.0
27/09/2009,16.9,25.3,9.5,0.0
28/09/2009,17.9,24.7,11.8,2.9
29/09/2009,17.6,26.8,11.1,0.2
30/09/2009,18.9,24.9,14.6,0.0
01/10/2009,18.0,22.7,14.5,0.0
02/10/2009,15.9,20.1,11.5,0.0
03/10/2009,14.9,22.9,7.4,0.0
04/10/2009,16.2,27.9,6.3,0.0
05/10/2009,21.5,30.3,10.1,0.0
06/10/2009,24.2,29.2,20.0,0.0
07/10/2009,22.6,27.2,17.9,0.0
08/10/2009,18.6,24.5,14.1,3.5
09/10/2009,15.9,22.1,10.2,0.2
10/10/2009,16.7,21.6,13.8,0.0
11/10/2009,16.9,20.0,15.2,6.0
12/10/2009,15.6,18.8,11.9,0.6
13/10/2009,13.8,18.3,10.6,0.0
14/10/2009,13.8,19.4,10.8,0.0
15/10/2009,10.3,15.4,4.9,0.0
16/10/2009,8.0,14.1,3.6,0.0
17/10/2009,10.3,14.6,7.4,0.0
18/10/2009,9.4,15.0,2.1,0.0
19/10/2009,8.1,16.7,-2.3,0.0
20/10/2009,14.2,18.6,10.3,12.1
21/10/2009,12.4,16.8,7.9,0.2
22/10/2009,11.6,14.8,9.6,26.1
23/10/2009,11.4,13.9,7.3,6.2
24/10/2009,15.0,21.1,10.5,0.2
25/10/2009,16.4,19.9,11.8,0.8
26/10/2009,13.5,21.7,7.1,0.2
27/10/2009,12.4,24.0,4.5,0.0
28/10/2009,13.0,20.1,7.9,0.0
29/10/2009,14.8,22.3,9.8,0.2
30/10/2009,14.5,24.6,7.4,0.2
31/10/2009,16.9,23.2,11.8,0.0
01/11/2009,15.0,20.7,10.1,15.2
02/11/2009,11.2,12.9,9.9,0.2
03/11/2009,12.7,18.2,8.7,0.0
04/11/2009,11.0,14.1,6.9,1.6
05/11/2009,7.2,9.9,5.9,7.4
06/11/2009,7.4,9.3,5.5,13.0
07/11/2009,8.3,10.5,6.5,9.0
08/11/2009,7.6,9.2,5.4,51.0
09/11/2009,7.1,8.8,5.4,19.1
10/11/2009,7.6,13.1,3.3,5.6
11/11/2009,11.0,14.7,6.4,1.6
12/11/2009,9.8,16.7,5.2,0.4
13/11/2009,13.2,17.5,7.1,0.0
14/11/2009,14.2,17.7,8.0,0.0
15/11/2009,14.7,19.6,8.4,0.6
16/11/2009,18.3,20.6,14.2,0.0
17/11/2009,15.3,20.7,8.5,0.0
18/11/2009,8.9,15.0,5.1,0.0
19/11/2009,10.2,19.1,4.2,0.2
20/11/2009,10.9,13.9,6.7,0.2
21/11/2009,14.2,19.4,10.1,0.4
22/11/2009,11.1,15.4,5.5,0.2
23/11/2009,7.6,15.2,2.5,0.2
24/11/2009,5.8,14.4,-0.3,0.2
25/11/2009,7.4,11.2,1.9,0.4
26/11/2009,9.6,14.1,5.9,1.6
27/11/2009,5.2,10.5,1.2,0.0
28/11/2009,6.2,11.3,-0.7,0.2
29/11/2009,7.2,11.3,1.1,8.2
30/11/2009,3.5,7.8,0.6,24.9
01/12/2009,6.1,9.5,2.7,8.8
02/12/2009,8.2,11.6,5.4,4.5
03/12/2009,8.5,10.4,7.4,3.1
04/12/2009,9.0,11.6,4.6,1.4
05/12/2009,7.3,12.0,2.9,0.2
06/12/2009,10.0,11.8,7.5,0.2
07/12/2009,11.0,14.2,8.5,0.4
08/12/2009,7.6,13.7,3.1,0.0
09/12/2009,5.7,16.2,1.2,0.2
10/12/2009,6.2,14.9,0.8,0.2
11/12/2009,2.7,9.2,-0.7,0.4
12/12/2009,5.0,8.8,-1.3,0.0
13/12/2009,2.0,4.2,0.6,0.0
14/12/2009,0.8,3.0,-0.7,0.0
15/12/2009,1.5,2.6,-0.5,0.0
16/12/2009,0.5,2.3,-1.6,0.2
17/12/2009,-0.4,2.5,-4.1,3.3
18/12/2009,-1.5,1.8,-5.1,2.3
19/12/2009,-2.7,-0.5,-6.9,1.4
20/12/2009,-3.1,2.3,-6.7,2.7
21/12/2009,2.7,7.2,-1.0,2.9
22/12/2009,7.6,11.4,4.7,2.9
23/12/2009,4.3,7.3,1.2,22.2
24/12/2009,10.5,15.4,3.1,1.4
25/12/2009,5.7,9.4,2.4,0.0
26/12/2009,5.8,7.2,4.6,14.8
27/12/2009,4.4,8.1,-0.5,0.2
28/12/2009,7.8,9.2,5.8,7.4
29/12/2009,10.0,13.1,6.9,1.2
30/12/2009,9.8,15.0,4.6,6.2
31/12/2009,8.0,11.3,4.0,0.8
