Fecha, Temperatura media, Temperatura maxima, Temperatura minima, Precipitacion acumulada
01/01/2011,6.4,11.8,-0.1,0.0
02/01/2011,6.4,8.5,2.2,0.8
03/01/2011,1.7,4.6,-2.6,0.0
04/01/2011,1.8,5.0,-2.4,0.2
05/01/2011,7.3,10.6,3.8,0.6
06/01/2011,12.4,16.5,8.4,0.2
07/01/2011,13.5,15.4,9.1,0.0
08/01/2011,13.0,14.6,10.5,0.8
09/01/2011,7.3,11.2,0.8,0.2
10/01/2011,3.8,10.0,-2.2,1.4
11/01/2011,7.7,11.5,4.4,4.5
12/01/2011,10.8,14.2,8.2,2.7
13/01/2011,6.3,12.4,2.5,0.2
14/01/2011,4.2,6.8,1.5,0.4
15/01/2011,4.7,13.5,-1.3,0.2
16/01/2011,3.3,9.2,-0.9,0.2
17/01/2011,4.7,10.7,0.5,0.0
18/01/2011,4.9,9.7,0.4,0.2
19/01/2011,8.4,11.1,5.9,0.0
20/01/2011,5.1,10.1,0.6,0.0
21/01/2011,0.9,3.9,-1.8,0.0
22/01/2011,-0.7,2.2,-2.6,0.0
23/01/2011,0.4,4.2,-2.6,0.0
24/01/2011,0.8,5.4,-2.2,0.0
25/01/2011,2.0,5.5,-0.1,0.0
26/01/2011,-0.1,7.4,-6.2,0.0
27/01/2011,0.6,5.9,-4.1,0.0
28/01/2011,2.2,5.3,-0.3,18.1
29/01/2011,4.2,7.1,2.1,1.4
30/01/2011,4.6,6.8,3.3,0.0
31/01/2011,3.4,4.4,2.7,0.0
01/02/2011,4.2,5.0,3.0,0.0
02/02/2011,5.9,8.6,2.9,0.0
03/02/2011,7.9,10.9,5.4,0.0
04/02/2011,8.2,13.2,2.9,0.0
05/02/2011,6.9,17.9,-1.7,0.2
06/02/2011,4.3,17.6,-3.5,0.0
07/02/2011,4.6,16.6,-3.5,0.2
08/02/2011,4.1,15.5,-3.0,0.0
09/02/2011,3.6,14.9,-4.2,0.2
10/02/2011,4.5,14.0,-2.6,0.2
11/02/2011,4.2,12.6,-1.7,0.0
12/02/2011,3.0,11.1,-3.5,0.2
13/02/2011,5.1,12.4,-2.8,5.8
14/02/2011,6.4,10.4,1.0,1.0
15/02/2011,5.5,7.4,3.3,3.3
16/02/2011,6.5,10.8,0.6,0.4
17/02/2011,6.9,11.5,2.6,0.0
18/02/2011,8.4,14.7,3.4,0.0
19/02/2011,7.5,9.6,4.6,6.4
20/02/2011,6.0,13.8,1.0,0.6
21/02/2011,7.3,12.2,4.6,35.1
22/02/2011,10.4,12.2,8.4,16.6
23/02/2011,10.5,12.6,9.2,0.8
24/02/2011,10.0,12.8,8.0,0.0
25/02/2011,11.3,17.3,7.6,0.0
26/02/2011,9.9,12.0,7.4,1.0
27/02/2011,5.8,8.2,3.3,14.0
28/02/2011,3.9,6.9,0.8,24.3
01/03/2011,4.1,6.6,1.7,0.6
02/03/2011,5.2,7.0,3.8,0.0
03/03/2011,4.0,6.4,1.8,0.2
04/03/2011,2.6,7.2,0.1,2.9
05/03/2011,4.7,13.2,-0.9,0.0
06/03/2011,5.5,15.7,-2.3,0.2
07/03/2011,6.3,17.0,-2.0,0.2
08/03/2011,8.9,12.8,2.8,0.0
09/03/2011,8.5,14.8,3.0,0.0
10/03/2011,7.6,18.0,-0.1,0.2
11/03/2011,8.7,17.5,0.1,0.2
12/03/2011,9.2,12.2,7.1,0.6
13/03/2011,9.6,16.0,3.1,0.0
14/03/2011,11.9,14.7,5.9,0.0
15/03/2011,11.1,13.0,9.5,25.3
16/03/2011,10.8,12.9,9.4,19.7
17/03/2011,9.6,10.8,7.4,6.2
18/03/2011,9.4,14.3,6.6,0.0
19/03/2011,9.5,12.6,6.9,0.0
20/03/2011,9.2,13.9,4.8,0.0
21/03/2011,7.9,16.7,0.7,0.0
22/03/2011,7.3,10.7,3.0,0.0
23/03/2011,8.2,14.9,-1.0,0.0
24/03/2011,9.4,12.2,5.2,0.8
25/03/2011,11.0,17.1,6.7,0.0
26/03/2011,12.2,19.1,4.0,0.4
27/03/2011,10.0,13.6,5.6,8.0
28/03/2011,10.1,15.6,5.3,1.9
29/03/2011,11.0,15.0,8.6,8.0
30/03/2011,11.0,13.3,7.1,1.9
31/03/2011,14.1,21.0,7.1,0.0
01/04/2011,14.1,25.0,3.8,0.2
02/04/2011,14.9,24.9,8.1,0.0
03/04/2011,10.6,12.3,8.4,3.7
04/04/2011,10.4,14.2,5.7,0.0
05/04/2011,13.3,24.4,3.3,0.0
06/04/2011,15.4,25.9,6.3,0.0
07/04/2011,16.1,26.5,6.8,0.2
08/04/2011,17.0,30.0,6.5,0.0
09/04/2011,16.3,27.6,7.4,0.0
10/04/2011,12.6,14.7,10.9,0.2
11/04/2011,11.9,12.5,11.1,0.0
12/04/2011,11.3,14.8,6.7,0.0
13/04/2011,12.7,22.9,5.7,0.0
14/04/2011,11.3,16.6,5.7,0.0
15/04/2011,11.1,16.0,7.7,0.0
16/04/2011,11.8,20.0,5.5,0.0
17/04/2011,13.2,21.7,3.8,0.0
18/04/2011,14.3,22.0,5.5,0.0
19/04/2011,14.4,20.3,6.5,0.0
20/04/2011,15.0,19.0,10.3,1.0
21/04/2011,15.4,19.6,11.5,0.4
22/04/2011,13.4,15.6,10.1,2.3
23/04/2011,13.4,18.8,9.2,1.6
24/04/2011,13.4,17.7,11.0,4.1
25/04/2011,14.0,17.3,11.8,0.8
26/04/2011,14.1,18.3,10.1,0.0
27/04/2011,14.3,19.4,9.7,0.0
28/04/2011,14.2,20.2,9.3,0.0
29/04/2011,13.3,22.1,5.0,0.0
30/04/2011,14.5,22.1,6.7,0.0
01/05/2011,17.5,22.3,13.5,0.0
02/05/2011,16.2,21.7,9.9,0.0
03/05/2011,13.5,17.9,8.4,0.0
04/05/2011,14.1,20.5,8.0,0.0
05/05/2011,16.3,24.9,5.5,0.0
06/05/2011,18.6,24.7,11.0,3.1
07/05/2011,13.3,16.9,10.3,17.9
08/05/2011,15.8,23.6,9.5,0.0
09/05/2011,17.6,27.1,7.7,0.0
10/05/2011,18.1,26.7,9.4,0.0
11/05/2011,18.8,29.5,9.2,0.4
12/05/2011,16.1,19.6,12.2,0.0
13/05/2011,17.1,25.7,10.2,0.0
14/05/2011,12.9,15.2,8.6,8.6
15/05/2011,12.1,16.7,8.6,0.0
16/05/2011,15.0,21.4,8.0,0.0
17/05/2011,16.7,26.9,5.7,0.0
18/05/2011,18.3,26.9,8.1,0.0
19/05/2011,15.9,24.0,9.9,7.4
20/05/2011,15.8,23.4,8.0,0.2
21/05/2011,18.9,27.2,10.8,0.0
22/05/2011,16.6,20.5,12.8,0.0
23/05/2011,19.2,29.5,9.0,0.0
24/05/2011,17.5,22.3,13.1,0.0
25/05/2011,20.2,32.5,8.9,2.9
26/05/2011,16.1,19.5,12.4,0.0
27/05/2011,13.5,17.6,9.9,0.0
28/05/2011,15.9,24.0,6.6,0.0
29/05/2011,18.9,30.2,7.1,0.0
30/05/2011,18.3,26.1,13.1,26.9
31/05/2011,13.0,15.6,9.2,3.1
01/06/2011,12.7,16.4,8.5,0.6
02/06/2011,14.7,17.5,12.9,0.0
03/06/2011,16.8,23.0,8.5,0.0
04/06/2011,17.5,24.0,12.4,2.3
05/06/2011,16.4,23.6,9.9,0.0
06/06/2011,16.2,23.3,11.4,56.7
07/06/2011,13.2,15.9,11.2,8.2
08/06/2011,13.0,18.2,9.9,0.8
09/06/2011,14.8,22.8,7.8,9.5
10/06/2011,13.4,17.7,9.0,1.0
11/06/2011,14.9,21.4,8.3,0.0
12/06/2011,18.8,28.1,9.6,0.0
13/06/2011,18.7,26.1,11.2,0.0
14/06/2011,20.8,29.7,12.4,0.0
15/06/2011,21.3,30.6,15.0,0.0
16/06/2011,17.1,19.8,12.9,0.0
17/06/2011,17.7,28.5,10.4,0.0
18/06/2011,15.2,19.5,11.4,0.0
19/06/2011,17.8,25.7,8.2,0.0
20/06/2011,21.9,33.1,9.6,0.0
21/06/2011,22.1,34.0,14.6,24.9
22/06/2011,16.8,20.6,13.8,0.0
23/06/2011,15.8,20.7,11.5,0.0
24/06/2011,16.9,23.7,9.9,0.0
25/06/2011,21.8,33.4,9.9,0.0
26/06/2011,25.6,37.4,13.5,0.0
27/06/2011,27.1,36.5,15.6,0.0
28/06/2011,18.8,22.6,14.6,0.4
29/06/2011,14.3,17.1,12.4,0.2
30/06/2011,16.2,21.1,12.7,0.0
01/07/2011,18.4,25.1,11.3,0.0
02/07/2011,21.0,32.7,8.4,0.0
03/07/2011,21.7,31.0,16.2,0.0
04/07/2011,20.1,25.9,13.2,0.0
05/07/2011,20.4,33.2,9.2,0.0
06/07/2011,18.5,23.8,13.7,0.0
07/07/2011,16.3,21.4,11.4,0.0
08/07/2011,19.6,29.2,7.6,0.0
09/07/2011,21.7,28.3,16.9,1.9
10/07/2011,19.8,23.8,17.2,0.0
11/07/2011,24.2,34.2,15.7,0.0
12/07/2011,19.1,26.3,15.0,0.4
13/07/2011,16.2,19.4,14.1,0.4
14/07/2011,18.0,22.8,13.5,0.0
15/07/2011,19.4,27.5,9.3,0.0
16/07/2011,21.5,29.2,14.7,0.0
17/07/2011,16.0,20.6,12.8,2.5
18/07/2011,17.8,25.2,10.5,1.4
19/07/2011,14.8,17.5,13.1,2.5
20/07/2011,17.3,23.8,12.2,0.0
21/07/2011,17.3,20.7,14.2,0.0
22/07/2011,15.4,19.6,13.0,0.0
23/07/2011,15.2,19.5,12.4,0.0
24/07/2011,16.4,19.9,12.8,0.0
25/07/2011,18.7,21.6,16.5,0.0
26/07/2011,18.3,21.4,15.6,0.0
27/07/2011,18.0,22.2,14.9,0.0
28/07/2011,18.9,23.5,15.6,0.0
29/07/2011,20.0,25.9,14.8,0.0
30/07/2011,20.3,25.9,15.7,0.0
31/07/2011,20.5,27.4,13.2,0.0
01/08/2011,23.5,34.1,10.4,0.0
02/08/2011,23.4,30.8,19.1,1.0
03/08/2011,21.0,25.9,15.3,0.0
04/08/2011,21.8,31.2,11.8,0.0
05/08/2011,21.2,30.3,16.0,0.0
06/08/2011,21.6,31.5,15.2,0.8
07/08/2011,20.1,27.7,15.4,0.0
08/08/2011,17.0,21.1,13.3,0.2
09/08/2011,16.7,21.3,12.2,0.0
10/08/2011,19.9,28.1,13.3,0.0
11/08/2011,20.2,32.3,9.5,0.0
12/08/2011,20.2,31.1,12.4,0.0
13/08/2011,23.3,34.2,15.0,0.0
14/08/2011,22.2,28.3,15.7,0.0
15/08/2011,21.8,27.4,17.7,0.0
16/08/2011,23.8,35.3,14.0,0.0
17/08/2011,23.5,36.4,16.8,0.0
18/08/2011,21.9,30.7,14.5,0.2
19/08/2011,25.9,37.6,14.6,0.2
20/08/2011,29.0,39.5,16.8,0.2
21/08/2011,29.3,38.6,20.7,0.0
22/08/2011,25.7,34.1,20.1,0.0
23/08/2011,22.3,29.7,16.0,0.0
24/08/2011,20.1,23.8,16.9,0.0
25/08/2011,24.2,33.1,15.4,0.0
26/08/2011,18.7,22.4,14.2,1.2
27/08/2011,16.6,21.7,10.8,0.0
28/08/2011,18.2,29.9,7.2,0.0
29/08/2011,18.9,25.1,13.8,0.0
30/08/2011,21.3,31.9,12.6,0.0
31/08/2011,21.5,29.9,14.3,0.0
01/09/2011,-,-,-,-
02/09/2011,-,-,-,-
03/09/2011,18.9,23.4,15.8,0.0
04/09/2011,17.7,23.1,14.1,0.0
05/09/2011,16.3,21.3,11.2,0.0
06/09/2011,17.5,29.6,6.8,0.0
07/09/2011,20.8,26.5,11.5,0.0
08/09/2011,21.1,29.8,13.3,0.0
09/09/2011,22.0,34.6,11.6,0.0
10/09/2011,22.7,34.8,13.1,0.0
11/09/2011,18.6,25.3,12.6,0.0
12/09/2011,19.7,29.4,9.9,0.0
13/09/2011,20.0,30.7,12.3,0.2
14/09/2011,20.8,27.2,17.4,0.2
15/09/2011,22.8,34.5,14.6,0.0
16/09/2011,20.7,29.5,14.5,2.5
17/09/2011,18.7,23.6,15.4,0.2
18/09/2011,14.2,16.7,11.6,2.3
19/09/2011,14.1,17.5,11.7,0.2
20/09/2011,17.8,25.9,10.7,0.0
21/09/2011,17.8,29.9,7.5,0.0
22/09/2011,18.6,23.6,15.1,0.0
23/09/2011,19.2,28.4,10.6,0.2
24/09/2011,18.9,23.8,12.4,0.0
25/09/2011,18.1,27.9,9.7,0.0
26/09/2011,18.9,30.4,9.4,0.0
27/09/2011,18.8,30.3,9.1,0.0
28/09/2011,19.1,29.6,9.9,0.0
29/09/2011,17.8,28.3,8.6,0.0
30/09/2011,17.3,27.3,8.3,0.0
01/10/2011,16.3,26.6,6.8,0.0
02/10/2011,15.8,28.5,5.7,0.0
03/10/2011,17.0,29.2,4.6,0.0
04/10/2011,19.4,27.6,10.4,0.0
05/10/2011,19.1,25.4,12.7,0.0
06/10/2011,16.4,22.9,8.5,0.4
07/10/2011,13.2,16.5,10.3,7.6
08/10/2011,12.6,15.4,10.3,0.6
09/10/2011,14.3,18.3,11.6,0.0
10/10/2011,16.4,29.3,7.6,0.0
11/10/2011,17.4,28.5,6.9,0.2
12/10/2011,16.9,25.2,8.3,0.0
13/10/2011,16.3,20.9,14.0,0.0
14/10/2011,15.4,24.7,7.5,0.0
15/10/2011,12.7,23.6,5.1,0.0
16/10/2011,12.9,24.0,4.4,0.2
17/10/2011,11.4,24.2,2.5,0.2
18/10/2011,12.6,24.5,2.9,0.0
19/10/2011,11.5,18.2,8.3,2.7
20/10/2011,10.3,14.5,5.9,0.0
21/10/2011,8.8,17.5,1.2,0.0
22/10/2011,9.8,20.4,0.2,0.0
23/10/2011,15.5,21.5,4.9,0.0
24/10/2011,14.8,17.7,6.8,4.9
25/10/2011,8.5,15.6,2.8,0.2
26/10/2011,10.9,17.5,0.4,0.0
27/10/2011,14.4,17.8,8.7,6.0
28/10/2011,-,-,-,-
29/10/2011,-,-,-,-
30/10/2011,-,-,-,-
31/10/2011,-,-,-,-
01/11/2011,-,-,-,-
02/11/2011,-,-,-,-
03/11/2011,-,-,-,-
04/11/2011,-,-,-,-
05/11/2011,-,-,-,-
06/11/2011,-,-,-,-
07/11/2011,-,-,-,-
08/11/2011,-,-,-,-
09/11/2011,11.6,16.8,5.8,0.6
10/11/2011,12.4,18.2,8.8,3.3
11/11/2011,13.8,19.6,8.2,0.0
12/11/2011,13.1,20.4,5.8,0.2
13/11/2011,15.6,19.4,11.6,0.0
14/11/2011,15.3,16.3,12.7,0.0
15/11/2011,11.5,15.1,5.9,5.8
16/11/2011,9.8,15.5,5.0,0.0
17/11/2011,8.2,15.4,3.0,0.2
18/11/2011,10.3,15.4,4.3,0.8
19/11/2011,12.7,15.8,9.6,0.0
20/11/2011,13.1,15.9,10.5,1.0
21/11/2011,11.7,17.3,5.5,0.0
22/11/2011,9.1,13.1,3.8,0.8
23/11/2011,-,-,-,-
24/11/2011,-,-,-,-
25/11/2011,-,-,-,-
26/11/2011,-,-,-,-
27/11/2011,-,-,-,-
28/11/2011,-,-,-,-
29/11/2011,-,-,-,-
30/11/2011,-,-,-,-
01/12/2011,-,-,-,-
02/12/2011,-,-,-,-
03/12/2011,-,-,-,-
04/12/2011,-,-,-,-
05/12/2011,-,-,-,-
06/12/2011,-,-,-,-
07/12/2011,-,-,-,-
08/12/2011,-,-,-,-
09/12/2011,-,-,-,-
10/12/2011,-,-,-,-
11/12/2011,-,-,-,-
12/12/2011,-,-,-,-
13/12/2011,-,-,-,-
14/12/2011,-,-,-,-
15/12/2011,-,-,-,-
16/12/2011,-,-,-,-
17/12/2011,-,-,-,-
18/12/2011,2.6,5.5,0.6,14.0
19/12/2011,4.2,6.6,1.4,3.7
20/12/2011,7.2,11.9,3.0,5.8
21/12/2011,11.2,12.8,9.9,0.8
22/12/2011,9.8,11.1,7.0,0.0
23/12/2011,7.6,12.4,2.5,0.2
24/12/2011,6.8,8.6,4.2,1.6
25/12/2011,4.6,8.8,-1.4,0.0
26/12/2011,1.0,9.1,-3.5,0.2
27/12/2011,0.8,9.7,-3.9,0.0
28/12/2011,3.7,10.8,-4.1,0.4
29/12/2011,6.1,8.4,4.3,3.3
30/12/2011,7.0,9.3,5.1,0.2
31/12/2011,9.5,11.7,7.6,0.0
