Fecha, Temperatura media, Temperatura maxima, Temperatura minima, Precipitacion acumulada
01/01/2014,8.0,10.8,2.9,3.8
02/01/2014,10.6,12.8,7.1,2.6
03/01/2014,11.4,13.5,9.5,1.8
04/01/2014,9.0,12.7,2.8,11.7
05/01/2014,3.3,6.2,1.6,2.4
06/01/2014,7.4,11.9,2.1,0.2
07/01/2014,11.7,15.2,6.7,0.0
08/01/2014,12.2,17.4,6.6,0.0
09/01/2014,6.7,12.2,1.9,0.0
10/01/2014,4.2,11.4,-1.1,0.0
11/01/2014,3.8,7.1,1.7,0.2
12/01/2014,4.8,6.5,2.8,3.0
13/01/2014,4.3,9.3,-2.9,1.6
14/01/2014,3.6,6.5,0.8,14.9
15/01/2014,6.9,11.5,3.5,0.4
16/01/2014,9.0,11.5,6.3,3.8
17/01/2014,7.1,8.7,5.1,0.0
18/01/2014,6.4,8.6,4.0,20.6
19/01/2014,4.4,8.6,1.7,0.2
20/01/2014,3.3,4.7,1.4,4.2
21/01/2014,4.5,8.9,0.8,0.0
22/01/2014,5.4,8.5,3.6,5.5
23/01/2014,5.9,8.6,2.9,1.4
24/01/2014,8.1,10.8,6.4,12.1
25/01/2014,10.2,13.4,6.6,0.4
26/01/2014,10.6,13.5,7.7,0.2
27/01/2014,5.6,9.1,2.6,2.8
28/01/2014,3.6,6.6,0.3,4.2
29/01/2014,4.1,9.0,0.8,0.0
30/01/2014,3.5,6.0,1.9,3.2
31/01/2014,5.3,8.8,2.3,2.6
01/02/2014,5.1,8.8,1.3,10.9
02/02/2014,3.2,7.9,-1.1,0.0
03/02/2014,2.8,7.5,-2.3,1.2
04/02/2014,3.5,7.8,-1.0,11.7
05/02/2014,7.1,11.3,1.7,10.5
06/02/2014,10.2,13.9,1.7,9.7
07/02/2014,8.2,11.1,4.9,1.2
08/02/2014,8.3,12.1,0.6,4.8
09/02/2014,3.9,7.8,-0.1,5.4
10/02/2014,5.0,7.6,1.9,4.8
11/02/2014,1.9,4.0,-1.2,6.5
12/02/2014,4.1,9.3,-1.5,0.4
13/02/2014,7.5,16.1,1.6,0.2
14/02/2014,13.2,16.8,4.2,0.2
15/02/2014,9.2,14.4,4.1,1.2
16/02/2014,4.9,10.7,-0.1,0.0
17/02/2014,5.1,11.9,-2.3,0.2
18/02/2014,5.4,9.0,2.7,0.0
19/02/2014,6.9,11.0,1.6,0.0
20/02/2014,6.4,14.5,-0.5,2.4
21/02/2014,5.5,9.0,-0.9,0.4
22/02/2014,3.3,11.3,-3.4,0.0
23/02/2014,6.8,14.5,-2.3,0.2
24/02/2014,10.5,13.7,7.5,0.0
25/02/2014,7.5,13.2,2.2,8.1
26/02/2014,3.2,8.4,0.2,0.8
27/02/2014,2.3,7.9,-0.6,4.4
28/02/2014,3.2,7.8,-0.4,10.5
01/03/2014,3.3,5.1,1.7,15.4
02/03/2014,8.2,13.0,2.1,1.4
03/03/2014,5.4,10.4,1.6,24.4
04/03/2014,5.6,8.4,3.4,15.3
05/03/2014,8.8,13.0,4.3,3.8
06/03/2014,9.0,14.9,3.1,0.0
07/03/2014,7.6,17.3,-0.9,0.0
08/03/2014,9.0,19.0,-0.3,0.0
09/03/2014,13.0,18.5,2.9,0.0
10/03/2014,8.1,19.0,-1.3,0.0
11/03/2014,10.9,18.6,4.4,0.0
12/03/2014,8.4,16.7,0.6,0.0
13/03/2014,8.0,15.0,2.0,0.0
14/03/2014,8.5,18.5,-0.7,0.0
15/03/2014,9.6,14.3,4.4,0.0
16/03/2014,11.6,19.6,5.5,0.0
17/03/2014,11.6,24.4,1.2,0.0
18/03/2014,9.4,14.2,4.7,0.0
19/03/2014,10.2,18.7,2.9,0.0
20/03/2014,11.7,21.0,2.1,0.0
21/03/2014,13.2,19.2,6.8,0.0
22/03/2014,8.6,14.2,2.9,5.5
23/03/2014,3.3,7.5,0.1,5.0
24/03/2014,3.5,7.1,-2.4,7.7
25/03/2014,5.0,8.1,0.1,12.9
26/03/2014,3.6,8.0,-0.1,15.4
27/03/2014,5.6,12.2,1.0,0.8
28/03/2014,10.5,14.1,4.3,0.2
29/03/2014,12.4,15.9,8.8,0.0
30/03/2014,11.7,13.2,9.9,0.0
31/03/2014,13.1,16.9,6.1,0.0
01/04/2014,15.6,19.1,11.4,0.4
02/04/2014,13.6,17.2,9.3,21.4
03/04/2014,9.3,10.6,8.4,7.5
04/04/2014,10.6,16.0,6.6,0.2
05/04/2014,12.5,19.1,7.1,0.0
06/04/2014,14.8,23.9,4.9,0.0
07/04/2014,15.5,24.4,6.6,1.0
08/04/2014,12.3,17.6,5.3,0.0
09/04/2014,12.3,23.9,2.0,0.0
10/04/2014,14.7,24.3,5.5,0.4
11/04/2014,14.2,21.7,9.1,0.4
12/04/2014,12.2,20.2,6.2,0.0
13/04/2014,12.8,21.3,4.9,0.0
14/04/2014,14.7,23.6,5.8,0.0
15/04/2014,15.7,25.7,8.4,0.0
16/04/2014,15.0,26.1,5.2,0.0
17/04/2014,13.8,23.4,4.5,0.0
18/04/2014,14.1,23.9,3.4,0.0
19/04/2014,12.5,18.1,3.8,7.1
20/04/2014,9.3,11.9,4.7,19.8
21/04/2014,9.1,17.6,2.7,2.2
22/04/2014,11.8,17.8,6.5,0.0
23/04/2014,11.7,19.9,3.3,1.0
24/04/2014,10.9,16.1,7.9,7.3
25/04/2014,9.2,14.1,5.3,0.6
26/04/2014,9.2,14.3,4.7,5.7
27/04/2014,10.0,15.5,4.9,0.4
28/04/2014,11.0,14.4,8.0,0.6
29/04/2014,13.0,18.7,7.9,0.0
30/04/2014,13.3,17.8,9.7,0.0
01/05/2014,12.5,17.3,8.2,0.0
02/05/2014,10.6,14.0,8.0,0.4
03/05/2014,11.4,16.0,6.8,0.0
04/05/2014,12.3,21.0,3.6,0.0
05/05/2014,14.4,24.4,2.9,0.0
06/05/2014,15.9,22.6,10.6,0.0
07/05/2014,15.8,22.3,8.6,0.0
08/05/2014,14.5,24.7,4.9,0.0
09/05/2014,15.4,22.0,8.2,0.0
10/05/2014,15.8,25.3,6.5,0.0
11/05/2014,12.9,16.9,6.7,0.0
12/05/2014,11.7,19.1,4.8,0.0
13/05/2014,10.5,14.9,6.2,0.0
14/05/2014,12.2,19.7,2.7,0.0
15/05/2014,13.6,23.1,4.1,0.0
16/05/2014,13.2,22.4,2.5,0.0
17/05/2014,13.8,21.7,4.5,0.0
18/05/2014,15.7,24.2,3.6,0.0
19/05/2014,17.9,22.7,11.0,0.8
20/05/2014,16.0,18.2,12.5,10.3
21/05/2014,16.2,19.5,11.4,4.0
22/05/2014,12.3,15.9,8.9,2.2
23/05/2014,11.6,15.6,5.8,4.8
24/05/2014,10.4,19.4,3.6,36.2
25/05/2014,11.4,17.6,8.5,26.7
26/05/2014,11.2,16.5,8.0,3.8
27/05/2014,13.5,20.9,6.2,0.0
28/05/2014,10.8,13.8,7.1,8.7
29/05/2014,13.0,19.3,5.3,0.0
30/05/2014,13.1,17.8,9.0,0.4
31/05/2014,13.9,19.9,8.3,0.0
01/06/2014,15.1,21.5,9.1,0.0
02/06/2014,13.8,20.0,6.6,0.0
03/06/2014,16.5,24.6,8.0,0.0
04/06/2014,13.1,16.8,6.6,0.0
05/06/2014,17.8,26.5,5.6,0.0
06/06/2014,24.1,30.2,17.0,2.0
07/06/2014,24.6,30.3,15.6,0.0
08/06/2014,22.9,31.5,13.1,0.0
09/06/2014,21.4,31.7,13.1,3.2
10/06/2014,18.5,27.1,13.4,0.0
11/06/2014,21.2,29.5,12.7,0.0
12/06/2014,22.1,31.7,13.8,0.0
13/06/2014,21.7,29.6,13.8,0.0
14/06/2014,18.6,24.1,12.4,0.0
15/06/2014,17.8,22.8,12.8,0.0
16/06/2014,17.4,22.8,11.2,0.0
17/06/2014,17.4,24.7,9.2,0.0
18/06/2014,17.6,25.7,9.3,0.0
19/06/2014,18.9,27.8,7.4,0.0
20/06/2014,22.4,32.5,11.2,0.8
21/06/2014,24.1,32.2,15.1,0.6
22/06/2014,21.5,30.6,14.0,11.1
23/06/2014,20.0,28.5,14.2,0.6
24/06/2014,17.3,24.7,13.9,24.6
25/06/2014,18.1,23.1,13.1,0.4
26/06/2014,16.5,21.7,11.5,0.6
27/06/2014,19.2,28.5,8.8,0.0
28/06/2014,19.7,29.2,12.9,1.6
29/06/2014,15.0,20.6,10.5,0.0
30/06/2014,19.0,28.6,8.0,0.0
01/07/2014,18.4,27.3,11.8,28.9
02/07/2014,16.0,23.5,13.2,24.2
03/07/2014,17.0,23.9,11.9,11.9
04/07/2014,17.8,22.6,14.1,18.2
05/07/2014,21.3,30.0,12.2,0.0
06/07/2014,18.5,25.2,13.0,13.5
07/07/2014,15.1,19.5,10.3,0.4
08/07/2014,15.8,20.9,9.7,0.0
09/07/2014,15.3,18.9,12.7,0.0
10/07/2014,15.5,19.6,11.7,0.0
11/07/2014,16.3,20.9,10.1,0.0
12/07/2014,16.8,21.1,13.0,0.0
13/07/2014,18.9,26.8,10.8,0.0
14/07/2014,19.6,25.2,14.3,0.0
15/07/2014,21.4,31.4,11.0,0.0
16/07/2014,24.5,34.8,13.4,0.0
17/07/2014,27.0,34.9,17.8,0.0
18/07/2014,26.7,34.6,16.4,0.0
19/07/2014,24.1,26.8,18.2,0.0
20/07/2014,18.4,23.7,13.2,0.0
21/07/2014,18.1,23.3,14.3,0.0
22/07/2014,19.5,27.0,11.4,0.0
23/07/2014,21.0,30.3,11.7,0.0
24/07/2014,21.9,30.6,14.1,0.6
25/07/2014,21.5,28.3,17.1,5.9
26/07/2014,21.6,30.0,14.2,0.0
27/07/2014,21.4,28.3,13.2,0.0
28/07/2014,18.9,23.6,14.9,0.0
29/07/2014,17.6,22.7,13.7,0.2
30/07/2014,19.2,25.2,11.7,0.0
31/07/2014,20.7,29.5,11.0,0.2
01/08/2014,20.4,29.5,13.9,0.0
02/08/2014,20.3,26.3,15.9,0.8
03/08/2014,20.9,27.5,14.4,0.8
04/08/2014,19.9,27.4,15.8,0.8
05/08/2014,20.5,29.0,12.8,0.0
06/08/2014,20.7,28.9,12.7,0.0
07/08/2014,22.7,29.9,15.2,0.0
08/08/2014,21.3,32.9,15.2,7.7
09/08/2014,22.0,29.1,15.0,0.2
10/08/2014,24.7,33.3,18.8,0.0
11/08/2014,20.3,25.8,16.0,0.0
12/08/2014,21.3,30.6,12.2,0.0
13/08/2014,17.2,21.6,12.6,0.0
14/08/2014,17.1,23.3,9.7,0.0
15/08/2014,17.5,24.4,9.7,0.0
16/08/2014,16.9,22.1,11.5,0.0
17/08/2014,18.1,29.9,5.9,0.0
18/08/2014,19.4,32.1,10.5,1.6
19/08/2014,19.7,26.9,14.3,0.0
20/08/2014,18.1,25.3,12.7,0.0
21/08/2014,18.5,27.1,10.3,0.0
22/08/2014,16.4,18.7,13.2,0.8
23/08/2014,17.0,24.4,8.4,0.0
24/08/2014,19.4,31.3,7.4,0.0
25/08/2014,22.2,34.0,10.1,0.0
26/08/2014,23.1,31.6,12.8,0.0
27/08/2014,24.1,32.0,17.2,0.0
28/08/2014,23.1,35.1,13.6,0.0
29/08/2014,21.6,27.9,17.1,0.0
30/08/2014,20.5,27.5,16.8,0.0
31/08/2014,21.5,29.7,13.8,0.0
01/09/2014,22.3,31.9,12.4,0.0
02/09/2014,21.8,32.5,11.3,0.0
03/09/2014,22.3,33.3,10.3,0.0
04/09/2014,21.1,29.7,15.0,0.0
05/09/2014,21.9,30.5,14.7,0.0
06/09/2014,22.4,32.6,12.9,0.0
07/09/2014,23.0,32.5,15.1,5.8
08/09/2014,20.9,28.7,15.3,0.4
09/09/2014,21.3,30.6,14.1,0.0
10/09/2014,22.5,31.9,13.1,0.0
11/09/2014,23.0,30.9,16.7,0.4
12/09/2014,22.0,29.8,14.8,0.0
13/09/2014,20.9,30.9,9.6,0.0
14/09/2014,19.7,29.0,11.7,0.2
15/09/2014,19.3,27.9,12.6,0.0
16/09/2014,19.7,28.1,12.8,6.6
17/09/2014,22.3,28.0,17.9,1.8
18/09/2014,20.5,27.5,13.6,0.0
19/09/2014,20.6,27.1,14.4,0.0
20/09/2014,19.3,28.2,10.7,1.8
21/09/2014,19.6,27.4,12.5,0.0
22/09/2014,16.5,18.2,15.1,11.5
23/09/2014,15.5,20.6,10.9,0.0
24/09/2014,14.2,20.3,8.2,0.0
25/09/2014,16.1,23.3,9.2,0.0
26/09/2014,14.0,24.2,4.8,0.0
27/09/2014,14.9,25.0,5.3,0.0
28/09/2014,16.5,21.2,11.3,0.4
29/09/2014,16.3,21.3,12.5,1.0
30/09/2014,17.3,22.8,12.5,0.0
01/10/2014,16.7,25.6,8.0,0.0
02/10/2014,17.2,26.1,8.0,0.0
03/10/2014,16.6,26.0,8.2,0.0
04/10/2014,16.7,25.5,7.6,0.0
05/10/2014,15.7,21.2,8.7,0.0
06/10/2014,15.4,24.2,6.6,0.0
07/10/2014,21.2,24.4,13.0,0.2
08/10/2014,20.6,24.7,17.1,5.7
09/10/2014,17.3,20.9,14.6,13.1
10/10/2014,14.5,18.3,10.7,16.8
11/10/2014,16.2,21.0,11.0,0.6
12/10/2014,16.8,19.6,13.6,8.9
13/10/2014,14.3,18.2,11.4,7.9
14/10/2014,14.3,19.6,9.7,0.0
15/10/2014,12.6,17.8,7.8,1.0
16/10/2014,18.6,23.6,13.9,0.0
17/10/2014,19.8,24.2,13.0,0.0
18/10/2014,21.3,26.4,13.0,0.0
19/10/2014,18.7,27.9,11.4,0.0
20/10/2014,17.0,26.4,9.7,0.0
21/10/2014,16.0,25.0,9.0,0.0
22/10/2014,12.9,16.3,8.3,0.0
23/10/2014,12.8,22.8,4.1,0.0
24/10/2014,15.8,27.1,7.3,0.0
25/10/2014,15.7,25.5,8.5,0.0
26/10/2014,14.8,25.7,7.3,0.0
27/10/2014,12.7,19.8,5.6,0.0
28/10/2014,12.9,20.5,7.7,0.0
29/10/2014,13.2,20.9,8.0,0.0
30/10/2014,12.8,21.7,7.5,0.2
31/10/2014,12.1,20.0,7.1,0.2
01/11/2014,11.2,17.4,7.3,0.2
02/11/2014,12.1,16.7,8.2,5.0
03/11/2014,12.9,16.7,8.6,19.8
04/11/2014,8.1,11.8,5.2,21.8
05/11/2014,6.3,10.0,4.5,0.6
06/11/2014,7.2,11.6,2.2,0.2
07/11/2014,8.6,12.8,4.4,1.8
08/11/2014,7.8,13.7,1.4,0.0
09/11/2014,8.8,11.5,4.5,0.2
10/11/2014,7.0,13.0,1.1,0.2
11/11/2014,8.9,10.2,6.9,9.9
12/11/2014,8.4,15.0,4.0,0.0
13/11/2014,11.7,16.3,4.2,0.2
14/11/2014,12.3,16.6,5.4,12.1
15/11/2014,8.5,13.2,5.2,4.6
16/11/2014,8.8,11.9,5.8,8.3
17/11/2014,7.2,11.0,5.2,2.8
18/11/2014,5.8,12.0,2.9,0.2
19/11/2014,7.6,15.2,3.0,0.0
20/11/2014,8.8,17.0,3.6,0.2
21/11/2014,8.6,17.0,2.9,0.2
22/11/2014,10.2,16.6,5.5,0.2
23/11/2014,18.4,20.8,12.5,1.2
24/11/2014,12.5,15.9,8.8,0.6
25/11/2014,11.8,15.8,9.7,11.1
26/11/2014,10.3,12.5,8.7,9.5
27/11/2014,12.0,14.3,7.3,0.2
28/11/2014,13.6,14.9,12.2,2.8
29/11/2014,11.4,14.3,10.2,15.8
30/11/2014,12.1,15.2,8.6,2.8
01/12/2014,9.2,13.6,5.4,0.2
02/12/2014,7.6,9.3,6.3,0.0
03/12/2014,5.7,9.7,2.0,0.0
04/12/2014,3.3,9.3,-1.4,0.0
05/12/2014,4.8,9.5,0.3,0.0
06/12/2014,4.4,7.0,2.3,0.2
07/12/2014,4.7,8.2,1.6,0.0
08/12/2014,7.3,10.4,5.2,8.7
09/12/2014,4.4,6.9,2.5,0.4
10/12/2014,6.3,9.9,1.0,0.0
11/12/2014,7.8,10.8,1.6,0.4
12/12/2014,4.9,11.0,-0.4,0.4
13/12/2014,9.6,12.2,6.0,0.8
14/12/2014,6.9,8.5,5.5,1.8
15/12/2014,7.0,9.7,3.9,0.8
16/12/2014,7.0,11.5,3.1,6.9
17/12/2014,9.0,12.0,7.5,0.6
18/12/2014,9.4,13.0,5.8,0.0
19/12/2014,7.0,11.3,3.6,0.0
20/12/2014,8.5,13.2,3.6,0.0
21/12/2014,6.4,11.7,0.3,0.0
22/12/2014,0.9,9.3,-3.6,0.2
23/12/2014,-0.1,4.0,-2.8,0.4
24/12/2014,0.3,4.3,-2.2,0.0
25/12/2014,5.3,13.0,-1.4,0.2
26/12/2014,7.7,12.7,3.4,0.2
27/12/2014,7.5,10.1,5.1,12.3
28/12/2014,4.0,7.5,-0.0,5.2
29/12/2014,1.0,4.9,-1.8,0.0
30/12/2014,2.1,8.9,-2.2,0.0
31/12/2014,3.5,12.3,-2.7,0.0
