Fecha, Temperatura media, Temperatura maxima, Temperatura minima, Precipitacion acumulada
01/01/2019,1.7,10.5,-4.2,0.0
02/01/2019,-2.0,5.0,-9.3,0.0
03/01/2019,1.2,12.6,-8.9,0.0
04/01/2019,3.3,11.2,-6.6,0.0
05/01/2019,2.0,10.0,-5.3,0.0
06/01/2019,3.2,12.0,-4.0,0.0
07/01/2019,-2.9,1.8,-5.8,0.0
08/01/2019,0.2,3.3,-5.4,0.2
09/01/2019,1.2,3.8,-1.6,0.7
10/01/2019,-3.2,-1.5,-5.9,0.0
11/01/2019,-2.7,0.3,-6.1,0.0
12/01/2019,1.6,5.2,-1.1,0.0
13/01/2019,3.4,5.2,1.5,0.1
14/01/2019,4.5,6.2,3.3,0.5
15/01/2019,2.7,13.2,-4.7,0.1
16/01/2019,1.8,9.9,-4.4,0.0
17/01/2019,1.0,2.8,-2.5,1.7
18/01/2019,-0.8,1.7,-4.2,0.4
19/01/2019,0.8,3.0,-3.4,3.6
20/01/2019,1.1,3.1,0.0,5.9
21/01/2019,-0.4,0.3,-1.7,1.1
22/01/2019,-0.6,1.1,-2.4,13.3
23/01/2019,0.1,1.6,-0.9,56.7
24/01/2019,-2.2,0.6,-4.2,14.6
25/01/2019,3.3,4.9,-1.1,27.5
26/01/2019,2.3,7.0,-3.5,0.0
27/01/2019,0.2,4.1,-4.1,13.7
28/01/2019,0.8,2.6,-1.0,34.0
29/01/2019,0.6,2.0,-0.8,16.5
30/01/2019,-0.1,2.4,-1.3,19.9
31/01/2019,3.0,7.3,-0.3,38.2
01/02/2019,3.1,5.1,-0.2,0.9
02/02/2019,-1.3,0.0,-3.3,49.5
03/02/2019,-2.8,-1.1,-4.4,2.6
04/02/2019,-1.0,7.8,-13.8,1.9
05/02/2019,4.2,6.6,1.6,1.6
06/02/2019,3.2,8.6,-1.3,0.0
07/02/2019,1.0,5.8,-3.6,0.3
08/02/2019,1.4,11.0,-5.4,0.0
09/02/2019,4.0,8.6,-3.7,0.0
10/02/2019,3.8,6.2,0.9,5.2
11/02/2019,1.7,3.9,0.3,2.6
12/02/2019,-0.1,9.6,-7.3,0.0
13/02/2019,0.8,11.0,-8.1,0.0
14/02/2019,8.5,12.4,5.5,0.0
15/02/2019,3.4,13.2,-5.8,0.0
16/02/2019,4.7,12.4,-8.4,0.0
17/02/2019,9.6,12.6,7.5,0.0
18/02/2019,6.9,11.3,-0.7,0.0
19/02/2019,2.9,11.1,-4.2,0.0
20/02/2019,1.7,11.5,-5.0,0.0
21/02/2019,2.0,12.3,-5.0,0.0
22/02/2019,3.4,16.5,-5.3,0.0
23/02/2019,5.2,14.5,-5.1,0.0
24/02/2019,4.6,14.2,-3.5,0.0
25/02/2019,4.8,15.7,-3.4,0.0
26/02/2019,8.1,17.2,-1.6,0.0
27/02/2019,6.7,20.0,-3.7,0.0
28/02/2019,5.5,11.0,-0.4,0.0
01/03/2019,3.3,10.8,-3.4,0.0
02/03/2019,4.2,11.1,-2.9,0.1
03/03/2019,8.5,15.9,-3.1,0.0
04/03/2019,6.3,12.2,-0.3,0.0
05/03/2019,6.2,11.8,-1.9,0.0
06/03/2019,7.6,10.0,3.1,11.2
07/03/2019,3.3,8.0,-1.8,0.4
08/03/2019,3.6,8.0,-1.4,0.0
09/03/2019,5.8,11.2,-0.7,0.2
10/03/2019,5.2,10.9,-0.4,0.2
11/03/2019,2.9,7.8,-4.8,0.1
12/03/2019,4.4,13.8,-6.8,0.0
13/03/2019,1.3,3.2,-0.2,8.2
14/03/2019,2.5,4.3,1.1,2.3
15/03/2019,4.2,11.0,-3.4,0.0
16/03/2019,7.5,19.6,-5.0,0.0
17/03/2019,3.9,10.4,0.3,0.0
18/03/2019,1.7,4.6,0.1,3.9
19/03/2019,1.1,2.5,-0.0,4.4
20/03/2019,2.8,6.8,-3.4,2.2
21/03/2019,1.8,10.9,-6.8,0.0
22/03/2019,4.4,14.7,-5.8,0.0
23/03/2019,6.6,17.6,-3.1,0.0
24/03/2019,7.3,15.2,-2.7,0.0
25/03/2019,4.3,8.2,-1.7,0.0
26/03/2019,5.6,10.3,0.6,0.0
27/03/2019,5.6,11.2,-3.4,0.0
28/03/2019,3.4,12.2,-4.9,0.0
29/03/2019,8.1,13.6,-3.3,0.0
30/03/2019,8.2,13.7,1.6,0.0
31/03/2019,6.1,12.9,-3.6,0.8
01/04/2019,6.7,9.4,4.2,4.9
02/04/2019,6.9,11.5,3.2,0.5
03/04/2019,1.2,3.6,-1.8,5.6
04/04/2019,2.1,6.6,-2.3,0.4
05/04/2019,3.1,5.0,0.3,7.8
06/04/2019,2.3,5.1,0.2,7.5
07/04/2019,2.8,7.1,-1.0,0.3
08/04/2019,4.0,7.7,-0.7,4.4
09/04/2019,4.4,10.1,-1.8,0.0
10/04/2019,4.4,7.7,2.1,2.8
11/04/2019,3.8,6.0,2.4,3.1
12/04/2019,4.7,8.9,-2.1,0.0
13/04/2019,5.3,16.0,-6.7,0.0
14/04/2019,7.4,14.9,-1.3,0.0
15/04/2019,10.0,17.6,1.5,26.3
16/04/2019,9.4,14.8,1.9,0.1
17/04/2019,12.8,18.1,8.2,0.0
18/04/2019,10.8,14.9,4.7,0.2
19/04/2019,10.8,16.1,4.5,0.0
20/04/2019,10.0,16.6,4.4,2.5
21/04/2019,6.8,9.4,5.1,0.3
22/04/2019,8.7,13.9,1.3,0.0
23/04/2019,8.1,12.0,4.7,12.1
24/04/2019,4.3,7.6,2.0,35.7
25/04/2019,6.3,8.8,4.2,24.7
26/04/2019,4.7,8.3,2.7,6.9
27/04/2019,6.2,9.6,2.9,0.0
28/04/2019,6.5,12.7,0.7,0.0
29/04/2019,7.2,15.3,-1.7,0.0
30/04/2019,7.0,14.9,-1.8,0.0
01/05/2019,8.0,17.2,-2.6,0.0
02/05/2019,6.9,10.0,4.7,0.0
03/05/2019,4.3,6.7,2.1,5.7
04/05/2019,5.2,9.6,1.7,2.5
05/05/2019,2.6,7.2,-1.5,0.0
06/05/2019,6.4,16.7,-6.2,0.0
07/05/2019,11.5,17.8,-0.9,0.3
08/05/2019,12.0,15.1,7.7,5.5
09/05/2019,7.7,13.7,-1.2,9.9
10/05/2019,12.2,17.9,8.8,8.1
11/05/2019,8.2,11.1,4.7,0.2
12/05/2019,8.5,13.0,3.9,0.0
13/05/2019,9.9,15.1,0.5,0.0
14/05/2019,9.5,20.2,-3.4,0.0
15/05/2019,10.3,18.6,-1.2,0.0
16/05/2019,10.1,20.7,-0.4,9.8
17/05/2019,5.2,7.6,3.8,38.1
18/05/2019,3.7,6.5,0.4,10.5
19/05/2019,4.1,6.4,0.3,34.0
20/05/2019,5.8,11.5,-0.6,0.7
21/05/2019,7.0,14.0,-1.0,0.0
22/05/2019,9.3,18.1,-0.3,0.0
23/05/2019,11.2,20.8,0.5,1.7
24/05/2019,8.2,9.7,7.4,12.4
25/05/2019,7.9,10.1,6.4,4.1
26/05/2019,8.3,10.8,6.2,1.6
27/05/2019,9.1,12.7,5.7,2.1
28/05/2019,6.6,8.6,5.4,4.9
29/05/2019,7.2,10.8,3.1,2.5
30/05/2019,11.6,20.5,0.5,0.0
31/05/2019,13.7,23.1,0.8,0.0
01/06/2019,15.3,25.5,3.8,0.0
02/06/2019,19.0,26.5,6.0,0.0
03/06/2019,20.4,25.0,13.0,0.0
04/06/2019,16.9,24.9,7.3,6.3
05/06/2019,6.2,8.5,1.5,38.6
06/06/2019,10.9,17.4,1.8,0.0
07/06/2019,9.2,14.4,0.4,9.4
08/06/2019,10.2,19.1,-1.5,0.0
09/06/2019,14.1,20.3,8.2,1.5
10/06/2019,7.4,9.9,5.3,0.0
11/06/2019,5.9,9.3,2.1,0.5
12/06/2019,7.8,15.0,0.9,0.0
13/06/2019,13.8,20.7,4.1,0.0
14/06/2019,12.3,19.9,7.8,0.2
15/06/2019,10.1,14.4,1.8,0.0
16/06/2019,12.7,22.9,-0.4,0.0
17/06/2019,16.6,26.0,4.0,0.0
18/06/2019,21.7,26.0,14.9,0.0
19/06/2019,15.6,21.9,6.8,0.0
20/06/2019,12.7,16.0,10.7,1.3
21/06/2019,10.5,13.1,8.4,1.6
22/06/2019,15.8,24.6,2.2,0.0
23/06/2019,22.4,27.2,17.5,0.0
24/06/2019,21.9,26.2,11.8,0.0
25/06/2019,19.7,29.2,9.9,0.0
26/06/2019,27.4,31.7,13.1,0.0
27/06/2019,29.2,33.2,25.0,0.0
28/06/2019,24.7,34.0,12.1,0.0
29/06/2019,22.5,34.3,8.4,0.0
30/06/2019,25.9,33.4,11.5,0.0
01/07/2019,15.4,21.0,11.9,2.8
02/07/2019,16.8,26.2,10.2,0.1
03/07/2019,20.0,28.9,12.1,0.1
04/07/2019,21.9,29.9,11.3,0.0
05/07/2019,22.9,29.2,13.8,0.0
06/07/2019,19.8,29.4,10.4,0.0
07/07/2019,18.5,27.6,12.1,0.0
08/07/2019,16.8,25.1,12.1,43.0
09/07/2019,13.5,17.0,10.1,0.2
10/07/2019,15.8,22.6,7.0,0.0
11/07/2019,17.6,25.4,7.8,0.1
12/07/2019,17.5,27.2,5.8,0.0
13/07/2019,18.1,25.8,10.5,0.0
14/07/2019,16.7,20.0,12.9,0.7
15/07/2019,14.5,19.9,6.5,0.0
16/07/2019,15.0,22.4,4.1,0.0
17/07/2019,16.0,21.2,12.7,0.2
18/07/2019,14.8,19.5,6.8,0.0
19/07/2019,18.1,28.9,2.8,0.0
20/07/2019,20.8,28.3,15.1,0.0
21/07/2019,19.9,28.6,14.2,0.0
22/07/2019,25.3,32.6,13.8,0.0
23/07/2019,26.6,33.4,15.3,0.7
24/07/2019,25.5,32.5,12.8,0.0
25/07/2019,27.1,33.1,17.3,0.1
26/07/2019,16.4,21.8,12.6,1.1
27/07/2019,12.0,14.8,9.4,2.1
28/07/2019,11.8,17.2,3.6,2.4
29/07/2019,14.3,26.0,2.4,0.0
30/07/2019,11.7,15.4,6.0,0.0
31/07/2019,12.0,21.6,1.1,0.0
01/08/2019,15.3,25.0,7.4,12.3
02/08/2019,16.5,22.5,8.1,0.0
03/08/2019,17.5,29.6,4.3,0.0
04/08/2019,17.9,29.2,8.5,0.0
05/08/2019,18.4,28.9,11.2,0.0
06/08/2019,19.6,29.1,11.1,0.0
07/08/2019,19.2,25.0,14.1,0.0
08/08/2019,21.9,28.3,12.5,0.1
09/08/2019,23.2,28.9,13.0,14.6
10/08/2019,15.9,21.8,11.6,0.4
11/08/2019,14.2,18.8,11.3,4.1
12/08/2019,11.5,15.3,9.0,0.1
13/08/2019,11.0,15.8,4.8,0.0
14/08/2019,14.1,22.5,1.6,0.0
15/08/2019,14.1,18.4,5.6,0.0
16/08/2019,16.0,28.1,1.8,0.0
17/08/2019,19.9,30.3,8.6,0.0
18/08/2019,20.1,27.3,12.5,0.0
19/08/2019,12.8,16.4,9.9,0.0
20/08/2019,11.3,15.6,4.9,6.1
21/08/2019,12.6,21.4,4.0,0.0
22/08/2019,12.5,22.0,2.0,0.0
23/08/2019,16.4,27.8,3.8,0.0
24/08/2019,17.3,28.6,6.2,0.0
25/08/2019,19.7,27.9,7.6,0.0
26/08/2019,20.1,25.0,13.8,0.9
27/08/2019,15.6,22.9,9.6,22.8
28/08/2019,15.9,24.7,7.2,0.0
29/08/2019,18.6,28.3,9.2,0.0
30/08/2019,18.8,28.7,9.8,0.0
31/08/2019,20.4,28.9,11.0,2.8
01/09/2019,14.6,19.1,10.9,0.0
02/09/2019,11.3,16.0,2.8,0.1
03/09/2019,11.1,21.4,1.3,0.0
04/09/2019,12.0,20.8,2.1,0.0
05/09/2019,10.7,14.0,7.4,0.2
06/09/2019,10.3,14.1,3.5,0.0
07/09/2019,9.3,17.1,-0.5,0.0
08/09/2019,8.8,15.7,1.0,0.0
09/09/2019,9.4,20.2,-3.0,0.0
10/09/2019,8.4,11.8,5.7,7.1
11/09/2019,11.6,16.9,3.2,0.0
12/09/2019,12.0,23.6,1.3,0.0
13/09/2019,14.1,24.7,4.8,0.0
14/09/2019,16.2,25.4,6.9,0.1
15/09/2019,14.5,24.3,8.0,5.0
16/09/2019,16.5,24.7,9.6,0.0
17/09/2019,15.8,26.0,8.2,0.4
18/09/2019,14.4,22.4,9.0,13.1
19/09/2019,14.3,22.6,6.2,5.0
20/09/2019,18.6,22.9,14.1,3.9
21/09/2019,15.8,19.5,13.4,4.9
22/09/2019,12.7,16.3,2.9,15.3
23/09/2019,10.3,17.5,1.4,0.0
24/09/2019,14.8,21.1,8.1,0.0
25/09/2019,11.4,15.3,9.4,0.0
26/09/2019,12.4,22.0,3.9,0.0
27/09/2019,12.1,21.9,3.1,0.0
28/09/2019,13.4,21.4,6.2,0.0
29/09/2019,16.1,24.0,6.3,0.0
30/09/2019,12.9,23.9,2.9,0.0
01/10/2019,12.4,20.5,5.5,0.1
02/10/2019,9.8,12.2,8.8,6.8
03/10/2019,9.6,17.4,2.5,0.0
04/10/2019,11.4,17.0,2.5,0.0
05/10/2019,10.7,17.5,3.9,0.0
06/10/2019,10.2,13.7,7.5,0.1
07/10/2019,10.2,16.4,3.9,0.0
08/10/2019,12.8,23.9,3.6,0.0
09/10/2019,9.4,13.5,1.3,0.0
10/10/2019,7.3,17.4,-0.4,0.0
11/10/2019,15.5,23.2,2.0,0.0
12/10/2019,18.0,21.4,15.4,0.0
13/10/2019,17.3,21.6,14.2,0.0
14/10/2019,13.2,16.6,5.5,13.5
15/10/2019,6.0,10.7,2.3,1.9
16/10/2019,10.4,14.8,7.1,0.0
17/10/2019,11.1,15.0,5.4,1.5
18/10/2019,12.7,14.8,10.8,0.3
19/10/2019,12.5,13.9,10.9,5.7
20/10/2019,7.8,11.0,4.3,30.7
21/10/2019,4.2,8.5,-1.8,0.2
22/10/2019,3.5,9.4,-2.2,24.0
23/10/2019,8.2,11.5,3.4,0.4
24/10/2019,6.6,8.7,4.0,3.7
25/10/2019,7.7,19.0,0.0,0.0
26/10/2019,9.8,18.0,0.2,0.0
27/10/2019,13.0,17.9,8.6,0.0
28/10/2019,10.3,17.1,4.1,0.0
29/10/2019,9.6,18.0,3.4,0.0
30/10/2019,10.0,15.9,1.9,0.0
31/10/2019,9.9,12.3,3.3,3.6
01/11/2019,11.1,14.7,4.4,17.9
02/11/2019,11.0,12.4,8.1,6.2
03/11/2019,6.1,9.2,4.2,22.5
04/11/2019,7.6,10.7,2.8,17.5
05/11/2019,3.2,4.3,1.5,35.2
06/11/2019,4.8,6.3,3.4,13.6
07/11/2019,2.6,5.6,-3.5,11.9
08/11/2019,-0.2,2.0,-3.9,21.3
09/11/2019,1.8,3.9,0.1,45.7
10/11/2019,-0.1,0.9,-1.4,12.6
11/11/2019,1.0,3.9,-2.8,23.8
12/11/2019,2.2,3.9,0.9,0.0
13/11/2019,2.7,4.9,0.5,0.0
14/11/2019,-0.4,4.8,-5.1,1.3
15/11/2019,-0.9,0.6,-3.2,7.9
16/11/2019,-1.8,0.4,-7.8,4.4
17/11/2019,0.4,1.3,-0.4,18.0
18/11/2019,-0.1,1.0,-2.7,1.8
19/11/2019,-2.1,5.8,-8.2,0.0
20/11/2019,1.2,4.5,-8.9,1.0
21/11/2019,2.6,4.0,0.7,0.8
22/11/2019,4.4,6.3,3.0,23.5
23/11/2019,2.6,5.8,-0.3,41.7
24/11/2019,1.8,4.8,-0.4,11.5
25/11/2019,5.1,9.3,-0.1,0.0
26/11/2019,7.8,11.0,0.1,2.1
27/11/2019,6.1,8.1,3.7,9.4
28/11/2019,6.9,8.0,5.4,0.0
29/11/2019,5.0,9.7,-1.7,0.0
30/11/2019,5.1,9.1,-2.2,20.2
01/12/2019,-,-,-,-
02/12/2019,-,-,-,-
03/12/2019,-,-,-,-
04/12/2019,-,-,-,-
05/12/2019,-,-,-,-
06/12/2019,-,-,-,-
07/12/2019,-,-,-,-
08/12/2019,-,-,-,-
09/12/2019,-,-,-,-
10/12/2019,-,-,-,-
11/12/2019,-,-,-,-
12/12/2019,-,-,-,-
13/12/2019,-,-,-,-
14/12/2019,-,-,-,-
15/12/2019,-,-,-,-
16/12/2019,-,-,-,-
17/12/2019,-,-,-,-
18/12/2019,-,-,-,-
19/12/2019,-,-,-,-
20/12/2019,-,-,-,-
21/12/2019,-,-,-,-
22/12/2019,-,-,-,-
23/12/2019,-,-,-,-
24/12/2019,-,-,-,-
25/12/2019,-,-,-,-
26/12/2019,-,-,-,-
27/12/2019,-,-,-,-
28/12/2019,-,-,-,-
29/12/2019,-,-,-,-
30/12/2019,-,-,-,-
31/12/2019,-,-,-,-
