Fecha, Temperatura media, Temperatura maxima, Temperatura minima, Precipitacion acumulada
01/01/2009,4.1,10.5,-1.2,0.0
02/01/2009,2.9,8.6,-3.7,0.0
03/01/2009,-0.6,8.5,-6.7,0.0
04/01/2009,-2.5,4.2,-7.2,0.0
05/01/2009,-1.6,0.0,-4.5,0.0
06/01/2009,-3.7,-1.6,-6.3,1.6
07/01/2009,-8.1,-6.1,-9.4,0.1
08/01/2009,-6.4,-2.3,-9.1,0.0
09/01/2009,-2.8,3.3,-8.4,0.0
10/01/2009,-3.2,3.8,-7.7,0.0
11/01/2009,-3.5,6.0,-9.6,0.0
12/01/2009,-2.4,6.4,-9.4,0.0
13/01/2009,0.3,2.3,-0.9,5.1
14/01/2009,-0.7,3.7,-7.8,2.5
15/01/2009,-1.5,5.3,-7.5,0.0
16/01/2009,-1.5,7.0,-7.2,0.0
17/01/2009,0.5,7.3,-5.8,0.0
18/01/2009,3.7,7.3,-2.4,0.0
19/01/2009,4.4,7.0,-1.3,16.7
20/01/2009,-3.4,0.7,-10.6,1.6
21/01/2009,-2.0,-0.3,-5.6,2.0
22/01/2009,0.3,5.0,-6.5,13.7
23/01/2009,6.9,8.8,2.1,36.5
24/01/2009,1.5,8.3,-2.1,8.9
25/01/2009,-0.5,1.2,-3.1,0.9
26/01/2009,-1.0,-0.0,-1.9,0.0
27/01/2009,0.3,1.5,-0.4,2.1
28/01/2009,2.6,5.4,0.2,51.5
29/01/2009,2.0,7.7,-1.5,7.8
30/01/2009,5.1,9.3,-1.5,0.4
31/01/2009,4.5,8.1,-1.2,1.4
01/02/2009,1.8,3.7,-1.0,12.6
02/02/2009,1.2,3.9,-1.2,5.9
03/02/2009,0.1,3.4,-4.7,3.2
04/02/2009,2.5,4.5,0.7,7.0
05/02/2009,1.8,2.3,1.0,2.1
06/02/2009,-0.2,2.3,-2.0,4.3
07/02/2009,-2.5,-0.4,-3.9,0.0
08/02/2009,-1.0,0.8,-3.3,3.7
09/02/2009,3.7,6.5,0.3,26.7
10/02/2009,1.3,4.9,-1.0,17.8
11/02/2009,1.2,3.3,-0.9,83.1
12/02/2009,0.9,2.8,-1.3,1.5
13/02/2009,-0.1,4.1,-3.6,0.0
14/02/2009,1.3,5.8,-6.8,0.0
15/02/2009,-3.5,7.9,-11.0,0.0
16/02/2009,-3.1,5.6,-11.7,0.0
17/02/2009,-1.5,5.1,-9.4,0.0
18/02/2009,0.4,4.9,-5.1,0.0
19/02/2009,-1.2,6.4,-8.0,0.0
20/02/2009,-1.4,7.8,-9.0,0.0
21/02/2009,0.8,5.2,-6.0,0.0
22/02/2009,2.0,5.0,0.5,0.0
23/02/2009,1.7,4.1,-0.1,0.0
24/02/2009,2.0,6.5,-4.5,0.0
25/02/2009,1.4,10.6,-7.3,0.0
26/02/2009,2.5,12.5,-4.2,0.0
27/02/2009,3.0,16.6,-5.8,0.0
28/02/2009,7.7,11.4,-1.8,0.0
01/03/2009,3.6,7.2,0.8,0.0
02/03/2009,2.6,4.6,0.4,5.3
03/03/2009,2.5,7.1,-1.1,0.0
04/03/2009,0.2,3.5,-2.6,18.9
05/03/2009,-2.1,-1.0,-2.8,4.3
06/03/2009,-0.4,1.9,-1.9,2.0
07/03/2009,3.2,4.5,0.1,10.2
08/03/2009,4.4,7.0,2.3,0.4
09/03/2009,1.7,4.6,-4.8,0.1
10/03/2009,1.9,12.3,-7.8,0.1
11/03/2009,2.8,9.3,-2.3,0.0
12/03/2009,5.3,16.1,-3.3,0.0
13/03/2009,6.9,19.0,-2.2,0.0
14/03/2009,5.6,14.6,-2.6,0.0
15/03/2009,4.9,13.4,-2.7,0.0
16/03/2009,6.2,17.0,-4.1,0.0
17/03/2009,7.8,13.9,-0.6,0.0
18/03/2009,6.9,17.5,-2.6,0.0
19/03/2009,8.2,17.5,-2.8,0.0
20/03/2009,7.3,15.7,-3.7,0.0
21/03/2009,4.0,11.0,-5.9,0.0
22/03/2009,2.7,9.8,-5.7,0.0
23/03/2009,3.1,13.2,-6.8,0.0
24/03/2009,2.5,5.9,-1.4,0.4
25/03/2009,2.5,8.9,-5.6,0.0
26/03/2009,6.4,16.0,-2.7,0.0
27/03/2009,5.5,16.4,-4.7,0.0
28/03/2009,1.6,4.9,-0.7,1.1
29/03/2009,1.4,4.5,-0.5,0.5
30/03/2009,2.2,5.5,-0.3,0.0
31/03/2009,2.2,7.0,-5.1,0.0
01/04/2009,3.5,6.7,1.0,0.0
02/04/2009,3.1,5.9,0.4,0.0
03/04/2009,4.6,8.8,0.5,0.0
04/04/2009,6.2,13.6,-2.7,0.0
05/04/2009,9.2,15.8,3.2,0.0
06/04/2009,10.8,17.6,3.1,22.1
07/04/2009,2.5,3.4,1.5,4.8
08/04/2009,4.4,9.6,-1.6,0.0
09/04/2009,9.5,13.6,-0.5,0.0
10/04/2009,3.6,8.3,-0.4,41.5
11/04/2009,0.4,2.9,-0.6,8.0
12/04/2009,1.4,3.3,-0.5,0.6
13/04/2009,4.9,13.2,-1.3,0.0
14/04/2009,5.8,12.4,-1.8,19.7
15/04/2009,4.9,7.2,3.3,6.2
16/04/2009,4.5,8.6,1.5,3.2
17/04/2009,3.9,9.1,-2.2,1.0
18/04/2009,4.3,10.9,-3.9,0.0
19/04/2009,3.7,9.1,-3.2,0.7
20/04/2009,4.4,6.8,1.5,1.8
21/04/2009,5.0,7.5,3.7,1.2
22/04/2009,7.6,12.0,-0.3,0.0
23/04/2009,9.6,21.3,-2.8,0.0
24/04/2009,10.4,20.5,-0.6,0.1
25/04/2009,3.9,6.2,0.6,11.4
26/04/2009,1.8,2.8,1.0,5.2
27/04/2009,4.8,9.3,1.8,3.6
28/04/2009,4.7,8.4,2.4,2.1
29/04/2009,4.8,8.9,1.0,4.7
30/04/2009,6.3,11.2,-0.0,4.4
01/05/2009,4.4,5.9,2.7,2.0
02/05/2009,7.7,13.1,0.6,0.1
03/05/2009,8.2,14.2,-1.3,0.0
04/05/2009,6.8,10.2,3.2,0.0
05/05/2009,8.2,14.6,1.5,0.0
06/05/2009,13.7,24.3,0.9,0.0
07/05/2009,17.3,23.4,10.9,3.6
08/05/2009,15.4,20.7,7.6,0.2
09/05/2009,15.0,20.5,9.1,2.2
10/05/2009,13.3,17.9,10.1,9.7
11/05/2009,14.8,20.2,9.4,3.0
12/05/2009,14.0,20.0,9.2,0.7
13/05/2009,12.6,17.3,8.5,16.8
14/05/2009,6.6,9.3,4.0,11.3
15/05/2009,4.5,10.3,0.5,2.9
16/05/2009,11.7,19.4,-0.5,0.0
17/05/2009,11.6,16.8,6.4,0.1
18/05/2009,9.4,15.7,4.5,0.0
19/05/2009,13.1,19.9,4.5,0.0
20/05/2009,18.0,24.8,13.4,5.0
21/05/2009,17.2,23.1,8.8,0.0
22/05/2009,18.2,25.0,7.2,0.5
23/05/2009,18.3,22.0,12.1,17.8
24/05/2009,14.9,21.4,10.8,20.3
25/05/2009,13.6,17.1,9.2,1.1
26/05/2009,7.9,10.1,5.9,2.3
27/05/2009,8.3,12.8,4.2,0.0
28/05/2009,11.8,19.3,0.7,0.0
29/05/2009,15.1,24.2,4.2,0.0
30/05/2009,14.9,23.1,4.0,0.0
31/05/2009,12.9,18.7,4.3,0.0
01/06/2009,11.7,18.1,2.5,0.0
02/06/2009,13.3,19.8,3.0,0.0
03/06/2009,14.0,22.2,3.1,0.0
04/06/2009,14.3,22.7,3.8,2.9
05/06/2009,11.3,17.2,6.5,26.1
06/06/2009,8.9,15.8,4.7,15.2
07/06/2009,10.9,15.2,6.0,0.0
08/06/2009,11.2,13.8,5.9,13.0
09/06/2009,10.6,14.9,5.9,0.3
10/06/2009,15.2,20.1,9.6,0.0
11/06/2009,13.6,20.2,5.4,0.0
12/06/2009,16.5,26.6,4.0,0.0
13/06/2009,22.5,30.0,10.0,0.0
14/06/2009,20.7,25.2,13.9,4.3
15/06/2009,15.6,21.3,11.3,0.1
16/06/2009,15.2,19.8,9.7,0.5
17/06/2009,19.7,26.6,14.7,22.6
18/06/2009,20.3,28.0,12.4,23.1
19/06/2009,13.8,15.7,9.5,0.9
20/06/2009,10.6,14.7,6.6,0.1
21/06/2009,10.2,14.0,5.3,0.0
22/06/2009,13.0,18.7,3.2,0.0
23/06/2009,13.2,21.0,2.7,0.0
24/06/2009,13.9,22.2,2.2,0.0
25/06/2009,15.1,22.7,9.3,0.1
26/06/2009,13.8,19.1,6.1,0.0
27/06/2009,13.9,22.9,2.9,0.0
28/06/2009,19.2,25.2,6.8,0.0
29/06/2009,18.7,27.2,9.1,1.0
30/06/2009,19.9,26.9,12.1,0.1
01/07/2009,19.7,27.5,10.3,0.0
02/07/2009,16.5,22.6,11.1,0.1
03/07/2009,17.9,25.7,12.2,0.0
04/07/2009,17.1,21.6,13.9,0.0
05/07/2009,16.3,22.0,9.9,0.0
06/07/2009,13.1,16.6,9.9,0.0
07/07/2009,11.8,16.1,8.2,0.1
08/07/2009,11.7,16.4,5.5,0.0
09/07/2009,10.3,17.2,1.7,0.0
10/07/2009,12.4,19.3,4.3,0.0
11/07/2009,16.2,27.4,2.4,0.0
12/07/2009,18.2,28.3,8.6,0.0
13/07/2009,19.4,30.6,10.0,0.0
14/07/2009,15.5,23.2,10.6,0.0
15/07/2009,16.9,25.7,9.1,0.0
16/07/2009,18.9,29.5,7.5,6.4
17/07/2009,10.2,13.0,7.6,3.1
18/07/2009,11.6,17.0,7.5,0.5
19/07/2009,14.8,23.3,5.4,0.0
20/07/2009,19.7,29.0,8.3,5.3
21/07/2009,23.7,30.7,18.7,0.4
22/07/2009,24.1,29.2,15.2,0.0
23/07/2009,19.5,25.1,12.2,0.0
24/07/2009,14.8,21.9,6.2,0.0
25/07/2009,14.0,22.2,2.8,0.0
26/07/2009,20.9,30.7,6.4,0.0
27/07/2009,15.0,23.5,9.9,0.0
28/07/2009,17.2,28.3,6.3,0.0
29/07/2009,17.7,28.5,8.7,0.0
30/07/2009,13.4,18.5,4.5,0.0
31/07/2009,16.5,28.7,3.1,0.0
01/08/2009,16.1,26.0,9.5,6.1
02/08/2009,12.7,17.7,9.5,0.5
03/08/2009,14.3,20.5,7.0,0.0
04/08/2009,17.4,28.0,5.6,0.0
05/08/2009,19.8,31.6,9.0,8.2
06/08/2009,16.4,26.2,9.1,0.5
07/08/2009,13.7,16.4,11.6,0.3
08/08/2009,13.4,18.3,11.2,8.9
09/08/2009,12.5,15.4,9.0,3.7
10/08/2009,13.9,20.6,5.8,0.0
11/08/2009,16.9,25.1,11.3,0.3
12/08/2009,16.9,23.7,10.3,0.0
13/08/2009,16.6,24.2,7.5,0.0
14/08/2009,18.8,29.5,8.5,0.0
15/08/2009,23.8,31.7,14.6,0.0
16/08/2009,20.1,30.6,10.6,0.0
17/08/2009,23.8,31.5,16.2,0.0
18/08/2009,26.4,32.6,16.1,0.0
19/08/2009,27.3,32.1,23.9,0.0
20/08/2009,21.9,30.1,15.1,0.0
21/08/2009,15.6,20.7,8.8,0.0
22/08/2009,16.3,23.9,8.4,0.0
23/08/2009,21.4,31.6,7.5,0.0
24/08/2009,20.7,27.9,14.1,0.0
25/08/2009,14.5,18.2,11.5,32.6
26/08/2009,17.7,26.6,9.1,0.3
27/08/2009,19.9,28.7,9.7,0.0
28/08/2009,15.5,19.7,10.8,0.0
29/08/2009,11.8,17.2,7.2,0.0
30/08/2009,12.6,21.5,2.7,0.0
31/08/2009,22.4,29.2,16.1,0.0
01/09/2009,18.0,25.0,12.1,10.0
02/09/2009,16.9,24.1,11.0,0.0
03/09/2009,13.9,20.5,6.9,0.0
04/09/2009,11.2,15.7,7.4,0.4
05/09/2009,9.7,17.1,1.6,0.0
06/09/2009,14.1,26.0,1.2,0.0
07/09/2009,17.2,26.8,8.6,0.0
08/09/2009,17.5,27.1,8.6,0.0
09/09/2009,14.3,23.4,5.2,0.0
10/09/2009,13.9,24.1,5.0,0.0
11/09/2009,13.2,22.1,4.3,0.0
12/09/2009,12.8,22.4,5.6,0.0
13/09/2009,11.6,19.2,4.7,0.0
14/09/2009,9.1,13.6,2.8,0.0
15/09/2009,9.7,13.9,6.5,0.0
16/09/2009,8.0,12.9,1.4,0.0
17/09/2009,9.2,17.0,0.4,7.2
18/09/2009,8.4,9.4,7.5,44.2
19/09/2009,9.4,11.1,7.6,2.5
20/09/2009,9.8,13.0,6.0,4.2
21/09/2009,11.8,15.0,9.3,5.8
22/09/2009,12.7,18.9,5.8,0.1
23/09/2009,12.6,22.0,3.8,0.0
24/09/2009,12.4,20.1,3.5,0.0
25/09/2009,11.0,17.4,4.3,0.0
26/09/2009,10.4,20.3,2.6,0.0
27/09/2009,12.0,20.9,4.1,0.0
28/09/2009,12.0,20.0,4.9,2.0
29/09/2009,12.1,20.8,4.4,0.0
30/09/2009,13.2,18.2,7.8,0.0
01/10/2009,12.1,17.1,5.6,0.1
02/10/2009,10.3,14.3,4.9,0.0
03/10/2009,8.1,19.1,0.1,0.0
04/10/2009,12.5,22.6,-0.1,0.0
05/10/2009,20.0,24.4,15.0,0.0
06/10/2009,20.1,23.7,17.5,0.0
07/10/2009,18.8,21.1,14.2,8.5
08/10/2009,13.7,18.4,9.9,5.3
09/10/2009,10.7,16.8,4.1,0.0
10/10/2009,11.3,14.6,8.5,1.0
11/10/2009,12.3,15.6,8.0,3.6
12/10/2009,11.2,14.4,6.8,2.5
13/10/2009,7.3,16.7,-0.8,0.0
14/10/2009,6.7,16.6,-2.0,0.0
15/10/2009,4.6,10.1,-1.0,0.0
16/10/2009,3.5,11.6,-2.7,0.0
17/10/2009,4.9,9.8,-2.1,0.0
18/10/2009,3.1,10.3,-5.8,0.0
19/10/2009,5.5,13.0,-6.0,0.0
20/10/2009,10.7,13.1,7.5,34.1
21/10/2009,7.5,10.6,5.3,10.7
22/10/2009,6.1,7.1,4.2,46.0
23/10/2009,8.9,11.1,6.4,13.5
24/10/2009,13.5,18.9,9.1,0.9
25/10/2009,11.7,15.1,3.6,0.9
26/10/2009,7.6,18.1,0.4,0.0
27/10/2009,9.0,20.4,-0.1,0.0
28/10/2009,10.4,19.8,3.2,0.0
29/10/2009,10.5,21.2,3.7,0.0
30/10/2009,10.4,21.6,2.1,0.0
31/10/2009,10.6,18.1,4.0,0.0
01/11/2009,11.4,17.5,3.7,4.9
02/11/2009,5.3,9.3,4.3,5.2
03/11/2009,6.8,11.5,2.6,6.7
04/11/2009,5.7,8.0,3.8,6.0
05/11/2009,1.8,4.2,0.3,18.4
06/11/2009,3.1,5.6,-0.1,14.7
07/11/2009,3.3,8.0,0.0,22.2
08/11/2009,1.8,3.7,-0.1,53.0
09/11/2009,1.5,2.8,0.1,11.0
10/11/2009,3.3,7.9,-2.1,26.8
11/11/2009,6.7,10.1,1.4,10.0
12/11/2009,8.4,13.1,1.9,0.1
13/11/2009,11.1,12.8,9.8,0.0
14/11/2009,11.4,12.2,10.3,0.0
15/11/2009,11.7,14.1,8.0,2.5
16/11/2009,13.7,15.8,11.6,0.0
17/11/2009,12.0,15.3,3.3,0.0
18/11/2009,8.4,14.4,0.5,0.0
19/11/2009,13.0,16.8,2.9,0.0
20/11/2009,12.7,15.7,10.9,0.0
21/11/2009,13.1,15.5,9.2,2.5
22/11/2009,6.0,10.2,-0.9,5.5
23/11/2009,3.9,11.1,-2.3,0.0
24/11/2009,6.6,15.4,-3.4,0.0
25/11/2009,8.9,12.2,5.8,0.0
26/11/2009,7.9,10.2,5.4,0.8
27/11/2009,2.1,8.3,-3.2,0.0
28/11/2009,4.1,5.6,-1.2,0.0
29/11/2009,2.4,5.3,-1.6,24.2
30/11/2009,-0.3,0.6,-1.9,38.0
01/12/2009,0.2,2.4,-0.8,28.7
02/12/2009,3.4,6.8,0.0,12.2
03/12/2009,3.0,4.5,1.5,21.6
04/12/2009,3.7,5.4,-1.0,24.8
05/12/2009,4.0,8.8,-1.0,0.3
06/12/2009,7.5,8.5,6.1,1.2
07/12/2009,7.5,8.3,4.4,1.6
08/12/2009,3.7,10.1,-1.6,0.0
09/12/2009,2.8,12.7,-2.2,0.1
10/12/2009,2.6,13.4,-2.6,0.3
11/12/2009,1.8,13.9,-4.0,0.3
12/12/2009,2.9,8.9,-4.6,0.0
13/12/2009,-3.6,-1.4,-4.7,0.0
14/12/2009,-4.7,-2.4,-6.2,0.0
15/12/2009,-4.5,-3.7,-6.2,0.0
16/12/2009,-4.1,-0.9,-7.9,1.6
17/12/2009,-6.1,-2.2,-14.2,0.0
18/12/2009,-6.3,-2.4,-13.8,5.7
19/12/2009,-9.4,-6.0,-19.7,0.3
20/12/2009,-5.4,-0.6,-18.6,0.1
21/12/2009,0.5,5.2,-3.6,2.3
22/12/2009,5.4,6.3,3.1,11.8
23/12/2009,1.6,4.0,-0.9,35.4
24/12/2009,6.8,9.3,2.6,10.3
25/12/2009,1.6,4.2,-2.4,0.3
26/12/2009,1.5,3.4,0.2,21.9
27/12/2009,1.9,5.1,-3.3,0.0
28/12/2009,4.7,7.9,1.2,12.7
29/12/2009,9.3,10.1,8.0,7.5
30/12/2009,7.4,9.8,4.4,10.1
31/12/2009,4.0,5.2,0.2,18.5
