Fecha, Temperatura media, Temperatura maxima, Temperatura minima, Precipitacion acumulada
01/01/2019,6.5,10.9,2.1,0.0
02/01/2019,2.3,3.9,0.7,0.0
03/01/2019,4.6,13.4,0.2,0.0
04/01/2019,4.9,10.7,1.6,0.0
05/01/2019,5.6,11.5,2.3,0.0
06/01/2019,2.6,7.3,-0.2,0.0
07/01/2019,0.7,2.4,-1.1,0.0
08/01/2019,3.8,5.7,1.5,0.0
09/01/2019,4.8,7.8,1.4,0.0
10/01/2019,0.5,2.3,-1.6,0.0
11/01/2019,0.4,3.4,-2.4,0.0
12/01/2019,4.0,7.0,0.8,0.0
13/01/2019,6.3,8.2,4.8,0.0
14/01/2019,7.1,9.4,5.8,0.0
15/01/2019,5.9,13.2,2.7,0.0
16/01/2019,1.5,3.9,-1.5,0.0
17/01/2019,3.5,8.0,-0.7,0.2
18/01/2019,2.5,6.3,0.1,0.0
19/01/2019,3.8,8.0,-0.2,3.5
20/01/2019,4.1,6.6,2.6,1.7
21/01/2019,2.7,4.3,1.0,1.7
22/01/2019,1.9,3.6,0.2,7.0
23/01/2019,3.7,6.6,1.4,35.8
24/01/2019,1.2,2.8,-0.4,3.6
25/01/2019,6.3,8.8,2.0,0.4
26/01/2019,6.5,9.3,2.5,0.0
27/01/2019,3.6,6.7,1.0,8.9
28/01/2019,4.1,7.3,1.9,23.8
29/01/2019,4.2,6.2,2.3,4.4
30/01/2019,3.6,7.4,0.3,5.1
31/01/2019,5.9,11.2,2.2,16.1
01/02/2019,6.2,10.7,1.4,2.6
02/02/2019,1.2,3.9,-0.4,28.4
03/02/2019,0.2,2.2,-1.7,8.2
04/02/2019,2.5,6.5,-2.7,0.0
05/02/2019,7.5,11.0,3.7,0.0
06/02/2019,8.6,15.6,6.0,0.0
07/02/2019,5.8,9.4,1.8,0.0
08/02/2019,5.4,13.4,-1.0,0.0
09/02/2019,8.6,13.8,2.7,0.0
10/02/2019,7.6,10.3,3.8,0.1
11/02/2019,4.6,7.4,3.0,3.2
12/02/2019,5.0,10.4,1.7,0.0
13/02/2019,5.2,14.2,-1.5,0.0
14/02/2019,6.5,14.5,0.9,0.0
15/02/2019,5.9,14.0,-1.3,0.0
16/02/2019,7.1,16.2,-0.2,0.0
17/02/2019,10.0,17.1,1.8,0.0
18/02/2019,6.5,15.7,0.2,0.0
19/02/2019,6.2,14.1,1.1,0.0
20/02/2019,6.4,12.9,0.1,0.0
21/02/2019,8.2,17.4,1.6,0.0
22/02/2019,9.4,20.6,0.1,0.0
23/02/2019,10.6,18.1,2.1,0.0
24/02/2019,9.6,17.4,2.1,0.0
25/02/2019,9.0,17.7,2.1,0.0
26/02/2019,11.1,20.4,2.4,0.0
27/02/2019,11.7,22.4,1.9,0.0
28/02/2019,9.2,13.6,5.5,0.0
01/03/2019,8.6,13.1,4.8,0.0
02/03/2019,9.7,15.2,4.1,0.0
03/03/2019,10.1,17.4,2.6,0.0
04/03/2019,10.0,13.4,5.7,0.0
05/03/2019,10.2,16.4,1.8,0.0
06/03/2019,10.7,14.2,6.7,8.6
07/03/2019,7.0,13.6,0.5,0.0
08/03/2019,7.0,10.9,3.1,0.1
09/03/2019,8.9,15.1,2.8,0.0
10/03/2019,9.1,14.2,4.3,0.0
11/03/2019,7.1,10.9,0.9,0.0
12/03/2019,7.2,16.4,-1.2,0.0
13/03/2019,5.3,9.3,3.5,0.6
14/03/2019,6.3,9.2,3.7,0.2
15/03/2019,8.2,12.2,3.8,0.0
16/03/2019,9.7,21.9,-0.5,0.0
17/03/2019,7.3,10.9,2.3,0.0
18/03/2019,4.9,9.9,2.5,0.4
19/03/2019,4.8,7.9,2.7,1.5
20/03/2019,6.0,10.5,2.6,0.1
21/03/2019,6.9,16.1,-0.8,0.0
22/03/2019,8.5,19.0,-1.0,0.0
23/03/2019,11.1,22.1,1.4,0.0
24/03/2019,11.2,19.3,3.8,0.0
25/03/2019,8.1,11.3,5.6,0.0
26/03/2019,7.9,13.5,3.0,0.0
27/03/2019,8.4,14.8,4.1,0.0
28/03/2019,8.8,14.7,3.7,0.0
29/03/2019,10.6,18.6,0.4,0.0
30/03/2019,10.5,18.4,1.6,0.0
31/03/2019,8.9,16.7,1.2,0.1
01/04/2019,9.3,15.9,6.1,1.2
02/04/2019,9.6,15.2,5.2,0.0
03/04/2019,5.0,8.8,-0.2,0.5
04/04/2019,6.0,13.3,-2.3,0.0
05/04/2019,7.3,12.2,3.3,6.3
06/04/2019,6.2,12.3,2.2,4.5
07/04/2019,6.8,11.1,2.7,0.0
08/04/2019,7.9,11.1,4.3,2.6
09/04/2019,7.6,15.6,1.5,4.1
10/04/2019,7.1,11.8,3.5,0.0
11/04/2019,7.1,10.3,5.1,0.2
12/04/2019,8.2,12.4,5.0,0.0
13/04/2019,10.6,19.1,2.2,0.0
14/04/2019,12.3,18.7,6.1,0.0
15/04/2019,12.7,22.0,6.4,20.3
16/04/2019,12.7,19.5,6.6,0.0
17/04/2019,13.8,20.8,7.4,0.0
18/04/2019,12.5,18.2,9.7,0.0
19/04/2019,13.0,19.2,8.3,0.8
20/04/2019,13.0,22.5,7.9,13.2
21/04/2019,9.5,12.1,7.4,0.0
22/04/2019,12.1,17.3,6.4,0.1
23/04/2019,11.5,16.7,6.8,4.6
24/04/2019,8.2,11.7,4.9,11.4
25/04/2019,9.8,15.2,4.9,3.0
26/04/2019,8.8,12.5,5.8,0.4
27/04/2019,9.2,14.4,3.2,0.0
28/04/2019,9.7,15.3,5.2,0.0
29/04/2019,11.7,18.9,4.4,0.0
30/04/2019,12.3,18.5,6.7,0.0
01/05/2019,11.6,19.8,4.5,0.0
02/05/2019,9.5,13.1,6.7,0.0
03/05/2019,7.8,11.0,5.5,1.6
04/05/2019,8.6,13.9,4.6,0.6
05/05/2019,6.0,11.1,0.5,0.1
06/05/2019,10.9,19.1,2.9,0.0
07/05/2019,15.1,23.0,5.3,0.0
08/05/2019,16.3,20.4,9.8,0.0
09/05/2019,12.0,18.9,6.4,8.8
10/05/2019,15.7,23.8,10.7,8.6
11/05/2019,11.4,15.0,7.6,0.0
12/05/2019,11.3,16.7,5.7,0.0
13/05/2019,12.6,17.8,6.8,0.0
14/05/2019,14.5,22.4,7.0,0.0
15/05/2019,15.9,22.6,8.5,0.0
16/05/2019,13.4,22.5,7.3,8.0
17/05/2019,8.4,10.7,6.6,25.8
18/05/2019,7.4,10.2,2.4,3.1
19/05/2019,8.3,10.7,6.2,5.2
20/05/2019,10.3,16.0,5.3,0.0
21/05/2019,12.0,17.9,6.1,0.0
22/05/2019,14.7,22.5,8.3,0.0
23/05/2019,13.7,21.6,8.1,5.4
24/05/2019,11.1,14.0,10.1,9.8
25/05/2019,11.1,14.4,9.3,0.0
26/05/2019,11.3,15.5,8.4,0.0
27/05/2019,12.1,16.3,9.1,0.0
28/05/2019,10.3,14.2,8.2,0.0
29/05/2019,11.2,15.9,7.8,0.1
30/05/2019,15.6,23.7,7.4,0.0
31/05/2019,18.8,25.8,10.7,0.0
01/06/2019,20.7,29.6,10.4,0.0
02/06/2019,21.8,31.0,12.4,0.0
03/06/2019,20.9,29.7,13.1,0.0
04/06/2019,17.4,29.8,10.6,1.8
05/06/2019,10.4,13.4,8.6,13.8
06/06/2019,15.4,23.6,7.2,0.0
07/06/2019,13.0,19.3,7.8,1.5
08/06/2019,14.3,23.1,6.0,0.0
09/06/2019,15.0,25.3,9.9,0.0
10/06/2019,11.2,15.0,9.0,0.0
11/06/2019,9.6,13.3,6.8,0.4
12/06/2019,11.7,21.1,2.9,0.0
13/06/2019,15.7,26.1,4.9,0.0
14/06/2019,14.0,22.6,10.0,0.0
15/06/2019,14.1,19.1,10.0,0.0
16/06/2019,17.9,28.7,7.0,0.0
17/06/2019,22.3,32.3,11.4,0.0
18/06/2019,25.1,32.7,16.4,0.0
19/06/2019,20.2,27.0,14.0,0.0
20/06/2019,15.2,19.7,12.8,1.7
21/06/2019,14.2,18.0,10.6,0.1
22/06/2019,19.7,30.4,7.5,0.0
23/06/2019,25.1,34.3,16.8,0.0
24/06/2019,24.7,31.5,16.0,0.0
25/06/2019,24.0,34.6,16.0,0.0
26/06/2019,27.5,36.5,16.8,0.0
27/06/2019,30.1,40.4,18.8,0.0
28/06/2019,27.5,37.1,18.1,0.0
29/06/2019,26.9,40.8,15.7,0.0
30/06/2019,23.6,39.5,14.2,0.0
01/07/2019,18.0,23.4,14.5,0.7
02/07/2019,18.7,26.2,14.5,1.0
03/07/2019,23.6,34.7,16.0,0.0
04/07/2019,27.1,35.5,17.8,0.0
05/07/2019,27.2,35.8,19.1,0.0
06/07/2019,23.9,35.7,18.0,0.0
07/07/2019,21.1,28.9,16.9,0.0
08/07/2019,18.8,25.5,15.3,50.7
09/07/2019,17.0,20.9,14.4,0.0
10/07/2019,19.8,26.9,13.4,0.0
11/07/2019,21.8,29.8,13.3,0.0
12/07/2019,22.3,30.8,14.9,0.0
13/07/2019,20.7,27.4,15.5,0.0
14/07/2019,20.2,24.8,16.0,0.6
15/07/2019,19.1,24.5,14.8,0.0
16/07/2019,20.1,27.3,14.2,0.0
17/07/2019,19.3,25.3,15.6,0.0
18/07/2019,18.5,23.0,14.2,0.0
19/07/2019,23.6,33.9,12.7,0.0
20/07/2019,22.4,33.7,18.0,0.0
21/07/2019,23.0,33.6,16.4,0.0
22/07/2019,28.1,37.3,17.9,0.2
23/07/2019,29.8,38.0,21.8,0.2
24/07/2019,28.8,37.3,18.1,0.0
25/07/2019,28.7,37.4,20.1,0.0
26/07/2019,18.7,22.2,15.3,1.7
27/07/2019,15.0,18.5,12.6,1.7
28/07/2019,16.8,22.4,12.2,0.4
29/07/2019,18.4,31.9,9.8,0.0
30/07/2019,16.3,20.8,12.5,0.0
31/07/2019,17.5,25.6,11.2,0.0
01/08/2019,19.7,30.1,14.5,0.8
02/08/2019,20.4,26.2,16.0,0.0
03/08/2019,22.7,34.9,12.7,0.0
04/08/2019,21.8,32.0,16.9,0.0
05/08/2019,21.8,33.1,16.4,0.0
06/08/2019,23.1,33.3,17.4,0.0
07/08/2019,22.9,28.7,17.3,0.0
08/08/2019,27.3,34.7,18.7,0.0
09/08/2019,26.2,34.6,15.9,3.3
10/08/2019,18.9,25.1,14.7,0.1
11/08/2019,17.8,23.1,14.4,0.3
12/08/2019,15.4,20.2,13.1,0.0
13/08/2019,15.8,21.2,11.8,0.0
14/08/2019,18.7,28.4,9.1,0.0
15/08/2019,18.4,23.1,13.4,0.0
16/08/2019,21.4,33.4,9.3,0.0
17/08/2019,24.7,35.9,14.2,0.0
18/08/2019,21.0,31.2,15.0,0.0
19/08/2019,16.4,20.4,14.0,0.0
20/08/2019,16.6,22.0,13.1,0.2
21/08/2019,18.0,25.8,12.6,0.0
22/08/2019,19.6,26.2,13.8,0.0
23/08/2019,22.3,33.9,10.3,0.0
24/08/2019,24.7,34.6,15.1,0.0
25/08/2019,23.9,35.4,15.6,0.0
26/08/2019,21.8,30.5,14.5,1.7
27/08/2019,19.5,25.8,15.6,0.0
28/08/2019,21.4,30.2,14.3,0.0
29/08/2019,23.2,34.7,15.7,0.0
30/08/2019,24.7,35.2,16.0,0.0
31/08/2019,23.0,35.0,16.9,0.0
01/09/2019,18.6,23.9,14.3,0.0
02/09/2019,16.2,20.8,12.5,0.0
03/09/2019,17.9,25.1,12.6,0.0
04/09/2019,16.3,25.1,9.0,0.0
05/09/2019,15.1,19.2,12.4,0.0
06/09/2019,14.3,18.9,10.3,0.0
07/09/2019,14.8,20.1,10.4,0.0
08/09/2019,14.9,20.5,10.6,0.0
09/09/2019,14.4,24.3,5.8,0.0
10/09/2019,12.4,16.8,9.6,1.3
11/09/2019,15.9,20.9,12.4,0.0
12/09/2019,17.7,27.1,11.3,0.0
13/09/2019,18.5,27.9,11.8,0.0
14/09/2019,20.7,29.6,12.5,0.7
15/09/2019,18.4,28.1,14.5,3.1
16/09/2019,21.0,29.8,15.1,0.0
17/09/2019,21.4,29.3,14.5,0.0
18/09/2019,18.7,24.4,15.0,7.3
19/09/2019,19.1,28.3,13.3,0.0
20/09/2019,20.7,27.9,13.9,0.0
21/09/2019,19.7,24.5,15.2,4.7
22/09/2019,17.4,21.7,12.7,7.6
23/09/2019,16.2,22.6,9.4,0.0
24/09/2019,18.3,26.0,12.6,0.0
25/09/2019,16.2,20.6,13.5,0.0
26/09/2019,18.4,27.9,10.2,0.0
27/09/2019,17.3,24.9,11.5,0.0
28/09/2019,18.9,27.4,12.8,0.0
29/09/2019,20.1,29.4,12.1,0.0
30/09/2019,19.9,29.0,11.7,0.0
01/10/2019,17.3,23.2,12.4,0.0
02/10/2019,13.8,17.7,11.5,0.3
03/10/2019,15.0,20.9,10.9,0.0
04/10/2019,15.3,21.6,10.2,0.0
05/10/2019,15.2,20.0,12.1,0.0
06/10/2019,14.3,18.8,11.3,0.0
07/10/2019,14.4,20.6,9.9,0.0
08/10/2019,17.6,29.1,8.9,0.0
09/10/2019,14.0,17.9,9.2,0.0
10/10/2019,13.4,20.2,7.4,0.0
11/10/2019,18.2,27.2,7.6,0.0
12/10/2019,21.4,26.6,17.2,0.6
13/10/2019,21.3,26.4,17.2,0.0
14/10/2019,16.7,20.2,8.5,12.1
15/10/2019,10.8,17.4,5.1,0.8
16/10/2019,14.4,20.1,8.6,0.0
17/10/2019,16.5,21.8,12.2,0.0
18/10/2019,15.8,18.9,13.1,0.2
19/10/2019,15.9,19.6,13.0,2.3
20/10/2019,11.0,15.2,7.4,16.7
21/10/2019,8.5,13.5,5.3,0.0
22/10/2019,7.1,9.9,4.3,7.8
23/10/2019,10.5,15.1,8.3,1.1
24/10/2019,9.8,13.4,7.0,4.2
25/10/2019,11.3,21.2,6.3,0.1
26/10/2019,13.5,21.5,7.5,0.0
27/10/2019,14.0,20.7,8.9,0.0
28/10/2019,14.3,21.6,11.6,0.0
29/10/2019,14.8,21.5,9.5,0.0
30/10/2019,14.0,20.0,8.5,0.1
31/10/2019,14.1,16.9,11.1,0.4
01/11/2019,14.4,20.0,10.9,5.6
02/11/2019,14.7,17.3,12.6,1.1
03/11/2019,11.8,14.4,8.5,4.0
04/11/2019,11.9,16.8,6.5,5.9
05/11/2019,7.4,10.2,5.7,17.8
06/11/2019,8.7,11.1,6.4,4.3
07/11/2019,6.6,11.8,1.7,9.6
08/11/2019,3.6,4.9,1.7,40.7
09/11/2019,6.1,8.8,4.3,8.0
10/11/2019,2.7,5.2,0.9,23.5
11/11/2019,4.5,7.8,1.3,6.3
12/11/2019,7.0,10.8,4.4,0.6
13/11/2019,7.4,10.3,5.9,2.2
14/11/2019,5.1,9.0,1.9,4.6
15/11/2019,2.8,6.1,0.4,3.0
16/11/2019,2.4,4.7,-0.8,2.0
17/11/2019,5.2,7.9,2.8,1.2
18/11/2019,3.7,5.1,0.8,1.1
19/11/2019,4.1,8.7,0.5,0.0
20/11/2019,4.9,9.6,-0.1,1.2
21/11/2019,7.3,11.6,5.2,0.1
22/11/2019,8.3,10.9,6.5,4.8
23/11/2019,6.8,9.5,4.7,11.0
24/11/2019,6.3,8.8,4.7,5.1
25/11/2019,8.2,14.3,3.9,0.2
26/11/2019,10.9,16.2,6.6,5.8
27/11/2019,9.7,13.1,7.5,7.5
28/11/2019,10.5,13.4,7.3,1.3
29/11/2019,10.0,12.8,5.3,0.7
30/11/2019,8.2,15.3,3.9,16.3
01/12/2019,-,-,-,-
02/12/2019,-,-,-,-
03/12/2019,-,-,-,-
04/12/2019,-,-,-,-
05/12/2019,-,-,-,-
06/12/2019,-,-,-,-
07/12/2019,-,-,-,-
08/12/2019,-,-,-,-
09/12/2019,-,-,-,-
10/12/2019,-,-,-,-
11/12/2019,-,-,-,-
12/12/2019,-,-,-,-
13/12/2019,-,-,-,-
14/12/2019,-,-,-,-
15/12/2019,-,-,-,-
16/12/2019,-,-,-,-
17/12/2019,-,-,-,-
18/12/2019,-,-,-,-
19/12/2019,-,-,-,-
20/12/2019,-,-,-,-
21/12/2019,-,-,-,-
22/12/2019,-,-,-,-
23/12/2019,-,-,-,-
24/12/2019,-,-,-,-
25/12/2019,-,-,-,-
26/12/2019,-,-,-,-
27/12/2019,-,-,-,-
28/12/2019,-,-,-,-
29/12/2019,-,-,-,-
30/12/2019,-,-,-,-
31/12/2019,-,-,-,-
