Fecha, Temperatura media, Temperatura maxima, Temperatura minima, Precipitacion acumulada
01/01/2011,5.8,10.1,1.2,0.0
02/01/2011,4.9,7.3,0.5,0.3
03/01/2011,0.3,3.0,-2.7,0.0
04/01/2011,1.1,5.0,-2.6,0.1
05/01/2011,6.3,10.1,3.0,1.4
06/01/2011,12.2,14.9,10.0,0.5
07/01/2011,12.1,13.8,10.7,0.0
08/01/2011,11.1,12.7,9.0,1.5
09/01/2011,6.6,10.3,1.8,1.5
10/01/2011,3.9,9.7,-1.1,0.6
11/01/2011,7.5,10.7,3.9,0.8
12/01/2011,9.6,11.9,7.5,0.3
13/01/2011,7.7,12.7,4.4,0.1
14/01/2011,5.6,10.4,0.6,0.1
15/01/2011,5.8,11.4,1.0,0.0
16/01/2011,2.6,4.8,-0.1,0.5
17/01/2011,3.9,9.8,0.4,0.3
18/01/2011,4.4,8.3,-0.1,0.1
19/01/2011,6.9,8.9,4.6,0.0
20/01/2011,3.4,8.9,-1.3,0.0
21/01/2011,-1.1,1.4,-3.4,0.0
22/01/2011,-2.8,0.4,-4.6,0.0
23/01/2011,-1.8,2.7,-4.7,0.0
24/01/2011,-1.0,3.8,-3.8,0.0
25/01/2011,-0.1,3.3,-2.1,0.0
26/01/2011,-0.3,4.6,-5.7,0.0
27/01/2011,0.6,5.5,-3.7,0.0
28/01/2011,2.8,4.4,1.4,18.6
29/01/2011,3.2,6.7,1.9,2.3
30/01/2011,2.9,4.6,1.9,0.3
31/01/2011,1.7,2.9,0.8,0.0
01/02/2011,2.5,3.4,1.1,0.0
02/02/2011,4.2,7.3,1.0,0.0
03/02/2011,5.9,8.8,3.3,0.0
04/02/2011,7.3,11.5,3.7,0.0
05/02/2011,8.6,16.2,3.9,0.0
06/02/2011,6.4,16.3,-0.5,0.0
07/02/2011,6.9,15.8,0.1,0.0
08/02/2011,5.8,14.0,0.0,0.0
09/02/2011,5.6,13.8,-0.6,0.0
10/02/2011,5.9,13.6,0.2,0.0
11/02/2011,5.6,11.6,1.2,0.0
12/02/2011,4.7,10.0,-0.9,0.0
13/02/2011,6.9,11.7,0.8,6.8
14/02/2011,5.1,9.1,0.5,0.8
15/02/2011,4.4,6.5,2.7,6.7
16/02/2011,5.1,8.8,-0.2,0.5
17/02/2011,5.6,10.6,2.3,0.0
18/02/2011,7.7,14.0,3.0,0.0
19/02/2011,6.8,8.4,4.7,1.5
20/02/2011,5.8,12.3,1.3,0.4
21/02/2011,6.1,10.4,4.1,28.0
22/02/2011,9.1,11.3,7.2,2.5
23/02/2011,9.4,11.5,8.0,0.0
24/02/2011,8.8,12.1,7.2,0.0
25/02/2011,10.3,15.4,6.6,0.0
26/02/2011,8.9,11.1,6.4,0.0
27/02/2011,4.2,6.8,2.1,3.3
28/02/2011,2.2,5.3,-0.3,10.2
01/03/2011,2.4,4.9,-0.2,0.0
02/03/2011,3.5,5.5,1.9,0.0
03/03/2011,2.7,6.4,0.5,0.0
04/03/2011,2.2,6.0,-0.6,0.5
05/03/2011,4.6,11.4,-0.5,0.0
06/03/2011,5.7,15.0,-1.1,0.0
07/03/2011,7.5,16.1,-0.9,0.0
08/03/2011,8.5,12.4,2.8,0.0
09/03/2011,7.7,13.3,2.1,0.0
10/03/2011,7.9,15.9,0.9,0.0
11/03/2011,9.2,17.3,1.9,1.1
12/03/2011,8.4,13.5,5.4,2.6
13/03/2011,9.8,15.6,3.5,0.0
14/03/2011,11.4,13.7,8.3,0.1
15/03/2011,9.4,10.9,8.7,17.9
16/03/2011,9.6,11.8,8.4,1.8
17/03/2011,8.2,9.2,6.2,0.7
18/03/2011,7.7,12.7,4.8,0.1
19/03/2011,8.1,12.1,4.6,0.0
20/03/2011,7.9,12.8,4.4,0.0
21/03/2011,7.4,15.0,1.6,0.0
22/03/2011,6.6,11.1,3.1,0.0
23/03/2011,8.0,14.3,0.2,0.0
24/03/2011,8.2,13.1,1.7,0.4
25/03/2011,11.1,17.8,6.5,0.0
26/03/2011,13.4,18.8,6.1,0.3
27/03/2011,9.0,14.4,4.3,3.5
28/03/2011,9.2,13.7,4.5,0.8
29/03/2011,10.1,13.5,6.9,4.6
30/03/2011,9.8,11.9,5.3,0.8
31/03/2011,14.0,19.8,7.9,0.0
01/04/2011,16.1,24.5,6.4,0.0
02/04/2011,16.3,24.6,10.8,0.0
03/04/2011,9.7,11.7,7.2,1.6
04/04/2011,9.3,13.8,5.7,0.0
05/04/2011,13.7,24.0,4.4,0.0
06/04/2011,17.3,25.1,9.7,0.0
07/04/2011,18.2,26.3,10.9,0.0
08/04/2011,18.2,29.2,8.6,0.0
09/04/2011,17.0,27.1,10.2,0.0
10/04/2011,11.4,13.8,9.5,0.0
11/04/2011,10.8,13.0,9.6,0.0
12/04/2011,10.6,15.9,5.4,0.0
13/04/2011,12.0,20.5,4.9,0.0
14/04/2011,10.8,16.6,6.8,0.0
15/04/2011,9.9,15.5,6.3,0.0
16/04/2011,11.6,19.4,6.6,0.0
17/04/2011,14.8,21.6,4.9,0.0
18/04/2011,14.8,21.9,5.7,0.0
19/04/2011,13.5,20.9,4.9,0.0
20/04/2011,13.8,18.8,7.1,0.1
21/04/2011,14.4,19.5,11.0,1.1
22/04/2011,12.1,16.2,8.6,7.0
23/04/2011,12.2,17.9,8.9,3.1
24/04/2011,11.9,15.9,9.7,5.9
25/04/2011,12.7,16.1,10.7,0.1
26/04/2011,13.1,17.7,10.3,0.0
27/04/2011,13.4,18.9,9.1,0.0
28/04/2011,13.3,19.6,9.0,0.0
29/04/2011,13.1,21.5,5.5,0.0
30/04/2011,14.8,21.2,8.7,0.1
01/05/2011,16.2,22.1,11.8,0.0
02/05/2011,14.8,20.7,7.4,0.0
03/05/2011,13.4,18.3,9.1,0.0
04/05/2011,13.4,19.7,7.0,0.0
05/05/2011,16.2,24.5,6.4,0.0
06/05/2011,18.8,23.9,12.7,0.1
07/05/2011,13.0,16.3,10.6,26.9
08/05/2011,14.9,22.8,8.3,0.0
09/05/2011,17.5,26.0,7.8,0.0
10/05/2011,18.1,25.6,9.7,0.0
11/05/2011,19.3,28.1,11.0,0.0
12/05/2011,15.4,20.2,12.1,0.0
13/05/2011,17.2,24.9,10.7,0.0
14/05/2011,12.2,16.6,7.2,9.5
15/05/2011,10.6,15.8,6.5,0.0
16/05/2011,13.8,20.7,7.5,0.0
17/05/2011,16.5,26.8,6.2,0.0
18/05/2011,18.0,26.1,8.9,0.0
19/05/2011,16.0,23.5,10.7,0.2
20/05/2011,15.5,22.9,9.1,0.0
21/05/2011,18.5,25.7,12.1,0.0
22/05/2011,15.7,20.1,12.5,0.0
23/05/2011,18.8,28.1,9.6,0.0
24/05/2011,16.4,21.3,12.6,0.0
25/05/2011,19.6,31.9,8.7,6.0
26/05/2011,15.3,19.5,11.0,0.0
27/05/2011,12.4,16.4,9.3,0.1
28/05/2011,14.5,22.6,7.4,0.0
29/05/2011,18.2,29.5,8.2,0.0
30/05/2011,17.6,25.5,13.6,5.4
31/05/2011,12.0,15.1,7.7,1.4
01/06/2011,11.0,15.1,6.8,0.0
02/06/2011,13.1,15.9,11.0,0.1
03/06/2011,15.9,22.1,9.7,0.0
04/06/2011,16.4,22.6,11.4,0.0
05/06/2011,15.9,22.2,9.2,0.0
06/06/2011,15.5,22.8,11.2,26.6
07/06/2011,11.8,13.3,10.0,3.6
08/06/2011,11.6,16.1,8.1,0.2
09/06/2011,14.1,23.9,8.2,2.8
10/06/2011,12.1,16.9,8.3,1.2
11/06/2011,13.6,18.9,7.0,0.0
12/06/2011,18.5,27.5,9.3,0.0
13/06/2011,18.4,26.5,12.2,0.0
14/06/2011,20.3,30.3,13.2,0.0
15/06/2011,20.5,31.1,14.4,0.0
16/06/2011,15.8,19.4,12.8,0.0
17/06/2011,17.8,28.9,10.7,0.0
18/06/2011,13.9,18.1,10.0,0.0
19/06/2011,16.8,24.1,7.4,0.0
20/06/2011,22.3,33.3,10.9,0.0
21/06/2011,22.0,35.2,14.2,15.7
22/06/2011,16.0,18.9,12.6,0.0
23/06/2011,14.4,18.8,10.4,0.0
24/06/2011,15.5,21.9,9.2,0.0
25/06/2011,21.9,32.5,9.8,0.0
26/06/2011,28.9,37.1,17.9,0.0
27/06/2011,28.2,36.9,19.1,1.2
28/06/2011,18.5,26.3,13.4,2.0
29/06/2011,12.8,15.4,11.0,0.0
30/06/2011,14.8,20.4,11.0,0.0
01/07/2011,17.2,24.0,10.9,0.0
02/07/2011,21.3,32.4,9.5,0.0
03/07/2011,21.0,31.7,16.6,4.4
04/07/2011,18.9,24.0,13.9,0.0
05/07/2011,20.5,33.3,10.4,0.0
06/07/2011,17.2,22.8,12.7,0.0
07/07/2011,15.1,20.1,11.4,0.0
08/07/2011,19.4,28.7,9.4,0.0
09/07/2011,20.5,28.6,15.4,0.4
10/07/2011,18.7,23.6,16.0,0.0
11/07/2011,24.0,34.2,14.8,0.0
12/07/2011,18.1,25.5,13.3,0.5
13/07/2011,14.4,17.9,12.5,0.5
14/07/2011,16.4,21.2,12.3,0.0
15/07/2011,18.5,25.8,10.5,0.0
16/07/2011,21.1,30.9,15.3,0.0
17/07/2011,15.0,19.1,11.1,0.2
18/07/2011,16.8,25.8,8.1,0.0
19/07/2011,13.8,16.0,11.6,0.8
20/07/2011,15.9,22.1,11.2,0.0
21/07/2011,16.2,19.5,12.4,0.0
22/07/2011,14.2,18.2,11.8,0.0
23/07/2011,14.2,18.6,11.1,0.0
24/07/2011,15.1,19.0,11.3,0.0
25/07/2011,17.3,20.0,15.6,0.5
26/07/2011,17.2,20.4,13.9,0.0
27/07/2011,16.9,21.4,13.0,0.0
28/07/2011,17.4,22.3,13.7,0.0
29/07/2011,18.6,24.9,13.7,0.0
30/07/2011,19.0,24.5,14.5,0.0
31/07/2011,19.6,26.8,12.2,0.0
01/08/2011,23.4,34.0,11.7,0.0
02/08/2011,22.9,30.2,18.0,1.2
03/08/2011,20.0,24.9,16.1,0.0
04/08/2011,21.4,30.3,12.3,0.0
05/08/2011,21.0,31.6,16.7,0.0
06/08/2011,21.8,30.0,15.6,0.0
07/08/2011,19.3,28.8,14.2,0.0
08/08/2011,15.8,20.5,11.9,0.0
09/08/2011,15.6,20.3,12.0,0.0
10/08/2011,18.8,28.5,12.0,0.0
11/08/2011,20.2,30.7,11.6,0.0
12/08/2011,20.0,31.8,13.6,0.0
13/08/2011,23.2,33.9,14.6,0.0
14/08/2011,21.6,28.0,16.3,0.0
15/08/2011,20.9,26.2,17.2,0.0
16/08/2011,24.3,35.6,15.0,0.0
17/08/2011,23.6,37.9,16.6,0.0
18/08/2011,21.5,30.5,14.6,3.1
19/08/2011,26.5,37.5,15.1,0.0
20/08/2011,30.4,40.0,19.6,0.1
21/08/2011,29.3,38.8,20.0,0.0
22/08/2011,25.5,33.1,20.0,0.0
23/08/2011,21.8,30.3,17.5,0.0
24/08/2011,19.0,23.4,16.0,0.1
25/08/2011,23.6,32.6,13.6,0.0
26/08/2011,18.0,23.4,12.5,1.4
27/08/2011,15.5,20.7,10.5,0.0
28/08/2011,18.3,30.0,7.9,0.0
29/08/2011,18.2,26.2,14.1,0.0
30/08/2011,21.4,31.7,11.4,0.0
31/08/2011,22.3,29.9,16.8,0.0
01/09/2011,23.8,31.0,17.5,5.0
02/09/2011,20.7,28.6,15.0,4.3
03/09/2011,17.9,22.0,15.1,1.4
04/09/2011,16.7,22.6,13.2,0.0
05/09/2011,15.3,20.2,11.9,0.0
06/09/2011,18.1,28.4,8.0,0.0
07/09/2011,19.1,25.9,12.6,0.0
08/09/2011,20.5,29.0,14.2,0.0
09/09/2011,24.3,34.7,12.6,0.0
10/09/2011,24.8,35.0,17.2,0.0
11/09/2011,19.1,24.7,13.4,0.0
12/09/2011,19.9,28.5,11.6,0.0
13/09/2011,19.4,30.5,13.1,0.0
14/09/2011,19.9,28.1,15.9,0.9
15/09/2011,24.2,33.3,16.1,0.0
16/09/2011,21.4,30.2,17.1,1.0
17/09/2011,17.8,22.8,14.5,0.0
18/09/2011,13.1,16.2,10.0,0.0
19/09/2011,13.0,17.2,10.1,0.2
20/09/2011,16.9,25.0,11.3,0.0
21/09/2011,18.1,28.7,9.1,0.0
22/09/2011,17.4,23.3,14.5,0.0
23/09/2011,19.2,27.9,11.1,0.0
24/09/2011,18.3,24.1,13.6,0.0
25/09/2011,19.1,27.9,11.3,0.0
26/09/2011,20.0,29.3,11.7,0.0
27/09/2011,20.7,30.2,11.9,0.0
28/09/2011,21.2,30.2,14.2,0.0
29/09/2011,20.4,28.1,12.9,0.0
30/09/2011,21.0,26.8,15.4,0.0
01/10/2011,19.4,26.4,11.3,0.0
02/10/2011,18.8,28.1,9.9,0.0
03/10/2011,17.7,27.6,8.5,0.0
04/10/2011,18.9,27.2,13.1,0.0
05/10/2011,17.9,24.2,14.0,0.0
06/10/2011,16.8,21.8,11.5,0.0
07/10/2011,11.8,14.6,9.5,1.0
08/10/2011,11.1,14.6,9.1,0.1
09/10/2011,12.9,16.9,10.4,0.0
10/10/2011,16.7,27.4,7.4,0.0
11/10/2011,17.9,27.5,9.4,0.0
12/10/2011,16.9,24.7,9.5,0.0
13/10/2011,14.7,19.6,12.5,0.0
14/10/2011,14.9,22.7,8.9,0.0
15/10/2011,15.2,23.6,8.1,0.0
16/10/2011,14.6,22.1,8.4,0.0
17/10/2011,12.8,22.3,5.3,0.0
18/10/2011,13.9,23.5,5.7,0.0
19/10/2011,11.2,16.8,7.3,0.9
20/10/2011,8.5,12.9,4.3,0.0
21/10/2011,8.8,17.1,1.7,0.0
22/10/2011,12.6,20.3,4.9,0.0
23/10/2011,16.5,21.1,10.4,0.0
24/10/2011,13.4,15.6,9.1,5.1
25/10/2011,9.7,15.0,5.0,0.0
26/10/2011,12.5,15.8,5.5,0.0
27/10/2011,12.5,15.0,10.3,16.1
28/10/2011,11.2,14.0,10.0,0.1
29/10/2011,12.2,17.4,9.5,0.0
30/10/2011,11.9,17.9,8.1,0.0
31/10/2011,13.6,20.8,6.7,0.1
01/11/2011,15.5,17.9,12.3,2.3
02/11/2011,16.3,17.5,14.6,1.0
03/11/2011,13.5,16.1,9.6,10.2
04/11/2011,11.3,13.9,8.9,4.2
05/11/2011,9.2,10.4,7.9,33.7
06/11/2011,10.6,12.1,9.1,11.4
07/11/2011,10.7,11.5,9.7,0.0
08/11/2011,10.7,15.7,7.2,0.1
09/11/2011,11.5,17.5,6.8,0.5
10/11/2011,13.6,17.6,10.2,4.5
11/11/2011,16.0,19.2,13.0,0.0
12/11/2011,14.8,20.2,9.6,0.0
13/11/2011,15.3,18.3,12.7,0.0
14/11/2011,13.9,15.2,12.8,0.0
15/11/2011,11.1,14.5,8.7,6.5
16/11/2011,10.3,14.9,7.0,0.0
17/11/2011,8.8,15.3,4.0,0.0
18/11/2011,10.8,14.5,7.0,0.2
19/11/2011,11.7,15.4,9.0,0.1
20/11/2011,12.4,15.9,9.8,1.4
21/11/2011,11.0,15.8,6.8,0.0
22/11/2011,8.4,11.3,4.1,0.8
23/11/2011,11.1,14.5,9.3,0.0
24/11/2011,9.9,15.9,5.4,0.0
25/11/2011,7.5,12.4,2.4,0.0
26/11/2011,9.0,13.0,4.8,0.0
27/11/2011,4.4,9.9,0.5,0.0
28/11/2011,1.8,3.5,-0.8,0.4
29/11/2011,3.4,4.3,2.4,0.7
30/11/2011,2.8,4.0,0.6,0.1
01/12/2011,3.3,4.2,2.3,0.2
02/12/2011,5.0,6.6,3.1,3.7
03/12/2011,6.3,9.0,4.0,0.0
04/12/2011,6.9,12.2,2.9,0.0
05/12/2011,8.0,10.1,6.0,0.1
06/12/2011,8.0,11.2,5.2,0.0
07/12/2011,8.7,12.1,5.2,0.0
08/12/2011,7.9,14.3,4.4,0.0
09/12/2011,4.3,8.4,1.7,0.0
10/12/2011,5.1,10.8,2.0,0.0
11/12/2011,3.6,4.9,2.1,0.1
12/12/2011,6.3,11.5,2.5,0.1
13/12/2011,8.5,12.0,3.0,0.0
14/12/2011,9.1,12.3,4.1,0.0
15/12/2011,7.7,11.4,4.3,0.0
16/12/2011,8.3,12.4,3.8,4.6
17/12/2011,3.3,5.2,1.0,12.6
18/12/2011,1.6,3.9,-0.1,4.2
19/12/2011,3.2,5.9,0.8,0.1
20/12/2011,6.1,10.3,1.0,0.8
21/12/2011,9.4,11.1,8.1,0.0
22/12/2011,8.3,9.8,6.1,0.0
23/12/2011,6.5,10.0,3.3,0.1
24/12/2011,4.9,6.9,1.9,0.4
25/12/2011,3.1,6.9,-1.0,0.0
26/12/2011,1.0,8.2,-3.2,0.0
27/12/2011,1.8,9.4,-3.1,0.0
28/12/2011,3.7,8.6,-2.6,0.0
29/12/2011,4.4,6.7,3.0,1.5
30/12/2011,5.3,7.0,3.3,0.0
31/12/2011,8.3,10.2,5.9,0.0
