Fecha, Temperatura media, Temperatura maxima, Temperatura minima, Precipitacion acumulada
01/01/2012,8.4,12.9,4.4,0.0
02/01/2012,7.0,9.6,4.0,2.7
03/01/2012,4.5,11.7,0.8,0.0
04/01/2012,6.0,10.0,2.5,0.0
05/01/2012,6.7,9.9,2.4,0.0
06/01/2012,7.9,9.5,5.4,0.4
07/01/2012,7.8,10.7,6.0,0.0
08/01/2012,7.6,10.0,5.8,0.0
09/01/2012,4.6,7.2,0.7,0.0
10/01/2012,0.9,8.6,-2.8,0.0
11/01/2012,-0.8,4.7,-3.4,0.1
12/01/2012,-1.3,1.0,-4.6,0.7
13/01/2012,2.5,6.8,-0.3,0.1
14/01/2012,1.7,3.9,-2.1,0.0
15/01/2012,-0.2,6.0,-4.6,0.1
16/01/2012,2.5,6.3,0.3,5.3
17/01/2012,3.0,7.7,-0.5,0.0
18/01/2012,3.4,10.4,-2.5,0.1
19/01/2012,8.7,11.9,5.2,0.0
20/01/2012,8.5,11.2,6.5,0.2
21/01/2012,8.3,11.3,6.6,0.7
22/01/2012,8.1,9.8,7.1,0.0
23/01/2012,7.9,10.0,6.0,0.0
24/01/2012,5.8,7.7,3.3,0.0
25/01/2012,3.8,10.7,-1.1,0.0
26/01/2012,3.0,9.0,-2.4,0.0
27/01/2012,3.9,5.9,2.5,1.9
28/01/2012,2.9,6.3,0.4,6.1
29/01/2012,1.2,3.6,-0.6,0.2
30/01/2012,1.5,5.6,-1.1,0.0
31/01/2012,2.8,7.3,-1.8,0.0
01/02/2012,2.8,6.0,-1.7,1.9
02/02/2012,-4.2,-1.7,-6.4,0.0
03/02/2012,-5.4,-2.8,-7.6,0.0
04/02/2012,-3.6,-1.3,-8.0,0.0
05/02/2012,1.3,5.4,-3.0,10.5
06/02/2012,1.0,2.9,-1.6,0.0
07/02/2012,-1.5,0.8,-4.4,0.0
08/02/2012,-5.3,-3.0,-6.9,0.0
09/02/2012,-3.4,-1.7,-5.7,0.0
10/02/2012,-1.1,2.7,-4.5,0.0
11/02/2012,-3.6,0.0,-6.7,0.0
12/02/2012,-3.8,-0.5,-7.1,0.0
13/02/2012,-0.7,3.0,-4.7,0.0
14/02/2012,1.5,4.0,-0.3,4.3
15/02/2012,2.7,6.4,-0.0,0.0
16/02/2012,4.0,6.3,2.6,0.0
17/02/2012,4.2,8.4,1.2,0.0
18/02/2012,3.0,9.3,-3.5,0.0
19/02/2012,4.1,8.6,1.3,0.0
20/02/2012,1.7,5.8,-1.9,0.0
21/02/2012,2.1,7.9,-1.2,0.0
22/02/2012,4.1,12.0,-2.4,0.0
23/02/2012,8.1,13.7,3.2,0.0
24/02/2012,9.5,16.2,4.8,0.0
25/02/2012,6.0,11.4,0.7,0.0
26/02/2012,8.6,11.3,6.7,0.0
27/02/2012,7.6,12.3,4.6,0.0
28/02/2012,7.5,17.3,-0.8,0.0
29/02/2012,9.2,18.9,1.3,0.0
01/03/2012,9.0,18.5,1.2,0.0
02/03/2012,9.9,17.8,1.8,0.0
03/03/2012,9.4,17.0,3.6,0.0
04/03/2012,7.6,14.2,3.0,2.4
05/03/2012,3.4,7.4,1.0,0.5
06/03/2012,3.1,6.0,1.4,1.4
07/03/2012,5.1,9.3,-0.4,0.0
08/03/2012,5.7,8.6,3.3,0.0
09/03/2012,5.7,11.3,2.4,0.0
10/03/2012,6.3,11.9,1.2,0.0
11/03/2012,7.2,10.8,4.7,0.0
12/03/2012,9.8,16.5,4.9,0.0
13/03/2012,10.6,21.0,1.9,0.0
14/03/2012,12.7,24.5,3.5,0.0
15/03/2012,15.0,24.0,5.3,0.0
16/03/2012,13.2,21.5,3.9,0.0
17/03/2012,10.9,17.3,5.1,0.5
18/03/2012,5.8,11.8,1.6,0.2
19/03/2012,4.3,8.7,1.4,0.1
20/03/2012,5.0,8.8,1.3,0.0
21/03/2012,4.3,5.6,2.7,23.1
22/03/2012,6.5,13.2,0.9,0.0
23/03/2012,8.2,16.2,-0.4,0.0
24/03/2012,12.0,19.7,2.3,0.0
25/03/2012,11.9,21.3,3.0,0.0
26/03/2012,13.4,21.2,4.0,0.0
27/03/2012,12.4,19.5,6.0,0.0
28/03/2012,11.7,21.4,2.6,0.0
29/03/2012,12.2,20.9,2.3,0.0
30/03/2012,13.3,20.7,5.6,0.0
31/03/2012,12.8,19.6,7.6,0.0
01/04/2012,11.5,18.3,6.3,0.0
02/04/2012,12.2,21.6,4.6,0.0
03/04/2012,8.1,10.2,6.2,3.6
04/04/2012,8.2,13.3,5.6,0.1
05/04/2012,7.1,10.0,5.3,13.4
06/04/2012,6.4,10.4,2.4,15.3
07/04/2012,5.6,8.9,0.3,0.4
08/04/2012,7.9,11.5,5.4,0.1
09/04/2012,12.4,19.8,4.1,0.0
10/04/2012,9.9,16.6,4.6,5.0
11/04/2012,7.4,12.4,1.5,0.1
12/04/2012,7.2,13.0,3.4,3.0
13/04/2012,5.6,9.0,2.8,0.0
14/04/2012,5.1,7.5,3.1,7.6
15/04/2012,4.3,7.1,2.3,5.6
16/04/2012,3.4,6.8,0.7,2.0
17/04/2012,6.3,14.2,0.2,2.1
18/04/2012,6.7,10.1,2.3,8.2
19/04/2012,6.6,9.3,5.2,0.2
20/04/2012,8.3,12.2,4.5,1.4
21/04/2012,8.7,16.1,6.0,9.6
22/04/2012,7.9,12.6,5.2,0.0
23/04/2012,7.8,13.6,2.7,0.9
24/04/2012,7.7,10.9,3.7,1.4
25/04/2012,13.8,20.1,9.7,0.0
26/04/2012,10.0,14.7,7.4,2.6
27/04/2012,11.8,22.6,5.6,4.2
28/04/2012,7.3,9.0,5.0,32.1
29/04/2012,8.2,14.1,4.9,2.6
30/04/2012,7.4,12.7,4.5,25.5
01/05/2012,11.0,17.6,4.7,0.1
02/05/2012,14.2,20.7,5.0,0.0
03/05/2012,15.0,20.9,8.0,0.0
04/05/2012,12.2,17.7,7.7,1.3
05/05/2012,10.7,16.2,6.6,11.3
06/05/2012,10.1,15.9,4.5,0.5
07/05/2012,13.4,21.6,3.7,1.3
08/05/2012,16.7,23.0,13.5,8.0
09/05/2012,20.1,26.8,12.0,0.0
10/05/2012,22.8,30.0,13.3,0.0
11/05/2012,21.6,31.0,13.0,0.7
12/05/2012,16.2,20.2,12.7,0.0
13/05/2012,13.5,17.3,9.3,0.0
14/05/2012,12.9,20.7,7.2,0.0
15/05/2012,10.4,15.6,6.7,0.0
16/05/2012,12.7,19.7,5.6,0.0
17/05/2012,15.8,25.4,8.0,0.0
18/05/2012,13.9,22.6,9.6,19.3
19/05/2012,11.2,17.0,9.2,7.6
20/05/2012,8.1,9.4,6.8,9.3
21/05/2012,8.4,9.8,6.7,2.0
22/05/2012,11.7,15.9,9.0,1.5
23/05/2012,14.5,20.6,8.0,0.0
24/05/2012,18.9,25.5,13.4,0.0
25/05/2012,21.7,29.9,12.3,0.2
26/05/2012,16.3,23.4,11.4,0.0
27/05/2012,15.8,23.7,8.8,0.0
28/05/2012,16.9,23.2,10.9,0.0
29/05/2012,18.8,26.5,10.8,0.0
30/05/2012,18.2,27.4,11.7,0.0
31/05/2012,19.4,28.0,12.9,0.0
01/06/2012,22.5,32.8,12.3,0.0
02/06/2012,21.1,32.7,11.9,11.2
03/06/2012,14.5,17.8,12.3,2.6
04/06/2012,15.3,20.0,10.8,0.0
05/06/2012,18.6,29.1,8.0,0.0
06/06/2012,19.4,27.7,12.5,0.0
07/06/2012,20.4,28.5,12.4,0.0
08/06/2012,13.4,17.1,9.2,0.0
09/06/2012,14.2,22.5,7.0,0.0
10/06/2012,16.8,22.4,14.1,1.2
11/06/2012,14.1,23.5,9.5,4.5
12/06/2012,12.5,17.7,8.4,1.2
13/06/2012,13.8,18.5,9.4,0.0
14/06/2012,20.8,30.0,9.5,0.0
15/06/2012,22.1,32.2,11.1,0.0
16/06/2012,19.7,31.2,12.1,0.0
17/06/2012,21.9,32.2,11.6,0.0
18/06/2012,16.8,21.3,14.2,1.3
19/06/2012,17.8,24.2,13.6,11.2
20/06/2012,22.0,30.5,13.5,0.0
21/06/2012,17.5,26.7,10.5,0.0
22/06/2012,15.1,21.9,9.9,0.0
23/06/2012,18.3,28.4,10.9,0.0
24/06/2012,20.1,29.2,12.5,0.0
25/06/2012,21.5,29.1,13.2,0.0
26/06/2012,24.2,33.4,15.0,0.0
27/06/2012,26.9,35.8,15.7,0.0
28/06/2012,24.4,36.6,15.7,0.0
29/06/2012,19.6,29.5,14.7,0.0
30/06/2012,17.0,26.1,12.7,0.0
01/07/2012,13.5,17.8,9.8,0.0
02/07/2012,16.6,24.6,9.2,0.0
03/07/2012,21.6,32.6,11.7,0.0
04/07/2012,18.8,25.4,14.2,0.0
05/07/2012,16.1,20.2,13.1,0.0
06/07/2012,17.2,23.7,10.7,0.0
07/07/2012,20.8,31.1,13.8,0.0
08/07/2012,17.7,23.6,12.8,0.0
09/07/2012,17.3,26.5,13.4,0.0
10/07/2012,16.8,21.6,14.5,0.0
11/07/2012,15.6,20.0,12.1,0.0
12/07/2012,17.9,28.1,10.1,0.0
13/07/2012,20.5,32.9,11.4,0.0
14/07/2012,16.6,21.3,13.0,0.0
15/07/2012,15.9,21.5,12.0,0.0
16/07/2012,18.1,26.9,10.7,0.0
17/07/2012,23.9,33.5,14.0,0.0
18/07/2012,23.8,36.2,13.4,0.0
19/07/2012,17.6,22.8,13.6,0.0
20/07/2012,17.2,22.6,13.8,0.0
21/07/2012,17.1,22.4,14.0,0.0
22/07/2012,18.3,23.9,14.4,0.0
23/07/2012,20.7,27.8,15.1,0.0
24/07/2012,23.8,32.3,13.8,0.0
25/07/2012,26.1,35.1,15.9,0.0
26/07/2012,27.5,36.6,20.0,0.0
27/07/2012,21.4,30.9,15.2,15.0
28/07/2012,18.2,23.1,14.4,0.0
29/07/2012,18.3,24.8,13.4,0.0
30/07/2012,19.9,31.4,12.0,0.0
31/07/2012,25.3,36.5,13.4,0.0
01/08/2012,22.8,33.1,15.8,0.0
02/08/2012,19.6,26.9,15.7,0.0
03/08/2012,19.3,25.5,15.6,0.0
04/08/2012,19.2,27.0,14.0,0.1
05/08/2012,16.1,22.7,12.9,1.5
06/08/2012,17.3,23.9,12.0,0.0
07/08/2012,21.7,32.6,10.3,0.0
08/08/2012,26.2,35.4,14.8,0.0
09/08/2012,28.2,38.8,17.8,0.0
10/08/2012,29.6,40.9,18.4,0.0
11/08/2012,23.3,30.6,17.3,0.0
12/08/2012,19.9,26.1,16.0,0.0
13/08/2012,21.6,31.6,14.0,0.0
14/08/2012,26.3,34.9,16.1,0.0
15/08/2012,22.8,26.3,16.1,0.0
16/08/2012,23.8,33.7,11.5,0.0
17/08/2012,30.1,39.5,20.0,0.0
18/08/2012,30.7,40.5,19.6,0.0
19/08/2012,30.4,37.4,23.1,0.1
20/08/2012,29.5,38.9,21.0,0.0
21/08/2012,24.8,39.1,17.7,0.0
22/08/2012,22.2,34.6,17.5,0.0
23/08/2012,22.8,35.5,15.7,0.0
24/08/2012,22.3,32.7,13.6,0.0
25/08/2012,17.9,21.5,14.2,0.0
26/08/2012,18.5,25.0,12.5,0.0
27/08/2012,23.6,34.6,12.4,6.7
28/08/2012,22.0,33.2,14.4,0.0
29/08/2012,20.4,30.6,16.2,0.0
30/08/2012,15.8,19.1,12.4,0.0
31/08/2012,14.3,19.6,11.4,0.0
01/09/2012,13.6,18.0,10.1,0.0
02/09/2012,14.5,20.1,9.8,0.0
03/09/2012,15.8,20.0,12.0,0.0
04/09/2012,17.0,21.3,13.6,0.0
05/09/2012,18.6,24.3,15.1,0.0
06/09/2012,20.3,27.6,13.4,0.0
07/09/2012,22.9,32.9,12.9,0.0
08/09/2012,22.8,31.4,15.5,1.1
09/09/2012,21.7,32.9,13.0,0.0
10/09/2012,22.1,30.2,15.3,0.0
11/09/2012,21.1,31.0,14.4,0.0
12/09/2012,16.8,20.3,12.0,0.0
13/09/2012,14.2,18.7,11.5,0.5
14/09/2012,15.1,20.8,10.9,0.0
15/09/2012,17.5,26.0,10.8,0.0
16/09/2012,19.9,30.3,9.4,0.0
17/09/2012,21.3,30.0,14.5,0.0
18/09/2012,17.0,20.7,14.9,0.1
19/09/2012,15.3,20.2,10.9,0.0
20/09/2012,18.5,28.6,7.1,0.0
21/09/2012,21.3,29.9,15.7,1.1
22/09/2012,21.5,30.3,12.7,0.0
23/09/2012,22.5,30.5,17.1,3.4
24/09/2012,17.8,24.7,12.6,1.0
25/09/2012,15.7,20.2,12.6,8.2
26/09/2012,13.0,18.5,9.4,3.4
27/09/2012,12.9,19.0,6.8,0.0
28/09/2012,14.3,18.7,11.0,4.4
29/09/2012,12.0,13.5,10.5,6.0
30/09/2012,11.8,15.9,8.4,0.0
01/10/2012,11.7,18.9,6.0,0.0
02/10/2012,13.8,24.5,5.5,0.0
03/10/2012,16.1,25.8,8.1,0.0
04/10/2012,15.5,23.8,11.2,0.0
05/10/2012,18.2,26.6,9.2,0.0
06/10/2012,19.0,27.0,11.1,0.0
07/10/2012,18.9,24.3,14.8,0.0
08/10/2012,19.3,28.8,14.2,0.0
09/10/2012,19.9,28.3,13.5,0.0
10/10/2012,18.9,25.3,15.1,13.5
11/10/2012,15.7,22.9,12.5,10.7
12/10/2012,11.8,14.7,9.1,1.5
13/10/2012,10.9,16.1,5.8,0.0
14/10/2012,10.1,16.7,6.8,6.8
15/10/2012,9.6,13.7,6.9,0.0
16/10/2012,12.3,18.4,5.9,0.1
17/10/2012,17.4,22.1,12.7,0.0
18/10/2012,19.6,21.7,17.7,0.0
19/10/2012,14.0,22.1,11.4,39.3
20/10/2012,11.5,11.9,11.1,52.7
21/10/2012,12.9,16.0,11.3,14.0
22/10/2012,13.1,17.4,10.0,0.1
23/10/2012,12.3,18.5,8.8,0.0
24/10/2012,14.3,21.1,8.5,3.4
25/10/2012,15.0,18.3,12.6,26.7
26/10/2012,13.7,15.5,11.7,2.3
27/10/2012,7.3,12.3,1.1,6.8
28/10/2012,3.5,6.3,1.4,0.2
29/10/2012,5.1,12.9,-0.6,0.0
30/10/2012,5.9,10.8,-0.4,0.0
31/10/2012,8.4,13.0,5.0,0.0
01/11/2012,9.8,13.8,5.9,2.0
02/11/2012,12.9,17.8,8.2,0.1
03/11/2012,13.5,15.2,12.2,1.1
04/11/2012,10.6,13.9,6.0,9.4
05/11/2012,6.8,12.1,2.2,0.0
06/11/2012,6.1,9.9,3.3,2.2
07/11/2012,5.0,12.4,-0.7,0.0
08/11/2012,8.9,12.5,5.6,0.9
09/11/2012,11.8,15.3,8.8,1.1
10/11/2012,10.0,14.6,6.5,8.3
11/11/2012,6.4,8.7,4.9,0.0
12/11/2012,6.3,9.5,3.5,0.0
13/11/2012,7.1,12.4,2.8,0.0
14/11/2012,9.9,18.6,3.9,0.0
15/11/2012,12.0,18.5,7.9,0.0
16/11/2012,10.8,17.3,6.8,0.0
17/11/2012,11.7,16.4,8.1,20.0
18/11/2012,9.4,11.5,6.5,6.8
19/11/2012,6.8,13.4,2.2,0.0
20/11/2012,7.7,13.1,2.1,0.0
21/11/2012,9.3,12.1,6.2,0.4
22/11/2012,7.1,13.4,2.5,0.0
23/11/2012,9.1,14.4,3.4,0.0
24/11/2012,12.3,14.0,8.6,0.0
25/11/2012,10.8,13.2,9.0,1.5
26/11/2012,8.1,12.6,4.9,15.7
27/11/2012,4.4,6.6,2.3,1.2
28/11/2012,2.4,4.7,-0.1,30.5
29/11/2012,2.4,3.4,1.6,6.3
30/11/2012,1.6,2.7,0.1,0.0
01/12/2012,0.5,3.2,-0.9,0.0
02/12/2012,3.8,8.0,-1.2,0.0
03/12/2012,7.4,13.0,3.6,0.0
04/12/2012,5.7,6.8,4.4,1.2
05/12/2012,4.2,6.2,2.3,8.1
06/12/2012,4.6,9.2,1.7,0.0
07/12/2012,5.4,9.0,2.2,2.0
08/12/2012,4.5,6.4,2.2,3.9
09/12/2012,3.3,6.7,0.8,0.0
10/12/2012,3.1,6.9,-0.5,0.0
11/12/2012,3.3,6.9,-1.1,0.0
12/12/2012,-0.4,2.7,-3.7,0.0
13/12/2012,4.1,7.7,0.5,3.5
14/12/2012,9.5,11.8,7.2,4.8
15/12/2012,10.2,12.9,7.6,0.0
16/12/2012,9.1,11.8,5.5,2.7
17/12/2012,7.6,11.5,3.7,0.4
18/12/2012,5.6,10.5,1.1,0.7
19/12/2012,8.7,11.9,6.4,0.0
20/12/2012,10.1,12.7,8.1,0.4
21/12/2012,9.7,13.6,7.8,0.1
22/12/2012,8.9,15.1,5.2,0.0
23/12/2012,6.1,8.4,3.6,0.1
24/12/2012,10.5,16.5,4.6,0.2
25/12/2012,10.2,14.9,6.9,0.1
26/12/2012,6.4,10.1,1.2,0.1
27/12/2012,4.5,9.2,-0.6,0.0
28/12/2012,7.5,13.3,4.2,0.0
29/12/2012,5.6,10.0,2.0,0.0
30/12/2012,3.0,7.7,-0.6,0.0
31/12/2012,3.4,8.8,-1.6,2.6
