Fecha, Temperatura media, Temperatura maxima, Temperatura minima, Precipitacion acumulada
01/01/2015,6.0,11.5,0.9,0.0
02/01/2015,7.9,13.2,3.0,0.0
03/01/2015,5.9,13.0,-0.3,0.0
04/01/2015,8.9,11.7,6.6,0.0
05/01/2015,3.2,9.3,-1.1,0.0
06/01/2015,4.6,9.5,-1.0,0.1
07/01/2015,5.1,11.5,1.1,0.0
08/01/2015,1.9,6.7,-0.8,0.0
09/01/2015,7.0,12.8,4.7,0.0
10/01/2015,6.3,12.9,2.0,0.0
11/01/2015,6.6,9.5,0.1,0.0
12/01/2015,2.6,9.2,-3.2,0.0
13/01/2015,3.0,7.0,-0.8,0.3
14/01/2015,7.1,12.4,1.3,0.0
15/01/2015,8.2,9.8,6.5,0.1
16/01/2015,4.3,9.4,-0.1,8.0
17/01/2015,2.7,9.0,-0.2,4.6
18/01/2015,2.5,3.3,1.0,1.4
19/01/2015,1.1,4.0,-0.5,8.1
20/01/2015,0.2,2.7,-1.8,0.0
21/01/2015,1.6,4.3,-0.1,0.5
22/01/2015,1.5,4.6,-0.6,0.9
23/01/2015,2.3,5.1,1.0,0.0
24/01/2015,3.5,6.5,1.2,0.0
25/01/2015,1.8,4.4,0.5,0.0
26/01/2015,3.1,5.2,0.7,0.0
27/01/2015,5.0,6.9,3.5,1.1
28/01/2015,5.0,7.5,3.2,0.0
29/01/2015,7.4,10.1,1.9,0.9
30/01/2015,4.6,9.8,1.7,43.0
31/01/2015,1.8,4.9,-0.5,26.0
01/02/2015,-0.2,1.4,-0.5,23.0
02/02/2015,1.2,3.3,-1.4,18.8
03/02/2015,0.5,2.5,-1.1,3.9
04/02/2015,-1.9,-1.1,-3.1,0.0
05/02/2015,-2.3,-0.1,-4.0,0.0
06/02/2015,-3.5,-1.9,-5.1,0.0
07/02/2015,-1.9,0.8,-3.7,0.0
08/02/2015,-0.3,1.2,-2.5,0.1
09/02/2015,0.7,5.0,-2.9,0.0
10/02/2015,1.2,10.0,-4.6,0.0
11/02/2015,3.4,9.6,-2.0,0.0
12/02/2015,5.5,11.1,2.1,1.6
13/02/2015,6.0,10.7,1.6,0.0
14/02/2015,5.1,6.9,3.2,7.8
15/02/2015,6.0,9.0,3.1,3.1
16/02/2015,5.3,8.3,2.4,1.7
17/02/2015,4.3,6.2,2.9,0.2
18/02/2015,3.2,6.4,-0.8,0.0
19/02/2015,3.6,12.1,-2.4,0.0
20/02/2015,4.9,9.8,0.4,2.1
21/02/2015,3.4,5.8,0.8,19.1
22/02/2015,3.6,6.2,0.6,4.5
23/02/2015,6.7,11.8,3.4,2.7
24/02/2015,2.3,4.0,0.3,18.8
25/02/2015,5.9,9.0,2.1,22.1
26/02/2015,8.6,10.1,7.5,0.1
27/02/2015,4.3,8.9,2.3,3.4
28/02/2015,6.0,10.3,2.5,0.0
01/03/2015,11.5,16.3,8.1,0.2
02/03/2015,11.7,14.5,8.0,0.0
03/03/2015,11.1,18.1,7.7,0.0
04/03/2015,4.5,8.1,1.7,3.2
05/03/2015,3.9,7.1,0.9,0.0
06/03/2015,8.8,18.3,2.6,0.0
07/03/2015,10.1,20.1,0.4,0.0
08/03/2015,11.6,16.8,6.8,0.0
09/03/2015,11.0,19.0,4.1,0.0
10/03/2015,12.3,19.6,6.3,0.0
11/03/2015,9.9,18.6,3.6,0.0
12/03/2015,9.0,18.8,2.3,0.0
13/03/2015,6.5,9.4,2.4,0.1
14/03/2015,2.2,4.6,0.2,6.2
15/03/2015,3.6,6.9,1.7,0.2
16/03/2015,5.7,11.3,3.1,0.0
17/03/2015,8.6,14.8,0.4,0.0
18/03/2015,7.7,10.1,5.6,0.7
19/03/2015,8.3,13.5,5.1,6.9
20/03/2015,6.2,8.1,3.6,1.4
21/03/2015,5.0,7.7,2.8,3.8
22/03/2015,5.0,6.9,1.5,9.9
23/03/2015,3.7,8.3,-0.3,30.5
24/03/2015,5.3,8.3,2.0,0.8
25/03/2015,2.8,5.9,0.5,4.3
26/03/2015,5.8,9.3,1.8,2.4
27/03/2015,9.0,11.9,6.2,0.0
28/03/2015,10.6,14.7,8.3,0.0
29/03/2015,11.7,16.3,7.6,0.0
30/03/2015,11.2,13.8,8.5,0.0
31/03/2015,10.9,14.1,7.9,0.0
01/04/2015,7.8,11.2,3.7,0.0
02/04/2015,9.1,16.9,2.1,0.0
03/04/2015,10.6,18.3,5.4,0.0
04/04/2015,7.9,11.2,5.3,0.2
05/04/2015,8.6,12.6,5.9,0.0
06/04/2015,8.9,16.8,2.3,0.0
07/04/2015,10.8,17.7,2.7,0.0
08/04/2015,11.1,17.6,5.6,0.0
09/04/2015,10.4,17.1,4.0,0.0
10/04/2015,12.2,18.3,7.2,0.1
11/04/2015,11.5,16.3,7.0,0.0
12/04/2015,13.8,22.2,4.2,0.0
13/04/2015,15.2,23.4,4.9,0.0
14/04/2015,17.3,25.9,6.8,0.0
15/04/2015,12.6,18.2,8.1,0.0
16/04/2015,11.2,17.3,8.0,6.8
17/04/2015,11.6,16.4,7.4,0.0
18/04/2015,12.1,20.6,8.4,2.1
19/04/2015,9.7,13.7,5.6,0.0
20/04/2015,11.2,18.2,3.5,0.0
21/04/2015,14.4,22.4,5.1,0.0
22/04/2015,13.5,20.4,8.6,1.1
23/04/2015,12.7,18.2,7.2,0.0
24/04/2015,13.7,22.2,5.9,0.1
25/04/2015,15.7,20.7,10.6,0.0
26/04/2015,12.2,17.8,8.4,11.4
27/04/2015,9.8,13.4,6.7,0.3
28/04/2015,8.6,12.9,4.9,0.1
29/04/2015,9.8,15.8,4.9,0.0
30/04/2015,13.1,21.3,4.6,0.0
01/05/2015,15.3,18.1,12.3,0.7
02/05/2015,18.1,23.6,11.4,0.0
03/05/2015,18.3,21.1,15.1,0.2
04/05/2015,20.1,24.5,15.1,0.7
05/05/2015,15.1,22.5,9.4,0.0
06/05/2015,12.1,18.0,6.5,0.0
07/05/2015,16.9,26.4,5.6,0.0
08/05/2015,16.4,22.6,10.3,0.0
09/05/2015,14.6,20.5,8.0,0.0
10/05/2015,20.0,29.8,8.4,0.0
11/05/2015,22.8,31.4,11.6,0.0
12/05/2015,22.9,32.5,11.1,0.0
13/05/2015,22.7,32.5,15.4,0.0
14/05/2015,13.6,18.3,8.0,0.0
15/05/2015,8.9,11.2,7.6,1.9
16/05/2015,10.4,13.3,8.0,1.2
17/05/2015,13.2,17.0,9.8,0.0
18/05/2015,13.9,23.9,6.8,0.0
19/05/2015,9.6,12.8,6.9,0.0
20/05/2015,8.4,11.9,6.0,0.5
21/05/2015,8.4,12.7,5.4,0.0
22/05/2015,9.9,14.2,5.7,0.0
23/05/2015,10.9,14.4,8.5,0.0
24/05/2015,13.3,17.3,9.6,0.0
25/05/2015,12.8,15.9,10.3,0.0
26/05/2015,11.3,15.5,8.0,0.0
27/05/2015,14.1,19.4,10.0,0.0
28/05/2015,15.7,24.6,9.0,0.0
29/05/2015,13.2,18.7,8.7,0.0
30/05/2015,14.1,20.4,7.7,0.0
31/05/2015,17.0,26.4,9.6,0.0
01/06/2015,18.1,29.5,12.8,0.0
02/06/2015,20.5,30.6,11.5,0.0
03/06/2015,21.2,32.6,14.7,0.0
04/06/2015,24.2,32.2,13.4,0.0
05/06/2015,22.6,31.8,15.1,0.0
06/06/2015,18.0,26.1,13.8,0.0
07/06/2015,20.8,30.9,13.6,0.0
08/06/2015,20.9,28.3,14.2,0.0
09/06/2015,16.4,21.5,12.6,0.0
10/06/2015,13.4,16.1,11.1,30.4
11/06/2015,15.2,19.7,12.1,32.5
12/06/2015,16.1,24.0,10.3,0.9
13/06/2015,15.5,22.8,12.4,7.3
14/06/2015,15.3,22.2,11.1,0.0
15/06/2015,14.7,20.3,10.6,0.0
16/06/2015,12.8,15.1,10.9,0.0
17/06/2015,14.3,18.7,11.0,0.0
18/06/2015,15.6,20.1,11.2,0.0
19/06/2015,15.2,20.6,11.4,0.0
20/06/2015,17.2,22.9,12.0,0.0
21/06/2015,19.8,27.3,13.4,0.0
22/06/2015,21.3,32.0,12.1,2.5
23/06/2015,17.7,22.8,12.4,0.0
24/06/2015,18.3,25.1,11.2,0.0
25/06/2015,21.3,31.1,11.5,0.0
26/06/2015,22.4,33.3,13.7,0.0
27/06/2015,20.9,28.7,15.4,0.0
28/06/2015,21.6,30.7,13.6,0.0
29/06/2015,25.5,36.1,15.6,0.0
30/06/2015,28.2,36.9,18.3,2.7
01/07/2015,29.4,35.8,20.6,0.0
02/07/2015,24.7,32.9,18.0,0.0
03/07/2015,26.4,34.5,15.6,0.0
04/07/2015,26.3,35.8,18.4,0.0
05/07/2015,21.1,30.8,16.2,0.0
06/07/2015,26.4,37.7,15.1,0.0
07/07/2015,22.9,32.2,17.0,0.0
08/07/2015,17.3,19.9,13.7,0.0
09/07/2015,17.8,23.2,13.3,0.0
10/07/2015,22.3,36.4,11.2,0.0
11/07/2015,18.5,22.7,16.1,0.0
12/07/2015,19.0,25.0,14.6,0.0
13/07/2015,20.1,27.9,14.2,0.0
14/07/2015,21.6,29.9,15.2,0.0
15/07/2015,24.1,33.9,15.4,0.0
16/07/2015,25.1,34.7,18.0,0.0
17/07/2015,24.1,34.9,15.6,1.0
18/07/2015,23.7,34.4,18.4,2.8
19/07/2015,22.9,31.6,17.2,0.0
20/07/2015,24.7,32.3,17.8,0.0
21/07/2015,23.6,30.1,18.6,1.9
22/07/2015,20.4,26.4,17.0,0.0
23/07/2015,22.1,30.0,15.9,0.0
24/07/2015,21.5,31.4,16.1,0.0
25/07/2015,16.6,20.6,13.0,0.0
26/07/2015,19.8,30.2,9.4,0.0
27/07/2015,18.8,23.2,15.0,0.0
28/07/2015,20.1,27.8,14.2,0.0
29/07/2015,19.0,25.6,13.6,0.0
30/07/2015,13.5,16.0,11.2,5.5
31/07/2015,14.6,17.7,12.1,21.8
01/08/2015,16.3,21.3,12.1,0.0
02/08/2015,22.7,32.0,11.0,0.0
03/08/2015,24.6,32.7,16.3,0.4
04/08/2015,19.2,23.9,16.1,0.0
05/08/2015,23.4,35.1,15.3,0.0
06/08/2015,24.4,35.5,15.0,0.0
07/08/2015,19.8,24.3,16.1,0.0
08/08/2015,15.2,17.8,12.3,1.2
09/08/2015,16.0,20.3,12.8,0.0
10/08/2015,20.1,27.2,13.2,0.0
11/08/2015,23.4,34.8,13.3,4.6
12/08/2015,25.3,34.8,16.9,0.0
13/08/2015,19.8,25.9,16.1,3.9
14/08/2015,16.1,20.5,13.9,0.0
15/08/2015,15.5,20.5,12.3,0.7
16/08/2015,17.5,25.4,9.7,0.0
17/08/2015,17.3,22.3,14.2,0.0
18/08/2015,16.7,22.4,12.5,0.0
19/08/2015,17.7,25.1,11.4,0.0
20/08/2015,20.5,30.4,9.7,0.0
21/08/2015,24.4,34.0,13.6,0.0
22/08/2015,23.9,30.7,16.8,2.1
23/08/2015,20.7,26.6,15.8,0.0
24/08/2015,16.9,21.6,12.5,0.0
25/08/2015,19.3,29.0,8.6,0.0
26/08/2015,25.5,32.6,16.9,0.0
27/08/2015,25.8,33.3,18.8,0.0
28/08/2015,26.9,34.8,18.0,0.0
29/08/2015,27.7,34.9,19.0,0.0
30/08/2015,26.4,33.5,18.3,1.3
31/08/2015,20.4,31.2,14.7,36.8
01/09/2015,16.3,19.3,12.8,0.1
02/09/2015,15.3,20.7,11.5,3.2
03/09/2015,14.6,18.5,11.8,3.2
04/09/2015,13.4,17.7,10.2,0.0
05/09/2015,13.7,18.6,10.0,0.0
06/09/2015,14.5,20.4,9.3,0.0
07/09/2015,14.9,20.7,10.5,0.0
08/09/2015,16.3,24.7,8.4,0.0
09/09/2015,18.6,26.6,10.2,0.0
10/09/2015,17.0,21.8,14.4,1.4
11/09/2015,19.8,27.5,13.3,0.0
12/09/2015,20.4,24.9,17.1,7.0
13/09/2015,18.3,20.2,14.4,0.0
14/09/2015,14.9,18.7,11.3,0.0
15/09/2015,15.1,18.2,11.1,0.9
16/09/2015,19.7,24.2,15.9,0.1
17/09/2015,13.3,17.4,9.4,0.3
18/09/2015,12.6,19.4,6.5,0.0
19/09/2015,13.8,20.0,7.6,0.0
20/09/2015,15.1,22.2,9.7,0.0
21/09/2015,14.7,23.5,6.4,0.0
22/09/2015,14.5,18.9,11.3,0.0
23/09/2015,11.9,14.5,10.4,2.2
24/09/2015,14.6,21.0,10.2,0.0
25/09/2015,16.0,23.8,10.2,0.0
26/09/2015,16.0,22.8,11.8,0.0
27/09/2015,14.4,20.4,9.7,0.0
28/09/2015,14.8,24.4,7.5,0.0
29/09/2015,14.6,22.6,8.8,14.8
30/09/2015,15.8,22.1,11.4,0.5
01/10/2015,14.1,21.7,8.5,0.0
02/10/2015,11.7,14.0,9.2,0.0
03/10/2015,12.0,19.2,6.6,0.0
04/10/2015,13.9,19.5,7.7,1.2
05/10/2015,20.6,23.4,17.2,0.4
06/10/2015,16.6,21.2,11.4,0.2
07/10/2015,12.0,15.5,9.9,0.0
08/10/2015,12.3,16.9,9.5,0.0
09/10/2015,11.8,18.6,4.9,0.0
10/10/2015,13.9,23.5,5.8,0.0
11/10/2015,14.6,17.6,11.3,0.0
12/10/2015,14.4,19.5,10.8,7.7
13/10/2015,10.7,13.1,8.5,0.1
14/10/2015,7.5,11.0,4.2,0.0
15/10/2015,7.4,14.0,2.4,0.0
16/10/2015,8.0,14.8,1.2,0.0
17/10/2015,11.7,20.4,3.0,1.2
18/10/2015,14.3,17.6,12.1,1.1
19/10/2015,14.2,16.7,12.7,2.6
20/10/2015,10.8,13.5,8.5,0.5
21/10/2015,8.8,11.3,7.1,0.0
22/10/2015,10.0,12.1,7.2,0.0
23/10/2015,13.6,21.5,8.2,0.0
24/10/2015,14.4,18.4,10.3,0.0
25/10/2015,15.4,21.0,12.4,0.0
26/10/2015,15.9,20.1,13.8,0.0
27/10/2015,13.4,18.5,8.6,14.0
28/10/2015,11.5,15.6,9.0,0.9
29/10/2015,13.7,19.3,9.8,0.0
30/10/2015,15.6,21.4,10.5,0.0
31/10/2015,14.5,18.5,11.0,0.0
01/11/2015,13.8,18.1,10.1,0.0
02/11/2015,12.5,15.7,10.1,22.3
03/11/2015,11.9,14.3,9.3,6.9
04/11/2015,13.8,18.1,9.5,0.1
05/11/2015,13.1,16.1,9.2,0.0
06/11/2015,14.1,20.6,9.0,0.0
07/11/2015,14.7,20.4,10.6,0.0
08/11/2015,15.2,22.6,11.1,0.2
09/11/2015,13.0,19.2,9.1,0.0
10/11/2015,10.9,12.6,9.0,0.0
11/11/2015,8.7,10.9,6.3,0.5
12/11/2015,7.1,8.4,5.3,0.0
13/11/2015,9.7,13.9,4.8,0.0
14/11/2015,12.1,17.2,8.0,0.0
15/11/2015,7.4,11.5,5.1,0.0
16/11/2015,6.1,15.0,0.0,0.0
17/11/2015,7.9,16.1,2.2,0.0
18/11/2015,12.4,19.6,7.1,0.0
19/11/2015,13.5,17.3,9.7,0.0
20/11/2015,10.6,14.7,7.1,0.0
21/11/2015,6.7,12.8,2.4,18.6
22/11/2015,2.2,4.6,-0.2,12.2
23/11/2015,1.6,5.1,-1.2,1.2
24/11/2015,4.1,8.4,0.4,1.1
25/11/2015,9.1,10.8,6.4,12.1
26/11/2015,9.1,10.6,7.4,0.1
27/11/2015,7.7,9.3,6.3,0.0
28/11/2015,6.9,9.0,3.2,1.0
29/11/2015,6.5,10.5,2.3,0.0
30/11/2015,4.3,12.9,-0.8,0.0
01/12/2015,3.0,11.5,-1.8,0.0
02/12/2015,3.7,10.8,-0.9,0.0
03/12/2015,5.1,11.0,1.0,0.0
04/12/2015,7.5,12.8,1.8,0.0
05/12/2015,7.8,12.4,4.2,0.0
06/12/2015,7.6,10.0,5.1,0.0
07/12/2015,9.6,14.0,7.0,0.0
08/12/2015,8.6,10.2,7.0,0.0
09/12/2015,8.5,12.0,5.7,0.0
10/12/2015,5.8,7.6,4.9,0.4
11/12/2015,4.7,6.0,3.6,0.1
12/12/2015,3.7,4.3,3.0,0.4
13/12/2015,3.7,4.4,2.7,1.0
14/12/2015,2.9,3.9,1.5,0.5
15/12/2015,5.3,9.0,2.8,0.7
16/12/2015,8.0,14.5,3.8,0.0
17/12/2015,7.3,11.5,4.0,0.0
18/12/2015,8.3,14.5,3.8,0.0
19/12/2015,9.3,15.4,4.1,0.0
20/12/2015,8.6,14.8,5.8,0.0
21/12/2015,7.3,12.4,4.1,0.0
22/12/2015,4.2,5.8,1.8,0.2
23/12/2015,1.5,3.6,-0.9,1.2
24/12/2015,3.3,5.1,1.7,2.4
25/12/2015,4.3,5.7,2.3,0.2
26/12/2015,1.9,3.1,0.1,1.2
27/12/2015,1.7,3.4,-0.3,0.3
28/12/2015,10.2,13.6,2.0,0.1
29/12/2015,8.4,12.6,4.4,0.4
30/12/2015,7.2,12.8,2.6,0.0
31/12/2015,7.2,10.9,2.8,1.1
