Fecha, Temperatura media, Temperatura maxima, Temperatura minima, Precipitacion acumulada
01/01/2014,7.4,10.0,3.0,0.5
02/01/2014,10.4,12.4,7.6,0.8
03/01/2014,11.0,14.0,8.9,1.1
04/01/2014,7.8,11.8,1.9,6.7
05/01/2014,4.4,8.6,1.6,1.4
06/01/2014,9.4,12.2,3.6,0.3
07/01/2014,11.8,13.8,9.3,0.0
08/01/2014,11.8,15.4,6.6,0.0
09/01/2014,6.8,9.7,4.1,0.0
10/01/2014,4.7,9.4,1.3,0.0
11/01/2014,1.5,3.2,0.3,0.0
12/01/2014,4.6,6.8,2.4,1.3
13/01/2014,5.7,10.1,2.8,1.7
14/01/2014,5.1,6.8,4.0,10.6
15/01/2014,7.2,10.1,4.5,0.0
16/01/2014,7.5,10.0,5.0,2.5
17/01/2014,6.5,9.6,3.2,0.0
18/01/2014,5.4,7.5,1.2,11.3
19/01/2014,2.5,6.6,0.0,0.1
20/01/2014,2.9,6.4,0.8,3.1
21/01/2014,4.2,8.7,-0.2,0.0
22/01/2014,4.9,7.4,3.7,6.9
23/01/2014,5.2,7.4,3.3,3.8
24/01/2014,7.7,10.0,5.9,9.1
25/01/2014,9.7,11.9,8.2,1.0
26/01/2014,10.1,13.9,8.2,1.1
27/01/2014,5.1,8.7,2.3,2.4
28/01/2014,3.5,6.6,0.3,1.5
29/01/2014,4.1,8.8,1.2,0.0
30/01/2014,2.9,6.1,0.9,2.6
31/01/2014,5.3,9.5,1.0,0.9
01/02/2014,4.0,8.2,0.5,7.1
02/02/2014,2.5,8.0,-1.5,0.0
03/02/2014,3.2,6.5,0.6,0.1
04/02/2014,3.9,7.9,-1.1,1.4
05/02/2014,6.9,10.7,3.2,2.3
06/02/2014,9.9,14.7,6.4,4.9
07/02/2014,7.4,9.6,3.9,1.1
08/02/2014,7.6,10.9,3.0,1.7
09/02/2014,3.8,7.3,0.9,1.2
10/02/2014,4.2,6.0,1.2,3.2
11/02/2014,1.8,3.2,-0.6,3.9
12/02/2014,4.7,8.7,-0.8,0.2
13/02/2014,8.4,15.6,3.7,0.0
14/02/2014,13.3,18.3,5.3,0.0
15/02/2014,8.0,13.0,4.5,1.7
16/02/2014,4.5,9.4,0.9,0.0
17/02/2014,6.7,11.6,0.5,0.0
18/02/2014,5.7,7.6,3.3,0.0
19/02/2014,6.0,10.2,2.5,0.0
20/02/2014,6.8,14.0,0.6,1.2
21/02/2014,4.9,8.1,0.2,0.5
22/02/2014,5.0,12.5,-0.4,0.0
23/02/2014,7.4,14.1,-0.4,0.0
24/02/2014,9.2,13.0,5.2,0.0
25/02/2014,6.5,13.0,1.5,8.4
26/02/2014,2.9,7.4,-0.4,0.0
27/02/2014,3.5,9.0,-0.0,3.5
28/02/2014,3.7,6.4,0.7,6.2
01/03/2014,2.9,4.9,1.2,15.7
02/03/2014,8.1,11.9,2.8,0.5
03/03/2014,4.9,9.5,1.2,9.2
04/03/2014,5.1,7.1,2.5,13.6
05/03/2014,8.1,10.9,4.6,1.4
06/03/2014,8.2,12.3,3.3,0.0
07/03/2014,7.9,15.6,1.5,0.0
08/03/2014,10.5,18.9,1.6,0.0
09/03/2014,10.5,16.8,3.0,0.0
10/03/2014,8.8,17.5,0.3,0.0
11/03/2014,9.8,16.3,4.3,0.0
12/03/2014,8.9,16.1,2.3,0.0
13/03/2014,9.1,14.3,4.0,0.0
14/03/2014,8.2,16.8,-0.1,0.0
15/03/2014,8.3,11.6,5.4,0.0
16/03/2014,9.6,15.4,5.0,0.0
17/03/2014,12.0,22.3,2.2,0.0
18/03/2014,9.4,13.4,7.0,0.0
19/03/2014,9.4,15.5,4.9,0.0
20/03/2014,12.0,19.3,3.5,0.0
21/03/2014,13.0,18.8,7.5,0.0
22/03/2014,7.0,11.7,2.0,1.1
23/03/2014,2.6,6.3,-0.3,3.8
24/03/2014,3.4,8.0,-2.6,4.8
25/03/2014,4.5,7.4,-0.3,6.9
26/03/2014,2.7,5.7,-0.4,21.7
27/03/2014,5.7,12.0,0.7,1.7
28/03/2014,9.8,13.6,4.2,0.0
29/03/2014,9.9,14.1,6.5,0.0
30/03/2014,10.4,13.2,7.3,0.0
31/03/2014,12.4,16.6,7.7,0.0
01/04/2014,14.9,19.4,10.8,0.0
02/04/2014,11.9,16.0,9.3,6.7
03/04/2014,8.4,9.9,7.0,0.5
04/04/2014,9.8,14.6,6.9,0.3
05/04/2014,12.5,17.3,7.4,0.0
06/04/2014,15.4,24.8,7.6,0.0
07/04/2014,15.8,24.2,8.5,0.0
08/04/2014,10.8,14.5,7.2,0.0
09/04/2014,11.7,21.5,3.2,0.0
10/04/2014,14.5,22.6,6.4,0.8
11/04/2014,12.6,18.3,8.6,0.0
12/04/2014,10.8,16.0,7.6,0.0
13/04/2014,12.7,17.6,9.1,0.0
14/04/2014,14.9,23.3,8.9,0.0
15/04/2014,15.7,25.5,9.4,0.0
16/04/2014,15.4,24.9,6.1,0.0
17/04/2014,14.3,21.9,7.8,0.0
18/04/2014,13.8,22.0,5.5,0.0
19/04/2014,11.1,15.4,5.7,4.4
20/04/2014,8.2,10.9,4.8,10.4
21/04/2014,8.8,17.6,2.9,1.0
22/04/2014,10.4,14.9,7.4,0.0
23/04/2014,11.0,20.0,4.1,1.9
24/04/2014,10.0,14.9,7.0,7.9
25/04/2014,8.7,12.7,6.2,0.0
26/04/2014,9.7,13.8,6.1,7.5
27/04/2014,9.8,14.9,5.1,0.0
28/04/2014,10.0,12.9,7.7,0.1
29/04/2014,12.1,17.1,8.7,0.0
30/04/2014,12.4,15.8,10.3,0.0
01/05/2014,11.5,14.2,8.8,0.0
02/05/2014,8.7,11.8,7.1,0.4
03/05/2014,9.5,14.3,5.4,0.0
04/05/2014,10.5,16.8,5.1,0.0
05/05/2014,15.0,23.9,4.4,0.0
06/05/2014,14.9,21.1,10.6,0.0
07/05/2014,14.5,19.2,10.7,0.0
08/05/2014,14.3,22.2,6.8,0.0
09/05/2014,13.9,18.5,10.0,0.0
10/05/2014,14.9,22.7,8.2,0.0
11/05/2014,11.7,14.5,7.0,0.0
12/05/2014,10.3,16.4,5.5,0.2
13/05/2014,8.9,13.2,5.1,0.0
14/05/2014,10.7,16.2,4.2,0.0
15/05/2014,13.8,19.2,8.0,0.0
16/05/2014,12.8,18.5,8.6,0.0
17/05/2014,12.9,18.5,7.9,0.0
18/05/2014,15.8,24.3,4.9,0.0
19/05/2014,16.5,22.1,8.3,0.0
20/05/2014,15.3,17.5,13.5,0.4
21/05/2014,15.0,19.7,10.1,4.6
22/05/2014,11.6,16.4,8.4,2.4
23/05/2014,10.8,16.2,5.8,6.3
24/05/2014,10.3,18.6,5.8,17.1
25/05/2014,9.7,13.5,7.9,31.8
26/05/2014,10.0,15.3,7.4,0.0
27/05/2014,12.5,20.5,6.5,0.0
28/05/2014,10.2,13.2,8.8,9.1
29/05/2014,12.4,17.6,8.1,0.0
30/05/2014,11.6,15.9,8.3,0.1
31/05/2014,12.4,16.7,8.4,0.0
01/06/2014,13.4,18.0,10.0,0.0
02/06/2014,12.0,15.7,8.6,0.0
03/06/2014,14.9,22.3,8.7,0.0
04/06/2014,11.7,14.0,7.2,0.0
05/06/2014,17.4,26.7,5.7,0.0
06/06/2014,22.4,29.6,12.8,0.2
07/06/2014,22.1,29.7,14.7,0.0
08/06/2014,21.6,31.5,11.3,0.0
09/06/2014,20.8,31.4,13.4,0.0
10/06/2014,16.7,22.5,13.5,0.0
11/06/2014,19.9,30.0,12.5,0.0
12/06/2014,21.8,30.3,14.7,0.0
13/06/2014,21.1,27.4,15.7,0.0
14/06/2014,17.0,21.0,13.3,0.0
15/06/2014,16.2,20.5,12.4,0.0
16/06/2014,15.9,19.5,12.1,0.0
17/06/2014,16.4,22.5,12.0,0.0
18/06/2014,16.8,22.9,11.9,0.0
19/06/2014,18.8,27.5,9.1,0.0
20/06/2014,22.5,32.1,13.6,0.0
21/06/2014,23.3,32.6,16.5,13.3
22/06/2014,19.8,28.0,14.8,1.3
23/06/2014,19.1,28.9,13.3,0.1
24/06/2014,17.0,23.6,13.4,18.7
25/06/2014,17.2,22.1,13.8,0.1
26/06/2014,16.1,20.2,12.2,0.0
27/06/2014,18.7,29.1,9.4,0.0
28/06/2014,19.0,29.2,12.1,0.1
29/06/2014,14.3,20.0,10.9,0.0
30/06/2014,18.3,27.4,8.4,0.0
01/07/2014,18.0,26.7,12.6,12.7
02/07/2014,16.0,21.7,12.8,17.4
03/07/2014,16.5,22.3,14.0,16.0
04/07/2014,17.4,21.6,14.5,5.0
05/07/2014,21.6,30.1,12.6,1.3
06/07/2014,17.3,24.3,11.5,4.4
07/07/2014,14.0,17.8,11.1,0.0
08/07/2014,15.0,19.9,10.4,0.0
09/07/2014,14.0,18.0,11.5,0.3
10/07/2014,14.2,19.0,10.2,0.0
11/07/2014,15.1,19.8,11.9,0.1
12/07/2014,14.8,19.4,12.3,0.0
13/07/2014,18.0,25.2,11.5,0.0
14/07/2014,18.4,23.0,14.7,0.0
15/07/2014,20.8,29.4,12.5,0.0
16/07/2014,24.8,34.3,14.7,0.0
17/07/2014,27.0,35.7,18.0,0.0
18/07/2014,25.5,33.9,15.2,0.0
19/07/2014,20.7,26.0,15.8,0.2
20/07/2014,17.3,22.6,13.3,0.0
21/07/2014,16.4,21.1,11.9,0.0
22/07/2014,18.5,23.8,13.6,0.0
23/07/2014,21.2,27.8,16.1,0.0
24/07/2014,20.8,27.1,16.3,0.2
25/07/2014,20.3,26.0,17.1,4.1
26/07/2014,20.8,27.4,15.8,0.0
27/07/2014,20.4,26.0,15.1,0.0
28/07/2014,18.2,23.1,14.4,0.8
29/07/2014,15.7,20.5,13.1,0.7
30/07/2014,17.2,21.8,13.1,0.0
31/07/2014,20.1,27.7,14.1,0.0
01/08/2014,18.9,27.9,15.6,1.8
02/08/2014,19.3,26.3,15.6,1.0
03/08/2014,19.9,29.1,14.4,1.0
04/08/2014,18.4,24.6,15.4,0.0
05/08/2014,19.6,26.1,14.3,0.0
06/08/2014,19.8,26.2,13.6,0.0
07/08/2014,21.5,27.9,15.0,0.0
08/08/2014,22.6,33.0,16.3,0.0
09/08/2014,23.2,30.6,17.1,0.0
10/08/2014,22.9,32.3,17.6,0.0
11/08/2014,18.2,23.0,14.6,0.0
12/08/2014,20.2,29.8,13.2,0.0
13/08/2014,14.8,19.2,12.0,0.9
14/08/2014,15.3,20.4,10.9,0.0
15/08/2014,15.9,22.2,10.8,0.0
16/08/2014,14.3,19.3,10.5,0.0
17/08/2014,18.1,29.2,8.0,0.0
18/08/2014,17.5,27.8,12.7,2.8
19/08/2014,17.1,22.8,13.8,0.0
20/08/2014,15.8,21.4,12.0,0.0
21/08/2014,16.3,25.5,11.2,0.0
22/08/2014,13.5,14.4,10.7,2.8
23/08/2014,14.9,21.1,8.0,0.0
24/08/2014,18.7,29.2,8.9,0.0
25/08/2014,22.3,33.3,11.8,0.0
26/08/2014,22.2,32.6,14.2,0.0
27/08/2014,23.1,29.7,17.4,0.0
28/08/2014,21.6,32.2,16.2,0.0
29/08/2014,18.5,22.6,16.2,0.0
30/08/2014,17.5,22.1,15.7,0.0
31/08/2014,18.8,24.6,15.1,0.0
01/09/2014,19.9,26.7,14.9,0.0
02/09/2014,20.8,27.3,15.6,0.0
03/09/2014,21.2,30.6,12.6,0.0
04/09/2014,18.8,25.9,15.9,0.0
05/09/2014,19.0,27.1,12.5,0.0
06/09/2014,22.3,32.6,13.4,0.0
07/09/2014,22.7,32.7,15.7,7.6
08/09/2014,19.8,26.5,15.6,4.2
09/09/2014,21.2,29.1,15.1,0.0
10/09/2014,22.0,30.3,14.7,0.0
11/09/2014,21.6,27.0,17.3,0.0
12/09/2014,20.0,26.9,14.8,0.0
13/09/2014,19.7,28.1,11.6,0.0
14/09/2014,19.0,28.8,13.3,3.6
15/09/2014,18.1,26.4,12.7,0.0
16/09/2014,21.1,28.1,14.2,0.2
17/09/2014,22.1,27.8,18.3,0.9
18/09/2014,21.5,26.7,17.2,0.0
19/09/2014,21.0,25.9,17.3,0.0
20/09/2014,19.9,27.6,14.1,6.8
21/09/2014,18.0,24.8,12.5,0.0
22/09/2014,16.2,17.2,14.9,7.9
23/09/2014,14.3,17.8,11.1,0.0
24/09/2014,12.6,17.7,7.3,0.0
25/09/2014,13.9,19.1,9.3,0.0
26/09/2014,14.5,21.8,7.7,0.0
27/09/2014,16.6,23.9,8.5,0.0
28/09/2014,17.2,20.3,14.5,0.5
29/09/2014,16.2,17.9,14.7,1.4
30/09/2014,16.5,19.8,14.2,0.0
01/10/2014,16.6,23.1,11.3,0.0
02/10/2014,16.8,24.2,10.9,0.0
03/10/2014,16.3,23.5,10.2,0.0
04/10/2014,15.7,23.1,9.6,0.0
05/10/2014,13.1,17.1,8.9,0.0
06/10/2014,16.0,23.9,6.9,0.0
07/10/2014,19.3,24.5,14.9,0.0
08/10/2014,19.4,23.9,16.3,5.0
09/10/2014,16.6,20.7,13.7,29.5
10/10/2014,14.6,17.8,12.2,5.2
11/10/2014,16.3,22.3,11.5,0.7
12/10/2014,15.3,18.2,12.0,5.3
13/10/2014,14.0,16.7,11.8,3.7
14/10/2014,14.5,20.1,10.0,0.0
15/10/2014,13.7,17.9,9.3,0.2
16/10/2014,19.3,24.0,16.3,0.0
17/10/2014,20.0,24.5,16.3,0.0
18/10/2014,21.9,26.2,17.5,0.0
19/10/2014,19.6,28.4,12.7,0.0
20/10/2014,18.4,26.3,11.9,0.0
21/10/2014,16.1,24.9,10.9,0.0
22/10/2014,11.7,14.7,8.6,0.2
23/10/2014,12.7,20.9,5.6,0.0
24/10/2014,16.5,25.1,8.8,0.0
25/10/2014,16.4,24.0,10.0,0.0
26/10/2014,15.7,24.9,9.4,0.0
27/10/2014,13.3,18.3,8.9,0.0
28/10/2014,14.4,19.2,11.8,0.0
29/10/2014,14.3,20.1,10.6,0.0
30/10/2014,13.2,19.2,9.6,0.0
31/10/2014,12.5,17.6,9.0,0.1
01/11/2014,13.1,17.4,10.5,0.1
02/11/2014,12.8,15.3,10.5,2.7
03/11/2014,12.0,16.0,8.7,5.9
04/11/2014,7.1,10.9,4.4,14.7
05/11/2014,5.3,7.9,4.2,9.1
06/11/2014,7.9,12.2,2.8,0.0
07/11/2014,9.1,11.2,5.7,1.7
08/11/2014,8.3,13.3,3.1,0.0
09/11/2014,8.1,11.3,3.6,0.0
10/11/2014,6.8,12.5,1.4,0.0
11/11/2014,7.6,9.5,6.2,4.4
12/11/2014,8.6,15.1,4.8,0.0
13/11/2014,13.1,15.9,8.1,0.0
14/11/2014,11.0,16.1,7.0,13.9
15/11/2014,8.3,12.1,5.9,1.8
16/11/2014,8.4,10.7,5.6,2.2
17/11/2014,7.2,10.8,4.8,1.4
18/11/2014,7.0,12.1,3.0,0.0
19/11/2014,8.8,14.3,5.0,0.0
20/11/2014,9.8,16.1,5.9,0.0
21/11/2014,11.5,15.1,7.6,0.0
22/11/2014,12.0,16.3,9.9,0.0
23/11/2014,14.3,19.2,10.3,0.0
24/11/2014,13.3,16.1,10.7,0.2
25/11/2014,11.5,14.1,9.5,1.1
26/11/2014,9.9,12.0,8.4,0.0
27/11/2014,10.7,13.7,7.0,0.7
28/11/2014,12.7,14.6,11.6,0.1
29/11/2014,10.6,12.7,9.6,14.5
30/11/2014,11.3,13.1,9.5,2.6
01/12/2014,7.8,11.8,3.4,8.4
02/12/2014,6.1,7.3,4.7,0.0
03/12/2014,4.5,7.0,1.3,0.0
04/12/2014,3.3,7.2,-0.6,0.0
05/12/2014,4.5,7.2,1.5,2.3
06/12/2014,2.5,4.0,0.9,7.3
07/12/2014,3.6,6.6,0.3,0.0
08/12/2014,6.7,8.9,4.0,11.0
09/12/2014,2.9,4.7,1.2,5.6
10/12/2014,5.8,9.1,0.9,0.0
11/12/2014,7.1,9.8,2.0,0.2
12/12/2014,4.5,9.4,0.6,0.0
13/12/2014,9.0,11.4,6.6,1.2
14/12/2014,7.3,9.6,6.2,1.3
15/12/2014,5.9,7.5,4.4,0.5
16/12/2014,6.9,9.9,4.6,5.3
17/12/2014,7.8,10.1,6.5,0.1
18/12/2014,8.3,9.7,7.3,0.0
19/12/2014,7.5,9.1,6.3,0.0
20/12/2014,9.0,12.3,7.1,0.0
21/12/2014,6.7,9.9,1.5,0.0
22/12/2014,1.2,5.6,-1.3,1.3
23/12/2014,0.2,1.6,-1.2,0.2
24/12/2014,0.3,4.4,-3.1,0.0
25/12/2014,6.1,9.3,1.6,0.0
26/12/2014,7.0,9.9,4.3,0.1
27/12/2014,7.2,10.5,5.5,12.1
28/12/2014,2.5,6.2,-1.1,19.9
29/12/2014,-1.4,1.1,-3.4,0.0
30/12/2014,0.2,3.4,-2.6,0.0
31/12/2014,3.4,9.4,-1.0,0.0
