Fecha, Temperatura media, Temperatura maxima, Temperatura minima, Precipitacion acumulada
01/01/2010,4.9,8.3,2.7,0.0
02/01/2010,4.0,7.9,0.3,0.0
03/01/2010,5.3,7.2,4.1,9.5
04/01/2010,4.6,6.5,2.7,0.6
05/01/2010,3.4,5.2,0.9,0.1
06/01/2010,1.7,7.2,-1.6,0.0
07/01/2010,-0.4,2.0,-2.5,0.0
08/01/2010,-2.6,-0.9,-4.1,0.0
09/01/2010,-3.7,-2.7,-4.9,0.0
10/01/2010,-3.4,-0.8,-6.4,0.4
11/01/2010,-1.9,2.2,-5.8,0.0
12/01/2010,0.0,5.5,-5.2,5.6
13/01/2010,3.3,7.0,-2.0,10.1
14/01/2010,5.7,7.6,3.8,19.8
15/01/2010,5.7,10.1,3.4,0.0
16/01/2010,5.5,7.6,3.1,1.3
17/01/2010,7.3,9.4,5.8,0.1
18/01/2010,6.7,10.4,3.4,0.0
19/01/2010,9.3,11.1,8.4,0.4
20/01/2010,6.8,9.4,4.2,0.1
21/01/2010,4.9,9.4,1.2,0.0
22/01/2010,5.1,12.2,-0.2,0.0
23/01/2010,6.2,8.1,4.2,0.0
24/01/2010,5.3,7.5,2.9,0.6
25/01/2010,2.1,3.9,0.0,0.0
26/01/2010,0.8,3.6,-1.6,0.0
27/01/2010,-1.7,1.0,-3.7,0.0
28/01/2010,1.9,5.4,-1.8,0.1
29/01/2010,4.9,8.1,3.4,6.8
30/01/2010,2.9,4.2,1.3,7.7
31/01/2010,1.3,3.1,-0.6,0.0
01/02/2010,1.1,5.8,-2.3,0.0
02/02/2010,1.9,8.1,-2.0,0.0
03/02/2010,2.0,8.2,-3.3,0.0
04/02/2010,5.4,8.8,1.2,3.3
05/02/2010,7.3,11.8,3.8,3.3
06/02/2010,7.2,9.5,5.8,2.6
07/02/2010,6.0,8.5,3.2,0.0
08/02/2010,4.2,5.1,1.8,5.5
09/02/2010,2.4,4.1,0.0,0.1
10/02/2010,0.4,3.0,-2.4,0.0
11/02/2010,-3.6,-1.3,-6.1,0.0
12/02/2010,-4.1,-1.8,-6.3,0.0
13/02/2010,-4.0,-2.9,-5.2,0.0
14/02/2010,-2.6,-0.5,-4.2,0.0
15/02/2010,-3.0,1.6,-7.5,0.0
16/02/2010,0.5,4.9,-2.0,11.2
17/02/2010,5.8,7.5,2.6,7.0
18/02/2010,5.7,9.9,1.4,0.0
19/02/2010,3.7,6.9,0.3,0.1
20/02/2010,3.2,9.0,-2.1,0.0
21/02/2010,4.5,6.6,1.1,3.4
22/02/2010,9.0,13.6,5.9,0.4
23/02/2010,9.8,13.4,8.2,0.0
24/02/2010,9.5,12.3,6.2,1.3
25/02/2010,11.1,13.7,8.1,1.8
26/02/2010,8.3,12.9,3.6,0.0
27/02/2010,11.7,16.5,6.5,3.2
28/02/2010,9.7,13.8,6.7,0.0
01/03/2010,8.5,12.9,4.3,1.7
02/03/2010,8.7,15.7,0.6,0.0
03/03/2010,5.4,9.7,4.3,6.1
04/03/2010,6.2,9.6,2.9,0.0
05/03/2010,5.0,9.4,2.7,0.0
06/03/2010,6.1,11.1,1.6,0.0
07/03/2010,2.0,7.6,-1.9,0.0
08/03/2010,-1.8,1.5,-4.6,0.0
09/03/2010,-0.4,2.8,-4.2,0.0
10/03/2010,-2.4,-1.0,-3.7,0.0
11/03/2010,-0.7,2.4,-3.1,0.0
12/03/2010,0.5,3.8,-1.4,0.0
13/03/2010,3.6,8.1,1.3,0.0
14/03/2010,3.0,6.7,0.5,0.0
15/03/2010,5.1,12.5,0.6,0.0
16/03/2010,6.3,16.2,-2.7,0.0
17/03/2010,10.7,19.1,-0.1,0.0
18/03/2010,9.4,16.3,3.3,0.0
19/03/2010,12.2,18.7,5.5,1.2
20/03/2010,16.0,19.9,11.4,0.1
21/03/2010,11.5,14.7,7.5,0.0
22/03/2010,10.5,18.0,6.4,0.0
23/03/2010,11.0,18.8,1.6,0.0
24/03/2010,13.1,17.5,9.2,15.2
25/03/2010,10.2,14.7,6.4,7.7
26/03/2010,8.0,12.9,1.9,0.4
27/03/2010,8.6,15.0,4.4,0.0
28/03/2010,9.2,16.0,3.6,0.0
29/03/2010,11.2,16.7,4.9,3.2
30/03/2010,8.0,13.3,4.8,2.8
31/03/2010,7.0,12.3,2.2,0.7
01/04/2010,5.7,9.8,1.6,0.1
02/04/2010,8.7,14.0,2.7,0.0
03/04/2010,9.2,13.5,5.7,0.9
04/04/2010,5.9,10.3,2.9,0.2
05/04/2010,8.5,17.0,-1.1,0.0
06/04/2010,11.9,19.3,3.2,0.0
07/04/2010,8.1,11.6,4.5,1.8
08/04/2010,7.6,12.0,4.2,0.0
09/04/2010,10.6,18.9,5.2,0.0
10/04/2010,12.0,21.1,3.2,0.0
11/04/2010,11.0,17.1,5.2,0.0
12/04/2010,7.6,10.9,3.2,0.0
13/04/2010,7.1,14.6,0.9,0.0
14/04/2010,7.7,12.1,3.4,0.0
15/04/2010,8.7,11.0,5.2,0.0
16/04/2010,11.5,18.9,5.2,0.0
17/04/2010,11.3,17.6,5.1,0.0
18/04/2010,10.9,16.6,7.1,0.1
19/04/2010,12.8,19.3,9.1,0.0
20/04/2010,14.2,23.1,6.8,0.0
21/04/2010,16.2,23.6,7.9,0.0
22/04/2010,12.8,14.4,11.7,7.0
23/04/2010,12.1,15.4,10.3,0.0
24/04/2010,14.6,23.2,6.4,0.0
25/04/2010,14.9,21.3,9.8,0.0
26/04/2010,15.9,24.2,7.8,0.0
27/04/2010,17.1,24.2,11.5,0.0
28/04/2010,18.5,27.4,8.3,0.0
29/04/2010,15.9,25.4,9.9,27.0
30/04/2010,13.2,19.4,10.2,2.9
01/05/2010,11.0,14.1,7.3,0.2
02/05/2010,8.5,11.7,6.1,0.0
03/05/2010,6.7,9.7,3.7,2.2
04/05/2010,4.2,5.1,3.1,3.9
05/05/2010,4.7,6.9,3.6,1.0
06/05/2010,6.9,10.0,4.9,0.7
07/05/2010,7.3,13.3,0.7,0.5
08/05/2010,11.5,17.1,5.8,0.6
09/05/2010,12.4,19.3,8.7,17.8
10/05/2010,12.0,18.9,5.6,0.9
11/05/2010,9.9,15.1,5.8,0.1
12/05/2010,8.9,13.4,5.8,0.0
13/05/2010,6.8,10.4,5.2,0.0
14/05/2010,7.6,12.3,2.7,0.6
15/05/2010,7.4,11.1,4.6,1.0
16/05/2010,8.2,12.6,3.8,0.0
17/05/2010,10.1,15.0,5.4,0.0
18/05/2010,12.8,19.9,6.5,0.0
19/05/2010,11.3,15.2,6.7,0.0
20/05/2010,14.1,19.9,8.1,0.0
21/05/2010,17.7,25.3,9.4,0.0
22/05/2010,18.4,26.6,10.0,0.0
23/05/2010,19.7,27.5,9.9,0.0
24/05/2010,19.8,27.7,11.2,1.3
25/05/2010,19.7,27.0,12.4,0.0
26/05/2010,16.5,23.3,11.1,0.0
27/05/2010,14.9,20.9,10.3,0.0
28/05/2010,12.8,15.9,8.6,0.0
29/05/2010,14.1,20.6,5.4,0.0
30/05/2010,16.6,20.7,11.3,0.0
31/05/2010,17.5,21.4,12.4,0.0
01/06/2010,16.5,23.9,10.5,0.0
02/06/2010,15.3,20.1,12.0,0.0
03/06/2010,17.4,25.0,9.8,0.0
04/06/2010,19.0,25.7,12.5,0.0
05/06/2010,20.8,32.6,11.2,10.1
06/06/2010,14.2,15.9,12.0,0.5
07/06/2010,18.3,27.1,10.3,0.0
08/06/2010,17.2,26.9,12.9,0.9
09/06/2010,16.3,20.4,13.4,1.3
10/06/2010,16.4,20.7,13.3,0.2
11/06/2010,15.4,19.3,12.6,2.2
12/06/2010,13.8,16.7,11.5,10.5
13/06/2010,15.5,19.9,12.6,0.0
14/06/2010,12.6,16.4,8.5,0.0
15/06/2010,11.2,15.8,6.0,2.7
16/06/2010,11.3,13.8,9.5,13.9
17/06/2010,11.2,13.6,9.6,0.0
18/06/2010,13.4,18.7,10.4,0.0
19/06/2010,13.6,18.2,10.9,1.0
20/06/2010,11.2,15.2,8.9,2.3
21/06/2010,12.8,17.6,7.6,0.0
22/06/2010,15.0,21.1,9.3,0.0
23/06/2010,17.7,24.8,11.5,0.0
24/06/2010,19.4,28.3,9.6,0.0
25/06/2010,21.5,30.6,11.1,0.0
26/06/2010,21.8,30.6,16.5,0.9
27/06/2010,20.6,30.2,15.1,11.6
28/06/2010,20.1,27.6,15.8,1.7
29/06/2010,20.4,26.2,14.8,0.0
30/06/2010,21.7,28.9,15.8,0.0
01/07/2010,25.0,34.7,14.4,0.0
02/07/2010,22.9,30.9,18.1,0.4
03/07/2010,21.0,29.4,16.5,0.0
04/07/2010,19.9,24.7,15.4,0.0
05/07/2010,18.2,23.7,14.2,0.0
06/07/2010,18.7,24.5,14.6,0.0
07/07/2010,24.0,35.5,13.1,0.0
08/07/2010,29.1,37.3,17.8,0.0
09/07/2010,23.4,30.5,16.5,0.0
10/07/2010,24.9,35.4,14.3,0.0
11/07/2010,27.0,37.3,19.5,0.0
12/07/2010,23.2,29.5,18.4,0.0
13/07/2010,24.2,34.7,16.8,0.0
14/07/2010,20.8,31.3,15.0,0.0
15/07/2010,22.0,31.9,13.2,0.0
16/07/2010,19.8,25.3,15.4,0.0
17/07/2010,17.2,21.4,14.1,0.0
18/07/2010,20.9,30.6,13.1,0.0
19/07/2010,22.4,31.2,14.5,0.0
20/07/2010,21.4,34.5,15.9,3.2
21/07/2010,16.4,19.6,13.8,1.0
22/07/2010,15.5,19.4,13.7,4.2
23/07/2010,15.7,20.2,12.4,0.0
24/07/2010,16.5,22.3,11.7,0.0
25/07/2010,16.3,20.4,13.1,0.0
26/07/2010,17.6,22.5,14.1,0.0
27/07/2010,20.4,28.0,14.3,0.0
28/07/2010,21.7,29.9,15.3,0.0
29/07/2010,18.6,23.4,14.8,0.0
30/07/2010,18.8,24.2,13.4,0.0
31/07/2010,22.3,34.3,12.6,0.0
01/08/2010,20.4,28.9,17.3,0.0
02/08/2010,16.6,19.2,15.0,0.4
03/08/2010,17.3,22.8,13.3,0.0
04/08/2010,17.5,23.1,13.3,0.0
05/08/2010,16.8,22.3,12.1,0.0
06/08/2010,17.7,24.5,11.3,0.0
07/08/2010,20.8,32.1,10.5,0.0
08/08/2010,20.6,27.7,14.0,0.0
09/08/2010,18.8,23.0,15.6,0.0
10/08/2010,21.0,31.4,11.6,0.0
11/08/2010,20.3,27.2,14.0,0.0
12/08/2010,17.7,20.4,14.5,0.0
13/08/2010,16.1,21.6,12.8,0.0
14/08/2010,15.2,20.7,12.1,0.0
15/08/2010,15.0,20.8,10.1,0.0
16/08/2010,16.8,24.1,10.1,0.0
17/08/2010,20.0,31.4,10.2,0.0
18/08/2010,20.3,29.2,13.2,0.0
19/08/2010,21.3,26.9,15.9,0.0
20/08/2010,24.2,33.8,15.2,0.0
21/08/2010,27.7,37.5,16.6,0.0
22/08/2010,29.0,36.7,20.3,0.0
23/08/2010,25.3,35.0,16.5,0.0
24/08/2010,19.4,22.6,16.0,0.2
25/08/2010,24.7,35.5,13.3,0.0
26/08/2010,29.5,38.7,20.7,0.0
27/08/2010,22.6,29.4,16.6,0.0
28/08/2010,17.7,21.9,14.6,0.0
29/08/2010,17.2,23.2,13.4,0.0
30/08/2010,16.1,21.4,12.1,0.0
31/08/2010,19.5,29.0,11.6,0.0
01/09/2010,21.0,28.5,13.4,0.0
02/09/2010,19.4,24.6,16.3,11.2
03/09/2010,19.6,27.9,12.6,0.0
04/09/2010,19.2,28.4,10.7,0.0
05/09/2010,22.9,34.5,11.4,0.1
06/09/2010,23.4,32.6,16.2,0.1
07/09/2010,17.4,25.1,12.9,1.8
08/09/2010,16.0,21.3,11.0,0.0
09/09/2010,15.7,19.4,12.0,0.0
10/09/2010,16.7,24.6,8.8,0.0
11/09/2010,19.8,30.3,10.8,0.0
12/09/2010,17.2,21.1,14.3,0.0
13/09/2010,16.0,21.9,11.4,0.0
14/09/2010,18.6,26.4,12.1,0.0
15/09/2010,19.7,28.0,10.9,0.0
16/09/2010,16.8,18.4,15.0,0.1
17/09/2010,14.4,17.9,12.0,0.7
18/09/2010,14.0,17.9,10.3,0.0
19/09/2010,14.7,22.7,7.3,0.0
20/09/2010,18.3,25.8,9.2,0.0
21/09/2010,20.6,28.1,13.3,0.0
22/09/2010,20.5,28.4,12.3,0.0
23/09/2010,19.5,24.0,14.9,3.6
24/09/2010,13.6,15.9,10.6,0.4
25/09/2010,11.3,14.2,9.9,1.4
26/09/2010,10.0,13.9,6.2,0.0
27/09/2010,10.8,16.6,5.6,0.0
28/09/2010,11.5,17.1,6.5,0.0
29/09/2010,14.3,24.3,4.8,0.0
30/09/2010,14.2,18.3,10.8,0.0
01/10/2010,16.5,25.7,8.0,0.0
02/10/2010,20.9,26.9,13.9,0.0
03/10/2010,18.5,24.1,14.1,4.4
04/10/2010,13.6,17.7,9.7,4.5
05/10/2010,14.9,22.5,6.0,0.0
06/10/2010,18.1,26.1,11.0,0.0
07/10/2010,18.6,24.1,12.1,0.0
08/10/2010,20.8,25.5,16.5,0.0
09/10/2010,18.5,21.1,14.3,10.4
10/10/2010,11.5,14.6,10.1,18.1
11/10/2010,12.7,17.1,10.1,5.6
12/10/2010,13.5,16.1,11.7,0.0
13/10/2010,13.1,16.0,10.4,0.0
14/10/2010,10.5,14.6,7.8,0.0
15/10/2010,9.6,13.7,7.2,0.0
16/10/2010,9.3,14.0,6.2,0.0
17/10/2010,7.7,11.6,5.4,0.0
18/10/2010,7.0,10.9,4.0,0.0
19/10/2010,7.8,12.9,3.6,0.0
20/10/2010,8.8,13.5,4.5,0.0
21/10/2010,9.1,16.8,2.3,0.0
22/10/2010,9.8,15.3,4.1,0.0
23/10/2010,11.6,17.5,7.7,0.0
24/10/2010,10.7,15.8,7.0,2.3
25/10/2010,6.2,8.6,3.9,0.3
26/10/2010,6.7,11.5,2.6,0.0
27/10/2010,11.2,19.1,4.0,0.0
28/10/2010,12.1,22.2,4.6,0.0
29/10/2010,14.9,18.6,7.4,5.6
30/10/2010,10.5,12.2,6.9,0.1
31/10/2010,10.4,13.7,8.5,7.5
01/11/2010,10.5,13.4,8.5,8.6
02/11/2010,10.2,12.0,8.9,0.3
03/11/2010,12.8,15.7,10.1,0.0
04/11/2010,14.1,18.2,11.9,0.0
05/11/2010,13.4,18.7,10.6,0.0
06/11/2010,9.7,13.0,5.8,0.0
07/11/2010,8.1,11.7,3.6,1.6
08/11/2010,5.9,8.9,3.3,10.8
09/11/2010,8.6,12.3,6.3,0.3
10/11/2010,6.1,8.0,4.4,1.9
11/11/2010,7.6,10.9,3.4,0.1
12/11/2010,12.5,18.5,8.5,0.0
13/11/2010,11.2,15.8,7.2,0.0
14/11/2010,9.7,11.6,6.7,2.9
15/11/2010,6.8,10.9,3.3,2.7
16/11/2010,6.4,9.5,2.0,1.0
17/11/2010,4.8,8.4,2.4,2.9
18/11/2010,5.4,10.4,1.2,0.0
19/11/2010,6.1,8.5,2.1,0.0
20/11/2010,8.5,11.2,5.9,11.1
21/11/2010,6.2,8.6,4.8,10.6
22/11/2010,5.1,6.4,3.6,1.4
23/11/2010,4.9,8.1,2.1,0.0
24/11/2010,4.3,7.2,1.4,0.0
25/11/2010,3.1,8.3,-0.4,0.6
26/11/2010,1.4,4.8,-1.5,0.8
27/11/2010,-0.2,2.7,-2.6,0.1
28/11/2010,-0.7,4.1,-3.1,0.1
29/11/2010,-2.0,2.1,-5.5,0.1
30/11/2010,1.4,3.8,-0.7,0.4
01/12/2010,2.1,4.2,-0.1,0.6
02/12/2010,0.0,3.7,-2.2,4.2
03/12/2010,-0.3,2.5,-2.3,3.3
04/12/2010,0.9,5.3,-4.3,0.1
05/12/2010,6.0,10.6,0.8,1.5
06/12/2010,12.5,15.6,10.1,1.0
07/12/2010,13.4,14.6,11.8,2.5
08/12/2010,12.6,17.8,7.9,10.6
09/12/2010,4.3,7.8,0.6,2.2
10/12/2010,4.0,11.1,-0.2,0.0
11/12/2010,1.7,8.9,-2.9,0.0
12/12/2010,5.2,12.1,-0.8,0.0
13/12/2010,6.6,9.9,2.4,0.0
14/12/2010,1.5,5.2,-0.2,0.0
15/12/2010,-2.0,0.4,-4.9,0.0
16/12/2010,-2.2,1.0,-6.0,0.0
17/12/2010,0.2,4.7,-4.3,0.0
18/12/2010,1.3,7.2,-3.5,0.0
19/12/2010,1.7,7.9,-2.3,0.0
20/12/2010,3.5,10.1,-2.1,0.0
21/12/2010,4.9,8.5,2.3,13.0
22/12/2010,9.6,12.8,6.7,9.1
23/12/2010,4.7,7.6,1.8,5.7
24/12/2010,0.9,3.1,-0.5,2.3
25/12/2010,-1.8,-0.5,-4.5,0.0
26/12/2010,-2.1,2.9,-5.4,0.0
27/12/2010,-0.7,3.7,-5.1,0.0
28/12/2010,2.4,8.5,-2.2,0.0
29/12/2010,4.8,10.4,1.7,0.0
30/12/2010,6.3,8.4,3.4,0.0
31/12/2010,7.4,10.7,4.9,0.0
