Fecha, Temperatura media, Temperatura maxima, Temperatura minima, Precipitacion acumulada
01/01/2012,6.3,13.1,-0.1,0.0
02/01/2012,6.4,10.7,-0.5,3.1
03/01/2012,4.6,10.6,-1.8,0.3
04/01/2012,8.3,11.3,5.1,0.0
05/01/2012,8.6,12.9,2.2,0.0
06/01/2012,10.1,12.3,5.1,0.2
07/01/2012,8.1,12.2,0.5,0.0
08/01/2012,9.1,10.5,7.5,0.0
09/01/2012,6.6,10.2,2.7,0.0
10/01/2012,1.1,9.0,-3.7,0.0
11/01/2012,-0.6,8.2,-6.2,0.2
12/01/2012,-0.5,3.1,-3.5,0.1
13/01/2012,3.9,9.0,0.7,0.1
14/01/2012,4.3,7.9,0.3,0.0
15/01/2012,1.2,4.4,-4.2,0.0
16/01/2012,3.0,7.1,-1.6,5.0
17/01/2012,1.9,10.8,-3.4,0.2
18/01/2012,3.9,13.1,-4.9,0.2
19/01/2012,10.9,15.1,5.5,0.0
20/01/2012,10.3,13.5,7.3,0.0
21/01/2012,9.5,13.0,4.9,0.0
22/01/2012,9.9,12.4,8.5,0.0
23/01/2012,10.1,12.6,8.6,0.0
24/01/2012,7.7,10.5,2.5,0.0
25/01/2012,2.6,10.0,-3.4,0.0
26/01/2012,3.3,11.6,-5.2,0.2
27/01/2012,5.4,7.7,1.8,1.2
28/01/2012,4.7,9.2,1.2,4.6
29/01/2012,3.2,5.4,1.4,1.5
30/01/2012,3.3,8.4,-1.0,0.0
31/01/2012,5.2,9.1,-0.0,0.0
01/02/2012,4.7,8.3,0.7,0.2
02/02/2012,-1.1,0.9,-2.8,0.0
03/02/2012,-1.9,-0.1,-3.5,0.0
04/02/2012,0.1,3.1,-4.6,0.0
05/02/2012,4.2,8.8,0.5,9.6
06/02/2012,3.6,5.7,0.5,2.6
07/02/2012,1.0,4.2,-1.2,0.1
08/02/2012,-1.3,-0.3,-2.7,0.0
09/02/2012,0.2,2.7,-1.7,0.0
10/02/2012,1.6,5.5,-1.8,0.0
11/02/2012,-1.0,2.4,-3.9,0.0
12/02/2012,-0.7,2.4,-4.2,0.0
13/02/2012,2.0,4.6,-0.6,0.4
14/02/2012,3.7,6.7,1.7,6.8
15/02/2012,4.9,8.1,0.6,0.3
16/02/2012,5.5,7.8,3.6,2.1
17/02/2012,4.0,7.7,-2.1,0.0
18/02/2012,3.0,12.5,-5.9,0.1
19/02/2012,5.2,8.8,1.8,0.0
20/02/2012,3.0,7.9,-3.0,0.0
21/02/2012,3.6,12.5,-4.3,0.0
22/02/2012,5.5,15.1,-5.2,0.0
23/02/2012,10.2,17.0,3.1,0.0
24/02/2012,10.3,18.7,0.7,0.0
25/02/2012,7.5,17.6,-2.4,0.1
26/02/2012,10.3,13.9,6.1,0.0
27/02/2012,9.3,14.7,5.2,0.0
28/02/2012,5.7,16.3,-3.4,0.0
29/02/2012,2.8,8.0,-0.3,0.0
01/03/2012,5.8,18.3,-3.7,0.1
02/03/2012,5.7,16.2,-4.9,0.6
03/03/2012,7.6,16.4,0.3,0.1
04/03/2012,7.9,15.0,1.0,1.9
05/03/2012,4.6,8.1,1.8,1.1
06/03/2012,4.7,9.0,1.1,1.3
07/03/2012,6.8,11.5,-1.1,0.3
08/03/2012,7.8,10.8,5.3,0.3
09/03/2012,7.6,13.7,3.1,0.0
10/03/2012,8.2,16.3,1.3,0.0
11/03/2012,9.5,15.1,6.1,0.0
12/03/2012,1.9,17.9,-0.8,0.0
13/03/2012,9.8,24.8,-2.1,0.1
14/03/2012,10.3,24.8,-1.3,0.1
15/03/2012,9.3,23.0,-1.4,0.0
16/03/2012,13.1,19.7,-0.5,0.2
17/03/2012,9.1,18.1,-0.1,0.3
18/03/2012,6.6,12.5,0.5,0.0
19/03/2012,4.1,10.5,3.2,0.0
20/03/2012,5.3,6.9,-,0.0
21/03/2012,5.9,7.6,4.4,2.6
22/03/2012,6.4,15.3,-0.3,1.2
23/03/2012,1.5,15.5,-2.5,0.0
24/03/2012,8.1,18.8,-1.6,0.2
25/03/2012,8.8,21.3,-2.2,0.1
26/03/2012,9.5,20.4,-1.7,0.1
27/03/2012,9.3,19.6,-0.3,0.0
28/03/2012,9.2,21.5,-1.4,0.0
29/03/2012,10.8,23.0,-2.0,0.1
30/03/2012,13.2,23.1,1.1,0.0
31/03/2012,14.7,23.1,8.4,0.0
01/04/2012,13.4,21.3,4.6,0.0
02/04/2012,11.2,21.4,0.5,0.0
03/04/2012,9.0,10.5,5.8,1.4
04/04/2012,9.5,13.3,6.9,0.1
05/04/2012,8.8,11.4,7.1,1.1
06/04/2012,7.4,13.5,1.3,0.5
07/04/2012,6.0,9.6,0.7,0.3
08/04/2012,9.3,13.3,6.0,0.2
09/04/2012,12.1,20.4,5.4,0.1
10/04/2012,8.7,15.5,0.7,0.1
11/04/2012,7.4,13.5,0.2,0.1
12/04/2012,7.3,13.2,0.9,0.3
13/04/2012,7.1,12.2,2.0,0.5
14/04/2012,6.8,10.6,3.7,6.8
15/04/2012,5.4,8.4,3.2,8.7
16/04/2012,5.1,8.0,2.0,3.2
17/04/2012,8.1,15.9,1.1,2.5
18/04/2012,7.9,12.1,3.3,10.1
19/04/2012,8.3,12.0,5.2,1.2
20/04/2012,9.9,15.3,5.5,5.1
21/04/2012,9.1,16.6,5.6,6.5
22/04/2012,9.8,15.1,5.6,0.0
23/04/2012,8.2,16.4,2.4,3.1
24/04/2012,8.5,14.1,1.0,0.0
25/04/2012,12.1,18.3,4.6,1.0
26/04/2012,10.1,13.2,7.1,0.6
27/04/2012,10.9,20.1,2.6,3.5
28/04/2012,8.2,10.0,5.9,21.3
29/04/2012,8.3,12.7,4.4,2.4
30/04/2012,9.6,15.8,5.3,2.1
01/05/2012,8.8,15.8,2.5,2.8
02/05/2012,11.6,19.5,0.2,0.2
03/05/2012,13.0,21.2,3.8,0.0
04/05/2012,11.2,17.2,6.5,3.1
05/05/2012,10.1,17.2,5.0,4.4
06/05/2012,11.1,18.3,3.8,0.1
07/05/2012,12.7,21.5,1.4,1.7
08/05/2012,15.4,22.5,10.2,2.0
09/05/2012,17.5,26.6,9.2,0.2
10/05/2012,19.9,28.3,8.8,0.1
11/05/2012,20.4,30.8,10.2,0.0
12/05/2012,18.3,24.9,13.0,0.0
13/05/2012,15.3,20.6,7.9,0.0
14/05/2012,14.8,25.3,6.0,0.0
15/05/2012,11.9,19.4,4.0,0.0
16/05/2012,13.6,24.0,4.0,0.0
17/05/2012,15.8,23.8,6.7,0.0
18/05/2012,16.5,23.8,11.2,0.6
19/05/2012,12.7,18.6,9.7,16.5
20/05/2012,8.9,10.3,7.5,12.6
21/05/2012,9.5,11.4,7.6,1.1
22/05/2012,13.1,18.0,6.7,1.3
23/05/2012,16.7,25.6,4.2,0.1
24/05/2012,19.6,28.4,11.6,0.0
25/05/2012,19.7,29.0,8.8,0.0
26/05/2012,17.4,25.1,10.0,0.1
27/05/2012,16.7,25.3,6.4,0.0
28/05/2012,18.0,27.4,6.9,0.0
29/05/2012,20.3,28.7,12.0,6.9
30/05/2012,20.9,30.3,13.3,0.0
31/05/2012,21.4,31.2,12.9,0.0
01/06/2012,23.2,34.7,9.7,0.0
02/06/2012,21.5,33.0,13.9,11.3
03/06/2012,16.4,21.4,13.9,1.0
04/06/2012,17.4,23.9,10.4,0.0
05/06/2012,19.6,30.1,6.7,0.0
06/06/2012,20.2,28.3,12.1,0.0
07/06/2012,18.9,27.9,10.6,0.0
08/06/2012,15.5,20.6,9.6,0.0
09/06/2012,14.7,22.5,4.3,0.0
10/06/2012,18.5,24.6,14.6,0.8
11/06/2012,15.0,24.3,9.7,6.4
12/06/2012,13.8,20.1,7.9,0.7
13/06/2012,15.6,22.2,8.5,0.0
14/06/2012,20.0,31.8,5.9,0.0
15/06/2012,21.7,32.3,8.3,0.0
16/06/2012,20.1,32.0,9.1,0.0
17/06/2012,22.4,32.5,10.2,0.0
18/06/2012,18.8,24.4,15.6,0.0
19/06/2012,18.1,22.9,14.0,13.0
20/06/2012,22.1,30.7,15.3,0.3
21/06/2012,17.6,28.6,10.0,0.0
22/06/2012,16.6,25.5,8.0,0.0
23/06/2012,20.5,30.1,9.6,0.0
24/06/2012,22.6,33.5,12.0,0.0
25/06/2012,23.5,33.9,10.9,0.0
26/06/2012,25.1,37.2,11.9,0.0
27/06/2012,26.4,37.2,12.1,0.0
28/06/2012,24.9,36.6,15.0,0.0
29/06/2012,21.6,32.0,13.1,0.0
30/06/2012,17.5,26.3,10.1,0.0
01/07/2012,15.0,19.4,8.6,0.0
02/07/2012,19.5,28.8,-,0.0
03/07/2012,22.0,33.2,10.6,0.0
04/07/2012,20.7,28.8,15.1,0.0
05/07/2012,9.4,12.3,-,0.0
06/07/2012,18.1,25.3,12.3,0.0
07/07/2012,22.1,32.1,10.0,0.0
08/07/2012,19.0,26.3,11.6,0.0
09/07/2012,15.2,29.0,11.6,0.0
10/07/2012,15.7,24.0,15.3,0.0
11/07/2012,16.5,22.0,11.1,0.0
12/07/2012,14.3,30.6,7.8,0.0
13/07/2012,18.5,33.3,8.7,0.0
14/07/2012,16.0,22.5,15.3,0.0
15/07/2012,17.5,23.4,9.5,0.0
16/07/2012,20.0,30.4,9.2,0.0
17/07/2012,24.2,36.0,9.2,0.0
18/07/2012,24.0,38.0,9.0,0.0
19/07/2012,20.1,28.3,14.2,0.0
20/07/2012,18.4,24.2,13.3,0.0
21/07/2012,18.2,23.3,12.9,0.0
22/07/2012,19.6,26.4,14.5,0.0
23/07/2012,21.7,31.0,12.1,0.0
24/07/2012,23.0,31.8,11.0,0.0
25/07/2012,26.6,34.9,18.5,0.0
26/07/2012,26.1,35.7,17.9,4.4
27/07/2012,21.4,30.6,15.3,9.3
28/07/2012,19.7,24.9,16.2,0.1
29/07/2012,20.8,28.3,15.5,0.0
30/07/2012,22.2,33.5,13.4,0.0
31/07/2012,25.5,35.5,13.0,11.0
01/08/2012,24.5,35.2,14.5,0.0
02/08/2012,21.9,30.2,16.4,0.0
03/08/2012,21.5,29.8,12.9,0.0
04/08/2012,22.8,32.5,13.3,0.2
05/08/2012,16.9,24.9,11.8,9.5
06/08/2012,17.8,26.3,9.4,0.2
07/08/2012,20.8,31.1,9.7,0.0
08/08/2012,27.3,34.0,12.8,0.0
09/08/2012,25.6,38.6,12.3,0.0
10/08/2012,28.1,41.2,13.8,0.0
11/08/2012,24.1,36.3,16.0,0.0
12/08/2012,21.3,28.0,16.5,0.0
13/08/2012,21.6,32.0,11.8,0.0
14/08/2012,23.9,34.2,12.4,0.0
15/08/2012,20.7,26.9,10.2,0.0
16/08/2012,22.4,34.1,9.7,0.0
17/08/2012,27.1,38.1,12.2,0.0
18/08/2012,29.7,38.6,17.8,0.0
19/08/2012,28.3,36.8,21.0,0.0
20/08/2012,27.8,38.0,16.8,0.0
21/08/2012,25.8,38.7,15.9,0.0
22/08/2012,23.6,34.0,17.2,0.0
23/08/2012,23.3,34.0,14.9,0.0
24/08/2012,23.3,31.5,14.0,0.0
25/08/2012,18.9,23.6,14.5,0.0
26/08/2012,19.2,29.0,8.7,0.1
27/08/2012,22.4,33.7,8.1,9.8
28/08/2012,22.7,32.4,13.1,0.0
29/08/2012,21.3,30.4,17.2,0.0
30/08/2012,17.3,21.8,13.7,0.0
31/08/2012,15.8,21.1,11.1,0.0
01/09/2012,15.1,20.6,10.6,0.0
02/09/2012,15.2,22.2,-,0.1
03/09/2012,17.6,22.8,13.8,0.0
04/09/2012,18.1,23.7,13.4,0.0
05/09/2012,19.8,25.1,14.7,0.0
06/09/2012,21.1,30.8,12.6,0.0
07/09/2012,20.5,31.9,9.3,0.0
08/09/2012,19.8,32.3,10.8,9.0
09/09/2012,20.0,30.8,10.0,0.0
10/09/2012,21.5,29.6,13.3,0.1
11/09/2012,21.3,31.0,13.1,0.0
12/09/2012,18.6,23.3,14.0,0.0
13/09/2012,16.5,21.4,12.9,0.0
14/09/2012,17.5,25.3,10.2,0.0
15/09/2012,19.8,32.1,9.1,0.0
16/09/2012,17.5,29.9,5.3,0.1
17/09/2012,20.4,29.2,11.4,0.0
18/09/2012,18.0,22.2,15.6,1.0
19/09/2012,15.8,21.0,8.6,0.0
20/09/2012,17.2,26.7,4.8,0.0
21/09/2012,20.8,29.0,15.2,2.8
22/09/2012,18.7,28.7,12.2,0.1
23/09/2012,21.2,31.0,14.5,1.0
24/09/2012,19.5,24.5,14.4,0.2
25/09/2012,17.0,21.0,12.6,3.8
26/09/2012,13.8,18.8,8.2,0.9
27/09/2012,13.1,20.8,5.3,0.0
28/09/2012,15.1,19.2,9.2,4.3
29/09/2012,13.9,15.7,11.8,6.7
30/09/2012,13.3,18.3,6.2,0.0
01/10/2012,11.3,22.2,2.0,0.1
02/10/2012,13.1,24.3,2.6,0.1
03/10/2012,13.7,24.6,4.5,0.1
04/10/2012,13.7,24.7,5.7,0.1
05/10/2012,14.0,25.4,4.8,0.0
06/10/2012,15.5,23.5,5.4,0.1
07/10/2012,19.2,27.8,12.6,0.0
08/10/2012,18.7,30.2,10.8,0.0
09/10/2012,19.4,28.2,10.5,0.0
10/10/2012,18.9,24.5,14.1,8.6
11/10/2012,16.6,22.6,13.5,7.7
12/10/2012,12.6,17.3,7.1,3.9
13/10/2012,10.5,18.4,3.9,0.2
14/10/2012,9.1,16.6,3.9,5.0
15/10/2012,9.3,15.5,3.4,0.7
16/10/2012,10.5,17.6,2.8,0.8
17/10/2012,14.1,20.7,4.5,0.1
18/10/2012,17.6,20.6,15.3,0.0
19/10/2012,13.5,19.3,10.9,11.5
20/10/2012,12.4,13.5,-,15.6
21/10/2012,13.6,16.0,12.2,9.1
22/10/2012,13.9,20.1,8.6,5.3
23/10/2012,12.5,21.3,7.3,0.4
24/10/2012,13.1,19.0,6.5,4.7
25/10/2012,15.3,17.8,13.7,6.9
26/10/2012,14.3,17.0,11.5,13.5
27/10/2012,8.8,12.9,3.4,5.0
28/10/2012,4.8,8.7,1.2,2.4
29/10/2012,3.4,9.2,-0.5,0.0
30/10/2012,4.8,10.0,-1.8,0.2
31/10/2012,8.4,14.6,1.9,0.1
01/11/2012,11.1,16.8,4.7,0.1
02/11/2012,12.4,18.3,6.5,0.0
03/11/2012,12.0,14.7,7.1,0.5
04/11/2012,10.6,13.3,3.7,3.7
05/11/2012,6.6,12.3,2.4,0.3
06/11/2012,5.7,11.0,0.8,0.3
07/11/2012,6.7,10.7,-1.9,0.4
08/11/2012,9.9,11.7,7.2,1.3
09/11/2012,12.3,14.1,10.8,1.8
10/11/2012,9.5,13.6,6.5,3.6
11/11/2012,7.1,10.3,3.2,0.2
12/11/2012,7.8,11.8,4.2,0.1
13/11/2012,7.3,16.6,3.0,0.0
14/11/2012,9.2,18.2,3.4,0.0
15/11/2012,9.9,16.8,3.2,0.1
16/11/2012,11.7,15.5,7.7,0.0
17/11/2012,11.8,13.1,10.5,0.2
18/11/2012,10.3,13.7,-,0.4
19/11/2012,6.2,15.1,1.0,0.3
20/11/2012,6.6,13.3,-0.5,0.2
21/11/2012,9.2,13.1,3.0,0.1
22/11/2012,4.3,11.9,-1.2,0.2
23/11/2012,5.6,11.7,-0.8,0.1
24/11/2012,11.0,12.9,9.2,0.0
25/11/2012,11.4,12.2,9.0,0.1
26/11/2012,8.1,11.6,3.4,5.5
27/11/2012,5.2,7.1,3.9,0.1
28/11/2012,5.4,6.8,1.1,21.7
29/11/2012,4.2,7.3,1.6,16.3
30/11/2012,3.7,5.7,2.4,0.4
01/12/2012,3.2,6.0,-0.6,0.1
02/12/2012,4.3,8.4,-1.6,0.1
03/12/2012,8.2,12.9,4.7,0.0
04/12/2012,6.2,8.5,2.9,1.3
05/12/2012,4.6,7.3,3.0,5.1
06/12/2012,4.7,10.8,1.1,0.1
07/12/2012,6.2,12.4,1.2,1.1
08/12/2012,6.5,9.3,3.2,1.7
09/12/2012,4.3,9.8,-0.3,0.3
10/12/2012,4.4,8.8,-0.9,0.1
11/12/2012,5.1,9.4,-2.0,0.0
12/12/2012,-0.0,4.8,-4.6,0.3
13/12/2012,4.3,6.5,1.5,5.5
14/12/2012,8.7,13.2,6.3,9.6
15/12/2012,11.9,14.8,9.2,0.0
16/12/2012,6.9,7.3,6.9,0.0
17/12/2012,6.5,11.8,0.3,0.2
18/12/2012,5.5,11.1,-1.6,0.4
19/12/2012,8.7,11.1,6.7,0.0
20/12/2012,9.6,12.8,6.9,0.9
21/12/2012,9.6,15.3,3.4,0.2
22/12/2012,8.2,15.5,-,0.0
23/12/2012,3.5,7.7,0.8,0.4
24/12/2012,7.8,13.7,-,0.0
25/12/2012,6.7,13.0,2.4,0.1
26/12/2012,-,-,-,-
27/12/2012,-,-,-,-
28/12/2012,-,-,-,-
29/12/2012,-,-,-,-
30/12/2012,3.1,9.5,-1.7,0.6
31/12/2012,1.6,7.5,-3.8,1.0
