Fecha, Temperatura media, Temperatura maxima, Temperatura minima, Precipitacion acumulada
01/01/2014,6.5,12.0,0.0,0.1
02/01/2014,10.2,14.6,6.9,0.6
03/01/2014,10.4,13.5,7.8,0.1
04/01/2014,9.6,13.6,2.7,2.1
05/01/2014,4.8,8.4,2.4,0.1
06/01/2014,7.8,13.3,2.3,0.1
07/01/2014,10.9,14.1,8.1,0.0
08/01/2014,10.0,14.6,6.5,0.0
09/01/2014,6.4,9.6,1.7,0.1
10/01/2014,2.8,5.3,-0.4,0.3
11/01/2014,5.0,6.2,3.4,0.1
12/01/2014,6.1,7.2,5.2,1.0
13/01/2014,6.0,10.5,2.5,0.2
14/01/2014,5.6,8.5,2.5,2.4
15/01/2014,8.3,11.4,4.8,0.0
16/01/2014,8.4,12.1,5.6,1.2
17/01/2014,7.1,10.8,3.7,0.0
18/01/2014,5.8,8.1,4.3,0.2
19/01/2014,4.8,8.2,1.5,0.0
20/01/2014,4.4,7.7,1.4,1.2
21/01/2014,5.5,8.8,1.5,0.6
22/01/2014,6.4,10.4,4.4,4.7
23/01/2014,7.2,9.8,4.5,1.6
24/01/2014,9.5,12.5,7.0,0.7
25/01/2014,12.0,15.8,8.9,0.0
26/01/2014,11.1,14.2,7.3,0.8
27/01/2014,7.2,11.2,3.7,8.0
28/01/2014,4.8,10.6,1.2,0.0
29/01/2014,4.4,9.2,1.3,0.7
30/01/2014,5.1,8.6,2.3,1.5
31/01/2014,6.6,10.4,3.3,0.4
01/02/2014,4.5,9.2,-0.0,1.0
02/02/2014,3.5,9.2,-0.5,0.0
03/02/2014,2.8,6.5,-1.0,1.0
04/02/2014,4.1,9.6,-2.7,0.3
05/02/2014,7.8,13.4,3.6,10.3
06/02/2014,10.2,15.4,4.8,0.0
07/02/2014,8.9,12.3,4.2,0.0
08/02/2014,10.5,15.2,3.3,16.6
09/02/2014,3.9,7.0,0.8,1.4
10/02/2014,5.5,8.3,2.2,0.3
11/02/2014,3.0,6.4,-1.2,0.3
12/02/2014,5.0,11.6,-0.7,0.2
13/02/2014,9.0,18.8,1.0,0.0
14/02/2014,14.2,19.9,5.3,0.0
15/02/2014,9.5,14.7,6.1,0.0
16/02/2014,6.3,11.9,1.1,0.0
17/02/2014,5.8,12.9,-0.8,0.0
18/02/2014,6.9,10.0,4.0,0.0
19/02/2014,7.2,12.1,2.9,0.1
20/02/2014,8.5,15.8,1.0,0.8
21/02/2014,7.1,11.3,2.2,3.9
22/02/2014,5.6,13.3,-1.5,0.0
23/02/2014,7.1,15.1,-0.8,0.5
24/02/2014,8.3,14.2,3.5,0.0
25/02/2014,7.6,15.7,1.9,2.8
26/02/2014,4.6,10.3,0.3,8.8
27/02/2014,4.5,10.4,0.6,1.3
28/02/2014,4.7,8.4,1.2,2.9
01/03/2014,5.0,6.6,3.0,8.4
02/03/2014,10.8,15.7,5.4,0.9
03/03/2014,7.5,12.5,2.4,15.6
04/03/2014,7.1,10.9,4.0,2.3
05/03/2014,10.1,13.6,5.3,0.1
06/03/2014,10.3,16.8,5.4,0.0
07/03/2014,9.3,16.2,3.8,0.1
08/03/2014,10.3,18.6,3.4,0.1
09/03/2014,10.5,17.1,3.5,0.0
10/03/2014,10.1,19.3,0.6,0.0
11/03/2014,11.4,18.7,4.8,0.0
12/03/2014,10.4,16.4,4.4,0.0
13/03/2014,9.4,14.6,3.9,0.0
14/03/2014,10.0,18.8,1.7,0.0
15/03/2014,10.5,15.7,5.3,0.0
16/03/2014,11.9,19.0,5.9,0.0
17/03/2014,13.9,23.3,4.6,0.0
18/03/2014,11.5,16.4,7.5,0.0
19/03/2014,11.8,18.3,5.4,0.0
20/03/2014,13.1,20.8,5.2,0.0
21/03/2014,13.6,20.0,9.1,0.0
22/03/2014,9.5,14.3,2.4,7.0
23/03/2014,5.2,10.2,0.6,0.0
24/03/2014,4.4,8.6,-1.3,6.5
25/03/2014,6.4,9.6,3.7,12.4
26/03/2014,5.6,9.3,2.7,10.3
27/03/2014,7.8,12.6,2.9,5.1
28/03/2014,9.5,14.7,4.1,0.3
29/03/2014,10.4,12.9,6.6,0.0
30/03/2014,10.6,12.7,8.9,0.0
31/03/2014,12.6,17.5,8.3,0.0
01/04/2014,13.3,19.0,8.6,2.7
02/04/2014,11.3,15.5,8.9,22.3
03/04/2014,10.0,12.2,7.3,0.0
04/04/2014,12.0,17.2,8.0,0.0
05/04/2014,15.0,20.4,9.6,0.0
06/04/2014,17.0,24.4,9.0,0.0
07/04/2014,17.8,26.2,10.9,0.0
08/04/2014,13.3,18.4,8.2,0.0
09/04/2014,13.3,21.2,4.9,0.0
10/04/2014,15.4,22.9,8.2,7.8
11/04/2014,15.1,21.5,10.4,0.0
12/04/2014,13.1,20.1,9.3,0.0
13/04/2014,14.6,22.2,8.5,0.0
14/04/2014,15.7,23.4,7.5,0.0
15/04/2014,17.7,25.9,12.5,0.0
16/04/2014,18.3,27.2,10.0,0.0
17/04/2014,17.1,25.5,11.2,0.0
18/04/2014,16.6,26.1,7.7,0.0
19/04/2014,14.0,20.5,6.3,8.2
20/04/2014,10.5,13.3,7.4,10.7
21/04/2014,10.6,16.7,6.0,3.6
22/04/2014,12.6,19.0,6.9,0.5
23/04/2014,13.2,20.7,6.6,0.0
24/04/2014,11.3,15.5,7.7,3.0
25/04/2014,10.9,16.3,6.5,0.0
26/04/2014,11.4,17.5,8.2,12.8
27/04/2014,11.4,17.4,5.0,0.0
28/04/2014,12.8,17.3,9.7,0.0
29/04/2014,14.6,21.0,10.6,0.0
30/04/2014,15.0,19.5,10.3,0.0
01/05/2014,14.0,19.6,9.5,0.0
02/05/2014,12.3,15.4,9.3,0.0
03/05/2014,12.6,17.9,8.2,0.0
04/05/2014,13.2,22.6,6.1,0.0
05/05/2014,16.5,26.1,6.8,0.0
06/05/2014,16.7,21.6,12.6,0.0
07/05/2014,17.5,24.2,11.6,0.0
08/05/2014,17.1,25.8,9.4,0.0
09/05/2014,17.2,24.6,11.3,0.0
10/05/2014,17.7,27.0,9.4,0.0
11/05/2014,14.0,17.6,8.9,0.0
12/05/2014,12.6,20.2,5.3,0.0
13/05/2014,12.3,17.3,6.4,0.0
14/05/2014,12.9,20.3,5.0,0.0
15/05/2014,15.4,23.5,7.8,0.0
16/05/2014,15.1,23.0,7.5,0.0
17/05/2014,14.9,22.1,8.5,0.0
18/05/2014,16.2,24.1,6.0,0.0
19/05/2014,16.7,23.3,10.4,0.0
20/05/2014,16.2,20.2,12.1,0.0
21/05/2014,16.9,22.3,11.9,0.2
22/05/2014,13.6,18.6,9.3,1.4
23/05/2014,14.3,19.7,9.0,0.0
24/05/2014,12.5,21.5,5.8,10.0
25/05/2014,13.2,19.5,9.7,8.4
26/05/2014,12.4,17.6,8.4,1.6
27/05/2014,14.1,20.4,7.3,0.0
28/05/2014,12.8,16.1,10.3,7.0
29/05/2014,14.8,20.6,9.2,2.0
30/05/2014,13.8,18.7,8.8,0.9
31/05/2014,14.2,20.2,9.0,0.0
01/06/2014,15.5,21.0,10.1,0.0
02/06/2014,14.6,20.5,8.5,0.0
03/06/2014,18.0,25.8,9.9,0.0
04/06/2014,14.7,17.7,10.2,0.0
05/06/2014,18.8,28.4,8.6,0.0
06/06/2014,21.7,30.9,15.1,1.6
07/06/2014,23.7,32.2,16.7,0.0
08/06/2014,23.9,32.9,13.3,0.0
09/06/2014,23.1,33.2,16.0,0.0
10/06/2014,19.9,27.5,14.5,0.2
11/06/2014,21.2,29.9,14.1,0.0
12/06/2014,22.8,32.0,16.8,9.2
13/06/2014,22.7,30.3,15.7,0.2
14/06/2014,19.8,25.0,15.0,0.0
15/06/2014,18.6,23.9,14.2,0.0
16/06/2014,17.8,22.4,13.5,0.0
17/06/2014,18.5,25.6,12.4,0.0
18/06/2014,19.0,27.0,11.8,0.0
19/06/2014,20.6,28.7,11.3,0.0
20/06/2014,23.7,31.9,16.5,0.0
21/06/2014,24.3,32.9,17.3,8.2
22/06/2014,22.2,31.1,16.9,6.0
23/06/2014,20.5,27.7,15.1,1.4
24/06/2014,17.5,22.4,14.4,22.5
25/06/2014,18.9,24.7,14.4,0.0
26/06/2014,18.1,23.5,13.0,0.0
27/06/2014,21.1,30.0,12.9,0.0
28/06/2014,20.8,32.1,14.5,0.0
29/06/2014,17.3,23.3,12.0,0.0
30/06/2014,19.4,29.3,9.4,0.0
01/07/2014,20.4,27.7,14.6,6.4
02/07/2014,18.0,24.3,14.4,4.4
03/07/2014,16.4,21.7,14.0,23.7
04/07/2014,19.5,24.8,14.9,0.0
05/07/2014,23.1,30.9,15.7,0.8
06/07/2014,19.2,25.2,13.6,7.4
07/07/2014,16.0,20.4,12.2,0.0
08/07/2014,17.3,22.6,11.3,0.0
09/07/2014,16.5,20.1,13.5,0.0
10/07/2014,16.1,21.5,11.2,0.0
11/07/2014,17.3,22.3,12.8,0.0
12/07/2014,17.8,23.5,13.4,0.0
13/07/2014,19.9,29.2,12.1,0.0
14/07/2014,21.0,26.8,15.5,0.0
15/07/2014,22.3,31.4,13.6,0.0
16/07/2014,26.2,34.5,17.3,0.0
17/07/2014,27.8,35.9,18.9,0.0
18/07/2014,26.0,34.1,18.2,0.0
19/07/2014,22.2,27.4,16.8,2.2
20/07/2014,19.5,25.3,15.2,0.0
21/07/2014,19.1,24.8,14.0,0.0
22/07/2014,20.5,28.7,13.4,0.0
23/07/2014,22.5,30.7,15.3,0.0
24/07/2014,23.1,30.8,16.5,0.2
25/07/2014,22.9,29.6,17.8,0.2
26/07/2014,23.0,30.5,16.0,0.0
27/07/2014,22.4,29.3,15.1,0.0
28/07/2014,20.7,26.5,16.4,0.0
29/07/2014,18.6,24.3,14.3,0.0
30/07/2014,19.0,25.3,13.4,0.0
31/07/2014,21.8,30.8,13.1,0.0
01/08/2014,21.1,29.3,15.7,0.0
02/08/2014,21.2,28.3,16.5,2.2
03/08/2014,21.3,27.2,16.3,0.4
04/08/2014,21.3,28.4,15.8,0.0
05/08/2014,21.8,30.1,15.0,0.0
06/08/2014,22.3,30.4,15.1,0.0
07/08/2014,24.0,31.5,16.1,0.0
08/08/2014,23.5,33.0,18.7,5.2
09/08/2014,23.4,29.8,17.2,0.2
10/08/2014,24.5,33.1,18.5,0.0
11/08/2014,20.8,26.9,15.8,0.0
12/08/2014,21.5,28.4,13.3,0.0
13/08/2014,17.3,22.4,12.2,1.2
14/08/2014,17.3,23.6,10.9,0.0
15/08/2014,18.4,25.2,12.9,0.0
16/08/2014,16.7,21.8,11.0,0.0
17/08/2014,18.2,27.6,8.5,0.0
18/08/2014,19.4,29.3,14.2,12.1
19/08/2014,18.8,25.0,14.9,0.0
20/08/2014,17.6,23.9,13.3,0.0
21/08/2014,18.1,25.2,11.2,0.0
22/08/2014,16.0,17.8,12.1,0.8
23/08/2014,17.1,24.1,10.0,0.0
24/08/2014,19.5,28.1,10.8,0.0
25/08/2014,23.0,32.6,12.9,0.0
26/08/2014,24.7,33.0,17.5,0.0
27/08/2014,24.8,31.9,17.4,0.0
28/08/2014,24.2,32.7,18.7,0.0
29/08/2014,21.2,26.4,17.2,0.0
30/08/2014,20.2,27.0,15.5,0.0
31/08/2014,20.9,28.7,14.6,0.0
01/09/2014,22.1,31.3,15.0,0.0
02/09/2014,23.0,32.2,15.9,0.0
03/09/2014,23.4,32.9,14.8,0.0
04/09/2014,21.8,28.8,16.4,0.0
05/09/2014,21.6,29.5,14.7,0.0
06/09/2014,22.8,30.6,16.0,0.0
07/09/2014,23.6,32.4,17.5,0.0
08/09/2014,20.6,24.8,16.8,0.0
09/09/2014,21.7,28.4,14.9,0.0
10/09/2014,23.6,30.0,17.4,0.0
11/09/2014,23.6,30.2,18.5,0.0
12/09/2014,22.1,30.0,16.4,0.0
13/09/2014,20.9,30.8,13.5,0.0
14/09/2014,20.1,28.4,14.8,0.0
15/09/2014,19.1,25.5,14.0,0.0
16/09/2014,20.8,28.9,14.9,8.2
17/09/2014,21.8,27.9,17.0,0.0
18/09/2014,22.7,28.3,17.2,0.0
19/09/2014,21.0,25.4,17.0,0.2
20/09/2014,19.6,27.3,12.4,0.0
21/09/2014,19.8,26.2,13.6,0.4
22/09/2014,17.6,19.9,15.4,7.6
23/09/2014,16.3,20.6,10.4,0.0
24/09/2014,14.6,20.5,10.3,0.0
25/09/2014,15.2,21.3,10.3,0.0
26/09/2014,15.2,22.6,7.7,0.0
27/09/2014,16.6,23.8,9.2,0.0
28/09/2014,17.3,21.0,14.9,0.8
29/09/2014,16.8,20.0,15.3,8.2
30/09/2014,17.4,22.7,13.7,0.0
01/10/2014,17.4,25.3,11.0,0.0
02/10/2014,18.0,24.5,12.3,0.0
03/10/2014,17.9,25.4,11.4,0.0
04/10/2014,17.4,25.1,10.1,0.0
05/10/2014,15.5,19.9,10.6,0.0
06/10/2014,16.4,24.3,8.6,0.0
07/10/2014,19.5,26.1,13.6,0.0
08/10/2014,20.4,27.2,14.6,1.2
09/10/2014,17.9,21.6,15.6,6.4
10/10/2014,16.2,20.4,14.1,8.0
11/10/2014,16.9,23.1,12.5,1.0
12/10/2014,17.5,22.4,13.6,1.0
13/10/2014,15.2,19.6,12.4,3.6
14/10/2014,15.1,20.1,10.6,0.2
15/10/2014,14.3,19.1,8.6,1.0
16/10/2014,19.6,25.8,13.6,0.0
17/10/2014,20.1,25.7,15.4,0.0
18/10/2014,20.1,27.0,13.6,0.0
19/10/2014,19.6,26.4,13.5,0.0
20/10/2014,18.3,25.6,12.8,0.0
21/10/2014,18.8,27.8,12.7,0.0
22/10/2014,14.0,18.1,8.6,0.0
23/10/2014,14.8,24.4,7.8,0.0
24/10/2014,17.7,26.5,9.5,0.0
25/10/2014,18.1,26.8,11.7,0.0
26/10/2014,17.0,25.8,10.4,0.0
27/10/2014,14.3,18.6,10.9,0.0
28/10/2014,14.5,18.0,11.9,0.2
29/10/2014,13.8,18.7,8.9,0.2
30/10/2014,11.8,14.3,8.3,0.4
31/10/2014,12.5,17.3,10.2,0.4
01/11/2014,12.7,16.1,10.3,0.4
02/11/2014,12.9,16.8,10.5,4.2
03/11/2014,14.0,18.5,9.2,0.6
04/11/2014,8.8,14.6,6.4,5.6
05/11/2014,7.6,10.5,5.0,1.2
06/11/2014,8.9,13.6,3.7,0.0
07/11/2014,9.1,13.9,4.9,0.4
08/11/2014,8.5,14.1,1.9,0.0
09/11/2014,8.7,13.5,3.4,0.2
10/11/2014,7.5,13.8,0.8,0.0
11/11/2014,7.1,8.7,5.6,8.8
12/11/2014,8.2,13.4,3.8,0.2
13/11/2014,12.0,16.2,5.0,0.0
14/11/2014,11.5,14.6,6.7,4.6
15/11/2014,9.0,14.7,5.0,0.2
16/11/2014,8.3,13.4,3.0,0.8
17/11/2014,8.4,13.5,4.6,11.7
18/11/2014,7.2,11.7,1.6,0.0
19/11/2014,8.3,14.1,3.1,0.0
20/11/2014,10.1,14.3,6.8,0.2
21/11/2014,11.1,13.3,9.0,0.0
22/11/2014,12.1,13.8,11.1,0.0
23/11/2014,14.4,17.7,11.9,0.0
24/11/2014,14.1,18.3,10.2,0.0
25/11/2014,12.8,16.3,10.3,0.6
26/11/2014,11.0,13.7,7.9,9.8
27/11/2014,10.1,12.3,7.5,4.4
28/11/2014,11.8,13.5,10.1,17.7
29/11/2014,11.6,12.4,10.9,49.4
30/11/2014,13.0,16.2,10.9,5.4
01/12/2014,10.1,13.1,5.8,7.6
02/12/2014,9.0,11.6,7.1,0.0
03/12/2014,6.9,9.2,5.2,0.0
04/12/2014,5.5,9.9,1.5,0.0
05/12/2014,6.5,10.8,2.0,0.0
06/12/2014,4.6,6.5,2.5,4.2
07/12/2014,6.0,8.9,2.5,0.0
08/12/2014,8.9,12.4,7.0,0.4
09/12/2014,5.3,7.8,3.3,1.4
10/12/2014,8.3,11.8,4.0,0.0
11/12/2014,7.7,12.2,2.9,0.0
12/12/2014,4.3,9.0,-0.4,0.2
13/12/2014,8.0,10.0,6.2,1.2
14/12/2014,7.3,8.3,6.5,7.4
15/12/2014,7.3,9.9,5.8,4.4
16/12/2014,8.7,12.3,5.2,3.2
17/12/2014,9.9,13.7,7.8,0.0
18/12/2014,9.6,13.8,7.2,0.0
19/12/2014,7.8,10.3,4.9,0.0
20/12/2014,9.0,13.5,4.5,0.0
21/12/2014,8.2,13.1,3.1,0.0
22/12/2014,1.8,3.1,0.3,0.4
23/12/2014,1.7,2.2,0.7,0.4
24/12/2014,3.1,8.9,0.6,0.0
25/12/2014,7.5,12.0,1.9,0.0
26/12/2014,9.3,12.6,7.3,0.2
27/12/2014,8.4,9.6,7.1,3.6
28/12/2014,4.8,8.2,0.5,3.8
29/12/2014,1.6,5.2,-0.1,0.0
30/12/2014,2.6,6.7,-0.1,0.2
31/12/2014,5.4,12.0,1.5,0.0
