Fecha, Temperatura media, Temperatura maxima, Temperatura minima, Precipitacion acumulada
01/01/2015,7.0,13.6,2.1,0.0
02/01/2015,6.1,13.5,0.5,0.0
03/01/2015,7.2,16.1,0.4,0.0
04/01/2015,7.2,13.7,2.8,0.0
05/01/2015,2.8,4.7,0.5,0.2
06/01/2015,5.4,11.3,0.3,0.2
07/01/2015,2.7,7.3,-1.5,0.0
08/01/2015,3.1,6.7,0.9,0.2
09/01/2015,7.3,15.8,0.5,0.0
10/01/2015,8.9,16.1,3.3,0.0
11/01/2015,6.9,12.4,0.2,0.2
12/01/2015,3.3,9.7,-2.6,0.0
13/01/2015,1.9,3.3,-0.8,0.2
14/01/2015,5.4,11.6,-1.2,0.2
15/01/2015,9.0,12.1,3.6,0.0
16/01/2015,6.3,11.9,3.1,0.8
17/01/2015,3.9,9.1,0.4,0.0
18/01/2015,2.4,5.9,-0.5,0.2
19/01/2015,3.0,7.0,-0.1,1.4
20/01/2015,1.6,4.7,-1.4,0.0
21/01/2015,3.8,7.4,0.4,0.0
22/01/2015,3.8,6.5,1.0,1.0
23/01/2015,4.2,8.2,1.4,0.0
24/01/2015,5.1,9.5,0.8,0.0
25/01/2015,4.6,8.4,2.0,0.0
26/01/2015,5.3,9.0,1.6,0.0
27/01/2015,7.2,10.9,4.6,0.0
28/01/2015,7.5,11.2,4.7,0.0
29/01/2015,8.5,13.0,2.9,0.0
30/01/2015,7.7,13.4,4.8,24.7
31/01/2015,4.3,6.8,2.0,2.6
01/02/2015,2.4,5.4,0.2,6.6
02/02/2015,4.5,7.7,2.1,0.0
03/02/2015,3.4,7.0,-1.0,1.8
04/02/2015,-0.1,2.3,-3.3,0.4
05/02/2015,0.8,4.1,-1.0,0.0
06/02/2015,-0.9,0.9,-3.5,0.0
07/02/2015,0.3,3.5,-2.0,0.0
08/02/2015,2.3,6.8,-2.1,0.0
09/02/2015,3.0,7.5,-2.2,0.0
10/02/2015,2.4,10.1,-4.6,0.0
11/02/2015,2.5,8.0,-3.2,0.0
12/02/2015,5.1,10.5,-0.5,0.8
13/02/2015,5.8,12.6,0.8,0.0
14/02/2015,6.5,9.0,5.0,8.8
15/02/2015,7.9,12.0,5.0,0.6
16/02/2015,7.9,10.4,6.1,2.0
17/02/2015,6.2,9.4,3.5,0.2
18/02/2015,4.6,8.4,-0.1,0.0
19/02/2015,4.3,12.0,-2.5,0.0
20/02/2015,5.0,11.3,-1.0,1.0
21/02/2015,5.4,8.4,2.9,2.2
22/02/2015,6.2,9.5,3.4,0.2
23/02/2015,8.0,14.1,3.7,7.2
24/02/2015,5.1,8.0,3.3,2.8
25/02/2015,8.2,10.1,4.3,1.2
26/02/2015,11.1,14.2,9.3,0.2
27/02/2015,6.9,10.7,2.9,0.0
28/02/2015,8.4,13.7,2.3,0.0
01/03/2015,13.3,18.0,8.7,0.0
02/03/2015,13.3,18.4,9.2,0.0
03/03/2015,12.4,18.4,6.8,0.0
04/03/2015,7.6,10.0,4.0,0.2
05/03/2015,6.2,10.5,2.4,0.0
06/03/2015,8.9,16.1,2.1,0.0
07/03/2015,11.4,22.8,0.8,0.0
08/03/2015,12.7,20.7,6.3,0.0
09/03/2015,12.5,21.7,4.6,0.0
10/03/2015,13.0,21.6,5.4,0.0
11/03/2015,12.8,22.7,4.6,0.0
12/03/2015,11.9,22.6,4.4,0.0
13/03/2015,8.8,13.1,4.6,0.0
14/03/2015,6.0,10.1,2.7,0.0
15/03/2015,5.5,9.6,1.6,0.2
16/03/2015,7.2,12.2,2.8,0.0
17/03/2015,8.2,15.3,0.8,0.0
18/03/2015,8.3,11.1,5.0,4.2
19/03/2015,10.4,15.3,7.1,4.0
20/03/2015,8.3,13.0,5.5,2.8
21/03/2015,6.8,9.3,4.6,8.4
22/03/2015,6.9,8.8,4.0,8.6
23/03/2015,4.1,8.0,1.4,16.3
24/03/2015,7.2,9.3,4.2,8.6
25/03/2015,4.7,8.5,2.1,0.0
26/03/2015,8.3,13.1,3.6,0.0
27/03/2015,12.5,17.3,8.8,0.0
28/03/2015,13.3,18.9,8.3,0.0
29/03/2015,13.0,20.0,7.0,0.0
30/03/2015,13.6,18.8,7.9,0.0
31/03/2015,13.2,19.9,7.2,0.0
01/04/2015,10.9,14.1,6.5,0.0
02/04/2015,12.3,20.9,5.2,0.0
03/04/2015,12.9,22.1,6.7,0.0
04/04/2015,10.3,14.3,6.0,0.0
05/04/2015,11.1,16.8,4.2,0.0
06/04/2015,10.7,18.0,2.6,0.0
07/04/2015,11.9,17.9,5.7,0.0
08/04/2015,10.6,16.8,3.9,0.0
09/04/2015,10.5,16.6,5.3,0.0
10/04/2015,12.3,18.5,7.8,0.4
11/04/2015,13.4,20.1,6.1,0.0
12/04/2015,14.4,21.7,6.2,0.0
13/04/2015,15.4,22.6,7.6,0.0
14/04/2015,17.2,25.2,9.4,0.0
15/04/2015,13.1,17.2,8.7,0.0
16/04/2015,12.9,18.7,8.6,0.8
17/04/2015,14.1,18.9,8.9,0.6
18/04/2015,13.3,19.5,9.1,4.8
19/04/2015,11.6,16.9,6.7,0.2
20/04/2015,12.9,20.4,4.5,0.0
21/04/2015,15.0,22.5,7.5,0.0
22/04/2015,13.9,19.7,9.7,0.8
23/04/2015,14.4,21.6,7.9,0.2
24/04/2015,15.6,22.8,7.7,0.0
25/04/2015,16.3,20.5,11.8,0.0
26/04/2015,13.1,16.6,10.0,24.7
27/04/2015,12.0,16.1,8.5,0.0
28/04/2015,11.0,15.6,5.1,0.0
29/04/2015,12.8,18.5,8.1,0.2
30/04/2015,14.7,22.7,6.4,0.0
01/05/2015,16.6,20.7,13.6,0.0
02/05/2015,18.5,23.8,12.7,0.2
03/05/2015,19.1,22.4,16.5,2.6
04/05/2015,19.9,24.8,15.3,0.0
05/05/2015,17.5,22.4,11.1,0.0
06/05/2015,14.4,21.1,7.6,0.0
07/05/2015,16.8,26.2,7.9,0.0
08/05/2015,18.3,24.4,11.6,0.0
09/05/2015,17.6,25.7,10.2,0.0
10/05/2015,20.7,29.4,11.3,0.0
11/05/2015,22.1,30.9,14.0,0.0
12/05/2015,22.8,31.5,13.8,0.0
13/05/2015,23.6,31.8,16.1,0.0
14/05/2015,17.8,24.9,10.6,0.0
15/05/2015,11.9,14.2,9.2,1.0
16/05/2015,14.2,18.3,10.7,0.0
17/05/2015,16.4,21.7,10.0,0.0
18/05/2015,15.8,27.2,6.8,0.0
19/05/2015,12.4,15.7,8.6,0.2
20/05/2015,11.5,16.0,7.7,0.0
21/05/2015,11.0,15.6,6.1,0.0
22/05/2015,12.0,18.0,5.9,0.0
23/05/2015,13.4,18.1,9.2,0.0
24/05/2015,15.6,21.2,9.8,0.0
25/05/2015,15.6,20.6,10.7,0.0
26/05/2015,14.3,19.4,9.1,0.0
27/05/2015,16.3,22.7,10.5,0.0
28/05/2015,17.4,26.9,8.1,0.0
29/05/2015,15.9,23.0,10.1,0.0
30/05/2015,16.8,25.6,8.3,0.0
31/05/2015,19.0,28.1,10.5,0.0
01/06/2015,19.6,28.8,12.5,0.0
02/06/2015,22.8,32.1,11.9,0.0
03/06/2015,24.8,33.9,16.1,0.0
04/06/2015,24.3,34.0,13.5,0.0
05/06/2015,23.8,33.5,12.5,0.0
06/06/2015,22.5,33.3,15.3,0.0
07/06/2015,23.7,33.7,13.9,0.0
08/06/2015,24.4,33.7,16.8,0.0
09/06/2015,19.8,26.6,15.1,0.0
10/06/2015,14.8,17.5,12.4,20.5
11/06/2015,16.0,19.2,13.4,59.9
12/06/2015,17.3,23.6,13.3,1.8
13/06/2015,16.2,23.2,13.0,9.6
14/06/2015,16.3,22.8,11.8,1.0
15/06/2015,16.6,24.0,10.5,0.0
16/06/2015,15.5,19.5,12.2,0.0
17/06/2015,16.6,21.8,11.5,0.0
18/06/2015,18.5,23.9,12.2,0.0
19/06/2015,18.0,24.0,13.0,0.0
20/06/2015,19.6,27.5,12.5,0.0
21/06/2015,22.0,31.0,13.8,0.0
22/06/2015,22.5,31.4,14.2,9.6
23/06/2015,20.3,26.0,13.5,0.0
24/06/2015,19.7,27.7,11.5,0.0
25/06/2015,23.2,31.1,14.0,0.0
26/06/2015,25.2,33.7,17.0,0.0
27/06/2015,23.8,31.9,15.7,0.0
28/06/2015,24.7,35.1,16.3,0.0
29/06/2015,25.8,35.3,15.6,0.0
30/06/2015,28.4,37.2,18.9,0.0
01/07/2015,28.4,35.9,19.0,0.0
02/07/2015,27.0,33.3,21.0,0.0
03/07/2015,27.4,34.9,21.2,0.0
04/07/2015,28.3,35.7,21.4,0.0
05/07/2015,24.7,33.2,18.1,0.0
06/07/2015,27.0,38.4,17.0,0.0
07/07/2015,26.3,36.2,18.3,0.0
08/07/2015,20.0,23.9,14.6,0.0
09/07/2015,20.3,28.2,13.0,0.0
10/07/2015,23.7,35.3,13.4,0.0
11/07/2015,21.0,27.8,15.2,0.0
12/07/2015,21.9,30.8,14.9,0.0
13/07/2015,22.8,33.3,13.1,0.0
14/07/2015,24.5,34.8,15.6,0.0
15/07/2015,26.7,35.8,16.7,0.0
16/07/2015,26.5,34.3,20.5,0.0
17/07/2015,24.3,33.7,17.5,1.8
18/07/2015,24.0,33.1,18.6,2.2
19/07/2015,24.4,32.2,17.9,0.0
20/07/2015,26.7,34.5,17.8,0.0
21/07/2015,25.1,33.7,18.9,20.7
22/07/2015,22.0,28.3,17.5,0.2
23/07/2015,23.6,32.2,15.8,0.0
24/07/2015,23.4,32.0,17.7,0.0
25/07/2015,19.2,23.1,14.7,0.0
26/07/2015,21.1,31.8,12.0,0.0
27/07/2015,21.0,26.1,17.8,0.0
28/07/2015,22.1,30.0,14.4,0.0
29/07/2015,21.8,29.3,15.7,0.0
30/07/2015,17.0,20.5,14.3,0.6
31/07/2015,17.0,20.2,14.8,1.6
01/08/2015,18.3,23.7,12.7,0.2
02/08/2015,23.0,32.1,13.3,0.0
03/08/2015,25.4,32.4,20.1,0.6
04/08/2015,22.6,28.4,18.7,0.2
05/08/2015,25.2,35.1,17.5,0.0
06/08/2015,25.5,35.0,15.1,0.0
07/08/2015,23.5,29.6,18.7,0.0
08/08/2015,17.4,20.4,13.2,1.2
09/08/2015,18.0,24.1,11.7,0.0
10/08/2015,22.6,32.2,13.7,0.0
11/08/2015,25.6,34.1,16.5,0.0
12/08/2015,27.4,34.9,22.1,0.0
13/08/2015,21.8,27.2,17.0,0.6
14/08/2015,17.9,21.8,14.9,0.2
15/08/2015,18.2,23.5,12.6,0.0
16/08/2015,19.0,27.1,9.8,0.0
17/08/2015,19.9,25.0,15.6,0.0
18/08/2015,18.8,25.7,13.2,0.0
19/08/2015,19.4,27.9,11.0,0.0
20/08/2015,21.9,31.1,12.7,0.0
21/08/2015,25.1,33.0,16.5,0.0
22/08/2015,24.2,31.4,18.1,4.4
23/08/2015,22.3,28.1,17.4,0.0
24/08/2015,19.0,25.0,13.2,0.0
25/08/2015,19.6,28.6,10.8,0.0
26/08/2015,24.5,32.5,16.8,0.0
27/08/2015,26.0,35.8,18.6,0.0
28/08/2015,26.3,34.5,18.8,0.0
29/08/2015,26.5,34.4,18.6,0.0
30/08/2015,25.3,32.8,19.1,1.2
31/08/2015,21.0,30.2,16.8,4.4
01/09/2015,18.5,23.0,14.5,0.8
02/09/2015,17.2,23.5,12.2,9.4
03/09/2015,16.5,21.0,12.1,0.0
04/09/2015,15.2,20.3,10.8,0.2
05/09/2015,14.7,21.1,9.0,0.0
06/09/2015,15.4,23.4,8.4,0.0
07/09/2015,16.9,23.9,9.8,0.0
08/09/2015,16.9,23.9,9.8,0.0
09/09/2015,18.9,26.6,10.5,0.0
10/09/2015,19.7,25.2,15.0,1.4
11/09/2015,20.2,27.1,14.0,0.0
12/09/2015,21.6,26.7,17.6,4.1
13/09/2015,18.9,23.6,12.4,0.0
14/09/2015,17.2,23.7,12.1,0.0
15/09/2015,16.4,19.8,12.8,3.0
16/09/2015,21.5,27.5,17.8,0.6
17/09/2015,14.9,20.6,9.9,7.2
18/09/2015,14.3,21.6,7.6,0.2
19/09/2015,15.4,23.4,8.7,0.0
20/09/2015,16.5,26.5,8.3,0.0
21/09/2015,17.7,27.5,8.6,0.0
22/09/2015,16.2,21.9,11.2,0.0
23/09/2015,14.7,18.8,10.7,0.2
24/09/2015,16.6,24.2,10.1,0.0
25/09/2015,19.0,27.7,11.8,0.0
26/09/2015,18.2,26.8,11.7,0.0
27/09/2015,16.4,24.1,10.7,0.0
28/09/2015,15.6,23.2,8.1,0.0
29/09/2015,16.2,23.4,8.5,0.0
30/09/2015,17.3,22.6,11.4,0.0
01/10/2015,16.5,25.1,9.3,0.0
02/10/2015,13.6,18.2,10.0,0.0
03/10/2015,13.7,20.4,7.5,0.0
04/10/2015,13.6,18.4,9.8,1.0
05/10/2015,21.6,27.2,17.0,0.0
06/10/2015,18.7,23.8,13.5,0.0
07/10/2015,13.9,19.0,9.4,0.0
08/10/2015,13.3,19.9,7.8,0.0
09/10/2015,13.3,21.3,6.3,0.0
10/10/2015,15.0,23.1,6.9,0.0
11/10/2015,14.9,17.2,11.7,0.2
12/10/2015,15.3,24.7,9.0,10.0
13/10/2015,12.2,15.2,9.7,0.2
14/10/2015,10.1,14.8,5.7,0.2
15/10/2015,9.2,16.5,4.3,0.0
16/10/2015,9.4,16.6,2.2,0.0
17/10/2015,11.7,18.2,4.6,3.4
18/10/2015,15.0,18.7,13.0,0.0
19/10/2015,15.2,16.1,14.3,5.0
20/10/2015,12.9,15.0,9.9,4.2
21/10/2015,11.0,14.5,7.0,0.0
22/10/2015,12.0,16.9,7.7,0.0
23/10/2015,12.9,19.5,6.5,0.0
24/10/2015,14.6,18.8,11.5,0.0
25/10/2015,15.3,20.8,11.3,0.0
26/10/2015,15.6,20.5,11.6,0.0
27/10/2015,14.4,19.3,9.7,1.8
28/10/2015,12.3,16.6,10.3,0.8
29/10/2015,14.1,20.2,8.5,0.0
30/10/2015,14.9,21.5,9.5,0.0
31/10/2015,15.0,19.7,11.8,0.0
01/11/2015,13.4,17.0,8.3,0.0
02/11/2015,12.4,14.5,10.8,28.1
03/11/2015,12.3,15.0,10.3,0.6
04/11/2015,12.7,17.5,7.9,0.2
05/11/2015,12.3,15.6,9.6,0.2
06/11/2015,14.6,21.3,9.1,0.2
07/11/2015,13.3,18.5,10.5,0.2
08/11/2015,12.9,16.1,10.1,0.6
09/11/2015,15.2,21.4,11.6,0.2
10/11/2015,12.0,13.8,10.8,0.2
11/11/2015,10.5,11.3,9.5,0.4
12/11/2015,9.1,9.7,8.5,0.4
13/11/2015,11.5,17.1,6.9,0.2
14/11/2015,12.5,17.0,7.8,0.0
15/11/2015,7.3,8.6,6.4,0.4
16/11/2015,7.9,15.1,4.2,0.4
17/11/2015,9.2,15.5,4.8,0.2
18/11/2015,11.9,18.9,7.7,0.0
19/11/2015,12.4,18.7,7.2,0.0
20/11/2015,11.4,16.1,7.7,0.0
21/11/2015,8.0,12.2,4.4,8.8
22/11/2015,5.1,8.3,2.2,2.0
23/11/2015,4.0,7.6,0.4,0.2
24/11/2015,4.0,7.6,0.4,0.2
25/11/2015,11.4,14.3,8.9,0.6
26/11/2015,11.3,13.2,9.6,0.0
27/11/2015,10.3,13.2,7.7,0.0
28/11/2015,8.9,12.0,3.4,0.0
29/11/2015,6.5,12.7,2.3,0.0
30/11/2015,5.3,12.6,0.9,0.0
01/12/2015,3.7,10.4,-0.9,0.0
02/12/2015,5.2,14.1,-0.8,0.0
03/12/2015,5.1,11.1,0.3,0.2
04/12/2015,7.4,15.2,0.6,0.0
05/12/2015,7.8,14.0,2.8,0.2
06/12/2015,8.0,11.7,4.7,0.0
07/12/2015,9.4,11.4,8.1,0.0
08/12/2015,9.3,11.2,7.4,0.0
09/12/2015,9.4,14.7,4.2,0.0
10/12/2015,5.1,6.1,2.1,0.8
11/12/2015,5.1,5.5,4.7,0.6
12/12/2015,4.7,5.1,4.0,0.6
13/12/2015,4.5,4.9,3.9,0.2
14/12/2015,4.4,5.4,3.4,0.0
15/12/2015,6.0,9.6,3.3,0.0
16/12/2015,7.0,13.9,1.5,0.2
17/12/2015,5.6,9.0,1.2,0.2
18/12/2015,5.9,11.4,0.6,0.2
19/12/2015,6.5,10.3,2.7,0.2
20/12/2015,7.5,9.1,5.4,0.0
21/12/2015,8.2,12.6,4.2,0.0
22/12/2015,4.5,5.7,1.2,0.2
23/12/2015,3.7,4.5,2.2,0.2
24/12/2015,5.6,6.6,4.1,0.2
25/12/2015,5.1,6.2,4.4,0.2
26/12/2015,3.2,4.5,2.8,0.4
27/12/2015,2.8,4.8,1.7,0.2
28/12/2015,8.0,10.6,4.7,0.2
29/12/2015,8.6,12.3,4.0,0.0
30/12/2015,6.0,11.2,0.4,0.2
31/12/2015,7.7,10.8,4.3,1.4
