Fecha, Temperatura media, Temperatura maxima, Temperatura minima, Precipitacion acumulada
01/01/2015,5.5,14.8,-1.7,0.0
02/01/2015,1.9,13.0,-4.8,0.0
03/01/2015,4.6,16.2,-2.6,0.0
04/01/2015,9.1,15.5,2.6,0.8
05/01/2015,2.8,7.6,-2.2,0.2
06/01/2015,5.1,12.4,-0.6,0.0
07/01/2015,2.9,7.7,-0.6,1.2
08/01/2015,3.5,8.9,1.7,0.2
09/01/2015,6.4,16.4,-1.0,1.8
10/01/2015,6.9,16.3,-0.4,0.0
11/01/2015,7.6,13.9,-0.2,0.2
12/01/2015,3.9,13.4,-3.5,0.0
13/01/2015,4.6,13.9,-1.2,0.2
14/01/2015,6.2,13.6,-0.2,0.0
15/01/2015,8.5,13.0,4.2,1.2
16/01/2015,6.2,9.4,2.5,1.2
17/01/2015,3.7,9.6,-0.9,2.2
18/01/2015,3.0,6.4,-1.5,1.2
19/01/2015,3.7,7.9,0.4,1.0
20/01/2015,2.1,5.4,-1.8,1.2
21/01/2015,3.0,7.2,-0.6,0.6
22/01/2015,3.6,8.2,-0.7,5.6
23/01/2015,4.7,8.4,2.7,0.2
24/01/2015,5.8,9.7,1.7,0.0
25/01/2015,4.7,8.0,2.7,0.0
26/01/2015,5.7,8.6,3.5,0.0
27/01/2015,7.3,12.5,4.8,0.0
28/01/2015,7.6,10.6,4.1,2.8
29/01/2015,8.9,13.5,2.1,9.2
30/01/2015,7.3,12.6,3.9,25.7
31/01/2015,4.0,6.7,1.2,9.0
01/02/2015,1.9,5.1,0.3,16.8
02/02/2015,3.9,7.1,0.7,0.4
03/02/2015,3.5,6.9,0.3,4.4
04/02/2015,0.9,3.3,-1.4,0.2
05/02/2015,0.9,4.8,-2.8,0.0
06/02/2015,-0.5,3.3,-2.9,0.0
07/02/2015,-0.0,5.4,-4.6,0.0
08/02/2015,2.8,7.4,-3.0,0.6
09/02/2015,2.5,9.4,-3.6,0.2
10/02/2015,1.9,12.1,-5.5,0.6
11/02/2015,2.9,10.0,-4.8,0.2
12/02/2015,6.0,11.8,1.5,3.4
13/02/2015,6.0,14.4,-0.5,0.0
14/02/2015,6.1,9.8,2.2,12.4
15/02/2015,8.1,12.2,5.4,3.8
16/02/2015,7.6,12.5,3.7,2.6
17/02/2015,7.2,10.6,4.1,0.0
18/02/2015,5.4,10.3,-0.8,1.4
19/02/2015,4.1,14.0,-3.2,3.0
20/02/2015,6.2,12.6,-0.8,2.2
21/02/2015,5.8,9.4,3.3,9.0
22/02/2015,6.2,9.9,3.1,9.6
23/02/2015,8.0,14.5,3.1,3.0
24/02/2015,4.4,7.4,2.3,12.6
25/02/2015,7.9,11.0,3.1,6.2
26/02/2015,11.1,14.5,8.4,2.0
27/02/2015,7.0,10.3,3.6,8.2
28/02/2015,8.0,13.6,2.4,3.2
01/03/2015,12.5,18.4,7.1,3.6
02/03/2015,13.1,19.1,8.2,3.2
03/03/2015,12.5,20.4,6.2,0.0
04/03/2015,7.8,10.6,4.1,0.8
05/03/2015,7.2,12.7,3.0,0.8
06/03/2015,8.0,17.9,-0.6,0.2
07/03/2015,9.9,22.3,-1.6,0.0
08/03/2015,11.3,22.3,1.1,0.4
09/03/2015,12.6,23.2,1.9,0.0
10/03/2015,10.7,21.1,1.1,0.0
11/03/2015,11.9,22.9,2.7,0.2
12/03/2015,11.6,22.7,1.9,1.4
13/03/2015,9.1,13.3,3.0,0.2
14/03/2015,4.8,8.8,1.3,1.0
15/03/2015,6.3,11.5,2.7,0.0
16/03/2015,6.4,13.6,0.3,0.0
17/03/2015,8.5,15.8,0.1,0.0
18/03/2015,9.5,13.3,6.3,3.2
19/03/2015,11.0,17.0,6.7,8.4
20/03/2015,8.9,15.6,3.0,6.0
21/03/2015,8.7,13.6,6.1,12.6
22/03/2015,7.8,11.2,3.6,15.2
23/03/2015,5.4,9.8,3.0,23.4
24/03/2015,8.1,11.4,4.9,3.6
25/03/2015,5.6,9.9,2.5,0.0
26/03/2015,8.3,12.2,3.1,0.0
27/03/2015,11.8,15.1,7.2,0.0
28/03/2015,13.4,18.7,8.5,0.0
29/03/2015,13.0,20.3,6.8,0.0
30/03/2015,13.1,18.3,6.3,0.0
31/03/2015,13.0,19.0,5.8,0.0
01/04/2015,11.1,14.9,6.8,0.0
02/04/2015,12.2,20.9,3.5,0.0
03/04/2015,13.1,22.4,2.9,0.0
04/04/2015,11.0,16.0,8.2,0.0
05/04/2015,11.8,18.5,3.7,0.0
06/04/2015,12.1,19.9,3.7,0.0
07/04/2015,12.7,19.2,4.3,0.0
08/04/2015,11.0,17.9,3.5,0.0
09/04/2015,11.6,17.4,6.0,0.6
10/04/2015,13.3,19.3,8.5,0.0
11/04/2015,13.2,21.5,4.9,0.0
12/04/2015,14.2,22.8,4.5,0.0
13/04/2015,15.0,24.8,4.3,0.0
14/04/2015,16.8,26.3,4.9,0.0
15/04/2015,13.8,17.7,7.8,0.0
16/04/2015,12.5,19.3,6.6,3.8
17/04/2015,13.9,20.9,7.0,0.0
18/04/2015,14.4,20.8,10.2,1.8
19/04/2015,12.3,17.7,6.9,0.0
20/04/2015,13.0,21.5,3.0,0.2
21/04/2015,15.1,23.1,5.0,0.0
22/04/2015,14.5,20.3,9.7,0.0
23/04/2015,14.5,22.5,5.6,0.2
24/04/2015,15.5,23.6,5.6,1.6
25/04/2015,16.3,21.5,10.5,0.0
26/04/2015,13.1,17.2,9.7,17.8
27/04/2015,12.2,17.1,9.5,0.6
28/04/2015,11.4,17.2,5.8,0.0
29/04/2015,13.1,19.3,7.2,0.0
30/04/2015,15.0,22.9,4.9,0.2
01/05/2015,16.8,21.5,12.2,0.4
02/05/2015,19.4,26.0,11.6,0.2
03/05/2015,18.9,22.8,15.8,3.0
04/05/2015,20.2,25.4,15.1,0.0
05/05/2015,17.9,23.1,11.0,0.0
06/05/2015,14.6,21.8,6.6,0.4
07/05/2015,17.6,26.0,7.3,0.0
08/05/2015,19.1,24.7,12.8,0.0
09/05/2015,17.7,25.6,9.3,0.0
10/05/2015,20.5,29.9,10.2,0.0
11/05/2015,22.0,31.1,12.6,0.0
12/05/2015,22.9,32.1,11.8,0.0
13/05/2015,24.3,33.1,16.3,0.0
14/05/2015,17.7,25.2,10.2,0.0
15/05/2015,12.1,15.8,9.2,0.8
16/05/2015,13.8,17.9,10.5,0.0
17/05/2015,16.4,22.3,11.0,0.0
18/05/2015,16.7,28.1,6.8,0.0
19/05/2015,12.5,16.5,9.2,2.4
20/05/2015,11.8,16.0,8.2,0.0
21/05/2015,12.2,17.6,7.6,0.0
22/05/2015,13.6,19.7,7.6,0.0
23/05/2015,14.3,19.6,9.6,0.0
24/05/2015,16.9,23.3,9.3,0.0
25/05/2015,16.1,20.5,12.2,0.0
26/05/2015,14.7,20.1,10.2,0.0
27/05/2015,17.7,24.6,10.8,0.0
28/05/2015,17.6,28.6,6.3,0.0
29/05/2015,16.5,25.1,10.4,0.0
30/05/2015,17.3,26.5,7.0,0.0
31/05/2015,19.9,29.1,10.6,0.0
01/06/2015,20.5,30.7,12.5,0.6
02/06/2015,23.0,31.7,13.2,0.0
03/06/2015,25.4,33.6,16.8,0.0
04/06/2015,25.5,32.9,16.0,0.0
05/06/2015,23.9,32.3,12.7,0.0
06/06/2015,22.1,32.3,12.9,0.0
07/06/2015,23.2,32.5,13.0,0.0
08/06/2015,22.3,32.1,15.0,1.0
09/06/2015,20.1,28.1,13.9,0.0
10/06/2015,16.3,21.6,13.8,11.4
11/06/2015,16.8,21.4,13.4,16.2
12/06/2015,18.3,26.0,11.6,0.0
13/06/2015,17.4,24.8,14.0,7.0
14/06/2015,17.5,24.3,11.6,1.2
15/06/2015,17.1,24.4,9.8,0.2
16/06/2015,16.0,19.9,12.8,0.0
17/06/2015,17.8,23.7,12.0,0.0
18/06/2015,19.3,27.0,12.5,0.0
19/06/2015,18.4,24.1,13.5,0.0
20/06/2015,20.8,29.2,13.5,0.0
21/06/2015,21.9,31.6,11.4,0.0
22/06/2015,23.5,33.7,13.7,1.0
23/06/2015,20.9,27.5,15.1,0.0
24/06/2015,20.9,29.5,12.7,0.0
25/06/2015,23.9,32.7,13.4,0.0
26/06/2015,25.3,34.2,15.6,0.0
27/06/2015,24.2,33.3,16.3,0.0
28/06/2015,24.7,34.5,14.5,0.0
29/06/2015,26.7,37.1,15.1,0.0
30/06/2015,30.0,38.0,21.4,0.0
01/07/2015,30.1,36.5,22.6,0.0
02/07/2015,28.2,34.5,23.9,0.0
03/07/2015,28.6,35.4,21.9,0.0
04/07/2015,29.8,35.6,22.0,0.0
05/07/2015,27.0,35.8,18.5,0.0
06/07/2015,27.8,38.1,15.7,0.0
07/07/2015,28.0,38.3,18.5,0.0
08/07/2015,20.3,24.1,15.5,0.0
09/07/2015,20.4,28.5,13.8,0.0
10/07/2015,24.8,36.6,12.5,0.0
11/07/2015,21.8,28.3,16.5,0.0
12/07/2015,22.5,31.7,14.9,0.0
13/07/2015,23.1,33.2,12.8,0.0
14/07/2015,24.0,35.6,13.1,0.0
15/07/2015,26.4,37.3,15.6,0.0
16/07/2015,26.4,37.0,18.2,0.2
17/07/2015,25.0,36.2,16.5,1.0
18/07/2015,24.8,34.1,18.7,0.6
19/07/2015,25.1,33.4,17.4,0.0
20/07/2015,26.9,35.6,17.0,0.0
21/07/2015,26.2,36.9,18.2,5.8
22/07/2015,22.8,28.7,17.9,0.0
23/07/2015,24.4,33.2,16.7,0.0
24/07/2015,23.7,31.9,17.2,0.0
25/07/2015,19.0,22.9,12.9,0.0
26/07/2015,21.0,31.9,10.5,0.0
27/07/2015,21.2,26.7,16.5,0.0
28/07/2015,22.7,31.5,14.7,0.0
29/07/2015,22.0,30.1,15.1,0.0
30/07/2015,17.0,22.1,14.4,0.6
31/07/2015,17.4,20.3,14.7,3.0
01/08/2015,18.5,24.5,13.7,0.0
02/08/2015,23.3,32.1,12.4,0.0
03/08/2015,25.9,34.2,19.0,0.4
04/08/2015,23.4,30.3,18.5,0.0
05/08/2015,25.9,35.2,17.1,0.0
06/08/2015,26.0,36.5,15.0,0.0
07/08/2015,24.1,30.5,18.3,0.0
08/08/2015,17.8,20.9,14.0,1.8
09/08/2015,18.2,24.2,11.8,0.0
10/08/2015,22.1,32.3,13.3,0.0
11/08/2015,25.8,34.2,14.4,0.0
12/08/2015,27.2,35.0,19.3,0.0
13/08/2015,21.6,26.3,17.5,0.6
14/08/2015,18.0,22.3,14.7,0.0
15/08/2015,18.0,23.3,13.5,0.0
16/08/2015,19.4,28.3,9.1,0.0
17/08/2015,20.4,27.2,15.8,0.0
18/08/2015,18.8,25.3,13.1,0.0
19/08/2015,19.5,29.7,9.8,0.0
20/08/2015,21.2,32.5,10.5,0.0
21/08/2015,24.7,34.6,14.1,0.0
22/08/2015,25.1,31.0,17.1,0.0
23/08/2015,22.4,28.3,18.2,0.0
24/08/2015,19.2,24.3,12.0,0.0
25/08/2015,19.1,28.9,9.7,0.2
26/08/2015,24.9,32.5,15.3,0.0
27/08/2015,26.6,34.2,20.4,0.0
28/08/2015,26.0,34.7,16.4,0.0
29/08/2015,27.8,34.1,22.4,0.0
30/08/2015,26.1,32.9,17.2,0.0
31/08/2015,21.9,31.0,16.7,0.0
01/09/2015,19.3,24.5,13.7,3.2
02/09/2015,17.8,24.5,12.0,7.0
03/09/2015,17.6,24.0,13.5,0.0
04/09/2015,16.1,22.0,11.2,0.2
05/09/2015,15.7,22.1,10.1,0.0
06/09/2015,15.8,24.3,7.0,0.0
07/09/2015,15.7,25.6,7.2,0.2
08/09/2015,15.7,25.6,7.2,0.2
09/09/2015,18.6,27.0,9.0,0.0
10/09/2015,20.5,27.1,15.9,0.0
11/09/2015,21.5,27.3,16.1,0.0
12/09/2015,22.4,26.0,19.9,0.0
13/09/2015,19.5,23.1,12.7,0.2
14/09/2015,16.6,23.7,10.3,0.0
15/09/2015,16.5,19.8,14.3,11.2
16/09/2015,20.2,27.6,15.2,1.2
17/09/2015,15.1,20.3,9.6,0.6
18/09/2015,14.7,22.9,6.6,0.0
19/09/2015,15.5,23.7,7.5,0.0
20/09/2015,16.1,25.7,8.2,0.0
21/09/2015,16.3,26.9,6.2,0.0
22/09/2015,15.4,21.6,8.3,0.2
23/09/2015,14.6,19.0,10.4,0.0
24/09/2015,16.7,24.4,10.7,0.0
25/09/2015,17.0,28.9,6.8,0.0
26/09/2015,16.6,28.2,8.6,0.0
27/09/2015,15.7,24.6,8.7,0.0
28/09/2015,15.2,24.3,6.6,0.2
29/09/2015,15.9,24.6,7.5,0.4
30/09/2015,16.8,24.1,11.3,0.0
01/10/2015,15.8,24.9,7.4,0.0
02/10/2015,13.3,20.2,8.4,0.4
03/10/2015,13.5,21.2,6.8,0.0
04/10/2015,14.2,18.0,9.2,2.5
05/10/2015,20.9,25.9,16.4,0.6
06/10/2015,18.7,24.9,12.8,0.2
07/10/2015,14.1,18.6,10.5,0.0
08/10/2015,13.1,21.2,6.9,0.0
09/10/2015,12.5,22.5,4.5,0.2
10/10/2015,14.3,23.9,5.2,0.0
11/10/2015,15.2,19.7,10.0,0.8
12/10/2015,15.3,24.8,8.3,5.9
13/10/2015,12.5,16.4,10.2,0.4
14/10/2015,10.1,14.5,6.5,0.0
15/10/2015,9.6,17.1,4.0,0.0
16/10/2015,8.2,17.1,-0.3,0.0
17/10/2015,12.3,20.1,3.0,0.0
18/10/2015,16.6,22.2,12.8,0.0
19/10/2015,15.7,18.4,14.0,3.3
20/10/2015,13.2,15.8,10.3,0.6
21/10/2015,11.1,15.6,7.5,0.0
22/10/2015,12.4,16.3,8.1,0.0
23/10/2015,12.8,21.0,5.0,0.0
24/10/2015,15.5,21.4,10.8,0.0
25/10/2015,15.3,21.8,10.3,0.0
26/10/2015,16.2,21.1,9.8,0.0
27/10/2015,14.7,21.8,8.2,0.2
28/10/2015,12.2,17.6,9.0,0.0
29/10/2015,14.3,20.9,10.3,0.0
30/10/2015,15.4,22.7,8.5,0.0
31/10/2015,14.9,20.5,10.6,0.0
01/11/2015,13.4,18.8,7.0,0.0
02/11/2015,13.8,17.8,10.9,27.7
03/11/2015,12.3,15.5,9.6,6.3
04/11/2015,13.2,19.4,7.7,0.0
05/11/2015,13.5,19.3,8.4,0.2
06/11/2015,14.0,22.0,7.6,0.2
07/11/2015,14.0,20.8,8.4,0.2
08/11/2015,14.3,22.2,8.6,0.4
09/11/2015,13.5,20.9,8.4,0.2
10/11/2015,11.9,14.6,8.3,0.0
11/11/2015,11.4,12.2,10.2,0.4
12/11/2015,10.0,11.2,8.5,0.2
13/11/2015,12.1,17.9,7.9,0.0
14/11/2015,10.4,17.7,6.4,0.0
15/11/2015,8.0,9.8,5.2,0.4
16/11/2015,6.8,13.3,2.7,0.2
17/11/2015,8.5,16.9,2.3,0.2
18/11/2015,11.1,19.8,5.0,0.0
19/11/2015,12.7,20.2,7.1,0.0
20/11/2015,10.4,16.6,4.4,0.2
21/11/2015,7.9,14.0,4.4,8.4
22/11/2015,4.7,8.0,2.0,4.3
23/11/2015,4.2,9.2,0.9,0.0
24/11/2015,4.2,9.2,0.9,0.0
25/11/2015,10.6,13.9,7.1,0.0
26/11/2015,11.5,13.8,9.4,0.0
27/11/2015,10.0,12.5,7.9,0.0
28/11/2015,8.7,12.0,3.3,0.0
29/11/2015,6.5,13.8,1.2,0.0
30/11/2015,4.0,13.5,-1.6,0.0
01/12/2015,2.4,11.9,-4.1,0.0
02/12/2015,4.1,13.1,-2.2,0.2
03/12/2015,4.5,12.7,-0.7,0.2
04/12/2015,6.5,16.9,-0.7,0.0
05/12/2015,7.1,14.6,2.1,0.2
06/12/2015,7.9,13.6,3.6,0.2
07/12/2015,10.4,14.6,7.1,0.0
08/12/2015,10.1,12.8,7.0,0.0
09/12/2015,8.8,15.6,3.3,0.0
10/12/2015,5.4,7.7,1.7,0.0
11/12/2015,5.9,6.7,5.0,0.2
12/12/2015,5.0,6.9,3.5,0.0
13/12/2015,4.9,6.1,3.5,0.0
14/12/2015,4.5,10.6,2.2,0.0
15/12/2015,5.0,11.6,2.0,0.2
16/12/2015,6.3,16.1,0.2,0.0
17/12/2015,6.3,13.1,0.5,0.0
18/12/2015,6.8,15.8,1.0,0.0
19/12/2015,7.4,16.7,1.2,0.0
20/12/2015,9.2,13.8,4.7,0.0
21/12/2015,8.2,14.6,2.2,0.0
22/12/2015,3.9,9.1,-1.9,0.0
23/12/2015,4.7,6.2,2.8,0.0
24/12/2015,6.8,10.0,5.3,0.0
25/12/2015,6.4,7.7,5.2,0.0
26/12/2015,4.5,8.1,2.6,0.0
27/12/2015,4.3,7.9,1.6,0.0
28/12/2015,10.7,13.8,7.7,0.0
29/12/2015,8.9,14.0,4.8,0.2
30/12/2015,6.6,12.6,0.5,0.0
31/12/2015,7.8,11.1,2.6,0.4
