Fecha, Temperatura media, Temperatura maxima, Temperatura minima, Precipitacion acumulada
01/01/2013,6.9,11.1,4.5,1.0
02/01/2013,7.2,10.3,5.6,0.4
03/01/2013,6.2,13.4,-0.1,0.0
04/01/2013,3.7,14.5,-2.7,0.2
05/01/2013,7.2,19.1,-2.1,0.2
06/01/2013,7.7,17.0,-0.2,0.0
07/01/2013,4.2,14.1,-1.7,0.2
08/01/2013,3.4,12.4,-3.0,0.0
09/01/2013,2.1,7.3,-3.8,2.0
10/01/2013,8.8,14.5,1.7,0.2
11/01/2013,5.1,11.9,0.2,0.0
12/01/2013,4.5,12.6,-0.8,0.6
13/01/2013,5.0,8.7,2.1,1.0
14/01/2013,4.3,6.6,3.1,11.7
15/01/2013,5.3,7.0,3.7,15.3
16/01/2013,7.9,11.7,4.5,5.4
17/01/2013,6.2,9.4,3.1,1.2
18/01/2013,7.5,12.0,3.7,4.2
19/01/2013,9.7,12.7,5.9,5.7
20/01/2013,6.1,8.8,3.7,4.0
21/01/2013,5.1,9.8,-0.5,1.0
22/01/2013,2.5,6.1,-1.5,1.0
23/01/2013,3.3,7.3,-1.1,10.3
24/01/2013,4.5,9.4,1.9,7.7
25/01/2013,4.9,10.7,0.5,2.4
26/01/2013,7.3,11.9,1.7,3.2
27/01/2013,5.6,9.7,1.1,10.1
28/01/2013,6.5,12.1,0.6,0.0
29/01/2013,5.0,12.8,-0.7,0.2
30/01/2013,5.8,11.5,0.9,0.0
31/01/2013,9.2,17.3,1.7,0.2
01/02/2013,8.8,13.9,4.1,4.2
02/02/2013,4.9,8.9,1.7,22.2
03/02/2013,4.3,8.2,0.5,0.0
04/02/2013,8.5,13.8,1.3,0.0
05/02/2013,10.0,14.3,4.5,0.2
06/02/2013,4.0,6.2,0.5,23.6
07/02/2013,2.9,6.2,0.3,11.1
08/02/2013,3.3,5.7,0.9,10.5
09/02/2013,4.6,9.0,1.1,0.8
10/02/2013,5.1,10.4,0.3,2.8
11/02/2013,4.3,7.4,0.7,2.2
12/02/2013,3.7,7.2,0.3,9.9
13/02/2013,7.1,10.4,3.1,0.0
14/02/2013,8.7,13.1,3.9,0.0
15/02/2013,7.9,13.3,1.0,0.0
16/02/2013,5.1,13.5,-1.5,0.0
17/02/2013,5.4,12.7,-1.2,0.2
18/02/2013,8.3,13.7,4.8,1.0
19/02/2013,9.5,12.4,7.2,0.0
20/02/2013,9.7,15.1,5.1,0.0
21/02/2013,9.6,15.1,3.7,0.4
22/02/2013,6.9,9.8,1.8,0.2
23/02/2013,0.3,2.9,-2.0,0.0
24/02/2013,1.7,5.3,-0.6,0.0
25/02/2013,1.9,5.6,-0.3,0.0
26/02/2013,1.9,5.1,-2.3,0.0
27/02/2013,3.6,10.7,-2.9,0.0
28/02/2013,5.7,11.7,0.5,0.2
01/03/2013,7.4,13.4,2.9,0.4
02/03/2013,6.2,14.0,1.0,0.0
03/03/2013,7.6,15.0,-1.1,0.0
04/03/2013,9.3,12.1,5.6,0.8
05/03/2013,11.2,12.3,10.0,1.2
06/03/2013,12.7,19.0,8.4,0.2
07/03/2013,12.4,17.6,7.3,3.2
08/03/2013,11.8,18.9,5.6,4.4
09/03/2013,10.8,17.6,5.2,0.2
10/03/2013,10.1,17.2,4.4,0.0
11/03/2013,8.6,15.7,3.5,0.8
12/03/2013,8.6,13.0,2.9,1.8
13/03/2013,2.6,4.7,0.8,0.2
14/03/2013,2.9,6.8,-0.7,4.0
15/03/2013,5.0,10.6,0.5,0.0
16/03/2013,6.7,9.8,1.3,0.0
17/03/2013,7.4,9.6,5.2,10.1
18/03/2013,6.3,13.9,-0.1,0.0
19/03/2013,6.9,12.8,-0.3,6.7
20/03/2013,8.2,13.6,1.3,0.0
21/03/2013,9.1,16.2,1.0,0.0
22/03/2013,11.5,20.1,4.4,0.0
23/03/2013,9.7,17.3,3.1,0.0
24/03/2013,10.5,17.7,2.3,0.0
25/03/2013,9.3,13.2,5.1,11.9
26/03/2013,11.3,17.5,6.9,6.7
27/03/2013,12.5,17.1,9.4,3.0
28/03/2013,12.9,18.0,9.7,0.2
29/03/2013,13.0,17.3,11.1,11.3
30/03/2013,11.1,15.8,6.3,8.5
31/03/2013,11.6,18.0,4.7,0.2
01/04/2013,10.4,14.0,7.9,14.5
02/04/2013,10.3,16.3,5.3,0.8
03/04/2013,10.3,17.1,2.6,2.4
04/04/2013,9.2,15.1,4.8,4.0
05/04/2013,5.7,10.2,2.3,0.6
06/04/2013,5.0,9.6,0.9,4.6
07/04/2013,8.5,13.0,3.3,0.0
08/04/2013,10.8,16.7,5.8,0.0
09/04/2013,11.9,17.3,5.7,0.4
10/04/2013,13.1,21.5,3.6,0.0
11/04/2013,14.5,21.3,6.1,2.2
12/04/2013,12.1,19.4,4.8,0.0
13/04/2013,14.5,22.1,6.1,0.0
14/04/2013,17.4,24.2,9.2,0.0
15/04/2013,17.7,25.0,12.2,0.0
16/04/2013,17.3,25.3,9.8,0.0
17/04/2013,19.0,27.1,10.4,0.0
18/04/2013,14.5,21.3,8.4,0.0
19/04/2013,10.8,15.5,7.3,0.8
20/04/2013,10.5,16.6,5.1,0.0
21/04/2013,10.9,18.5,3.3,0.0
22/04/2013,11.0,17.1,6.6,0.0
23/04/2013,12.3,21.1,3.7,0.0
24/04/2013,14.3,22.7,4.8,0.0
25/04/2013,13.8,22.3,5.2,0.6
26/04/2013,13.1,17.4,9.0,1.4
27/04/2013,7.7,12.3,3.8,7.1
28/04/2013,7.1,12.2,3.1,9.3
29/04/2013,8.4,11.6,6.2,8.5
30/04/2013,9.4,14.7,5.9,8.3
01/05/2013,10.6,16.4,6.8,3.2
02/05/2013,9.7,13.6,6.1,1.8
03/05/2013,11.1,18.0,5.0,0.0
04/05/2013,12.9,21.2,3.5,0.2
05/05/2013,14.6,22.9,6.2,0.0
06/05/2013,15.7,25.3,4.7,0.0
07/05/2013,17.7,23.7,11.8,0.0
08/05/2013,17.7,22.7,13.0,0.2
09/05/2013,14.6,20.9,11.0,3.2
10/05/2013,13.1,18.1,7.9,0.0
11/05/2013,11.9,18.1,6.4,0.0
12/05/2013,11.9,16.5,7.1,0.0
13/05/2013,14.5,24.5,3.5,0.0
14/05/2013,13.9,19.6,6.7,2.0
15/05/2013,9.7,12.4,4.7,7.3
16/05/2013,8.3,14.5,2.6,0.8
17/05/2013,9.5,13.8,6.0,21.2
18/05/2013,8.8,13.5,5.1,6.3
19/05/2013,10.9,16.6,7.3,0.0
20/05/2013,11.3,17.1,4.8,0.0
21/05/2013,9.5,14.0,2.8,0.2
22/05/2013,13.5,18.2,8.9,0.0
23/05/2013,11.4,13.7,8.1,0.0
24/05/2013,10.4,15.5,6.4,0.6
25/05/2013,10.6,16.0,4.9,0.2
26/05/2013,11.7,21.4,2.0,0.2
27/05/2013,13.5,19.0,10.2,3.4
28/05/2013,11.2,15.5,5.9,3.8
29/05/2013,9.4,15.7,3.1,0.2
30/05/2013,11.0,15.3,6.8,0.2
31/05/2013,12.4,16.8,9.4,0.0
01/06/2013,13.1,16.1,10.8,0.0
02/06/2013,14.5,21.3,9.6,0.0
03/06/2013,14.9,21.7,8.4,0.0
04/06/2013,16.1,25.9,5.6,0.0
05/06/2013,19.1,26.7,9.1,0.0
06/06/2013,19.7,27.6,12.9,1.7
07/06/2013,18.2,24.6,13.5,19.5
08/06/2013,12.8,15.3,11.3,18.2
09/06/2013,14.3,19.7,11.0,25.3
10/06/2013,14.3,19.7,11.0,25.3
11/06/2013,20.8,26.8,14.1,0.0
12/06/2013,22.8,31.5,13.6,0.0
13/06/2013,20.5,26.7,14.9,1.4
14/06/2013,21.0,29.3,13.4,0.0
15/06/2013,21.0,29.5,13.0,0.0
16/06/2013,24.1,32.1,13.9,0.0
17/06/2013,22.0,28.9,15.1,0.0
18/06/2013,14.8,19.1,11.0,18.6
19/06/2013,13.5,18.7,10.7,5.5
20/06/2013,15.6,20.5,11.4,1.4
21/06/2013,16.2,22.1,11.5,1.8
22/06/2013,18.4,26.5,8.7,0.0
23/06/2013,16.6,19.9,12.1,0.0
24/06/2013,15.3,21.5,10.8,0.0
25/06/2013,16.9,24.0,10.7,0.0
26/06/2013,18.3,26.1,11.3,0.0
27/06/2013,17.7,25.3,9.7,0.0
28/06/2013,18.7,25.9,12.7,0.0
29/06/2013,19.9,27.8,11.7,0.0
30/06/2013,21.8,30.7,13.6,0.0
01/07/2013,22.9,31.3,14.2,0.0
02/07/2013,23.7,30.3,15.6,0.0
03/07/2013,21.8,27.1,15.6,0.0
04/07/2013,23.1,31.9,16.2,0.0
05/07/2013,23.9,33.7,13.9,0.0
06/07/2013,25.4,34.5,16.0,0.0
07/07/2013,24.2,32.9,15.2,0.0
08/07/2013,25.6,34.3,14.8,0.0
09/07/2013,26.5,33.3,17.6,0.0
10/07/2013,26.0,33.6,17.7,3.0
11/07/2013,24.4,32.9,17.2,1.6
12/07/2013,25.0,33.7,17.9,0.8
13/07/2013,25.2,33.4,17.6,0.0
14/07/2013,22.6,32.8,16.2,2.0
15/07/2013,22.8,31.3,15.1,0.0
16/07/2013,23.4,30.9,17.9,0.2
17/07/2013,22.9,29.8,16.4,0.0
18/07/2013,22.7,30.8,15.0,0.0
19/07/2013,24.0,31.8,17.0,1.2
20/07/2013,23.8,31.6,16.7,0.0
21/07/2013,24.9,33.0,18.3,3.6
22/07/2013,24.9,33.1,15.0,3.8
23/07/2013,24.8,33.7,18.7,1.0
24/07/2013,25.1,34.1,16.8,0.0
25/07/2013,27.7,36.0,18.3,0.0
26/07/2013,27.6,34.7,17.1,0.0
27/07/2013,25.8,31.8,19.8,0.0
28/07/2013,21.6,27.5,16.8,5.7
29/07/2013,20.9,27.5,13.3,0.2
30/07/2013,22.7,32.1,13.1,0.0
31/07/2013,26.6,35.3,16.8,0.0
01/08/2013,28.1,34.9,17.9,0.0
02/08/2013,27.1,34.7,18.8,0.0
03/08/2013,23.7,32.8,16.2,0.0
04/08/2013,24.5,32.7,17.2,0.0
05/08/2013,25.1,33.7,17.3,0.0
06/08/2013,21.7,28.0,16.6,0.0
07/08/2013,19.7,27.9,14.7,11.3
08/08/2013,17.8,23.7,13.0,0.2
09/08/2013,19.2,26.0,12.2,0.0
10/08/2013,21.0,28.3,14.8,0.0
11/08/2013,23.0,34.7,12.8,0.0
12/08/2013,24.4,34.0,18.0,0.0
13/08/2013,21.5,27.7,15.7,0.0
14/08/2013,20.8,29.5,13.2,0.0
15/08/2013,21.6,32.5,11.5,0.0
16/08/2013,23.3,33.0,17.3,0.6
17/08/2013,22.4,30.4,15.2,0.0
18/08/2013,23.7,33.7,15.0,0.2
19/08/2013,21.2,27.7,15.8,0.0
20/08/2013,20.4,29.7,13.0,0.0
21/08/2013,21.9,32.7,11.6,0.0
22/08/2013,24.7,32.9,16.2,0.0
23/08/2013,23.3,31.5,16.2,0.0
24/08/2013,19.6,24.2,14.7,0.0
25/08/2013,18.5,25.0,12.6,0.0
26/08/2013,18.7,24.6,13.3,0.0
27/08/2013,19.0,26.0,12.6,0.0
28/08/2013,19.3,27.4,14.0,0.0
29/08/2013,19.0,27.3,11.0,0.0
30/08/2013,19.2,26.3,11.7,0.0
31/08/2013,19.1,26.3,12.5,0.0
01/09/2013,19.8,27.7,11.8,0.0
02/09/2013,19.7,29.4,11.8,0.0
03/09/2013,20.6,31.3,10.7,0.2
04/09/2013,21.7,29.7,13.0,0.0
05/09/2013,21.1,29.7,11.8,0.0
06/09/2013,19.1,27.8,13.5,0.0
07/09/2013,16.9,22.6,13.8,5.0
08/09/2013,16.8,23.1,11.0,0.0
09/09/2013,16.5,24.9,7.2,0.2
10/09/2013,17.5,24.8,12.0,0.0
11/09/2013,15.1,21.2,9.8,0.0
12/09/2013,15.6,22.7,9.0,0.0
13/09/2013,18.3,26.6,12.0,0.0
14/09/2013,18.9,28.3,9.7,0.2
15/09/2013,16.6,20.8,9.7,0.0
16/09/2013,16.1,25.9,6.6,0.0
17/09/2013,16.0,19.4,13.2,0.0
18/09/2013,17.3,23.6,10.8,0.0
19/09/2013,17.6,22.0,14.8,0.0
20/09/2013,18.9,24.5,14.7,0.0
21/09/2013,18.4,28.1,9.9,0.0
22/09/2013,17.9,29.6,8.4,0.0
23/09/2013,20.3,28.6,11.5,0.0
24/09/2013,20.2,29.4,12.5,0.0
25/09/2013,23.3,30.9,15.3,0.0
26/09/2013,24.5,31.5,19.0,0.0
27/09/2013,24.0,31.2,18.6,0.0
28/09/2013,19.7,27.0,16.0,7.5
29/09/2013,18.3,24.6,14.3,0.2
30/09/2013,19.6,27.5,13.9,0.0
01/10/2013,19.7,25.6,16.6,1.4
02/10/2013,22.3,28.7,17.4,0.2
03/10/2013,22.2,26.9,19.4,1.8
04/10/2013,17.4,22.1,13.6,64.9
05/10/2013,16.1,21.9,11.3,0.2
06/10/2013,16.3,21.9,12.2,0.0
07/10/2013,14.6,22.5,8.2,0.2
08/10/2013,13.6,21.5,6.1,0.0
09/10/2013,13.9,20.1,8.4,0.0
10/10/2013,12.7,20.0,5.8,0.2
11/10/2013,10.7,16.6,6.2,0.0
12/10/2013,9.4,17.9,1.1,0.0
13/10/2013,11.4,19.9,3.3,0.0
14/10/2013,14.8,22.3,7.6,1.4
15/10/2013,15.7,18.9,13.3,0.4
16/10/2013,18.2,25.9,10.6,0.2
17/10/2013,16.8,24.5,9.4,0.0
18/10/2013,20.5,27.1,14.8,0.2
19/10/2013,19.1,23.0,15.4,8.1
20/10/2013,17.0,21.9,11.7,4.9
21/10/2013,16.3,22.7,9.4,0.2
22/10/2013,16.6,18.4,14.6,8.5
23/10/2013,15.9,22.7,10.6,0.2
24/10/2013,16.5,21.8,10.1,2.4
25/10/2013,19.5,23.4,15.1,9.7
26/10/2013,18.2,23.1,12.0,0.0
27/10/2013,14.4,21.4,8.8,0.2
28/10/2013,16.6,22.8,11.5,0.0
29/10/2013,11.0,14.9,8.2,0.0
30/10/2013,10.7,16.3,6.6,0.0
31/10/2013,8.9,17.9,2.1,0.2
01/11/2013,9.4,17.4,2.5,0.0
02/11/2013,14.3,22.2,8.1,1.2
03/11/2013,12.9,18.4,8.3,0.2
04/11/2013,11.3,15.0,8.9,8.1
05/11/2013,16.6,20.8,11.6,0.4
06/11/2013,16.0,22.3,10.7,0.0
07/11/2013,12.9,20.2,8.0,0.2
08/11/2013,11.8,18.7,7.1,1.0
09/11/2013,9.7,14.9,2.7,0.0
10/11/2013,13.0,16.5,9.4,0.6
11/11/2013,13.6,16.8,11.6,0.6
12/11/2013,14.4,18.5,11.9,0.0
13/11/2013,14.7,19.0,11.4,0.2
14/11/2013,11.0,13.2,9.3,0.2
15/11/2013,6.4,10.5,1.9,0.4
16/11/2013,4.5,9.8,-1.6,0.4
17/11/2013,7.6,9.6,5.5,2.0
18/11/2013,9.6,12.6,7.4,2.0
19/11/2013,8.7,13.5,3.3,0.6
20/11/2013,4.3,7.6,1.7,1.8
21/11/2013,5.3,6.6,3.4,5.5
22/11/2013,4.9,8.4,1.1,10.5
23/11/2013,5.6,9.7,2.9,0.0
24/11/2013,6.0,8.4,4.8,1.4
25/11/2013,5.9,9.2,3.3,0.0
26/11/2013,4.5,9.0,2.3,0.0
27/11/2013,2.5,8.4,-4.0,0.0
28/11/2013,0.4,8.5,-6.0,0.0
29/11/2013,5.3,9.4,0.2,0.4
30/11/2013,7.0,9.3,4.6,0.8
01/12/2013,4.3,9.8,0.2,0.0
02/12/2013,4.1,9.8,-2.1,0.0
03/12/2013,3.0,12.9,-3.4,0.0
04/12/2013,4.2,15.2,-3.6,0.0
05/12/2013,7.2,11.3,2.8,0.2
06/12/2013,6.6,14.6,1.1,0.0
07/12/2013,2.9,12.1,-3.5,0.0
08/12/2013,1.4,11.1,-4.9,0.0
09/12/2013,0.6,8.8,-4.4,0.0
10/12/2013,1.2,4.1,-3.6,0.0
11/12/2013,2.3,7.7,-0.3,0.0
12/12/2013,2.7,3.8,1.8,0.0
13/12/2013,3.5,9.4,0.5,1.2
14/12/2013,8.0,14.1,0.4,0.0
15/12/2013,0.0,3.3,-3.9,0.0
16/12/2013,2.2,12.1,-2.8,0.0
17/12/2013,5.9,10.3,2.1,0.0
18/12/2013,6.1,14.3,2.0,0.0
19/12/2013,8.0,10.4,4.9,7.1
20/12/2013,6.1,10.6,-0.3,0.4
21/12/2013,1.8,8.5,-4.2,0.2
22/12/2013,1.7,9.4,-4.0,0.0
23/12/2013,5.3,11.4,-1.2,0.0
24/12/2013,9.2,12.6,6.9,3.2
25/12/2013,7.0,10.1,4.2,6.1
26/12/2013,5.8,9.6,3.3,0.2
27/12/2013,8.3,13.8,1.1,0.0
28/12/2013,8.7,11.9,0.2,2.0
29/12/2013,3.0,9.5,-2.0,0.0
30/12/2013,2.0,8.4,-3.6,0.2
31/12/2013,4.6,10.0,1.7,0.0
