Fecha, Temperatura media, Temperatura maxima, Temperatura minima, Precipitacion acumulada
01/01/2014,10.7,13.4,8.5,0.0
02/01/2014,11.4,15.2,8.1,1.2
03/01/2014,12.6,15.9,8.7,0.1
04/01/2014,9.9,15.5,1.6,0.9
05/01/2014,7.1,12.7,1.4,0.0
06/01/2014,8.2,12.3,5.6,0.0
07/01/2014,10.1,16.4,4.7,0.0
08/01/2014,8.6,14.4,4.4,0.0
09/01/2014,5.5,11.8,1.0,0.0
10/01/2014,2.6,5.0,-1.6,0.1
11/01/2014,5.6,7.2,3.8,0.0
12/01/2014,6.8,8.8,5.7,0.5
13/01/2014,7.2,11.2,4.0,0.2
14/01/2014,7.1,9.0,2.5,0.7
15/01/2014,8.6,13.4,4.2,0.0
16/01/2014,9.0,13.4,5.4,0.0
17/01/2014,7.2,12.3,-0.3,0.0
18/01/2014,6.6,9.3,4.9,0.4
19/01/2014,5.1,9.8,1.0,0.0
20/01/2014,5.1,10.0,-0.0,0.0
21/01/2014,5.9,10.8,-0.1,0.2
22/01/2014,7.2,11.8,5.0,3.0
23/01/2014,8.2,11.4,5.8,0.0
24/01/2014,10.8,14.7,6.8,0.0
25/01/2014,13.4,16.9,9.1,0.0
26/01/2014,11.2,15.1,7.6,0.0
27/01/2014,7.9,12.5,3.2,8.4
28/01/2014,5.7,10.7,0.0,0.0
29/01/2014,5.5,10.2,1.4,0.5
30/01/2014,5.5,9.8,1.0,0.5
31/01/2014,7.2,12.0,2.6,0.5
01/02/2014,5.8,10.6,0.1,4.6
02/02/2014,3.4,10.4,-2.2,0.1
03/02/2014,2.0,7.9,-2.6,0.1
04/02/2014,6.9,11.4,-1.0,0.0
05/02/2014,9.5,13.8,5.3,0.1
06/02/2014,10.3,18.2,4.0,0.0
07/02/2014,9.9,13.3,4.2,0.0
08/02/2014,11.7,17.1,6.7,0.0
09/02/2014,6.1,8.8,4.0,1.6
10/02/2014,6.7,10.4,3.4,0.0
11/02/2014,4.5,9.3,-1.3,0.0
12/02/2014,6.8,13.1,-1.4,0.1
13/02/2014,13.3,19.5,5.4,0.0
14/02/2014,15.9,21.9,8.8,0.0
15/02/2014,11.2,16.0,7.3,0.0
16/02/2014,7.0,13.0,2.0,0.0
17/02/2014,5.4,13.5,-3.0,0.0
18/02/2014,7.5,10.8,5.0,0.1
19/02/2014,8.4,14.6,2.4,0.0
20/02/2014,9.0,16.7,-0.2,0.0
21/02/2014,8.1,12.8,2.5,0.1
22/02/2014,5.8,14.1,-3.8,0.0
23/02/2014,7.1,15.6,-3.6,0.0
24/02/2014,9.0,15.4,5.0,0.0
25/02/2014,10.4,17.2,3.8,3.6
26/02/2014,4.6,11.8,-0.0,0.8
27/02/2014,4.8,11.0,0.2,0.5
28/02/2014,6.2,11.7,1.6,6.5
01/03/2014,6.1,7.9,3.2,2.7
02/03/2014,11.2,16.8,5.9,0.4
03/03/2014,8.9,14.2,2.1,0.8
04/03/2014,8.5,13.2,5.1,0.8
05/03/2014,10.7,15.4,4.8,0.1
06/03/2014,11.5,18.4,4.6,0.0
07/03/2014,8.9,17.1,1.3,0.0
08/03/2014,10.2,19.4,-0.4,0.0
09/03/2014,10.4,18.2,1.3,0.0
10/03/2014,10.4,20.1,-0.9,0.0
11/03/2014,12.5,19.8,5.0,0.0
12/03/2014,9.6,17.2,1.6,0.0
13/03/2014,9.5,15.1,3.6,0.0
14/03/2014,10.3,19.7,-0.0,0.0
15/03/2014,12.1,17.5,6.2,0.0
16/03/2014,13.5,21.4,6.7,0.0
17/03/2014,12.5,24.5,2.1,0.0
18/03/2014,12.4,19.3,6.9,0.0
19/03/2014,12.3,19.7,7.4,0.0
20/03/2014,13.1,22.3,3.1,0.0
21/03/2014,13.6,19.1,10.0,0.0
22/03/2014,10.8,16.1,3.3,2.3
23/03/2014,5.9,12.7,0.4,0.1
24/03/2014,5.3,10.1,-1.8,3.2
25/03/2014,7.8,13.2,4.9,5.1
26/03/2014,6.8,11.1,4.0,2.1
27/03/2014,8.3,14.1,2.3,0.7
28/03/2014,10.1,15.4,4.7,0.0
29/03/2014,11.0,14.0,8.5,0.0
30/03/2014,11.1,13.4,8.9,0.2
31/03/2014,13.0,19.7,5.9,0.2
01/04/2014,14.1,20.5,9.0,0.1
02/04/2014,12.1,17.2,8.6,3.7
03/04/2014,10.7,13.2,7.6,0.2
04/04/2014,13.4,18.8,9.6,0.0
05/04/2014,16.1,22.2,9.2,0.0
06/04/2014,17.0,26.1,7.6,0.0
07/04/2014,17.5,26.5,7.6,0.0
08/04/2014,15.4,21.2,9.9,0.0
09/04/2014,14.3,23.3,5.8,0.0
10/04/2014,16.5,26.4,8.6,3.2
11/04/2014,16.1,23.5,9.4,0.5
12/04/2014,15.0,21.9,11.2,0.0
13/04/2014,15.9,24.8,7.7,0.0
14/04/2014,16.6,23.5,9.6,0.0
15/04/2014,18.6,26.3,12.6,0.0
16/04/2014,19.5,28.1,9.9,0.0
17/04/2014,17.9,27.2,9.4,0.0
18/04/2014,17.5,27.6,4.7,0.0
19/04/2014,15.5,22.8,8.5,6.0
20/04/2014,11.6,15.2,7.7,3.6
21/04/2014,11.5,18.6,6.7,9.1
22/04/2014,13.7,20.1,7.2,0.1
23/04/2014,15.0,23.1,7.4,0.2
24/04/2014,12.1,16.2,8.8,3.8
25/04/2014,11.8,17.6,6.5,0.6
26/04/2014,12.4,19.8,7.6,0.5
27/04/2014,13.1,19.4,6.8,0.1
28/04/2014,14.1,18.3,10.4,0.0
29/04/2014,16.2,23.2,11.4,0.0
30/04/2014,16.3,21.6,11.0,0.0
01/05/2014,15.1,21.5,9.7,0.0
02/05/2014,14.0,17.8,10.8,0.0
03/05/2014,13.8,20.0,8.9,0.0
04/05/2014,14.9,23.9,8.0,0.0
05/05/2014,16.8,25.8,6.0,0.0
06/05/2014,17.8,23.2,12.6,0.0
07/05/2014,19.4,26.5,13.6,0.0
08/05/2014,18.7,27.3,10.4,0.0
09/05/2014,18.7,27.0,10.0,0.0
10/05/2014,19.2,28.5,10.4,0.0
11/05/2014,15.4,19.6,10.3,0.0
12/05/2014,14.7,22.0,7.2,0.0
13/05/2014,13.7,18.6,9.0,0.0
14/05/2014,14.9,22.4,7.9,0.0
15/05/2014,17.1,25.8,8.0,0.0
16/05/2014,16.7,24.8,7.8,0.0
17/05/2014,17.0,24.5,9.4,0.0
18/05/2014,16.2,23.5,6.0,0.0
19/05/2014,16.9,22.0,11.2,0.0
20/05/2014,16.8,21.8,13.4,0.0
21/05/2014,17.2,22.6,13.6,0.0
22/05/2014,14.9,19.5,10.4,0.0
23/05/2014,15.6,22.4,8.8,0.0
24/05/2014,13.4,20.5,6.4,0.0
25/05/2014,14.2,19.8,10.8,0.2
26/05/2014,13.7,19.9,9.8,0.1
27/05/2014,14.7,21.4,8.6,0.1
28/05/2014,13.6,19.0,9.6,0.0
29/05/2014,15.8,22.4,9.0,0.0
30/05/2014,15.1,20.3,11.1,0.0
31/05/2014,16.0,21.5,11.0,0.0
01/06/2014,17.3,22.8,13.0,0.0
02/06/2014,16.6,22.2,10.8,0.0
03/06/2014,19.9,28.0,12.0,0.0
04/06/2014,15.9,19.6,12.0,0.0
05/06/2014,19.5,28.8,8.7,0.0
06/06/2014,21.7,30.9,16.1,0.1
07/06/2014,24.0,32.3,16.8,0.0
08/06/2014,24.5,32.7,13.9,0.0
09/06/2014,23.2,31.9,14.6,0.0
10/06/2014,21.9,30.3,16.3,0.0
11/06/2014,22.3,30.8,15.0,0.0
12/06/2014,24.0,32.5,16.4,0.0
13/06/2014,24.3,32.1,15.8,0.0
14/06/2014,21.6,26.6,17.2,0.0
15/06/2014,20.0,25.7,15.5,0.0
16/06/2014,19.3,24.3,15.0,0.0
17/06/2014,19.6,27.2,10.6,0.0
18/06/2014,20.7,28.6,13.2,0.0
19/06/2014,21.4,29.9,11.9,0.0
20/06/2014,24.3,32.9,17.3,0.0
21/06/2014,24.6,32.9,17.4,0.1
22/06/2014,23.4,32.7,15.3,0.0
23/06/2014,21.7,28.8,15.0,0.0
24/06/2014,17.9,23.0,14.2,0.0
25/06/2014,20.0,25.4,14.4,5.2
26/06/2014,19.2,24.3,14.0,0.7
27/06/2014,21.8,30.4,13.0,0.0
28/06/2014,22.1,33.1,14.4,0.1
29/06/2014,18.1,24.4,12.4,0.0
30/06/2014,20.4,29.4,10.6,0.0
01/07/2014,21.4,30.2,15.8,0.0
02/07/2014,18.5,25.2,14.8,0.0
03/07/2014,16.8,22.1,13.9,55.1
04/07/2014,19.8,25.8,13.1,0.1
05/07/2014,23.4,32.0,14.7,0.0
06/07/2014,19.6,27.2,14.0,10.9
07/07/2014,16.9,22.0,12.4,0.0
08/07/2014,18.2,24.5,11.6,0.0
09/07/2014,17.6,21.2,13.2,0.0
10/07/2014,17.3,22.7,13.3,0.0
11/07/2014,18.3,23.3,14.0,0.0
12/07/2014,19.0,24.1,14.0,0.0
13/07/2014,20.9,29.5,11.2,0.0
14/07/2014,21.8,27.9,15.6,0.0
15/07/2014,22.7,32.1,13.8,0.0
16/07/2014,26.2,34.7,17.3,0.0
17/07/2014,27.9,36.6,19.0,0.0
18/07/2014,26.8,35.8,19.4,0.0
19/07/2014,22.9,29.2,16.9,0.3
20/07/2014,20.8,25.9,16.4,0.0
21/07/2014,20.1,25.6,13.5,0.0
22/07/2014,21.7,29.8,15.4,0.0
23/07/2014,23.8,31.7,14.9,0.0
24/07/2014,24.2,31.9,17.0,0.1
25/07/2014,24.4,31.3,18.3,0.0
26/07/2014,24.4,31.6,17.0,0.0
27/07/2014,24.2,30.7,18.7,0.0
28/07/2014,21.9,27.6,16.9,0.0
29/07/2014,19.4,24.4,15.7,0.0
30/07/2014,20.2,25.8,14.7,0.0
31/07/2014,22.6,31.5,13.4,0.0
01/08/2014,22.6,30.7,16.4,2.3
02/08/2014,21.3,27.8,15.8,5.9
03/08/2014,22.1,29.5,15.5,0.2
04/08/2014,22.6,29.8,16.3,0.0
05/08/2014,23.3,31.1,16.6,0.0
06/08/2014,23.0,31.3,14.6,0.0
07/08/2014,25.0,32.7,16.8,0.0
08/08/2014,24.8,34.1,18.7,0.0
09/08/2014,24.3,30.5,17.6,0.0
10/08/2014,25.7,35.6,16.6,0.0
11/08/2014,22.0,28.3,17.1,0.0
12/08/2014,22.5,31.2,13.8,0.0
13/08/2014,19.0,24.0,12.2,0.0
14/08/2014,18.8,25.5,11.3,0.0
15/08/2014,19.3,26.6,11.8,0.0
16/08/2014,18.0,23.2,12.3,0.0
17/08/2014,19.4,29.6,10.0,0.0
18/08/2014,20.8,31.4,13.8,17.1
19/08/2014,19.8,26.0,15.4,0.0
20/08/2014,19.1,24.5,13.5,0.0
21/08/2014,18.7,25.3,11.3,0.0
22/08/2014,17.4,21.4,13.9,0.0
23/08/2014,18.6,26.0,11.0,0.0
24/08/2014,20.2,30.8,11.2,0.0
25/08/2014,22.7,32.9,13.2,0.0
26/08/2014,24.6,33.6,14.5,0.0
27/08/2014,25.0,32.9,18.0,0.0
28/08/2014,25.1,35.1,17.0,0.0
29/08/2014,22.0,28.1,18.6,0.0
30/08/2014,21.6,28.4,16.3,0.0
31/08/2014,22.2,30.0,16.1,0.0
01/09/2014,22.8,32.4,13.5,0.0
02/09/2014,23.5,32.8,12.9,0.0
03/09/2014,23.9,34.1,14.3,0.0
04/09/2014,22.9,29.8,15.3,0.0
05/09/2014,22.5,30.7,13.8,0.0
06/09/2014,23.1,31.7,15.9,0.0
07/09/2014,22.5,32.3,15.8,7.1
08/09/2014,20.5,27.9,15.9,0.2
09/09/2014,21.6,29.1,15.0,0.0
10/09/2014,23.3,30.3,15.6,0.0
11/09/2014,24.0,31.3,15.8,0.0
12/09/2014,23.3,31.2,16.2,0.0
13/09/2014,21.5,30.5,13.6,0.0
14/09/2014,21.5,29.9,14.6,0.0
15/09/2014,20.4,28.6,13.9,0.0
16/09/2014,22.0,30.0,14.9,0.0
17/09/2014,22.7,30.1,15.8,0.0
18/09/2014,22.6,30.5,15.1,0.0
19/09/2014,21.3,28.3,13.6,0.0
20/09/2014,20.4,28.6,12.9,0.0
21/09/2014,21.3,28.3,13.4,0.0
22/09/2014,18.5,22.8,16.2,8.3
23/09/2014,18.3,23.1,13.4,0.0
24/09/2014,16.1,22.6,12.4,0.0
25/09/2014,16.3,23.2,11.0,0.0
26/09/2014,15.7,24.3,7.2,0.0
27/09/2014,16.9,24.5,8.2,0.0
28/09/2014,18.1,22.0,15.4,2.2
29/09/2014,18.0,22.1,15.8,2.4
30/09/2014,18.5,24.9,14.4,0.0
01/10/2014,18.1,25.5,11.3,0.0
02/10/2014,18.3,25.6,11.5,0.0
03/10/2014,18.3,26.2,11.5,0.0
04/10/2014,18.4,26.5,10.3,0.0
05/10/2014,16.8,22.1,10.4,0.0
06/10/2014,17.3,25.9,7.5,0.0
07/10/2014,21.0,28.1,12.9,0.0
08/10/2014,19.9,28.8,10.8,0.0
09/10/2014,18.5,23.6,15.2,4.6
10/10/2014,16.8,22.4,14.4,13.2
11/10/2014,17.1,23.0,12.6,0.6
12/10/2014,17.5,25.0,13.2,0.9
13/10/2014,15.2,20.2,11.8,1.6
14/10/2014,14.9,21.2,10.4,0.0
15/10/2014,14.8,19.4,10.2,1.4
16/10/2014,19.9,26.3,14.0,0.0
17/10/2014,18.1,26.0,11.2,0.0
18/10/2014,18.0,27.6,9.8,0.0
19/10/2014,18.4,26.5,11.4,0.0
20/10/2014,17.8,26.5,10.6,0.0
21/10/2014,19.2,28.8,11.2,0.0
22/10/2014,15.7,19.9,11.4,0.0
23/10/2014,15.2,25.4,5.6,0.0
24/10/2014,18.7,28.3,9.0,0.0
25/10/2014,17.9,27.8,10.2,0.0
26/10/2014,16.8,26.5,9.0,0.0
27/10/2014,13.7,20.3,8.0,0.0
28/10/2014,14.7,19.6,10.4,0.4
29/10/2014,13.1,18.9,9.2,0.2
30/10/2014,11.3,15.8,7.5,0.1
31/10/2014,12.8,19.1,8.9,0.1
01/11/2014,12.8,18.1,9.6,0.1
02/11/2014,13.8,19.6,9.0,5.7
03/11/2014,14.6,19.2,9.0,0.0
04/11/2014,10.3,15.9,7.8,2.9
05/11/2014,8.9,13.6,4.8,0.0
06/11/2014,8.6,16.2,2.1,0.1
07/11/2014,9.3,14.3,4.7,0.0
08/11/2014,8.8,15.1,2.8,0.0
09/11/2014,10.1,15.1,3.8,0.0
10/11/2014,6.4,14.7,-0.9,0.0
11/11/2014,7.1,9.6,5.4,3.5
12/11/2014,9.0,14.9,5.3,0.0
13/11/2014,12.5,16.8,7.8,0.0
14/11/2014,12.8,16.7,8.6,4.6
15/11/2014,11.5,16.8,6.8,0.3
16/11/2014,11.8,15.1,7.0,0.0
17/11/2014,9.1,15.3,4.0,7.7
18/11/2014,6.9,13.0,1.4,0.0
19/11/2014,8.0,14.9,2.8,0.0
20/11/2014,9.8,16.0,4.9,0.0
21/11/2014,11.7,14.7,10.0,0.0
22/11/2014,13.2,15.0,11.4,0.0
23/11/2014,15.1,18.0,13.0,0.0
24/11/2014,14.5,19.7,11.2,0.0
25/11/2014,13.0,17.2,10.8,1.2
26/11/2014,11.3,14.3,6.2,16.7
27/11/2014,9.8,13.2,4.8,4.0
28/11/2014,12.0,13.8,10.3,21.6
29/11/2014,12.2,13.0,11.4,7.6
30/11/2014,13.1,15.8,10.9,2.1
01/12/2014,10.8,13.8,6.5,1.4
02/12/2014,9.4,12.3,7.5,0.8
03/12/2014,7.5,9.5,5.4,0.5
04/12/2014,6.2,10.8,2.0,0.5
05/12/2014,6.0,11.2,0.2,0.3
06/12/2014,5.4,7.8,3.6,0.6
07/12/2014,6.5,9.9,2.3,1.1
08/12/2014,9.6,13.8,6.0,1.9
09/12/2014,6.3,8.2,4.7,1.9
10/12/2014,9.1,13.0,5.4,1.9
11/12/2014,7.5,13.0,1.6,5.8
12/12/2014,4.4,10.1,-0.6,7.2
13/12/2014,7.4,12.1,4.4,6.1
14/12/2014,7.1,8.4,5.9,0.6
15/12/2014,7.7,10.2,5.5,2.4
16/12/2014,9.0,13.6,4.6,5.0
17/12/2014,10.6,14.6,7.0,2.9
18/12/2014,10.4,14.3,8.0,1.5
19/12/2014,8.7,11.6,6.4,0.0
20/12/2014,9.9,14.1,4.4,0.0
21/12/2014,8.2,13.8,1.8,0.0
22/12/2014,1.7,3.1,-1.2,0.2
23/12/2014,1.4,2.1,0.5,0.1
24/12/2014,1.2,7.8,-1.7,0.0
25/12/2014,5.7,12.5,-2.8,0.0
26/12/2014,10.0,14.0,6.4,0.0
27/12/2014,8.7,12.8,5.2,1.8
28/12/2014,5.7,8.9,1.8,2.7
29/12/2014,2.9,6.2,-0.2,0.3
30/12/2014,3.5,8.0,-1.8,0.0
31/12/2014,4.7,14.1,-3.9,0.0
