Fecha, Temperatura media, Temperatura maxima, Temperatura minima, Precipitacion acumulada
01/01/2018,5.2,8.9,2.0,3.9
02/01/2018,7.9,10.6,5.3,3.1
03/01/2018,11.8,14.0,9.9,0.0
04/01/2018,11.1,14.0,8.8,0.0
05/01/2018,8.4,11.1,5.8,3.3
06/01/2018,2.1,5.8,0.2,30.7
07/01/2018,2.5,3.9,0.1,7.3
08/01/2018,2.5,5.6,0.7,0.0
09/01/2018,0.9,2.5,-2.4,0.4
10/01/2018,3.2,6.5,1.3,1.4
11/01/2018,1.5,3.6,0.1,4.1
12/01/2018,3.7,6.3,1.1,0.0
13/01/2018,2.6,4.4,0.6,4.3
14/01/2018,2.0,4.2,0.4,5.3
15/01/2018,3.7,7.0,1.2,0.0
16/01/2018,6.9,11.9,3.7,0.0
17/01/2018,5.5,8.1,3.4,0.1
18/01/2018,6.9,11.4,3.4,0.0
19/01/2018,6.0,8.1,4.2,0.6
20/01/2018,7.0,10.1,3.8,0.0
21/01/2018,9.6,11.2,7.9,0.0
22/01/2018,8.8,12.1,6.5,0.0
23/01/2018,9.4,11.6,7.9,0.0
24/01/2018,7.8,11.6,5.4,0.0
25/01/2018,5.1,7.1,2.3,7.9
26/01/2018,2.3,3.9,0.9,11.5
27/01/2018,3.2,4.8,1.3,0.1
28/01/2018,6.6,13.5,1.7,0.0
29/01/2018,8.0,11.7,4.3,0.0
30/01/2018,7.5,12.8,4.3,0.0
31/01/2018,7.3,12.4,4.2,0.0
01/02/2018,2.8,5.7,-0.5,2.8
02/02/2018,0.2,2.5,-1.3,0.0
03/02/2018,0.9,2.9,-1.2,0.1
04/02/2018,1.5,3.2,-0.1,2.1
05/02/2018,0.4,1.6,-0.2,4.4
06/02/2018,-0.9,0.7,-2.2,0.0
07/02/2018,-1.4,1.0,-2.6,0.0
08/02/2018,-1.2,0.6,-2.6,0.0
09/02/2018,0.4,4.1,-2.2,2.3
10/02/2018,1.0,3.3,-0.8,0.0
11/02/2018,5.3,11.1,1.5,2.1
12/02/2018,1.2,3.4,-2.1,0.0
13/02/2018,-0.1,3.2,-2.7,0.0
14/02/2018,4.8,7.4,1.1,6.2
15/02/2018,9.9,12.7,7.2,0.0
16/02/2018,11.6,15.6,9.7,0.0
17/02/2018,6.4,10.6,3.1,0.1
18/02/2018,4.7,6.8,2.2,0.0
19/02/2018,6.5,8.7,5.0,0.0
20/02/2018,5.9,7.2,4.2,0.7
21/02/2018,1.9,4.4,-0.8,1.5
22/02/2018,-0.3,3.6,-2.3,0.0
23/02/2018,-1.6,0.0,-3.4,0.0
24/02/2018,2.0,8.0,-3.7,0.0
25/02/2018,4.8,10.7,0.3,0.0
26/02/2018,2.7,6.9,-4.5,0.0
27/02/2018,-1.8,5.3,-6.1,0.0
28/02/2018,-0.3,3.7,-3.5,23.3
01/03/2018,6.3,8.9,3.4,0.8
02/03/2018,3.8,7.0,0.9,1.0
03/03/2018,7.8,13.2,4.4,4.4
04/03/2018,8.1,11.9,5.8,1.7
05/03/2018,5.2,9.6,1.7,11.9
06/03/2018,4.5,9.7,1.0,3.0
07/03/2018,4.7,10.3,0.1,0.0
08/03/2018,6.3,9.2,2.4,0.0
09/03/2018,9.4,11.8,7.1,4.5
10/03/2018,9.3,11.0,7.7,7.9
11/03/2018,7.8,11.2,5.5,0.0
12/03/2018,6.8,10.9,4.7,0.9
13/03/2018,6.0,7.8,3.4,0.8
14/03/2018,6.6,8.6,4.3,12.1
15/03/2018,7.1,12.5,3.4,0.8
16/03/2018,6.0,11.1,3.3,0.2
17/03/2018,3.2,7.3,1.3,0.4
18/03/2018,2.9,6.5,0.4,0.0
19/03/2018,1.6,7.9,-2.0,1.2
20/03/2018,-0.8,1.7,-2.2,0.1
21/03/2018,0.4,3.6,-2.2,0.0
22/03/2018,1.8,5.8,-0.5,0.0
23/03/2018,6.7,11.1,2.3,5.5
24/03/2018,3.9,7.9,0.4,5.2
25/03/2018,4.2,8.7,1.8,0.0
26/03/2018,4.7,7.4,3.4,0.7
27/03/2018,8.6,12.2,4.3,0.0
28/03/2018,11.4,18.6,6.3,0.0
29/03/2018,8.9,13.9,4.1,0.0
30/03/2018,6.9,11.9,2.5,0.2
31/03/2018,4.5,8.9,0.9,0.1
01/04/2018,8.5,13.3,2.9,0.0
02/04/2018,10.5,13.5,7.4,0.0
03/04/2018,11.5,16.0,7.3,0.0
04/04/2018,10.0,15.8,6.8,0.0
05/04/2018,10.6,14.8,5.9,0.0
06/04/2018,11.4,16.9,7.5,4.2
07/04/2018,7.5,8.9,5.7,31.4
08/04/2018,7.1,10.9,4.2,12.8
09/04/2018,5.4,8.4,2.4,2.6
10/04/2018,3.6,4.8,2.0,19.6
11/04/2018,4.3,6.9,0.6,25.3
12/04/2018,7.3,12.7,3.5,8.5
13/04/2018,7.1,9.9,4.8,11.6
14/04/2018,10.0,15.6,5.5,0.0
15/04/2018,11.4,17.1,7.6,0.0
16/04/2018,9.2,13.6,6.6,12.3
17/04/2018,14.1,20.7,7.2,0.0
18/04/2018,16.5,20.2,12.3,0.0
19/04/2018,15.9,19.0,13.3,0.0
20/04/2018,15.1,18.4,11.9,0.0
21/04/2018,15.1,18.7,10.8,0.0
22/04/2018,15.7,19.4,12.2,0.1
23/04/2018,15.5,20.6,11.4,0.0
24/04/2018,17.3,22.5,11.1,0.0
25/04/2018,15.1,22.0,9.2,0.0
26/04/2018,12.5,19.0,7.6,0.0
27/04/2018,13.0,18.8,8.0,0.7
28/04/2018,11.1,16.8,6.5,0.9
29/04/2018,6.9,10.0,5.0,10.3
30/04/2018,6.0,11.1,3.2,0.0
01/05/2018,6.4,10.2,2.6,0.0
02/05/2018,9.7,14.5,6.8,0.0
03/05/2018,6.9,9.4,5.0,0.0
04/05/2018,8.7,12.7,5.0,0.0
05/05/2018,13.3,18.9,7.4,0.0
06/05/2018,16.7,23.2,10.5,0.0
07/05/2018,17.2,24.2,13.1,0.2
08/05/2018,14.2,18.6,9.2,0.0
09/05/2018,11.5,16.1,6.8,0.0
10/05/2018,9.6,13.2,7.2,0.0
11/05/2018,14.8,22.4,6.9,0.0
12/05/2018,9.5,15.2,3.6,0.0
13/05/2018,5.7,10.0,1.9,0.8
14/05/2018,6.8,10.7,3.9,0.0
15/05/2018,8.3,11.4,6.0,0.0
16/05/2018,12.8,18.9,7.6,0.0
17/05/2018,14.0,21.4,8.2,0.0
18/05/2018,14.7,20.2,10.5,0.0
19/05/2018,15.2,20.8,11.6,0.0
20/05/2018,15.1,22.6,10.8,1.0
21/05/2018,14.7,20.8,12.2,8.0
22/05/2018,16.1,21.3,11.8,0.0
23/05/2018,15.4,21.3,11.8,0.0
24/05/2018,17.3,22.6,12.5,2.1
25/05/2018,16.4,20.8,11.7,4.4
26/05/2018,-,-,-,46.8
27/05/2018,17.2,23.3,13.5,0.0
28/05/2018,13.6,17.9,11.6,1.7
29/05/2018,13.4,20.4,11.3,13.1
30/05/2018,13.0,18.3,11.1,36.0
31/05/2018,15.8,21.3,11.4,6.4
01/06/2018,17.0,23.4,12.7,1.4
02/06/2018,16.9,22.9,12.4,4.2
03/06/2018,16.7,22.8,12.9,7.9
04/06/2018,15.8,20.7,12.5,0.1
05/06/2018,13.6,17.2,11.2,0.0
06/06/2018,12.8,17.7,9.7,0.4
07/06/2018,16.6,22.4,11.4,0.0
08/06/2018,16.4,19.7,13.5,1.8
09/06/2018,15.1,19.1,11.4,8.7
10/06/2018,14.9,20.1,11.2,0.8
11/06/2018,14.7,19.2,12.1,0.0
12/06/2018,12.7,16.0,10.5,2.0
13/06/2018,12.2,14.3,10.5,0.0
14/06/2018,13.0,16.7,10.2,0.0
15/06/2018,15.3,19.8,11.0,0.0
16/06/2018,15.3,19.6,11.4,0.0
17/06/2018,14.8,19.3,11.0,0.0
18/06/2018,15.7,19.8,11.4,0.0
19/06/2018,20.0,26.9,13.2,0.0
20/06/2018,23.9,28.4,18.9,0.0
21/06/2018,24.0,29.5,19.5,0.0
22/06/2018,19.9,24.0,15.2,0.0
23/06/2018,20.3,26.2,14.7,0.0
24/06/2018,21.7,28.1,15.9,0.0
25/06/2018,23.1,28.7,16.5,0.0
26/06/2018,23.4,30.3,17.5,0.0
27/06/2018,22.5,28.9,17.4,0.0
28/06/2018,19.9,25.2,16.2,0.0
29/06/2018,20.2,27.4,14.9,18.1
30/06/2018,21.0,27.1,15.8,4.8
01/07/2018,22.3,28.9,17.4,0.7
02/07/2018,21.4,27.0,16.0,0.0
03/07/2018,23.2,29.1,18.6,0.0
04/07/2018,20.5,28.3,15.1,0.0
05/07/2018,16.3,21.3,13.6,0.0
06/07/2018,18.3,24.7,12.2,0.0
07/07/2018,20.9,26.9,15.3,0.7
08/07/2018,21.9,30.3,15.6,4.2
09/07/2018,22.0,25.7,18.8,0.0
10/07/2018,20.9,24.8,17.7,0.0
11/07/2018,20.4,26.8,16.3,0.0
12/07/2018,20.1,24.4,16.8,0.2
13/07/2018,21.4,28.2,17.0,7.0
14/07/2018,23.3,30.1,17.3,0.0
15/07/2018,23.0,31.0,17.9,0.0
16/07/2018,17.1,19.8,14.9,0.0
17/07/2018,20.6,28.4,13.5,0.0
18/07/2018,21.0,28.0,17.0,1.7
19/07/2018,21.5,31.6,15.4,0.0
20/07/2018,18.0,22.3,13.8,0.0
21/07/2018,15.7,19.0,12.4,0.0
22/07/2018,18.3,23.2,13.7,0.0
23/07/2018,22.9,31.2,14.4,0.0
24/07/2018,24.2,30.5,20.2,0.0
25/07/2018,24.2,32.2,18.5,0.0
26/07/2018,25.2,34.7,19.4,0.0
27/07/2018,23.7,31.3,17.5,0.0
28/07/2018,21.7,26.7,18.0,0.0
29/07/2018,23.8,32.2,18.5,0.0
30/07/2018,25.1,32.8,17.7,0.0
31/07/2018,23.7,29.3,19.5,0.0
01/08/2018,24.0,32.3,17.5,0.0
02/08/2018,26.1,34.6,19.3,0.0
03/08/2018,26.4,33.0,21.6,0.0
04/08/2018,25.5,30.7,22.5,0.0
05/08/2018,26.3,32.9,21.2,0.0
06/08/2018,27.2,35.0,20.2,0.0
07/08/2018,23.1,31.7,16.5,3.8
08/08/2018,21.5,28.7,15.9,0.0
09/08/2018,17.2,20.4,13.8,0.0
10/08/2018,18.9,25.5,12.8,0.0
11/08/2018,22.7,29.3,16.0,0.0
12/08/2018,23.1,29.4,19.1,0.0
13/08/2018,19.6,24.2,15.1,0.0
14/08/2018,16.5,20.7,13.6,0.0
15/08/2018,21.1,29.6,13.9,0.0
16/08/2018,21.2,30.0,16.7,0.0
17/08/2018,16.4,20.7,11.8,0.0
18/08/2018,17.0,23.9,11.0,0.0
19/08/2018,20.3,27.8,14.9,0.0
20/08/2018,21.6,29.2,16.2,0.0
21/08/2018,23.5,31.8,16.9,0.0
22/08/2018,24.3,32.2,19.2,0.0
23/08/2018,21.1,26.6,17.3,0.0
24/08/2018,17.1,21.8,13.7,0.0
25/08/2018,15.0,19.5,11.8,0.0
26/08/2018,18.8,27.5,11.2,0.0
27/08/2018,24.4,32.3,17.6,0.0
28/08/2018,24.0,29.1,19.0,0.0
29/08/2018,20.5,24.8,15.7,0.0
30/08/2018,19.0,27.7,14.2,0.0
31/08/2018,17.9,22.9,14.2,0.0
01/09/2018,20.3,27.3,13.9,0.0
02/09/2018,22.5,30.4,15.9,0.0
03/09/2018,21.5,27.8,17.4,0.0
04/09/2018,20.9,30.0,16.1,0.6
05/09/2018,17.9,24.8,15.5,0.7
06/09/2018,16.6,21.0,14.3,0.0
07/09/2018,17.4,23.6,12.2,0.0
08/09/2018,19.1,24.8,14.9,4.2
09/09/2018,18.7,24.9,10.4,1.2
10/09/2018,19.7,25.8,15.7,0.0
11/09/2018,20.5,25.7,16.4,0.0
12/09/2018,19.6,24.4,17.1,0.0
13/09/2018,17.8,21.6,15.1,0.0
14/09/2018,18.7,26.5,13.5,0.0
15/09/2018,18.3,23.3,13.1,0.0
16/09/2018,21.9,28.5,16.8,0.0
17/09/2018,21.8,26.6,16.6,0.0
18/09/2018,21.3,26.9,17.1,0.0
19/09/2018,22.5,29.6,16.6,0.0
20/09/2018,23.1,28.0,17.7,0.0
21/09/2018,20.9,26.0,16.3,0.0
22/09/2018,21.3,28.0,14.2,0.0
23/09/2018,22.9,30.5,16.6,0.0
24/09/2018,14.5,17.6,9.9,0.0
25/09/2018,15.0,21.9,9.0,0.0
26/09/2018,17.6,21.8,14.2,0.0
27/09/2018,19.7,25.9,14.0,0.0
28/09/2018,21.0,28.5,16.6,0.0
29/09/2018,18.9,22.7,15.5,0.0
30/09/2018,15.7,22.8,11.4,0.0
01/10/2018,10.9,13.4,7.8,0.0
02/10/2018,11.9,17.8,6.3,0.0
03/10/2018,17.1,25.5,12.4,0.0
04/10/2018,16.9,22.0,10.4,0.0
05/10/2018,17.8,21.6,14.0,0.0
06/10/2018,15.7,25.2,9.6,0.0
07/10/2018,8.8,11.2,7.3,2.3
08/10/2018,11.4,17.6,7.7,0.7
09/10/2018,11.7,15.3,7.9,0.4
10/10/2018,13.0,15.9,10.6,0.7
11/10/2018,16.3,19.8,13.2,0.0
12/10/2018,18.6,22.7,15.3,0.0
13/10/2018,18.4,21.8,15.3,0.0
14/10/2018,13.6,17.0,9.3,17.9
15/10/2018,12.7,18.0,8.5,0.7
16/10/2018,14.8,20.3,11.6,0.0
17/10/2018,14.6,19.9,10.2,0.0
18/10/2018,14.9,20.6,12.0,0.0
19/10/2018,15.5,20.0,12.5,0.0
20/10/2018,15.5,19.8,13.0,8.7
21/10/2018,16.4,21.2,12.5,0.0
22/10/2018,13.4,17.2,9.6,0.0
23/10/2018,13.5,21.1,8.8,0.0
24/10/2018,15.1,23.4,9.3,0.0
25/10/2018,16.5,22.2,10.8,0.0
26/10/2018,14.0,19.9,9.5,0.0
27/10/2018,5.9,9.8,2.8,0.0
28/10/2018,2.1,4.0,-0.1,0.0
29/10/2018,1.2,3.2,-0.2,3.5
30/10/2018,4.6,7.1,1.0,0.1
31/10/2018,6.0,6.7,5.1,16.6
01/11/2018,7.0,9.0,4.6,1.3
02/11/2018,7.4,10.1,5.9,8.4
03/11/2018,7.9,12.6,5.1,0.0
04/11/2018,8.8,12.1,4.3,0.0
05/11/2018,7.7,9.2,5.5,7.8
06/11/2018,6.4,9.8,3.8,6.9
07/11/2018,8.3,12.1,6.4,0.8
08/11/2018,7.9,9.9,5.5,9.9
09/11/2018,7.3,11.6,4.9,0.5
10/11/2018,8.8,10.3,6.8,0.6
11/11/2018,11.6,14.2,9.2,0.0
12/11/2018,12.3,14.7,10.5,0.0
13/11/2018,12.0,15.8,9.4,0.0
14/11/2018,11.9,14.5,10.5,0.0
15/11/2018,11.5,13.7,10.6,2.2
16/11/2018,11.0,13.5,9.4,0.0
17/11/2018,10.0,11.8,9.1,0.0
18/11/2018,7.2,9.1,6.0,18.0
19/11/2018,8.5,12.0,5.6,0.0
20/11/2018,3.9,5.7,2.7,4.7
21/11/2018,6.9,11.0,4.0,0.1
22/11/2018,6.9,8.1,4.7,0.0
23/11/2018,6.5,9.3,4.5,8.1
24/11/2018,5.8,9.3,3.1,0.0
25/11/2018,5.8,9.0,4.0,2.8
26/11/2018,4.4,5.7,3.0,8.1
27/11/2018,7.0,11.5,4.7,0.0
28/11/2018,8.8,13.3,5.2,0.0
29/11/2018,8.4,12.1,6.2,5.3
30/11/2018,6.6,9.1,5.0,1.6
01/12/2018,6.7,8.7,4.1,0.4
02/12/2018,8.7,12.1,6.5,0.0
03/12/2018,9.9,12.0,7.8,0.1
04/12/2018,12.4,16.3,10.3,0.0
05/12/2018,11.2,13.8,9.2,0.0
06/12/2018,9.6,11.9,6.5,0.0
07/12/2018,7.7,11.8,4.7,0.0
08/12/2018,7.6,9.6,5.0,0.0
09/12/2018,9.0,12.0,7.2,0.0
10/12/2018,7.7,11.3,4.9,0.0
11/12/2018,7.7,12.0,4.2,0.0
12/12/2018,8.4,10.1,6.5,0.0
13/12/2018,5.6,6.8,4.8,10.3
14/12/2018,5.3,6.1,3.9,2.1
15/12/2018,7.4,9.3,4.7,0.2
16/12/2018,7.2,10.5,4.6,6.9
17/12/2018,4.8,8.3,2.8,0.0
18/12/2018,5.6,7.1,3.0,0.0
19/12/2018,6.5,9.7,4.4,0.0
20/12/2018,7.3,11.6,4.4,0.0
21/12/2018,8.0,10.7,5.7,0.0
22/12/2018,10.4,12.9,7.8,0.0
23/12/2018,10.0,13.2,8.0,0.0
24/12/2018,10.5,14.7,8.0,0.0
25/12/2018,8.1,11.4,5.0,0.0
26/12/2018,4.2,5.9,2.3,0.0
27/12/2018,3.4,7.9,1.4,0.0
28/12/2018,6.9,10.0,3.7,0.0
29/12/2018,7.9,11.0,4.8,0.0
30/12/2018,9.3,11.7,5.8,0.0
31/12/2018,10.9,13.2,7.8,0.0
