Fecha, Temperatura media, Temperatura maxima, Temperatura minima, Precipitacion acumulada
01/01/2014,8.1,10.4,5.4,0.4
02/01/2014,10.2,12.2,7.7,3.5
03/01/2014,10.9,12.6,9.5,3.0
04/01/2014,8.0,11.5,2.1,12.4
05/01/2014,3.4,5.4,1.0,4.0
06/01/2014,7.9,10.9,3.8,0.2
07/01/2014,11.4,14.1,8.9,0.0
08/01/2014,12.0,16.7,7.0,0.0
09/01/2014,7.7,13.3,3.0,0.0
10/01/2014,4.8,10.2,0.3,0.0
11/01/2014,4.2,9.3,0.7,0.0
12/01/2014,4.9,6.5,3.2,2.3
13/01/2014,5.5,9.3,1.7,3.0
14/01/2014,3.9,6.1,2.2,18.1
15/01/2014,6.7,10.1,3.1,1.0
16/01/2014,7.9,10.0,5.2,6.5
17/01/2014,6.4,8.7,3.7,0.0
18/01/2014,5.3,7.8,2.0,24.8
19/01/2014,3.6,7.7,0.3,0.7
20/01/2014,2.5,4.2,0.6,15.9
21/01/2014,4.4,8.5,0.5,0.4
22/01/2014,5.2,7.7,3.7,8.1
23/01/2014,5.4,8.5,2.7,10.4
24/01/2014,7.8,11.0,5.9,25.3
25/01/2014,10.3,13.3,8.4,3.8
26/01/2014,10.3,13.3,8.0,1.2
27/01/2014,5.2,8.7,1.4,6.6
28/01/2014,3.0,5.5,0.4,3.8
29/01/2014,4.1,8.9,0.8,0.2
30/01/2014,2.9,5.4,1.2,7.8
31/01/2014,4.9,8.2,1.8,3.2
01/02/2014,4.5,7.9,0.8,13.5
02/02/2014,2.8,7.9,-0.7,0.1
03/02/2014,2.4,5.5,-1.2,1.4
04/02/2014,3.4,8.0,-0.9,7.1
05/02/2014,6.3,11.1,2.0,7.4
06/02/2014,9.8,14.8,3.5,8.8
07/02/2014,7.6,10.3,3.8,1.7
08/02/2014,7.4,11.3,1.2,1.5
09/02/2014,2.8,6.5,-0.8,3.4
10/02/2014,3.7,6.2,0.7,18.9
11/02/2014,1.0,2.3,-0.9,10.6
12/02/2014,4.1,8.8,-1.6,0.3
13/02/2014,8.1,15.5,4.5,0.0
14/02/2014,12.8,17.1,4.6,0.0
15/02/2014,7.6,13.0,3.6,5.5
16/02/2014,5.2,10.6,0.2,0.0
17/02/2014,5.5,11.8,-1.2,0.0
18/02/2014,5.6,8.2,3.4,0.3
19/02/2014,6.8,10.7,2.6,0.0
20/02/2014,6.7,13.2,0.8,5.2
21/02/2014,5.2,8.8,0.5,0.8
22/02/2014,3.6,10.8,-2.6,0.0
23/02/2014,6.5,13.8,-1.2,0.0
24/02/2014,9.4,13.7,6.2,0.0
25/02/2014,6.5,12.3,1.4,7.9
26/02/2014,2.6,6.9,-0.1,1.5
27/02/2014,2.6,8.2,-0.2,6.2
28/02/2014,3.1,7.0,0.3,21.2
01/03/2014,2.4,4.3,0.9,24.2
02/03/2014,8.1,12.3,2.7,6.8
03/03/2014,4.5,9.1,1.1,30.7
04/03/2014,5.0,8.5,2.6,24.0
05/03/2014,8.1,10.9,3.9,4.6
06/03/2014,9.3,14.3,3.3,0.0
07/03/2014,8.2,17.0,0.6,0.0
08/03/2014,9.9,18.6,1.3,0.0
09/03/2014,12.0,18.0,4.5,0.0
10/03/2014,9.6,19.1,0.4,0.0
11/03/2014,11.3,18.7,4.4,0.0
12/03/2014,8.9,16.7,2.6,0.0
13/03/2014,8.2,14.7,3.1,0.0
14/03/2014,9.2,18.2,1.0,0.0
15/03/2014,9.7,14.0,5.6,0.0
16/03/2014,10.8,16.7,5.7,0.0
17/03/2014,12.0,23.7,2.2,0.0
18/03/2014,9.5,13.4,6.1,0.0
19/03/2014,11.3,18.4,6.6,0.0
20/03/2014,12.1,20.2,4.2,0.0
21/03/2014,13.0,18.1,7.7,0.0
22/03/2014,7.5,12.1,2.1,4.4
23/03/2014,2.4,5.9,-0.4,16.1
24/03/2014,3.4,7.0,-1.8,8.1
25/03/2014,4.3,7.5,-0.1,14.8
26/03/2014,3.4,7.4,-0.4,30.4
27/03/2014,5.1,12.3,1.0,1.1
28/03/2014,9.9,13.9,3.9,0.0
29/03/2014,11.5,16.5,7.6,0.0
30/03/2014,10.9,12.8,8.6,0.0
31/03/2014,12.3,16.5,5.2,0.0
01/04/2014,14.7,18.8,9.8,0.8
02/04/2014,12.8,16.4,9.2,11.4
03/04/2014,9.1,10.3,8.5,4.5
04/04/2014,10.4,15.7,6.9,0.3
05/04/2014,12.7,19.0,7.2,0.4
06/04/2014,15.6,23.8,7.8,0.0
07/04/2014,15.7,24.2,7.4,0.0
08/04/2014,12.4,17.2,6.2,0.0
09/04/2014,12.8,23.0,2.8,0.0
10/04/2014,15.6,24.4,6.8,0.2
11/04/2014,14.4,21.9,10.0,0.0
12/04/2014,12.2,19.9,6.6,0.0
13/04/2014,13.6,21.2,6.1,0.0
14/04/2014,15.0,24.0,6.4,0.0
15/04/2014,16.4,24.8,9.9,0.0
16/04/2014,16.4,25.6,7.4,0.0
17/04/2014,14.9,23.1,7.1,0.0
18/04/2014,15.0,23.9,7.8,0.0
19/04/2014,13.0,17.7,8.8,3.8
20/04/2014,9.3,11.7,6.2,10.8
21/04/2014,9.6,17.5,2.8,3.7
22/04/2014,11.6,17.1,6.2,0.0
23/04/2014,12.0,19.6,5.2,0.8
24/04/2014,10.5,16.4,7.4,8.1
25/04/2014,9.0,13.4,5.9,0.5
26/04/2014,8.9,12.6,5.6,2.0
27/04/2014,10.2,15.1,5.0,0.3
28/04/2014,10.7,14.6,7.6,0.8
29/04/2014,12.9,18.2,8.5,0.3
30/04/2014,13.3,16.9,10.7,0.0
01/05/2014,12.0,17.4,8.4,0.0
02/05/2014,9.8,13.6,7.8,1.0
03/05/2014,10.8,15.2,6.9,0.2
04/05/2014,12.7,19.5,7.2,0.0
05/05/2014,15.0,24.0,4.8,0.0
06/05/2014,15.9,21.5,11.6,0.0
07/05/2014,15.7,21.4,10.5,0.0
08/05/2014,15.1,24.2,5.9,0.0
09/05/2014,15.2,21.1,8.8,0.0
10/05/2014,16.1,25.1,8.1,0.0
11/05/2014,12.7,15.6,9.2,0.0
12/05/2014,11.5,17.9,5.3,0.0
13/05/2014,10.1,13.5,7.5,0.0
14/05/2014,12.5,17.1,6.4,0.0
15/05/2014,14.6,20.0,5.9,0.0
16/05/2014,13.6,19.5,3.9,0.0
17/05/2014,13.8,18.8,6.0,0.0
18/05/2014,15.6,23.2,4.9,0.0
19/05/2014,17.9,21.7,13.3,0.0
20/05/2014,14.8,17.2,11.4,35.0
21/05/2014,15.4,19.0,11.5,13.2
22/05/2014,11.3,14.7,8.3,3.4
23/05/2014,10.7,14.8,4.1,13.4
24/05/2014,10.2,18.2,4.8,19.8
25/05/2014,10.3,13.8,8.4,40.6
26/05/2014,10.9,15.3,8.2,0.9
27/05/2014,13.4,20.4,6.5,0.0
28/05/2014,10.9,14.6,8.7,5.7
29/05/2014,13.0,18.4,6.8,0.6
30/05/2014,12.7,16.5,10.4,0.0
31/05/2014,13.5,17.6,9.8,0.0
01/06/2014,14.9,19.3,11.4,0.0
02/06/2014,14.5,18.8,10.8,0.0
03/06/2014,16.5,23.9,8.5,0.0
04/06/2014,13.0,15.8,8.0,0.0
05/06/2014,17.2,25.5,6.6,0.0
06/06/2014,22.9,29.0,18.3,0.4
07/06/2014,23.4,29.2,17.3,0.0
08/06/2014,22.5,30.9,14.4,0.0
09/06/2014,20.4,30.8,13.8,5.3
10/06/2014,17.9,26.3,12.2,0.0
11/06/2014,20.7,29.1,12.8,0.0
12/06/2014,21.8,30.3,14.7,1.6
13/06/2014,21.6,27.1,15.8,0.0
14/06/2014,18.4,22.4,14.5,0.0
15/06/2014,17.5,21.0,14.7,0.0
16/06/2014,17.1,20.0,13.5,0.0
17/06/2014,16.8,22.6,9.9,0.0
18/06/2014,17.7,23.8,10.6,0.0
19/06/2014,18.9,26.9,9.5,0.0
20/06/2014,22.7,31.4,13.7,0.0
21/06/2014,23.7,31.5,16.6,1.1
22/06/2014,20.8,29.0,15.4,9.1
23/06/2014,19.3,28.5,14.4,5.5
24/06/2014,17.5,23.8,13.5,15.4
25/06/2014,18.2,22.4,13.9,0.4
26/06/2014,16.9,20.1,12.5,0.0
27/06/2014,19.1,28.8,9.6,0.0
28/06/2014,19.5,27.8,13.4,0.5
29/06/2014,14.7,19.2,10.7,0.0
30/06/2014,17.8,26.9,8.2,0.0
01/07/2014,18.3,26.4,14.0,7.6
02/07/2014,15.9,22.7,12.8,34.4
03/07/2014,17.0,24.0,12.7,16.6
04/07/2014,17.4,21.9,13.8,19.8
05/07/2014,20.8,28.9,12.6,2.5
06/07/2014,17.7,24.4,12.7,7.7
07/07/2014,14.8,18.5,10.0,0.0
08/07/2014,15.4,20.2,9.7,0.0
09/07/2014,14.6,17.8,12.3,0.0
10/07/2014,14.9,19.1,10.9,0.0
11/07/2014,16.2,19.9,13.1,0.0
12/07/2014,16.3,19.9,13.8,0.0
13/07/2014,18.5,25.8,10.7,0.0
14/07/2014,19.0,23.4,14.7,0.1
15/07/2014,20.9,30.4,11.6,0.0
16/07/2014,24.9,34.8,15.1,0.0
17/07/2014,26.5,34.9,17.9,0.0
18/07/2014,26.3,33.8,17.1,0.0
19/07/2014,21.7,25.6,15.6,1.1
20/07/2014,17.5,22.4,13.5,1.0
21/07/2014,17.2,21.6,14.2,0.2
22/07/2014,19.7,24.2,15.2,0.0
23/07/2014,21.4,28.4,12.9,0.0
24/07/2014,21.6,27.7,14.6,0.1
25/07/2014,20.7,26.2,16.8,8.1
26/07/2014,21.4,27.7,14.5,0.0
27/07/2014,21.6,25.8,15.7,0.0
28/07/2014,18.8,23.3,14.2,0.3
29/07/2014,17.1,21.2,13.2,0.3
30/07/2014,19.0,22.9,15.3,0.0
31/07/2014,20.5,29.2,12.1,0.0
01/08/2014,19.6,28.1,14.4,1.3
02/08/2014,19.5,26.4,15.2,1.2
03/08/2014,20.3,27.2,14.6,4.9
04/08/2014,19.2,25.8,15.9,0.1
05/08/2014,20.0,27.8,13.2,0.0
06/08/2014,20.4,27.7,13.1,0.0
07/08/2014,21.9,28.1,15.2,0.0
08/08/2014,21.4,31.7,16.3,14.3
09/08/2014,21.7,28.9,15.2,0.0
10/08/2014,23.1,31.3,17.4,0.0
11/08/2014,19.5,24.0,14.3,0.0
12/08/2014,19.6,27.1,11.5,0.0
13/08/2014,15.4,19.5,12.3,0.9
14/08/2014,15.7,21.3,9.8,0.0
15/08/2014,16.2,22.4,10.7,0.0
16/08/2014,15.5,19.3,11.5,0.0
17/08/2014,17.7,28.0,7.5,0.0
18/08/2014,18.5,29.7,12.3,2.4
19/08/2014,18.5,24.5,14.3,0.0
20/08/2014,16.6,21.9,12.2,0.0
21/08/2014,16.9,25.7,10.0,0.0
22/08/2014,14.6,16.2,12.1,7.3
23/08/2014,16.1,22.2,8.8,0.0
24/08/2014,18.3,28.8,8.5,0.0
25/08/2014,22.5,32.1,13.3,0.0
26/08/2014,22.3,30.0,15.1,0.0
27/08/2014,23.3,29.8,16.7,0.0
28/08/2014,22.3,31.9,16.3,0.0
29/08/2014,20.0,24.3,16.5,0.0
30/08/2014,18.8,24.6,15.4,0.0
31/08/2014,19.5,26.7,13.3,0.0
01/09/2014,20.9,27.8,12.6,0.0
02/09/2014,21.3,29.1,13.4,0.0
03/09/2014,21.3,32.1,12.1,0.0
04/09/2014,19.3,27.8,15.0,1.0
05/09/2014,19.7,28.6,12.8,0.0
06/09/2014,22.0,30.6,14.3,13.0
07/09/2014,21.7,31.1,15.9,18.4
08/09/2014,20.1,26.9,15.6,2.6
09/09/2014,21.2,28.5,15.5,0.0
10/09/2014,22.1,30.1,15.4,0.0
11/09/2014,22.0,28.1,17.3,0.0
12/09/2014,20.5,27.5,14.8,0.0
13/09/2014,19.6,29.4,11.0,0.0
14/09/2014,18.6,27.9,13.9,7.0
15/09/2014,18.5,26.4,13.2,0.0
16/09/2014,19.6,26.6,13.7,15.2
17/09/2014,21.8,26.4,18.1,0.0
18/09/2014,21.2,25.3,15.8,0.0
19/09/2014,20.9,25.0,17.0,0.0
20/09/2014,19.1,26.4,13.3,24.7
21/09/2014,18.1,25.3,12.5,0.1
22/09/2014,16.1,17.9,14.5,4.3
23/09/2014,14.4,19.3,9.8,0.0
24/09/2014,12.8,17.6,6.6,0.0
25/09/2014,15.2,20.1,9.7,0.0
26/09/2014,14.3,22.7,6.3,0.0
27/09/2014,15.9,23.7,8.8,0.0
28/09/2014,16.7,19.9,13.5,0.1
29/09/2014,16.0,19.9,13.1,3.6
30/09/2014,16.6,20.7,12.4,0.0
01/10/2014,16.2,24.0,10.1,0.0
02/10/2014,16.6,24.7,10.1,0.0
03/10/2014,16.7,24.5,10.4,0.0
04/10/2014,16.2,23.9,10.1,0.0
05/10/2014,14.4,19.1,9.8,0.0
06/10/2014,15.9,22.5,7.7,0.0
07/10/2014,19.5,23.9,15.5,0.0
08/10/2014,19.4,23.3,16.7,3.4
09/10/2014,16.3,20.1,13.7,24.9
10/10/2014,14.4,17.9,11.0,12.2
11/10/2014,15.8,20.2,11.1,0.1
12/10/2014,15.9,18.8,12.6,2.8
13/10/2014,13.5,16.8,11.1,6.8
14/10/2014,14.0,19.2,10.3,0.0
15/10/2014,12.6,16.0,8.6,0.5
16/10/2014,18.4,22.9,14.5,0.0
17/10/2014,19.2,23.3,14.0,0.0
18/10/2014,20.0,25.3,14.0,0.0
19/10/2014,18.5,27.8,12.2,0.0
20/10/2014,17.9,26.0,11.3,0.0
21/10/2014,16.9,24.7,11.7,0.0
22/10/2014,12.5,15.4,7.5,0.0
23/10/2014,14.0,22.4,6.2,0.0
24/10/2014,17.3,26.3,9.8,0.0
25/10/2014,17.2,25.7,11.4,0.0
26/10/2014,16.3,25.2,9.1,0.0
27/10/2014,13.6,19.7,8.5,0.0
28/10/2014,13.3,19.9,9.1,0.0
29/10/2014,13.7,21.0,9.1,0.0
30/10/2014,13.5,21.2,7.9,0.0
31/10/2014,12.8,19.5,8.3,0.0
01/11/2014,12.2,17.9,9.4,0.0
02/11/2014,12.5,15.5,9.5,2.7
03/11/2014,12.2,15.8,9.5,8.8
04/11/2014,7.4,10.9,4.2,13.6
05/11/2014,5.8,9.9,3.6,2.9
06/11/2014,7.2,11.4,3.6,0.7
07/11/2014,8.7,12.3,5.3,2.0
08/11/2014,7.7,12.6,2.2,0.1
09/11/2014,8.7,11.6,4.5,0.1
10/11/2014,7.0,11.8,1.8,0.0
11/11/2014,8.2,9.8,6.7,2.3
12/11/2014,8.9,14.1,5.1,0.0
13/11/2014,11.7,16.0,5.2,0.0
14/11/2014,11.4,15.6,6.1,9.2
15/11/2014,8.1,12.3,5.6,4.8
16/11/2014,8.2,10.4,5.8,16.3
17/11/2014,6.8,9.7,4.9,2.7
18/11/2014,6.3,11.5,3.8,0.0
19/11/2014,8.0,14.7,4.0,0.0
20/11/2014,9.5,18.1,4.7,0.0
21/11/2014,9.6,16.1,4.4,0.0
22/11/2014,10.7,17.1,7.2,0.0
23/11/2014,16.8,20.3,10.5,0.4
24/11/2014,13.0,15.8,10.6,0.1
25/11/2014,11.6,15.1,9.2,4.1
26/11/2014,10.1,12.4,9.0,3.2
27/11/2014,11.5,14.4,7.6,0.1
28/11/2014,13.4,14.8,11.8,1.3
29/11/2014,11.5,14.6,9.9,11.7
30/11/2014,12.0,14.9,9.1,3.2
01/12/2014,8.4,13.1,4.3,1.9
02/12/2014,6.8,8.5,5.7,0.4
03/12/2014,5.8,9.4,2.5,0.0
04/12/2014,3.8,8.8,-1.2,0.0
05/12/2014,5.4,9.3,3.3,1.6
06/12/2014,4.0,6.3,2.1,1.3
07/12/2014,4.8,7.3,2.3,0.0
08/12/2014,7.1,10.1,4.6,15.2
09/12/2014,3.8,6.0,1.9,2.5
10/12/2014,6.5,9.7,1.2,0.9
11/12/2014,7.6,11.1,1.6,0.9
12/12/2014,4.9,10.4,-0.7,0.0
13/12/2014,9.0,11.5,6.2,0.3
14/12/2014,7.2,8.8,6.2,2.2
15/12/2014,7.0,9.8,4.3,0.3
16/12/2014,7.4,11.5,4.5,8.5
17/12/2014,9.0,11.8,7.6,0.3
18/12/2014,10.0,13.2,7.3,0.0
19/12/2014,8.4,11.6,6.9,0.0
20/12/2014,10.2,12.9,7.8,0.0
21/12/2014,7.3,11.8,1.7,0.0
22/12/2014,1.9,9.2,-3.4,0.0
23/12/2014,-0.0,5.6,-2.5,0.2
24/12/2014,1.2,6.0,-2.0,0.1
25/12/2014,7.2,12.4,2.2,0.0
26/12/2014,8.4,13.1,5.6,0.2
27/12/2014,7.6,9.5,5.4,21.3
28/12/2014,3.4,7.3,-0.5,8.4
29/12/2014,0.3,5.0,-2.5,0.0
30/12/2014,2.1,7.5,-2.2,0.0
31/12/2014,5.7,12.7,-0.2,0.0
