Fecha, Temperatura media, Temperatura maxima, Temperatura minima, Precipitacion acumulada
01/01/2010,6.1,9.9,1.7,0.0
02/01/2010,3.3,9.2,-2.0,0.1
03/01/2010,5.6,6.8,3.0,7.9
04/01/2010,5.7,8.3,3.4,2.2
05/01/2010,5.8,8.7,3.3,2.6
06/01/2010,2.4,7.3,-1.3,0.0
07/01/2010,2.0,4.7,-1.4,0.0
08/01/2010,0.6,2.6,-1.5,0.0
09/01/2010,-0.9,1.5,-3.0,0.0
10/01/2010,-0.9,3.7,-4.3,0.1
11/01/2010,0.6,5.3,-3.5,0.0
12/01/2010,0.1,4.2,-4.6,6.6
13/01/2010,3.6,8.7,-2.3,12.7
14/01/2010,6.5,7.7,4.8,10.3
15/01/2010,6.1,11.6,2.4,0.0
16/01/2010,7.1,10.7,2.7,0.8
17/01/2010,7.8,11.5,4.5,0.0
18/01/2010,7.7,11.0,3.9,0.0
19/01/2010,10.0,12.1,8.2,0.5
20/01/2010,8.4,12.4,4.6,0.1
21/01/2010,5.2,11.4,0.0,0.0
22/01/2010,5.1,13.4,-1.5,0.1
23/01/2010,6.3,9.3,3.6,0.1
24/01/2010,6.2,11.0,3.3,0.0
25/01/2010,4.3,7.8,1.5,0.0
26/01/2010,3.6,8.1,-1.3,0.0
27/01/2010,1.8,5.8,-1.5,0.0
28/01/2010,3.8,7.7,-1.1,0.1
29/01/2010,6.3,10.6,3.2,1.4
30/01/2010,5.4,7.9,3.6,3.5
31/01/2010,3.9,7.3,1.5,0.1
01/02/2010,2.5,8.5,-2.0,0.1
02/02/2010,2.1,9.2,-2.7,0.0
03/02/2010,2.8,11.2,-3.6,0.1
04/02/2010,6.3,8.2,0.7,4.6
05/02/2010,7.7,13.0,2.4,1.0
06/02/2010,8.3,13.0,3.3,0.1
07/02/2010,7.6,10.9,3.9,0.0
08/02/2010,5.3,7.4,2.4,6.1
09/02/2010,5.0,7.4,2.9,0.0
10/02/2010,3.1,5.9,-0.2,0.0
11/02/2010,-0.9,1.4,-3.2,0.0
12/02/2010,-1.1,2.7,-3.9,0.4
13/02/2010,-1.6,1.9,-6.1,0.0
14/02/2010,0.3,4.3,-3.5,0.0
15/02/2010,-0.3,4.0,-5.1,0.0
16/02/2010,3.6,7.4,-0.1,9.1
17/02/2010,7.5,8.5,5.3,12.2
18/02/2010,7.0,11.3,2.7,1.4
19/02/2010,6.1,9.9,0.4,0.0
20/02/2010,3.3,11.1,-3.3,0.1
21/02/2010,4.0,7.7,-0.4,3.0
22/02/2010,8.2,12.5,3.1,1.9
23/02/2010,11.2,16.0,8.1,0.3
24/02/2010,10.8,14.4,5.1,0.0
25/02/2010,11.8,16.1,8.7,0.0
26/02/2010,8.4,14.8,2.1,0.0
27/02/2010,10.8,16.6,4.7,1.1
28/02/2010,11.2,16.3,6.3,0.0
01/03/2010,9.7,15.8,3.9,3.4
02/03/2010,8.9,15.2,1.4,0.0
03/03/2010,6.7,10.1,5.3,5.0
04/03/2010,8.4,12.8,4.3,0.1
05/03/2010,8.2,14.0,2.9,0.0
06/03/2010,7.9,11.7,3.9,0.0
07/03/2010,5.1,11.6,-0.7,0.0
08/03/2010,1.0,4.3,-2.8,0.0
09/03/2010,2.6,6.5,-1.3,0.0
10/03/2010,0.9,3.3,-1.2,0.1
11/03/2010,2.2,5.5,-0.5,0.0
12/03/2010,3.2,7.8,-0.6,0.0
13/03/2010,6.1,11.6,1.5,0.0
14/03/2010,5.2,10.8,0.1,0.0
15/03/2010,7.2,17.9,0.0,0.0
16/03/2010,6.7,16.6,-2.5,0.0
17/03/2010,10.2,18.9,-0.1,0.0
18/03/2010,10.2,15.4,5.3,0.1
19/03/2010,11.7,18.5,4.5,1.4
20/03/2010,16.4,20.6,11.9,0.1
21/03/2010,14.5,19.0,9.1,0.0
22/03/2010,13.8,21.2,6.0,0.0
23/03/2010,11.6,19.3,1.8,0.4
24/03/2010,12.9,16.9,9.9,11.5
25/03/2010,11.4,16.3,8.2,13.3
26/03/2010,10.4,16.4,2.4,0.1
27/03/2010,10.1,17.0,3.3,0.1
28/03/2010,10.7,18.1,4.3,0.0
29/03/2010,12.9,18.2,5.9,1.9
30/03/2010,9.8,15.8,5.0,1.0
31/03/2010,9.0,16.3,2.3,1.0
01/04/2010,8.2,15.0,1.1,0.1
02/04/2010,8.7,17.5,0.6,0.0
03/04/2010,10.2,14.4,6.5,0.0
04/04/2010,8.3,13.3,3.0,0.0
05/04/2010,8.7,18.2,-1.7,0.0
06/04/2010,11.4,19.6,3.2,0.0
07/04/2010,9.9,13.8,6.3,3.7
08/04/2010,10.4,16.3,5.5,0.0
09/04/2010,11.2,20.7,1.9,0.0
10/04/2010,13.1,22.9,2.7,0.0
11/04/2010,12.4,22.9,1.7,0.0
12/04/2010,10.6,16.0,4.1,0.0
13/04/2010,9.3,17.2,2.3,0.0
14/04/2010,9.4,12.8,5.9,0.1
15/04/2010,10.3,12.9,7.7,0.0
16/04/2010,13.3,20.5,8.3,0.0
17/04/2010,12.4,18.4,7.7,0.0
18/04/2010,12.6,18.5,9.0,1.6
19/04/2010,15.4,23.4,10.2,0.0
20/04/2010,15.9,24.8,7.0,0.0
21/04/2010,17.1,23.6,8.9,0.0
22/04/2010,14.2,16.6,12.1,6.1
23/04/2010,14.5,19.9,9.7,0.1
24/04/2010,15.4,25.9,5.1,0.0
25/04/2010,17.9,27.3,9.1,0.0
26/04/2010,18.2,28.0,8.5,0.0
27/04/2010,19.0,28.2,9.3,0.0
28/04/2010,18.7,27.7,8.5,0.0
29/04/2010,18.9,25.1,12.3,1.6
30/04/2010,17.0,25.1,10.2,4.9
01/05/2010,14.6,18.8,9.9,1.2
02/05/2010,11.8,15.9,8.3,0.0
03/05/2010,9.8,14.2,6.3,0.0
04/05/2010,7.0,8.1,5.6,0.5
05/05/2010,8.0,11.9,6.1,0.0
06/05/2010,8.8,13.1,4.3,0.0
07/05/2010,9.2,17.3,-0.1,0.8
08/05/2010,14.1,20.5,8.5,0.1
09/05/2010,13.9,19.6,11.1,37.3
10/05/2010,14.0,21.5,7.0,2.2
11/05/2010,12.4,19.1,5.7,3.8
12/05/2010,11.7,17.6,7.9,0.8
13/05/2010,9.7,14.0,7.1,0.0
14/05/2010,10.1,15.6,5.3,0.1
15/05/2010,9.9,14.4,6.4,0.0
16/05/2010,10.3,16.3,4.1,0.0
17/05/2010,12.9,19.5,6.3,0.0
18/05/2010,15.6,25.1,5.8,0.0
19/05/2010,14.8,20.8,9.2,0.0
20/05/2010,17.7,26.9,9.3,0.0
21/05/2010,18.7,30.2,7.1,0.0
22/05/2010,20.7,30.3,9.6,0.0
23/05/2010,20.4,28.4,10.7,0.0
24/05/2010,21.3,28.7,11.9,0.0
25/05/2010,22.2,30.5,15.4,0.0
26/05/2010,19.1,26.8,11.8,0.0
27/05/2010,18.1,25.9,10.3,0.0
28/05/2010,16.2,21.0,11.3,0.7
29/05/2010,17.2,24.8,7.1,0.0
30/05/2010,19.6,26.3,12.8,0.0
31/05/2010,20.6,26.1,15.7,0.0
01/06/2010,19.9,26.7,13.1,0.0
02/06/2010,18.7,25.6,13.5,0.0
03/06/2010,20.0,29.4,9.3,0.0
04/06/2010,21.5,30.3,10.5,0.0
05/06/2010,23.4,33.1,13.5,0.3
06/06/2010,19.4,24.5,13.7,0.3
07/06/2010,20.8,29.4,11.5,0.0
08/06/2010,21.3,31.1,15.8,0.7
09/06/2010,17.2,20.8,14.9,2.8
10/06/2010,17.5,21.9,13.9,8.8
11/06/2010,17.2,21.6,14.1,2.0
12/06/2010,15.9,19.0,13.3,8.2
13/06/2010,17.8,24.5,11.0,0.0
14/06/2010,15.2,20.2,10.3,0.0
15/06/2010,14.1,21.2,7.7,0.0
16/06/2010,12.6,16.3,10.6,20.9
17/06/2010,13.7,19.5,10.7,0.0
18/06/2010,16.1,22.8,9.8,0.0
19/06/2010,16.4,20.8,13.3,0.3
20/06/2010,14.0,17.0,11.5,0.0
21/06/2010,16.6,23.3,10.2,0.0
22/06/2010,18.8,27.7,11.6,0.0
23/06/2010,19.7,30.2,9.1,0.0
24/06/2010,21.6,32.9,10.2,0.0
25/06/2010,23.5,33.1,13.3,0.0
26/06/2010,23.6,33.6,17.4,0.0
27/06/2010,24.3,32.9,18.1,9.6
28/06/2010,23.0,31.9,16.9,0.0
29/06/2010,23.3,30.0,16.1,0.0
30/06/2010,23.9,32.6,14.6,0.0
01/07/2010,26.3,35.6,15.7,0.0
02/07/2010,24.4,30.9,19.6,0.3
03/07/2010,24.1,32.7,17.7,0.0
04/07/2010,24.0,31.5,17.5,0.0
05/07/2010,21.7,28.9,15.3,0.0
06/07/2010,22.5,30.6,16.5,0.0
07/07/2010,25.0,37.2,13.1,0.0
08/07/2010,29.5,36.0,20.2,0.0
09/07/2010,27.8,35.2,19.2,0.0
10/07/2010,26.5,35.9,16.4,0.0
11/07/2010,29.3,36.7,20.1,0.0
12/07/2010,27.2,35.6,19.2,0.0
13/07/2010,26.5,35.4,16.7,0.0
14/07/2010,25.6,33.9,18.1,0.0
15/07/2010,23.5,33.1,14.1,0.0
16/07/2010,24.1,32.2,16.9,0.0
17/07/2010,20.8,27.3,15.0,0.0
18/07/2010,23.6,34.7,13.4,0.0
19/07/2010,25.3,36.2,15.9,0.0
20/07/2010,24.5,33.6,16.5,47.5
21/07/2010,20.8,26.4,17.1,0.0
22/07/2010,18.7,24.5,15.9,2.8
23/07/2010,18.2,23.4,13.5,0.0
24/07/2010,18.7,26.2,11.8,0.0
25/07/2010,19.2,23.9,14.1,0.0
26/07/2010,20.3,25.5,16.3,0.0
27/07/2010,22.3,31.9,13.7,0.0
28/07/2010,23.0,33.6,13.3,0.0
29/07/2010,21.4,26.1,17.3,0.0
30/07/2010,21.7,29.2,14.9,0.0
31/07/2010,24.8,34.9,14.5,0.0
01/08/2010,25.1,34.4,18.7,0.0
02/08/2010,20.3,23.4,16.3,0.0
03/08/2010,19.5,24.5,14.4,0.0
04/08/2010,19.9,26.1,14.3,0.0
05/08/2010,19.2,23.7,15.1,0.0
06/08/2010,20.2,28.9,12.3,0.0
07/08/2010,22.9,35.3,11.1,0.0
08/08/2010,23.0,31.6,14.5,0.0
09/08/2010,22.8,28.4,16.1,2.3
10/08/2010,22.1,33.8,13.1,0.0
11/08/2010,21.8,30.8,12.1,0.0
12/08/2010,20.7,25.7,15.7,0.0
13/08/2010,18.3,24.1,13.9,0.0
14/08/2010,17.4,23.6,12.7,0.0
15/08/2010,17.6,24.0,12.5,0.0
16/08/2010,19.1,28.6,10.6,0.0
17/08/2010,21.7,31.5,10.9,0.0
18/08/2010,22.6,32.1,13.9,0.0
19/08/2010,22.7,28.9,18.3,0.0
20/08/2010,24.3,34.0,16.5,0.0
21/08/2010,26.9,36.7,17.1,0.0
22/08/2010,28.5,36.0,19.7,0.0
23/08/2010,26.6,36.0,17.1,0.0
24/08/2010,23.8,30.0,17.1,0.0
25/08/2010,25.2,36.3,14.0,0.0
26/08/2010,28.4,38.8,19.9,0.0
27/08/2010,24.1,32.4,18.1,0.0
28/08/2010,20.3,25.2,15.9,0.0
29/08/2010,19.8,27.2,14.0,0.0
30/08/2010,18.5,25.5,13.0,0.0
31/08/2010,19.2,28.4,9.7,0.0
01/09/2010,20.9,30.0,13.1,0.4
02/09/2010,21.0,26.9,15.8,1.0
03/09/2010,21.0,31.3,12.0,0.0
04/09/2010,20.9,33.1,10.3,0.0
05/09/2010,23.5,34.0,12.2,0.7
06/09/2010,25.0,31.9,19.3,0.0
07/09/2010,20.1,26.4,14.1,0.3
08/09/2010,17.4,24.7,10.6,0.0
09/09/2010,18.0,23.4,13.6,0.0
10/09/2010,19.2,29.3,11.8,0.0
11/09/2010,20.2,30.7,11.9,0.0
12/09/2010,18.5,25.6,11.3,0.0
13/09/2010,18.8,26.6,12.2,0.0
14/09/2010,20.1,29.9,11.6,0.0
15/09/2010,20.0,30.5,11.4,0.0
16/09/2010,17.9,20.1,15.7,0.4
17/09/2010,17.7,23.8,13.5,0.1
18/09/2010,16.4,21.8,11.3,0.0
19/09/2010,15.7,25.9,6.3,0.0
20/09/2010,18.8,25.1,10.0,0.0
21/09/2010,21.2,28.9,14.0,0.0
22/09/2010,20.7,27.7,12.6,0.0
23/09/2010,20.4,24.9,16.1,6.5
24/09/2010,16.1,20.3,10.2,0.1
25/09/2010,13.8,18.5,9.8,0.0
26/09/2010,12.6,17.0,8.1,0.0
27/09/2010,12.5,20.4,4.2,0.0
28/09/2010,13.4,21.0,6.1,0.0
29/09/2010,15.9,27.5,5.1,0.0
30/09/2010,15.6,23.5,8.6,0.0
01/10/2010,16.9,25.9,8.5,0.0
02/10/2010,20.8,26.9,15.9,0.0
03/10/2010,19.0,24.7,15.9,2.4
04/10/2010,15.3,19.5,8.7,5.5
05/10/2010,14.1,23.4,5.7,0.1
06/10/2010,17.6,26.3,10.3,0.0
07/10/2010,19.1,24.2,11.7,0.0
08/10/2010,21.0,26.5,16.7,0.0
09/10/2010,19.0,22.4,15.5,8.8
10/10/2010,13.1,15.4,11.4,20.1
11/10/2010,14.2,18.7,11.4,0.3
12/10/2010,15.0,19.9,11.0,0.0
13/10/2010,15.1,19.4,11.0,0.0
14/10/2010,12.1,17.6,8.3,0.0
15/10/2010,11.6,16.8,7.4,0.0
16/10/2010,11.3,17.0,6.1,0.0
17/10/2010,9.9,15.2,6.7,0.0
18/10/2010,9.2,13.8,5.3,0.0
19/10/2010,10.7,18.0,5.9,0.0
20/10/2010,10.4,16.5,5.6,0.0
21/10/2010,9.2,18.0,1.9,0.0
22/10/2010,10.4,18.9,2.3,0.0
23/10/2010,12.4,19.8,7.1,0.0
24/10/2010,11.8,19.3,5.9,3.5
25/10/2010,8.8,12.3,5.1,0.0
26/10/2010,8.5,16.4,0.8,0.0
27/10/2010,9.7,22.5,-0.0,0.0
28/10/2010,11.6,21.6,3.9,0.0
29/10/2010,13.2,17.9,6.2,5.4
30/10/2010,11.1,13.6,6.8,0.4
31/10/2010,11.5,15.0,9.4,7.0
01/11/2010,12.6,16.3,9.2,3.0
02/11/2010,12.4,15.2,10.4,0.0
03/11/2010,14.1,19.7,10.2,0.0
04/11/2010,14.3,22.8,7.5,0.0
05/11/2010,12.0,19.9,6.7,0.1
06/11/2010,9.8,17.0,4.7,0.1
07/11/2010,9.5,13.6,3.9,0.4
08/11/2010,6.4,11.6,3.3,16.6
09/11/2010,9.5,14.7,4.6,0.1
10/11/2010,8.3,11.8,5.6,1.1
11/11/2010,7.5,11.8,1.8,0.1
12/11/2010,11.2,19.2,5.7,0.0
13/11/2010,10.8,17.6,4.8,0.1
14/11/2010,10.4,13.0,8.6,2.4
15/11/2010,8.0,12.6,4.1,0.3
16/11/2010,7.1,12.0,1.2,0.0
17/11/2010,4.4,8.9,0.7,1.6
18/11/2010,4.8,12.4,-1.3,0.3
19/11/2010,5.9,9.1,1.8,0.3
20/11/2010,8.8,12.4,6.6,8.2
21/11/2010,7.5,11.0,4.7,8.8
22/11/2010,6.9,10.1,4.3,0.5
23/11/2010,6.0,11.1,2.1,0.0
24/11/2010,4.4,10.5,-0.1,0.0
25/11/2010,3.7,10.7,-2.5,0.3
26/11/2010,3.4,8.1,-2.1,0.3
27/11/2010,0.7,7.2,-3.9,0.1
28/11/2010,-0.0,7.7,-4.7,0.3
29/11/2010,-0.6,3.6,-4.4,0.0
30/11/2010,3.5,6.5,0.5,0.7
01/12/2010,3.7,6.4,0.2,0.0
02/12/2010,1.6,6.4,-0.6,2.1
03/12/2010,1.7,6.2,-2.1,0.1
04/12/2010,1.4,7.4,-4.5,0.1
05/12/2010,6.1,8.8,4.2,6.8
06/12/2010,11.9,17.0,8.7,0.6
07/12/2010,13.4,16.3,11.4,3.1
08/12/2010,13.8,18.7,10.6,6.2
09/12/2010,7.4,11.2,2.7,0.5
10/12/2010,4.0,11.5,-0.9,0.0
11/12/2010,0.2,4.6,-3.3,0.3
12/12/2010,3.5,9.8,-1.1,0.1
13/12/2010,7.9,9.6,4.9,0.0
14/12/2010,4.0,8.5,1.0,0.0
15/12/2010,0.7,3.3,-1.6,0.0
16/12/2010,-0.2,4.7,-3.3,0.0
17/12/2010,0.7,5.9,-5.6,0.0
18/12/2010,1.1,7.9,-4.7,0.0
19/12/2010,2.5,9.9,-2.9,0.0
20/12/2010,2.3,12.4,-3.7,0.3
21/12/2010,6.7,8.6,1.1,2.8
22/12/2010,9.9,12.8,7.7,10.0
23/12/2010,6.8,9.3,3.7,6.1
24/12/2010,3.3,6.1,0.0,0.9
25/12/2010,0.7,2.8,-1.8,0.0
26/12/2010,-0.1,6.8,-4.3,0.0
27/12/2010,-0.8,7.6,-6.2,0.0
28/12/2010,1.4,9.7,-4.4,0.0
29/12/2010,4.2,12.7,-1.0,0.0
30/12/2010,5.6,9.1,2.5,0.0
31/12/2010,8.0,12.2,5.1,0.0
