Fecha, Temperatura media, Temperatura maxima, Temperatura minima, Precipitacion acumulada
01/01/2019,3.5,15.0,-3.2,0.1
02/01/2019,3.9,9.2,-3.3,0.0
03/01/2019,-0.8,9.2,-6.1,0.0
04/01/2019,0.8,13.9,-6.3,0.1
05/01/2019,2.9,14.9,-7.1,0.1
06/01/2019,5.7,12.2,1.8,0.0
07/01/2019,3.1,7.6,0.9,0.0
08/01/2019,5.0,9.7,-1.1,0.0
09/01/2019,6.9,10.7,4.4,0.0
10/01/2019,3.1,5.9,0.1,0.0
11/01/2019,2.9,7.3,-0.3,0.0
12/01/2019,6.4,10.5,3.4,0.0
13/01/2019,8.6,12.7,6.3,0.0
14/01/2019,9.2,12.8,6.2,0.0
15/01/2019,5.4,13.7,-1.3,0.0
16/01/2019,1.1,5.5,-4.3,0.1
17/01/2019,4.2,10.7,-0.9,0.1
18/01/2019,3.0,8.5,-1.6,0.0
19/01/2019,3.7,9.5,-2.5,3.8
20/01/2019,5.6,9.8,2.9,1.1
21/01/2019,4.4,8.2,1.1,0.0
22/01/2019,3.2,6.3,-1.0,1.0
23/01/2019,6.1,8.6,3.4,5.6
24/01/2019,4.5,7.0,2.5,0.3
25/01/2019,9.2,12.6,2.6,0.0
26/01/2019,8.2,13.7,0.4,0.0
27/01/2019,4.3,9.7,-0.8,0.8
28/01/2019,5.9,9.7,3.4,3.1
29/01/2019,5.4,7.8,3.2,1.7
30/01/2019,5.3,9.8,2.2,3.0
31/01/2019,8.0,14.0,3.5,9.7
01/02/2019,8.2,12.9,3.0,1.9
02/02/2019,2.8,5.4,0.3,15.2
03/02/2019,2.7,6.4,0.2,2.4
04/02/2019,5.5,11.5,0.8,0.0
05/02/2019,8.9,14.1,4.5,0.0
06/02/2019,8.0,17.4,0.4,0.0
07/02/2019,6.2,14.5,0.1,0.0
08/02/2019,6.0,14.8,-0.3,0.0
09/02/2019,7.6,14.8,-0.4,0.0
10/02/2019,8.5,12.3,5.7,0.6
11/02/2019,6.6,10.2,3.9,0.0
12/02/2019,5.3,14.1,-1.8,0.0
13/02/2019,5.0,14.7,-3.0,0.0
14/02/2019,5.6,14.5,-1.0,0.0
15/02/2019,4.8,15.0,-3.2,0.0
16/02/2019,6.3,16.0,-1.7,0.0
17/02/2019,7.9,16.9,-2.7,0.0
18/02/2019,7.2,14.5,-1.1,0.0
19/02/2019,5.6,14.0,-0.8,0.0
20/02/2019,6.3,15.1,-1.3,0.0
21/02/2019,7.2,17.1,-0.0,0.0
22/02/2019,8.1,20.4,-2.0,0.0
23/02/2019,9.6,22.3,-1.5,0.0
24/02/2019,9.0,17.6,1.4,0.0
25/02/2019,8.5,19.0,-0.4,0.0
26/02/2019,10.0,21.0,1.4,0.0
27/02/2019,10.3,23.3,-0.2,0.0
28/02/2019,11.1,17.1,5.9,0.0
01/03/2019,10.0,17.1,2.3,0.0
02/03/2019,11.7,19.0,4.4,0.0
03/03/2019,12.1,20.0,1.3,0.0
04/03/2019,12.8,17.5,7.6,0.0
05/03/2019,11.0,17.5,3.5,0.0
06/03/2019,11.5,14.5,7.8,1.5
07/03/2019,8.8,14.7,3.0,0.0
08/03/2019,9.0,14.9,2.9,0.0
09/03/2019,10.3,18.8,2.8,0.0
10/03/2019,11.1,18.4,3.0,0.0
11/03/2019,9.6,14.4,1.0,0.0
12/03/2019,9.2,18.8,-0.7,0.0
13/03/2019,8.2,11.0,5.4,0.0
14/03/2019,8.6,13.2,5.0,0.0
15/03/2019,9.8,18.6,2.2,0.0
16/03/2019,11.1,25.2,-1.3,0.0
17/03/2019,8.5,15.1,1.8,0.0
18/03/2019,8.2,13.3,3.1,0.0
19/03/2019,8.2,12.4,5.1,0.0
20/03/2019,9.5,16.3,3.6,0.0
21/03/2019,7.2,16.9,-2.8,0.0
22/03/2019,9.4,19.9,-0.6,0.0
23/03/2019,11.3,23.1,0.1,0.0
24/03/2019,12.8,24.1,1.5,0.0
25/03/2019,11.3,16.6,7.9,0.0
26/03/2019,11.3,21.0,3.8,0.0
27/03/2019,9.6,21.9,-1.6,0.0
28/03/2019,10.0,19.3,0.1,0.0
29/03/2019,10.4,19.2,1.1,0.0
30/03/2019,10.4,18.3,1.9,0.0
31/03/2019,9.2,15.1,0.9,0.3
01/04/2019,11.1,16.1,7.9,4.1
02/04/2019,11.8,18.9,5.5,0.0
03/04/2019,7.7,11.3,0.9,0.4
04/04/2019,7.1,14.4,-2.2,0.0
05/04/2019,8.7,12.2,5.1,5.8
06/04/2019,8.1,14.5,2.5,0.1
07/04/2019,9.4,15.4,5.5,0.8
08/04/2019,11.1,17.4,6.7,0.8
09/04/2019,9.3,17.1,1.8,0.4
10/04/2019,10.0,16.4,4.9,0.0
11/04/2019,9.7,13.8,6.2,0.0
12/04/2019,11.3,18.0,5.6,0.0
13/04/2019,12.3,22.9,0.4,0.0
14/04/2019,14.2,23.9,4.1,0.0
15/04/2019,14.2,20.4,8.2,8.1
16/04/2019,13.9,20.2,8.2,0.0
17/04/2019,14.6,20.2,10.0,0.0
18/04/2019,14.1,19.1,8.3,0.0
19/04/2019,14.7,19.9,9.6,0.6
20/04/2019,14.3,22.7,5.4,0.2
21/04/2019,12.5,15.3,9.6,0.0
22/04/2019,12.9,18.9,5.9,0.0
23/04/2019,12.7,18.4,8.0,1.2
24/04/2019,9.5,12.2,6.0,15.2
25/04/2019,11.8,16.6,7.9,6.9
26/04/2019,11.4,17.6,6.4,0.0
27/04/2019,12.2,19.2,5.1,0.0
28/04/2019,12.9,19.9,6.1,0.0
29/04/2019,14.6,23.8,4.8,0.0
30/04/2019,14.7,23.5,4.6,0.0
01/05/2019,14.1,23.9,4.8,0.0
02/05/2019,13.1,18.1,8.7,0.0
03/05/2019,10.3,15.2,6.9,0.2
04/05/2019,11.5,16.9,6.2,0.0
05/05/2019,9.8,16.5,3.1,0.0
06/05/2019,12.9,23.8,0.1,0.0
07/05/2019,17.2,24.4,6.4,0.0
08/05/2019,18.3,23.5,14.2,0.5
09/05/2019,15.8,21.8,8.7,0.4
10/05/2019,18.9,26.8,12.6,0.3
11/05/2019,15.0,19.5,9.7,0.0
12/05/2019,15.1,22.2,7.8,0.0
13/05/2019,16.7,24.0,9.3,0.0
14/05/2019,16.2,27.3,4.2,0.0
15/05/2019,18.3,28.3,6.9,0.0
16/05/2019,16.6,25.5,8.0,8.7
17/05/2019,10.4,13.3,8.4,39.7
18/05/2019,10.6,14.7,6.6,2.1
19/05/2019,10.9,14.2,8.4,0.4
20/05/2019,12.9,19.6,6.1,0.0
21/05/2019,13.9,21.6,4.7,0.0
22/05/2019,16.6,25.4,6.3,0.0
23/05/2019,17.6,26.3,10.6,0.2
24/05/2019,14.0,16.9,11.7,6.8
25/05/2019,14.5,18.8,11.8,0.0
26/05/2019,14.5,18.9,10.7,0.0
27/05/2019,15.6,20.4,11.8,0.0
28/05/2019,13.5,17.7,10.0,0.0
29/05/2019,14.7,20.3,10.0,0.0
30/05/2019,18.9,30.7,8.0,0.0
31/05/2019,20.4,29.9,9.2,0.0
01/06/2019,22.3,31.4,12.1,0.0
02/06/2019,23.9,32.6,13.7,0.0
03/06/2019,24.2,32.2,16.8,0.0
04/06/2019,22.6,32.6,14.0,0.0
05/06/2019,13.4,17.8,10.3,13.0
06/06/2019,16.9,24.9,8.9,0.0
07/06/2019,17.0,22.5,12.0,0.0
08/06/2019,17.3,25.8,6.2,0.0
09/06/2019,19.7,28.2,14.0,0.0
10/06/2019,14.9,19.4,11.2,0.0
11/06/2019,12.6,17.5,7.0,0.6
12/06/2019,14.7,23.0,4.4,0.0
13/06/2019,19.3,27.0,8.9,0.0
14/06/2019,18.8,28.0,12.3,0.0
15/06/2019,17.8,24.6,11.9,0.0
16/06/2019,19.9,29.6,7.9,0.0
17/06/2019,24.3,32.9,13.2,0.0
18/06/2019,27.1,35.3,20.2,0.0
19/06/2019,23.1,30.0,13.1,0.0
20/06/2019,19.3,25.9,14.4,1.9
21/06/2019,18.0,23.6,12.6,1.8
22/06/2019,20.5,31.2,8.6,0.0
23/06/2019,27.1,34.8,18.1,0.0
24/06/2019,27.3,33.5,22.1,0.0
25/06/2019,27.0,34.9,17.4,0.0
26/06/2019,29.7,36.8,22.1,0.0
27/06/2019,30.6,39.6,19.3,0.0
28/06/2019,30.1,41.3,17.0,0.0
29/06/2019,31.3,40.9,18.8,0.0
30/06/2019,28.0,40.1,15.5,0.0
01/07/2019,22.8,31.5,17.2,4.3
02/07/2019,23.5,33.5,16.2,0.0
03/07/2019,26.4,34.7,17.2,0.0
04/07/2019,27.6,35.1,17.2,0.0
05/07/2019,28.2,36.4,18.0,0.0
06/07/2019,27.2,37.0,17.7,0.0
07/07/2019,25.9,35.8,17.9,0.0
08/07/2019,22.5,31.3,16.7,23.1
09/07/2019,19.4,24.1,15.2,0.0
10/07/2019,22.3,30.5,14.4,0.0
11/07/2019,24.1,34.1,14.1,0.0
12/07/2019,25.4,36.2,15.2,0.0
13/07/2019,24.4,34.1,16.8,0.2
14/07/2019,22.8,28.3,18.4,2.0
15/07/2019,22.1,28.4,16.6,0.0
16/07/2019,22.6,31.7,12.4,0.0
17/07/2019,23.0,30.4,17.3,2.1
18/07/2019,22.1,30.3,15.5,0.0
19/07/2019,24.5,33.8,12.6,0.2
20/07/2019,27.0,36.2,19.0,0.0
21/07/2019,26.4,34.8,17.5,0.0
22/07/2019,29.3,37.3,20.1,0.0
23/07/2019,30.0,38.2,19.1,0.0
24/07/2019,29.4,37.6,18.9,0.0
25/07/2019,30.3,37.1,23.6,0.0
26/07/2019,22.8,28.1,18.3,0.6
27/07/2019,18.7,22.2,14.5,0.0
28/07/2019,19.5,26.2,12.9,0.0
29/07/2019,22.8,34.3,12.5,0.0
30/07/2019,19.7,25.1,14.3,0.0
31/07/2019,21.0,30.0,11.4,0.0
01/08/2019,23.3,32.0,17.3,0.5
02/08/2019,23.7,33.2,15.6,0.0
03/08/2019,25.5,36.3,14.4,0.0
04/08/2019,26.0,36.3,17.7,0.0
05/08/2019,25.5,35.8,16.8,0.0
06/08/2019,25.6,35.1,16.7,0.0
07/08/2019,25.5,31.7,19.5,0.0
08/08/2019,27.9,35.0,18.9,0.0
09/08/2019,28.2,36.1,19.5,2.0
10/08/2019,22.5,31.1,15.1,0.0
11/08/2019,21.8,27.8,16.6,0.0
12/08/2019,18.4,23.6,15.1,0.0
13/08/2019,18.6,24.7,13.6,0.0
14/08/2019,20.9,31.4,10.3,0.0
15/08/2019,21.4,28.1,15.5,0.0
16/08/2019,22.3,34.6,9.7,0.0
17/08/2019,26.8,36.6,16.3,0.0
18/08/2019,25.8,34.3,19.4,0.0
19/08/2019,19.7,24.0,16.2,3.2
20/08/2019,19.2,26.3,14.5,4.3
21/08/2019,20.1,28.4,13.0,0.0
22/08/2019,21.1,30.9,13.1,0.0
23/08/2019,22.1,32.4,10.9,0.0
24/08/2019,24.6,33.9,15.4,0.0
25/08/2019,25.6,33.6,16.7,0.0
26/08/2019,23.2,30.3,15.2,0.8
27/08/2019,21.8,28.7,16.5,0.1
28/08/2019,23.3,32.2,15.2,0.0
29/08/2019,24.5,34.0,15.7,0.0
30/08/2019,26.0,35.3,16.4,0.0
31/08/2019,26.0,35.0,18.2,0.0
01/09/2019,21.5,27.9,16.4,0.0
02/09/2019,18.9,24.7,14.5,0.0
03/09/2019,19.2,29.3,9.1,0.0
04/09/2019,18.5,28.9,9.3,0.0
05/09/2019,18.1,22.5,14.5,0.0
06/09/2019,17.1,23.9,12.1,0.0
07/09/2019,17.6,27.1,9.8,0.0
08/09/2019,17.4,23.9,11.2,0.0
09/09/2019,16.2,26.4,5.1,0.0
10/09/2019,15.8,19.9,12.1,0.0
11/09/2019,19.7,25.9,13.8,0.0
12/09/2019,19.3,29.1,10.0,0.0
13/09/2019,18.7,27.5,11.0,0.0
14/09/2019,21.1,29.1,13.3,0.5
15/09/2019,19.7,27.1,15.5,6.9
16/09/2019,22.1,29.4,16.0,0.0
17/09/2019,21.8,30.9,14.3,0.0
18/09/2019,21.6,28.6,17.1,0.0
19/09/2019,20.3,28.9,13.0,0.0
20/09/2019,21.4,27.7,15.6,5.4
21/09/2019,21.3,26.0,17.6,0.7
22/09/2019,19.3,23.3,12.1,1.0
23/09/2019,16.4,25.1,8.8,0.0
24/09/2019,19.6,28.0,11.6,0.0
25/09/2019,17.6,23.4,12.5,0.0
26/09/2019,18.9,28.8,10.1,0.0
27/09/2019,19.1,28.7,10.6,0.0
28/09/2019,18.5,27.9,9.9,0.0
29/09/2019,19.7,30.2,11.2,0.0
30/09/2019,19.1,30.0,10.0,0.0
01/10/2019,19.0,27.9,11.4,0.0
02/10/2019,16.6,20.5,13.8,0.0
03/10/2019,16.6,24.8,10.7,0.0
04/10/2019,17.3,25.6,8.7,0.0
05/10/2019,17.7,26.1,11.9,0.0
06/10/2019,16.1,22.1,10.2,0.0
07/10/2019,16.9,23.9,10.8,0.0
08/10/2019,18.8,28.8,8.8,0.0
09/10/2019,15.6,21.8,10.5,0.0
10/10/2019,14.4,23.9,7.8,0.0
11/10/2019,18.3,26.7,9.3,0.0
12/10/2019,22.2,27.4,19.4,0.0
13/10/2019,21.8,27.3,17.7,0.0
14/10/2019,17.9,21.0,11.3,1.3
15/10/2019,12.2,19.1,7.1,0.1
16/10/2019,13.8,22.4,6.8,0.0
17/10/2019,15.3,22.2,9.4,0.0
18/10/2019,16.4,19.8,13.5,5.4
19/10/2019,17.3,20.5,13.8,3.9
20/10/2019,13.5,17.8,8.4,2.2
21/10/2019,10.3,16.0,5.3,0.0
22/10/2019,8.2,11.3,5.0,15.1
23/10/2019,11.7,16.5,8.2,1.2
24/10/2019,12.0,15.8,9.1,0.4
25/10/2019,12.6,22.0,5.9,0.0
26/10/2019,13.8,22.8,6.7,0.0
27/10/2019,14.1,22.4,6.5,0.0
28/10/2019,14.9,22.0,10.7,0.0
29/10/2019,14.0,21.8,7.8,0.0
30/10/2019,14.5,20.8,7.5,0.0
31/10/2019,15.8,20.8,11.2,0.4
01/11/2019,15.9,21.4,11.2,0.2
02/11/2019,14.8,18.8,11.3,0.9
03/11/2019,13.0,16.2,9.3,3.2
04/11/2019,13.5,20.5,7.1,4.6
05/11/2019,8.5,13.5,4.0,2.3
06/11/2019,9.8,13.6,7.3,1.5
07/11/2019,8.2,12.6,1.8,9.1
08/11/2019,5.3,9.1,0.6,24.8
09/11/2019,8.0,11.4,5.8,5.8
10/11/2019,4.8,6.6,3.2,6.8
11/11/2019,6.2,10.1,3.2,2.1
12/11/2019,8.1,11.6,4.6,0.0
13/11/2019,8.8,13.3,4.7,3.0
14/11/2019,6.3,10.5,4.0,3.6
15/11/2019,4.2,7.2,1.5,2.1
16/11/2019,3.2,6.7,-0.3,1.5
17/11/2019,5.7,9.0,0.9,2.0
18/11/2019,6.0,9.8,3.6,0.1
19/11/2019,5.3,11.4,1.5,0.6
20/11/2019,5.4,10.2,-0.0,1.7
21/11/2019,6.5,12.7,2.8,0.1
22/11/2019,8.4,10.5,4.8,8.3
23/11/2019,8.1,11.0,6.6,2.7
24/11/2019,7.8,11.4,5.8,1.6
25/11/2019,8.6,15.4,3.2,0.2
26/11/2019,11.1,16.0,5.2,0.5
27/11/2019,10.5,14.4,5.8,2.2
28/11/2019,10.3,14.8,5.9,0.2
29/11/2019,11.0,16.5,4.9,0.0
30/11/2019,9.9,15.9,5.0,4.8
01/12/2019,-,-,-,-
02/12/2019,-,-,-,-
03/12/2019,-,-,-,-
04/12/2019,-,-,-,-
05/12/2019,-,-,-,-
06/12/2019,-,-,-,-
07/12/2019,-,-,-,-
08/12/2019,-,-,-,-
09/12/2019,-,-,-,-
10/12/2019,-,-,-,-
11/12/2019,-,-,-,-
12/12/2019,-,-,-,-
13/12/2019,-,-,-,-
14/12/2019,-,-,-,-
15/12/2019,-,-,-,-
16/12/2019,-,-,-,-
17/12/2019,-,-,-,-
18/12/2019,-,-,-,-
19/12/2019,-,-,-,-
20/12/2019,-,-,-,-
21/12/2019,-,-,-,-
22/12/2019,-,-,-,-
23/12/2019,-,-,-,-
24/12/2019,-,-,-,-
25/12/2019,-,-,-,-
26/12/2019,-,-,-,-
27/12/2019,-,-,-,-
28/12/2019,-,-,-,-
29/12/2019,-,-,-,-
30/12/2019,-,-,-,-
31/12/2019,-,-,-,-
