Fecha, Temperatura media, Temperatura maxima, Temperatura minima, Precipitacion acumulada
01/01/2017,0.8,1.6,0.2,0.0
02/01/2017,0.9,3.2,-1.2,0.0
03/01/2017,1.6,9.8,-2.4,0.1
04/01/2017,6.4,14.5,0.9,0.0
05/01/2017,5.4,10.4,2.3,0.0
06/01/2017,3.4,11.2,-1.7,0.0
07/01/2017,1.8,9.2,-3.3,0.0
08/01/2017,5.1,13.7,-4.1,0.0
09/01/2017,7.9,12.5,5.4,0.0
10/01/2017,8.6,11.7,6.0,0.6
11/01/2017,11.2,15.2,6.9,0.0
12/01/2017,8.9,13.4,4.1,0.0
13/01/2017,6.7,10.2,3.7,0.0
14/01/2017,4.4,7.7,3.1,0.9
15/01/2017,6.6,9.2,4.0,0.1
16/01/2017,8.4,10.9,6.9,5.4
17/01/2017,3.1,7.2,-1.1,0.0
18/01/2017,-1.4,1.7,-4.2,0.0
19/01/2017,-0.8,6.2,-5.8,0.0
20/01/2017,0.0,3.8,-2.8,0.1
21/01/2017,3.2,11.9,-2.7,0.0
22/01/2017,5.7,9.4,1.5,0.0
23/01/2017,6.5,11.8,2.9,0.0
24/01/2017,6.0,11.5,1.2,0.0
25/01/2017,2.6,9.6,-3.0,0.0
26/01/2017,0.9,6.9,-5.9,0.0
27/01/2017,6.5,11.2,3.7,11.4
28/01/2017,6.7,12.2,1.4,2.3
29/01/2017,5.3,10.9,0.2,0.0
30/01/2017,8.3,14.1,4.0,0.0
31/01/2017,9.2,15.4,5.0,0.0
01/02/2017,9.0,15.1,4.8,0.0
02/02/2017,8.9,12.2,5.1,10.1
03/02/2017,10.3,15.7,5.3,3.9
04/02/2017,12.5,15.7,9.7,0.4
05/02/2017,9.2,14.8,6.2,1.5
06/02/2017,9.2,14.6,5.8,0.0
07/02/2017,9.4,12.8,4.9,0.2
08/02/2017,5.7,9.7,3.0,0.3
09/02/2017,6.5,12.4,1.2,0.0
10/02/2017,5.5,10.4,0.8,0.0
11/02/2017,5.2,7.4,1.4,13.2
12/02/2017,9.6,12.5,6.1,3.0
13/02/2017,9.3,11.3,5.1,17.8
14/02/2017,8.3,14.6,3.6,0.1
15/02/2017,8.9,14.4,5.0,0.0
16/02/2017,8.3,15.2,4.3,0.0
17/02/2017,7.2,15.0,2.7,0.0
18/02/2017,6.6,15.1,-0.1,0.0
19/02/2017,7.8,15.8,2.1,0.0
20/02/2017,9.2,15.4,3.6,0.0
21/02/2017,8.2,16.6,1.6,0.0
22/02/2017,8.6,16.4,1.7,0.0
23/02/2017,7.9,12.1,3.6,0.0
24/02/2017,9.1,12.8,5.5,0.0
25/02/2017,9.4,18.4,3.5,0.0
26/02/2017,7.9,16.5,0.5,0.0
27/02/2017,10.7,18.2,2.4,0.0
28/02/2017,9.7,15.4,3.5,0.8
01/03/2017,8.2,17.6,1.0,0.0
02/03/2017,10.7,17.4,3.2,0.0
03/03/2017,10.2,16.4,6.4,8.3
04/03/2017,7.2,12.8,1.7,0.8
05/03/2017,8.7,12.8,4.8,0.3
06/03/2017,11.5,20.1,6.1,0.0
07/03/2017,12.0,19.1,5.4,0.0
08/03/2017,13.9,21.6,7.5,0.0
09/03/2017,13.9,25.6,5.4,0.0
10/03/2017,15.8,27.8,6.0,0.0
11/03/2017,14.3,24.1,5.9,0.0
12/03/2017,11.4,17.8,7.4,1.0
13/03/2017,10.4,14.4,7.6,0.0
14/03/2017,12.8,19.8,7.3,0.0
15/03/2017,12.0,20.0,5.0,0.0
16/03/2017,11.7,20.5,3.4,0.0
17/03/2017,12.0,22.2,2.9,0.0
18/03/2017,12.8,21.3,6.9,0.0
19/03/2017,14.1,23.7,6.3,0.0
20/03/2017,13.3,23.0,6.4,0.0
21/03/2017,10.3,16.4,4.8,0.0
22/03/2017,7.5,14.4,3.9,1.9
23/03/2017,6.9,12.1,1.0,0.1
24/03/2017,8.3,13.3,3.5,0.1
25/03/2017,5.4,8.6,4.0,27.5
26/03/2017,10.3,16.2,5.2,0.0
27/03/2017,10.1,13.6,7.9,3.0
28/03/2017,12.0,19.1,6.0,0.0
29/03/2017,12.8,21.6,4.5,0.0
30/03/2017,13.8,20.9,6.3,0.0
31/03/2017,12.8,18.7,8.2,2.6
01/04/2017,11.4,16.8,7.5,0.5
02/04/2017,10.3,15.0,7.4,0.0
03/04/2017,12.0,20.0,3.3,0.0
04/04/2017,12.9,17.8,8.5,0.0
05/04/2017,12.1,17.4,7.5,0.0
06/04/2017,13.4,19.2,9.2,0.0
07/04/2017,12.7,20.7,5.0,0.0
08/04/2017,14.6,23.3,5.9,0.0
09/04/2017,15.1,23.2,7.0,0.0
10/04/2017,16.7,27.6,5.8,0.0
11/04/2017,15.4,23.0,9.2,0.0
12/04/2017,15.5,25.4,7.5,0.0
13/04/2017,17.4,27.9,8.5,0.0
14/04/2017,16.1,26.5,6.7,0.0
15/04/2017,14.0,20.7,9.5,0.0
16/04/2017,15.2,24.3,7.7,0.0
17/04/2017,15.9,26.1,6.4,0.0
18/04/2017,15.2,21.7,9.9,0.0
19/04/2017,13.1,19.4,8.1,0.0
20/04/2017,12.4,20.4,3.6,0.0
21/04/2017,12.0,18.7,3.8,0.0
22/04/2017,12.7,22.4,2.6,0.0
23/04/2017,15.0,27.3,4.1,0.0
24/04/2017,16.6,26.7,6.0,0.0
25/04/2017,14.0,20.5,10.0,5.6
26/04/2017,9.5,12.4,6.1,0.0
27/04/2017,8.7,13.7,4.5,0.0
28/04/2017,9.8,17.9,2.2,0.0
29/04/2017,10.1,14.9,1.8,0.0
30/04/2017,10.8,17.0,4.2,0.8
01/05/2017,10.2,18.6,0.7,0.0
02/05/2017,14.1,21.1,7.7,0.0
03/05/2017,15.2,24.3,7.9,0.3
04/05/2017,16.9,24.4,9.0,0.0
05/05/2017,16.4,23.5,12.5,1.2
06/05/2017,16.0,23.4,8.9,0.0
07/05/2017,16.3,24.4,7.4,0.0
08/05/2017,17.5,25.3,9.8,0.0
09/05/2017,16.5,23.1,9.0,0.1
10/05/2017,17.6,24.2,11.8,0.8
11/05/2017,15.5,23.6,11.3,10.6
12/05/2017,15.7,20.8,12.2,2.7
13/05/2017,17.0,22.2,11.3,0.0
14/05/2017,18.4,26.2,9.7,0.0
15/05/2017,19.5,27.8,10.7,0.0
16/05/2017,21.6,29.2,13.4,0.0
17/05/2017,19.9,25.6,14.7,0.1
18/05/2017,12.1,16.5,8.1,10.8
19/05/2017,13.0,18.9,6.9,0.0
20/05/2017,15.0,23.0,6.3,0.0
21/05/2017,17.2,23.4,9.2,0.0
22/05/2017,21.3,30.5,13.4,0.0
23/05/2017,21.3,30.7,13.2,0.0
24/05/2017,21.8,29.0,11.9,0.0
25/05/2017,24.1,32.7,14.8,0.0
26/05/2017,23.6,31.5,15.2,0.1
27/05/2017,23.5,30.4,15.7,0.0
28/05/2017,22.3,28.9,16.7,0.0
29/05/2017,17.3,22.9,14.6,19.2
30/05/2017,19.9,26.7,14.6,0.0
31/05/2017,21.2,29.1,14.5,0.0
01/06/2017,21.9,30.8,14.7,0.0
02/06/2017,20.0,28.8,16.6,5.5
03/06/2017,17.6,24.0,13.1,5.0
04/06/2017,13.2,15.9,11.9,16.8
05/06/2017,17.9,25.2,12.0,0.0
06/06/2017,16.7,20.7,12.6,0.0
07/06/2017,19.1,28.0,10.6,0.0
08/06/2017,20.8,30.1,14.3,39.6
09/06/2017,22.3,31.3,15.2,0.0
10/06/2017,24.5,33.0,16.6,0.0
11/06/2017,25.6,36.5,18.2,0.0
12/06/2017,25.0,33.4,17.7,0.0
13/06/2017,26.7,35.8,17.7,0.0
14/06/2017,28.3,38.6,17.9,0.0
15/06/2017,24.5,32.4,19.4,0.0
16/06/2017,24.4,34.1,17.3,0.0
17/06/2017,26.5,36.2,17.5,0.0
18/06/2017,27.7,37.4,17.1,0.0
19/06/2017,27.6,36.7,20.1,2.5
20/06/2017,26.0,35.2,19.4,0.0
21/06/2017,28.1,37.3,18.4,0.0
22/06/2017,28.7,37.9,19.8,0.0
23/06/2017,25.0,34.8,19.3,0.0
24/06/2017,23.0,30.2,17.6,0.0
25/06/2017,22.6,30.4,17.7,9.4
26/06/2017,21.8,28.0,17.2,7.6
27/06/2017,21.7,31.3,16.8,0.0
28/06/2017,19.8,27.4,15.1,4.2
29/06/2017,17.5,23.0,11.6,4.4
30/06/2017,15.2,21.3,10.0,0.1
01/07/2017,15.6,19.5,12.4,0.0
02/07/2017,18.3,25.6,11.4,0.0
03/07/2017,22.4,30.6,14.3,0.0
04/07/2017,25.4,34.3,14.5,0.0
05/07/2017,25.9,33.4,16.7,0.0
06/07/2017,24.7,29.6,19.8,0.0
07/07/2017,24.3,33.0,17.1,0.3
08/07/2017,22.1,31.2,18.1,0.4
09/07/2017,24.0,32.0,16.5,2.3
10/07/2017,21.1,26.5,16.8,1.8
11/07/2017,23.7,32.7,15.5,0.0
12/07/2017,25.4,32.9,18.1,0.0
13/07/2017,23.6,32.2,17.3,0.0
14/07/2017,21.7,28.3,17.0,0.0
15/07/2017,22.8,31.4,16.0,0.0
16/07/2017,25.6,35.1,16.0,0.6
17/07/2017,27.6,35.3,20.9,0.1
18/07/2017,27.1,35.1,20.1,0.8
19/07/2017,25.9,34.5,19.8,0.0
20/07/2017,22.0,28.8,17.5,0.0
21/07/2017,22.3,30.1,16.1,0.0
22/07/2017,22.8,32.5,16.2,0.0
23/07/2017,22.2,30.3,16.1,0.0
24/07/2017,21.5,27.5,16.2,0.0
25/07/2017,19.7,24.5,16.0,0.0
26/07/2017,22.2,30.5,15.0,0.0
27/07/2017,25.1,34.7,15.3,0.0
28/07/2017,26.3,35.1,18.6,0.0
29/07/2017,27.3,36.7,17.1,0.0
30/07/2017,26.3,36.1,19.5,0.0
31/07/2017,23.7,34.4,17.4,0.0
01/08/2017,23.5,31.1,18.0,0.0
02/08/2017,26.6,36.5,17.9,0.0
03/08/2017,28.4,37.4,20.5,0.0
04/08/2017,27.7,35.9,20.0,0.0
05/08/2017,24.0,30.8,16.4,4.7
06/08/2017,21.5,27.9,15.9,0.0
07/08/2017,24.1,34.9,16.7,0.0
08/08/2017,19.8,25.1,15.1,0.0
09/08/2017,17.1,22.1,12.1,0.0
10/08/2017,17.1,22.4,12.4,0.0
11/08/2017,18.2,24.6,12.0,0.0
12/08/2017,20.8,30.9,11.8,0.0
13/08/2017,23.3,33.0,14.4,0.0
14/08/2017,24.6,33.4,19.0,2.1
15/08/2017,24.0,33.5,18.2,0.0
16/08/2017,23.4,31.7,17.9,0.0
17/08/2017,25.2,35.5,15.2,0.0
18/08/2017,23.2,29.8,18.2,0.0
19/08/2017,21.8,28.7,16.7,0.0
20/08/2017,21.5,30.2,14.0,0.0
21/08/2017,23.7,33.5,12.9,0.0
22/08/2017,26.6,36.7,19.1,0.1
23/08/2017,24.1,32.2,16.6,25.4
24/08/2017,24.3,32.1,17.6,0.0
25/08/2017,25.3,33.3,17.6,0.0
26/08/2017,26.0,34.5,20.0,0.0
27/08/2017,21.3,28.7,18.1,10.6
28/08/2017,20.1,27.3,17.3,13.2
29/08/2017,18.9,25.7,15.6,3.8
30/08/2017,20.2,26.2,16.1,2.4
31/08/2017,18.1,23.1,14.6,1.7
01/09/2017,17.2,23.3,12.1,0.0
02/09/2017,17.4,23.3,12.0,0.0
03/09/2017,19.2,26.5,13.0,0.0
04/09/2017,21.8,28.4,16.2,0.1
05/09/2017,21.9,31.4,14.6,0.0
06/09/2017,19.9,25.4,14.8,0.0
07/09/2017,17.5,23.8,12.8,0.0
08/09/2017,17.9,26.8,10.4,0.0
09/09/2017,16.3,20.7,12.3,1.2
10/09/2017,16.7,22.5,11.6,0.0
11/09/2017,18.3,25.0,12.2,0.0
12/09/2017,18.2,24.4,13.8,0.0
13/09/2017,20.3,30.2,12.0,0.0
14/09/2017,16.8,21.2,12.7,0.0
15/09/2017,14.6,20.2,9.6,0.0
16/09/2017,12.9,19.8,6.6,0.0
17/09/2017,13.9,22.1,6.3,0.0
18/09/2017,15.7,21.7,11.5,4.4
19/09/2017,15.6,21.3,10.3,0.0
20/09/2017,15.9,26.7,8.0,0.0
21/09/2017,16.9,26.8,7.4,0.0
22/09/2017,16.2,19.4,13.1,5.6
23/09/2017,17.7,25.3,12.5,0.0
24/09/2017,19.2,29.3,12.0,0.0
25/09/2017,18.8,23.2,14.6,0.0
26/09/2017,17.9,24.6,12.7,0.0
27/09/2017,17.5,25.7,10.0,0.0
28/09/2017,19.1,26.0,13.7,0.0
29/09/2017,19.6,27.5,13.6,0.0
30/09/2017,17.9,22.5,14.8,0.0
01/10/2017,17.8,22.4,13.8,0.0
02/10/2017,20.3,27.1,15.5,0.0
03/10/2017,19.9,27.1,13.8,0.0
04/10/2017,18.7,25.7,12.2,0.0
05/10/2017,19.0,27.8,11.9,0.0
06/10/2017,17.2,23.0,12.8,0.0
07/10/2017,15.0,23.5,9.6,0.0
08/10/2017,16.0,27.0,6.9,0.0
09/10/2017,17.3,26.8,10.2,0.0
10/10/2017,15.7,26.7,8.4,0.0
11/10/2017,15.0,25.9,7.4,0.0
12/10/2017,15.8,24.2,8.9,0.0
13/10/2017,16.7,25.2,10.3,0.0
14/10/2017,17.7,22.9,12.7,0.0
15/10/2017,18.6,22.8,15.1,0.0
16/10/2017,18.1,23.7,14.6,0.0
17/10/2017,17.3,21.5,12.0,0.0
18/10/2017,15.3,19.6,11.4,18.9
19/10/2017,13.6,19.8,10.0,0.1
20/10/2017,14.8,21.3,9.2,0.0
21/10/2017,13.6,18.3,10.2,0.0
22/10/2017,12.3,17.0,8.0,0.0
23/10/2017,13.2,22.3,5.9,0.0
24/10/2017,14.7,24.6,6.9,0.0
25/10/2017,14.1,24.7,6.1,0.0
26/10/2017,15.3,26.4,7.4,0.0
27/10/2017,16.6,21.9,11.5,0.0
28/10/2017,15.3,18.6,11.6,0.0
29/10/2017,13.9,18.8,9.9,0.0
30/10/2017,13.8,18.6,8.6,0.0
31/10/2017,10.2,16.1,4.3,0.0
01/11/2017,12.7,18.6,7.6,0.0
02/11/2017,13.9,18.1,11.2,0.0
03/11/2017,14.5,19.2,11.4,0.0
04/11/2017,13.5,18.5,10.4,2.2
05/11/2017,11.7,14.3,9.1,0.1
06/11/2017,8.6,11.7,6.3,0.4
07/11/2017,9.1,15.2,4.5,0.0
08/11/2017,8.3,11.6,4.4,0.4
09/11/2017,8.1,12.6,4.3,0.5
10/11/2017,10.8,14.7,5.5,0.0
11/11/2017,12.8,17.0,8.5,0.0
12/11/2017,13.0,17.6,7.3,0.0
13/11/2017,8.5,13.0,5.4,0.3
14/11/2017,8.1,12.8,5.0,0.0
15/11/2017,6.2,15.5,-0.5,0.0
16/11/2017,6.3,16.2,-1.5,0.0
17/11/2017,10.1,19.9,1.1,0.0
18/11/2017,10.3,16.7,5.8,0.0
19/11/2017,8.7,17.9,2.0,0.0
20/11/2017,6.5,16.0,-0.1,0.0
21/11/2017,5.0,15.6,-1.3,0.0
22/11/2017,5.4,12.6,-2.5,0.0
23/11/2017,10.7,14.5,6.8,0.0
24/11/2017,11.9,16.1,9.5,0.1
25/11/2017,10.0,15.2,4.5,0.9
26/11/2017,6.3,11.5,2.5,0.0
27/11/2017,3.5,10.0,-0.8,0.0
28/11/2017,3.0,11.8,-2.9,0.0
29/11/2017,6.1,10.6,2.5,0.0
30/11/2017,4.8,9.7,1.2,0.1
01/12/2017,3.9,6.8,0.9,2.1
02/12/2017,2.4,5.5,0.5,3.0
03/12/2017,4.0,7.4,1.1,0.0
04/12/2017,6.6,11.6,2.3,0.0
05/12/2017,3.2,10.8,-1.2,0.0
06/12/2017,-0.2,7.5,-3.8,0.0
07/12/2017,1.2,7.0,-3.3,0.0
08/12/2017,6.2,12.3,0.4,0.0
09/12/2017,7.3,11.2,4.1,0.3
10/12/2017,9.4,15.1,3.3,0.0
11/12/2017,9.7,15.9,5.4,0.4
12/12/2017,5.1,10.4,0.4,0.0
13/12/2017,1.8,6.1,-3.2,0.0
14/12/2017,6.5,10.2,1.8,3.1
15/12/2017,7.1,11.0,4.3,0.3
16/12/2017,5.8,9.4,2.5,0.0
17/12/2017,6.1,10.2,2.9,0.0
18/12/2017,7.9,12.0,2.5,0.0
19/12/2017,7.0,10.4,3.6,0.0
20/12/2017,7.3,12.8,3.5,0.0
21/12/2017,9.9,15.1,6.1,0.0
22/12/2017,8.7,11.8,6.4,0.0
23/12/2017,8.4,13.4,2.0,0.0
24/12/2017,2.2,5.1,-1.0,0.0
25/12/2017,1.0,2.7,-0.1,0.1
26/12/2017,5.4,9.2,1.0,0.2
27/12/2017,6.2,11.0,1.0,2.8
28/12/2017,7.4,12.5,4.4,0.3
29/12/2017,8.8,15.2,5.3,1.2
30/12/2017,8.8,17.7,2.7,0.0
31/12/2017,9.6,16.7,4.0,1.6
