Fecha, Temperatura media, Temperatura maxima, Temperatura minima, Precipitacion acumulada
01/01/2013,-,9.0,-1.0,27.0
02/01/2013,-,9.0,7.0,0.5
03/01/2013,-,12.0,1.0,0.0
04/01/2013,-,15.0,-2.0,0.3
05/01/2013,-,6.0,-2.0,0.0
06/01/2013,-,7.0,4.0,0.0
07/01/2013,-,6.0,3.0,0.0
08/01/2013,-,8.0,2.0,0.0
09/01/2013,-,7.0,-1.0,3.0
10/01/2013,-,13.0,0.0,3.0
11/01/2013,-,12.0,4.0,0.0
12/01/2013,-,11.0,-1.0,13.0
13/01/2013,-,6.0,0.0,23.0
14/01/2013,-,8.0,1.0,63.0
15/01/2013,-,7.0,2.0,74.0
16/01/2013,-,11.0,6.0,39.0
17/01/2013,-,7.0,3.0,16.5
18/01/2013,-,15.0,3.0,19.0
19/01/2013,-,14.0,4.0,44.5
20/01/2013,-,7.0,6.0,10.0
21/01/2013,-,7.0,5.0,5.0
22/01/2013,-,8.0,-1.0,8.0
23/01/2013,-,8.0,0.0,76.0
24/01/2013,-,7.0,0.0,19.0
25/01/2013,-,11.0,-1.0,22.5
26/01/2013,-,12.0,-1.0,10.0
27/01/2013,-,12.0,2.0,21.0
28/01/2013,-,14.0,4.0,0.5
29/01/2013,-,16.0,0.0,0.0
30/01/2013,-,19.0,0.0,0.0
31/01/2013,-,19.0,7.0,0.0
01/02/2013,-,16.0,6.0,39.0
02/02/2013,-,7.0,4.0,16.0
03/02/2013,-,7.0,-1.0,5.0
04/02/2013,-,11.0,4.0,16.5
05/02/2013,-,12.0,6.0,24.0
06/02/2013,-,7.0,4.0,51.0
07/02/2013,-,6.0,2.0,26.0
08/02/2013,-,5.0,2.0,27.5
09/02/2013,-,6.0,1.0,15.5
10/02/2013,-,11.0,2.0,10.0
11/02/2013,-,7.0,4.0,21.5
12/02/2013,-,7.0,2.0,33.0
13/02/2013,-,9.0,2.0,24.7
14/02/2013,-,11.0,5.0,4.0
15/02/2013,-,12.0,7.0,0.0
16/02/2013,-,13.0,0.0,0.0
17/02/2013,-,14.0,-2.0,1.0
18/02/2013,-,13.0,-2.0,0.0
19/02/2013,-,16.0,2.0,0.0
20/02/2013,-,18.0,-1.0,0.0
21/02/2013,-,15.0,0.0,2.3
22/02/2013,-,9.0,5.0,0.0
23/02/2013,-,0.0,-3.0,2.0
24/02/2013,-,2.0,-2.0,8.0
25/02/2013,-,2.0,-1.0,11.5
26/02/2013,-,4.0,-1.0,1.0
27/02/2013,-,11.0,-4.0,0.0
28/02/2013,-,11.0,-3.0,1.0
01/03/2013,-,12.0,0.0,0.0
02/03/2013,-,11.0,-2.0,0.0
03/03/2013,-,18.0,-2.0,0.0
04/03/2013,-,18.0,-2.0,0.0
05/03/2013,-,17.0,14.0,0.0
06/03/2013,-,21.0,8.0,0.0
07/03/2013,-,20.0,9.0,14.0
08/03/2013,-,19.0,7.0,4.5
09/03/2013,-,17.0,3.0,0.0
10/03/2013,-,16.0,9.0,0.0
11/03/2013,-,16.0,7.0,20.0
12/03/2013,-,12.0,6.0,18.0
13/03/2013,-,2.0,1.0,13.0
14/03/2013,-,4.0,0.0,6.0
15/03/2013,-,11.0,-2.0,0.0
16/03/2013,-,11.0,-1.0,0.5
17/03/2013,-,11.0,8.0,3.0
18/03/2013,-,12.0,3.0,1.0
19/03/2013,-,15.0,3.0,5.0
20/03/2013,-,14.0,4.0,0.0
21/03/2013,-,21.0,-1.0,0.0
22/03/2013,-,21.0,2.0,1.5
23/03/2013,-,19.0,5.0,0.0
24/03/2013,-,19.0,2.0,1.5
25/03/2013,-,14.0,6.0,14.5
26/03/2013,-,15.0,9.0,2.8
27/03/2013,-,16.0,10.0,20.0
28/03/2013,-,16.0,8.0,3.5
29/03/2013,-,19.0,9.0,30.0
30/03/2013,-,14.0,11.0,3.0
31/03/2013,-,19.0,4.0,11.0
01/04/2013,-,14.0,4.0,7.5
02/04/2013,-,14.0,8.0,4.5
03/04/2013,-,19.0,4.0,4.0
04/04/2013,-,11.0,6.0,4.0
05/04/2013,-,7.0,4.0,35.0
06/04/2013,-,7.0,0.0,2.5
07/04/2013,-,14.0,0.0,5.0
08/04/2013,-,14.0,6.0,0.5
09/04/2013,-,14.0,6.0,0.5
10/04/2013,-,22.0,3.0,0.0
11/04/2013,-,20.0,9.0,7.0
12/04/2013,-,18.0,4.0,0.5
13/04/2013,-,24.0,6.0,0.0
14/04/2013,-,27.0,9.0,0.0
15/04/2013,-,27.0,8.0,0.0
16/04/2013,-,24.0,8.0,0.0
17/04/2013,-,30.0,8.0,0.0
18/04/2013,-,15.0,8.0,3.0
19/04/2013,-,14.0,7.0,0.0
20/04/2013,-,15.0,3.0,0.0
21/04/2013,-,15.0,3.0,0.0
22/04/2013,-,13.0,4.0,0.0
23/04/2013,-,18.0,6.0,0.0
24/04/2013,-,24.0,3.0,0.0
25/04/2013,-,26.0,5.0,0.0
26/04/2013,-,13.0,10.0,15.0
27/04/2013,-,11.0,6.0,7.5
28/04/2013,-,11.0,2.0,1.0
29/04/2013,-,13.0,2.0,14.5
30/04/2013,-,17.0,6.0,7.5
01/05/2013,-,18.0,8.0,7.0
02/05/2013,-,12.0,9.0,8.5
03/05/2013,-,12.0,9.0,2.5
04/05/2013,-,19.0,9.0,0.0
05/05/2013,-,22.0,6.0,0.0
06/05/2013,-,27.0,7.0,2.0
07/05/2013,-,22.0,11.0,0.5
08/05/2013,-,19.0,14.0,1.0
09/05/2013,-,15.0,12.0,15.0
10/05/2013,-,16.0,10.0,0.0
11/05/2013,-,15.0,6.0,0.5
12/05/2013,-,13.0,8.0,0.0
13/05/2013,-,19.0,7.0,0.0
14/05/2013,-,23.0,9.0,14.0
15/05/2013,-,11.0,9.0,9.0
16/05/2013,-,14.0,7.0,0.5
17/05/2013,-,15.0,5.0,45.5
18/05/2013,-,9.0,5.0,36.0
19/05/2013,-,13.0,5.0,1.0
20/05/2013,-,15.0,7.0,0.5
21/05/2013,-,11.0,4.0,8.0
22/05/2013,-,12.0,5.0,10.0
23/05/2013,-,12.0,10.0,7.0
24/05/2013,-,13.0,7.0,7.0
25/05/2013,-,14.0,7.0,2.5
26/05/2013,-,20.0,3.0,0.0
27/05/2013,-,18.0,3.0,20.0
28/05/2013,-,13.0,9.0,15.0
29/05/2013,-,12.0,7.0,23.5
30/05/2013,-,12.0,7.0,20.0
31/05/2013,-,12.0,10.0,41.5
01/06/2013,-,12.0,11.0,3.0
02/06/2013,-,12.0,11.0,1.0
03/06/2013,-,18.0,11.0,0.0
04/06/2013,-,23.0,7.0,0.0
05/06/2013,-,28.0,7.0,0.0
06/06/2013,-,29.0,8.0,0.0
07/06/2013,-,25.0,14.0,8.5
08/06/2013,-,14.0,12.0,96.0
09/06/2013,-,17.0,12.0,11.5
10/06/2013,-,22.0,12.0,0.0
11/06/2013,-,26.0,13.0,0.0
12/06/2013,-,31.0,14.0,0.5
13/06/2013,-,18.0,14.0,1.5
14/06/2013,-,29.0,14.0,0.0
15/06/2013,-,23.0,11.0,0.0
16/06/2013,-,35.0,14.0,0.0
17/06/2013,-,23.0,15.0,7.0
18/06/2013,-,15.0,14.0,32.0
19/06/2013,-,18.0,12.0,6.0
20/06/2013,-,16.0,12.0,6.0
21/06/2013,-,19.0,12.0,3.5
22/06/2013,-,24.0,12.0,1.5
23/06/2013,-,18.0,13.0,0.5
24/06/2013,-,18.0,11.0,0.0
25/06/2013,-,20.0,11.0,0.0
26/06/2013,-,23.0,11.0,0.0
27/06/2013,-,22.0,10.0,0.0
28/06/2013,-,21.0,10.0,0.0
29/06/2013,-,19.0,11.0,0.0
30/06/2013,-,23.0,12.0,0.0
01/07/2013,-,24.0,13.0,0.0
02/07/2013,-,28.0,14.0,0.0
03/07/2013,-,22.0,16.0,1.5
04/07/2013,-,24.0,17.0,0.0
05/07/2013,-,29.0,14.0,0.0
06/07/2013,-,30.0,15.0,0.0
07/07/2013,-,30.0,12.0,0.0
08/07/2013,-,31.0,14.0,0.0
09/07/2013,-,33.0,17.0,0.0
10/07/2013,-,31.0,16.0,0.0
11/07/2013,-,30.0,17.0,0.0
12/07/2013,-,33.0,18.0,9.5
13/07/2013,-,30.0,18.0,0.0
14/07/2013,-,29.0,15.0,0.0
15/07/2013,-,29.0,16.0,0.0
16/07/2013,-,29.0,17.0,0.0
17/07/2013,-,27.0,17.0,0.0
18/07/2013,-,28.0,16.0,0.0
19/07/2013,-,32.0,16.0,0.0
20/07/2013,-,35.0,17.0,0.0
21/07/2013,-,34.0,17.0,1.0
22/07/2013,-,35.0,16.0,5.5
23/07/2013,-,30.0,18.0,1.5
24/07/2013,-,33.0,20.0,0.0
25/07/2013,-,32.0,21.0,0.0
26/07/2013,-,34.0,22.0,2.0
27/07/2013,-,32.0,20.0,3.0
28/07/2013,-,30.0,18.0,0.5
29/07/2013,-,27.0,14.0,0.0
30/07/2013,-,31.0,13.0,0.0
31/07/2013,-,37.0,14.0,0.0
01/08/2013,-,38.0,16.0,0.0
02/08/2013,-,37.0,19.0,1.5
03/08/2013,-,27.0,17.0,0.0
04/08/2013,-,29.0,18.0,0.0
05/08/2013,-,23.0,17.0,0.5
06/08/2013,-,21.0,18.0,1.0
07/08/2013,-,22.0,17.0,4.5
08/08/2013,-,21.0,14.0,7.5
09/08/2013,-,24.0,14.0,0.0
10/08/2013,-,25.0,13.0,0.0
11/08/2013,-,29.0,13.0,0.0
12/08/2013,-,29.0,15.0,0.0
13/08/2013,-,25.0,17.0,0.0
14/08/2013,-,26.0,13.0,0.0
15/08/2013,-,31.0,10.0,0.0
16/08/2013,-,27.0,12.0,0.0
17/08/2013,-,28.0,14.0,0.0
18/08/2013,-,30.0,14.0,0.0
19/08/2013,-,20.0,16.0,1.0
20/08/2013,-,27.0,13.0,0.0
21/08/2013,-,34.0,11.0,0.0
22/08/2013,-,30.0,12.0,0.0
23/08/2013,-,21.0,14.0,1.0
24/08/2013,-,22.0,16.0,0.5
25/08/2013,-,23.0,13.0,1.5
26/08/2013,-,21.0,13.0,1.5
27/08/2013,-,24.0,14.0,0.0
28/08/2013,-,20.0,13.0,0.0
29/08/2013,-,24.0,11.0,0.0
30/08/2013,-,24.0,12.0,0.0
31/08/2013,-,24.0,10.0,0.0
01/09/2013,-,24.0,12.0,0.0
02/09/2013,-,26.0,12.0,0.0
03/09/2013,-,29.0,8.0,0.0
04/09/2013,-,35.0,9.0,0.0
05/09/2013,-,34.0,12.0,0.0
06/09/2013,-,21.0,16.0,3.5
07/09/2013,-,18.0,14.0,6.0
08/09/2013,-,17.0,13.0,0.5
09/09/2013,-,26.0,10.0,1.5
10/09/2013,-,19.0,12.0,4.0
11/09/2013,-,20.0,11.0,1.0
12/09/2013,-,20.0,10.0,0.5
13/09/2013,-,23.0,11.0,0.5
14/09/2013,-,27.0,14.0,2.0
15/09/2013,-,19.0,13.0,0.0
16/09/2013,-,22.0,8.0,4.5
17/09/2013,-,17.0,12.0,5.0
18/09/2013,-,20.0,13.0,7.5
19/09/2013,-,19.0,13.0,2.5
20/09/2013,-,23.0,14.0,1.0
21/09/2013,-,24.0,11.0,0.0
22/09/2013,-,30.0,10.0,0.0
23/09/2013,-,30.0,10.0,0.0
24/09/2013,-,32.0,11.0,0.0
25/09/2013,-,31.0,12.0,0.0
26/09/2013,-,33.0,13.0,0.0
27/09/2013,-,32.0,13.0,0.0
28/09/2013,-,26.0,15.0,0.5
29/09/2013,-,23.0,15.0,2.0
30/09/2013,-,21.0,13.0,0.0
01/10/2013,-,22.0,13.0,0.5
02/10/2013,-,30.0,14.0,1.5
03/10/2013,-,30.0,17.0,27.0
04/10/2013,-,21.0,15.0,4.5
05/10/2013,-,18.0,12.0,5.0
06/10/2013,-,20.0,13.0,0.5
07/10/2013,-,20.0,9.0,0.0
08/10/2013,-,19.0,10.0,0.0
09/10/2013,-,18.0,11.0,0.0
10/10/2013,-,14.0,7.0,3.5
11/10/2013,-,14.0,3.0,0.5
12/10/2013,-,20.0,4.0,0.0
13/10/2013,-,21.0,3.0,0.0
14/10/2013,-,23.0,8.0,0.0
15/10/2013,-,20.0,11.0,1.5
16/10/2013,-,21.0,14.0,2.0
17/10/2013,-,20.0,13.0,0.0
18/10/2013,-,29.0,12.0,0.0
19/10/2013,-,25.0,15.0,0.0
20/10/2013,-,25.0,11.0,0.0
21/10/2013,-,22.0,10.0,0.0
22/10/2013,-,22.0,12.0,3.0
23/10/2013,-,24.0,9.0,0.0
24/10/2013,-,24.0,8.0,0.5
25/10/2013,-,27.0,16.0,5.0
26/10/2013,-,23.0,14.0,0.0
27/10/2013,-,23.0,9.0,0.0
28/10/2013,-,21.0,14.0,3.5
29/10/2013,-,11.0,7.0,16.0
30/10/2013,-,15.0,7.0,0.0
31/10/2013,-,16.0,2.0,0.0
01/11/2013,-,17.0,2.0,1.0
02/11/2013,-,23.0,5.0,16.0
03/11/2013,-,15.0,11.0,7.0
04/11/2013,-,16.0,9.0,82.0
05/11/2013,-,16.0,11.0,17.5
06/11/2013,-,23.0,14.0,0.5
07/11/2013,-,22.0,10.0,0.0
08/11/2013,-,16.0,8.0,4.0
09/11/2013,-,14.0,5.0,17.0
10/11/2013,-,14.0,7.0,30.0
11/11/2013,-,12.0,11.0,14.0
12/11/2013,-,14.0,11.0,14.5
13/11/2013,-,14.0,11.0,1.0
14/11/2013,-,12.0,8.0,19.0
15/11/2013,-,9.0,4.0,3.5
16/11/2013,-,8.0,2.0,0.5
17/11/2013,-,8.0,3.0,7.0
18/11/2013,-,8.0,6.0,26.5
19/11/2013,-,8.0,6.0,28.5
20/11/2013,-,7.0,1.0,27.0
21/11/2013,-,8.0,3.0,28.5
22/11/2013,-,7.0,3.0,4.5
23/11/2013,-,5.0,2.0,0.5
24/11/2013,-,5.0,3.0,0.0
25/11/2013,-,6.0,4.0,0.0
26/11/2013,-,7.0,0.0,0.0
27/11/2013,-,6.0,-5.0,0.0
28/11/2013,-,10.0,-7.0,0.0
29/11/2013,-,5.0,-5.0,4.5
30/11/2013,-,7.0,3.0,8.5
01/12/2013,-,5.0,-1.0,0.0
02/12/2013,-,6.0,2.0,0.0
03/12/2013,-,14.0,-5.0,0.0
04/12/2013,-,15.0,-4.0,0.0
05/12/2013,-,8.0,6.0,0.0
06/12/2013,-,11.0,1.0,0.0
07/12/2013,-,14.0,-3.0,0.0
08/12/2013,-,14.0,-3.0,0.0
09/12/2013,-,12.0,-5.0,0.0
10/12/2013,-,15.0,-6.0,0.0
11/12/2013,-,16.0,-2.0,0.0
12/12/2013,-,13.0,-3.0,0.0
13/12/2013,-,8.0,-6.0,13.5
14/12/2013,-,15.0,2.0,0.0
15/12/2013,-,18.0,-3.0,0.0
16/12/2013,-,19.0,6.0,0.0
17/12/2013,-,13.0,6.0,0.0
18/12/2013,-,15.0,2.0,3.5
19/12/2013,-,10.0,8.0,31.0
20/12/2013,-,10.0,4.0,1.0
21/12/2013,-,11.0,-2.0,0.0
22/12/2013,-,14.0,-2.0,0.0
23/12/2013,-,15.0,-2.0,0.5
24/12/2013,-,14.0,12.0,4.5
25/12/2013,-,14.0,9.0,14.0
26/12/2013,-,7.0,3.0,8.0
27/12/2013,-,18.0,2.0,4.0
