Fecha, Temperatura media, Temperatura maxima, Temperatura minima, Precipitacion acumulada
01/01/2009,10.9,16.2,7.7,0.0
02/01/2009,9.2,15.0,5.6,0.0
03/01/2009,7.2,12.7,5.2,0.0
04/01/2009,4.6,9.0,2.0,0.0
05/01/2009,4.2,5.6,2.0,0.2
06/01/2009,2.0,3.2,0.3,9.1
07/01/2009,-1.0,0.2,-2.0,0.0
08/01/2009,-1.7,-0.1,-4.4,1.1
09/01/2009,-1.1,6.6,-5.4,0.2
10/01/2009,0.4,7.2,-3.2,0.1
11/01/2009,0.9,10.7,-2.9,0.0
12/01/2009,3.1,10.4,-3.6,0.1
13/01/2009,5.1,6.4,4.1,21.5
14/01/2009,5.4,14.5,-0.6,5.5
15/01/2009,4.6,11.0,-0.6,0.1
16/01/2009,4.3,13.3,-1.9,0.0
17/01/2009,8.2,15.9,0.4,0.0
18/01/2009,9.7,13.1,7.2,0.8
19/01/2009,10.7,14.2,3.8,23.9
20/01/2009,4.0,9.6,0.6,0.2
21/01/2009,3.7,6.6,2.3,11.5
22/01/2009,7.4,10.3,1.9,8.2
23/01/2009,11.6,18.0,8.3,34.2
24/01/2009,9.3,18.1,2.7,33.5
25/01/2009,6.4,9.9,2.4,6.2
26/01/2009,5.6,9.0,3.0,33.0
27/01/2009,6.3,8.2,5.7,55.3
28/01/2009,7.4,10.0,5.2,5.3
29/01/2009,8.5,14.3,6.1,1.8
30/01/2009,11.6,17.9,4.7,0.0
31/01/2009,11.6,15.1,7.3,3.8
01/02/2009,8.5,12.0,5.9,3.1
02/02/2009,7.8,11.1,4.3,3.4
03/02/2009,6.6,10.7,2.4,0.3
04/02/2009,11.0,14.4,7.8,3.5
05/02/2009,10.3,12.6,8.2,0.0
06/02/2009,5.5,9.1,2.9,18.5
07/02/2009,2.4,5.1,0.5,35.3
08/02/2009,4.4,6.0,1.6,14.5
09/02/2009,11.1,16.1,5.7,2.4
10/02/2009,8.2,14.2,4.5,18.8
11/02/2009,8.5,10.9,4.6,90.5
12/02/2009,7.9,10.0,6.1,12.7
13/02/2009,4.0,10.4,-1.1,0.0
14/02/2009,4.3,10.8,-1.3,0.0
15/02/2009,2.8,10.7,-1.6,0.0
16/02/2009,1.7,10.1,-2.7,0.0
17/02/2009,3.1,10.8,-4.2,0.0
18/02/2009,7.4,10.3,4.9,0.0
19/02/2009,8.7,13.1,5.6,0.0
20/02/2009,6.7,14.7,1.3,0.0
21/02/2009,5.0,12.1,-0.4,0.0
22/02/2009,7.8,11.8,3.7,0.0
23/02/2009,8.2,10.3,6.3,0.0
24/02/2009,8.3,9.6,3.2,0.0
25/02/2009,6.4,17.5,-0.3,0.0
26/02/2009,8.9,19.1,2.6,0.0
27/02/2009,7.2,19.1,1.1,0.0
28/02/2009,10.6,18.3,1.4,0.0
01/03/2009,10.0,12.8,7.8,0.6
02/03/2009,8.2,10.8,4.8,11.9
03/03/2009,6.1,12.0,2.7,0.0
04/03/2009,6.4,10.2,3.2,16.3
05/03/2009,5.1,8.1,2.7,28.2
06/03/2009,7.2,9.2,5.4,3.5
07/03/2009,9.4,12.3,5.3,6.3
08/03/2009,9.7,13.4,8.2,5.0
09/03/2009,7.7,12.6,2.0,2.1
10/03/2009,7.3,16.1,0.4,0.0
11/03/2009,10.2,14.6,7.8,0.0
12/03/2009,11.8,23.2,3.9,0.0
13/03/2009,13.6,26.2,5.5,0.0
14/03/2009,9.7,17.9,2.2,0.0
15/03/2009,11.1,15.2,4.7,0.0
16/03/2009,9.6,19.6,3.3,0.0
17/03/2009,12.7,22.6,4.1,0.0
18/03/2009,13.2,25.6,4.7,0.0
19/03/2009,12.1,23.4,3.1,0.0
20/03/2009,9.7,19.8,1.3,0.0
21/03/2009,6.6,15.0,-0.4,0.0
22/03/2009,5.8,14.5,-1.7,0.0
23/03/2009,6.5,15.8,-1.8,0.0
24/03/2009,5.4,10.9,1.3,0.1
25/03/2009,6.7,13.8,0.1,0.0
26/03/2009,10.0,18.9,2.5,0.0
27/03/2009,9.4,17.0,3.4,0.0
28/03/2009,7.9,10.6,5.9,4.8
29/03/2009,8.6,11.6,6.0,0.3
30/03/2009,7.5,11.6,1.3,0.0
31/03/2009,9.3,12.5,5.2,0.0
01/04/2009,9.5,12.5,3.5,0.0
02/04/2009,8.0,13.1,1.8,0.0
03/04/2009,9.5,13.3,4.2,0.0
04/04/2009,9.6,17.1,3.5,0.7
05/04/2009,12.4,18.1,6.7,0.0
06/04/2009,13.0,22.1,4.8,18.9
07/04/2009,8.7,11.3,6.1,11.3
08/04/2009,8.9,14.7,4.9,0.1
09/04/2009,14.9,22.4,4.3,0.0
10/04/2009,10.0,16.9,4.8,32.8
11/04/2009,7.9,10.6,5.5,18.9
12/04/2009,8.4,12.5,4.5,5.4
13/04/2009,11.0,17.9,5.2,0.0
14/04/2009,10.3,19.2,4.4,3.1
15/04/2009,10.5,15.2,5.5,16.1
16/04/2009,9.6,16.8,4.5,1.9
17/04/2009,10.6,16.6,4.0,2.0
18/04/2009,8.7,18.3,2.2,11.0
19/04/2009,10.1,14.9,6.0,5.8
20/04/2009,10.6,13.5,8.8,4.5
21/04/2009,11.7,14.3,7.7,0.0
22/04/2009,11.7,17.8,5.9,0.0
23/04/2009,12.9,25.3,5.4,0.0
24/04/2009,12.2,23.6,3.5,3.8
25/04/2009,8.8,10.2,7.4,9.8
26/04/2009,8.7,12.2,7.0,21.9
27/04/2009,11.1,16.1,7.6,8.1
28/04/2009,10.8,13.9,7.9,3.5
29/04/2009,10.6,15.0,8.0,13.1
30/04/2009,11.4,16.8,7.3,5.2
01/05/2009,10.5,13.6,7.6,7.1
02/05/2009,12.4,16.3,8.7,0.0
03/05/2009,13.5,19.2,8.5,0.0
04/05/2009,12.1,14.4,8.5,0.2
05/05/2009,12.2,17.4,7.2,0.0
06/05/2009,15.9,27.1,7.0,0.0
07/05/2009,13.9,18.1,10.4,4.6
08/05/2009,13.1,14.8,12.0,0.6
09/05/2009,17.1,27.7,10.9,1.9
10/05/2009,17.3,24.7,13.9,8.3
11/05/2009,18.6,28.2,13.0,7.9
12/05/2009,17.7,25.4,11.7,0.0
13/05/2009,15.8,22.1,10.7,22.2
14/05/2009,12.7,14.9,9.9,6.8
15/05/2009,11.0,16.6,6.6,5.4
16/05/2009,14.8,26.6,6.3,0.0
17/05/2009,14.8,20.1,10.1,0.0
18/05/2009,13.6,16.7,10.1,0.0
19/05/2009,14.2,18.8,8.8,0.0
20/05/2009,17.5,29.1,9.9,6.1
21/05/2009,16.0,18.7,14.1,0.1
22/05/2009,18.1,24.1,14.1,0.0
23/05/2009,20.2,27.2,14.6,0.5
24/05/2009,15.9,17.9,12.6,9.1
25/05/2009,15.4,20.4,12.3,4.6
26/05/2009,13.2,16.3,11.4,4.1
27/05/2009,13.1,17.2,8.3,0.1
28/05/2009,15.8,24.5,7.5,0.0
29/05/2009,20.0,30.5,10.8,0.0
30/05/2009,19.1,27.5,12.3,0.0
31/05/2009,17.7,24.4,11.9,0.0
01/06/2009,16.6,24.1,9.3,0.0
02/06/2009,16.9,24.4,9.4,0.0
03/06/2009,18.7,27.4,10.9,0.0
04/06/2009,17.2,22.8,10.9,4.4
05/06/2009,15.9,17.6,12.0,0.6
06/06/2009,15.2,21.1,11.8,9.6
07/06/2009,15.7,20.1,12.3,1.3
08/06/2009,15.9,24.3,10.2,9.0
09/06/2009,15.6,21.0,8.3,0.1
10/06/2009,21.1,28.2,13.2,0.0
11/06/2009,18.5,24.3,14.0,0.0
12/06/2009,21.2,27.6,14.6,0.0
13/06/2009,22.0,31.9,15.4,0.0
14/06/2009,22.0,28.6,17.6,3.0
15/06/2009,18.5,20.5,16.4,3.3
16/06/2009,17.2,19.5,15.4,0.6
17/06/2009,22.7,32.6,16.3,15.2
18/06/2009,19.9,23.9,17.2,0.1
19/06/2009,17.8,19.3,16.1,0.7
20/06/2009,16.6,21.0,11.5,0.0
21/06/2009,15.8,20.4,9.7,0.0
22/06/2009,17.4,24.6,10.2,0.0
23/06/2009,17.6,25.7,10.3,0.0
24/06/2009,17.7,25.5,8.4,0.0
25/06/2009,18.9,24.4,13.5,3.8
26/06/2009,18.7,23.6,13.6,0.9
27/06/2009,20.3,29.2,12.6,0.0
28/06/2009,21.8,32.1,13.1,0.0
29/06/2009,23.2,32.4,15.0,0.1
30/06/2009,24.8,30.9,18.6,0.0
01/07/2009,23.7,32.1,16.8,0.0
02/07/2009,20.4,22.3,18.2,0.0
03/07/2009,21.9,26.1,19.0,0.0
04/07/2009,20.0,21.7,18.4,0.9
05/07/2009,20.3,24.2,17.7,0.9
06/07/2009,17.9,21.3,15.1,1.9
07/07/2009,16.4,19.9,13.4,1.0
08/07/2009,16.5,21.4,13.2,0.3
09/07/2009,17.1,22.2,12.2,0.0
10/07/2009,17.6,23.9,10.8,0.0
11/07/2009,22.0,34.3,12.6,0.0
12/07/2009,21.2,29.2,13.7,0.0
13/07/2009,19.8,26.9,14.8,0.0
14/07/2009,20.0,24.9,16.1,0.0
15/07/2009,21.4,27.0,16.5,0.0
16/07/2009,22.9,35.6,14.6,1.3
17/07/2009,16.0,19.2,13.2,15.2
18/07/2009,17.6,23.1,13.1,1.7
19/07/2009,19.9,26.0,13.8,0.0
20/07/2009,23.7,34.7,13.5,0.0
21/07/2009,27.5,37.8,18.1,0.0
22/07/2009,22.8,35.5,15.2,0.0
23/07/2009,20.8,28.4,14.3,0.0
24/07/2009,19.5,25.1,13.1,0.0
25/07/2009,19.4,26.5,12.9,0.0
26/07/2009,22.5,33.4,12.9,0.0
27/07/2009,18.7,23.0,15.7,2.7
28/07/2009,21.8,29.2,16.5,0.1
29/07/2009,19.5,24.4,15.8,0.0
30/07/2009,18.5,23.6,11.7,0.7
31/07/2009,19.4,29.4,10.5,0.0
01/08/2009,19.8,30.8,14.8,4.2
02/08/2009,18.0,21.8,15.2,0.0
03/08/2009,19.6,25.7,14.6,0.2
04/08/2009,22.1,33.4,13.4,0.0
05/08/2009,22.6,30.4,16.8,2.8
06/08/2009,20.7,24.7,18.4,4.7
07/08/2009,18.1,19.7,16.9,2.3
08/08/2009,17.3,19.2,16.1,0.9
09/08/2009,17.8,21.7,15.6,4.7
10/08/2009,18.5,21.9,15.8,1.7
11/08/2009,20.4,23.3,17.5,0.0
12/08/2009,21.3,26.9,17.2,0.0
13/08/2009,21.4,26.7,17.4,0.0
14/08/2009,22.6,30.2,17.3,0.0
15/08/2009,26.1,38.4,17.7,0.0
16/08/2009,22.0,30.8,15.5,0.0
17/08/2009,21.8,26.0,19.5,0.0
18/08/2009,24.0,31.6,19.3,0.0
19/08/2009,24.7,34.4,20.5,0.0
20/08/2009,21.5,25.3,16.3,0.2
21/08/2009,20.0,24.2,15.8,2.2
22/08/2009,19.6,27.9,14.2,0.0
23/08/2009,24.2,38.6,13.2,0.0
24/08/2009,21.2,23.4,18.8,0.0
25/08/2009,18.6,22.8,16.8,1.4
26/08/2009,21.4,31.4,15.0,0.0
27/08/2009,23.0,33.5,14.1,0.0
28/08/2009,19.3,21.2,16.5,1.9
29/08/2009,17.2,22.1,10.8,0.0
30/08/2009,16.4,25.7,9.3,0.0
31/08/2009,23.5,36.0,10.2,0.2
01/09/2009,19.0,21.1,17.5,0.0
02/09/2009,20.4,26.1,17.0,0.0
03/09/2009,18.1,22.3,14.3,1.1
04/09/2009,16.2,19.2,12.9,2.1
05/09/2009,15.4,22.2,10.1,0.1
06/09/2009,18.2,32.1,9.5,0.0
07/09/2009,20.4,29.4,12.5,0.0
08/09/2009,23.3,34.2,15.9,0.0
09/09/2009,20.1,27.6,14.4,0.0
10/09/2009,19.1,26.9,12.9,0.0
11/09/2009,19.4,27.2,13.9,0.0
12/09/2009,18.4,25.7,13.2,0.0
13/09/2009,17.0,24.0,12.0,0.0
14/09/2009,15.5,19.6,10.9,0.0
15/09/2009,14.9,20.4,8.1,0.4
16/09/2009,14.5,17.5,12.3,3.2
17/09/2009,15.6,22.9,11.0,0.1
18/09/2009,13.7,14.8,12.4,51.7
19/09/2009,14.7,18.7,12.2,1.8
20/09/2009,14.9,18.1,13.2,25.6
21/09/2009,16.5,20.3,14.3,18.3
22/09/2009,17.4,21.1,15.1,0.0
23/09/2009,19.1,25.7,15.8,0.0
24/09/2009,18.0,23.7,14.7,0.0
25/09/2009,16.8,22.7,12.4,0.0
26/09/2009,16.9,22.2,13.0,0.0
27/09/2009,17.5,23.6,14.0,0.0
28/09/2009,17.6,23.5,14.2,0.0
29/09/2009,17.9,25.6,14.4,0.0
30/09/2009,18.9,25.5,14.9,0.0
01/10/2009,17.2,22.3,12.5,0.0
02/10/2009,15.2,19.9,10.1,0.0
03/10/2009,13.5,21.8,8.6,0.0
04/10/2009,16.1,28.6,8.4,0.0
05/10/2009,18.7,25.0,12.9,0.0
06/10/2009,20.5,30.4,13.9,0.0
07/10/2009,20.4,28.9,13.9,0.0
08/10/2009,17.2,20.4,14.9,11.0
09/10/2009,16.2,22.3,13.7,0.0
10/10/2009,16.5,20.5,14.4,0.1
11/10/2009,16.8,19.3,15.5,11.1
12/10/2009,15.6,18.6,10.5,6.5
13/10/2009,10.7,17.2,5.9,0.0
14/10/2009,9.6,16.6,5.5,0.0
15/10/2009,7.4,14.2,1.1,0.0
16/10/2009,4.4,11.7,-0.1,0.0
17/10/2009,5.6,14.7,-0.7,0.0
18/10/2009,6.4,15.6,1.1,0.0
19/10/2009,10.8,18.6,0.0,0.0
20/10/2009,16.5,20.3,11.5,13.8
21/10/2009,12.3,18.8,8.0,1.8
22/10/2009,12.1,14.6,11.0,38.3
23/10/2009,12.9,14.8,10.2,11.9
24/10/2009,17.2,25.4,13.4,0.0
25/10/2009,16.8,20.4,14.5,1.8
26/10/2009,14.8,21.6,10.5,0.0
27/10/2009,14.5,25.8,8.3,0.0
28/10/2009,15.7,25.5,10.4,0.0
29/10/2009,15.9,25.2,10.4,0.0
30/10/2009,15.4,25.2,9.7,0.0
31/10/2009,15.7,23.3,11.9,0.0
01/11/2009,16.9,24.1,11.7,20.5
02/11/2009,11.0,13.2,9.4,6.7
03/11/2009,13.0,18.8,9.2,0.5
04/11/2009,10.9,13.5,8.3,15.6
05/11/2009,7.5,8.4,6.5,29.3
06/11/2009,9.3,15.1,6.9,16.5
07/11/2009,9.5,15.0,6.8,28.7
08/11/2009,9.6,12.6,7.4,64.4
09/11/2009,7.5,10.4,3.6,28.8
10/11/2009,7.8,12.1,3.6,43.1
11/11/2009,12.1,16.8,9.0,5.1
12/11/2009,12.6,18.9,7.5,0.1
13/11/2009,17.2,20.1,10.7,0.0
14/11/2009,15.6,20.7,8.2,0.0
15/11/2009,16.0,21.4,8.8,0.8
16/11/2009,19.4,22.7,15.4,0.0
17/11/2009,15.8,21.4,10.4,0.0
18/11/2009,10.3,16.7,7.4,0.0
19/11/2009,14.7,21.5,7.0,0.0
20/11/2009,15.8,20.6,11.1,0.0
21/11/2009,18.0,21.6,13.0,0.4
22/11/2009,12.0,18.9,5.6,0.5
23/11/2009,9.3,18.5,3.8,0.0
24/11/2009,9.8,18.7,2.6,0.0
25/11/2009,13.3,16.9,9.7,0.8
26/11/2009,9.5,15.2,3.2,0.5
27/11/2009,5.5,11.6,1.5,0.0
28/11/2009,9.4,13.6,0.9,0.0
29/11/2009,8.9,13.3,3.8,9.4
30/11/2009,5.9,8.9,3.0,38.2
01/12/2009,7.5,11.9,4.4,16.6
02/12/2009,10.5,15.4,4.9,0.7
03/12/2009,9.6,11.2,8.3,15.3
04/12/2009,9.6,11.8,7.6,17.4
05/12/2009,10.6,15.0,5.9,0.1
06/12/2009,13.7,14.9,10.9,0.1
07/12/2009,13.8,17.1,9.1,0.3
08/12/2009,9.3,16.0,4.7,0.0
09/12/2009,6.5,15.5,3.4,0.0
10/12/2009,5.8,13.7,3.2,0.0
11/12/2009,5.0,13.4,2.5,0.1
12/12/2009,5.5,9.3,3.7,0.3
13/12/2009,3.5,5.2,2.2,0.0
14/12/2009,1.9,3.0,0.9,0.0
15/12/2009,2.1,3.2,0.9,0.0
16/12/2009,1.1,4.0,-2.2,0.6
17/12/2009,-0.3,3.1,-4.5,0.0
18/12/2009,-0.6,1.9,-5.2,8.3
19/12/2009,-1.0,2.5,-4.2,1.5
20/12/2009,0.4,7.7,-4.9,0.4
21/12/2009,7.6,11.0,3.8,0.0
22/12/2009,11.6,15.0,7.1,4.9
23/12/2009,5.1,7.3,2.7,13.7
24/12/2009,12.4,18.3,4.2,5.8
25/12/2009,6.2,12.1,2.1,1.2
26/12/2009,6.6,8.2,2.7,8.2
27/12/2009,7.0,11.4,2.7,0.1
28/12/2009,11.8,13.7,8.8,5.6
29/12/2009,14.4,16.3,11.4,1.5
30/12/2009,13.5,17.4,10.3,4.9
31/12/2009,11.0,14.2,5.9,2.4
