Fecha, Temperatura media, Temperatura maxima, Temperatura minima, Precipitacion acumulada
01/01/2015,-2.2,8.0,-6.9,0.1
02/01/2015,-0.8,8.7,-5.8,0.0
03/01/2015,2.5,14.3,-3.4,0.0
04/01/2015,7.9,11.9,4.4,0.3
05/01/2015,8.3,16.4,1.9,0.1
06/01/2015,5.5,8.4,0.7,0.4
07/01/2015,4.7,11.1,1.5,0.2
08/01/2015,4.8,12.5,0.3,0.0
09/01/2015,7.5,14.9,4.7,0.0
10/01/2015,7.7,11.8,4.5,0.1
11/01/2015,7.3,11.1,1.0,5.6
12/01/2015,8.0,15.6,-1.4,0.0
13/01/2015,12.3,14.9,9.7,0.0
14/01/2015,9.7,15.7,3.0,0.0
15/01/2015,12.2,13.7,11.1,0.0
16/01/2015,6.5,12.5,1.7,22.2
17/01/2015,3.5,9.8,0.2,11.1
18/01/2015,4.9,7.1,-0.5,1.1
19/01/2015,4.6,8.1,1.6,19.8
20/01/2015,2.5,6.8,0.1,0.1
21/01/2015,3.2,6.6,0.7,23.7
22/01/2015,4.1,7.0,2.1,14.3
23/01/2015,4.0,7.9,2.5,0.0
24/01/2015,4.9,9.4,0.9,3.2
25/01/2015,2.5,8.2,-1.3,0.0
26/01/2015,4.1,7.5,0.4,0.1
27/01/2015,6.8,8.5,5.0,8.0
28/01/2015,6.9,9.8,5.0,7.5
29/01/2015,10.2,13.9,5.6,14.1
30/01/2015,7.1,11.3,4.2,98.6
31/01/2015,4.9,8.0,0.0,37.0
01/02/2015,2.7,6.0,0.8,44.1
02/02/2015,4.3,8.4,1.1,1.3
03/02/2015,3.7,6.6,0.8,10.8
04/02/2015,1.3,3.5,-2.0,0.0
05/02/2015,1.7,4.2,-1.4,0.1
06/02/2015,-0.8,0.6,-3.4,0.0
07/02/2015,1.0,5.4,-2.2,0.1
08/02/2015,2.4,5.4,-1.7,0.0
09/02/2015,2.9,11.0,-2.6,0.0
10/02/2015,2.3,13.6,-4.5,0.0
11/02/2015,3.8,12.1,-3.8,0.0
12/02/2015,8.2,13.4,3.5,0.4
13/02/2015,10.1,14.0,7.1,0.0
14/02/2015,6.6,9.4,3.9,18.4
15/02/2015,7.7,9.9,5.2,9.7
16/02/2015,6.6,9.0,3.6,20.0
17/02/2015,6.9,7.9,5.5,26.3
18/02/2015,6.1,8.3,1.7,0.0
19/02/2015,5.9,16.1,-0.2,0.0
20/02/2015,7.9,12.8,1.2,2.4
21/02/2015,6.4,8.7,4.1,35.8
22/02/2015,6.7,9.7,4.0,10.8
23/02/2015,7.7,11.1,6.0,17.2
24/02/2015,5.3,7.7,3.7,41.0
25/02/2015,9.1,11.6,5.8,70.2
26/02/2015,10.5,11.3,9.8,37.4
27/02/2015,7.5,9.8,4.6,18.9
28/02/2015,7.0,9.7,4.6,10.2
01/03/2015,12.3,16.8,9.4,3.8
02/03/2015,11.7,13.5,9.7,2.4
03/03/2015,10.9,17.0,9.3,4.1
04/03/2015,7.2,9.7,5.0,18.9
05/03/2015,6.3,10.7,1.5,0.0
06/03/2015,6.8,17.7,-0.9,0.0
07/03/2015,9.5,23.8,-0.3,0.0
08/03/2015,8.6,19.5,1.6,0.0
09/03/2015,8.3,20.3,0.4,0.0
10/03/2015,9.8,19.6,1.5,0.0
11/03/2015,9.2,14.2,3.4,0.0
12/03/2015,11.4,19.6,5.1,0.0
13/03/2015,8.7,11.5,5.2,9.4
14/03/2015,4.4,6.9,0.9,24.9
15/03/2015,5.7,9.4,3.6,7.2
16/03/2015,7.1,11.9,2.3,1.4
17/03/2015,9.7,18.3,2.7,0.0
18/03/2015,9.6,16.6,4.2,0.0
19/03/2015,10.1,14.2,7.1,0.8
20/03/2015,7.9,9.5,6.5,2.5
21/03/2015,7.1,8.4,6.0,4.2
22/03/2015,7.5,9.3,5.7,6.8
23/03/2015,5.9,8.1,3.0,20.8
24/03/2015,7.1,8.6,4.2,11.5
25/03/2015,6.5,9.5,3.2,3.8
26/03/2015,8.5,11.9,5.1,6.6
27/03/2015,10.0,12.0,7.4,8.2
28/03/2015,12.1,16.5,10.3,1.1
29/03/2015,12.7,18.4,8.6,0.8
30/03/2015,12.1,15.6,8.4,0.0
31/03/2015,12.0,14.5,10.0,1.6
01/04/2015,10.0,13.9,3.3,0.3
02/04/2015,8.8,18.1,1.2,0.0
03/04/2015,9.6,18.2,3.0,0.2
04/04/2015,9.9,13.4,7.7,4.5
05/04/2015,10.4,14.5,3.7,0.0
06/04/2015,9.0,17.9,0.7,0.0
07/04/2015,11.9,21.5,0.8,0.0
08/04/2015,14.7,22.2,7.7,0.0
09/04/2015,16.2,21.4,11.1,0.0
10/04/2015,15.4,21.8,11.4,2.3
11/04/2015,12.8,16.3,7.9,0.0
12/04/2015,14.9,26.5,6.3,0.0
13/04/2015,16.4,28.4,6.0,0.0
14/04/2015,17.8,29.7,6.2,0.0
15/04/2015,19.5,23.2,12.6,0.0
16/04/2015,15.0,19.5,11.2,1.2
17/04/2015,12.4,17.5,8.5,4.7
18/04/2015,13.2,24.2,8.9,1.6
19/04/2015,11.8,15.3,8.2,0.4
20/04/2015,13.2,20.7,5.7,0.0
21/04/2015,16.1,26.7,5.7,0.0
22/04/2015,18.1,23.4,11.6,0.1
23/04/2015,14.5,20.3,8.1,0.3
24/04/2015,15.3,24.9,6.5,0.8
25/04/2015,18.0,24.4,12.1,0.2
26/04/2015,14.1,19.5,10.8,36.0
27/04/2015,11.4,13.5,8.0,23.8
28/04/2015,10.7,15.7,6.8,1.0
29/04/2015,11.3,18.2,6.7,0.0
30/04/2015,15.4,24.0,6.4,0.0
01/05/2015,17.5,20.4,13.5,5.2
02/05/2015,19.0,26.7,12.5,0.0
03/05/2015,20.5,24.6,16.4,0.2
04/05/2015,23.0,29.3,15.4,0.0
05/05/2015,15.2,22.1,9.3,3.1
06/05/2015,13.2,17.7,8.5,0.0
07/05/2015,17.3,29.7,6.8,0.0
08/05/2015,18.0,22.6,11.8,0.0
09/05/2015,14.3,19.4,8.9,0.0
10/05/2015,20.2,33.1,10.1,0.0
11/05/2015,18.8,30.5,13.3,0.0
12/05/2015,19.8,28.6,12.7,0.0
13/05/2015,21.3,28.9,14.5,0.0
14/05/2015,14.0,19.4,10.0,0.9
15/05/2015,11.6,15.3,9.8,16.9
16/05/2015,12.8,16.6,10.6,5.1
17/05/2015,14.4,17.9,12.0,1.1
18/05/2015,14.9,21.4,10.9,0.0
19/05/2015,11.7,14.6,9.6,8.7
20/05/2015,10.9,13.9,8.9,14.1
21/05/2015,10.7,15.4,7.8,4.4
22/05/2015,11.5,15.4,6.8,0.0
23/05/2015,13.4,16.1,11.1,0.3
24/05/2015,15.0,18.4,12.4,3.5
25/05/2015,14.3,16.6,12.0,0.6
26/05/2015,13.3,17.2,10.5,0.3
27/05/2015,15.6,21.0,9.3,0.0
28/05/2015,15.8,21.7,9.6,0.0
29/05/2015,14.0,16.9,7.6,0.1
30/05/2015,13.6,21.0,7.0,0.0
31/05/2015,16.9,24.4,9.7,0.0
01/06/2015,17.9,24.1,15.1,0.0
02/06/2015,19.9,25.2,15.9,0.0
03/06/2015,18.5,22.5,15.0,0.1
04/06/2015,24.2,35.0,15.2,0.0
05/06/2015,20.9,31.4,13.7,0.0
06/06/2015,17.3,20.2,15.6,0.0
07/06/2015,19.9,26.5,15.2,0.0
08/06/2015,20.0,26.8,14.3,0.0
09/06/2015,17.0,21.9,13.6,0.0
10/06/2015,15.1,17.6,13.2,31.6
11/06/2015,17.8,22.5,14.8,12.8
12/06/2015,17.2,21.3,13.6,2.6
13/06/2015,16.3,20.5,13.9,29.2
14/06/2015,17.0,21.7,13.0,0.1
15/06/2015,16.4,20.4,13.1,3.2
16/06/2015,14.5,15.9,13.3,6.3
17/06/2015,16.2,20.8,12.1,0.0
18/06/2015,16.2,21.2,11.5,0.0
19/06/2015,15.7,19.0,11.9,1.0
20/06/2015,17.9,22.7,13.5,0.0
21/06/2015,18.4,25.5,12.4,0.0
22/06/2015,20.7,31.4,14.0,0.0
23/06/2015,18.4,23.3,14.0,0.0
24/06/2015,18.5,24.8,12.4,0.0
25/06/2015,20.9,30.8,11.6,0.0
26/06/2015,20.6,31.4,14.1,0.0
27/06/2015,20.9,26.8,15.9,0.0
28/06/2015,20.3,27.4,15.4,0.0
29/06/2015,23.0,30.2,17.9,0.0
30/06/2015,27.4,39.6,18.5,0.8
01/07/2015,24.5,36.4,19.4,1.7
02/07/2015,21.0,24.0,18.8,0.0
03/07/2015,26.9,37.9,17.3,0.0
04/07/2015,22.4,28.7,17.0,0.0
05/07/2015,21.2,24.4,18.8,0.0
06/07/2015,24.9,36.0,15.1,0.0
07/07/2015,22.5,27.8,18.6,0.0
08/07/2015,18.2,22.4,13.2,1.8
09/07/2015,18.2,24.1,12.7,0.0
10/07/2015,21.8,36.5,12.5,0.0
11/07/2015,19.7,21.7,18.2,0.0
12/07/2015,20.6,25.0,17.8,0.0
13/07/2015,20.7,26.7,14.7,0.0
14/07/2015,21.4,27.4,15.5,0.0
15/07/2015,22.5,29.4,15.1,0.0
16/07/2015,22.5,30.9,19.1,0.0
17/07/2015,23.0,29.6,18.7,0.1
18/07/2015,24.1,36.5,19.3,8.9
19/07/2015,23.3,29.3,18.9,0.0
20/07/2015,23.5,31.0,18.0,0.0
21/07/2015,22.0,29.3,17.1,29.6
22/07/2015,20.9,25.1,18.0,2.5
23/07/2015,21.9,27.8,17.7,1.2
24/07/2015,21.9,28.9,17.1,2.2
25/07/2015,17.6,21.5,13.1,5.3
26/07/2015,21.0,29.4,12.5,0.0
27/07/2015,19.4,23.0,17.1,1.5
28/07/2015,20.9,27.9,16.1,0.2
29/07/2015,17.1,20.7,15.0,11.6
30/07/2015,15.8,17.9,14.3,11.3
31/07/2015,16.7,22.1,14.5,5.2
01/08/2015,17.6,23.3,11.4,0.2
02/08/2015,22.2,34.5,11.2,0.0
03/08/2015,21.3,29.2,17.0,2.4
04/08/2015,18.6,21.1,17.0,1.9
05/08/2015,22.4,34.6,16.8,0.0
06/08/2015,21.9,30.5,16.3,0.0
07/08/2015,20.3,24.6,16.9,0.2
08/08/2015,16.5,18.4,15.0,5.1
09/08/2015,17.2,21.5,14.6,0.9
10/08/2015,20.1,29.0,14.0,0.0
11/08/2015,22.5,32.1,14.7,0.0
12/08/2015,24.8,34.2,17.5,0.0
13/08/2015,21.4,26.5,17.9,2.1
14/08/2015,17.8,21.4,15.5,1.4
15/08/2015,16.6,21.7,12.8,2.4
16/08/2015,17.5,25.5,11.4,0.0
17/08/2015,18.2,24.0,13.7,0.0
18/08/2015,17.1,24.0,12.9,0.0
19/08/2015,17.9,25.1,11.8,0.0
20/08/2015,20.4,30.6,12.8,0.0
21/08/2015,23.5,35.8,13.8,0.0
22/08/2015,22.3,31.0,16.2,33.8
23/08/2015,20.7,27.9,16.2,0.0
24/08/2015,17.8,22.3,11.1,0.0
25/08/2015,18.8,30.0,10.2,0.0
26/08/2015,23.1,33.2,12.8,0.0
27/08/2015,22.1,30.6,16.0,0.0
28/08/2015,22.8,31.7,14.5,0.0
29/08/2015,25.8,37.8,16.7,0.0
30/08/2015,27.9,36.1,18.7,0.2
31/08/2015,23.3,32.8,17.7,59.2
01/09/2015,17.6,20.6,12.9,17.5
02/09/2015,16.9,21.6,12.7,10.0
03/09/2015,16.4,20.6,12.1,0.5
04/09/2015,15.0,19.9,11.6,0.0
05/09/2015,14.2,19.6,9.9,0.2
06/09/2015,14.6,21.8,9.8,0.0
07/09/2015,14.6,21.6,9.9,0.0
08/09/2015,15.5,24.5,9.3,0.0
09/09/2015,19.1,28.6,11.2,0.0
10/09/2015,18.3,21.8,13.3,2.0
11/09/2015,20.1,30.3,13.5,0.0
12/09/2015,18.8,21.4,16.9,21.8
13/09/2015,17.3,22.9,12.9,0.1
14/09/2015,15.1,20.7,10.9,6.3
15/09/2015,16.2,22.4,11.4,2.3
16/09/2015,21.1,25.4,16.4,3.3
17/09/2015,14.9,18.8,9.9,0.2
18/09/2015,14.0,21.2,9.1,0.0
19/09/2015,14.7,21.3,10.2,0.0
20/09/2015,15.0,22.7,10.2,0.0
21/09/2015,15.4,24.4,9.1,0.0
22/09/2015,15.3,20.7,13.2,7.3
23/09/2015,14.5,18.1,12.2,7.7
24/09/2015,14.8,21.9,10.5,0.0
25/09/2015,15.1,22.5,10.3,0.1
26/09/2015,15.6,22.6,11.8,0.0
27/09/2015,14.8,22.3,10.5,0.1
28/09/2015,15.0,24.6,10.3,0.0
29/09/2015,15.2,22.0,11.3,1.2
30/09/2015,15.8,23.6,12.4,5.0
01/10/2015,15.1,21.5,10.7,28.1
02/10/2015,13.0,17.8,10.0,32.7
03/10/2015,12.8,20.3,8.4,1.9
04/10/2015,15.6,21.5,8.2,0.2
05/10/2015,22.6,27.2,18.5,0.0
06/10/2015,18.6,24.0,13.4,5.9
07/10/2015,13.9,16.9,12.4,2.4
08/10/2015,13.6,18.8,9.9,0.0
09/10/2015,12.4,20.5,8.5,0.0
10/10/2015,13.7,24.5,7.7,0.0
11/10/2015,15.8,22.0,10.3,0.3
12/10/2015,15.4,20.3,13.0,19.6
13/10/2015,13.0,16.0,11.5,0.6
14/10/2015,9.4,14.0,3.3,0.0
15/10/2015,7.1,15.2,2.7,0.0
16/10/2015,8.1,17.0,3.6,0.0
17/10/2015,13.6,22.1,4.5,0.9
18/10/2015,17.6,21.9,13.2,0.3
19/10/2015,15.6,19.4,13.3,1.7
20/10/2015,13.2,15.7,10.7,0.1
21/10/2015,11.0,15.7,6.9,0.0
22/10/2015,11.0,14.5,7.0,0.6
23/10/2015,15.1,22.8,11.8,0.0
24/10/2015,16.0,21.5,12.1,0.0
25/10/2015,15.4,20.8,11.4,0.0
26/10/2015,18.6,22.3,11.5,0.0
27/10/2015,15.4,22.5,9.1,22.4
28/10/2015,12.6,18.9,8.8,0.0
29/10/2015,14.6,21.6,8.9,0.0
30/10/2015,17.1,25.3,9.5,0.0
31/10/2015,17.9,22.7,11.7,0.0
01/11/2015,15.8,22.6,9.9,0.0
02/11/2015,12.2,19.6,7.2,6.3
03/11/2015,15.3,17.1,11.3,0.3
04/11/2015,15.8,21.0,8.8,0.0
05/11/2015,15.7,20.5,10.4,0.0
06/11/2015,15.9,24.8,10.3,0.0
07/11/2015,16.9,26.4,9.8,0.0
08/11/2015,16.4,26.3,8.5,0.0
09/11/2015,14.5,22.0,9.8,0.0
10/11/2015,13.3,22.7,10.1,0.0
11/11/2015,12.4,15.0,10.6,0.2
12/11/2015,13.0,20.7,6.4,0.1
13/11/2015,10.7,14.9,6.0,0.2
14/11/2015,13.1,19.0,8.1,0.1
15/11/2015,9.8,20.6,4.4,0.0
16/11/2015,8.0,17.4,3.9,0.0
17/11/2015,9.7,18.3,5.7,0.0
18/11/2015,12.2,22.2,8.2,0.0
19/11/2015,13.7,20.6,9.6,0.0
20/11/2015,13.1,20.5,9.6,0.0
21/11/2015,9.2,16.3,5.0,64.7
22/11/2015,5.0,6.9,2.2,23.0
23/11/2015,2.0,3.8,-0.3,2.5
24/11/2015,4.4,8.1,1.7,16.0
25/11/2015,11.6,13.4,8.1,81.7
26/11/2015,12.2,13.8,9.4,3.6
27/11/2015,8.8,10.2,7.9,6.3
28/11/2015,9.0,11.4,5.0,9.6
29/11/2015,7.5,15.1,3.6,0.0
30/11/2015,4.8,13.3,1.9,0.0
01/12/2015,3.3,10.7,1.0,0.1
02/12/2015,4.8,15.3,-0.1,0.0
03/12/2015,7.7,17.2,0.1,0.0
04/12/2015,9.2,16.1,4.2,0.0
05/12/2015,9.7,19.0,5.2,0.0
06/12/2015,12.4,15.5,6.2,0.0
07/12/2015,14.5,17.3,11.2,0.0
08/12/2015,13.6,15.5,9.9,1.9
09/12/2015,9.9,16.0,5.0,0.1
10/12/2015,8.5,15.1,3.3,0.0
11/12/2015,6.8,14.8,3.1,0.0
12/12/2015,7.4,12.0,1.6,0.1
13/12/2015,6.9,12.2,2.2,0.0
14/12/2015,10.8,14.7,8.3,0.0
15/12/2015,14.1,17.4,7.4,0.0
16/12/2015,11.0,19.8,4.6,0.0
17/12/2015,15.0,19.7,7.4,0.0
18/12/2015,12.9,20.5,7.6,0.0
19/12/2015,16.5,20.4,8.3,0.0
20/12/2015,16.5,21.0,11.5,0.0
21/12/2015,10.4,16.5,3.8,0.0
22/12/2015,11.8,15.8,7.0,0.0
23/12/2015,11.3,17.5,5.0,0.0
24/12/2015,11.5,14.1,8.9,0.0
25/12/2015,12.6,17.1,10.4,0.0
26/12/2015,13.2,16.6,10.2,0.0
27/12/2015,13.8,16.6,9.3,0.0
28/12/2015,15.5,17.8,11.4,0.0
29/12/2015,10.4,16.8,5.5,0.5
30/12/2015,13.2,15.9,11.1,0.0
31/12/2015,9.1,13.0,4.4,1.6
