Fecha, Temperatura media, Temperatura maxima, Temperatura minima, Precipitacion acumulada
01/01/2018,8.2,14.6,1.9,20.9
02/01/2018,10.3,13.4,7.8,9.4
03/01/2018,13.0,18.0,10.0,4.8
04/01/2018,12.7,19.0,8.1,0.1
05/01/2018,11.6,15.4,7.5,13.3
06/01/2018,1.6,7.3,0.0,67.6
07/01/2018,1.2,2.8,0.1,12.6
08/01/2018,2.2,9.4,-1.1,0.0
09/01/2018,3.7,8.3,-2.2,2.0
10/01/2018,7.4,11.1,3.6,5.7
11/01/2018,4.1,6.2,1.6,17.2
12/01/2018,5.1,9.4,3.4,3.6
13/01/2018,8.2,10.6,2.8,0.9
14/01/2018,5.6,7.7,4.4,10.6
15/01/2018,7.5,11.7,4.2,1.4
16/01/2018,9.9,11.1,8.3,8.9
17/01/2018,9.4,13.1,6.5,14.0
18/01/2018,6.3,13.1,2.5,0.1
19/01/2018,8.5,10.3,7.3,8.3
20/01/2018,9.6,13.1,6.4,10.9
21/01/2018,12.2,13.5,11.1,20.3
22/01/2018,11.9,15.3,10.6,3.1
23/01/2018,12.2,15.0,11.0,1.9
24/01/2018,12.8,17.5,6.7,0.0
25/01/2018,10.4,12.9,6.3,11.5
26/01/2018,6.6,9.4,5.1,38.1
27/01/2018,6.6,10.0,1.9,5.1
28/01/2018,3.7,12.1,0.7,0.0
29/01/2018,4.8,15.7,-0.1,0.0
30/01/2018,4.3,9.7,1.3,0.0
31/01/2018,6.4,16.6,0.5,0.0
01/02/2018,5.1,7.0,2.8,27.4
02/02/2018,3.5,7.5,0.9,10.8
03/02/2018,4.0,7.1,1.2,31.7
04/02/2018,5.6,8.7,3.7,4.6
05/02/2018,4.2,5.7,3.2,10.1
06/02/2018,3.8,6.7,2.1,1.2
07/02/2018,2.7,6.3,1.3,1.7
08/02/2018,1.5,4.7,-1.9,2.2
09/02/2018,1.8,6.3,-2.3,9.4
10/02/2018,4.3,7.6,1.9,6.2
11/02/2018,6.9,10.7,4.2,23.1
12/02/2018,4.4,9.3,-0.5,10.0
13/02/2018,3.4,6.2,-0.9,6.4
14/02/2018,6.7,9.6,4.0,10.8
15/02/2018,10.6,18.4,3.8,0.0
16/02/2018,13.3,20.7,7.6,0.1
17/02/2018,9.3,14.6,5.7,10.8
18/02/2018,7.2,9.1,4.7,11.0
19/02/2018,9.6,11.0,8.0,38.8
20/02/2018,9.7,11.0,8.7,40.9
21/02/2018,6.8,8.6,4.5,13.3
22/02/2018,4.3,7.8,-0.2,0.0
23/02/2018,1.1,3.8,-2.2,0.0
24/02/2018,3.0,11.5,-2.9,0.0
25/02/2018,3.8,12.8,-1.7,0.0
26/02/2018,4.1,9.0,-2.5,0.0
27/02/2018,-1.7,3.1,-6.7,0.0
28/02/2018,2.7,8.7,-3.1,10.0
01/03/2018,13.5,17.8,7.4,4.8
02/03/2018,8.6,13.7,0.7,1.1
03/03/2018,13.5,17.3,9.8,0.0
04/03/2018,11.8,16.5,6.1,2.7
05/03/2018,10.4,14.9,7.0,8.6
06/03/2018,7.4,15.1,3.7,8.6
07/03/2018,8.0,14.4,3.8,0.3
08/03/2018,12.1,15.6,4.9,0.0
09/03/2018,15.5,18.4,11.4,0.4
10/03/2018,16.6,20.1,14.0,0.0
11/03/2018,14.4,17.6,10.7,0.0
12/03/2018,9.9,14.9,4.6,0.9
13/03/2018,9.6,15.7,6.5,2.2
14/03/2018,12.6,16.9,6.8,6.0
15/03/2018,12.1,17.7,7.5,1.0
16/03/2018,9.4,16.0,4.0,0.3
17/03/2018,7.2,14.0,4.2,8.0
18/03/2018,5.7,8.6,3.5,9.5
19/03/2018,4.4,9.4,0.4,15.9
20/03/2018,3.2,5.9,0.4,9.8
21/03/2018,5.5,8.8,-0.2,0.0
22/03/2018,5.6,10.1,-0.7,0.0
23/03/2018,5.8,13.6,-2.1,5.7
24/03/2018,7.9,12.1,4.2,8.8
25/03/2018,8.2,11.0,6.2,10.1
26/03/2018,8.6,11.7,7.2,20.6
27/03/2018,9.6,12.1,7.1,3.3
28/03/2018,12.3,18.7,8.9,3.3
29/03/2018,11.2,18.2,7.2,1.3
30/03/2018,11.7,16.3,6.3,0.6
31/03/2018,7.8,11.0,3.8,29.6
01/04/2018,11.3,19.3,2.1,0.0
02/04/2018,17.1,22.1,13.0,0.0
03/04/2018,16.0,20.9,11.6,1.5
04/04/2018,13.7,19.9,9.9,5.5
05/04/2018,14.2,21.0,9.1,0.2
06/04/2018,17.8,25.6,12.4,0.4
07/04/2018,12.2,16.9,9.5,37.2
08/04/2018,10.4,15.3,7.3,16.5
09/04/2018,9.5,14.8,6.2,3.2
10/04/2018,9.0,11.3,6.5,5.1
11/04/2018,8.9,10.6,6.3,58.2
12/04/2018,10.3,14.9,6.6,30.9
13/04/2018,10.1,16.9,6.0,1.2
14/04/2018,12.3,18.9,7.5,0.0
15/04/2018,12.7,19.0,5.9,0.1
16/04/2018,10.7,13.3,6.7,10.8
17/04/2018,15.1,27.7,5.7,0.0
18/04/2018,18.4,27.9,7.0,0.0
19/04/2018,21.3,27.2,12.9,0.0
20/04/2018,18.7,26.7,11.9,0.0
21/04/2018,17.7,26.0,8.9,0.0
22/04/2018,19.0,26.0,13.1,0.7
23/04/2018,15.2,19.9,11.9,0.0
24/04/2018,19.6,28.7,14.3,0.0
25/04/2018,14.4,16.3,12.3,0.9
26/04/2018,12.8,17.6,7.4,0.3
27/04/2018,11.4,17.7,6.7,1.6
28/04/2018,10.9,13.6,9.3,5.7
29/04/2018,10.8,14.2,6.1,1.6
30/04/2018,9.0,15.6,4.8,2.0
01/05/2018,8.8,14.2,2.8,3.7
02/05/2018,9.6,17.5,2.1,7.6
03/05/2018,10.5,12.8,9.0,7.4
04/05/2018,12.4,15.8,9.5,0.1
05/05/2018,13.0,17.8,8.8,0.0
06/05/2018,16.0,26.2,7.6,0.0
07/05/2018,18.0,25.8,10.6,0.0
08/05/2018,14.3,17.4,12.1,0.1
09/05/2018,13.6,17.1,11.6,0.6
10/05/2018,12.1,14.4,8.9,2.0
11/05/2018,15.2,27.0,5.5,0.0
12/05/2018,10.4,12.8,7.0,4.8
13/05/2018,9.0,13.7,6.3,9.0
14/05/2018,10.8,15.3,7.5,9.7
15/05/2018,11.5,15.1,8.0,0.0
16/05/2018,12.1,15.2,7.8,0.0
17/05/2018,14.0,16.9,11.3,0.0
18/05/2018,16.1,20.9,12.5,0.0
19/05/2018,16.1,22.1,8.9,0.0
20/05/2018,15.4,22.4,8.5,0.0
21/05/2018,15.6,26.7,10.9,18.8
22/05/2018,16.7,24.1,11.1,0.0
23/05/2018,16.2,22.9,10.8,1.2
24/05/2018,19.5,27.2,14.7,0.3
25/05/2018,18.5,23.2,16.1,0.2
26/05/2018,17.3,25.9,14.0,34.1
27/05/2018,16.6,19.9,15.0,0.0
28/05/2018,15.3,16.8,14.2,7.0
29/05/2018,16.4,22.3,14.1,27.8
30/05/2018,16.3,20.7,14.1,4.4
31/05/2018,16.7,19.8,14.3,0.0
01/06/2018,18.4,24.4,15.0,5.3
02/06/2018,19.4,26.0,14.5,4.6
03/06/2018,18.1,26.8,13.7,15.5
04/06/2018,16.4,19.4,15.0,12.7
05/06/2018,15.2,17.8,13.7,18.1
06/06/2018,16.4,21.5,13.4,0.6
07/06/2018,18.2,25.7,13.6,1.9
08/06/2018,19.4,26.7,13.9,0.9
09/06/2018,18.1,21.0,14.6,3.3
10/06/2018,18.2,25.2,12.2,1.9
11/06/2018,15.7,20.5,12.2,1.2
12/06/2018,15.2,17.3,12.6,30.5
13/06/2018,15.1,17.4,13.6,6.2
14/06/2018,15.6,20.0,11.1,0.1
15/06/2018,15.8,20.7,11.2,0.4
16/06/2018,16.9,21.2,12.9,0.2
17/06/2018,15.9,22.2,11.1,2.1
18/06/2018,16.4,21.0,11.6,0.1
19/06/2018,19.0,24.3,15.0,0.0
20/06/2018,22.9,34.1,15.4,0.0
21/06/2018,20.5,24.2,18.9,0.0
22/06/2018,20.6,25.9,13.5,0.0
23/06/2018,18.9,25.9,13.1,0.0
24/06/2018,20.1,29.3,12.2,0.0
25/06/2018,20.7,28.6,13.2,0.0
26/06/2018,22.4,31.1,14.0,0.0
27/06/2018,20.0,24.9,18.0,2.1
28/06/2018,19.2,20.8,17.7,0.2
29/06/2018,22.9,30.3,17.9,1.3
30/06/2018,23.5,32.4,17.2,14.1
01/07/2018,23.5,31.3,19.0,0.1
02/07/2018,22.3,28.2,17.0,0.0
03/07/2018,21.5,26.7,16.4,0.0
04/07/2018,20.9,27.3,17.7,14.7
05/07/2018,18.7,22.5,16.5,3.5
06/07/2018,19.8,24.0,16.6,0.0
07/07/2018,21.1,27.7,16.7,2.8
08/07/2018,22.5,28.2,17.9,0.0
09/07/2018,22.5,28.3,17.8,0.0
10/07/2018,21.7,27.9,16.4,0.0
11/07/2018,21.2,26.8,15.3,0.0
12/07/2018,20.5,26.1,15.1,2.7
13/07/2018,19.8,27.5,14.1,17.7
14/07/2018,23.0,29.9,17.1,5.7
15/07/2018,21.5,27.6,17.1,0.1
16/07/2018,19.4,22.3,15.9,2.6
17/07/2018,20.8,26.8,15.3,0.0
18/07/2018,21.2,28.0,17.7,0.4
19/07/2018,21.9,28.0,18.2,3.4
20/07/2018,18.7,21.4,16.5,8.2
21/07/2018,18.7,23.3,15.9,1.7
22/07/2018,19.8,25.1,15.3,0.0
23/07/2018,22.4,30.7,15.1,0.0
24/07/2018,22.1,27.2,17.6,0.0
25/07/2018,22.8,27.3,18.5,0.0
26/07/2018,22.3,27.3,17.9,0.0
27/07/2018,22.7,27.5,18.0,0.0
28/07/2018,21.0,24.2,18.7,1.3
29/07/2018,21.6,26.5,17.1,0.0
30/07/2018,23.9,29.1,19.9,0.0
31/07/2018,22.7,25.9,20.7,0.0
01/08/2018,21.8,25.7,19.4,0.0
02/08/2018,24.4,31.3,18.7,0.0
03/08/2018,24.8,32.5,18.7,0.0
04/08/2018,23.0,31.1,17.0,0.0
05/08/2018,23.3,30.9,17.2,0.0
06/08/2018,25.8,36.5,19.1,0.0
07/08/2018,20.7,23.1,18.3,1.9
08/08/2018,20.8,25.7,17.1,10.8
09/08/2018,18.0,21.9,13.8,3.4
10/08/2018,18.5,25.6,13.9,0.1
11/08/2018,21.1,30.5,14.1,0.0
12/08/2018,22.6,33.8,16.5,0.6
13/08/2018,19.2,22.0,16.7,3.0
14/08/2018,19.3,23.8,16.0,1.6
15/08/2018,21.0,28.5,15.0,0.0
16/08/2018,19.9,26.0,16.5,1.8
17/08/2018,17.6,20.3,13.6,3.0
18/08/2018,17.4,24.0,12.2,0.0
19/08/2018,18.9,26.5,13.2,0.0
20/08/2018,19.2,25.7,14.1,0.0
21/08/2018,21.4,28.6,15.3,0.0
22/08/2018,23.5,30.3,18.2,0.0
23/08/2018,22.2,26.8,20.2,0.0
24/08/2018,18.8,21.2,16.2,2.2
25/08/2018,17.5,22.0,14.0,0.1
26/08/2018,19.3,26.7,13.7,0.0
27/08/2018,21.3,29.5,14.9,0.0
28/08/2018,24.1,37.3,15.1,0.0
29/08/2018,19.8,25.5,16.0,2.0
30/08/2018,19.8,24.9,16.9,0.1
31/08/2018,19.5,24.1,15.8,0.0
01/09/2018,20.2,26.6,13.9,0.0
02/09/2018,19.2,30.7,12.5,0.0
03/09/2018,18.1,27.2,11.7,0.0
04/09/2018,18.9,25.8,12.5,10.5
05/09/2018,18.7,22.7,15.6,0.3
06/09/2018,18.3,22.5,16.3,3.0
07/09/2018,18.7,22.7,16.1,0.0
08/09/2018,20.5,32.2,13.4,0.4
09/09/2018,20.8,27.3,16.7,0.7
10/09/2018,19.9,23.2,16.0,0.0
11/09/2018,20.7,32.2,15.7,0.7
12/09/2018,21.7,31.3,16.3,0.0
13/09/2018,19.4,22.7,15.7,0.1
14/09/2018,19.0,25.4,14.3,0.0
15/09/2018,19.1,28.2,11.1,0.0
16/09/2018,20.2,29.6,13.8,0.0
17/09/2018,23.7,33.8,17.1,0.0
18/09/2018,21.4,29.2,15.2,0.0
19/09/2018,22.1,30.0,15.6,0.0
20/09/2018,23.9,34.5,16.9,0.0
21/09/2018,21.3,26.8,17.4,0.0
22/09/2018,21.5,30.8,15.1,0.0
23/09/2018,20.3,31.1,14.2,0.4
24/09/2018,15.7,19.4,8.4,3.7
25/09/2018,12.5,20.1,7.1,0.0
26/09/2018,20.2,28.7,8.7,0.0
27/09/2018,22.9,32.0,14.2,0.0
28/09/2018,18.4,26.3,13.3,0.0
29/09/2018,17.6,24.6,11.6,0.0
30/09/2018,15.0,22.3,10.9,0.0
01/10/2018,14.3,17.8,11.1,0.0
02/10/2018,10.9,19.0,4.3,0.0
03/10/2018,12.2,22.7,4.2,0.0
04/10/2018,14.9,26.7,8.0,0.0
05/10/2018,18.7,29.3,10.8,0.0
06/10/2018,16.0,25.5,10.7,1.3
07/10/2018,12.1,14.7,9.4,28.1
08/10/2018,14.1,18.1,11.2,1.7
09/10/2018,14.9,22.4,10.8,0.0
10/10/2018,15.5,23.0,10.5,2.9
11/10/2018,19.6,26.6,14.3,0.1
12/10/2018,20.8,27.5,14.5,0.0
13/10/2018,23.4,28.4,16.2,0.0
14/10/2018,18.0,24.9,12.7,16.4
15/10/2018,15.0,22.7,10.3,0.2
16/10/2018,14.7,21.5,10.7,0.0
17/10/2018,15.7,21.9,11.2,0.0
18/10/2018,15.3,19.1,11.4,0.2
19/10/2018,17.9,21.6,15.0,0.0
20/10/2018,15.7,20.9,12.7,0.0
21/10/2018,16.5,24.5,13.6,0.0
22/10/2018,13.7,19.2,7.3,0.0
23/10/2018,11.7,17.8,7.2,0.0
24/10/2018,12.0,18.9,7.8,0.0
25/10/2018,11.8,19.3,8.9,0.0
26/10/2018,12.1,14.4,10.4,3.3
27/10/2018,8.2,11.2,4.7,14.6
28/10/2018,4.9,7.7,3.0,9.6
29/10/2018,5.2,6.9,3.5,31.2
30/10/2018,8.5,12.9,1.7,0.0
31/10/2018,9.4,12.5,8.3,14.0
01/11/2018,9.6,14.0,8.2,6.7
02/11/2018,9.5,14.4,6.4,12.8
03/11/2018,7.8,13.5,4.3,0.1
04/11/2018,10.5,18.9,2.1,0.0
05/11/2018,13.1,17.8,6.5,3.9
06/11/2018,10.4,15.3,4.9,5.0
07/11/2018,12.9,18.8,7.2,0.6
08/11/2018,11.0,17.5,5.9,2.9
09/11/2018,12.4,16.7,9.5,4.7
10/11/2018,15.4,18.6,12.2,0.0
11/11/2018,17.2,20.5,10.6,0.0
12/11/2018,14.6,19.7,11.7,22.8
13/11/2018,11.8,16.6,7.6,2.0
14/11/2018,15.9,21.8,8.6,0.0
15/11/2018,16.0,21.1,10.7,0.0
16/11/2018,12.0,20.9,6.8,0.0
17/11/2018,11.5,19.1,6.5,0.0
18/11/2018,9.3,16.6,5.7,0.3
19/11/2018,7.7,15.6,3.0,0.0
20/11/2018,5.1,6.2,3.8,3.6
21/11/2018,8.2,15.3,3.9,0.7
22/11/2018,10.0,15.4,4.3,0.0
23/11/2018,9.8,14.4,5.0,3.1
24/11/2018,11.2,15.3,5.4,0.0
25/11/2018,8.7,13.5,3.8,8.1
26/11/2018,6.8,8.8,4.3,17.2
27/11/2018,8.0,14.2,4.5,1.6
28/11/2018,8.8,17.3,3.7,0.0
29/11/2018,12.4,15.6,9.1,1.3
30/11/2018,9.2,14.0,7.6,11.9
01/12/2018,8.9,13.0,5.9,1.3
02/12/2018,12.2,16.5,8.5,0.2
03/12/2018,11.8,16.6,8.7,0.6
04/12/2018,11.1,17.9,8.7,0.0
05/12/2018,11.7,20.2,6.7,0.0
06/12/2018,11.0,15.7,7.5,0.3
07/12/2018,8.9,15.8,4.1,3.5
08/12/2018,9.1,14.6,4.9,1.2
09/12/2018,10.9,14.5,7.9,2.0
10/12/2018,8.5,13.5,2.8,0.0
11/12/2018,4.5,12.5,2.0,0.0
12/12/2018,8.0,12.2,3.2,1.5
13/12/2018,10.1,12.5,8.5,25.8
14/12/2018,9.1,10.5,6.7,28.4
15/12/2018,10.6,14.5,5.9,0.4
16/12/2018,10.7,15.8,7.2,13.5
17/12/2018,6.9,12.9,2.4,0.0
18/12/2018,12.3,13.9,9.8,0.0
19/12/2018,8.3,15.4,3.8,0.6
20/12/2018,7.7,16.5,2.0,0.1
21/12/2018,12.8,15.6,7.1,0.0
22/12/2018,10.7,16.7,6.4,0.0
23/12/2018,9.4,18.9,4.9,0.0
24/12/2018,7.1,15.0,3.5,0.0
25/12/2018,7.7,12.1,5.8,0.0
26/12/2018,7.5,12.0,1.6,0.0
27/12/2018,3.5,12.2,-0.8,0.1
28/12/2018,7.2,9.4,4.2,2.1
29/12/2018,7.0,12.6,0.6,0.1
30/12/2018,3.1,10.1,0.3,0.0
31/12/2018,2.6,8.7,0.8,0.0
