Fecha, Temperatura media, Temperatura maxima, Temperatura minima, Precipitacion acumulada
01/01/2017,1.9,8.2,-2.3,0.0
02/01/2017,5.0,10.3,-2.6,0.0
03/01/2017,4.7,11.5,1.0,0.0
04/01/2017,2.9,9.5,-0.6,0.0
05/01/2017,0.8,6.5,-2.9,0.0
06/01/2017,1.2,9.3,-3.2,0.0
07/01/2017,-0.3,6.1,-4.0,0.0
08/01/2017,2.3,7.8,-2.1,0.1
09/01/2017,4.9,8.8,3.4,0.0
10/01/2017,5.1,6.3,3.7,50.9
11/01/2017,7.6,9.7,4.5,32.9
12/01/2017,9.3,14.9,5.3,6.0
13/01/2017,2.0,5.2,-0.5,25.7
14/01/2017,-0.1,0.9,-0.8,26.9
15/01/2017,1.8,5.0,-0.5,83.7
16/01/2017,5.2,6.3,1.9,51.9
17/01/2017,-1.6,1.8,-5.1,0.5
18/01/2017,-5.3,-3.8,-6.9,0.0
19/01/2017,-2.9,1.5,-5.4,0.0
20/01/2017,0.1,6.6,-5.2,0.0
21/01/2017,3.7,11.1,0.2,0.0
22/01/2017,1.6,4.8,-0.8,0.0
23/01/2017,3.3,8.3,0.1,0.0
24/01/2017,3.1,8.3,-1.6,0.0
25/01/2017,-0.3,5.2,-3.3,0.0
26/01/2017,3.9,7.3,-1.7,0.0
27/01/2017,7.0,8.7,5.2,0.1
28/01/2017,5.4,10.7,1.8,3.2
29/01/2017,7.7,12.3,2.2,0.1
30/01/2017,10.5,12.6,7.9,0.0
31/01/2017,13.1,16.6,10.9,0.0
01/02/2017,13.1,15.5,11.1,0.0
02/02/2017,9.4,12.3,6.5,4.6
03/02/2017,8.8,12.6,6.7,0.5
04/02/2017,9.0,12.7,6.3,17.6
05/02/2017,5.2,12.3,1.9,29.8
06/02/2017,5.8,9.2,3.2,12.4
07/02/2017,6.8,9.8,1.4,18.9
08/02/2017,1.9,4.3,0.2,29.9
09/02/2017,4.6,10.1,-1.4,0.6
10/02/2017,7.7,10.3,4.1,0.0
11/02/2017,5.8,9.9,1.9,1.1
12/02/2017,9.7,14.4,3.0,0.2
13/02/2017,11.2,13.8,7.1,1.6
14/02/2017,9.3,14.4,4.3,0.0
15/02/2017,11.2,16.0,7.4,0.0
16/02/2017,10.9,16.0,7.2,0.0
17/02/2017,10.8,18.2,6.2,0.0
18/02/2017,9.2,15.8,6.2,0.0
19/02/2017,7.4,11.4,4.3,0.0
20/02/2017,7.4,11.3,4.9,0.0
21/02/2017,7.2,13.6,2.5,0.0
22/02/2017,10.7,19.9,3.2,0.0
23/02/2017,12.0,18.6,6.8,0.0
24/02/2017,5.0,7.1,1.0,2.1
25/02/2017,7.0,16.2,-0.5,0.0
26/02/2017,9.2,16.3,4.2,0.0
27/02/2017,10.3,14.5,5.7,0.1
28/02/2017,6.3,10.4,2.2,8.6
01/03/2017,9.1,14.5,1.8,0.0
02/03/2017,11.9,17.5,5.6,0.0
03/03/2017,11.2,16.9,1.7,42.4
04/03/2017,4.0,7.3,2.1,3.7
05/03/2017,7.8,12.1,4.1,0.8
06/03/2017,9.3,12.0,6.9,6.3
07/03/2017,7.9,9.7,5.9,12.8
08/03/2017,10.4,16.9,6.8,3.7
09/03/2017,13.0,22.3,5.5,0.0
10/03/2017,17.1,26.3,10.3,0.0
11/03/2017,15.7,25.9,9.3,0.0
12/03/2017,7.1,9.9,5.1,42.3
13/03/2017,6.5,7.4,5.5,21.8
14/03/2017,9.0,14.0,6.1,0.0
15/03/2017,10.1,17.2,6.1,0.0
16/03/2017,16.1,21.4,9.5,0.0
17/03/2017,11.4,17.7,7.1,0.1
18/03/2017,7.7,13.3,4.1,0.0
19/03/2017,8.1,16.1,3.3,0.0
20/03/2017,7.1,11.0,5.7,0.4
21/03/2017,6.0,8.7,3.5,4.5
22/03/2017,5.4,12.0,2.1,12.3
23/03/2017,4.5,9.1,0.1,0.1
24/03/2017,6.2,11.2,2.7,0.2
25/03/2017,4.1,6.8,2.6,6.7
26/03/2017,10.8,15.7,6.4,0.0
27/03/2017,10.9,13.2,8.5,0.0
28/03/2017,12.2,17.4,8.6,0.0
29/03/2017,15.1,22.9,8.0,0.0
30/03/2017,17.5,21.5,12.2,0.0
31/03/2017,13.6,18.3,5.1,11.6
01/04/2017,6.1,7.1,5.2,26.4
02/04/2017,6.2,10.1,4.9,23.0
03/04/2017,9.1,15.7,3.5,0.0
04/04/2017,8.4,12.7,6.3,2.4
05/04/2017,7.5,10.2,5.5,5.0
06/04/2017,9.0,15.4,5.5,0.0
07/04/2017,11.4,20.2,3.7,0.0
08/04/2017,17.9,24.9,10.2,0.0
09/04/2017,19.0,25.3,13.9,0.0
10/04/2017,15.6,23.6,8.7,0.0
11/04/2017,10.9,16.5,8.6,0.0
12/04/2017,12.4,21.3,4.9,0.0
13/04/2017,13.4,21.5,6.5,0.0
14/04/2017,10.0,15.3,7.1,0.0
15/04/2017,8.9,11.3,7.0,1.1
16/04/2017,9.4,16.4,5.1,0.0
17/04/2017,11.2,19.5,5.8,0.0
18/04/2017,10.9,15.9,7.8,0.0
19/04/2017,8.9,14.2,3.7,0.0
20/04/2017,9.0,14.7,1.5,0.0
21/04/2017,13.5,21.3,5.3,0.0
22/04/2017,16.6,24.8,9.3,0.0
23/04/2017,15.9,23.1,9.8,0.0
24/04/2017,16.5,25.7,9.7,0.0
25/04/2017,9.5,14.4,6.8,7.0
26/04/2017,5.0,9.0,2.4,5.4
27/04/2017,4.5,10.1,1.9,0.8
28/04/2017,7.1,13.2,0.6,0.0
29/04/2017,11.2,15.7,4.9,0.0
30/04/2017,8.4,13.8,3.6,20.9
01/05/2017,7.8,13.9,3.4,0.3
02/05/2017,9.3,10.3,8.3,7.5
03/05/2017,12.3,19.3,7.5,0.2
04/05/2017,14.2,19.8,7.7,0.0
05/05/2017,18.5,25.3,10.3,13.6
06/05/2017,12.0,18.2,6.6,3.7
07/05/2017,12.5,19.8,6.4,0.0
08/05/2017,11.9,20.1,5.1,0.0
09/05/2017,14.9,21.8,7.7,0.0
10/05/2017,16.4,22.9,11.3,7.6
11/05/2017,14.9,18.3,11.0,1.3
12/05/2017,14.7,18.2,12.2,0.1
13/05/2017,14.9,19.5,10.6,0.1
14/05/2017,16.9,22.3,9.8,0.0
15/05/2017,19.7,25.7,12.6,0.0
16/05/2017,21.6,28.0,15.9,0.0
17/05/2017,17.6,24.0,11.1,0.0
18/05/2017,8.8,11.7,6.5,31.7
19/05/2017,7.7,12.7,4.5,1.6
20/05/2017,10.9,17.9,4.7,0.1
21/05/2017,19.8,26.3,8.2,0.0
22/05/2017,18.6,23.1,11.1,0.0
23/05/2017,14.4,21.1,10.2,0.0
24/05/2017,19.6,26.6,10.9,0.0
25/05/2017,24.5,31.5,18.0,0.0
26/05/2017,22.6,31.9,14.5,6.6
27/05/2017,22.6,30.3,13.2,0.0
28/05/2017,24.2,27.6,21.1,0.0
29/05/2017,17.0,22.6,13.2,6.7
30/05/2017,13.9,15.5,12.8,2.5
31/05/2017,16.9,22.4,12.8,0.0
01/06/2017,19.6,26.5,12.5,0.0
02/06/2017,16.5,22.6,13.9,2.7
03/06/2017,12.8,14.9,9.4,24.8
04/06/2017,10.2,11.6,9.1,16.7
05/06/2017,14.4,20.6,9.5,2.0
06/06/2017,11.8,17.9,8.5,2.7
07/06/2017,14.7,21.7,7.3,0.0
08/06/2017,21.0,29.5,13.0,4.9
09/06/2017,15.6,19.0,13.2,0.0
10/06/2017,21.2,29.6,14.2,0.0
11/06/2017,18.5,26.9,14.4,0.4
12/06/2017,16.9,19.6,13.9,0.5
13/06/2017,20.3,29.1,15.1,0.0
14/06/2017,21.3,29.9,16.4,0.1
15/06/2017,15.8,17.0,14.7,3.3
16/06/2017,17.2,22.1,14.4,0.6
17/06/2017,21.5,27.1,14.8,0.0
18/06/2017,23.7,29.9,14.8,0.0
19/06/2017,27.7,33.3,22.2,0.0
20/06/2017,25.8,31.7,20.6,0.0
21/06/2017,26.5,33.6,20.7,0.0
22/06/2017,21.4,28.1,15.9,1.3
23/06/2017,16.2,18.4,14.7,1.3
24/06/2017,16.0,19.6,14.5,0.3
25/06/2017,17.2,20.3,14.0,1.3
26/06/2017,19.4,24.0,14.9,2.3
27/06/2017,16.1,21.8,13.6,3.0
28/06/2017,14.5,20.7,11.0,10.5
29/06/2017,12.3,17.3,9.6,4.9
30/06/2017,10.5,13.2,8.4,10.8
01/07/2017,10.0,10.9,9.0,30.1
02/07/2017,12.5,16.3,9.6,4.0
03/07/2017,16.9,21.3,11.0,0.0
04/07/2017,23.4,31.6,13.1,0.0
05/07/2017,25.7,33.6,16.3,0.0
06/07/2017,22.3,29.4,15.1,0.1
07/07/2017,23.8,29.2,17.9,0.0
08/07/2017,17.6,24.6,15.3,3.3
09/07/2017,17.5,24.4,13.8,12.4
10/07/2017,14.8,16.4,13.9,8.6
11/07/2017,17.8,23.9,13.2,0.0
12/07/2017,17.7,23.3,13.6,0.0
13/07/2017,16.8,21.4,14.6,0.2
14/07/2017,15.8,19.7,13.7,1.0
15/07/2017,16.9,22.1,13.9,0.0
16/07/2017,20.7,26.7,12.9,0.1
17/07/2017,26.0,31.0,18.8,0.7
18/07/2017,25.9,34.3,16.6,8.0
19/07/2017,19.1,24.1,15.8,8.2
20/07/2017,14.4,16.5,12.9,5.8
21/07/2017,14.0,16.4,12.0,5.0
22/07/2017,15.6,21.9,12.1,1.1
23/07/2017,15.4,20.1,13.3,0.0
24/07/2017,14.7,16.0,13.2,25.7
25/07/2017,13.7,15.5,12.4,5.1
26/07/2017,17.0,23.3,12.6,0.2
27/07/2017,19.3,25.9,12.7,0.0
28/07/2017,18.6,24.2,15.4,0.4
29/07/2017,20.6,27.6,14.6,0.0
30/07/2017,18.4,23.5,14.7,1.9
31/07/2017,16.6,21.4,14.0,0.0
01/08/2017,16.2,18.2,14.6,0.1
02/08/2017,20.1,27.1,13.6,0.0
03/08/2017,20.3,26.9,16.5,0.1
04/08/2017,21.4,28.3,15.3,0.0
05/08/2017,16.8,19.3,12.7,5.0
06/08/2017,15.5,20.2,12.5,0.0
07/08/2017,17.4,25.7,12.5,12.9
08/08/2017,13.1,16.2,11.2,13.4
09/08/2017,11.9,16.8,10.4,5.6
10/08/2017,12.2,14.2,10.1,13.6
11/08/2017,13.3,19.2,9.5,0.1
12/08/2017,15.4,23.0,9.0,0.0
13/08/2017,18.4,24.9,12.6,0.0
14/08/2017,24.8,32.6,15.4,0.0
15/08/2017,17.1,21.3,15.4,1.4
16/08/2017,16.5,19.2,15.0,0.5
17/08/2017,19.1,26.7,12.1,0.0
18/08/2017,16.2,18.5,14.0,1.5
19/08/2017,15.7,21.8,11.6,0.0
20/08/2017,15.7,22.2,9.3,0.0
21/08/2017,22.2,30.6,12.8,0.0
22/08/2017,25.0,32.2,16.4,0.0
23/08/2017,17.9,22.4,14.9,0.8
24/08/2017,19.9,28.0,14.5,0.3
25/08/2017,20.3,28.4,15.7,0.6
26/08/2017,22.0,29.1,15.4,2.9
27/08/2017,22.9,25.8,18.4,8.6
28/08/2017,21.9,29.3,17.2,8.5
29/08/2017,19.3,25.9,14.9,9.3
30/08/2017,18.4,25.3,12.8,27.7
31/08/2017,13.4,18.9,8.8,6.3
01/09/2017,12.1,16.3,8.6,4.4
02/09/2017,12.6,18.9,10.4,7.0
03/09/2017,15.9,23.1,9.1,0.3
04/09/2017,16.6,21.8,13.4,5.1
05/09/2017,17.3,24.7,13.0,0.0
06/09/2017,15.2,19.0,12.4,3.2
07/09/2017,14.0,18.5,9.4,0.0
08/09/2017,14.6,22.3,9.2,0.0
09/09/2017,11.9,15.0,9.1,40.1
10/09/2017,11.3,14.2,9.1,42.8
11/09/2017,13.4,15.5,11.0,24.3
12/09/2017,13.4,17.9,10.7,4.0
13/09/2017,17.6,25.6,12.7,0.4
14/09/2017,12.1,15.6,8.2,10.2
15/09/2017,9.9,13.6,7.8,9.9
16/09/2017,8.6,13.2,5.9,4.4
17/09/2017,11.2,16.5,6.5,0.0
18/09/2017,11.3,13.9,9.6,13.1
19/09/2017,11.3,16.7,7.1,0.0
20/09/2017,12.6,21.6,5.7,0.1
21/09/2017,15.7,23.0,10.8,0.0
22/09/2017,12.6,16.4,10.7,4.0
23/09/2017,17.1,24.5,11.3,0.0
24/09/2017,19.5,27.3,13.1,0.1
25/09/2017,13.4,15.8,11.5,11.5
26/09/2017,13.9,20.1,10.3,0.0
27/09/2017,17.6,24.5,10.7,0.0
28/09/2017,19.9,26.1,15.6,0.0
29/09/2017,19.8,26.8,12.7,0.0
30/09/2017,12.8,14.6,9.8,4.6
01/10/2017,13.2,15.4,9.7,16.8
02/10/2017,15.8,17.3,13.7,7.7
03/10/2017,15.9,20.8,12.8,0.2
04/10/2017,17.6,23.7,12.3,0.1
05/10/2017,15.4,18.1,13.2,0.1
06/10/2017,11.8,15.3,8.6,2.9
07/10/2017,10.7,18.3,5.8,0.0
08/10/2017,11.3,19.2,6.6,0.0
09/10/2017,12.2,20.4,6.9,0.0
10/10/2017,13.4,22.1,7.1,0.1
11/10/2017,17.8,25.6,10.2,0.0
12/10/2017,16.8,25.7,9.5,0.0
13/10/2017,20.4,27.4,14.9,0.0
14/10/2017,20.9,26.4,15.0,0.0
15/10/2017,20.6,24.6,17.9,0.0
16/10/2017,20.7,26.0,14.7,0.0
17/10/2017,19.9,23.4,16.7,0.0
18/10/2017,14.4,17.7,10.6,6.8
19/10/2017,12.3,17.2,10.0,0.1
20/10/2017,16.0,20.8,10.7,0.0
21/10/2017,12.4,18.3,9.0,11.3
22/10/2017,9.1,11.1,7.7,8.1
23/10/2017,10.5,18.5,5.4,0.1
24/10/2017,15.4,24.5,8.3,0.0
25/10/2017,19.1,26.6,14.1,0.0
26/10/2017,19.0,26.2,12.2,0.0
27/10/2017,12.4,15.0,10.1,0.8
28/10/2017,10.6,15.3,7.4,0.5
29/10/2017,9.9,13.4,7.0,1.6
30/10/2017,9.5,12.0,5.4,1.6
31/10/2017,8.7,15.4,2.5,0.0
01/11/2017,14.8,17.7,11.6,0.0
02/11/2017,15.7,18.1,12.2,0.0
03/11/2017,15.8,18.6,12.2,0.0
04/11/2017,12.4,16.1,9.7,54.9
05/11/2017,6.9,9.9,4.6,56.7
06/11/2017,5.5,8.7,3.4,1.4
07/11/2017,4.5,10.6,0.2,1.3
08/11/2017,3.7,6.8,0.2,37.0
09/11/2017,4.8,6.2,2.7,18.4
10/11/2017,7.4,11.0,4.5,9.2
11/11/2017,9.1,9.9,8.4,17.4
12/11/2017,9.3,10.2,6.5,20.8
13/11/2017,4.5,7.7,2.9,1.7
14/11/2017,4.0,8.2,2.0,0.0
15/11/2017,4.4,11.5,-0.3,0.0
16/11/2017,8.9,16.4,4.2,0.0
17/11/2017,7.5,14.2,3.9,0.0
18/11/2017,7.1,12.5,3.8,0.0
19/11/2017,5.3,12.4,1.3,0.1
20/11/2017,9.6,18.5,3.3,0.0
21/11/2017,12.1,19.0,7.6,0.0
22/11/2017,14.6,17.8,10.2,0.0
23/11/2017,15.8,17.7,14.2,0.0
24/11/2017,13.9,16.5,10.6,0.5
25/11/2017,6.4,12.4,2.8,29.6
26/11/2017,4.0,9.5,1.9,3.0
27/11/2017,4.2,9.1,0.5,0.0
28/11/2017,5.3,11.3,0.4,9.4
29/11/2017,2.5,4.7,-0.5,19.1
30/11/2017,0.6,3.5,-1.7,16.3
01/12/2017,-0.3,2.2,-2.0,30.9
02/12/2017,-1.5,1.0,-3.9,3.4
03/12/2017,-1.2,3.4,-5.6,0.2
04/12/2017,3.9,9.4,0.3,0.0
05/12/2017,4.0,8.1,1.0,0.0
06/12/2017,4.9,12.1,1.5,0.0
07/12/2017,7.4,11.8,4.7,0.2
08/12/2017,5.9,8.8,3.7,25.3
09/12/2017,5.1,9.3,1.8,17.5
10/12/2017,10.7,12.7,8.9,4.8
11/12/2017,5.7,11.9,2.0,17.0
12/12/2017,2.1,7.3,-0.5,15.9
13/12/2017,5.9,9.4,1.1,0.7
14/12/2017,8.4,11.1,7.0,13.4
15/12/2017,4.1,7.9,2.4,25.3
16/12/2017,2.4,4.8,0.7,23.3
17/12/2017,3.1,7.4,0.5,7.1
18/12/2017,5.6,8.9,3.9,15.5
19/12/2017,2.4,5.4,0.6,0.0
20/12/2017,2.9,6.5,0.9,0.0
21/12/2017,4.0,8.3,2.4,0.0
22/12/2017,4.2,5.1,3.4,0.0
23/12/2017,5.5,8.9,3.7,0.0
24/12/2017,6.9,13.5,0.9,0.1
25/12/2017,8.9,12.2,5.4,0.0
26/12/2017,5.3,7.3,2.5,5.8
27/12/2017,3.4,5.6,1.6,45.7
28/12/2017,3.2,6.8,-0.4,29.2
29/12/2017,9.2,13.5,5.7,5.6
30/12/2017,12.5,16.7,8.8,0.0
31/12/2017,9.0,13.7,4.5,12.7
