Fecha, Temperatura media, Temperatura maxima, Temperatura minima, Precipitacion acumulada
01/01/2017,-,4.5,-1.0,0.0
02/01/2017,-,4.5,-1.5,0.0
03/01/2017,-,12.0,-5.0,0.0
04/01/2017,-,9.0,-5.5,0.0
05/01/2017,-,5.0,-6.5,0.0
06/01/2017,-,6.5,-6.5,0.0
07/01/2017,-,8.0,-7.5,0.0
08/01/2017,-,8.0,-8.0,0.0
09/01/2017,-,8.0,5.0,6.7
10/01/2017,-,9.0,1.0,80.7
11/01/2017,-,10.0,6.0,6.1
12/01/2017,-,14.5,5.5,12.4
13/01/2017,-,4.5,2.5,27.2
14/01/2017,-,4.0,1.5,38.9
15/01/2017,-,7.5,1.0,52.8
16/01/2017,-,8.0,3.5,44.8
17/01/2017,-,1.0,-1.0,0.0
18/01/2017,-,-1.0,-4.5,0.0
19/01/2017,-,3.0,-3.0,0.0
20/01/2017,-,4.5,-7.5,0.0
21/01/2017,-,11.0,-7.0,0.0
22/01/2017,-,5.0,-6.0,0.3
23/01/2017,-,8.5,0.0,0.0
24/01/2017,-,8.0,4.0,0.0
25/01/2017,-,5.0,-4.5,0.0
26/01/2017,-,6.0,-5.5,1.7
27/01/2017,-,7.5,0.5,10.0
28/01/2017,-,8.5,1.5,0.0
29/01/2017,-,10.5,-1.0,0.0
30/01/2017,-,14.0,0.0,0.0
31/01/2017,-,14.5,7.5,0.0
01/02/2017,-,14.5,9.0,1.8
02/02/2017,-,11.0,9.5,5.1
03/02/2017,-,14.0,6.5,2.5
04/02/2017,-,11.5,7.5,11.1
05/02/2017,-,5.5,4.5,32.5
06/02/2017,-,8.0,2.5,6.6
07/02/2017,-,8.0,3.5,27.0
08/02/2017,-,5.0,2.5,14.6
09/02/2017,-,11.0,-0.5,0.0
10/02/2017,-,10.5,0.0,0.0
11/02/2017,-,9.5,5.0,8.2
12/02/2017,-,10.5,5.5,6.4
13/02/2017,-,10.0,8.5,21.2
14/02/2017,-,13.5,1.5,0.0
15/02/2017,-,14.5,1.5,0.0
16/02/2017,-,14.5,6.0,0.0
17/02/2017,-,17.5,-0.5,0.0
18/02/2017,-,14.5,-0.5,0.0
19/02/2017,-,12.0,0.0,0.0
20/02/2017,-,11.0,6.5,0.0
21/02/2017,-,14.0,0.5,0.0
22/02/2017,-,18.0,0.0,0.0
23/02/2017,-,18.0,3.5,1.6
24/02/2017,-,12.0,4.0,2.1
25/02/2017,-,17.5,-1.0,0.0
26/02/2017,-,18.0,-1.0,0.0
27/02/2017,-,15.0,-1.0,0.0
28/02/2017,-,11.0,8.5,7.9
01/03/2017,-,14.0,-0.5,0.0
02/03/2017,-,17.5,-1.0,0.0
03/03/2017,-,14.0,3.0,11.0
04/03/2017,-,8.0,1.0,2.7
05/03/2017,-,11.5,2.0,2.4
06/03/2017,-,15.0,7.0,0.3
07/03/2017,-,15.0,7.0,1.5
08/03/2017,-,19.5,7.0,0.0
09/03/2017,-,24.0,6.5,0.0
10/03/2017,-,25.0,2.0,0.0
11/03/2017,-,24.5,2.5,3.0
12/03/2017,-,10.0,7.5,29.6
13/03/2017,-,8.5,6.0,16.3
14/03/2017,-,14.5,6.5,0.0
15/03/2017,-,18.0,4.5,0.0
16/03/2017,-,21.0,4.5,0.0
17/03/2017,-,18.0,2.5,0.0
18/03/2017,-,14.0,7.5,0.0
19/03/2017,-,17.5,2.5,0.0
20/03/2017,-,16.5,3.0,0.0
21/03/2017,-,8.0,6.0,1.1
22/03/2017,-,10.5,3.5,5.9
23/03/2017,-,8.0,1.5,0.7
24/03/2017,-,11.5,-1.0,9.7
25/03/2017,-,7.0,2.5,33.3
26/03/2017,-,14.0,1.0,1.5
27/03/2017,-,11.5,7.0,0.4
28/03/2017,-,18.0,6.0,0.0
29/03/2017,-,21.0,1.5,0.0
30/03/2017,-,20.0,2.5,0.0
31/03/2017,-,18.0,9.0,3.5
01/04/2017,-,11.0,6.0,17.3
02/04/2017,-,11.0,6.5,5.6
03/04/2017,-,17.5,4.0,0.0
04/04/2017,-,12.5,5.0,3.0
05/04/2017,-,9.0,7.0,0.3
06/04/2017,-,14.5,7.5,0.0
07/04/2017,-,21.0,2.0,0.0
08/04/2017,-,23.0,4.0,0.0
09/04/2017,-,24.0,8.0,0.0
10/04/2017,-,24.0,5.0,0.0
11/04/2017,-,17.0,7.5,0.0
12/04/2017,-,22.5,5.0,0.0
13/04/2017,-,23.5,4.0,0.0
14/04/2017,-,16.0,3.5,0.0
15/04/2017,-,15.0,8.0,0.0
16/04/2017,-,18.5,5.0,0.0
17/04/2017,-,18.0,6.0,0.0
18/04/2017,-,14.5,6.0,0.0
19/04/2017,-,11.5,4.5,0.0
20/04/2017,-,15.5,0.0,0.0
21/04/2017,-,20.5,1.0,0.0
22/04/2017,-,24.0,8.0,0.0
23/04/2017,-,23.5,2.5,0.0
24/04/2017,-,27.0,3.5,1.4
25/04/2017,-,17.5,9.5,6.7
26/04/2017,-,8.0,4.5,1.8
27/04/2017,-,8.0,2.5,0.0
28/04/2017,-,11.5,-0.5,0.0
29/04/2017,-,14.0,0.5,0.7
30/04/2017,-,11.5,9.0,13.0
01/05/2017,-,14.5,0.0,0.6
02/05/2017,-,15.0,5.5,0.8
03/05/2017,-,20.5,6.0,0.0
04/05/2017,-,21.0,8.0,0.0
05/05/2017,-,21.0,13.5,9.4
06/05/2017,-,18.0,7.0,0.0
07/05/2017,-,19.0,4.0,0.0
08/05/2017,-,20.0,2.5,0.0
09/05/2017,-,21.5,6.0,4.8
10/05/2017,-,23.0,12.5,6.7
11/05/2017,-,18.0,10.0,0.0
12/05/2017,-,18.0,11.0,2.6
13/05/2017,-,21.0,7.5,0.0
14/05/2017,-,24.0,7.5,0.0
15/05/2017,-,27.0,7.5,0.0
16/05/2017,-,27.0,12.0,0.0
17/05/2017,-,22.5,14.5,1.6
18/05/2017,-,11.5,11.0,12.7
19/05/2017,-,14.5,6.0,0.0
20/05/2017,-,18.0,4.0,0.0
21/05/2017,-,24.0,5.0,0.0
22/05/2017,-,24.0,11.0,0.0
23/05/2017,-,26.5,10.5,0.0
24/05/2017,-,29.0,11.5,0.0
25/05/2017,-,32.0,11.5,0.0
26/05/2017,-,31.0,13.0,4.2
27/05/2017,-,28.0,14.5,0.0
28/05/2017,-,27.5,20.0,6.0
29/05/2017,-,21.0,14.5,1.2
30/05/2017,-,18.0,14.0,0.0
31/05/2017,-,25.5,14.0,0.0
01/06/2017,-,27.5,15.0,0.6
02/06/2017,-,27.0,14.5,23.5
03/06/2017,-,14.5,13.0,2.9
04/06/2017,-,13.5,10.0,16.0
05/06/2017,-,21.0,10.5,0.6
06/06/2017,-,13.0,11.0,0.9
07/06/2017,-,23.5,6.5,0.0
08/06/2017,-,27.0,10.0,13.6
09/06/2017,-,24.0,12.5,0.0
10/06/2017,-,30.0,14.0,0.0
11/06/2017,-,30.0,17.5,0.0
12/06/2017,-,23.0,16.0,0.0
13/06/2017,-,31.0,15.5,0.0
14/06/2017,-,31.0,17.0,0.0
15/06/2017,-,17.0,16.5,0.0
16/06/2017,-,22.0,15.0,0.0
17/06/2017,-,27.0,13.0,0.0
18/06/2017,-,32.0,12.0,0.0
19/06/2017,-,33.5,16.0,2.7
20/06/2017,-,33.0,18.5,0.0
21/06/2017,-,34.5,15.0,0.0
22/06/2017,-,34.0,16.5,0.0
23/06/2017,-,21.0,17.0,0.0
24/06/2017,-,21.0,16.5,0.0
25/06/2017,-,23.5,15.5,7.1
26/06/2017,-,23.5,16.0,1.8
27/06/2017,-,23.0,15.0,11.9
28/06/2017,-,23.0,14.0,10.9
29/06/2017,-,18.0,8.5,7.7
30/06/2017,-,14.0,8.0,4.7
01/07/2017,-,13.0,10.0,0.0
02/07/2017,-,18.0,10.0,0.0
03/07/2017,-,24.5,8.5,0.0
04/07/2017,-,30.5,13.5,0.0
05/07/2017,-,32.5,16.0,0.0
06/07/2017,-,30.0,18.0,0.0
07/07/2017,-,29.5,15.0,0.0
08/07/2017,-,25.0,17.0,0.6
09/07/2017,-,24.5,16.5,19.4
10/07/2017,-,19.0,15.5,0.0
11/07/2017,-,27.5,14.5,0.0
12/07/2017,-,23.0,12.5,0.0
13/07/2017,-,20.5,16.5,0.4
14/07/2017,-,20.5,14.5,0.0
15/07/2017,-,23.0,15.0,0.0
16/07/2017,-,28.5,14.0,0.0
17/07/2017,-,33.0,17.0,0.0
18/07/2017,-,33.5,21.0,5.8
19/07/2017,-,28.5,17.5,0.0
20/07/2017,-,18.0,15.5,0.0
21/07/2017,-,21.0,13.5,0.0
22/07/2017,-,25.5,10.0,0.0
23/07/2017,-,23.5,13.5,2.2
24/07/2017,-,18.0,16.5,3.4
25/07/2017,-,18.0,13.5,0.0
26/07/2017,-,24.5,10.5,0.0
27/07/2017,-,27.0,10.0,0.0
28/07/2017,-,25.5,16.5,0.0
29/07/2017,-,30.5,15.0,0.0
30/07/2017,-,26.5,12.5,0.0
31/07/2017,-,21.0,16.0,0.0
01/08/2017,-,21.0,16.0,0.0
02/08/2017,-,33.5,14.0,0.0
03/08/2017,-,29.5,17.0,0.0
04/08/2017,-,30.0,17.5,0.0
05/08/2017,-,19.5,18.5,2.2
06/08/2017,-,21.0,14.5,0.0
07/08/2017,-,27.5,14.5,2.3
08/08/2017,-,18.0,13.0,0.7
09/08/2017,-,17.5,11.0,2.5
10/08/2017,-,14.5,12.5,2.6
11/08/2017,-,18.0,11.0,0.0
12/08/2017,-,24.5,6.5,0.0
13/08/2017,-,26.5,12.0,0.0
14/08/2017,-,33.5,15.0,2.3
15/08/2017,-,24.0,16.5,0.6
16/08/2017,-,24.0,16.5,0.0
17/08/2017,-,27.5,9.5,0.0
18/08/2017,-,21.5,15.0,0.0
19/08/2017,-,21.0,15.5,0.0
20/08/2017,-,24.0,13.0,0.0
21/08/2017,-,33.5,8.5,0.0
22/08/2017,-,32.5,13.0,0.0
23/08/2017,-,26.0,16.0,0.0
24/08/2017,-,32.5,16.0,0.0
25/08/2017,-,33.0,15.0,0.0
26/08/2017,-,32.5,16.0,0.0
27/08/2017,-,24.5,19.0,5.3
28/08/2017,-,27.5,16.5,10.0
29/08/2017,-,27.0,14.0,0.0
30/08/2017,-,26.0,15.5,42.1
31/08/2017,-,18.0,13.0,0.0
01/09/2017,-,18.0,9.0,0.5
02/09/2017,-,19.5,11.5,0.0
03/09/2017,-,24.0,9.0,0.7
04/09/2017,-,22.5,10.0,0.0
05/09/2017,-,27.0,12.5,0.0
06/09/2017,-,17.5,14.0,1.3
07/09/2017,-,17.5,13.5,0.0
08/09/2017,-,24.5,6.5,4.6
09/09/2017,-,16.5,8.0,13.2
10/09/2017,-,18.0,11.5,3.2
11/09/2017,-,15.5,11.5,1.4
12/09/2017,-,20.5,12.0,0.0
13/09/2017,-,26.5,9.5,0.8
14/09/2017,-,14.5,10.0,1.9
15/09/2017,-,14.5,7.5,2.7
16/09/2017,-,14.5,6.5,0.0
17/09/2017,-,17.5,5.5,7.0
18/09/2017,-,14.0,6.5,4.2
19/09/2017,-,16.0,9.5,0.0
20/09/2017,-,23.5,2.5,0.0
21/09/2017,-,24.0,3.0,1.4
22/09/2017,-,20.0,6.5,0.0
23/09/2017,-,24.5,9.5,0.0
24/09/2017,-,27.5,10.0,0.0
25/09/2017,-,18.0,10.5,2.3
26/09/2017,-,20.5,13.0,0.0
27/09/2017,-,26.0,10.5,0.0
28/09/2017,-,27.0,9.5,0.0
29/09/2017,-,27.0,13.0,0.0
30/09/2017,-,14.5,12.0,0.4
01/10/2017,-,16.0,10.5,3.1
02/10/2017,-,20.0,12.5,1.2
03/10/2017,-,21.5,12.0,0.0
04/10/2017,-,24.0,12.5,0.0
05/10/2017,-,20.0,9.0,0.0
06/10/2017,-,17.5,9.0,0.0
07/10/2017,-,18.0,7.0,0.0
08/10/2017,-,21.0,2.5,0.0
09/10/2017,-,21.0,2.5,0.0
10/10/2017,-,24.0,2.5,0.0
11/10/2017,-,27.0,3.5,0.0
12/10/2017,-,25.5,4.5,0.0
13/10/2017,-,27.5,9.0,0.0
14/10/2017,-,26.0,10.0,0.0
15/10/2017,-,24.0,16.5,0.0
16/10/2017,-,24.0,16.5,0.0
17/10/2017,-,21.0,14.5,8.0
18/10/2017,-,16.0,15.0,16.3
19/10/2017,-,18.0,10.5,0.0
20/10/2017,-,22.0,7.5,3.9
21/10/2017,-,14.5,8.5,0.8
22/10/2017,-,11.5,10.0,0.7
23/10/2017,-,20.5,5.5,0.0
24/10/2017,-,23.0,2.0,0.0
25/10/2017,-,25.5,2.0,0.0
26/10/2017,-,26.5,3.5,0.0
27/10/2017,-,14.5,5.5,0.0
28/10/2017,-,13.5,6.0,0.0
29/10/2017,-,14.0,8.0,6.5
30/10/2017,-,12.0,8.0,3.0
31/10/2017,-,12.5,0.5,0.0
01/11/2017,-,17.5,10.5,0.0
02/11/2017,-,17.5,10.0,0.0
03/11/2017,-,18.0,13.5,0.0
04/11/2017,-,14.0,8.0,15.0
05/11/2017,-,10.0,7.5,19.0
06/11/2017,-,8.0,6.0,12.1
07/11/2017,-,11.0,-1.0,4.5
08/11/2017,-,6.0,5.0,19.9
09/11/2017,-,7.5,3.5,6.9
10/11/2017,-,10.5,3.5,12.6
11/11/2017,-,11.0,7.5,0.0
12/11/2017,-,13.0,8.5,11.9
13/11/2017,-,7.5,4.0,1.9
14/11/2017,-,8.0,1.5,0.0
15/11/2017,-,13.0,-2.0,0.0
16/11/2017,-,17.5,-2.0,0.0
17/11/2017,-,15.0,-1.5,0.0
18/11/2017,-,12.5,0.0,0.0
19/11/2017,-,13.5,-1.5,0.0
20/11/2017,-,14.5,2.5,0.0
21/11/2017,-,15.0,-3.0,0.0
22/11/2017,-,16.0,-2.5,0.0
23/11/2017,-,18.0,10.5,0.0
24/11/2017,-,14.5,11.0,13.9
25/11/2017,-,8.5,8.0,7.4
26/11/2017,-,8.0,3.5,0.3
27/11/2017,-,8.0,-1.0,0.0
28/11/2017,-,11.0,-4.0,2.3
29/11/2017,-,6.5,3.5,10.8
30/11/2017,-,4.5,1.0,25.3
01/12/2017,-,1.0,0.0,28.5
02/12/2017,-,1.5,-0.5,6.5
03/12/2017,-,2.0,-6.0,2.7
04/12/2017,-,4.5,1.5,1.2
05/12/2017,-,7.5,-3.5,0.0
06/12/2017,-,6.0,-3.5,0.0
07/12/2017,-,7.0,-3.0,2.1
08/12/2017,-,5.5,0.0,8.2
09/12/2017,-,9.5,3.0,7.0
10/12/2017,-,14.5,3.5,7.1
11/12/2017,-,10.0,3.5,4.7
12/12/2017,-,5.0,1.0,0.0
13/12/2017,-,8.0,-1.0,8.5
14/12/2017,-,11.5,4.5,6.2
15/12/2017,-,7.5,4.5,18.5
16/12/2017,-,4.0,2.5,23.0
17/12/2017,-,7.0,2.5,3.0
18/12/2017,-,8.0,0.5,8.2
19/12/2017,-,5.0,1.5,0.0
20/12/2017,-,8.0,2.0,0.0
21/12/2017,-,11.5,4.0,0.0
22/12/2017,-,6.5,2.5,3.3
23/12/2017,-,7.5,3.0,0.0
24/12/2017,-,8.5,1.5,0.4
25/12/2017,-,8.0,0.0,4.6
26/12/2017,-,7.0,0.5,17.2
27/12/2017,-,6.5,2.5,16.6
