Fecha, Temperatura media, Temperatura maxima, Temperatura minima, Precipitacion acumulada
01/01/2016,-,11.0,0.0,0.9
02/01/2016,-,9.0,0.5,1.9
03/01/2016,-,7.0,0.5,44.3
04/01/2016,-,8.0,6.5,9.9
05/01/2016,-,7.5,0.0,1.3
06/01/2016,-,13.5,0.0,7.3
07/01/2016,-,15.0,4.5,0.3
08/01/2016,-,16.5,9.5,4.1
09/01/2016,-,11.5,9.0,1.5
10/01/2016,-,13.0,9.0,6.5
11/01/2016,-,10.5,7.5,0.0
12/01/2016,-,7.5,3.5,1.4
13/01/2016,-,9.5,-2.5,14.3
14/01/2016,-,8.0,-2.5,9.3
15/01/2016,-,4.5,3.5,29.6
16/01/2016,-,4.5,0.5,3.4
17/01/2016,-,8.0,-2.0,1.5
18/01/2016,-,8.0,2.0,3.5
19/01/2016,-,7.5,3.5,0.0
20/01/2016,-,11.0,-1.0,0.0
21/01/2016,-,11.5,-1.5,0.0
22/01/2016,-,11.0,-1.5,0.6
23/01/2016,-,14.5,5.0,0.4
24/01/2016,-,14.5,5.0,0.0
25/01/2016,-,14.0,7.0,0.0
26/01/2016,-,11.5,6.5,0.0
27/01/2016,-,11.0,5.0,0.0
28/01/2016,-,8.5,6.5,8.6
29/01/2016,-,7.0,6.5,0.9
30/01/2016,-,11.0,0.0,0.2
31/01/2016,-,11.5,0.5,0.6
01/02/2016,-,11.0,7.5,0.0
02/02/2016,-,8.5,5.0,2.9
03/02/2016,-,7.5,5.5,12.1
04/02/2016,-,8.0,3.0,0.0
05/02/2016,-,12.5,-1.0,0.0
06/02/2016,-,11.5,0.0,10.3
07/02/2016,-,8.5,3.0,0.0
08/02/2016,-,14.0,3.0,0.0
09/02/2016,-,13.0,9.5,28.1
10/02/2016,-,5.5,5.0,22.9
11/02/2016,-,11.0,5.0,9.1
12/02/2016,-,12.0,5.5,24.7
13/02/2016,-,17.5,9.5,14.0
14/02/2016,-,8.0,3.0,19.0
15/02/2016,-,2.5,0.5,24.5
16/02/2016,-,4.0,0.5,0.0
17/02/2016,-,6.5,-4.0,2.9
18/02/2016,-,5.0,-3.5,4.8
19/02/2016,-,8.5,-1.0,0.0
20/02/2016,-,14.5,-3.5,0.0
21/02/2016,-,14.5,-3.0,0.0
22/02/2016,-,14.0,-0.5,0.0
23/02/2016,-,11.5,1.0,0.0
24/02/2016,-,12.0,0.5,2.0
25/02/2016,-,10.0,1.0,1.9
26/02/2016,-,11.5,4.0,52.9
27/02/2016,-,5.0,0.5,73.5
28/02/2016,-,4.5,1.0,28.9
29/02/2016,-,5.0,3.0,3.0
01/03/2016,-,11.5,3.5,0.2
02/03/2016,-,8.0,2.0,19.4
03/03/2016,-,6.0,4.0,3.1
04/03/2016,-,11.5,3.5,22.0
05/03/2016,-,4.5,1.5,19.4
06/03/2016,-,5.0,1.0,7.5
07/03/2016,-,6.0,1.0,15.8
08/03/2016,-,8.0,0.0,3.0
09/03/2016,-,6.0,0.0,49.0
10/03/2016,-,5.0,0.5,29.0
11/03/2016,-,5.0,1.0,3.3
12/03/2016,-,7.5,3.0,0.0
13/03/2016,-,10.0,3.0,3.0
14/03/2016,-,4.0,1.0,2.0
15/03/2016,-,11.5,0.0,0.0
16/03/2016,-,7.5,-0.5,4.6
17/03/2016,-,11.5,0.0,0.0
18/03/2016,-,11.5,-1.0,0.3
19/03/2016,-,8.5,5.0,16.8
20/03/2016,-,11.5,7.0,0.0
21/03/2016,-,11.5,2.5,0.0
22/03/2016,-,7.0,4.5,0.0
23/03/2016,-,7.0,5.0,0.0
24/03/2016,-,11.0,5.0,0.0
25/03/2016,-,11.0,0.0,0.0
26/03/2016,-,18.5,2.0,6.8
27/03/2016,-,14.0,5.0,0.0
28/03/2016,-,15.0,4.5,6.2
29/03/2016,-,17.0,9.0,1.9
30/03/2016,-,21.0,5.0,6.8
31/03/2016,-,7.5,6.0,38.0
01/04/2016,-,8.5,3.0,0.4
02/04/2016,-,15.0,-1.5,0.0
03/04/2016,-,15.0,5.0,2.6
04/04/2016,-,10.0,7.0,14.5
05/04/2016,-,9.0,6.5,4.5
06/04/2016,-,11.5,5.5,1.2
07/04/2016,-,8.0,6.5,16.5
08/04/2016,-,7.5,2.5,8.2
09/04/2016,-,11.0,2.5,1.5
10/04/2016,-,17.5,4.5,0.7
11/04/2016,-,14.0,4.5,4.5
12/04/2016,-,14.5,3.0,0.9
13/04/2016,-,16.5,3.0,0.0
14/04/2016,-,18.0,7.0,5.6
15/04/2016,-,21.0,9.0,0.6
16/04/2016,-,17.5,9.0,12.4
17/04/2016,-,14.5,5.5,0.0
18/04/2016,-,14.5,6.5,0.0
19/04/2016,-,15.0,5.0,3.3
20/04/2016,-,14.5,8.5,1.5
21/04/2016,-,17.0,9.0,0.0
22/04/2016,-,14.5,5.0,5.4
23/04/2016,-,14.0,5.0,6.5
24/04/2016,-,10.5,7.5,1.4
25/04/2016,-,11.5,4.5,0.0
26/04/2016,-,14.5,3.0,0.0
27/04/2016,-,11.5,6.0,0.0
28/04/2016,-,11.5,6.0,0.0
29/04/2016,-,17.5,2.0,1.3
30/04/2016,-,10.0,5.5,6.3
01/05/2016,-,11.0,4.5,0.0
02/05/2016,-,14.5,0.0,0.0
03/05/2016,-,14.5,6.0,0.0
04/05/2016,-,26.5,2.0,0.0
05/05/2016,-,24.0,8.5,0.0
06/05/2016,-,17.5,13.5,0.7
07/05/2016,-,17.0,12.0,9.4
08/05/2016,-,14.0,11.5,14.4
09/05/2016,-,18.0,12.0,13.4
10/05/2016,-,17.5,6.5,2.5
11/05/2016,-,18.0,8.5,0.0
12/05/2016,-,17.5,5.0,2.1
13/05/2016,-,13.5,7.5,6.0
14/05/2016,-,14.0,9.0,2.4
15/05/2016,-,14.0,10.5,0.7
16/05/2016,-,18.0,10.0,0.0
17/05/2016,-,20.0,9.0,0.0
18/05/2016,-,20.0,9.5,0.3
19/05/2016,-,14.0,10.0,0.0
20/05/2016,-,24.0,10.0,0.0
21/05/2016,-,27.0,9.5,5.0
22/05/2016,-,14.5,14.0,2.5
23/05/2016,-,17.5,4.0,0.0
24/05/2016,-,23.5,6.5,0.0
25/05/2016,-,22.5,10.0,0.0
26/05/2016,-,24.0,12.0,3.1
27/05/2016,-,24.0,13.0,1.8
28/05/2016,-,21.0,13.0,1.6
29/05/2016,-,17.5,11.0,2.3
30/05/2016,-,17.0,10.0,0.9
31/05/2016,-,17.5,11.5,0.3
01/06/2016,-,20.5,7.5,0.0
02/06/2016,-,21.5,11.0,0.0
03/06/2016,-,26.5,11.5,2.3
04/06/2016,-,18.0,15.0,0.0
05/06/2016,-,27.0,12.5,0.0
06/06/2016,-,24.0,13.0,3.5
07/06/2016,-,27.0,10.5,0.0
08/06/2016,-,27.5,12.5,0.0
09/06/2016,-,27.5,13.0,0.8
10/06/2016,-,18.0,15.5,0.2
11/06/2016,-,18.0,11.0,0.0
12/06/2016,-,23.5,8.0,0.0
13/06/2016,-,23.5,13.0,0.3
14/06/2016,-,21.5,12.5,9.7
15/06/2016,-,20.0,11.0,8.1
16/06/2016,-,14.5,9.5,5.9
17/06/2016,-,17.5,9.0,16.9
18/06/2016,-,14.5,8.5,0.8
19/06/2016,-,17.5,10.0,0.0
20/06/2016,-,26.5,7.5,0.0
21/06/2016,-,32.0,9.5,0.0
22/06/2016,-,32.5,16.0,0.0
23/06/2016,-,32.5,21.0,0.3
24/06/2016,-,18.0,17.0,9.3
25/06/2016,-,14.5,13.0,0.0
26/06/2016,-,17.5,12.5,0.0
27/06/2016,-,22.5,13.0,0.0
28/06/2016,-,27.0,13.5,0.0
29/06/2016,-,18.0,13.5,0.0
30/06/2016,-,26.5,11.0,0.0
01/07/2016,-,18.0,16.0,0.3
02/07/2016,-,16.0,14.5,0.7
03/07/2016,-,24.0,9.0,0.0
04/07/2016,-,27.0,15.0,6.0
05/07/2016,-,19.5,16.0,0.3
06/07/2016,-,27.0,16.0,2.8
07/07/2016,-,29.5,16.5,0.0
08/07/2016,-,24.0,19.0,0.0
09/07/2016,-,31.5,12.5,0.0
10/07/2016,-,30.0,15.0,0.0
11/07/2016,-,21.0,16.5,2.4
12/07/2016,-,18.0,13.5,0.6
13/07/2016,-,17.5,12.0,1.3
14/07/2016,-,18.0,8.0,0.0
15/07/2016,-,23.5,8.0,0.0
16/07/2016,-,27.0,8.5,0.0
17/07/2016,-,33.5,9.5,0.0
18/07/2016,-,33.5,16.0,0.0
19/07/2016,-,36.5,21.0,0.0
20/07/2016,-,24.0,20.0,0.8
21/07/2016,-,22.5,16.5,0.3
22/07/2016,-,17.5,16.0,4.7
23/07/2016,-,20.0,15.5,2.7
24/07/2016,-,20.5,15.5,0.0
25/07/2016,-,21.0,13.0,0.0
26/07/2016,-,25.5,17.0,0.4
27/07/2016,-,21.0,16.0,0.0
28/07/2016,-,26.5,16.0,0.0
29/07/2016,-,27.0,16.0,0.5
30/07/2016,-,25.0,16.5,0.7
31/07/2016,-,19.5,17.0,4.0
01/08/2016,-,22.5,14.0,0.0
02/08/2016,-,28.5,9.0,0.0
03/08/2016,-,29.0,11.0,0.0
04/08/2016,-,27.5,17.0,0.0
05/08/2016,-,23.5,16.0,0.0
06/08/2016,-,24.0,15.0,0.0
07/08/2016,-,27.0,15.0,0.0
08/08/2016,-,24.5,13.0,2.4
09/08/2016,-,20.0,16.0,0.3
10/08/2016,-,21.0,11.0,0.0
11/08/2016,-,21.0,12.5,0.0
12/08/2016,-,29.5,9.0,0.0
13/08/2016,-,33.5,11.5,0.0
14/08/2016,-,33.5,16.0,0.0
15/08/2016,-,33.5,19.0,0.9
16/08/2016,-,34.0,15.5,0.0
17/08/2016,-,25.0,19.0,0.4
18/08/2016,-,21.0,16.0,0.0
19/08/2016,-,30.0,11.0,3.4
20/08/2016,-,18.0,12.5,0.0
21/08/2016,-,21.5,9.5,0.0
22/08/2016,-,32.5,9.0,0.0
23/08/2016,-,35.5,13.0,0.0
24/08/2016,-,33.5,14.0,0.0
25/08/2016,-,33.5,19.0,0.0
26/08/2016,-,32.0,16.5,0.0
27/08/2016,-,33.5,16.0,0.0
28/08/2016,-,21.0,18.5,2.6
29/08/2016,-,18.0,15.0,0.0
30/08/2016,-,23.0,15.5,0.0
31/08/2016,-,24.0,11.0,0.0
01/09/2016,-,29.0,12.0,0.0
02/09/2016,-,32.5,13.0,0.0
03/09/2016,-,34.0,15.0,0.0
04/09/2016,-,30.5,13.5,0.0
05/09/2016,-,27.5,12.5,0.0
06/09/2016,-,30.5,12.0,0.0
07/09/2016,-,33.5,12.0,0.0
08/09/2016,-,18.0,13.5,1.1
09/09/2016,-,22.0,15.0,0.0
10/09/2016,-,26.5,12.0,0.0
11/09/2016,-,30.0,11.0,0.0
12/09/2016,-,32.0,14.0,0.0
13/09/2016,-,27.0,20.5,8.8
14/09/2016,-,18.0,9.0,1.9
15/09/2016,-,17.5,7.5,27.3
16/09/2016,-,18.0,10.0,8.7
17/09/2016,-,14.5,12.0,10.8
18/09/2016,-,14.5,10.5,3.8
19/09/2016,-,14.5,10.5,3.9
20/09/2016,-,18.0,11.0,0.0
21/09/2016,-,23.0,8.5,0.0
22/09/2016,-,23.0,8.5,0.0
23/09/2016,-,21.5,14.5,0.0
24/09/2016,-,24.0,12.5,0.0
25/09/2016,-,17.5,15.5,0.7
26/09/2016,-,23.0,9.5,0.0
27/09/2016,-,18.0,7.5,2.8
28/09/2016,-,24.0,11.5,0.0
29/09/2016,-,27.5,11.5,0.0
30/09/2016,-,24.5,11.0,2.9
01/10/2016,-,17.5,13.0,0.5
02/10/2016,-,20.5,9.0,0.0
03/10/2016,-,24.0,9.5,0.0
04/10/2016,-,27.0,13.5,0.0
05/10/2016,-,17.5,13.0,0.0
06/10/2016,-,20.5,13.5,0.0
07/10/2016,-,21.0,6.5,0.0
08/10/2016,-,14.5,6.5,0.0
09/10/2016,-,14.5,8.5,0.0
10/10/2016,-,15.0,3.0,0.0
11/10/2016,-,17.0,0.0,0.0
12/10/2016,-,14.5,0.5,3.2
13/10/2016,-,14.5,11.5,9.7
14/10/2016,-,14.0,11.0,0.3
15/10/2016,-,19.0,3.5,0.0
16/10/2016,-,17.5,4.0,0.0
17/10/2016,-,18.0,12.5,2.5
18/10/2016,-,18.0,11.5,0.0
19/10/2016,-,17.0,3.5,0.0
20/10/2016,-,11.5,4.0,0.0
21/10/2016,-,14.5,0.0,0.0
22/10/2016,-,15.5,0.5,0.0
23/10/2016,-,17.5,10.5,2.6
24/10/2016,-,17.5,12.5,0.2
25/10/2016,-,21.0,11.0,1.1
26/10/2016,-,21.0,11.0,0.0
27/10/2016,-,21.0,8.0,0.0
28/10/2016,-,23.0,0.5,0.0
29/10/2016,-,21.5,1.0,0.0
30/10/2016,-,24.0,1.5,0.0
31/10/2016,-,21.0,1.0,0.0
01/11/2016,-,18.0,1.0,0.0
02/11/2016,-,21.5,5.0,0.0
03/11/2016,-,21.0,1.5,0.0
04/11/2016,-,13.5,2.0,18.7
05/11/2016,-,11.5,9.0,22.0
06/11/2016,-,8.0,5.5,5.5
07/11/2016,-,7.0,3.0,15.0
08/11/2016,-,8.0,2.5,16.2
09/11/2016,-,10.0,2.5,0.5
10/11/2016,-,11.5,7.0,0.0
11/11/2016,-,11.0,7.0,1.6
12/11/2016,-,11.5,4.5,5.8
13/11/2016,-,11.5,5.0,4.9
14/11/2016,-,11.0,7.5,0.0
15/11/2016,-,10.0,5.5,0.0
16/11/2016,-,14.5,0.0,0.0
17/11/2016,-,17.5,0.5,0.0
18/11/2016,-,11.5,5.5,0.3
19/11/2016,-,11.5,6.0,0.7
20/11/2016,-,11.0,6.5,1.6
21/11/2016,-,14.0,10.0,4.6
22/11/2016,-,8.0,2.0,31.8
23/11/2016,-,4.0,1.5,46.0
24/11/2016,-,8.0,1.0,0.0
25/11/2016,-,8.0,-1.0,0.0
26/11/2016,-,10.0,0.0,0.8
27/11/2016,-,14.5,7.0,0.0
28/11/2016,-,8.0,0.0,0.0
29/11/2016,-,11.0,3.5,0.0
30/11/2016,-,10.5,6.0,0.0
01/12/2016,-,14.5,7.0,0.0
02/12/2016,-,11.0,1.5,0.0
03/12/2016,-,11.0,-0.5,0.0
04/12/2016,-,11.5,1.0,0.7
05/12/2016,-,14.5,10.0,0.0
06/12/2016,-,11.5,2.0,0.0
07/12/2016,-,10.0,0.5,0.0
08/12/2016,-,11.5,1.5,0.0
09/12/2016,-,14.5,6.0,0.0
10/12/2016,-,5.0,1.0,0.6
11/12/2016,-,13.5,2.5,0.0
12/12/2016,-,14.5,1.5,0.0
13/12/2016,-,12.5,-0.5,0.0
14/12/2016,-,9.5,2.0,0.0
15/12/2016,-,10.5,2.5,0.0
16/12/2016,-,10.0,2.5,0.9
17/12/2016,-,11.0,2.5,0.0
18/12/2016,-,6.0,1.5,0.0
19/12/2016,-,6.5,-2.5,3.1
20/12/2016,-,6.5,-2.5,5.1
21/12/2016,-,7.5,4.5,3.0
22/12/2016,-,8.0,6.0,2.9
23/12/2016,-,11.5,6.5,1.6
24/12/2016,-,9.5,7.5,0.7
25/12/2016,-,8.0,4.0,0.0
26/12/2016,-,7.5,0.5,0.0
27/12/2016,-,10.0,-0.5,0.0
