Fecha, Temperatura media, Temperatura maxima, Temperatura minima, Precipitacion acumulada
01/01/2019,5.4,15.7,-3.3,0.2
02/01/2019,6.1,10.6,2.6,0.0
03/01/2019,2.1,10.8,-4.7,0.0
04/01/2019,1.7,13.7,-5.9,0.2
05/01/2019,4.5,15.8,-6.5,0.0
06/01/2019,7.3,13.5,2.6,0.0
07/01/2019,4.3,8.1,2.0,0.0
08/01/2019,6.6,10.8,3.1,0.0
09/01/2019,8.3,11.7,4.9,0.0
10/01/2019,4.0,6.6,0.3,0.0
11/01/2019,3.9,7.6,0.5,0.0
12/01/2019,7.6,10.4,4.4,0.0
13/01/2019,9.4,12.2,7.7,0.0
14/01/2019,9.6,13.2,6.6,0.0
15/01/2019,6.1,13.7,-0.2,0.0
16/01/2019,2.1,4.7,-3.5,0.0
17/01/2019,5.0,11.7,0.0,0.4
18/01/2019,3.8,9.4,-2.0,0.0
19/01/2019,4.5,10.3,-2.3,4.6
20/01/2019,6.6,10.5,3.8,1.8
21/01/2019,5.7,8.9,0.5,0.0
22/01/2019,5.0,7.7,-0.2,0.2
23/01/2019,7.9,10.2,5.7,0.6
24/01/2019,5.4,7.5,3.9,1.0
25/01/2019,10.1,14.1,3.9,0.0
26/01/2019,9.0,14.6,1.4,0.0
27/01/2019,6.1,11.1,-0.8,0.8
28/01/2019,7.6,11.7,5.3,1.4
29/01/2019,7.1,9.8,5.2,1.0
30/01/2019,6.6,11.4,2.3,2.2
31/01/2019,8.8,15.4,4.5,4.0
01/02/2019,8.5,13.9,2.2,1.6
02/02/2019,4.1,7.2,1.2,12.6
03/02/2019,3.9,7.6,1.1,2.4
04/02/2019,6.6,11.8,2.1,0.0
05/02/2019,9.8,16.2,4.2,0.0
06/02/2019,7.7,17.7,-0.2,0.2
07/02/2019,6.7,15.0,-0.7,0.0
08/02/2019,5.2,14.7,-2.1,0.2
09/02/2019,7.6,15.6,-0.8,0.0
10/02/2019,9.5,15.7,4.2,0.2
11/02/2019,7.6,11.7,4.1,0.2
12/02/2019,5.8,14.5,-1.4,0.0
13/02/2019,4.9,15.0,-3.6,0.0
14/02/2019,7.0,14.3,1.5,0.0
15/02/2019,5.3,14.4,-2.3,0.2
16/02/2019,5.9,16.4,-3.1,0.0
17/02/2019,7.6,17.3,-3.5,0.0
18/02/2019,6.8,15.0,-1.5,0.0
19/02/2019,6.1,13.8,-1.4,0.2
20/02/2019,5.5,14.3,-0.3,0.0
21/02/2019,6.0,17.6,-2.0,0.2
22/02/2019,7.4,21.4,-2.6,0.0
23/02/2019,10.5,22.9,-2.9,0.0
24/02/2019,8.9,18.1,-0.3,0.0
25/02/2019,7.6,19.2,-1.9,0.0
26/02/2019,8.9,21.5,-2.2,0.0
27/02/2019,9.3,23.7,-2.3,0.0
28/02/2019,11.7,18.3,2.8,0.0
01/03/2019,10.1,18.3,1.9,0.0
02/03/2019,11.5,20.2,3.0,0.0
03/03/2019,11.2,20.6,0.2,0.0
04/03/2019,12.6,18.8,5.9,0.0
05/03/2019,11.2,19.7,0.4,0.0
06/03/2019,12.0,19.5,4.8,0.2
07/03/2019,9.7,16.5,2.4,0.0
08/03/2019,8.6,15.9,1.8,0.0
09/03/2019,9.9,19.9,-0.1,0.0
10/03/2019,10.9,20.0,1.3,0.2
11/03/2019,10.3,15.9,1.4,0.0
12/03/2019,9.0,19.1,-3.1,0.0
13/03/2019,9.0,13.6,6.1,0.0
14/03/2019,9.8,14.9,4.2,0.0
15/03/2019,9.3,18.6,-0.2,0.0
16/03/2019,10.1,24.3,-2.3,0.0
17/03/2019,8.5,16.7,0.0,0.0
18/03/2019,8.5,14.3,3.4,0.0
19/03/2019,8.5,14.0,4.8,0.0
20/03/2019,9.5,15.8,4.2,0.0
21/03/2019,7.8,17.4,-2.3,0.0
22/03/2019,8.2,20.1,-3.1,0.0
23/03/2019,10.6,23.2,-1.2,0.0
24/03/2019,12.8,24.2,0.0,0.0
25/03/2019,12.0,16.7,7.8,10.8
26/03/2019,12.9,21.3,7.8,0.0
27/03/2019,12.0,20.9,1.2,0.0
28/03/2019,12.0,19.5,3.6,0.0
29/03/2019,10.9,20.5,-0.7,0.0
30/03/2019,11.3,19.6,1.8,0.0
31/03/2019,9.9,15.7,0.6,2.4
01/04/2019,11.0,16.1,7.6,2.2
02/04/2019,12.2,19.6,5.3,0.2
03/04/2019,7.7,11.8,-0.4,2.8
04/04/2019,7.3,15.0,-3.2,0.0
05/04/2019,8.6,13.3,4.6,5.8
06/04/2019,8.0,14.6,0.6,0.8
07/04/2019,10.6,16.5,5.8,3.0
08/04/2019,11.7,18.1,5.1,0.0
09/04/2019,9.4,17.8,1.3,5.4
10/04/2019,9.6,16.3,3.9,0.0
11/04/2019,9.9,14.5,5.9,0.0
12/04/2019,11.1,17.2,4.9,0.0
13/04/2019,12.0,23.7,-0.9,0.0
14/04/2019,13.9,24.8,2.9,0.0
15/04/2019,13.8,21.9,6.6,7.0
16/04/2019,14.0,20.8,7.3,0.2
17/04/2019,14.7,21.7,9.2,0.0
18/04/2019,14.5,20.1,8.6,0.2
19/04/2019,14.0,20.5,9.5,3.6
20/04/2019,14.3,22.6,3.6,0.0
21/04/2019,12.2,15.7,9.3,0.0
22/04/2019,13.5,20.0,5.1,0.2
23/04/2019,12.6,18.8,7.4,0.6
24/04/2019,10.3,13.8,6.7,13.8
25/04/2019,12.3,18.5,6.7,2.6
26/04/2019,13.0,18.4,4.4,1.4
27/04/2019,11.9,19.8,2.9,0.0
28/04/2019,13.3,21.3,3.7,0.0
29/04/2019,15.5,24.4,6.5,0.0
30/04/2019,15.9,24.1,6.8,0.0
01/05/2019,13.9,24.6,2.9,0.0
02/05/2019,12.9,18.6,5.7,0.0
03/05/2019,10.1,16.0,5.3,1.8
04/05/2019,12.2,18.7,5.8,0.2
05/05/2019,10.0,16.4,4.4,0.0
06/05/2019,13.0,23.6,1.2,0.0
07/05/2019,17.6,26.6,6.6,0.0
08/05/2019,19.1,25.0,8.2,0.0
09/05/2019,15.6,22.2,6.6,0.4
10/05/2019,19.0,27.9,11.7,0.0
11/05/2019,15.4,21.5,8.9,0.0
12/05/2019,14.6,21.7,6.9,0.0
13/05/2019,16.4,23.5,10.0,0.0
14/05/2019,17.2,28.2,3.8,0.0
15/05/2019,19.2,28.5,7.3,0.0
16/05/2019,16.2,26.3,7.6,22.4
17/05/2019,10.5,13.8,7.1,25.8
18/05/2019,11.2,16.3,6.3,1.6
19/05/2019,11.6,16.4,6.1,1.0
20/05/2019,12.9,20.2,3.7,0.0
21/05/2019,14.4,22.9,4.0,0.0
22/05/2019,16.5,25.8,5.5,0.0
23/05/2019,16.7,26.0,7.6,1.0
24/05/2019,14.6,18.5,11.7,7.2
25/05/2019,15.1,20.4,12.2,0.0
26/05/2019,15.2,20.4,11.2,0.0
27/05/2019,16.1,21.9,11.5,0.0
28/05/2019,14.0,18.7,10.1,0.0
29/05/2019,17.2,20.9,12.4,0.0
30/05/2019,19.5,29.1,8.9,0.0
31/05/2019,20.1,30.7,8.5,0.0
01/06/2019,22.8,32.1,14.3,0.0
02/06/2019,24.6,33.3,14.5,0.0
03/06/2019,24.1,32.0,16.5,0.0
04/06/2019,21.6,33.7,13.4,1.0
05/06/2019,13.4,18.7,9.0,13.8
06/06/2019,17.3,26.4,7.8,0.0
07/06/2019,16.8,22.9,9.3,0.0
08/06/2019,17.5,26.6,5.3,0.0
09/06/2019,18.9,28.3,12.3,0.0
10/06/2019,15.1,20.0,11.5,0.0
11/06/2019,12.7,18.7,6.4,1.6
12/06/2019,14.3,23.4,3.9,0.0
13/06/2019,19.0,28.0,6.1,0.0
14/06/2019,18.3,28.4,11.9,0.0
15/06/2019,18.0,25.0,11.1,0.0
16/06/2019,19.5,29.9,8.0,0.0
17/06/2019,23.6,33.8,10.2,0.0
18/06/2019,26.7,34.8,18.4,0.0
19/06/2019,22.7,30.1,11.7,0.0
20/06/2019,18.8,25.4,14.8,3.6
21/06/2019,18.0,23.4,12.5,1.4
22/06/2019,20.7,31.1,8.4,0.0
23/06/2019,27.4,35.8,18.9,0.0
24/06/2019,26.7,34.0,20.6,0.0
25/06/2019,26.6,35.6,17.5,0.0
26/06/2019,28.8,38.1,19.5,0.0
27/06/2019,29.0,39.9,15.3,0.0
28/06/2019,29.7,41.5,16.2,0.0
29/06/2019,30.1,42.4,15.1,0.0
30/06/2019,28.2,40.9,16.4,0.0
01/07/2019,22.5,31.2,17.7,0.2
02/07/2019,23.6,32.9,17.2,0.0
03/07/2019,26.3,35.9,17.5,0.0
04/07/2019,28.4,36.3,18.8,0.0
05/07/2019,28.0,37.1,18.5,0.0
06/07/2019,26.8,38.2,16.7,0.0
07/07/2019,25.4,35.6,18.1,0.0
08/07/2019,21.8,30.9,16.8,25.4
09/07/2019,19.6,25.1,15.2,0.0
10/07/2019,22.5,30.7,15.6,0.0
11/07/2019,24.4,34.3,13.9,0.0
12/07/2019,25.8,35.6,15.4,0.0
13/07/2019,24.5,32.4,17.9,2.0
14/07/2019,22.5,28.2,17.6,5.0
15/07/2019,22.1,28.4,16.7,0.0
16/07/2019,23.0,31.4,13.7,0.0
17/07/2019,22.5,30.1,16.3,4.4
18/07/2019,21.9,28.7,15.1,0.0
19/07/2019,24.6,34.1,12.0,0.0
20/07/2019,26.2,35.4,17.8,0.0
21/07/2019,26.4,35.5,17.5,0.0
22/07/2019,28.9,38.6,18.1,0.0
23/07/2019,30.2,39.0,19.9,0.0
24/07/2019,28.6,39.4,17.2,0.0
25/07/2019,29.6,38.2,23.1,0.6
26/07/2019,22.3,27.0,18.5,0.6
27/07/2019,19.0,22.0,15.1,0.0
28/07/2019,19.6,26.3,12.6,0.0
29/07/2019,21.5,33.6,10.7,0.0
30/07/2019,19.7,25.9,14.6,0.0
31/07/2019,20.7,30.1,11.6,0.0
01/08/2019,22.5,31.1,16.4,0.8
02/08/2019,23.7,32.3,16.2,0.0
03/08/2019,25.4,35.9,13.5,0.0
04/08/2019,25.7,35.5,17.9,0.0
05/08/2019,24.9,34.2,16.6,0.0
06/08/2019,25.0,34.4,15.3,0.0
07/08/2019,25.3,31.4,19.3,0.0
08/08/2019,27.5,36.5,17.6,0.0
09/08/2019,27.0,36.3,18.4,3.4
10/08/2019,22.1,30.0,14.1,0.2
11/08/2019,21.4,27.8,16.7,0.0
12/08/2019,18.7,24.7,14.6,0.0
13/08/2019,18.8,25.1,13.4,0.0
14/08/2019,20.9,32.4,8.8,0.0
15/08/2019,21.6,27.7,15.7,0.0
16/08/2019,21.5,34.3,8.4,0.0
17/08/2019,26.1,36.7,14.6,0.0
18/08/2019,25.1,33.8,18.2,0.0
19/08/2019,19.5,24.4,15.8,3.2
20/08/2019,19.2,25.6,14.6,1.8
21/08/2019,20.4,28.5,12.8,0.0
22/08/2019,21.9,31.4,12.5,0.0
23/08/2019,21.4,33.3,8.5,0.0
24/08/2019,24.7,34.2,14.8,0.0
25/08/2019,26.0,34.9,18.5,0.0
26/08/2019,23.6,30.6,16.8,7.0
27/08/2019,21.4,28.7,16.7,1.2
28/08/2019,22.5,32.1,13.9,0.2
29/08/2019,23.9,33.5,15.1,0.0
30/08/2019,25.0,34.5,15.6,0.0
31/08/2019,25.6,34.5,16.8,0.0
01/09/2019,21.7,28.1,17.5,0.0
02/09/2019,18.9,24.7,13.4,0.0
03/09/2019,20.4,29.8,13.4,0.0
04/09/2019,18.7,28.9,8.6,2.2
05/09/2019,18.1,22.6,14.1,0.0
06/09/2019,17.2,22.4,12.8,0.0
07/09/2019,17.7,25.4,12.2,0.0
08/09/2019,17.9,24.8,9.3,0.0
09/09/2019,16.3,25.2,4.3,0.0
10/09/2019,16.0,19.9,12.6,0.2
11/09/2019,19.2,25.1,14.8,0.0
12/09/2019,19.9,29.4,12.4,0.0
13/09/2019,18.6,27.2,10.0,0.0
14/09/2019,20.5,28.6,12.0,2.4
15/09/2019,19.4,26.0,15.5,8.8
16/09/2019,21.4,28.8,15.1,0.0
17/09/2019,22.2,30.9,15.0,0.0
18/09/2019,21.8,28.4,18.2,2.8
19/09/2019,19.7,28.0,12.7,0.0
20/09/2019,21.4,29.3,15.8,1.8
21/09/2019,21.1,26.7,17.1,3.6
22/09/2019,19.2,24.6,10.4,0.0
23/09/2019,16.3,25.3,8.5,0.0
24/09/2019,19.0,28.0,9.8,0.0
25/09/2019,17.5,23.7,11.2,0.0
26/09/2019,18.1,28.9,8.6,0.0
27/09/2019,18.9,28.7,8.8,0.0
28/09/2019,19.1,28.3,10.6,0.0
29/09/2019,19.5,30.4,9.5,0.0
30/09/2019,19.4,29.8,9.6,0.0
01/10/2019,19.1,27.3,10.6,0.0
02/10/2019,17.2,22.0,13.5,0.0
03/10/2019,17.2,26.3,10.0,0.0
04/10/2019,17.3,26.4,7.4,0.0
05/10/2019,18.9,26.3,12.2,0.0
06/10/2019,17.2,23.4,12.3,0.0
07/10/2019,17.8,26.0,11.1,0.0
08/10/2019,18.7,28.9,7.8,0.0
09/10/2019,16.6,22.6,7.5,0.0
10/10/2019,13.9,23.3,4.2,0.0
11/10/2019,19.1,27.2,10.0,0.0
12/10/2019,21.9,28.7,18.5,0.0
13/10/2019,22.0,28.8,17.3,0.0
14/10/2019,17.9,23.7,9.6,0.4
15/10/2019,12.6,19.7,6.9,0.6
16/10/2019,15.2,22.3,8.7,0.2
17/10/2019,16.8,23.3,12.1,0.2
18/10/2019,16.3,20.1,13.2,0.2
19/10/2019,17.3,21.0,13.2,0.2
20/10/2019,13.3,18.5,8.2,0.2
21/10/2019,9.9,17.1,3.7,0.2
22/10/2019,8.3,10.9,3.2,0.2
23/10/2019,12.0,15.7,9.7,0.2
24/10/2019,12.5,16.6,7.6,0.4
25/10/2019,12.2,22.2,4.7,0.4
26/10/2019,13.5,22.6,5.2,0.2
27/10/2019,13.9,21.5,5.8,0.6
28/10/2019,14.7,21.4,10.1,0.2
29/10/2019,14.0,22.0,7.8,0.0
30/10/2019,14.3,21.4,6.5,0.0
31/10/2019,16.1,21.4,11.0,0.0
01/11/2019,15.9,21.9,11.4,0.2
02/11/2019,15.6,20.1,11.3,1.2
03/11/2019,14.1,18.0,9.9,1.0
04/11/2019,13.7,21.1,5.6,6.0
05/11/2019,9.1,14.8,2.5,1.8
06/11/2019,11.3,15.3,7.5,0.0
07/11/2019,8.7,13.3,2.5,7.0
08/11/2019,6.3,11.3,1.1,14.8
09/11/2019,9.1,12.2,7.0,10.4
10/11/2019,6.0,8.5,4.6,7.6
11/11/2019,6.9,11.0,4.5,3.2
12/11/2019,9.1,13.1,5.7,0.6
13/11/2019,9.2,14.0,5.9,3.8
14/11/2019,6.7,11.0,4.5,6.0
15/11/2019,4.5,8.4,0.6,1.0
16/11/2019,4.3,8.3,0.5,0.0
17/11/2019,6.9,10.0,4.5,3.6
18/11/2019,6.6,9.6,4.1,0.0
19/11/2019,5.3,11.3,1.3,0.0
20/11/2019,4.9,9.9,-0.5,1.6
21/11/2019,6.0,11.4,2.6,0.2
22/11/2019,7.8,11.7,4.5,4.0
23/11/2019,8.5,11.7,6.6,2.0
24/11/2019,8.2,11.6,5.4,1.2
25/11/2019,10.4,15.9,5.0,0.0
26/11/2019,10.9,16.9,3.4,0.4
27/11/2019,10.8,15.3,5.3,1.6
28/11/2019,10.1,16.1,3.7,0.2
29/11/2019,-,-,-,-
30/11/2019,-,-,-,-
01/12/2019,-,-,-,-
02/12/2019,-,-,-,-
03/12/2019,-,-,-,-
04/12/2019,-,-,-,-
05/12/2019,-,-,-,-
06/12/2019,-,-,-,-
07/12/2019,-,-,-,-
08/12/2019,-,-,-,-
09/12/2019,-,-,-,-
10/12/2019,-,-,-,-
11/12/2019,-,-,-,-
12/12/2019,-,-,-,-
13/12/2019,-,-,-,-
14/12/2019,-,-,-,-
15/12/2019,-,-,-,-
16/12/2019,-,-,-,-
17/12/2019,-,-,-,-
18/12/2019,-,-,-,-
19/12/2019,-,-,-,-
20/12/2019,-,-,-,-
21/12/2019,-,-,-,-
22/12/2019,-,-,-,-
23/12/2019,-,-,-,-
24/12/2019,-,-,-,-
25/12/2019,-,-,-,-
26/12/2019,-,-,-,-
27/12/2019,-,-,-,-
28/12/2019,-,-,-,-
29/12/2019,-,-,-,-
30/12/2019,-,-,-,-
31/12/2019,-,-,-,-
