Fecha, Temperatura media, Temperatura maxima, Temperatura minima, Precipitacion acumulada
01/01/2013,7.1,12.2,2.6,0.0
02/01/2013,7.3,9.5,5.1,0.0
03/01/2013,6.4,13.2,-1.4,0.0
04/01/2013,3.4,13.9,-3.6,0.0
05/01/2013,8.8,18.4,-1.7,0.0
06/01/2013,9.4,17.7,0.6,0.0
07/01/2013,3.7,14.4,-2.8,0.0
08/01/2013,4.4,11.8,-3.0,0.0
09/01/2013,4.3,10.1,-0.1,0.0
10/01/2013,10.0,14.6,4.9,0.0
11/01/2013,4.6,11.5,-1.7,0.0
12/01/2013,3.4,10.7,-2.7,0.0
13/01/2013,5.2,8.7,2.9,0.0
14/01/2013,5.5,8.3,3.9,0.0
15/01/2013,6.5,8.7,4.5,0.0
16/01/2013,8.5,12.4,5.0,0.0
17/01/2013,6.7,10.3,4.3,0.0
18/01/2013,7.6,13.0,4.1,0.0
19/01/2013,10.4,14.0,6.0,0.0
20/01/2013,6.4,9.5,4.6,0.0
21/01/2013,5.2,9.4,-0.2,0.0
22/01/2013,2.5,5.7,-2.0,0.0
23/01/2013,4.3,8.1,-2.0,0.0
24/01/2013,5.3,9.1,2.8,0.0
25/01/2013,5.5,10.7,0.1,0.0
26/01/2013,8.3,12.2,0.6,0.0
27/01/2013,5.2,9.5,1.2,0.0
28/01/2013,6.7,11.9,-0.6,0.0
29/01/2013,4.4,12.7,-1.4,0.0
30/01/2013,4.4,11.1,0.1,0.2
31/01/2013,8.1,18.3,0.8,0.0
01/02/2013,8.1,14.2,2.6,1.8
02/02/2013,5.5,9.5,2.9,17.2
03/02/2013,4.5,8.2,1.7,0.0
04/02/2013,9.3,13.7,3.6,0.0
05/02/2013,10.6,14.4,5.1,0.4
06/02/2013,4.8,7.7,2.1,10.0
07/02/2013,3.8,7.0,0.7,6.8
08/02/2013,4.4,7.3,2.1,5.0
09/02/2013,5.3,9.0,1.8,0.4
10/02/2013,4.6,10.4,-0.9,2.4
11/02/2013,5.0,8.0,0.7,0.0
12/02/2013,4.9,9.1,1.2,10.4
13/02/2013,7.9,10.5,4.8,0.0
14/02/2013,9.1,12.5,4.4,0.0
15/02/2013,7.5,13.0,1.7,0.0
16/02/2013,4.9,12.6,-2.4,0.0
17/02/2013,4.1,9.9,-1.5,0.2
18/02/2013,8.3,14.2,4.5,1.0
19/02/2013,9.2,11.4,7.6,0.0
20/02/2013,9.6,14.6,5.6,0.0
21/02/2013,10.7,14.8,7.9,0.8
22/02/2013,7.2,9.9,2.2,0.4
23/02/2013,1.0,3.1,-1.1,0.2
24/02/2013,2.1,4.8,-0.8,0.0
25/02/2013,2.0,5.1,-0.2,0.0
26/02/2013,2.4,4.7,-1.4,0.2
27/02/2013,2.4,8.9,-4.3,0.0
28/02/2013,4.9,9.9,0.7,1.2
01/03/2013,7.4,12.9,4.3,0.8
02/03/2013,6.7,12.7,2.2,0.0
03/03/2013,7.0,14.7,-1.0,0.0
04/03/2013,8.6,11.5,2.5,1.6
05/03/2013,10.9,12.1,9.6,5.6
06/03/2013,12.3,17.8,8.0,0.2
07/03/2013,13.1,18.4,7.9,0.8
08/03/2013,11.3,18.1,4.2,1.2
09/03/2013,10.6,17.5,4.0,0.4
10/03/2013,-,-,-,-
11/03/2013,-,-,-,-
12/03/2013,-,-,-,-
13/03/2013,-,-,-,-
14/03/2013,-,-,-,-
15/03/2013,-,-,-,-
16/03/2013,-,-,-,-
17/03/2013,-,-,-,-
18/03/2013,-,-,-,-
19/03/2013,-,-,-,-
20/03/2013,-,-,-,-
21/03/2013,-,-,-,-
22/03/2013,-,-,-,-
23/03/2013,-,-,-,-
24/03/2013,-,-,-,-
25/03/2013,-,-,-,-
26/03/2013,-,-,-,-
27/03/2013,-,-,-,-
28/03/2013,-,-,-,-
29/03/2013,-,-,-,-
30/03/2013,-,-,-,-
31/03/2013,-,-,-,-
01/04/2013,9.9,13.6,7.2,11.4
02/04/2013,9.5,14.7,5.9,0.6
03/04/2013,9.6,15.3,2.8,5.7
04/04/2013,8.3,13.7,4.1,1.4
05/04/2013,4.8,8.7,1.6,0.6
06/04/2013,4.3,8.4,0.7,3.7
07/04/2013,7.7,11.9,3.4,0.0
08/04/2013,10.1,15.1,5.3,0.0
09/04/2013,11.4,16.5,5.9,0.0
10/04/2013,13.0,20.6,4.5,0.0
11/04/2013,13.9,19.8,7.4,1.2
12/04/2013,12.1,19.1,3.5,0.0
13/04/2013,14.2,21.3,5.0,0.0
14/04/2013,16.8,23.4,10.5,0.0
15/04/2013,16.9,24.1,10.9,0.0
16/04/2013,17.4,24.5,10.1,0.0
17/04/2013,18.9,26.5,11.2,0.0
18/04/2013,13.1,19.5,8.2,0.0
19/04/2013,9.6,14.1,5.1,0.6
20/04/2013,9.4,15.7,4.0,0.0
21/04/2013,9.5,16.2,2.2,0.0
22/04/2013,9.8,15.1,5.8,0.0
23/04/2013,12.0,19.8,3.7,0.0
24/04/2013,14.4,21.4,7.1,0.0
25/04/2013,13.5,20.2,5.5,2.0
26/04/2013,12.4,15.2,8.5,1.8
27/04/2013,6.6,10.9,2.7,7.5
28/04/2013,6.1,11.1,2.4,5.5
29/04/2013,7.0,10.3,5.2,11.8
30/04/2013,8.4,13.7,5.3,8.3
01/05/2013,10.2,15.7,6.0,0.6
02/05/2013,9.2,13.1,6.8,1.8
03/05/2013,10.0,15.5,4.1,0.0
04/05/2013,12.1,20.3,5.1,0.0
05/05/2013,13.7,21.1,6.9,0.0
06/05/2013,15.9,24.4,6.4,0.0
07/05/2013,17.5,21.9,12.4,0.0
08/05/2013,17.2,21.4,13.2,0.2
09/05/2013,14.0,20.4,10.3,0.8
10/05/2013,12.2,16.7,7.0,0.2
11/05/2013,11.0,16.3,5.4,0.0
12/05/2013,10.8,15.7,5.7,0.0
13/05/2013,13.6,23.1,4.2,0.0
14/05/2013,13.3,18.0,7.3,1.2
15/05/2013,8.9,12.2,4.4,2.4
16/05/2013,7.9,14.0,3.2,3.3
17/05/2013,8.7,13.3,5.3,28.2
18/05/2013,8.3,13.4,4.8,11.6
19/05/2013,10.0,14.4,6.1,0.0
20/05/2013,9.8,15.9,3.9,0.0
21/05/2013,8.7,12.8,3.0,0.2
22/05/2013,12.5,16.5,8.9,0.0
23/05/2013,11.2,13.0,9.5,0.0
24/05/2013,10.7,16.1,5.5,0.2
25/05/2013,11.2,16.3,4.0,0.0
26/05/2013,10.7,20.9,-0.4,2.2
27/05/2013,13.3,18.9,9.8,4.8
28/05/2013,10.9,16.5,4.1,2.4
29/05/2013,9.0,16.9,1.1,5.6
30/05/2013,11.6,15.3,6.9,0.2
31/05/2013,12.6,17.3,10.3,0.0
01/06/2013,13.3,17.3,9.9,0.0
02/06/2013,13.9,19.4,8.6,0.0
03/06/2013,14.7,21.2,8.6,0.0
04/06/2013,16.3,25.9,4.4,0.0
05/06/2013,18.7,27.5,7.5,0.0
06/06/2013,19.2,27.8,13.1,0.4
07/06/2013,17.8,24.5,13.2,19.0
08/06/2013,13.5,16.5,11.6,19.6
09/06/2013,14.8,20.7,11.5,16.0
10/06/2013,14.8,20.7,11.5,16.0
11/06/2013,20.8,27.5,14.2,0.0
12/06/2013,22.9,32.3,13.0,0.0
13/06/2013,19.3,24.7,13.9,0.0
14/06/2013,20.6,29.7,11.6,0.0
15/06/2013,20.7,28.9,13.0,0.0
16/06/2013,23.4,32.4,12.0,0.0
17/06/2013,20.8,29.1,14.8,0.0
18/06/2013,14.7,19.4,10.8,19.4
19/06/2013,14.0,19.8,10.8,0.0
20/06/2013,15.9,21.5,11.2,1.6
21/06/2013,16.3,23.0,11.7,0.6
22/06/2013,18.8,27.3,9.5,0.0
23/06/2013,16.5,21.0,11.9,0.0
24/06/2013,14.1,19.8,9.8,0.0
25/06/2013,16.4,23.6,9.2,0.0
26/06/2013,17.9,25.1,11.8,0.0
27/06/2013,18.0,24.5,11.5,0.0
28/06/2013,18.4,25.3,12.2,0.0
29/06/2013,19.9,27.3,12.8,0.0
30/06/2013,22.0,31.2,14.1,0.0
01/07/2013,22.5,31.2,13.0,0.0
02/07/2013,23.7,30.9,14.3,0.2
03/07/2013,22.3,28.9,15.5,0.0
04/07/2013,22.9,30.7,17.0,0.0
05/07/2013,24.3,34.6,12.9,0.0
06/07/2013,25.4,34.9,15.0,0.0
07/07/2013,25.0,34.2,15.2,0.0
08/07/2013,26.0,35.0,14.7,0.0
09/07/2013,27.2,34.2,17.4,0.0
10/07/2013,26.3,33.9,18.7,2.8
11/07/2013,24.7,33.1,16.8,0.2
12/07/2013,25.4,34.0,18.6,0.8
13/07/2013,24.9,32.9,16.4,0.0
14/07/2013,22.4,32.9,15.7,30.2
15/07/2013,22.4,31.0,14.8,0.2
16/07/2013,23.0,30.9,16.9,0.2
17/07/2013,23.3,31.0,16.4,0.0
18/07/2013,23.8,30.8,17.2,0.0
19/07/2013,23.3,31.0,16.1,17.2
20/07/2013,22.7,30.6,17.0,1.0
21/07/2013,24.3,32.1,17.5,0.0
22/07/2013,25.0,33.9,14.4,0.8
23/07/2013,24.1,33.5,18.5,2.0
24/07/2013,25.3,34.4,15.9,0.0
25/07/2013,28.4,36.4,19.6,0.0
26/07/2013,27.8,36.7,18.6,0.2
27/07/2013,25.6,31.3,18.9,0.0
28/07/2013,22.0,28.8,16.2,4.2
29/07/2013,20.9,28.9,12.1,0.2
30/07/2013,23.2,32.9,12.9,0.0
31/07/2013,26.5,36.0,14.9,0.0
01/08/2013,28.3,35.8,18.7,0.0
02/08/2013,26.7,35.5,15.8,0.0
03/08/2013,23.8,32.4,17.9,0.0
04/08/2013,25.1,32.9,18.1,0.0
05/08/2013,25.2,33.8,18.4,0.0
06/08/2013,22.7,29.2,17.1,0.0
07/08/2013,19.9,27.6,14.2,4.8
08/08/2013,17.9,24.9,11.5,0.0
09/08/2013,20.1,27.9,12.2,0.0
10/08/2013,21.8,29.0,14.7,0.0
11/08/2013,24.0,34.8,12.8,0.0
12/08/2013,23.9,34.3,17.9,0.4
13/08/2013,22.0,28.5,16.9,0.0
14/08/2013,22.1,30.2,15.4,0.0
15/08/2013,22.1,32.1,11.8,0.0
16/08/2013,22.6,32.1,17.1,2.4
17/08/2013,22.4,30.2,14.4,0.0
18/08/2013,23.9,33.4,14.1,0.0
19/08/2013,22.1,28.5,16.7,0.0
20/08/2013,21.4,30.3,14.1,0.0
21/08/2013,22.2,33.4,10.4,0.0
22/08/2013,24.8,32.8,17.0,0.0
23/08/2013,23.5,32.2,15.5,0.0
24/08/2013,20.4,26.0,15.2,0.0
25/08/2013,19.6,26.7,13.8,0.0
26/08/2013,19.5,25.7,14.6,0.0
27/08/2013,19.4,26.6,11.9,0.0
28/08/2013,20.1,27.0,15.2,0.0
29/08/2013,19.7,27.3,11.5,0.0
30/08/2013,20.2,27.5,14.4,0.0
31/08/2013,19.9,26.7,14.4,0.0
01/09/2013,20.7,27.5,15.2,0.0
02/09/2013,21.0,29.5,12.4,0.0
03/09/2013,20.6,31.6,9.1,0.0
04/09/2013,22.5,30.9,13.1,0.0
05/09/2013,21.6,30.0,14.8,7.2
06/09/2013,19.1,27.0,13.7,0.8
07/09/2013,17.8,23.8,15.1,1.0
08/09/2013,17.1,23.4,11.5,0.0
09/09/2013,16.9,26.1,6.2,0.0
10/09/2013,18.0,25.4,10.6,0.0
11/09/2013,15.9,21.9,10.4,0.0
12/09/2013,16.3,23.2,9.4,0.0
13/09/2013,19.4,26.8,12.0,0.0
14/09/2013,19.3,28.9,9.3,0.0
15/09/2013,17.4,22.5,9.9,0.0
16/09/2013,16.9,27.3,6.6,0.0
17/09/2013,16.8,22.1,11.5,0.0
18/09/2013,18.1,25.1,9.6,0.0
19/09/2013,18.6,23.5,15.3,0.0
20/09/2013,19.7,25.7,15.3,0.0
21/09/2013,19.6,28.0,11.8,0.0
22/09/2013,17.9,29.7,7.0,0.0
23/09/2013,21.1,29.4,12.5,0.0
24/09/2013,20.7,28.6,13.7,0.0
25/09/2013,23.2,31.0,14.9,0.0
26/09/2013,24.3,31.9,18.2,0.0
27/09/2013,23.3,30.6,17.0,0.0
28/09/2013,19.8,27.4,15.7,1.8
29/09/2013,17.9,25.1,11.3,0.2
30/09/2013,19.9,27.9,13.1,0.0
01/10/2013,20.6,28.6,15.9,0.4
02/10/2013,22.1,29.7,15.1,0.0
03/10/2013,22.6,27.9,19.5,1.4
04/10/2013,17.8,22.2,13.5,46.6
05/10/2013,16.5,22.6,11.3,0.2
06/10/2013,16.5,22.1,11.9,0.0
07/10/2013,15.6,22.3,10.6,0.0
08/10/2013,14.2,22.3,5.9,0.0
09/10/2013,14.7,20.6,9.1,0.0
10/10/2013,13.4,21.1,6.6,0.0
11/10/2013,11.1,17.2,5.2,0.0
12/10/2013,9.4,18.0,0.6,0.0
13/10/2013,11.0,19.9,2.2,0.0
14/10/2013,14.9,22.2,7.2,0.2
15/10/2013,15.6,19.6,12.0,0.0
16/10/2013,17.8,26.6,9.3,0.0
17/10/2013,17.5,25.0,9.5,0.0
18/10/2013,20.1,27.9,12.8,0.0
19/10/2013,18.8,23.8,15.3,0.4
20/10/2013,17.6,23.2,14.6,0.0
21/10/2013,17.1,23.2,10.7,0.0
22/10/2013,16.7,19.0,15.3,0.0
23/10/2013,16.5,23.7,10.9,0.0
24/10/2013,16.9,22.4,10.3,1.6
25/10/2013,19.0,23.0,16.4,9.6
26/10/2013,17.9,22.7,11.6,0.0
27/10/2013,14.2,22.5,7.0,0.2
28/10/2013,15.6,22.4,11.9,0.0
29/10/2013,11.2,15.4,8.2,0.0
30/10/2013,11.1,16.2,7.3,0.0
31/10/2013,9.8,18.3,2.2,0.0
01/11/2013,8.7,16.9,1.6,0.0
02/11/2013,13.5,22.2,6.7,0.0
03/11/2013,13.1,18.2,7.3,0.2
04/11/2013,11.7,14.9,8.1,5.8
05/11/2013,17.6,22.1,11.7,0.0
06/11/2013,16.1,23.1,8.9,0.0
07/11/2013,12.3,20.0,6.5,0.0
08/11/2013,11.1,19.6,4.7,0.2
09/11/2013,10.5,16.1,3.4,0.2
10/11/2013,14.1,18.0,11.2,0.0
11/11/2013,13.7,16.5,11.4,0.0
12/11/2013,14.6,18.9,11.9,0.0
13/11/2013,14.1,17.6,11.3,0.0
14/11/2013,11.4,13.6,8.6,0.4
15/11/2013,6.7,10.4,3.1,1.6
16/11/2013,4.8,8.4,-2.2,0.6
17/11/2013,8.2,9.5,6.9,3.4
18/11/2013,9.4,11.9,6.9,4.0
19/11/2013,8.7,12.1,4.3,0.4
20/11/2013,5.1,7.9,3.4,2.2
21/11/2013,6.0,7.9,1.3,1.0
22/11/2013,5.5,8.3,3.8,2.2
23/11/2013,6.2,9.6,3.7,0.0
24/11/2013,6.0,8.4,4.7,0.0
25/11/2013,5.9,8.8,4.3,0.0
26/11/2013,4.5,7.6,2.6,0.0
27/11/2013,3.2,7.9,-5.1,0.0
28/11/2013,-0.4,8.2,-7.5,0.0
29/11/2013,5.3,8.7,1.3,0.0
30/11/2013,7.1,10.2,4.3,0.8
01/12/2013,5.3,9.6,2.2,0.0
02/12/2013,3.7,9.7,-3.6,0.0
03/12/2013,2.1,11.7,-4.5,0.0
04/12/2013,4.7,15.8,-5.1,0.0
05/12/2013,8.2,11.6,4.2,0.0
06/12/2013,7.4,12.7,3.8,0.0
07/12/2013,3.4,12.6,-3.6,0.0
08/12/2013,0.5,10.0,-5.8,0.2
09/12/2013,-0.9,7.1,-5.8,0.0
10/12/2013,1.8,3.6,-1.5,0.2
11/12/2013,1.6,2.8,0.2,0.2
12/12/2013,2.5,4.0,0.8,0.2
13/12/2013,3.6,9.4,1.0,0.6
14/12/2013,7.6,13.6,-1.4,0.0
15/12/2013,0.7,3.5,-3.3,0.2
16/12/2013,1.8,4.4,-0.3,0.0
17/12/2013,5.7,10.0,1.7,0.0
18/12/2013,4.5,6.6,2.4,0.4
19/12/2013,7.6,10.2,4.5,1.6
20/12/2013,6.3,10.5,-2.2,0.2
21/12/2013,1.1,8.5,-5.0,0.0
22/12/2013,0.3,9.5,-6.2,0.0
23/12/2013,4.0,11.9,-2.4,0.2
24/12/2013,10.1,14.9,5.9,0.2
25/12/2013,6.7,11.3,0.4,1.8
26/12/2013,5.7,11.0,2.0,0.0
27/12/2013,7.0,15.3,-1.7,0.0
28/12/2013,8.3,14.1,-2.2,0.6
29/12/2013,3.2,10.3,-3.7,0.0
30/12/2013,1.3,9.1,-5.9,0.0
31/12/2013,3.8,9.4,0.0,0.6
