Fecha, Temperatura media, Temperatura maxima, Temperatura minima, Precipitacion acumulada
01/01/2014,6.1,12.9,-0.9,0.2
02/01/2014,10.5,14.4,6.9,0.6
03/01/2014,10.9,14.6,7.9,0.0
04/01/2014,10.0,15.3,4.4,0.6
05/01/2014,5.2,9.5,2.4,0.0
06/01/2014,8.6,13.8,2.2,0.0
07/01/2014,11.0,15.0,8.0,0.0
08/01/2014,10.5,16.6,6.7,0.2
09/01/2014,5.9,9.8,-0.2,0.0
10/01/2014,3.0,6.5,-1.1,0.2
11/01/2014,6.0,7.9,4.3,0.0
12/01/2014,7.1,9.1,5.8,1.0
13/01/2014,6.1,12.6,1.1,0.4
14/01/2014,5.5,8.6,1.5,3.0
15/01/2014,7.6,12.6,4.0,0.0
16/01/2014,8.7,14.6,3.5,1.4
17/01/2014,7.4,11.7,3.0,0.0
18/01/2014,6.7,9.2,5.0,4.4
19/01/2014,5.5,9.7,1.6,0.0
20/01/2014,5.2,9.2,1.4,0.2
21/01/2014,5.6,11.0,-1.2,0.2
22/01/2014,7.1,11.7,5.1,3.8
23/01/2014,8.2,11.5,5.6,0.0
24/01/2014,10.3,13.8,7.7,1.0
25/01/2014,12.5,17.0,6.8,0.0
26/01/2014,12.1,15.4,6.7,0.4
27/01/2014,7.9,12.6,4.1,6.6
28/01/2014,5.3,11.7,1.5,0.0
29/01/2014,4.5,9.7,-0.4,0.8
30/01/2014,5.9,10.0,3.3,1.8
31/01/2014,6.6,12.0,0.8,0.8
01/02/2014,5.2,10.8,-1.3,2.8
02/02/2014,3.0,10.9,-2.5,0.2
03/02/2014,2.5,7.6,-0.8,1.0
04/02/2014,4.4,10.9,-4.0,1.0
05/02/2014,7.6,14.2,2.4,0.2
06/02/2014,10.3,16.3,4.2,0.4
07/02/2014,9.5,13.6,2.9,0.0
08/02/2014,10.8,16.4,1.6,0.2
09/02/2014,3.9,8.3,-0.7,7.2
10/02/2014,6.3,10.2,2.9,1.0
11/02/2014,3.0,7.0,-1.9,0.8
12/02/2014,5.0,12.1,-3.8,0.2
13/02/2014,9.3,18.6,1.2,0.0
14/02/2014,15.4,20.9,6.8,0.0
15/02/2014,9.9,15.9,4.6,0.2
16/02/2014,5.5,13.0,-0.8,0.0
17/02/2014,6.1,14.0,-0.6,0.0
18/02/2014,7.4,11.1,3.7,0.0
19/02/2014,7.6,13.5,-0.3,0.0
20/02/2014,7.5,16.6,-1.8,0.8
21/02/2014,6.9,12.5,-1.8,0.2
22/02/2014,4.2,14.4,-4.8,0.0
23/02/2014,7.1,16.0,-3.3,0.0
24/02/2014,9.2,15.4,1.8,0.0
25/02/2014,8.2,15.7,2.4,2.6
26/02/2014,4.0,11.0,-1.1,0.6
27/02/2014,3.7,10.4,-1.4,1.6
28/02/2014,4.9,9.3,-0.5,3.2
01/03/2014,5.9,7.7,3.4,8.2
02/03/2014,10.9,16.6,5.6,0.8
03/03/2014,8.2,13.8,3.2,6.8
04/03/2014,7.5,11.6,4.8,2.4
05/03/2014,11.0,14.7,5.5,0.6
06/03/2014,11.0,16.8,6.0,0.0
07/03/2014,9.0,17.1,2.0,0.0
08/03/2014,9.7,19.5,-0.9,0.0
09/03/2014,9.9,18.7,0.4,0.2
10/03/2014,9.8,20.1,-2.0,0.0
11/03/2014,12.2,19.9,4.7,0.0
12/03/2014,10.4,17.8,3.5,0.0
13/03/2014,8.9,15.9,1.8,0.0
14/03/2014,9.6,19.6,-2.0,0.0
15/03/2014,11.6,16.4,7.4,0.0
16/03/2014,13.0,20.9,7.2,0.0
17/03/2014,11.8,24.7,0.4,0.0
18/03/2014,10.7,17.2,3.5,0.0
19/03/2014,11.6,19.1,4.7,0.0
20/03/2014,12.5,22.3,1.6,0.0
21/03/2014,14.4,20.8,10.0,0.0
22/03/2014,10.0,16.4,3.6,2.8
23/03/2014,5.6,11.8,-0.7,0.0
24/03/2014,4.5,10.8,-3.7,5.6
25/03/2014,7.5,10.9,3.9,5.8
26/03/2014,6.4,10.7,3.5,6.0
27/03/2014,8.3,13.9,2.0,0.4
28/03/2014,10.3,15.7,5.7,0.4
29/03/2014,11.6,15.4,7.9,0.0
30/03/2014,11.3,14.2,7.7,0.0
31/03/2014,13.1,19.1,6.8,0.0
01/04/2014,14.4,20.2,9.0,2.2
02/04/2014,12.3,17.0,9.9,4.6
03/04/2014,10.9,13.2,8.3,0.0
04/04/2014,13.0,18.5,9.0,0.0
05/04/2014,15.5,21.5,9.4,0.0
06/04/2014,16.2,26.6,5.4,0.0
07/04/2014,18.4,26.8,10.8,0.0
08/04/2014,14.6,20.2,7.7,0.0
09/04/2014,12.9,23.1,3.0,0.0
10/04/2014,15.7,25.9,5.6,3.4
11/04/2014,15.8,23.5,9.2,0.4
12/04/2014,14.7,22.2,9.9,0.0
13/04/2014,15.7,24.2,8.4,0.0
14/04/2014,16.1,25.1,7.1,0.0
15/04/2014,18.3,27.1,11.3,0.0
16/04/2014,18.2,28.4,7.0,0.0
17/04/2014,16.8,27.0,6.3,0.0
18/04/2014,17.5,27.5,5.9,0.0
19/04/2014,14.7,21.7,7.3,3.2
20/04/2014,10.8,14.1,5.1,7.2
21/04/2014,10.8,18.1,3.9,12.0
22/04/2014,12.5,19.5,6.0,0.0
23/04/2014,14.1,22.9,6.2,0.2
24/04/2014,12.1,15.8,8.8,7.4
25/04/2014,11.3,16.8,6.7,0.0
26/04/2014,11.9,19.2,7.5,4.6
27/04/2014,12.1,19.0,4.0,0.0
28/04/2014,13.4,18.2,10.0,0.2
29/04/2014,15.0,21.9,9.3,0.0
30/04/2014,15.2,21.3,9.3,0.0
01/05/2014,14.3,20.6,8.1,0.0
02/05/2014,13.1,17.0,10.3,0.0
03/05/2014,13.5,19.2,8.6,0.0
04/05/2014,14.0,23.3,6.3,0.0
05/05/2014,16.6,26.7,3.9,0.0
06/05/2014,17.8,23.4,12.8,0.0
07/05/2014,18.4,25.6,11.7,0.0
08/05/2014,17.9,27.4,8.7,0.0
09/05/2014,17.9,25.6,11.4,0.0
10/05/2014,18.5,28.5,8.2,0.0
11/05/2014,15.0,19.1,8.6,0.0
12/05/2014,13.9,21.8,5.8,0.0
13/05/2014,12.9,17.9,8.1,0.0
14/05/2014,14.2,22.1,6.0,0.0
15/05/2014,16.8,25.2,9.1,0.0
16/05/2014,16.2,24.8,7.0,0.0
17/05/2014,16.2,24.2,8.2,0.0
18/05/2014,16.4,25.1,4.2,0.0
19/05/2014,17.6,23.8,12.0,1.0
20/05/2014,16.8,20.4,13.4,5.4
21/05/2014,17.0,22.2,11.2,8.2
22/05/2014,14.3,19.4,9.1,1.2
23/05/2014,14.7,20.8,7.0,0.2
24/05/2014,12.6,20.6,4.3,4.6
25/05/2014,14.1,21.1,10.1,12.4
26/05/2014,12.8,18.6,7.9,2.2
27/05/2014,14.7,21.7,6.7,0.0
28/05/2014,13.5,17.8,10.8,13.2
29/05/2014,15.3,21.3,8.9,2.0
30/05/2014,14.6,19.8,10.4,1.0
31/05/2014,15.3,21.0,10.0,0.0
01/06/2014,16.5,22.1,11.9,0.0
02/06/2014,15.8,20.7,10.0,0.0
03/06/2014,18.9,27.4,10.5,0.0
04/06/2014,15.6,19.0,10.4,0.0
05/06/2014,19.4,28.0,8.5,0.0
06/06/2014,22.5,32.2,15.9,0.6
07/06/2014,23.9,32.0,15.8,0.2
08/06/2014,24.5,34.1,12.7,0.0
09/06/2014,22.7,33.0,14.6,5.6
10/06/2014,20.7,29.0,15.1,0.2
11/06/2014,22.2,31.2,15.0,0.0
12/06/2014,23.4,33.3,16.3,1.0
13/06/2014,23.1,31.3,13.7,0.0
14/06/2014,20.6,25.4,16.3,0.0
15/06/2014,19.5,24.8,15.0,0.0
16/06/2014,19.0,24.1,14.5,0.0
17/06/2014,19.5,26.3,13.6,0.0
18/06/2014,20.0,27.9,11.6,0.0
19/06/2014,20.6,29.6,9.1,0.0
20/06/2014,24.8,32.8,17.7,0.2
21/06/2014,25.6,34.4,16.3,0.0
22/06/2014,23.0,33.3,14.1,0.8
23/06/2014,21.5,29.7,14.1,1.4
24/06/2014,18.3,23.8,14.7,23.4
25/06/2014,19.7,25.3,15.1,0.0
26/06/2014,18.9,24.1,13.2,0.0
27/06/2014,21.5,30.6,11.5,0.0
28/06/2014,21.7,33.0,13.8,0.4
29/06/2014,17.8,24.1,11.4,0.0
30/06/2014,19.4,29.3,9.4,0.0
01/07/2014,21.4,30.1,15.1,8.6
02/07/2014,18.8,25.6,15.5,5.2
03/07/2014,17.0,23.1,13.0,25.2
04/07/2014,19.8,25.6,15.5,0.0
05/07/2014,23.3,31.7,13.9,0.0
06/07/2014,19.7,26.5,14.1,13.6
07/07/2014,16.7,21.2,11.5,0.0
08/07/2014,17.7,23.7,10.6,0.0
09/07/2014,17.2,20.8,13.3,0.0
10/07/2014,16.8,22.3,11.8,0.0
11/07/2014,17.9,23.4,13.7,0.0
12/07/2014,18.4,23.8,14.0,0.0
13/07/2014,20.6,30.0,12.6,0.0
14/07/2014,21.5,27.2,15.1,0.0
15/07/2014,22.5,31.6,11.9,0.0
16/07/2014,25.8,35.4,15.6,0.0
17/07/2014,28.1,37.3,17.3,0.0
18/07/2014,26.8,34.5,18.4,2.4
19/07/2014,22.3,28.4,16.2,0.0
20/07/2014,20.2,26.9,14.7,0.2
21/07/2014,19.7,25.5,12.7,0.0
22/07/2014,21.5,29.3,15.0,0.0
23/07/2014,23.3,32.5,14.8,0.0
24/07/2014,24.0,31.9,16.6,0.0
25/07/2014,23.9,31.7,18.0,0.0
26/07/2014,24.1,32.0,16.7,0.0
27/07/2014,23.4,30.9,15.0,0.0
28/07/2014,21.7,28.0,17.4,0.6
29/07/2014,19.3,25.2,15.3,0.0
30/07/2014,20.3,26.7,14.8,0.0
31/07/2014,22.5,32.7,12.7,0.0
01/08/2014,22.2,30.2,14.9,2.2
02/08/2014,21.6,28.8,16.0,2.6
03/08/2014,22.0,28.0,16.6,0.2
04/08/2014,22.4,30.0,17.3,0.0
05/08/2014,22.9,31.8,16.3,0.0
06/08/2014,23.0,31.7,14.0,0.0
07/08/2014,24.9,32.7,16.8,0.0
08/08/2014,23.9,33.7,18.3,6.2
09/08/2014,23.8,30.5,17.2,0.0
10/08/2014,25.4,34.2,18.1,0.0
11/08/2014,21.6,27.5,16.7,0.0
12/08/2014,22.0,29.9,13.3,0.0
13/08/2014,18.2,22.6,10.6,0.0
14/08/2014,17.7,24.9,9.4,0.0
15/08/2014,19.2,26.8,11.1,0.0
16/08/2014,17.5,23.1,10.8,0.0
17/08/2014,17.9,28.4,6.6,0.0
18/08/2014,20.6,31.7,12.9,17.2
19/08/2014,19.4,25.7,14.7,0.0
20/08/2014,18.6,24.6,14.5,0.0
21/08/2014,19.0,26.4,11.4,0.0
22/08/2014,16.8,19.6,12.0,0.8
23/08/2014,17.4,25.2,8.8,0.0
24/08/2014,19.7,29.9,9.4,0.0
25/08/2014,22.8,33.6,11.1,0.0
26/08/2014,25.1,33.2,15.7,0.0
27/08/2014,24.5,32.7,18.3,0.0
28/08/2014,24.4,33.7,17.0,0.0
29/08/2014,21.8,27.2,18.4,0.0
30/08/2014,21.2,28.4,16.4,0.0
31/08/2014,21.9,30.1,15.0,0.0
01/09/2014,23.0,31.9,14.9,0.0
02/09/2014,23.3,32.5,13.0,0.0
03/09/2014,24.0,33.2,13.3,0.0
04/09/2014,22.5,29.6,16.4,0.0
05/09/2014,22.6,30.7,15.4,0.0
06/09/2014,23.1,32.0,14.0,0.0
07/09/2014,23.7,32.7,16.7,9.6
08/09/2014,21.0,27.1,16.9,0.0
09/09/2014,21.3,29.4,14.5,0.0
10/09/2014,23.6,31.1,16.8,0.0
11/09/2014,23.9,30.7,17.1,0.0
12/09/2014,22.5,30.4,14.9,0.0
13/09/2014,20.8,30.7,11.2,0.0
14/09/2014,20.4,29.5,13.6,0.0
15/09/2014,19.8,27.7,13.9,0.0
16/09/2014,21.3,28.9,14.9,36.0
17/09/2014,22.2,28.3,17.4,0.0
18/09/2014,22.4,29.1,16.9,0.0
19/09/2014,20.9,26.8,14.8,0.0
20/09/2014,20.4,28.5,13.8,0.0
21/09/2014,20.3,27.8,13.9,0.2
22/09/2014,18.2,20.3,16.2,6.4
23/09/2014,17.1,21.5,11.2,0.0
24/09/2014,15.2,21.2,10.7,0.0
25/09/2014,16.1,22.4,10.8,0.0
26/09/2014,14.1,23.8,6.5,0.0
27/09/2014,16.2,24.6,6.6,0.2
28/09/2014,17.9,21.5,15.5,1.2
29/09/2014,17.2,21.1,14.3,3.2
30/09/2014,17.6,23.6,12.5,0.2
01/10/2014,17.2,25.4,9.3,0.0
02/10/2014,17.0,25.5,10.0,0.0
03/10/2014,16.8,26.1,9.8,0.0
04/10/2014,17.4,25.6,8.6,0.2
05/10/2014,16.1,20.8,9.3,0.0
06/10/2014,16.3,25.4,6.8,0.0
07/10/2014,19.4,27.1,11.6,0.0
08/10/2014,20.3,27.2,14.5,4.4
09/10/2014,18.2,22.3,16.0,9.2
10/10/2014,16.5,21.5,12.3,13.2
11/10/2014,17.5,23.8,12.3,0.6
12/10/2014,17.8,23.4,14.0,2.0
13/10/2014,15.6,19.6,13.1,1.8
14/10/2014,15.4,20.9,9.5,0.2
15/10/2014,14.4,20.2,8.2,1.0
16/10/2014,20.3,25.8,15.9,0.0
17/10/2014,19.5,25.9,13.7,0.0
18/10/2014,19.7,27.2,14.3,0.0
19/10/2014,18.8,27.4,10.6,0.0
20/10/2014,17.9,27.5,10.4,0.0
21/10/2014,17.8,28.3,8.9,0.0
22/10/2014,14.8,19.3,9.7,0.0
23/10/2014,15.1,25.1,6.8,0.0
24/10/2014,17.6,27.8,8.7,0.0
25/10/2014,15.7,27.6,7.8,0.0
26/10/2014,15.0,26.9,6.9,0.0
27/10/2014,13.6,19.9,8.2,0.0
28/10/2014,14.5,19.5,8.4,0.0
29/10/2014,12.7,20.0,7.5,0.0
30/10/2014,11.2,16.0,7.3,0.2
31/10/2014,12.1,18.9,7.8,0.4
01/11/2014,12.4,17.0,8.7,0.0
02/11/2014,13.5,18.1,9.7,10.2
03/11/2014,14.1,19.4,9.1,1.6
04/11/2014,9.6,13.9,7.1,6.0
05/11/2014,8.1,11.3,5.8,1.0
06/11/2014,8.7,14.8,2.8,0.0
07/11/2014,8.4,15.1,3.7,0.4
08/11/2014,8.1,15.4,2.3,0.2
09/11/2014,8.7,14.6,1.0,0.0
10/11/2014,6.4,14.4,-1.6,0.0
11/11/2014,7.9,10.0,6.0,6.8
12/11/2014,7.6,16.0,2.6,0.2
13/11/2014,11.8,15.7,5.7,0.2
14/11/2014,11.8,15.9,6.4,3.6
15/11/2014,9.0,16.0,3.7,0.2
16/11/2014,8.0,14.7,0.6,0.8
17/11/2014,8.7,14.6,3.9,8.8
18/11/2014,6.6,13.2,0.3,0.2
19/11/2014,8.5,15.1,2.5,0.0
20/11/2014,9.6,15.5,5.1,0.0
21/11/2014,11.4,15.1,6.2,0.0
22/11/2014,12.7,15.5,11.0,0.0
23/11/2014,14.9,19.6,10.6,0.2
24/11/2014,14.2,20.3,10.1,0.0
25/11/2014,13.1,17.3,10.1,14.2
26/11/2014,11.1,14.5,6.8,12.4
27/11/2014,11.1,13.8,8.1,12.2
28/11/2014,12.8,14.5,11.4,8.4
29/11/2014,12.4,13.4,11.7,38.2
30/11/2014,13.7,16.7,11.2,5.2
01/12/2014,10.8,14.1,6.3,3.0
02/12/2014,9.3,11.7,7.1,0.0
03/12/2014,7.6,9.9,5.7,0.0
04/12/2014,5.0,11.0,-1.3,0.0
05/12/2014,6.0,11.6,-0.2,0.2
06/12/2014,5.4,7.5,3.4,0.2
07/12/2014,6.6,10.3,2.7,0.0
08/12/2014,9.8,13.0,7.7,0.0
09/12/2014,5.9,8.0,3.7,0.0
10/12/2014,8.8,12.4,3.8,0.0
11/12/2014,7.6,13.0,0.1,0.0
12/12/2014,4.5,11.6,-1.1,0.0
13/12/2014,8.5,11.7,6.4,0.0
14/12/2014,7.9,9.1,6.8,0.0
15/12/2014,8.3,11.1,6.4,0.0
16/12/2014,9.6,13.3,5.9,0.0
17/12/2014,10.8,14.9,7.8,0.0
18/12/2014,10.9,14.4,8.2,0.0
19/12/2014,8.9,12.9,6.2,0.0
20/12/2014,10.4,15.2,5.6,0.0
21/12/2014,7.8,13.6,0.3,0.0
22/12/2014,2.3,3.5,-0.1,0.4
23/12/2014,2.7,3.4,1.7,0.0
24/12/2014,2.4,8.2,-1.0,0.0
25/12/2014,6.0,12.7,-1.9,0.2
26/12/2014,9.8,13.6,5.4,0.0
27/12/2014,9.3,10.8,8.1,1.6
28/12/2014,5.6,8.8,1.5,2.6
29/12/2014,2.3,6.3,-0.5,0.0
30/12/2014,3.3,7.3,-1.0,0.0
31/12/2014,6.7,13.5,-1.6,0.0
