Fecha, Temperatura media, Temperatura maxima, Temperatura minima, Precipitacion acumulada
01/01/2016,6.7,12.8,0.5,1.4
02/01/2016,7.3,11.9,1.3,0.2
03/01/2016,4.7,7.4,1.7,24.4
04/01/2016,7.1,8.1,5.4,25.7
05/01/2016,5.4,9.4,2.6,4.3
06/01/2016,5.8,9.1,4.1,3.0
07/01/2016,13.9,17.1,4.3,0.0
08/01/2016,12.9,15.7,9.0,3.0
09/01/2016,10.0,14.1,7.4,0.5
10/01/2016,9.2,13.5,6.9,9.9
11/01/2016,9.6,11.5,6.6,4.0
12/01/2016,5.7,10.2,2.7,0.8
13/01/2016,3.0,6.5,-1.6,1.3
14/01/2016,6.0,9.3,4.2,7.3
15/01/2016,4.1,7.8,1.6,5.8
16/01/2016,2.8,7.0,0.4,3.4
17/01/2016,3.4,8.1,-1.4,0.1
18/01/2016,4.6,6.9,2.1,1.3
19/01/2016,5.4,11.0,1.2,0.0
20/01/2016,3.2,9.4,-0.2,0.0
21/01/2016,4.2,11.7,-0.6,0.2
22/01/2016,5.9,10.4,1.0,0.7
23/01/2016,8.7,13.3,6.0,0.1
24/01/2016,7.5,10.9,5.5,0.2
25/01/2016,8.0,8.9,6.3,0.5
26/01/2016,7.5,8.4,6.6,0.4
27/01/2016,6.8,7.5,6.0,1.1
28/01/2016,6.9,8.3,6.2,7.4
29/01/2016,6.8,8.7,2.1,0.0
30/01/2016,3.5,8.2,-0.9,0.1
31/01/2016,10.4,13.3,5.7,0.1
01/02/2016,11.1,15.0,7.4,0.0
02/02/2016,8.9,12.8,5.1,0.0
03/02/2016,7.1,10.3,3.0,2.6
04/02/2016,5.9,12.4,2.0,0.0
05/02/2016,3.7,11.1,-2.3,0.1
06/02/2016,5.7,12.7,-1.8,1.7
07/02/2016,7.0,9.8,2.9,0.5
08/02/2016,9.8,15.9,3.6,0.0
09/02/2016,10.5,14.4,5.7,4.3
10/02/2016,5.8,7.6,4.8,10.1
11/02/2016,7.1,11.3,5.1,5.5
12/02/2016,9.8,12.9,6.5,17.9
13/02/2016,12.6,17.1,8.8,10.4
14/02/2016,6.1,11.9,2.9,4.3
15/02/2016,2.6,6.8,0.1,9.0
16/02/2016,2.2,6.1,-0.9,2.2
17/02/2016,2.4,7.3,-2.9,0.0
18/02/2016,3.6,8.5,0.6,1.3
19/02/2016,3.9,11.0,-0.5,0.1
20/02/2016,4.8,14.2,-2.6,0.0
21/02/2016,6.4,15.3,-0.9,0.0
22/02/2016,7.4,16.4,0.6,0.0
23/02/2016,9.1,13.0,5.6,0.0
24/02/2016,6.8,13.4,0.8,1.5
25/02/2016,8.4,12.1,6.0,0.0
26/02/2016,7.1,12.2,4.3,18.9
27/02/2016,2.9,4.3,1.3,27.0
28/02/2016,5.7,9.1,3.4,2.2
29/02/2016,5.5,8.2,4.0,2.0
01/03/2016,7.8,13.6,3.8,0.0
02/03/2016,8.1,14.3,4.6,1.3
03/03/2016,6.5,8.2,4.6,0.8
04/03/2016,5.9,12.2,1.5,3.2
05/03/2016,4.5,7.8,2.3,1.7
06/03/2016,3.8,7.1,1.4,5.5
07/03/2016,4.7,8.9,2.3,2.7
08/03/2016,4.6,9.8,0.0,2.1
09/03/2016,4.9,10.6,2.2,16.4
10/03/2016,3.9,8.1,0.4,20.6
11/03/2016,5.7,10.1,2.9,0.9
12/03/2016,5.7,10.1,1.6,0.0
13/03/2016,6.4,11.9,1.1,0.0
14/03/2016,2.6,5.3,0.6,3.3
15/03/2016,5.3,11.6,1.4,0.0
16/03/2016,6.2,9.6,3.3,0.9
17/03/2016,5.4,11.6,0.7,0.0
18/03/2016,5.5,10.9,-0.1,1.5
19/03/2016,7.3,8.2,6.5,27.9
20/03/2016,8.1,12.6,4.5,0.1
21/03/2016,8.8,15.6,3.1,0.0
22/03/2016,7.9,11.9,5.1,0.0
23/03/2016,7.7,11.9,4.5,0.0
24/03/2016,8.9,15.1,4.6,0.0
25/03/2016,9.7,13.9,4.4,0.0
26/03/2016,13.1,20.3,5.8,2.4
27/03/2016,9.6,15.1,4.0,3.9
28/03/2016,10.2,15.2,6.1,1.9
29/03/2016,11.2,16.1,7.0,0.9
30/03/2016,12.3,21.7,3.3,0.0
31/03/2016,7.1,12.8,4.4,13.1
01/04/2016,6.6,12.1,3.1,1.7
02/04/2016,7.9,16.3,-1.5,0.0
03/04/2016,9.9,16.1,4.6,0.8
04/04/2016,7.1,9.7,3.5,40.8
05/04/2016,9.0,13.3,5.8,0.1
06/04/2016,9.5,14.6,5.6,0.0
07/04/2016,8.1,11.3,3.5,0.7
08/04/2016,5.9,11.0,2.1,2.5
09/04/2016,8.7,15.8,3.8,0.0
10/04/2016,11.1,17.9,4.2,3.1
11/04/2016,7.8,15.0,3.2,2.7
12/04/2016,8.3,15.1,1.8,2.3
13/04/2016,9.9,17.6,3.0,0.0
14/04/2016,12.3,20.4,6.3,1.0
15/04/2016,14.6,22.3,8.9,0.1
16/04/2016,11.8,17.2,9.0,6.4
17/04/2016,11.3,18.1,6.4,0.0
18/04/2016,11.4,18.2,4.7,0.0
19/04/2016,11.9,15.7,6.6,0.0
20/04/2016,10.8,13.8,8.6,3.5
21/04/2016,13.1,19.3,7.9,0.0
22/04/2016,10.0,14.6,6.2,11.2
23/04/2016,11.0,16.7,6.6,0.0
24/04/2016,9.2,12.8,4.6,0.0
25/04/2016,8.7,14.9,4.3,0.0
26/04/2016,10.5,18.3,3.7,0.0
27/04/2016,9.7,14.6,6.1,0.0
28/04/2016,9.0,14.4,3.9,0.0
29/04/2016,10.1,17.4,1.2,0.0
30/04/2016,8.0,12.4,3.7,2.7
01/05/2016,7.3,12.0,3.2,0.1
02/05/2016,10.6,19.7,3.2,0.0
03/05/2016,11.7,18.3,5.5,0.0
04/05/2016,14.0,23.8,4.0,0.0
05/05/2016,16.6,22.8,8.9,0.0
06/05/2016,13.5,17.1,11.3,3.4
07/05/2016,12.4,17.8,10.0,9.8
08/05/2016,11.8,15.4,10.2,8.7
09/05/2016,13.0,18.8,9.2,4.1
10/05/2016,12.4,17.3,7.2,0.5
11/05/2016,13.6,19.3,8.0,0.2
12/05/2016,10.5,16.1,5.9,4.5
13/05/2016,11.4,15.7,6.2,0.2
14/05/2016,13.4,17.5,10.6,0.3
15/05/2016,13.4,17.1,9.3,0.0
16/05/2016,12.7,18.5,7.6,0.0
17/05/2016,13.8,21.4,5.6,0.0
18/05/2016,14.5,23.4,7.7,0.0
19/05/2016,14.1,17.9,10.9,0.0
20/05/2016,17.8,26.6,9.1,0.0
21/05/2016,19.3,26.7,10.9,0.0
22/05/2016,12.6,16.7,7.1,6.6
23/05/2016,12.0,18.3,5.1,0.0
24/05/2016,15.1,22.1,7.3,0.0
25/05/2016,17.8,23.9,12.7,0.0
26/05/2016,17.6,24.0,13.3,0.0
27/05/2016,18.1,26.4,11.1,0.1
28/05/2016,16.3,23.5,11.7,2.4
29/05/2016,14.8,20.4,10.3,0.3
30/05/2016,13.7,17.7,10.3,2.7
31/05/2016,14.3,19.4,10.5,0.0
01/06/2016,14.6,20.8,8.3,0.0
02/06/2016,16.2,23.1,9.7,0.0
03/06/2016,18.0,26.8,10.2,14.7
04/06/2016,18.0,23.8,13.2,0.0
05/06/2016,19.3,26.8,10.6,0.0
06/06/2016,19.4,27.2,13.2,0.0
07/06/2016,20.9,29.0,13.1,0.0
08/06/2016,22.5,30.7,13.7,0.0
09/06/2016,22.4,29.2,15.9,0.0
10/06/2016,17.9,21.8,13.1,0.0
11/06/2016,16.4,21.7,11.8,0.0
12/06/2016,18.4,25.6,11.3,0.0
13/06/2016,18.7,25.5,14.6,0.0
14/06/2016,17.2,23.8,12.3,0.9
15/06/2016,14.9,21.0,9.3,0.1
16/06/2016,12.5,17.4,8.4,2.6
17/06/2016,12.6,20.2,9.0,4.8
18/06/2016,13.1,17.1,8.7,0.0
19/06/2016,14.3,19.8,10.0,0.0
20/06/2016,19.2,27.7,9.2,0.0
21/06/2016,23.0,32.4,11.4,0.0
22/06/2016,26.0,33.8,16.6,0.0
23/06/2016,24.2,33.2,17.7,0.0
24/06/2016,19.2,25.3,16.0,9.7
25/06/2016,16.5,20.5,13.0,0.0
26/06/2016,15.3,19.4,11.4,0.0
27/06/2016,17.9,26.3,9.7,0.0
28/06/2016,19.9,31.2,11.6,0.0
29/06/2016,18.7,27.7,13.5,0.0
30/06/2016,20.7,29.2,13.1,0.0
01/07/2016,20.4,29.3,14.9,0.0
02/07/2016,17.7,22.0,13.5,0.0
03/07/2016,19.7,28.3,11.1,0.0
04/07/2016,21.4,31.5,14.3,9.7
05/07/2016,19.8,24.7,15.5,0.2
06/07/2016,23.1,32.5,15.6,0.0
07/07/2016,24.1,31.2,16.7,3.4
08/07/2016,22.8,31.7,17.2,0.0
09/07/2016,24.1,34.1,14.4,0.0
10/07/2016,24.4,35.7,17.7,0.0
11/07/2016,20.1,26.3,16.0,0.0
12/07/2016,17.4,21.2,14.8,0.0
13/07/2016,15.7,20.6,12.2,0.0
14/07/2016,14.9,20.5,10.3,0.0
15/07/2016,17.5,25.7,9.6,0.0
16/07/2016,21.2,30.8,12.1,0.0
17/07/2016,23.9,34.0,12.3,0.0
18/07/2016,26.6,34.7,17.6,0.0
19/07/2016,27.6,36.8,17.5,0.0
20/07/2016,23.4,31.3,17.0,0.2
21/07/2016,20.5,29.9,16.0,0.0
22/07/2016,18.5,22.6,15.2,3.9
23/07/2016,18.5,23.5,14.8,0.0
24/07/2016,19.3,25.6,14.7,0.0
25/07/2016,21.2,30.0,14.0,0.0
26/07/2016,21.9,29.6,16.2,0.0
27/07/2016,19.7,24.9,15.9,0.0
28/07/2016,21.6,31.6,14.0,0.0
29/07/2016,23.1,30.2,13.3,0.0
30/07/2016,23.4,35.4,16.9,0.0
31/07/2016,19.6,25.1,15.7,0.0
01/08/2016,19.4,26.6,13.0,0.0
02/08/2016,21.9,33.0,12.5,0.0
03/08/2016,23.1,34.8,13.4,0.0
04/08/2016,22.0,30.9,16.6,0.0
05/08/2016,19.2,25.0,15.0,0.0
06/08/2016,20.1,27.8,13.5,0.0
07/08/2016,23.6,32.9,15.3,0.0
08/08/2016,22.4,30.1,17.0,0.0
09/08/2016,19.4,25.0,13.4,0.4
10/08/2016,17.1,23.1,12.0,0.0
11/08/2016,17.0,22.4,11.6,0.0
12/08/2016,20.5,31.5,10.8,0.0
13/08/2016,23.6,33.5,13.1,0.0
14/08/2016,25.3,33.6,15.6,0.0
15/08/2016,24.2,33.0,18.0,0.0
16/08/2016,23.9,32.8,15.7,0.0
17/08/2016,22.5,31.8,17.2,0.0
18/08/2016,21.7,29.2,16.9,0.0
19/08/2016,21.5,32.8,12.9,0.0
20/08/2016,18.6,23.6,13.6,0.2
21/08/2016,18.1,25.0,11.1,0.0
22/08/2016,21.8,32.8,11.3,0.0
23/08/2016,25.7,35.4,16.0,0.0
24/08/2016,26.3,34.2,17.9,0.0
25/08/2016,25.9,34.5,16.3,0.0
26/08/2016,24.7,33.5,16.0,0.0
27/08/2016,25.0,33.6,17.5,0.0
28/08/2016,21.7,29.3,17.3,0.0
29/08/2016,19.0,23.1,16.1,0.0
30/08/2016,20.1,27.7,14.3,0.0
31/08/2016,19.8,28.6,13.2,0.0
01/09/2016,22.3,31.1,15.2,0.0
02/09/2016,24.3,34.7,16.5,0.0
03/09/2016,25.0,35.3,16.1,0.0
04/09/2016,26.5,36.4,18.1,0.0
05/09/2016,24.7,31.6,18.3,0.0
06/09/2016,26.9,37.2,19.1,0.0
07/09/2016,24.3,32.6,14.9,0.0
08/09/2016,20.4,25.0,16.8,0.0
09/09/2016,19.6,28.0,15.5,0.0
10/09/2016,20.9,30.7,13.4,0.0
11/09/2016,22.5,31.2,14.5,0.0
12/09/2016,25.2,33.0,18.3,0.0
13/09/2016,19.0,27.2,12.8,3.6
14/09/2016,13.4,19.9,8.5,2.4
15/09/2016,13.2,18.6,8.5,17.5
16/09/2016,15.4,20.2,11.7,1.9
17/09/2016,13.9,16.9,11.9,0.7
18/09/2016,14.2,18.4,11.0,2.1
19/09/2016,15.0,20.1,10.6,0.0
20/09/2016,15.9,21.1,11.4,0.0
21/09/2016,16.7,26.3,8.3,0.0
22/09/2016,18.1,26.0,11.9,0.0
23/09/2016,19.0,25.2,15.7,0.0
24/09/2016,18.7,25.4,10.9,0.0
25/09/2016,17.4,23.1,12.5,0.0
26/09/2016,16.9,25.0,11.8,0.0
27/09/2016,17.1,22.5,11.9,0.0
28/09/2016,18.4,24.9,12.2,0.0
29/09/2016,17.4,26.2,10.6,0.0
30/09/2016,19.0,26.3,10.9,0.0
01/10/2016,17.5,23.0,12.8,1.1
02/10/2016,16.3,24.2,10.8,0.0
03/10/2016,18.7,26.2,11.9,0.0
04/10/2016,19.1,28.3,14.5,0.0
05/10/2016,16.1,23.2,10.7,0.0
06/10/2016,16.1,22.6,10.4,0.0
07/10/2016,14.0,23.8,6.2,0.0
08/10/2016,13.7,19.9,8.3,0.0
09/10/2016,12.8,18.3,8.3,0.0
10/10/2016,11.7,19.1,5.2,0.0
11/10/2016,11.7,20.5,2.9,0.0
12/10/2016,12.9,15.8,11.3,5.6
13/10/2016,12.9,16.5,11.3,19.4
14/10/2016,11.8,17.1,6.5,0.7
15/10/2016,11.9,20.3,2.8,0.0
16/10/2016,15.1,19.6,11.0,0.0
17/10/2016,15.6,19.0,12.9,0.0
18/10/2016,15.2,21.2,10.5,0.0
19/10/2016,12.1,19.0,7.0,0.0
20/10/2016,9.1,14.6,4.9,0.0
21/10/2016,9.4,16.9,2.9,0.0
22/10/2016,11.4,14.1,6.3,0.9
23/10/2016,15.2,20.0,12.6,4.6
24/10/2016,13.4,16.8,11.4,0.3
25/10/2016,15.7,21.8,11.6,3.3
26/10/2016,16.4,24.0,11.8,0.0
27/10/2016,15.3,23.4,8.2,0.0
28/10/2016,11.3,21.0,3.5,0.0
29/10/2016,11.9,22.8,4.4,0.0
30/10/2016,11.8,21.7,5.7,0.0
31/10/2016,8.1,11.9,3.2,0.0
01/11/2016,11.1,14.6,6.4,0.0
02/11/2016,11.4,21.9,3.5,0.0
03/11/2016,11.2,19.8,5.0,0.0
04/11/2016,8.8,11.9,4.9,7.2
05/11/2016,9.5,11.5,6.9,22.6
06/11/2016,6.9,10.0,4.5,0.0
07/11/2016,5.2,9.8,2.9,0.1
08/11/2016,5.5,9.1,2.9,3.0
09/11/2016,9.1,12.0,6.6,2.5
10/11/2016,9.2,14.1,4.4,0.0
11/11/2016,9.9,12.0,6.9,0.0
12/11/2016,9.5,14.7,5.6,2.1
13/11/2016,11.1,14.1,8.8,0.2
14/11/2016,9.5,13.3,6.0,0.0
15/11/2016,8.7,13.6,5.1,0.0
16/11/2016,11.0,19.1,5.4,0.0
17/11/2016,12.1,19.6,6.1,0.0
18/11/2016,9.0,13.5,5.9,0.0
19/11/2016,7.9,12.1,3.5,0.0
20/11/2016,9.2,10.9,8.4,2.7
21/11/2016,10.0,15.8,5.8,6.7
22/11/2016,5.5,8.2,3.1,8.8
23/11/2016,3.9,5.7,2.8,41.6
24/11/2016,4.8,9.8,1.6,0.3
25/11/2016,2.5,7.6,-1.5,0.1
26/11/2016,4.4,6.8,1.2,4.3
27/11/2016,7.9,12.4,4.8,0.8
28/11/2016,7.8,13.7,2.9,0.1
29/11/2016,7.7,9.5,4.6,0.0
30/11/2016,8.7,10.7,6.9,0.1
01/12/2016,6.5,11.9,2.2,0.0
02/12/2016,4.6,9.5,1.2,0.0
03/12/2016,3.0,4.9,0.0,0.3
04/12/2016,7.4,9.9,4.9,2.8
05/12/2016,9.8,14.7,5.3,0.7
06/12/2016,7.1,15.5,1.8,0.1
07/12/2016,6.2,10.2,2.1,0.0
08/12/2016,6.6,7.9,5.5,0.3
09/12/2016,5.0,7.6,3.4,0.0
10/12/2016,4.0,5.5,2.6,0.2
11/12/2016,7.8,16.2,0.3,0.2
12/12/2016,10.6,18.2,3.7,0.0
13/12/2016,3.1,3.8,2.3,0.3
14/12/2016,3.5,5.0,2.5,0.5
15/12/2016,4.6,6.4,2.9,0.0
16/12/2016,6.6,8.0,5.2,3.8
17/12/2016,6.8,13.5,3.3,0.1
18/12/2016,3.9,10.5,-0.4,0.0
19/12/2016,4.4,10.8,-1.8,0.2
20/12/2016,6.1,7.8,4.3,0.0
21/12/2016,7.8,10.5,5.6,0.0
22/12/2016,7.7,9.0,6.3,2.7
23/12/2016,9.7,13.8,6.3,0.0
24/12/2016,10.3,13.3,7.8,0.0
25/12/2016,9.0,14.8,3.6,0.0
26/12/2016,5.5,12.2,-1.1,0.0
27/12/2016,4.3,12.1,0.7,0.0
28/12/2016,1.1,3.6,-1.6,0.2
29/12/2016,0.7,10.9,-6.2,0.2
30/12/2016,-1.5,0.1,-2.9,0.1
31/12/2016,0.5,2.8,-1.7,0.3
