Fecha, Temperatura media, Temperatura maxima, Temperatura minima, Precipitacion acumulada
01/01/2013,5.9,8.0,4.2,17.6
02/01/2013,6.4,7.3,5.8,12.4
03/01/2013,4.9,12.2,-1.8,0.0
04/01/2013,3.7,15.7,-3.9,0.1
05/01/2013,4.8,16.9,-2.1,0.0
06/01/2013,4.5,14.1,-0.4,0.0
07/01/2013,5.3,16.1,-0.0,0.0
08/01/2013,1.7,12.2,-4.2,0.0
09/01/2013,1.1,7.2,-5.3,6.9
10/01/2013,7.4,10.7,3.9,2.1
11/01/2013,4.6,12.2,-1.6,0.1
12/01/2013,3.5,11.0,-0.8,2.7
13/01/2013,2.3,5.1,0.3,15.9
14/01/2013,1.3,3.0,-0.1,47.9
15/01/2013,3.8,6.1,0.2,85.9
16/01/2013,6.4,8.8,4.1,35.3
17/01/2013,3.4,8.3,1.0,8.1
18/01/2013,6.4,13.4,2.7,31.5
19/01/2013,8.5,11.0,3.6,26.4
20/01/2013,4.3,6.6,1.2,17.0
21/01/2013,2.9,6.4,-2.1,2.3
22/01/2013,2.3,7.0,-2.0,0.4
23/01/2013,1.6,4.3,-1.3,20.0
24/01/2013,3.1,5.9,-0.0,51.6
25/01/2013,3.5,9.7,-1.3,7.9
26/01/2013,6.2,9.2,-0.7,21.9
27/01/2013,3.6,8.8,-0.7,18.7
28/01/2013,5.7,12.7,-0.9,0.4
29/01/2013,4.7,11.6,-1.2,0.0
30/01/2013,8.3,16.0,2.0,0.0
31/01/2013,9.2,18.3,2.4,0.0
01/02/2013,9.9,14.0,5.0,12.8
02/02/2013,4.3,6.9,2.0,28.7
03/02/2013,3.9,5.6,1.3,1.8
04/02/2013,7.0,9.3,4.4,10.4
05/02/2013,7.7,13.0,1.2,15.2
06/02/2013,2.1,3.8,0.2,36.2
07/02/2013,2.2,3.8,0.1,20.0
08/02/2013,2.1,4.0,0.2,34.2
09/02/2013,3.0,4.6,0.4,17.4
10/02/2013,2.1,6.5,-0.8,6.1
11/02/2013,1.8,5.1,-0.1,6.2
12/02/2013,1.6,4.0,-0.2,41.1
13/02/2013,4.8,7.4,2.7,32.8
14/02/2013,6.2,7.9,4.6,7.0
15/02/2013,5.3,9.3,-1.2,1.1
16/02/2013,2.4,13.6,-3.3,0.2
17/02/2013,3.6,10.2,-3.3,0.0
18/02/2013,6.6,12.0,2.0,1.0
19/02/2013,9.3,13.2,6.7,0.0
20/02/2013,8.5,16.9,1.3,0.0
21/02/2013,8.2,14.6,3.0,0.2
22/02/2013,4.0,7.8,-0.2,0.0
23/02/2013,-1.8,-0.1,-3.7,0.2
24/02/2013,-0.5,0.8,-1.6,3.6
25/02/2013,0.0,0.9,-1.2,3.7
26/02/2013,0.2,1.9,-1.6,14.7
27/02/2013,-0.2,8.7,-5.9,0.2
28/02/2013,1.2,7.9,-4.9,0.0
01/03/2013,5.2,9.1,2.8,0.0
02/03/2013,4.4,11.3,-1.9,0.0
03/03/2013,8.4,14.5,-1.3,0.0
04/03/2013,9.1,10.8,6.5,3.7
05/03/2013,10.5,14.2,8.8,14.0
06/03/2013,13.1,19.6,7.0,0.6
07/03/2013,12.5,17.1,8.5,20.7
08/03/2013,10.2,16.8,3.7,1.7
09/03/2013,8.7,15.0,2.2,0.1
10/03/2013,10.0,13.6,7.5,0.0
11/03/2013,8.5,13.0,5.2,13.3
12/03/2013,4.8,11.2,0.1,15.2
13/03/2013,-0.1,1.0,-2.2,7.1
14/03/2013,0.9,3.7,-0.3,44.5
15/03/2013,3.1,9.4,-0.9,5.6
16/03/2013,5.6,8.4,0.5,0.2
17/03/2013,5.4,7.4,0.6,4.8
18/03/2013,4.1,10.1,-1.5,0.5
19/03/2013,5.6,12.8,-1.1,0.7
20/03/2013,6.2,12.7,0.6,1.6
21/03/2013,9.0,16.4,-0.8,0.0
22/03/2013,11.0,20.2,1.9,3.7
23/03/2013,7.7,17.1,0.3,0.1
24/03/2013,8.5,16.3,0.6,0.7
25/03/2013,7.1,10.6,3.4,21.2
26/03/2013,10.1,15.6,6.6,7.1
27/03/2013,10.0,13.3,8.2,15.3
28/03/2013,9.7,15.0,7.6,2.6
29/03/2013,12.7,18.0,9.9,25.2
30/03/2013,9.0,11.0,6.5,13.6
31/03/2013,11.0,17.6,4.2,0.2
01/04/2013,10.0,13.0,6.9,7.4
02/04/2013,8.4,13.7,3.7,2.3
03/04/2013,9.6,17.6,3.6,1.2
04/04/2013,6.5,9.9,2.7,4.0
05/04/2013,2.8,6.7,0.6,6.5
06/04/2013,2.2,4.6,-0.2,31.6
07/04/2013,6.8,10.8,2.6,0.2
08/04/2013,9.5,14.1,5.3,1.7
09/04/2013,9.7,11.7,5.2,1.4
10/04/2013,12.7,21.8,2.7,0.0
11/04/2013,13.4,17.7,9.4,3.6
12/04/2013,11.6,15.6,7.7,0.5
13/04/2013,15.7,22.1,6.8,0.0
14/04/2013,19.0,24.8,13.4,0.0
15/04/2013,16.2,25.2,7.9,1.6
16/04/2013,16.4,26.2,8.7,0.0
17/04/2013,17.4,28.5,6.8,0.0
18/04/2013,10.0,13.7,6.6,0.0
19/04/2013,8.1,11.0,6.2,0.7
20/04/2013,7.5,12.5,-0.3,0.7
21/04/2013,7.2,13.4,-0.7,0.0
22/04/2013,8.3,12.2,5.0,0.4
23/04/2013,10.3,17.4,3.6,0.0
24/04/2013,13.2,22.1,2.0,0.0
25/04/2013,15.9,23.2,7.3,0.0
26/04/2013,10.4,13.4,5.8,7.5
27/04/2013,4.3,6.9,1.7,10.8
28/04/2013,4.2,7.7,0.8,8.3
29/04/2013,6.5,10.0,4.8,9.4
30/04/2013,7.4,11.2,5.3,10.8
01/05/2013,8.6,14.9,5.4,5.8
02/05/2013,7.6,9.7,5.9,8.2
03/05/2013,8.3,11.2,6.3,0.8
04/05/2013,11.8,18.4,6.1,0.0
05/05/2013,12.0,20.7,2.9,0.0
06/05/2013,12.8,25.3,1.4,0.1
07/05/2013,16.9,22.0,12.8,0.2
08/05/2013,15.5,18.2,11.9,4.1
09/05/2013,11.4,14.0,9.0,8.7
10/05/2013,10.1,14.3,4.3,0.0
11/05/2013,9.2,14.0,3.8,0.0
12/05/2013,9.0,11.5,4.1,0.0
13/05/2013,10.4,19.4,0.6,0.0
14/05/2013,11.4,22.5,2.5,5.9
15/05/2013,7.4,10.2,5.4,5.2
16/05/2013,6.9,12.9,3.5,2.0
17/05/2013,7.1,12.7,4.1,29.0
18/05/2013,6.0,9.1,2.6,40.0
19/05/2013,8.0,12.9,4.1,2.7
20/05/2013,7.1,13.0,1.7,0.2
21/05/2013,6.0,9.0,0.3,2.3
22/05/2013,9.4,12.0,7.9,9.0
23/05/2013,8.7,10.3,7.6,4.8
24/05/2013,8.2,12.0,5.7,2.6
25/05/2013,7.5,12.0,0.3,3.0
26/05/2013,9.6,20.6,-1.1,0.6
27/05/2013,11.4,17.8,8.0,7.7
28/05/2013,8.7,11.4,6.0,12.0
29/05/2013,7.6,11.8,5.2,7.6
30/05/2013,8.6,10.1,6.4,18.4
31/05/2013,9.6,10.5,8.4,11.1
01/06/2013,9.8,11.0,8.8,1.8
02/06/2013,10.3,12.0,8.2,0.4
03/06/2013,11.2,16.3,5.2,0.0
04/06/2013,13.0,22.7,1.6,0.0
05/06/2013,16.1,27.7,3.6,0.0
06/06/2013,18.4,25.7,10.1,4.2
07/06/2013,15.6,23.2,10.3,37.7
08/06/2013,11.0,12.2,9.9,29.6
09/06/2013,12.3,15.1,10.6,34.4
10/06/2013,15.9,22.8,11.9,0.0
11/06/2013,18.2,24.8,12.2,0.0
12/06/2013,20.7,32.1,9.9,0.0
13/06/2013,15.6,17.9,13.6,0.1
14/06/2013,18.2,28.0,10.0,0.0
15/06/2013,15.3,22.5,6.7,0.0
16/06/2013,21.9,30.9,11.2,0.0
17/06/2013,17.2,23.1,12.3,0.0
18/06/2013,12.2,15.3,9.1,11.8
19/06/2013,11.0,14.6,9.2,8.5
20/06/2013,12.3,17.4,9.8,1.9
21/06/2013,12.6,15.1,10.6,11.8
22/06/2013,15.4,23.6,6.7,0.0
23/06/2013,12.6,14.7,10.4,0.1
24/06/2013,12.2,16.5,7.1,0.0
25/06/2013,12.5,18.2,5.3,0.0
26/06/2013,15.1,21.4,11.1,0.0
27/06/2013,14.0,19.5,6.7,0.0
28/06/2013,14.8,20.4,9.7,0.0
29/06/2013,15.3,22.2,7.2,0.0
30/06/2013,16.8,22.9,12.1,0.0
01/07/2013,18.4,24.8,14.6,0.0
02/07/2013,20.2,29.4,15.0,0.0
03/07/2013,17.6,21.2,15.5,0.1
04/07/2013,18.7,25.2,13.1,0.1
05/07/2013,20.9,31.1,12.7,0.0
06/07/2013,20.8,29.7,11.9,0.0
07/07/2013,19.7,28.1,9.5,0.0
08/07/2013,21.8,31.7,10.9,0.0
09/07/2013,23.6,32.3,14.5,0.0
10/07/2013,22.8,31.9,14.1,0.0
11/07/2013,22.7,30.3,14.5,0.0
12/07/2013,22.6,33.3,15.4,1.0
13/07/2013,21.6,29.9,15.1,0.1
14/07/2013,20.6,27.3,14.0,0.0
15/07/2013,20.1,28.7,11.6,0.0
16/07/2013,20.5,27.1,15.9,2.4
17/07/2013,20.0,27.0,13.3,0.0
18/07/2013,19.4,27.4,12.1,0.0
19/07/2013,21.6,31.4,12.5,0.0
20/07/2013,24.1,32.7,16.6,0.1
21/07/2013,23.5,32.0,15.8,3.9
22/07/2013,23.1,32.9,12.8,5.9
23/07/2013,21.0,29.5,16.2,0.8
24/07/2013,23.7,31.6,16.9,0.0
25/07/2013,24.9,34.7,19.6,0.0
26/07/2013,24.6,33.4,18.5,0.0
27/07/2013,21.2,27.3,15.7,0.1
28/07/2013,19.9,27.1,12.6,0.0
29/07/2013,18.5,26.9,9.0,0.0
30/07/2013,20.9,30.7,11.1,0.0
31/07/2013,24.1,35.0,10.2,0.0
01/08/2013,29.1,34.9,24.3,0.0
02/08/2013,25.0,34.5,18.5,0.0
03/08/2013,20.1,26.2,16.8,0.0
04/08/2013,21.2,30.0,16.0,0.0
05/08/2013,19.4,23.4,15.3,1.6
06/08/2013,18.2,23.9,16.0,1.3
07/08/2013,16.2,21.8,13.5,5.5
08/08/2013,15.2,20.7,10.1,1.0
09/08/2013,15.8,23.4,7.3,0.0
10/08/2013,17.9,24.7,9.8,0.0
11/08/2013,20.7,30.6,10.7,0.0
12/08/2013,19.9,26.0,16.9,5.6
13/08/2013,18.7,24.2,14.4,0.0
14/08/2013,17.6,25.7,10.0,0.0
15/08/2013,19.0,31.7,7.5,0.0
16/08/2013,17.8,24.9,12.4,0.0
17/08/2013,20.0,27.8,13.2,0.0
18/08/2013,20.1,30.8,11.1,0.0
19/08/2013,17.4,20.8,13.3,0.0
20/08/2013,18.5,25.7,11.8,0.0
21/08/2013,19.7,33.3,7.7,0.0
22/08/2013,23.0,32.4,14.2,0.0
23/08/2013,18.2,22.0,16.1,0.1
24/08/2013,16.4,19.3,13.9,1.2
25/08/2013,16.4,22.6,13.1,0.7
26/08/2013,15.0,18.2,10.7,0.5
27/08/2013,16.1,21.7,11.0,0.0
28/08/2013,16.6,21.6,12.5,0.0
29/08/2013,16.1,22.9,7.9,0.0
30/08/2013,15.7,22.8,8.4,0.0
31/08/2013,16.6,21.6,8.6,0.0
01/09/2013,18.4,23.2,13.7,0.0
02/09/2013,17.8,25.6,9.4,0.5
03/09/2013,18.5,31.2,6.7,0.0
04/09/2013,21.7,30.9,10.7,0.0
05/09/2013,21.8,30.1,14.9,6.1
06/09/2013,17.8,24.1,14.3,1.2
07/09/2013,14.7,18.1,13.3,1.3
08/09/2013,13.2,18.0,7.0,0.5
09/09/2013,14.0,22.6,4.5,0.0
10/09/2013,15.7,18.3,12.4,0.0
11/09/2013,12.9,17.6,9.8,0.4
12/09/2013,13.6,18.2,10.6,0.0
13/09/2013,16.0,22.0,10.3,0.0
14/09/2013,16.1,24.4,9.2,1.8
15/09/2013,13.4,17.8,7.7,1.2
16/09/2013,12.8,19.5,5.0,1.8
17/09/2013,12.8,14.9,11.5,2.0
18/09/2013,15.3,18.8,12.4,1.8
19/09/2013,15.1,17.4,13.0,0.8
20/09/2013,16.3,21.4,12.3,2.3
21/09/2013,15.7,23.6,9.1,0.0
22/09/2013,17.1,30.1,9.6,0.0
23/09/2013,18.5,28.5,6.9,0.0
24/09/2013,21.2,30.1,14.1,0.0
25/09/2013,24.3,29.8,17.8,0.0
26/09/2013,25.2,30.2,20.8,0.0
27/09/2013,24.7,29.8,20.9,0.0
28/09/2013,19.3,24.8,14.4,0.6
29/09/2013,17.0,22.0,11.8,0.1
30/09/2013,17.9,25.2,11.5,0.0
01/10/2013,18.1,22.8,13.3,1.3
02/10/2013,20.2,28.0,15.5,4.3
03/10/2013,21.4,25.5,16.4,35.3
04/10/2013,15.9,23.8,10.1,45.4
05/10/2013,12.7,17.2,7.5,1.1
06/10/2013,14.1,19.7,9.9,1.1
07/10/2013,11.9,18.5,6.4,0.0
08/10/2013,11.3,16.9,4.7,0.0
09/10/2013,12.2,16.6,4.5,0.0
10/10/2013,9.4,14.3,3.4,0.4
11/10/2013,7.0,13.3,1.1,0.7
12/10/2013,6.2,17.0,-0.1,0.1
13/10/2013,8.6,18.1,1.2,0.0
14/10/2013,13.0,20.6,7.9,0.6
15/10/2013,15.2,17.8,12.7,1.8
16/10/2013,17.5,24.0,12.8,0.0
17/10/2013,17.2,24.2,11.9,0.0
18/10/2013,21.2,25.8,17.5,0.0
19/10/2013,19.1,22.5,16.2,0.0
20/10/2013,16.0,22.3,9.2,0.0
21/10/2013,15.6,19.7,7.6,0.0
22/10/2013,16.4,18.0,14.0,3.9
23/10/2013,14.7,21.3,7.1,0.0
24/10/2013,16.4,20.4,7.1,1.1
25/10/2013,18.1,19.9,16.1,5.8
26/10/2013,16.3,21.0,7.9,0.2
27/10/2013,15.5,20.8,7.5,0.0
28/10/2013,13.4,17.6,7.9,1.6
29/10/2013,8.3,10.5,5.5,4.4
30/10/2013,8.3,12.6,4.8,0.6
31/10/2013,6.2,15.2,-0.2,0.0
01/11/2013,7.9,14.7,0.9,2.5
02/11/2013,14.8,20.1,10.9,5.8
03/11/2013,10.7,14.2,6.4,1.8
04/11/2013,10.2,12.2,8.6,43.1
05/11/2013,14.6,16.4,10.5,15.7
06/11/2013,15.2,21.1,9.9,0.0
07/11/2013,12.5,19.6,7.6,0.0
08/11/2013,10.6,16.1,7.3,3.5
09/11/2013,8.2,12.2,2.6,4.2
10/11/2013,11.2,12.3,10.1,15.1
11/11/2013,11.0,12.1,10.2,20.7
12/11/2013,11.1,13.2,9.9,3.5
13/11/2013,11.5,14.0,10.0,3.6
14/11/2013,8.9,10.2,6.6,8.7
15/11/2013,2.4,6.9,0.0,38.5
16/11/2013,3.6,7.9,0.1,3.0
17/11/2013,6.5,7.5,5.6,3.1
18/11/2013,7.4,9.1,5.9,28.7
19/11/2013,6.1,8.2,2.5,27.4
20/11/2013,2.5,4.3,0.7,20.5
21/11/2013,4.3,5.7,2.7,46.7
22/11/2013,2.9,5.3,1.4,18.4
23/11/2013,3.9,6.0,1.5,2.4
24/11/2013,4.7,5.3,3.6,0.8
25/11/2013,4.3,5.4,2.7,0.5
26/11/2013,2.8,4.5,1.1,0.0
27/11/2013,1.2,4.2,-3.8,0.0
28/11/2013,-1.6,7.9,-7.5,0.0
29/11/2013,3.5,5.2,-0.8,0.0
30/11/2013,5.4,7.4,3.1,12.9
01/12/2013,3.7,5.3,1.7,0.0
02/12/2013,3.4,5.6,-2.8,0.0
03/12/2013,1.8,11.9,-3.9,0.0
04/12/2013,4.3,14.0,-4.1,0.0
05/12/2013,6.6,8.3,4.7,0.1
06/12/2013,4.8,10.1,1.1,0.0
07/12/2013,1.3,11.7,-3.8,0.1
08/12/2013,-0.9,9.7,-4.2,0.1
09/12/2013,0.7,8.7,-4.3,0.2
10/12/2013,2.0,9.0,-3.9,0.0
11/12/2013,5.2,9.3,-0.2,0.0
12/12/2013,2.5,6.8,-1.5,0.0
13/12/2013,2.6,6.5,-0.6,8.0
14/12/2013,6.2,13.5,-1.4,2.3
15/12/2013,4.0,13.2,-3.8,0.1
16/12/2013,9.4,12.8,7.1,0.0
17/12/2013,8.0,10.2,6.5,0.0
18/12/2013,8.1,10.8,4.0,1.3
19/12/2013,6.8,11.1,3.4,15.9
20/12/2013,4.2,8.1,-1.4,7.1
21/12/2013,1.3,6.7,-3.6,0.1
22/12/2013,1.9,11.2,-3.2,0.0
23/12/2013,4.7,9.6,-1.9,0.0
24/12/2013,8.4,9.9,7.4,14.3
25/12/2013,7.4,9.8,3.2,0.2
26/12/2013,2.9,4.8,0.9,6.9
27/12/2013,9.5,16.7,2.9,0.1
28/12/2013,6.1,11.1,-0.3,5.0
29/12/2013,1.4,5.9,-2.4,0.2
30/12/2013,2.4,10.2,-2.3,0.1
31/12/2013,5.8,11.8,0.0,0.2
