Fecha, Temperatura media, Temperatura maxima, Temperatura minima, Precipitacion acumulada
01/01/2015,7.8,14.1,1.8,0.0
02/01/2015,6.5,14.9,-0.6,0.0
03/01/2015,8.0,16.3,1.2,0.0
04/01/2015,9.6,13.6,5.0,0.0
05/01/2015,2.7,5.7,-0.7,0.0
06/01/2015,4.4,11.0,-1.7,0.1
07/01/2015,2.7,7.4,-1.5,0.1
08/01/2015,2.8,7.9,0.2,0.1
09/01/2015,7.9,15.8,1.8,0.0
10/01/2015,8.8,15.0,2.5,0.0
11/01/2015,7.6,11.7,1.1,0.0
12/01/2015,3.7,11.6,-2.4,0.0
13/01/2015,2.9,9.3,-1.4,0.0
14/01/2015,6.3,12.4,0.6,0.0
15/01/2015,8.1,10.9,5.5,0.0
16/01/2015,5.6,8.9,1.8,3.2
17/01/2015,3.2,8.2,-1.0,0.9
18/01/2015,2.2,4.5,-1.0,1.0
19/01/2015,2.6,6.4,-0.1,2.4
20/01/2015,1.1,3.6,-1.0,0.0
21/01/2015,2.5,5.9,0.4,0.6
22/01/2015,2.7,6.6,-1.0,0.5
23/01/2015,3.9,6.8,1.3,0.1
24/01/2015,4.5,8.2,0.3,0.0
25/01/2015,3.6,6.7,1.9,0.0
26/01/2015,4.8,7.4,2.1,0.0
27/01/2015,6.3,9.9,3.2,0.2
28/01/2015,6.8,9.5,4.3,0.0
29/01/2015,8.7,12.4,3.4,0.0
30/01/2015,6.3,11.8,4.0,32.2
31/01/2015,3.0,5.9,0.1,16.8
01/02/2015,0.8,2.9,-0.4,14.9
02/02/2015,3.2,5.8,0.4,0.5
03/02/2015,2.3,5.4,-0.7,2.9
04/02/2015,-0.5,0.8,-2.1,0.7
05/02/2015,-0.4,2.3,-2.3,0.0
06/02/2015,-1.7,0.0,-3.1,0.0
07/02/2015,0.1,3.8,-2.8,0.0
08/02/2015,1.5,3.7,-2.5,0.0
09/02/2015,2.7,7.7,-1.0,0.0
10/02/2015,2.4,9.8,-3.5,0.0
11/02/2015,3.2,8.5,-2.3,0.1
12/02/2015,5.7,10.3,2.7,1.0
13/02/2015,6.5,12.7,1.0,0.0
14/02/2015,6.0,8.1,2.6,6.7
15/02/2015,7.4,11.4,5.3,4.4
16/02/2015,7.0,10.6,4.5,1.9
17/02/2015,5.9,8.2,4.3,0.1
18/02/2015,4.9,8.0,0.6,0.0
19/02/2015,4.4,11.8,-1.7,0.0
20/02/2015,5.2,10.7,-0.7,2.2
21/02/2015,4.9,7.5,2.5,8.4
22/02/2015,5.1,8.4,2.4,2.4
23/02/2015,8.0,13.3,4.6,3.6
24/02/2015,3.4,5.6,1.4,17.7
25/02/2015,7.1,10.5,2.9,7.8
26/02/2015,10.1,12.8,8.1,0.2
27/02/2015,6.0,9.4,3.0,0.8
28/02/2015,7.5,12.2,1.2,0.0
01/03/2015,12.7,17.1,9.2,0.2
02/03/2015,12.7,16.2,9.7,0.4
03/03/2015,12.1,18.7,8.4,0.0
04/03/2015,6.4,10.1,3.1,0.1
05/03/2015,5.5,9.1,2.1,0.0
06/03/2015,8.4,16.5,0.5,0.0
07/03/2015,11.8,21.0,2.8,0.0
08/03/2015,13.0,18.7,5.7,0.0
09/03/2015,13.1,21.2,5.4,0.0
10/03/2015,13.4,21.2,4.6,0.0
11/03/2015,11.9,21.2,4.9,0.0
12/03/2015,11.3,21.3,3.7,0.0
13/03/2015,8.2,11.1,3.5,0.0
14/03/2015,3.9,6.4,1.1,2.0
15/03/2015,4.9,8.6,3.3,0.3
16/03/2015,6.5,11.3,2.6,0.0
17/03/2015,8.5,14.1,1.5,0.0
18/03/2015,9.2,12.7,7.1,3.4
19/03/2015,10.6,16.0,7.2,7.7
20/03/2015,8.3,12.1,5.4,3.4
21/03/2015,6.9,10.1,4.6,7.2
22/03/2015,6.6,8.8,3.3,4.6
23/03/2015,4.5,9.1,1.7,24.1
24/03/2015,7.1,9.8,3.9,1.5
25/03/2015,4.3,7.7,0.7,0.8
26/03/2015,7.4,10.9,3.2,0.3
27/03/2015,11.2,14.9,7.3,0.0
28/03/2015,12.3,16.9,6.7,0.0
29/03/2015,12.6,18.8,6.3,0.0
30/03/2015,13.0,16.2,9.1,0.0
31/03/2015,12.4,16.7,8.0,0.0
01/04/2015,9.4,12.1,5.4,0.0
02/04/2015,11.3,18.7,4.0,0.0
03/04/2015,12.3,20.2,4.5,0.0
04/04/2015,9.5,12.5,6.9,0.0
05/04/2015,10.1,14.4,5.9,0.0
06/04/2015,11.2,18.9,4.7,0.0
07/04/2015,11.7,17.2,4.5,0.0
08/04/2015,10.6,16.2,3.6,0.0
09/04/2015,10.7,16.2,5.4,0.0
10/04/2015,12.4,18.0,7.3,0.0
11/04/2015,13.1,18.5,7.6,0.0
12/04/2015,14.3,21.2,6.7,0.0
13/04/2015,15.3,22.7,6.0,0.0
14/04/2015,16.9,24.7,7.6,0.0
15/04/2015,13.3,16.7,9.1,0.0
16/04/2015,11.9,17.7,8.2,18.4
17/04/2015,13.3,18.6,7.9,0.5
18/04/2015,13.1,18.7,9.4,5.1
19/04/2015,11.0,15.6,6.0,0.0
20/04/2015,12.4,19.7,4.2,0.0
21/04/2015,15.0,21.2,7.5,0.0
22/04/2015,13.7,18.6,9.9,0.0
23/04/2015,14.0,20.3,7.9,0.0
24/04/2015,15.1,21.5,8.1,0.0
25/04/2015,16.2,20.7,10.8,0.0
26/04/2015,12.4,16.4,9.2,9.8
27/04/2015,11.1,14.9,8.4,0.1
28/04/2015,10.0,14.4,4.8,0.0
29/04/2015,11.8,17.4,6.4,0.0
30/04/2015,14.1,21.8,5.5,0.0
01/05/2015,16.2,19.5,12.9,0.1
02/05/2015,18.4,24.0,12.4,0.0
03/05/2015,18.2,21.3,15.8,1.7
04/05/2015,19.2,24.5,15.0,0.2
05/05/2015,16.4,21.8,11.6,0.0
06/05/2015,13.7,20.5,6.6,0.0
07/05/2015,16.9,25.1,8.3,0.0
08/05/2015,17.8,23.6,11.3,0.0
09/05/2015,16.9,23.5,9.7,0.0
10/05/2015,20.5,29.0,10.1,0.0
11/05/2015,22.5,30.2,13.1,0.0
12/05/2015,22.6,31.6,13.6,0.0
13/05/2015,23.8,32.1,15.7,0.0
14/05/2015,16.8,24.1,9.3,0.0
15/05/2015,10.9,13.3,9.1,0.2
16/05/2015,12.5,15.4,9.6,0.0
17/05/2015,15.3,19.7,10.6,0.0
18/05/2015,15.3,26.8,7.0,0.0
19/05/2015,11.5,15.2,9.2,0.0
20/05/2015,10.5,14.1,7.4,0.0
21/05/2015,10.7,14.6,7.3,0.0
22/05/2015,11.7,16.7,6.9,0.0
23/05/2015,12.6,16.3,9.6,0.0
24/05/2015,15.4,19.9,10.5,0.0
25/05/2015,14.7,17.7,12.6,0.0
26/05/2015,13.3,17.6,9.5,0.0
27/05/2015,16.1,21.9,11.6,0.0
28/05/2015,17.2,27.0,7.2,0.0
29/05/2015,16.0,22.0,11.4,0.0
30/05/2015,16.3,23.7,7.6,0.0
31/05/2015,19.1,28.2,9.9,0.0
01/06/2015,19.8,29.4,12.8,0.0
02/06/2015,22.1,30.7,13.0,0.0
03/06/2015,24.6,32.5,15.9,0.0
04/06/2015,25.4,32.7,15.9,0.0
05/06/2015,23.6,31.7,15.2,0.0
06/06/2015,21.1,30.5,15.3,0.0
07/06/2015,22.5,32.4,12.8,0.0
08/06/2015,23.1,30.7,16.2,0.0
09/06/2015,19.0,24.6,14.4,0.0
10/06/2015,14.9,18.3,12.7,18.2
11/06/2015,15.9,19.7,13.2,72.0
12/06/2015,17.4,24.9,11.3,0.4
13/06/2015,16.3,23.2,13.1,13.6
14/06/2015,16.5,22.9,11.5,0.1
15/06/2015,16.4,21.8,11.9,0.0
16/06/2015,15.2,18.8,11.6,0.0
17/06/2015,16.1,20.8,10.7,0.0
18/06/2015,17.5,22.4,12.9,0.0
19/06/2015,17.3,22.4,13.3,0.0
20/06/2015,19.2,25.7,12.7,0.0
21/06/2015,21.5,29.5,13.0,0.0
22/06/2015,22.7,31.9,14.0,4.7
23/06/2015,19.6,24.5,14.6,0.3
24/06/2015,20.2,27.4,13.2,0.0
25/06/2015,23.2,31.4,13.3,0.0
26/06/2015,24.6,34.2,16.4,0.0
27/06/2015,23.4,31.1,15.5,0.0
28/06/2015,24.0,33.3,16.3,0.0
29/06/2015,26.5,36.1,16.5,0.0
30/06/2015,29.3,37.7,21.2,0.3
01/07/2015,29.8,36.4,21.9,0.0
02/07/2015,27.6,33.5,23.0,0.0
03/07/2015,28.2,35.2,20.8,0.0
04/07/2015,28.7,35.7,21.5,0.0
05/07/2015,24.2,33.5,18.3,0.0
06/07/2015,26.8,37.1,15.5,0.0
07/07/2015,26.1,35.6,19.0,0.0
08/07/2015,19.2,22.1,15.0,0.0
09/07/2015,19.7,25.9,14.7,0.0
10/07/2015,23.7,36.3,13.8,0.0
11/07/2015,20.6,25.6,17.5,0.0
12/07/2015,21.2,28.5,16.1,0.0
13/07/2015,22.5,31.2,15.7,0.0
14/07/2015,24.6,34.3,16.7,0.0
15/07/2015,27.0,36.5,17.4,0.0
16/07/2015,26.1,33.9,20.1,4.5
17/07/2015,25.1,34.4,18.7,1.9
18/07/2015,24.6,33.6,18.7,3.7
19/07/2015,24.7,32.0,18.1,0.0
20/07/2015,27.1,35.3,19.0,0.0
21/07/2015,25.9,35.3,19.1,2.1
22/07/2015,22.0,28.2,17.6,0.0
23/07/2015,24.5,33.3,17.5,0.0
24/07/2015,23.3,32.1,17.5,0.0
25/07/2015,18.5,22.0,15.0,0.0
26/07/2015,21.2,31.7,10.9,0.0
27/07/2015,20.7,25.2,16.8,0.0
28/07/2015,22.0,30.7,13.7,0.0
29/07/2015,21.3,28.4,15.7,0.0
30/07/2015,15.3,18.7,12.5,9.0
31/07/2015,16.6,20.8,13.8,5.1
01/08/2015,18.0,23.0,12.5,0.0
02/08/2015,23.1,31.3,13.1,0.0
03/08/2015,25.4,32.7,18.6,5.4
04/08/2015,22.0,27.2,18.1,0.0
05/08/2015,25.2,34.5,18.2,0.0
06/08/2015,26.2,35.9,16.4,0.0
07/08/2015,22.4,27.6,17.6,0.0
08/08/2015,16.9,19.7,13.5,1.4
09/08/2015,17.4,22.5,11.6,0.0
10/08/2015,22.0,31.1,13.3,0.0
11/08/2015,25.3,34.3,16.3,0.0
12/08/2015,26.7,34.4,19.8,0.0
13/08/2015,21.3,26.1,17.2,10.2
14/08/2015,17.5,22.3,15.2,0.0
15/08/2015,17.5,22.5,12.3,0.0
16/08/2015,19.0,27.0,9.4,0.1
17/08/2015,19.3,24.4,15.5,0.9
18/08/2015,18.5,24.4,13.6,0.0
19/08/2015,19.6,27.2,11.3,0.0
20/08/2015,22.4,33.2,12.6,0.0
21/08/2015,25.2,33.1,16.6,0.0
22/08/2015,24.0,30.4,18.8,0.7
23/08/2015,21.9,28.0,18.0,0.0
24/08/2015,18.5,23.2,14.3,0.1
25/08/2015,19.9,27.8,10.8,0.0
26/08/2015,24.8,31.9,16.8,0.0
27/08/2015,26.0,34.6,19.8,0.0
28/08/2015,26.4,33.7,18.7,0.0
29/08/2015,27.3,33.6,20.2,0.0
30/08/2015,26.0,32.4,19.7,1.3
31/08/2015,20.8,30.1,15.8,7.9
01/09/2015,18.2,21.8,14.5,0.1
02/09/2015,17.6,23.9,12.8,8.7
03/09/2015,16.6,20.6,13.4,0.2
04/09/2015,15.1,19.8,11.2,0.2
05/09/2015,14.8,19.9,9.7,0.0
06/09/2015,15.8,22.4,8.8,0.0
07/09/2015,15.9,22.5,9.4,0.0
08/09/2015,16.3,23.8,8.6,0.0
09/09/2015,19.5,26.0,12.2,0.0
10/09/2015,19.6,25.3,16.0,0.1
11/09/2015,20.8,26.8,15.4,0.0
12/09/2015,21.4,25.0,18.3,3.2
13/09/2015,18.7,21.6,14.7,0.0
14/09/2015,17.3,22.1,13.1,0.0
15/09/2015,16.0,19.2,13.5,2.1
16/09/2015,20.1,26.1,15.9,0.1
17/09/2015,14.7,19.3,10.0,0.0
18/09/2015,14.2,21.6,6.7,0.0
19/09/2015,15.7,22.4,9.2,0.0
20/09/2015,17.0,25.2,9.3,0.0
21/09/2015,17.6,26.3,9.2,0.0
22/09/2015,16.5,20.9,12.2,0.0
23/09/2015,14.0,17.4,11.7,0.2
24/09/2015,17.0,24.0,11.5,0.0
25/09/2015,19.3,27.0,11.4,0.0
26/09/2015,18.3,25.8,12.2,0.0
27/09/2015,16.3,23.3,11.0,0.0
28/09/2015,16.1,23.3,9.0,0.0
29/09/2015,16.2,23.2,10.6,21.6
30/09/2015,16.5,21.9,12.6,0.0
01/10/2015,16.2,23.9,10.5,0.0
02/10/2015,13.6,17.4,10.0,0.0
03/10/2015,13.5,19.9,7.1,0.0
04/10/2015,14.4,19.0,10.2,2.3
05/10/2015,20.8,25.2,17.4,0.7
06/10/2015,17.6,22.3,13.1,2.0
07/10/2015,13.7,16.9,11.1,0.1
08/10/2015,13.4,18.8,8.9,0.0
09/10/2015,13.3,21.4,6.5,0.0
10/10/2015,15.2,23.0,8.3,0.0
11/10/2015,15.7,17.4,12.4,0.1
12/10/2015,15.9,22.5,12.3,23.7
13/10/2015,11.9,15.0,10.0,0.2
14/10/2015,9.3,12.8,6.5,0.0
15/10/2015,9.1,15.0,3.9,0.0
16/10/2015,9.2,15.5,3.1,0.0
17/10/2015,12.1,18.5,4.7,2.8
18/10/2015,15.7,20.6,13.0,0.4
19/10/2015,15.6,18.0,14.5,4.8
20/10/2015,12.6,14.9,10.7,0.3
21/10/2015,10.5,13.0,8.1,0.0
22/10/2015,11.5,13.7,7.6,0.0
23/10/2015,13.6,19.0,8.0,0.0
24/10/2015,15.0,19.0,11.3,0.0
25/10/2015,15.8,20.2,12.8,0.0
26/10/2015,15.7,19.6,12.2,0.0
27/10/2015,14.0,19.2,9.1,23.2
28/10/2015,11.8,16.4,9.1,0.7
29/10/2015,14.0,19.8,10.6,0.0
30/10/2015,14.8,20.7,9.1,0.0
31/10/2015,14.3,18.6,12.0,0.0
01/11/2015,13.3,17.0,9.2,0.0
02/11/2015,13.1,16.3,11.0,21.6
03/11/2015,12.2,14.4,10.0,7.7
04/11/2015,13.4,17.1,8.4,0.0
05/11/2015,13.2,16.8,9.4,0.0
06/11/2015,14.6,20.7,10.4,0.0
07/11/2015,14.4,20.1,10.0,0.0
08/11/2015,14.2,20.8,9.6,0.1
09/11/2015,14.0,20.6,10.8,0.1
10/11/2015,12.1,15.1,10.6,0.0
11/11/2015,10.1,11.5,9.0,0.2
12/11/2015,9.1,10.1,8.1,0.1
13/11/2015,11.5,16.5,6.2,0.0
14/11/2015,11.4,16.9,7.4,0.0
15/11/2015,8.0,9.9,5.4,0.2
16/11/2015,6.9,14.5,3.3,0.1
17/11/2015,8.4,15.8,2.0,0.0
18/11/2015,11.9,18.9,6.8,0.0
19/11/2015,13.5,18.9,9.2,0.0
20/11/2015,11.6,15.1,6.0,0.0
21/11/2015,8.2,14.9,3.5,11.6
22/11/2015,4.1,6.8,2.2,7.6
23/11/2015,3.1,7.3,0.5,0.1
24/11/2015,5.9,8.2,2.5,0.1
25/11/2015,10.3,13.2,7.5,2.8
26/11/2015,10.9,12.6,8.7,0.0
27/11/2015,9.4,11.5,7.9,0.0
28/11/2015,8.6,10.5,5.4,0.0
29/11/2015,7.5,12.1,3.8,0.0
30/11/2015,5.8,13.2,1.2,0.0
01/12/2015,4.1,10.7,-0.9,0.0
02/12/2015,5.6,11.7,0.6,0.0
03/12/2015,5.6,11.4,1.8,0.0
04/12/2015,8.7,15.1,2.5,0.0
05/12/2015,8.0,13.3,4.6,0.0
06/12/2015,8.4,11.5,4.9,0.0
07/12/2015,9.5,12.8,8.0,0.0
08/12/2015,9.4,11.3,7.2,0.0
09/12/2015,9.7,15.5,5.6,0.0
10/12/2015,5.6,6.4,3.1,0.1
11/12/2015,5.4,6.3,4.7,0.0
12/12/2015,4.4,5.2,3.3,0.1
13/12/2015,4.3,5.0,3.1,0.0
14/12/2015,4.0,7.2,2.3,0.0
15/12/2015,6.1,9.7,3.6,0.0
16/12/2015,8.4,15.0,4.3,0.0
17/12/2015,7.4,11.9,3.3,0.0
18/12/2015,8.1,15.6,3.8,0.0
19/12/2015,8.3,13.7,4.1,0.0
20/12/2015,7.9,10.2,5.0,0.0
21/12/2015,8.0,12.9,3.4,0.0
22/12/2015,4.3,6.7,1.1,0.0
23/12/2015,3.5,4.8,1.1,0.2
24/12/2015,5.8,7.3,4.3,0.2
25/12/2015,5.9,6.5,4.5,0.2
26/12/2015,3.8,5.3,2.3,0.0
27/12/2015,3.1,5.6,1.8,0.1
28/12/2015,9.6,12.7,5.7,0.0
29/12/2015,8.7,12.6,5.9,0.7
30/12/2015,6.7,10.9,2.6,0.0
31/12/2015,8.3,11.0,3.4,1.2
