Fecha, Temperatura media, Temperatura maxima, Temperatura minima, Precipitacion acumulada
01/01/2013,6.6,10.1,4.0,0.7
02/01/2013,6.6,7.8,5.2,1.7
03/01/2013,7.0,12.8,2.5,0.0
04/01/2013,7.7,15.3,0.6,0.0
05/01/2013,11.5,17.9,4.8,0.0
06/01/2013,10.1,16.9,4.6,0.0
07/01/2013,6.9,14.1,2.3,0.0
08/01/2013,4.7,11.7,-0.2,0.0
09/01/2013,3.2,7.7,-1.8,2.5
10/01/2013,8.8,13.6,5.2,0.0
11/01/2013,5.7,10.9,2.0,0.0
12/01/2013,5.3,10.0,1.9,1.0
13/01/2013,4.2,7.1,2.0,2.4
14/01/2013,3.4,5.2,2.4,18.7
15/01/2013,5.0,7.1,3.1,20.1
16/01/2013,7.8,11.2,4.9,3.4
17/01/2013,5.4,9.4,3.1,1.7
18/01/2013,7.3,11.4,3.7,10.2
19/01/2013,9.4,11.9,5.4,11.7
20/01/2013,5.5,7.9,3.3,4.1
21/01/2013,4.9,7.9,0.3,1.7
22/01/2013,2.4,5.6,-0.5,0.4
23/01/2013,2.8,6.6,-0.2,12.3
24/01/2013,4.3,8.4,1.8,9.7
25/01/2013,5.2,9.3,0.7,3.4
26/01/2013,7.9,11.3,3.9,1.7
27/01/2013,5.7,9.3,2.5,9.5
28/01/2013,6.4,11.5,3.1,0.1
29/01/2013,6.1,12.6,1.6,0.0
30/01/2013,7.5,12.4,2.7,0.0
31/01/2013,11.0,17.3,6.4,0.0
01/02/2013,9.5,12.9,6.3,3.5
02/02/2013,4.5,8.6,2.1,17.2
03/02/2013,4.0,6.8,1.7,0.4
04/02/2013,8.3,11.5,4.0,0.0
05/02/2013,9.5,13.6,3.3,0.6
06/02/2013,3.4,4.9,1.0,25.4
07/02/2013,2.0,3.8,0.1,13.3
08/02/2013,2.7,4.7,0.3,16.3
09/02/2013,4.0,7.5,1.2,1.0
10/02/2013,4.5,9.2,1.2,6.4
11/02/2013,3.9,6.5,0.9,2.5
12/02/2013,3.1,6.7,-0.1,12.7
13/02/2013,6.5,9.4,3.3,0.2
14/02/2013,8.6,11.7,6.1,0.0
15/02/2013,8.5,11.7,5.5,0.0
16/02/2013,5.6,11.5,0.3,0.0
17/02/2013,5.1,9.4,1.4,0.0
18/02/2013,8.1,12.9,5.0,1.4
19/02/2013,9.1,11.7,7.1,0.0
20/02/2013,9.7,14.3,5.5,0.0
21/02/2013,9.6,13.2,6.0,0.0
22/02/2013,6.1,8.3,0.6,0.0
23/02/2013,-0.8,1.0,-2.6,0.0
24/02/2013,0.5,2.8,-0.7,0.5
25/02/2013,0.7,2.8,-1.0,0.1
26/02/2013,1.3,3.7,-0.5,0.1
27/02/2013,3.6,8.7,-0.9,0.0
28/02/2013,5.3,10.3,2.0,0.0
01/03/2013,6.7,11.1,2.5,0.0
02/03/2013,6.7,12.3,1.7,0.0
03/03/2013,7.8,13.6,1.7,0.0
04/03/2013,9.0,11.1,5.1,0.0
05/03/2013,10.7,11.5,9.7,2.8
06/03/2013,12.2,17.3,8.2,1.0
07/03/2013,12.1,16.4,8.8,11.0
08/03/2013,11.5,16.4,5.8,4.0
09/03/2013,10.0,15.3,4.3,0.1
10/03/2013,9.7,15.4,6.3,0.0
11/03/2013,8.7,13.7,3.9,1.8
12/03/2013,7.3,11.5,1.2,5.0
13/03/2013,1.6,2.8,0.4,0.0
14/03/2013,2.2,5.3,-0.5,6.8
15/03/2013,4.6,9.2,1.3,0.0
16/03/2013,6.1,9.1,1.6,0.2
17/03/2013,6.7,8.4,3.8,7.3
18/03/2013,5.9,12.0,0.2,0.0
19/03/2013,6.6,11.8,1.0,7.2
20/03/2013,7.9,12.6,3.2,0.6
21/03/2013,8.6,15.1,1.4,0.0
22/03/2013,10.8,18.5,5.8,2.4
23/03/2013,9.6,15.7,4.2,0.0
24/03/2013,10.4,16.0,4.6,0.0
25/03/2013,8.6,11.3,5.2,16.8
26/03/2013,10.9,15.9,7.5,7.5
27/03/2013,11.7,15.3,9.2,7.6
28/03/2013,12.7,17.0,9.9,0.5
29/03/2013,12.6,16.6,10.9,12.3
30/03/2013,10.5,14.2,7.6,4.4
31/03/2013,11.4,16.7,6.3,0.0
01/04/2013,9.7,13.0,7.2,16.6
02/04/2013,9.5,14.7,6.2,0.6
03/04/2013,10.0,15.8,3.3,7.8
04/04/2013,8.0,13.8,4.4,2.0
05/04/2013,4.8,8.8,2.5,0.0
06/04/2013,3.9,7.8,0.3,7.8
07/04/2013,8.1,12.0,3.9,0.0
08/04/2013,10.4,14.5,6.3,0.0
09/04/2013,10.7,14.7,7.1,0.1
10/04/2013,13.0,20.1,5.0,0.0
11/04/2013,13.5,18.7,8.2,1.2
12/04/2013,12.5,18.0,6.0,0.0
13/04/2013,14.2,21.1,6.9,0.0
14/04/2013,16.7,23.1,9.6,0.0
15/04/2013,16.2,23.1,9.8,0.0
16/04/2013,17.7,25.3,10.5,0.0
17/04/2013,19.2,26.1,11.7,0.0
18/04/2013,13.3,17.9,9.6,0.0
19/04/2013,9.4,13.0,6.4,0.0
20/04/2013,8.9,14.1,3.4,0.0
21/04/2013,9.6,15.3,3.2,0.0
22/04/2013,9.7,13.5,6.5,0.0
23/04/2013,12.0,19.3,4.1,0.0
24/04/2013,14.1,21.0,5.6,0.0
25/04/2013,14.8,21.8,8.5,0.1
26/04/2013,12.2,14.5,8.1,2.9
27/04/2013,6.3,9.8,2.9,4.4
28/04/2013,6.2,9.9,2.5,2.4
29/04/2013,7.7,10.6,6.1,7.0
30/04/2013,8.8,13.9,5.4,9.2
01/05/2013,10.1,15.0,6.9,0.2
02/05/2013,9.4,13.0,6.7,1.2
03/05/2013,9.7,14.4,4.4,0.0
04/05/2013,12.4,19.5,4.7,0.0
05/05/2013,14.8,21.4,7.9,0.0
06/05/2013,15.8,24.4,6.7,0.0
07/05/2013,17.6,22.1,13.3,0.2
08/05/2013,17.3,20.4,13.2,0.1
09/05/2013,13.7,18.5,10.5,2.0
10/05/2013,11.7,15.7,8.1,0.0
11/05/2013,11.0,15.3,7.2,0.0
12/05/2013,10.6,14.0,6.7,0.0
13/05/2013,13.5,21.8,4.7,0.0
14/05/2013,13.4,19.4,7.0,4.6
15/05/2013,8.9,11.5,5.6,1.3
16/05/2013,8.1,13.0,3.3,0.6
17/05/2013,8.7,13.4,5.0,22.6
18/05/2013,8.0,12.8,4.4,12.0
19/05/2013,9.6,14.3,6.7,0.4
20/05/2013,10.2,15.3,5.0,0.0
21/05/2013,8.4,12.0,2.9,0.0
22/05/2013,12.4,16.0,8.1,0.0
23/05/2013,10.4,12.4,8.8,0.0
24/05/2013,9.6,13.9,6.5,0.0
25/05/2013,9.4,13.7,4.8,0.0
26/05/2013,11.2,20.1,2.2,0.4
27/05/2013,13.1,19.5,10.1,4.8
28/05/2013,10.3,13.8,6.1,3.0
29/05/2013,8.6,14.1,3.2,1.0
30/05/2013,10.2,13.1,6.9,0.7
31/05/2013,11.5,14.3,9.7,0.5
01/06/2013,11.8,14.2,10.5,0.0
02/06/2013,12.4,16.3,9.5,0.0
03/06/2013,13.7,19.1,8.3,0.0
04/06/2013,15.6,24.2,5.9,0.0
05/06/2013,18.7,26.1,9.7,0.0
06/06/2013,19.5,26.5,12.4,0.0
07/06/2013,17.7,23.5,13.0,20.5
08/06/2013,12.1,13.8,10.9,19.9
09/06/2013,13.8,18.3,10.7,27.7
10/06/2013,17.3,22.4,13.2,0.0
11/06/2013,20.2,25.0,14.9,0.0
12/06/2013,22.8,29.9,14.5,0.0
13/06/2013,18.4,22.1,14.4,0.0
14/06/2013,19.9,28.4,12.0,0.0
15/06/2013,19.8,26.9,13.6,0.0
16/06/2013,23.9,32.1,14.1,0.0
17/06/2013,20.8,27.9,13.9,0.0
18/06/2013,13.7,16.4,10.7,9.0
19/06/2013,12.6,17.4,10.0,4.3
20/06/2013,14.7,19.7,10.7,2.4
21/06/2013,15.1,19.5,12.5,2.4
22/06/2013,17.5,24.8,9.1,0.0
23/06/2013,14.7,17.3,11.3,0.0
24/06/2013,13.6,18.3,9.6,0.0
25/06/2013,14.9,20.5,10.3,0.0
26/06/2013,16.8,22.5,11.5,0.0
27/06/2013,16.2,21.6,9.6,0.0
28/06/2013,16.8,22.2,12.0,0.0
29/06/2013,17.7,23.5,11.5,0.0
30/06/2013,20.5,28.2,13.7,0.0
01/07/2013,21.8,30.2,14.4,0.0
02/07/2013,23.1,29.9,15.3,0.0
03/07/2013,21.0,25.5,17.8,0.0
04/07/2013,21.3,26.1,16.6,0.0
05/07/2013,24.1,32.8,15.6,0.0
06/07/2013,25.0,33.5,17.0,0.0
07/07/2013,23.8,31.3,15.6,0.0
08/07/2013,25.7,33.9,17.0,0.0
09/07/2013,26.3,32.9,18.6,0.0
10/07/2013,25.6,33.7,18.7,3.2
11/07/2013,24.3,31.7,17.1,6.9
12/07/2013,25.5,32.6,18.9,0.6
13/07/2013,25.0,32.6,18.3,0.0
14/07/2013,22.7,30.6,17.0,32.9
15/07/2013,22.8,30.9,15.5,0.0
16/07/2013,22.9,30.0,16.0,11.1
17/07/2013,22.3,28.5,16.6,0.0
18/07/2013,22.9,29.9,16.0,0.0
19/07/2013,23.7,31.1,17.0,0.1
20/07/2013,24.1,30.9,17.7,0.0
21/07/2013,25.3,31.2,19.4,0.0
22/07/2013,25.4,32.5,15.6,0.0
23/07/2013,24.1,33.5,19.1,0.8
24/07/2013,25.5,33.6,18.3,0.0
25/07/2013,28.0,35.7,20.2,0.0
26/07/2013,27.1,34.5,18.7,0.0
27/07/2013,24.9,30.1,20.7,0.0
28/07/2013,21.7,28.6,16.1,2.6
29/07/2013,20.7,27.3,14.0,0.0
30/07/2013,23.6,32.2,14.3,0.0
31/07/2013,27.1,35.0,18.1,0.0
01/08/2013,28.1,34.9,19.8,0.0
02/08/2013,26.6,34.4,20.3,0.0
03/08/2013,22.8,31.3,17.3,0.0
04/08/2013,24.7,31.8,17.7,0.0
05/08/2013,23.4,30.9,18.7,0.0
06/08/2013,21.5,26.9,16.8,0.0
07/08/2013,19.2,26.7,14.4,4.1
08/08/2013,17.4,23.1,12.3,0.0
09/08/2013,18.8,25.8,11.3,0.0
10/08/2013,20.7,27.2,14.2,0.0
11/08/2013,24.3,34.5,15.1,0.0
12/08/2013,23.7,33.2,18.8,1.9
13/08/2013,21.0,26.5,17.0,0.0
14/08/2013,21.2,28.5,15.4,0.0
15/08/2013,23.1,32.2,13.7,0.0
16/08/2013,22.9,32.2,18.3,0.5
17/08/2013,23.1,30.5,16.5,0.0
18/08/2013,24.4,33.0,16.8,0.0
19/08/2013,20.8,26.2,16.2,0.0
20/08/2013,21.1,28.6,14.5,0.0
21/08/2013,23.2,32.8,13.6,0.0
22/08/2013,24.1,32.4,18.2,0.0
23/08/2013,23.0,31.3,17.5,0.0
24/08/2013,19.3,23.1,15.6,0.0
25/08/2013,18.4,24.8,14.2,0.0
26/08/2013,18.3,23.2,14.4,0.0
27/08/2013,18.7,24.2,13.7,0.0
28/08/2013,19.3,24.9,15.2,0.0
29/08/2013,19.4,25.5,15.2,0.0
30/08/2013,19.6,25.4,15.6,0.0
31/08/2013,19.2,25.2,14.7,0.0
01/09/2013,20.0,25.7,15.8,0.0
02/09/2013,20.8,27.9,13.1,0.0
03/09/2013,21.8,30.1,13.2,0.0
04/09/2013,22.6,29.2,15.4,0.0
05/09/2013,20.9,28.5,14.1,15.9
06/09/2013,19.2,26.1,14.8,10.9
07/09/2013,16.9,22.4,14.9,1.2
08/09/2013,16.1,20.9,11.8,1.1
09/09/2013,16.7,24.0,8.4,0.0
10/09/2013,17.0,22.4,12.7,0.0
11/09/2013,14.9,19.7,10.9,0.0
12/09/2013,15.3,20.5,10.1,0.0
13/09/2013,18.3,24.8,12.7,0.0
14/09/2013,19.0,26.7,11.4,0.0
15/09/2013,16.3,19.6,11.8,0.0
16/09/2013,16.6,25.1,9.2,0.0
17/09/2013,15.5,19.3,13.5,0.0
18/09/2013,17.5,22.7,12.0,0.0
19/09/2013,17.4,20.6,15.3,0.0
20/09/2013,18.6,23.2,15.1,0.0
21/09/2013,19.3,26.7,13.8,0.0
22/09/2013,19.5,28.6,11.6,0.0
23/09/2013,20.5,28.0,13.2,0.0
24/09/2013,20.8,28.6,13.9,0.0
25/09/2013,23.3,30.5,16.0,0.0
26/09/2013,23.9,30.5,18.3,0.0
27/09/2013,23.3,30.2,17.3,0.0
28/09/2013,19.6,26.3,16.0,3.7
29/09/2013,18.0,23.7,14.1,0.4
30/09/2013,20.0,26.8,14.2,0.0
01/10/2013,19.8,24.0,17.4,1.9
02/10/2013,22.0,27.3,17.7,0.0
03/10/2013,21.5,25.7,18.4,53.2
04/10/2013,17.6,22.1,13.6,43.9
05/10/2013,15.6,20.4,11.1,0.1
06/10/2013,15.5,20.2,11.5,0.0
07/10/2013,14.9,20.6,9.3,0.0
08/10/2013,14.1,20.0,8.1,0.0
09/10/2013,14.5,18.3,10.5,0.0
10/10/2013,12.9,17.7,8.8,0.0
11/10/2013,9.8,14.7,5.5,0.0
12/10/2013,9.6,16.9,3.2,0.0
13/10/2013,12.6,19.3,6.6,0.0
14/10/2013,15.5,20.2,10.9,1.2
15/10/2013,15.7,18.1,13.7,0.0
16/10/2013,18.6,25.1,13.4,0.0
17/10/2013,18.1,23.6,12.7,0.0
18/10/2013,19.6,26.1,13.7,0.0
19/10/2013,18.7,22.1,15.3,1.7
20/10/2013,16.8,21.0,13.2,0.7
21/10/2013,16.6,21.4,10.3,0.0
22/10/2013,16.1,18.2,14.4,11.0
23/10/2013,15.9,21.6,11.4,0.0
24/10/2013,16.8,20.5,10.5,0.2
25/10/2013,18.5,22.7,15.8,12.1
26/10/2013,17.2,20.6,12.2,0.0
27/10/2013,14.7,20.1,10.5,0.0
28/10/2013,15.2,20.7,11.8,0.0
29/10/2013,10.5,12.9,8.2,0.0
30/10/2013,10.3,14.0,7.2,0.0
31/10/2013,10.0,17.0,4.8,0.0
01/11/2013,10.3,15.3,5.1,0.0
02/11/2013,14.8,21.2,9.9,1.9
03/11/2013,12.8,16.0,8.9,0.0
04/11/2013,11.0,13.1,9.0,8.9
05/11/2013,16.1,19.7,11.5,0.2
06/11/2013,16.4,22.1,12.6,0.0
07/11/2013,14.0,18.9,10.0,0.0
08/11/2013,11.6,18.0,7.9,0.9
09/11/2013,10.4,14.3,5.7,0.1
10/11/2013,12.4,14.8,10.4,0.0
11/11/2013,12.6,14.7,11.4,0.2
12/11/2013,13.9,17.0,11.8,0.0
13/11/2013,13.3,15.2,10.9,0.0
14/11/2013,10.1,11.5,7.7,0.0
15/11/2013,5.2,8.2,2.7,6.9
16/11/2013,5.1,9.0,0.1,0.1
17/11/2013,7.5,8.5,6.4,0.8
18/11/2013,8.9,10.6,6.9,0.9
19/11/2013,7.5,10.2,3.2,1.6
20/11/2013,3.8,5.8,1.6,3.0
21/11/2013,4.9,5.7,3.6,9.0
22/11/2013,4.2,6.2,2.2,3.6
23/11/2013,4.9,6.8,2.5,0.0
24/11/2013,4.8,5.6,4.1,0.0
25/11/2013,4.8,6.9,3.3,0.0
26/11/2013,3.1,5.3,1.2,0.0
27/11/2013,2.3,5.4,-1.2,0.0
28/11/2013,1.8,7.4,-3.1,0.0
29/11/2013,4.7,6.7,2.5,0.0
30/11/2013,6.2,8.4,3.9,0.6
01/12/2013,3.9,6.6,2.0,0.0
02/12/2013,4.1,7.1,0.2,0.0
03/12/2013,4.3,12.0,-0.6,0.0
04/12/2013,6.9,14.4,0.3,0.0
05/12/2013,7.6,9.6,4.8,0.0
06/12/2013,6.4,9.9,3.9,0.0
07/12/2013,4.7,11.3,0.3,0.0
08/12/2013,3.1,9.4,-1.0,0.0
09/12/2013,2.2,6.1,-1.3,0.0
10/12/2013,1.9,2.8,0.0,0.0
11/12/2013,1.4,3.5,-0.6,0.0
12/12/2013,2.3,3.5,1.0,0.1
13/12/2013,2.3,7.1,-0.8,0.2
14/12/2013,8.1,12.6,2.5,0.0
15/12/2013,1.6,3.4,-1.0,0.1
16/12/2013,0.8,5.6,-2.2,0.2
17/12/2013,5.3,9.3,3.2,0.0
18/12/2013,5.1,8.2,3.3,0.3
19/12/2013,7.7,10.6,5.6,7.2
20/12/2013,5.6,9.1,1.2,0.9
21/12/2013,2.5,7.1,-2.6,0.0
22/12/2013,3.5,9.6,-1.2,0.0
23/12/2013,5.2,10.3,-0.3,0.0
24/12/2013,8.9,11.4,7.2,0.6
25/12/2013,6.7,9.8,3.3,4.3
26/12/2013,5.1,7.7,2.8,0.1
27/12/2013,8.3,13.5,1.9,0.0
28/12/2013,7.8,11.7,1.8,4.6
29/12/2013,3.4,8.0,-0.1,0.0
30/12/2013,2.6,6.7,-0.5,0.0
31/12/2013,4.4,9.4,1.2,0.1
