Fecha, Temperatura media, Temperatura maxima, Temperatura minima, Precipitacion acumulada
01/01/2018,6.5,12.1,0.3,6.6
02/01/2018,9.8,14.3,6.3,1.6
03/01/2018,13.2,17.0,8.4,0.0
04/01/2018,13.2,17.1,7.8,0.0
05/01/2018,9.5,15.0,5.6,4.8
06/01/2018,2.8,5.8,0.7,60.8
07/01/2018,3.9,7.0,1.4,9.0
08/01/2018,2.8,8.5,-2.0,0.0
09/01/2018,1.4,6.0,-2.7,0.6
10/01/2018,4.8,7.4,1.1,2.2
11/01/2018,4.0,7.6,0.5,7.0
12/01/2018,4.5,10.1,-0.1,0.2
13/01/2018,3.7,7.6,-0.6,3.0
14/01/2018,4.8,8.8,1.1,2.2
15/01/2018,5.5,9.3,1.1,0.2
16/01/2018,8.2,15.3,2.0,0.0
17/01/2018,8.2,10.5,2.5,0.0
18/01/2018,4.6,12.9,-1.6,0.0
19/01/2018,6.7,11.8,1.8,1.0
20/01/2018,9.0,14.4,3.2,0.2
21/01/2018,12.0,15.6,7.6,0.0
22/01/2018,9.9,15.5,3.4,0.0
23/01/2018,10.8,15.0,3.8,0.0
24/01/2018,6.1,8.4,1.6,0.0
25/01/2018,6.8,8.6,5.0,7.2
26/01/2018,5.3,8.8,3.6,17.0
27/01/2018,5.7,8.9,1.3,0.2
28/01/2018,4.8,15.2,-0.4,0.0
29/01/2018,5.2,15.5,-2.4,0.2
30/01/2018,4.1,13.4,-1.9,0.2
31/01/2018,3.0,12.0,-3.0,0.0
01/02/2018,3.7,8.2,-0.8,1.2
02/02/2018,2.7,6.6,-0.6,1.4
03/02/2018,3.9,8.2,0.1,0.6
04/02/2018,4.4,6.8,1.3,3.2
05/02/2018,3.7,4.8,2.7,2.2
06/02/2018,2.8,5.9,0.3,0.0
07/02/2018,1.9,5.7,-0.9,0.0
08/02/2018,1.5,5.2,-2.8,0.0
09/02/2018,0.8,7.0,-5.0,1.4
10/02/2018,4.0,7.2,1.7,2.0
11/02/2018,7.8,13.8,3.3,0.6
12/02/2018,3.7,7.8,-3.2,0.0
13/02/2018,0.4,5.4,-4.5,0.2
14/02/2018,4.8,8.5,2.3,3.6
15/02/2018,8.0,14.5,1.9,0.2
16/02/2018,10.5,17.8,3.5,0.0
17/02/2018,8.5,12.1,2.3,0.2
18/02/2018,6.9,10.9,-0.3,0.0
19/02/2018,9.5,14.5,6.3,0.0
20/02/2018,8.8,11.4,6.6,0.2
21/02/2018,5.4,7.9,1.7,0.8
22/02/2018,2.8,7.7,-1.3,0.0
23/02/2018,1.2,5.1,-3.8,0.0
24/02/2018,2.0,10.7,-5.8,0.0
25/02/2018,4.8,14.2,-4.4,0.0
26/02/2018,3.7,9.6,-2.4,0.0
27/02/2018,-0.7,4.7,-6.5,0.0
28/02/2018,-0.0,2.2,-2.6,30.8
01/03/2018,7.5,12.5,0.2,5.0
02/03/2018,6.7,10.7,0.4,4.8
03/03/2018,10.2,15.7,3.4,0.6
04/03/2018,10.6,15.7,6.3,1.0
05/03/2018,8.8,15.6,5.8,5.6
06/03/2018,7.0,13.9,1.1,3.6
07/03/2018,5.5,13.8,-1.4,0.2
08/03/2018,9.3,13.5,5.8,0.4
09/03/2018,12.4,15.6,7.4,8.2
10/03/2018,12.4,14.3,10.0,2.2
11/03/2018,11.0,14.9,6.8,0.0
12/03/2018,9.2,15.2,3.1,0.8
13/03/2018,7.7,14.2,3.4,2.2
14/03/2018,7.5,12.4,0.3,7.6
15/03/2018,8.9,15.2,2.9,0.8
16/03/2018,7.3,13.4,2.3,1.4
17/03/2018,4.7,9.6,2.1,1.4
18/03/2018,5.3,11.3,0.5,0.2
19/03/2018,3.4,10.6,0.3,4.6
20/03/2018,2.7,5.9,0.1,1.2
21/03/2018,4.2,8.0,1.1,0.0
22/03/2018,5.3,10.0,-0.3,0.2
23/03/2018,7.4,14.6,-2.3,6.0
24/03/2018,6.7,11.5,0.5,4.6
25/03/2018,6.8,11.4,3.1,0.0
26/03/2018,8.0,12.2,4.0,0.6
27/03/2018,11.0,17.3,5.7,0.0
28/03/2018,11.0,20.3,2.3,2.0
29/03/2018,9.9,16.5,4.2,0.0
30/03/2018,8.7,14.2,3.5,0.2
31/03/2018,7.5,13.1,1.7,0.8
01/04/2018,8.0,16.7,-1.4,0.0
02/04/2018,13.0,17.9,7.2,0.0
03/04/2018,13.7,19.7,9.1,0.8
04/04/2018,12.2,18.2,3.9,1.8
05/04/2018,11.9,18.8,5.4,0.0
06/04/2018,13.4,20.5,6.2,4.2
07/04/2018,9.4,11.6,7.3,23.2
08/04/2018,8.9,14.6,3.0,10.6
09/04/2018,6.1,11.3,1.6,3.6
10/04/2018,6.7,8.4,3.5,21.0
11/04/2018,7.2,11.6,4.0,16.0
12/04/2018,9.8,16.4,5.1,2.8
13/04/2018,9.7,14.9,6.0,7.0
14/04/2018,10.3,18.7,3.0,0.0
15/04/2018,11.4,19.7,3.9,2.0
16/04/2018,10.2,15.5,4.6,16.2
17/04/2018,11.8,23.5,1.5,0.0
18/04/2018,14.3,24.1,4.0,0.2
19/04/2018,15.3,22.8,5.4,0.0
20/04/2018,14.9,22.6,5.7,0.0
21/04/2018,14.1,22.3,4.4,0.0
22/04/2018,15.0,22.5,6.9,0.2
23/04/2018,14.7,22.5,7.0,0.0
24/04/2018,16.0,25.4,5.9,0.2
25/04/2018,15.3,22.1,9.4,0.0
26/04/2018,13.7,18.9,6.9,0.0
27/04/2018,12.7,20.6,6.3,0.0
28/04/2018,12.8,20.9,7.2,1.0
29/04/2018,8.4,13.3,4.5,11.6
30/04/2018,8.6,14.9,4.0,0.8
01/05/2018,8.4,14.4,1.6,0.2
02/05/2018,9.5,17.5,-0.4,0.2
03/05/2018,10.0,13.9,7.4,0.0
04/05/2018,11.8,16.1,7.4,0.0
05/05/2018,13.9,20.0,6.2,0.0
06/05/2018,16.9,26.9,5.4,0.0
07/05/2018,17.3,26.6,8.0,0.6
08/05/2018,15.6,20.5,10.7,0.2
09/05/2018,14.4,19.9,8.9,0.0
10/05/2018,12.2,16.3,5.3,0.0
11/05/2018,14.1,26.2,1.7,0.0
12/05/2018,10.3,14.3,3.1,2.2
13/05/2018,8.8,14.3,1.7,0.4
14/05/2018,10.3,15.9,6.6,0.6
15/05/2018,11.3,15.3,7.4,4.4
16/05/2018,12.2,18.2,5.2,3.2
17/05/2018,14.1,21.8,6.0,3.4
18/05/2018,16.3,22.9,8.6,1.2
19/05/2018,16.2,23.4,7.5,2.2
20/05/2018,17.2,25.7,11.3,0.0
21/05/2018,16.5,24.8,10.3,0.2
22/05/2018,16.5,24.4,7.7,0.4
23/05/2018,15.1,22.3,6.9,0.0
24/05/2018,18.1,26.2,11.7,2.8
25/05/2018,17.1,23.5,11.9,3.2
26/05/2018,16.7,25.0,12.6,8.2
27/05/2018,18.2,26.0,11.9,0.0
28/05/2018,15.2,18.9,12.9,4.6
29/05/2018,16.2,23.5,12.9,4.0
30/05/2018,15.5,21.4,12.5,4.0
31/05/2018,17.4,23.7,12.3,0.2
01/06/2018,19.0,27.3,13.3,7.4
02/06/2018,19.3,27.2,13.4,1.0
03/06/2018,18.5,25.8,10.7,0.2
04/06/2018,17.4,22.7,13.5,1.2
05/06/2018,14.8,20.7,10.4,3.2
06/06/2018,14.9,20.5,7.9,0.2
07/06/2018,17.2,25.6,9.5,0.0
08/06/2018,18.5,25.5,10.7,0.0
09/06/2018,16.8,21.7,12.4,6.2
10/06/2018,17.1,25.0,8.9,0.8
11/06/2018,15.0,21.0,9.4,7.2
12/06/2018,15.1,20.8,9.2,0.8
13/06/2018,15.6,19.9,10.8,0.0
14/06/2018,15.8,20.5,9.6,0.0
15/06/2018,16.6,23.2,9.1,0.0
16/06/2018,16.9,22.0,10.1,0.0
17/06/2018,17.1,23.8,9.7,0.0
18/06/2018,17.9,23.0,9.9,0.2
19/06/2018,21.0,28.9,13.5,1.4
20/06/2018,23.6,33.5,11.9,0.0
21/06/2018,22.8,32.7,13.9,1.8
22/06/2018,21.6,27.1,14.7,6.0
23/06/2018,21.2,28.7,11.9,1.6
24/06/2018,22.2,31.7,10.3,2.6
25/06/2018,23.3,31.7,11.9,0.0
26/06/2018,24.3,34.2,11.7,0.0
27/06/2018,22.7,32.4,17.0,0.0
28/06/2018,20.9,25.8,16.4,0.0
29/06/2018,21.9,30.2,16.1,4.4
30/06/2018,22.4,32.0,15.0,1.2
01/07/2018,24.2,33.1,14.9,0.0
02/07/2018,23.3,31.0,14.1,0.0
03/07/2018,23.7,33.1,13.4,0.0
04/07/2018,22.9,34.3,18.0,0.4
05/07/2018,19.6,26.0,13.8,0.0
06/07/2018,20.4,27.5,11.6,0.0
07/07/2018,22.7,31.7,15.3,12.7
08/07/2018,23.1,31.6,16.5,3.4
09/07/2018,23.4,29.4,15.5,0.0
10/07/2018,23.0,29.0,14.4,0.0
11/07/2018,22.7,29.0,14.0,0.0
12/07/2018,22.1,28.8,14.7,0.2
13/07/2018,22.1,30.4,17.1,7.0
14/07/2018,24.8,35.1,15.3,0.8
15/07/2018,23.8,34.6,13.9,0.0
16/07/2018,19.6,24.2,14.8,0.0
17/07/2018,21.8,30.5,11.5,0.4
18/07/2018,21.6,32.3,13.8,9.1
19/07/2018,22.4,32.8,13.3,0.2
20/07/2018,20.2,24.7,15.5,0.0
21/07/2018,18.6,22.9,12.4,0.0
22/07/2018,20.1,26.9,11.1,0.0
23/07/2018,23.8,34.0,12.3,0.0
24/07/2018,24.7,32.6,15.7,0.6
25/07/2018,25.7,35.1,19.3,0.2
26/07/2018,25.1,36.9,16.1,0.0
27/07/2018,24.3,34.0,16.5,0.0
28/07/2018,22.3,27.2,18.4,0.0
29/07/2018,23.1,33.5,13.7,0.0
30/07/2018,25.0,35.9,15.5,0.0
31/07/2018,23.5,29.3,19.8,1.6
01/08/2018,23.8,34.0,18.7,1.6
02/08/2018,26.1,36.3,16.4,0.0
03/08/2018,26.6,33.5,17.1,1.4
04/08/2018,25.5,31.8,16.6,1.8
05/08/2018,25.8,35.1,16.7,0.0
06/08/2018,25.7,37.2,14.3,0.0
07/08/2018,23.6,33.2,19.0,0.0
08/08/2018,23.7,33.4,17.2,0.0
09/08/2018,19.0,23.1,14.7,0.0
10/08/2018,20.3,30.1,11.7,0.4
11/08/2018,23.7,33.6,12.9,0.0
12/08/2018,24.9,33.8,17.1,0.0
13/08/2018,21.2,26.9,15.9,1.2
14/08/2018,19.4,24.2,15.7,0.0
15/08/2018,22.2,32.3,13.6,0.0
16/08/2018,20.7,30.4,12.6,0.0
17/08/2018,18.5,22.9,13.8,0.0
18/08/2018,18.0,24.6,9.7,0.0
19/08/2018,20.2,28.6,9.3,0.0
20/08/2018,22.0,28.4,16.3,0.0
21/08/2018,23.1,34.2,11.3,0.0
22/08/2018,24.2,35.0,13.5,0.0
23/08/2018,22.2,27.7,17.5,0.0
24/08/2018,18.5,24.0,11.9,0.0
25/08/2018,16.4,22.9,10.1,0.0
26/08/2018,19.9,30.5,10.6,0.0
27/08/2018,23.5,34.7,13.7,0.0
28/08/2018,24.0,33.5,14.2,0.0
29/08/2018,20.8,27.6,15.7,0.0
30/08/2018,19.8,26.7,14.7,0.0
31/08/2018,18.8,25.0,11.1,0.0
01/09/2018,20.5,27.9,13.7,0.0
02/09/2018,21.3,33.2,9.2,0.0
03/09/2018,20.8,30.5,11.6,0.0
04/09/2018,21.4,29.7,14.5,0.0
05/09/2018,19.6,26.1,14.8,0.0
06/09/2018,18.1,24.4,12.1,0.0
07/09/2018,18.0,24.3,10.6,0.0
08/09/2018,20.0,29.4,13.1,14.7
09/09/2018,20.1,27.5,15.5,0.8
10/09/2018,20.3,26.8,16.2,0.0
11/09/2018,20.7,29.2,11.5,0.0
12/09/2018,21.4,29.0,15.9,0.0
13/09/2018,19.5,24.4,14.7,0.0
14/09/2018,19.2,26.7,11.6,0.0
15/09/2018,19.0,27.6,9.9,0.0
16/09/2018,20.8,31.4,11.2,0.0
17/09/2018,22.1,30.6,13.5,0.0
18/09/2018,22.4,30.0,15.3,0.0
19/09/2018,22.4,32.1,13.5,0.0
20/09/2018,22.8,32.4,13.8,0.0
21/09/2018,20.4,27.4,14.0,0.0
22/09/2018,21.4,31.7,11.9,0.0
23/09/2018,22.0,33.5,12.1,0.0
24/09/2018,17.1,20.9,10.2,0.0
25/09/2018,15.3,24.7,7.2,0.0
26/09/2018,18.8,25.8,9.3,0.0
27/09/2018,19.0,28.7,10.1,0.0
28/09/2018,19.9,29.0,10.0,0.0
29/09/2018,19.1,25.2,10.1,0.0
30/09/2018,15.2,25.4,7.3,0.0
01/10/2018,14.6,18.7,10.8,0.0
02/10/2018,13.5,19.8,7.8,0.0
03/10/2018,17.7,25.7,10.5,0.0
04/10/2018,15.5,25.7,5.4,0.0
05/10/2018,15.5,26.1,6.2,0.0
06/10/2018,15.1,26.0,6.8,0.0
07/10/2018,12.3,14.9,9.5,0.6
08/10/2018,13.1,19.5,7.3,0.6
09/10/2018,12.0,20.3,3.5,0.0
10/10/2018,15.4,19.8,11.5,0.8
11/10/2018,18.8,23.4,15.0,0.4
12/10/2018,21.3,27.0,17.3,0.0
13/10/2018,20.6,26.4,12.6,0.0
14/10/2018,16.4,20.3,12.1,4.8
15/10/2018,14.3,21.3,8.9,0.0
16/10/2018,14.3,23.3,6.4,0.0
17/10/2018,13.9,23.1,6.0,0.0
18/10/2018,15.6,21.0,8.7,0.0
19/10/2018,18.0,23.4,15.8,0.0
20/10/2018,16.9,23.9,12.7,2.2
21/10/2018,16.2,24.6,7.8,0.2
22/10/2018,15.1,20.0,10.2,0.0
23/10/2018,13.3,19.6,6.7,0.0
24/10/2018,13.2,21.7,4.3,0.0
25/10/2018,13.2,25.8,2.7,0.0
26/10/2018,12.1,20.3,4.2,0.0
27/10/2018,8.8,11.7,4.3,0.0
28/10/2018,4.8,6.5,1.9,1.8
29/10/2018,4.2,7.2,0.5,5.4
30/10/2018,5.9,10.2,-1.7,0.2
31/10/2018,8.2,10.0,6.7,12.9
01/11/2018,8.6,13.0,5.9,1.6
02/11/2018,9.7,14.9,7.5,6.6
03/11/2018,8.6,13.6,1.3,0.0
04/11/2018,6.6,15.6,-2.2,0.0
05/11/2018,9.3,11.6,3.9,7.4
06/11/2018,9.4,12.7,6.2,6.0
07/11/2018,11.0,15.9,4.0,0.0
08/11/2018,8.4,13.5,1.7,11.5
09/11/2018,10.0,14.7,6.1,0.4
10/11/2018,12.1,14.3,9.4,0.6
11/11/2018,13.9,17.1,7.6,0.0
12/11/2018,14.7,17.8,12.0,8.4
13/11/2018,12.6,18.9,7.0,0.2
14/11/2018,13.0,17.5,7.4,0.0
15/11/2018,12.7,17.6,9.6,1.0
16/11/2018,11.2,16.5,7.4,0.0
17/11/2018,11.6,15.1,8.8,0.0
18/11/2018,10.2,11.7,8.2,1.8
19/11/2018,9.9,15.2,6.4,0.0
20/11/2018,6.2,7.8,3.8,4.6
21/11/2018,8.1,13.6,3.6,0.8
22/11/2018,9.7,12.0,7.2,0.0
23/11/2018,7.8,12.3,0.6,8.4
24/11/2018,6.1,12.5,-0.9,0.2
25/11/2018,7.9,12.7,3.6,3.8
26/11/2018,6.7,9.3,4.7,6.8
27/11/2018,7.4,13.6,0.2,0.0
28/11/2018,3.7,13.7,-1.0,0.2
29/11/2018,4.1,9.0,-1.8,5.6
30/11/2018,7.8,13.2,2.7,1.8
01/12/2018,6.9,11.8,2.6,0.8
02/12/2018,8.6,15.3,4.2,0.0
03/12/2018,6.7,13.2,1.9,0.4
04/12/2018,7.2,17.1,2.9,0.0
05/12/2018,7.0,10.0,3.0,0.4
06/12/2018,7.9,15.6,1.9,0.2
07/12/2018,6.6,13.2,-1.5,0.0
08/12/2018,7.7,14.2,2.1,0.0
09/12/2018,8.2,14.9,-0.0,0.2
10/12/2018,8.7,13.4,1.6,0.0
11/12/2018,3.1,10.1,-1.7,0.0
12/12/2018,6.2,13.0,-0.9,0.0
13/12/2018,8.0,9.3,6.0,8.8
14/12/2018,7.6,10.5,1.3,0.0
15/12/2018,5.6,10.0,0.3,0.6
16/12/2018,8.4,14.2,2.6,4.8
17/12/2018,2.8,10.0,-1.3,0.0
18/12/2018,5.9,9.3,-1.3,0.0
19/12/2018,4.8,13.1,-1.2,0.0
20/12/2018,6.4,13.6,0.5,0.0
21/12/2018,5.0,11.2,1.3,0.0
22/12/2018,6.5,15.8,1.7,0.0
23/12/2018,3.8,9.6,0.6,0.0
24/12/2018,6.3,16.6,-0.7,0.0
25/12/2018,3.6,6.2,0.1,0.0
26/12/2018,5.5,6.8,4.1,0.0
27/12/2018,4.0,5.1,1.2,0.0
28/12/2018,7.6,11.9,-0.2,0.0
29/12/2018,9.1,13.1,1.1,0.0
30/12/2018,4.7,14.7,-2.9,0.0
31/12/2018,6.6,16.4,-3.5,0.0
