Fecha, Temperatura media, Temperatura maxima, Temperatura minima, Precipitacion acumulada
01/01/2015,6.1,15.6,-3.7,0.0
02/01/2015,4.1,16.2,-3.9,0.0
03/01/2015,5.7,16.9,-2.9,0.0
04/01/2015,9.2,15.1,4.7,0.0
05/01/2015,2.2,6.0,-2.3,0.0
06/01/2015,5.0,12.1,-0.4,0.2
07/01/2015,3.1,11.0,-2.4,0.0
08/01/2015,2.5,5.4,0.1,0.1
09/01/2015,4.9,16.2,-1.2,0.2
10/01/2015,6.7,16.5,-0.0,0.1
11/01/2015,7.0,12.5,-1.8,0.0
12/01/2015,1.1,10.9,-5.0,0.0
13/01/2015,1.4,7.0,-4.1,0.1
14/01/2015,4.6,12.6,-1.0,0.0
15/01/2015,8.9,11.3,6.4,0.0
16/01/2015,6.0,9.7,2.9,3.1
17/01/2015,3.3,10.0,-1.9,3.4
18/01/2015,2.7,5.3,-3.0,0.8
19/01/2015,3.0,7.6,-1.0,2.4
20/01/2015,0.6,4.7,-2.6,0.3
21/01/2015,2.5,7.3,-0.6,0.3
22/01/2015,3.0,7.4,-1.2,1.6
23/01/2015,4.1,8.1,0.3,0.0
24/01/2015,5.2,10.5,0.2,0.0
25/01/2015,4.4,8.4,1.8,0.0
26/01/2015,5.2,8.5,1.7,0.0
27/01/2015,6.7,11.2,3.2,0.0
28/01/2015,7.3,11.4,4.0,0.0
29/01/2015,8.6,12.7,1.0,0.0
30/01/2015,6.8,12.4,4.2,10.2
31/01/2015,3.7,6.0,0.9,6.8
01/02/2015,2.2,5.6,0.5,4.0
02/02/2015,3.9,7.6,0.9,3.4
03/02/2015,3.0,7.5,-0.5,2.1
04/02/2015,0.5,2.5,-1.5,13.5
05/02/2015,0.7,4.1,-1.6,3.8
06/02/2015,-0.9,0.6,-3.8,0.0
07/02/2015,0.9,4.9,-3.0,0.4
08/02/2015,2.3,5.6,-3.5,0.0
09/02/2015,3.0,9.2,-3.7,0.0
10/02/2015,1.0,11.4,-5.7,0.0
11/02/2015,2.0,9.7,-5.2,0.0
12/02/2015,4.9,11.3,-0.3,0.5
13/02/2015,5.6,12.9,-0.3,0.0
14/02/2015,6.0,8.8,1.5,5.5
15/02/2015,7.7,13.3,2.9,5.1
16/02/2015,7.1,12.2,3.2,1.3
17/02/2015,6.6,9.4,4.2,0.3
18/02/2015,5.2,9.5,-1.8,0.0
19/02/2015,3.3,12.8,-4.0,0.0
20/02/2015,4.3,11.3,-3.0,1.3
21/02/2015,5.6,8.0,2.6,3.6
22/02/2015,6.0,10.1,2.6,2.2
23/02/2015,7.9,14.8,2.6,1.6
24/02/2015,4.3,7.6,2.2,1.1
25/02/2015,8.1,11.6,3.8,3.2
26/02/2015,10.6,14.0,7.4,1.0
27/02/2015,6.5,10.1,2.5,0.7
28/02/2015,7.3,12.9,-0.2,0.5
01/03/2015,12.7,18.5,8.4,0.6
02/03/2015,13.2,18.1,9.9,0.2
03/03/2015,12.8,20.5,8.4,0.1
04/03/2015,7.2,10.6,3.5,0.1
05/03/2015,6.3,10.2,3.1,0.0
06/03/2015,8.2,18.7,-0.9,6.9
07/03/2015,10.7,22.9,-1.7,0.2
08/03/2015,11.9,20.0,1.3,0.0
09/03/2015,12.3,22.7,3.2,0.0
10/03/2015,12.4,22.1,2.3,0.0
11/03/2015,11.4,22.5,2.5,0.0
12/03/2015,11.6,22.7,1.8,0.0
13/03/2015,8.5,13.5,3.0,0.0
14/03/2015,4.8,8.4,0.9,2.1
15/03/2015,5.3,10.0,1.3,0.6
16/03/2015,6.4,13.2,0.8,0.0
17/03/2015,6.7,15.4,-2.0,0.0
18/03/2015,9.4,14.7,4.7,3.9
19/03/2015,10.9,16.8,7.2,4.9
20/03/2015,9.0,12.9,5.7,1.2
21/03/2015,7.4,10.6,5.1,0.9
22/03/2015,7.4,10.1,4.6,0.4
23/03/2015,5.0,8.8,2.3,0.2
24/03/2015,7.8,10.9,4.1,0.3
25/03/2015,4.9,9.0,0.1,0.3
26/03/2015,8.2,13.1,3.6,0.1
27/03/2015,11.9,17.3,7.0,0.1
28/03/2015,13.3,18.8,6.2,0.0
29/03/2015,12.3,21.0,4.8,0.1
30/03/2015,12.7,17.5,7.0,0.0
31/03/2015,12.8,19.3,5.2,0.0
01/04/2015,10.5,14.4,3.1,0.0
02/04/2015,11.6,20.7,2.9,0.0
03/04/2015,12.5,22.0,3.6,0.0
04/04/2015,10.8,15.2,8.0,0.0
05/04/2015,11.3,15.7,7.2,0.0
06/04/2015,12.0,20.3,3.7,0.0
07/04/2015,12.1,18.9,2.7,0.0
08/04/2015,10.9,17.7,2.3,0.0
09/04/2015,10.7,17.8,3.8,0.0
10/04/2015,13.0,19.5,8.3,0.2
11/04/2015,13.4,20.5,6.3,0.1
12/04/2015,13.4,23.0,4.0,0.0
13/04/2015,13.9,24.2,3.4,0.0
14/04/2015,15.7,26.0,3.7,0.0
15/04/2015,12.9,17.9,6.2,0.0
16/04/2015,12.5,18.5,6.7,0.9
17/04/2015,13.7,20.5,6.8,0.2
18/04/2015,13.2,20.3,8.0,1.1
19/04/2015,11.7,17.0,5.6,0.2
20/04/2015,12.5,21.7,1.6,0.0
21/04/2015,14.7,23.2,4.0,0.0
22/04/2015,13.6,20.8,7.8,0.1
23/04/2015,14.4,21.8,7.0,0.0
24/04/2015,14.8,23.4,4.8,0.2
25/04/2015,16.5,22.2,9.9,0.0
26/04/2015,12.9,17.5,10.0,6.2
27/04/2015,12.0,16.2,9.3,0.1
28/04/2015,10.7,16.0,4.3,0.0
29/04/2015,12.4,19.3,6.6,0.0
30/04/2015,13.8,23.5,3.6,0.0
01/05/2015,16.1,21.0,11.9,0.2
02/05/2015,18.4,25.0,10.5,0.0
03/05/2015,18.7,22.6,15.1,0.5
04/05/2015,20.4,25.8,15.7,0.3
05/05/2015,17.0,23.8,11.0,0.0
06/05/2015,14.5,21.8,7.5,0.0
07/05/2015,17.5,26.8,6.2,0.0
08/05/2015,18.5,25.6,10.3,0.0
09/05/2015,17.6,25.4,9.3,0.0
10/05/2015,19.8,30.5,9.6,0.0
11/05/2015,21.1,31.6,10.7,0.0
12/05/2015,21.4,32.8,9.9,0.0
13/05/2015,22.7,33.9,14.3,0.0
14/05/2015,16.1,23.4,9.7,0.0
15/05/2015,11.6,14.1,10.0,0.0
16/05/2015,13.6,17.1,10.7,0.0
17/05/2015,15.9,21.0,9.4,0.0
18/05/2015,15.8,28.2,6.0,0.0
19/05/2015,12.8,16.9,9.4,0.0
20/05/2015,11.4,15.3,8.3,0.0
21/05/2015,11.7,15.7,8.3,0.0
22/05/2015,12.4,17.7,7.2,0.0
23/05/2015,13.7,18.3,10.4,0.1
24/05/2015,15.7,20.1,11.3,0.7
25/05/2015,15.3,19.1,12.0,0.0
26/05/2015,13.8,18.9,7.6,0.0
27/05/2015,16.7,22.8,11.9,0.0
28/05/2015,17.5,28.6,6.0,0.4
29/05/2015,15.8,21.7,10.1,0.0
30/05/2015,16.4,25.0,6.2,0.0
31/05/2015,19.3,29.6,10.5,0.0
01/06/2015,20.2,30.4,13.5,0.0
02/06/2015,22.2,31.8,11.1,0.0
03/06/2015,24.0,33.8,16.7,0.0
04/06/2015,24.0,33.4,12.9,0.0
05/06/2015,22.8,32.6,10.9,0.3
06/06/2015,20.7,30.2,14.9,0.1
07/06/2015,22.8,33.3,13.7,0.0
08/06/2015,23.2,30.8,15.0,0.1
09/06/2015,19.0,25.6,14.5,0.7
10/06/2015,15.0,19.1,12.6,48.3
11/06/2015,16.1,19.6,13.2,28.4
12/06/2015,17.7,25.4,10.2,0.1
13/06/2015,16.4,24.3,12.1,28.4
14/06/2015,16.5,24.4,11.3,0.6
15/06/2015,16.0,21.9,10.5,0.1
16/06/2015,15.6,19.5,11.3,0.0
17/06/2015,16.6,21.8,11.1,0.0
18/06/2015,18.1,22.8,13.7,0.0
19/06/2015,17.6,23.5,13.3,0.0
20/06/2015,19.3,25.5,12.5,0.0
21/06/2015,22.0,30.5,11.4,0.0
22/06/2015,22.9,33.0,12.3,4.3
23/06/2015,20.0,25.2,15.1,0.1
24/06/2015,20.1,28.2,11.0,0.0
25/06/2015,23.1,32.5,12.5,0.0
26/06/2015,24.1,34.9,14.2,0.0
27/06/2015,23.0,31.2,16.6,0.0
28/06/2015,23.8,33.1,16.1,0.0
29/06/2015,26.0,36.8,16.2,0.0
30/06/2015,27.6,37.9,16.5,0.6
01/07/2015,29.2,36.5,19.0,0.0
02/07/2015,26.0,34.2,19.6,0.0
03/07/2015,27.3,35.5,16.5,0.0
04/07/2015,27.2,36.3,17.2,0.0
05/07/2015,23.4,34.4,16.4,0.0
06/07/2015,26.2,38.4,15.9,0.0
07/07/2015,25.3,35.3,18.1,0.0
08/07/2015,19.4,22.7,14.4,0.0
09/07/2015,19.8,26.2,13.6,0.0
10/07/2015,23.3,38.0,10.5,0.0
11/07/2015,20.6,25.4,17.4,0.0
12/07/2015,21.3,28.8,14.9,0.0
13/07/2015,22.2,30.3,13.7,0.0
14/07/2015,23.9,32.1,16.5,0.0
15/07/2015,26.2,37.5,16.7,0.0
16/07/2015,25.5,34.6,17.9,0.1
17/07/2015,24.5,34.9,15.3,0.2
18/07/2015,24.2,34.2,18.1,1.5
19/07/2015,24.5,32.4,18.3,0.2
20/07/2015,26.4,36.4,18.3,0.0
21/07/2015,24.9,34.3,19.1,0.1
22/07/2015,21.9,27.8,16.8,0.1
23/07/2015,23.8,31.8,16.7,0.0
24/07/2015,23.1,33.0,17.5,0.0
25/07/2015,18.6,22.5,14.2,0.0
26/07/2015,20.7,32.8,9.0,0.0
27/07/2015,20.4,25.2,16.8,0.0
28/07/2015,21.8,31.2,13.3,0.0
29/07/2015,20.7,28.5,14.7,0.0
30/07/2015,15.5,19.4,12.5,13.1
31/07/2015,16.7,21.4,13.5,16.3
01/08/2015,17.9,23.1,12.1,0.1
02/08/2015,21.9,31.7,11.2,0.0
03/08/2015,24.3,32.6,16.4,0.4
04/08/2015,21.4,25.9,18.0,0.1
05/08/2015,24.5,34.8,15.5,0.0
06/08/2015,25.5,35.4,14.9,0.0
07/08/2015,21.8,26.5,17.4,0.0
08/08/2015,16.9,20.7,12.0,0.0
09/08/2015,17.4,23.3,10.2,0.0
10/08/2015,21.0,30.0,10.7,0.0
11/08/2015,23.9,34.9,12.8,0.1
12/08/2015,25.9,35.2,17.3,0.0
13/08/2015,20.6,26.2,16.2,0.1
14/08/2015,17.7,25.0,14.9,0.0
15/08/2015,17.3,23.1,12.1,0.0
16/08/2015,18.9,28.6,9.7,0.0
17/08/2015,19.2,24.5,15.4,0.0
18/08/2015,18.2,24.1,12.5,0.0
19/08/2015,19.0,27.8,8.5,0.0
20/08/2015,21.4,33.2,10.7,0.0
21/08/2015,24.0,35.3,12.1,0.0
22/08/2015,24.3,31.6,17.8,0.0
23/08/2015,21.9,27.9,16.9,0.0
24/08/2015,18.2,25.0,11.8,0.0
25/08/2015,18.6,29.9,8.3,0.0
26/08/2015,23.5,33.1,12.7,0.0
27/08/2015,24.5,35.5,17.3,0.0
28/08/2015,24.4,35.0,15.0,0.0
29/08/2015,26.0,34.4,16.5,0.0
30/08/2015,25.2,33.2,14.8,0.0
31/08/2015,20.4,30.9,15.5,9.1
01/09/2015,18.1,22.4,14.1,0.4
02/09/2015,17.4,24.1,11.7,0.0
03/09/2015,16.9,21.5,13.2,0.0
04/09/2015,15.3,20.4,9.1,0.0
05/09/2015,14.6,21.7,7.8,0.0
06/09/2015,15.4,22.8,6.8,0.0
07/09/2015,15.5,26.2,6.4,0.0
08/09/2015,15.5,26.2,6.4,0.0
09/09/2015,18.1,27.8,8.0,0.0
10/09/2015,19.3,25.5,15.3,0.0
11/09/2015,20.6,27.4,13.7,0.0
12/09/2015,21.0,25.6,16.0,0.0
13/09/2015,18.2,22.2,12.3,0.0
14/09/2015,16.4,22.6,10.5,0.0
15/09/2015,15.5,19.5,11.3,0.0
16/09/2015,20.1,25.9,16.4,0.0
17/09/2015,14.5,20.7,8.0,0.0
18/09/2015,13.7,22.9,4.5,0.2
19/09/2015,15.0,22.9,6.1,0.0
20/09/2015,16.1,25.5,7.4,0.0
21/09/2015,16.7,26.6,5.8,0.0
22/09/2015,15.7,21.8,9.4,0.0
23/09/2015,13.6,18.5,8.8,1.0
24/09/2015,15.5,24.2,6.3,0.2
25/09/2015,17.8,26.3,9.9,0.0
26/09/2015,17.9,26.0,10.6,0.0
27/09/2015,15.8,23.3,8.2,0.0
28/09/2015,15.3,24.3,6.4,0.0
29/09/2015,15.2,24.8,6.7,22.3
30/09/2015,16.2,23.0,11.0,0.2
01/10/2015,15.2,24.8,7.9,0.0
02/10/2015,13.1,17.6,9.2,0.0
03/10/2015,12.4,21.4,5.0,0.0
04/10/2015,13.4,19.4,6.4,2.2
05/10/2015,21.4,25.5,17.7,0.6
06/10/2015,17.7,22.6,13.5,0.2
07/10/2015,13.7,18.5,8.9,0.0
08/10/2015,13.8,19.8,8.0,0.0
09/10/2015,12.3,22.5,4.0,0.0
10/10/2015,13.1,24.1,3.9,0.0
11/10/2015,14.9,18.5,9.4,0.4
12/10/2015,15.1,23.3,9.4,19.7
13/10/2015,12.2,16.7,8.4,0.4
14/10/2015,9.9,14.9,5.6,0.0
15/10/2015,8.7,16.4,0.7,0.0
16/10/2015,8.0,17.5,0.6,0.0
17/10/2015,10.8,19.3,1.4,2.0
18/10/2015,15.2,20.9,12.6,1.0
19/10/2015,15.3,18.8,13.5,6.6
20/10/2015,13.3,16.1,11.3,3.4
21/10/2015,11.0,15.1,5.4,0.0
22/10/2015,11.7,15.0,6.8,0.0
23/10/2015,12.8,20.2,6.4,0.0
24/10/2015,14.6,19.7,9.2,0.0
25/10/2015,15.8,21.5,8.1,0.0
26/10/2015,15.3,20.5,8.5,0.0
27/10/2015,13.9,20.2,7.0,1.8
28/10/2015,11.8,17.4,7.2,1.2
29/10/2015,13.5,20.3,8.5,0.0
30/10/2015,14.1,21.7,6.0,0.2
31/10/2015,13.5,19.3,8.2,0.0
01/11/2015,12.4,18.1,5.2,0.0
02/11/2015,13.4,16.2,11.2,17.5
03/11/2015,12.9,15.0,10.9,7.4
04/11/2015,12.8,17.9,6.0,0.2
05/11/2015,12.3,16.5,7.0,0.0
06/11/2015,13.0,21.5,7.2,0.0
07/11/2015,12.6,21.3,6.8,0.2
08/11/2015,13.9,21.7,9.2,0.4
09/11/2015,14.4,21.9,8.1,0.0
10/11/2015,12.2,15.7,7.6,0.2
11/11/2015,9.7,11.3,8.0,0.4
12/11/2015,9.7,10.9,7.0,0.0
13/11/2015,11.8,18.3,7.1,0.2
14/11/2015,11.5,18.3,4.8,0.0
15/11/2015,8.0,10.2,4.2,0.4
16/11/2015,7.1,15.6,2.3,0.2
17/11/2015,7.6,17.4,1.5,0.2
18/11/2015,9.8,20.6,3.8,0.0
19/11/2015,11.9,21.0,4.8,0.2
20/11/2015,10.4,16.3,5.1,0.0
21/11/2015,8.7,14.7,4.1,9.4
22/11/2015,4.5,7.9,2.1,5.6
23/11/2015,3.2,9.2,-2.0,0.6
24/11/2015,3.2,9.2,-2.0,0.6
25/11/2015,10.9,14.7,7.6,3.2
26/11/2015,11.7,14.5,9.4,0.0
27/11/2015,9.9,13.3,8.4,0.0
28/11/2015,8.7,12.1,2.5,0.0
29/11/2015,5.6,14.0,0.1,0.0
30/11/2015,3.1,13.7,-2.6,0.2
01/12/2015,1.8,12.0,-3.7,0.2
02/12/2015,3.3,13.4,-3.1,0.0
03/12/2015,3.2,11.6,-2.5,0.2
04/12/2015,7.1,17.1,-1.0,0.0
05/12/2015,5.6,13.0,1.1,0.2
06/12/2015,8.0,12.2,1.5,0.0
07/12/2015,9.8,13.5,6.3,0.0
08/12/2015,9.2,12.0,6.4,0.4
09/12/2015,8.9,16.0,0.8,0.0
10/12/2015,5.1,6.8,0.8,0.4
11/12/2015,6.0,6.9,5.2,0.4
12/12/2015,5.1,5.9,4.3,0.2
13/12/2015,5.0,5.5,4.2,0.0
14/12/2015,4.8,6.0,3.2,0.2
15/12/2015,5.9,10.2,2.7,0.0
16/12/2015,5.3,14.0,1.0,0.0
17/12/2015,4.9,12.7,-0.8,0.2
18/12/2015,6.0,14.7,0.2,0.0
19/12/2015,5.9,13.6,0.2,0.2
20/12/2015,6.3,10.7,1.1,0.0
21/12/2015,7.1,13.5,-0.8,0.0
22/12/2015,4.8,7.1,-0.5,0.2
23/12/2015,4.5,5.2,3.4,0.6
24/12/2015,6.1,7.4,4.5,0.4
25/12/2015,6.5,7.2,5.8,0.2
26/12/2015,4.5,5.6,3.2,0.0
27/12/2015,4.2,7.3,2.8,0.2
28/12/2015,10.0,13.5,4.2,0.0
29/12/2015,7.9,13.8,2.5,0.8
30/12/2015,5.5,11.8,-0.9,0.2
31/12/2015,7.9,12.5,0.5,1.0
