Fecha, Temperatura media, Temperatura maxima, Temperatura minima, Precipitacion acumulada
01/01/2019,-,11.8,-3.0,0.0
02/01/2019,-,10.0,-3.3,0.0
03/01/2019,-,9.5,-4.0,0.0
04/01/2019,-,10.0,-6.0,0.0
05/01/2019,-,15.5,-5.0,0.0
06/01/2019,-,14.5,-1.5,0.0
07/01/2019,-,8.0,-1.0,0.0
08/01/2019,-,9.0,-4.0,0.0
09/01/2019,-,5.0,4.5,0.0
10/01/2019,-,5.0,2.0,0.0
11/01/2019,-,6.0,-0.3,0.0
12/01/2019,-,11.0,1.0,0.0
13/01/2019,-,11.5,4.0,0.0
14/01/2019,-,13.5,8.0,0.0
15/01/2019,-,13.0,-1.0,0.0
16/01/2019,-,11.5,-3.5,0.0
17/01/2019,-,9.5,-3.0,0.0
18/01/2019,-,7.0,0.5,0.0
19/01/2019,-,8.5,-1.0,3.0
20/01/2019,-,9.0,0.0,0.2
21/01/2019,-,6.5,2.8,3.2
22/01/2019,-,4.0,0.5,15.0
23/01/2019,-,5.0,1.5,22.0
24/01/2019,-,9.0,1.8,0.0
25/01/2019,-,11.5,1.8,0.0
26/01/2019,-,13.5,6.0,0.0
27/01/2019,-,7.8,-0.5,11.0
28/01/2019,-,7.0,2.8,12.2
29/01/2019,-,7.0,3.5,9.2
30/01/2019,-,7.0,1.5,7.6
31/01/2019,-,8.5,2.0,12.3
01/02/2019,-,11.0,3.0,9.3
02/02/2019,-,4.0,1.0,18.0
03/02/2019,-,5.0,1.0,0.0
04/02/2019,-,10.0,-1.0,0.1
05/02/2019,-,12.2,3.0,0.0
06/02/2019,-,15.5,2.9,0.0
07/02/2019,-,13.0,1.2,0.0
08/02/2019,-,16.0,-1.0,0.0
09/02/2019,-,15.0,-0.5,0.0
10/02/2019,-,8.2,3.8,0.3
11/02/2019,-,11.0,5.0,0.0
12/02/2019,-,14.5,-2.0,0.0
13/02/2019,-,15.5,-3.0,0.0
14/02/2019,-,17.0,-2.0,0.0
15/02/2019,-,15.0,-3.5,0.0
16/02/2019,-,19.5,-3.5,0.0
17/02/2019,-,19.0,-0.5,0.0
18/02/2019,-,17.5,-1.0,0.0
19/02/2019,-,14.0,-2.0,0.0
20/02/2019,-,15.5,-1.8,0.0
21/02/2019,-,18.0,0.0,0.0
22/02/2019,-,20.5,-1.0,0.0
23/02/2019,-,22.0,-1.0,0.0
24/02/2019,-,19.0,1.0,0.0
25/02/2019,-,19.5,0.0,0.0
26/02/2019,-,22.8,1.0,0.0
27/02/2019,-,23.8,-0.5,0.0
28/02/2019,-,17.5,5.0,0.0
01/03/2019,-,17.0,-0.5,0.0
02/03/2019,-,17.0,7.8,0.0
03/03/2019,-,20.0,1.0,0.0
04/03/2019,-,16.3,9.0,0.0
05/03/2019,-,17.2,3.3,0.0
06/03/2019,-,14.5,10.2,4.0
07/03/2019,-,14.0,3.0,0.0
08/03/2019,-,13.5,3.5,0.0
09/03/2019,-,17.5,3.0,0.0
10/03/2019,-,18.7,3.5,0.0
11/03/2019,-,14.5,4.7,0.0
12/03/2019,-,18.2,-1.5,0.0
13/03/2019,-,10.0,1.0,0.8
14/03/2019,-,12.0,5.5,0.0
15/03/2019,-,16.5,3.0,0.0
16/03/2019,-,26.0,-1.0,0.0
17/03/2019,-,14.5,3.5,0.0
18/03/2019,-,12.3,4.0,0.0
19/03/2019,-,11.0,3.8,0.0
20/03/2019,-,14.5,2.5,0.0
21/03/2019,-,17.0,-3.0,0.0
22/03/2019,-,20.0,-1.2,0.0
23/03/2019,-,23.5,1.0,0.0
24/03/2019,-,23.0,2.5,0.0
25/03/2019,-,16.0,4.8,0.0
26/03/2019,-,19.0,2.5,0.0
27/03/2019,-,18.8,-1.0,0.0
28/03/2019,-,20.0,-0.5,0.0
29/03/2019,-,20.5,0.3,0.0
30/03/2019,-,20.0,2.0,0.0
31/03/2019,-,16.5,1.0,2.4
01/04/2019,-,14.0,7.0,0.0
02/04/2019,-,18.0,7.0,1.1
03/04/2019,-,10.5,6.5,0.0
04/04/2019,-,14.0,-1.0,0.1
05/04/2019,-,12.0,0.0,3.5
06/04/2019,-,12.8,3.5,0.2
07/04/2019,-,13.5,4.8,1.5
08/04/2019,-,16.0,6.0,1.2
09/04/2019,-,14.0,2.8,6.3
10/04/2019,-,15.2,5.2,0.0
11/04/2019,-,13.0,6.8,0.0
12/04/2019,-,16.0,7.0,0.0
13/04/2019,-,23.2,-1.0,0.0
14/04/2019,-,22.0,3.3,0.0
15/04/2019,-,24.0,7.0,6.6
16/04/2019,-,20.8,7.6,0.0
17/04/2019,-,23.2,9.8,0.0
18/04/2019,-,21.0,7.4,0.1
19/04/2019,-,22.5,9.8,0.0
20/04/2019,-,24.0,7.5,1.3
21/04/2019,-,14.0,9.2,0.0
22/04/2019,-,19.5,5.7,0.0
23/04/2019,-,20.0,10.0,6.6
24/04/2019,-,11.0,6.0,14.5
25/04/2019,-,15.0,7.3,4.3
26/04/2019,-,16.0,6.8,0.0
27/04/2019,-,17.5,4.0,0.0
28/04/2019,-,19.5,6.0,0.0
29/04/2019,-,23.0,3.5,0.0
30/04/2019,-,23.0,4.0,0.0
01/05/2019,-,24.0,3.0,0.0
02/05/2019,-,18.0,10.0,0.0
03/05/2019,-,13.0,7.0,0.1
04/05/2019,-,17.0,7.0,0.0
05/05/2019,-,16.0,3.5,0.0
06/05/2019,-,23.0,-0.5,0.0
07/05/2019,-,26.0,3.0,0.3
08/05/2019,-,21.0,10.0,0.0
09/05/2019,-,21.3,3.0,12.8
10/05/2019,-,24.0,9.3,0.0
11/05/2019,-,18.5,11.5,0.0
12/05/2019,-,22.0,8.5,0.0
13/05/2019,-,24.8,6.0,0.0
14/05/2019,-,26.8,3.8,0.0
15/05/2019,-,29.0,5.3,0.0
16/05/2019,-,26.5,7.0,34.6
17/05/2019,-,12.2,8.0,12.0
18/05/2019,-,14.5,6.8,14.0
19/05/2019,-,12.8,7.5,1.5
20/05/2019,-,20.5,8.8,0.0
21/05/2019,-,22.0,3.5,0.0
22/05/2019,-,26.0,5.0,0.0
23/05/2019,-,26.2,7.5,22.5
24/05/2019,-,17.0,10.7,0.0
25/05/2019,-,17.0,11.0,0.0
26/05/2019,-,18.0,11.0,0.0
27/05/2019,-,20.0,10.0,0.0
28/05/2019,-,15.8,10.0,0.0
29/05/2019,-,19.5,9.9,0.0
30/05/2019,-,28.5,6.0,0.0
31/05/2019,-,29.5,8.0,0.0
01/06/2019,-,32.0,11.3,0.0
02/06/2019,-,34.2,13.5,0.8
03/06/2019,-,34.0,14.2,0.0
04/06/2019,-,32.0,15.0,23.0
05/06/2019,-,16.0,10.0,7.0
06/06/2019,-,23.8,7.0,0.6
07/06/2019,-,22.0,10.5,0.0
08/06/2019,-,26.0,5.0,0.0
09/06/2019,-,28.5,13.0,0.0
10/06/2019,-,16.5,11.5,0.0
11/06/2019,-,19.0,9.0,0.0
12/06/2019,-,23.5,3.5,0.0
13/06/2019,-,28.5,7.0,0.0
14/06/2019,-,28.0,13.0,0.0
15/06/2019,-,24.0,13.0,0.0
16/06/2019,-,30.0,12.0,0.0
17/06/2019,-,34.0,11.5,0.0
18/06/2019,-,34.0,18.0,0.0
19/06/2019,-,29.0,13.0,0.6
20/06/2019,-,26.2,14.0,6.0
21/06/2019,-,22.7,13.8,0.0
22/06/2019,-,32.5,7.3,0.0
23/06/2019,-,36.0,17.0,0.0
24/06/2019,-,33.0,22.0,0.0
25/06/2019,-,38.0,17.0,0.0
26/06/2019,-,39.0,20.0,0.0
27/06/2019,-,43.0,20.0,0.0
28/06/2019,-,43.0,19.0,0.0
29/06/2019,-,43.3,17.0,0.0
30/06/2019,-,42.8,15.0,0.0
01/07/2019,-,33.2,16.4,0.2
02/07/2019,-,33.0,15.0,0.0
03/07/2019,-,37.0,16.5,0.0
04/07/2019,-,37.0,17.5,0.0
05/07/2019,-,38.5,19.0,0.0
06/07/2019,-,39.0,17.5,0.0
07/07/2019,-,37.3,16.0,0.0
08/07/2019,-,33.0,18.5,25.0
09/07/2019,-,24.0,14.8,0.0
10/07/2019,-,32.5,13.0,0.0
11/07/2019,-,34.0,14.0,0.0
12/07/2019,-,35.3,14.0,0.0
13/07/2019,-,33.5,16.7,0.2
14/07/2019,-,29.0,18.0,0.0
15/07/2019,-,29.5,18.0,0.0
16/07/2019,-,34.0,10.5,0.0
17/07/2019,-,31.0,17.0,0.0
18/07/2019,-,29.0,16.0,0.0
19/07/2019,-,37.0,10.5,0.3
20/07/2019,-,38.5,18.0,0.0
21/07/2019,-,38.0,17.0,0.0
22/07/2019,-,40.0,19.8,0.0
23/07/2019,-,41.0,22.0,0.0
24/07/2019,-,40.5,21.0,0.0
25/07/2019,-,40.0,22.0,0.1
26/07/2019,-,29.5,20.0,0.0
27/07/2019,-,23.0,17.0,0.0
28/07/2019,-,26.0,14.0,0.0
29/07/2019,-,34.0,10.0,0.0
30/07/2019,-,25.5,14.0,0.0
31/07/2019,-,31.0,9.5,0.2
01/08/2019,-,33.5,16.0,0.2
02/08/2019,-,33.5,14.5,0.0
03/08/2019,-,37.5,12.0,0.0
04/08/2019,-,38.5,17.0,0.0
05/08/2019,-,38.0,16.5,0.0
06/08/2019,-,37.8,15.5,0.0
07/08/2019,-,33.5,16.3,0.0
08/08/2019,-,37.0,20.0,0.0
09/08/2019,-,36.5,21.3,2.2
10/08/2019,-,31.0,15.0,0.1
11/08/2019,-,28.8,17.5,0.0
12/08/2019,-,23.5,16.2,0.0
13/08/2019,-,25.0,13.0,0.0
14/08/2019,-,31.0,9.0,0.0
15/08/2019,-,28.0,17.0,0.0
16/08/2019,-,35.5,9.0,0.0
17/08/2019,-,39.0,15.0,0.0
18/08/2019,-,35.5,17.0,0.0
19/08/2019,-,24.5,16.5,8.0
20/08/2019,-,25.0,15.0,0.0
21/08/2019,-,28.5,13.0,0.0
22/08/2019,-,31.8,12.0,0.0
23/08/2019,-,34.5,10.5,0.0
24/08/2019,-,35.5,15.0,0.0
25/08/2019,-,37.5,17.0,0.0
26/08/2019,-,32.0,18.0,0.0
27/08/2019,-,26.8,16.0,0.0
28/08/2019,-,33.0,13.5,0.0
29/08/2019,-,35.5,15.0,0.0
30/08/2019,-,37.0,15.0,0.0
31/08/2019,-,37.0,17.0,0.0
01/09/2019,-,29.0,15.0,0.0
02/09/2019,-,26.0,15.0,0.0
03/09/2019,-,30.2,8.0,0.0
04/09/2019,-,29.8,8.8,0.0
05/09/2019,-,22.4,13.8,0.0
06/09/2019,-,25.0,9.8,0.0
07/09/2019,-,26.0,7.0,0.0
08/09/2019,-,25.0,8.2,0.0
09/09/2019,-,25.5,4.0,0.1
10/09/2019,-,19.5,11.3,0.0
11/09/2019,-,26.0,13.0,0.0
12/09/2019,-,31.5,11.0,0.0
13/09/2019,-,29.0,10.0,0.0
14/09/2019,-,33.0,12.5,1.0
15/09/2019,-,31.0,14.0,2.5
16/09/2019,-,30.0,16.0,0.0
17/09/2019,-,31.0,15.0,8.0
18/09/2019,-,29.0,16.0,4.2
19/09/2019,-,28.0,13.5,0.0
20/09/2019,-,29.0,15.0,7.2
21/09/2019,-,26.0,16.5,3.0
22/09/2019,-,22.8,18.0,1.3
23/09/2019,-,23.0,9.2,0.0
24/09/2019,-,27.0,10.5,0.0
25/09/2019,-,22.0,13.0,0.0
26/09/2019,-,28.5,10.0,0.0
27/09/2019,-,28.5,10.2,0.0
28/09/2019,-,29.0,10.0,0.0
29/09/2019,-,30.0,10.0,0.0
30/09/2019,-,30.5,10.2,0.0
01/10/2019,-,27.6,10.2,0.0
02/10/2019,-,23.5,12.3,0.0
03/10/2019,-,24.0,-,0.0
04/10/2019,-,25.0,7.5,0.0
05/10/2019,-,26.0,9.0,0.0
06/10/2019,-,23.0,9.4,0.0
07/10/2019,-,24.0,13.0,0.0
08/10/2019,-,-,9.5,-
09/10/2019,-,21.0,-,0.0
10/10/2019,-,24.0,5.5,0.0
11/10/2019,-,28.5,6.5,0.0
12/10/2019,-,26.5,17.0,0.0
13/10/2019,-,27.0,17.0,0.0
14/10/2019,-,20.5,17.0,3.7
15/10/2019,-,18.0,7.0,0.0
16/10/2019,-,20.5,7.0,0.0
17/10/2019,-,22.5,10.0,3.3
18/10/2019,-,20.0,10.5,0.1
19/10/2019,-,19.0,13.0,5.0
20/10/2019,-,16.5,12.0,3.2
21/10/2019,-,16.0,6.5,0.0
22/10/2019,-,-,4.0,-
23/10/2019,-,-,-,-
24/10/2019,-,14.5,-,0.0
25/10/2019,-,22.0,6.5,0.0
26/10/2019,-,23.0,6.2,0.0
27/10/2019,-,22.5,6.5,0.0
28/10/2019,-,22.0,10.5,0.0
29/10/2019,-,22.5,7.5,0.0
30/10/2019,-,20.0,8.8,0.1
31/10/2019,-,19.0,12.0,0.0
01/11/2019,-,19.2,10.0,11.5
02/11/2019,-,16.5,12.2,15.0
03/11/2019,-,14.1,9.0,0.6
04/11/2019,-,16.3,9.9,7.3
05/11/2019,-,10.0,6.2,18.5
06/11/2019,-,12.5,6.5,6.8
07/11/2019,-,-,7.0,-
08/11/2019,-,6.5,-,31.0
09/11/2019,-,9.0,3.5,19.0
10/11/2019,-,3.0,2.0,6.2
11/11/2019,-,7.5,2.5,3.3
12/11/2019,-,10.5,2.9,0.6
13/11/2019,-,11.8,7.0,5.5
14/11/2019,-,9.5,3.2,2.0
15/11/2019,-,6.0,0.8,1.5
16/11/2019,-,3.8,0.0,6.8
17/11/2019,-,7.0,1.2,1.0
18/11/2019,-,8.2,3.0,0.0
19/11/2019,-,11.0,1.5,0.0
20/11/2019,-,11.0,0.0,0.6
21/11/2019,-,11.0,5.0,0.0
22/11/2019,-,-,6.0,-
23/11/2019,-,8.0,-,9.2
24/11/2019,-,11.0,5.5,1.6
25/11/2019,-,16.0,5.5,0.0
26/11/2019,-,17.0,5.5,2.2
27/11/2019,-,14.0,6.0,3.6
28/11/2019,-,13.5,6.2,1.0
29/11/2019,-,14.8,8.0,0.0
30/11/2019,-,14.3,3.8,13.0
01/12/2019,-,-,3.8,-
02/12/2019,-,-,-,-
03/12/2019,-,-,-,-
04/12/2019,-,-,-,-
05/12/2019,-,-,-,-
06/12/2019,-,-,-,-
07/12/2019,-,-,-,-
08/12/2019,-,-,-,-
09/12/2019,-,-,-,-
10/12/2019,-,-,-,-
11/12/2019,-,-,-,-
12/12/2019,-,-,-,-
13/12/2019,-,-,-,-
14/12/2019,-,-,-,-
15/12/2019,-,-,-,-
16/12/2019,-,-,-,-
17/12/2019,-,-,-,-
18/12/2019,-,-,-,-
19/12/2019,-,-,-,-
20/12/2019,-,-,-,-
21/12/2019,-,-,-,-
22/12/2019,-,-,-,-
23/12/2019,-,-,-,-
24/12/2019,-,-,-,-
25/12/2019,-,-,-,-
26/12/2019,-,-,-,-
27/12/2019,-,-,-,-
