Fecha, Temperatura media, Temperatura maxima, Temperatura minima, Precipitacion acumulada
01/01/2014,8.3,10.6,5.2,0.0
02/01/2014,11.1,14.1,9.2,0.0
03/01/2014,11.7,13.6,10.7,0.0
04/01/2014,8.3,12.3,3.0,0.0
05/01/2014,5.3,9.8,2.3,0.0
06/01/2014,9.5,12.3,5.4,0.0
07/01/2014,11.8,14.1,9.3,0.0
08/01/2014,11.8,15.0,7.8,0.0
09/01/2014,7.8,12.1,4.8,0.0
10/01/2014,6.6,10.4,3.2,0.0
11/01/2014,4.9,6.3,2.8,0.0
12/01/2014,6.4,7.6,5.5,1.5
13/01/2014,5.9,10.9,2.4,0.8
14/01/2014,5.6,7.4,2.7,6.5
15/01/2014,8.0,10.9,4.8,0.0
16/01/2014,8.2,12.2,3.5,1.7
17/01/2014,6.4,10.5,2.4,0.0
18/01/2014,6.3,7.6,3.7,3.3
19/01/2014,4.4,8.4,1.6,0.1
20/01/2014,3.8,7.2,0.5,0.3
21/01/2014,5.0,9.6,0.0,0.4
22/01/2014,6.2,9.7,4.1,4.2
23/01/2014,6.4,9.5,4.0,1.1
24/01/2014,8.7,11.8,6.4,5.1
25/01/2014,11.4,14.6,9.5,0.3
26/01/2014,11.5,14.9,9.3,0.3
27/01/2014,6.5,10.3,3.2,3.6
28/01/2014,4.2,7.6,1.3,0.1
29/01/2014,4.3,9.1,0.8,0.1
30/01/2014,4.2,7.5,1.4,2.4
31/01/2014,6.0,10.9,1.8,0.5
01/02/2014,5.3,8.9,0.2,8.5
02/02/2014,3.2,9.4,-1.1,0.0
03/02/2014,3.2,7.4,0.0,0.7
04/02/2014,4.5,9.9,-1.2,2.5
05/02/2014,7.4,11.7,3.4,0.1
06/02/2014,9.9,14.2,5.1,1.3
07/02/2014,8.1,11.2,5.6,0.0
08/02/2014,8.7,12.9,4.0,0.9
09/02/2014,4.3,6.8,1.0,0.4
10/02/2014,5.0,7.2,2.4,1.0
11/02/2014,2.5,4.9,-1.2,1.2
12/02/2014,5.3,9.7,-0.3,0.1
13/02/2014,10.2,16.6,5.3,0.0
14/02/2014,13.9,19.4,7.6,0.0
15/02/2014,8.9,13.8,5.5,0.9
16/02/2014,6.0,11.7,1.6,0.0
17/02/2014,6.6,12.2,0.8,0.0
18/02/2014,7.2,9.4,4.8,0.0
19/02/2014,7.3,11.7,3.9,0.0
20/02/2014,8.4,15.9,2.1,0.2
21/02/2014,6.6,10.9,0.9,0.2
22/02/2014,6.0,14.0,-0.4,0.0
23/02/2014,7.9,14.2,1.2,0.0
24/02/2014,9.3,13.2,3.4,0.0
25/02/2014,7.1,13.6,2.1,4.8
26/02/2014,3.8,9.6,0.1,0.1
27/02/2014,3.8,8.5,0.4,2.3
28/02/2014,4.7,7.3,2.5,4.7
01/03/2014,4.8,6.3,3.3,11.4
02/03/2014,10.4,14.8,5.1,1.0
03/03/2014,6.0,10.7,1.8,12.0
04/03/2014,6.0,8.9,3.3,7.9
05/03/2014,9.8,13.0,7.4,0.2
06/03/2014,10.4,15.4,6.7,0.0
07/03/2014,9.3,17.0,2.5,0.0
08/03/2014,11.8,19.0,4.7,0.0
09/03/2014,11.2,17.5,3.2,0.0
10/03/2014,11.0,18.6,3.0,0.0
11/03/2014,12.1,19.2,6.6,0.0
12/03/2014,10.4,16.5,4.1,0.0
13/03/2014,9.7,15.2,4.9,0.0
14/03/2014,10.9,19.4,3.1,0.0
15/03/2014,10.1,13.5,6.1,0.0
16/03/2014,12.1,20.8,6.7,0.0
17/03/2014,13.1,22.9,4.1,0.0
18/03/2014,11.1,15.0,8.0,0.0
19/03/2014,11.6,19.2,5.6,0.0
20/03/2014,13.6,21.5,6.1,0.0
21/03/2014,14.1,19.0,9.0,0.0
22/03/2014,9.1,14.8,1.6,0.2
23/03/2014,4.1,9.0,0.1,1.4
24/03/2014,4.8,9.5,-0.8,6.0
25/03/2014,5.5,8.5,0.6,9.7
26/03/2014,4.4,8.5,1.2,11.5
27/03/2014,7.1,13.5,1.6,1.7
28/03/2014,10.0,13.8,6.0,0.0
29/03/2014,10.5,15.1,7.1,0.0
30/03/2014,10.6,12.5,8.4,0.0
31/03/2014,13.2,17.1,9.4,0.0
01/04/2014,14.7,19.1,10.5,0.3
02/04/2014,12.2,15.8,9.8,4.6
03/04/2014,9.7,11.3,8.2,0.0
04/04/2014,11.5,17.1,7.8,0.1
05/04/2014,14.7,20.8,9.6,0.0
06/04/2014,17.3,25.7,9.1,0.0
07/04/2014,18.2,25.3,10.3,0.0
08/04/2014,13.8,19.0,8.2,0.0
09/04/2014,13.6,22.9,4.9,0.0
10/04/2014,16.7,25.5,8.3,0.7
11/04/2014,15.6,22.2,10.2,0.0
12/04/2014,14.0,21.1,8.4,0.0
13/04/2014,14.2,21.6,6.3,0.0
14/04/2014,15.8,24.0,7.7,0.0
15/04/2014,18.7,26.3,12.1,0.0
16/04/2014,18.5,27.1,9.1,0.0
17/04/2014,16.5,24.8,9.0,0.0
18/04/2014,16.2,25.5,6.2,0.0
19/04/2014,13.6,19.5,7.2,5.1
20/04/2014,10.2,13.2,6.4,14.0
21/04/2014,10.7,18.5,5.2,6.1
22/04/2014,12.4,18.2,6.2,0.0
23/04/2014,13.7,22.4,7.1,1.9
24/04/2014,11.1,15.8,7.7,8.1
25/04/2014,10.4,15.6,6.8,0.1
26/04/2014,11.3,17.3,8.0,5.5
27/04/2014,11.0,16.7,4.6,0.0
28/04/2014,11.8,15.8,8.6,0.0
29/04/2014,14.1,20.6,8.5,0.0
30/04/2014,14.4,19.5,10.9,0.1
01/05/2014,13.6,18.6,9.2,0.0
02/05/2014,11.1,14.9,8.8,0.0
03/05/2014,11.6,17.1,6.9,0.0
04/05/2014,13.1,20.9,6.4,0.0
05/05/2014,16.8,24.8,7.0,0.0
06/05/2014,17.0,22.7,11.7,0.0
07/05/2014,17.6,23.6,11.2,0.0
08/05/2014,17.3,26.0,8.4,0.0
09/05/2014,16.9,23.5,10.9,0.0
10/05/2014,17.8,26.9,9.5,0.0
11/05/2014,14.0,17.9,8.4,0.0
12/05/2014,13.0,20.1,6.3,0.0
13/05/2014,11.2,16.3,6.4,0.0
14/05/2014,13.2,20.6,5.5,0.0
15/05/2014,15.3,24.1,5.8,0.0
16/05/2014,15.3,22.7,6.8,0.7
17/05/2014,14.9,22.3,5.9,0.0
18/05/2014,16.8,24.1,8.0,0.0
19/05/2014,17.9,22.2,13.3,0.0
20/05/2014,16.1,18.8,12.9,0.0
21/05/2014,15.8,20.2,11.3,7.4
22/05/2014,12.5,17.9,9.0,1.8
23/05/2014,13.0,18.3,8.6,1.7
24/05/2014,12.5,19.6,6.7,17.7
25/05/2014,12.7,19.4,9.2,19.8
26/05/2014,11.8,17.4,8.0,0.8
27/05/2014,14.3,21.3,6.8,0.0
28/05/2014,12.4,17.7,9.7,6.9
29/05/2014,14.4,20.7,8.6,0.2
30/05/2014,13.6,18.7,10.0,0.1
31/05/2014,14.5,19.8,9.9,0.0
01/06/2014,15.4,20.9,11.1,0.0
02/06/2014,14.2,18.8,9.1,0.0
03/06/2014,18.2,25.5,10.0,0.0
04/06/2014,14.6,18.1,10.2,0.0
05/06/2014,18.5,27.0,7.6,0.0
06/06/2014,23.1,30.4,16.2,0.6
07/06/2014,23.7,31.1,17.1,0.0
08/06/2014,24.1,32.2,14.5,0.0
09/06/2014,22.9,32.2,16.8,2.7
10/06/2014,20.6,28.5,13.1,0.0
11/06/2014,22.1,30.5,13.6,0.0
12/06/2014,22.5,33.0,16.0,8.2
13/06/2014,22.2,28.5,15.8,0.3
14/06/2014,18.8,23.3,14.8,0.0
15/06/2014,18.0,22.7,14.1,0.0
16/06/2014,18.0,22.5,13.6,0.0
17/06/2014,17.9,24.7,10.1,0.0
18/06/2014,18.9,26.3,11.1,0.0
19/06/2014,21.1,28.5,12.1,0.0
20/06/2014,24.5,32.8,15.8,0.0
21/06/2014,24.4,32.2,17.4,0.3
22/06/2014,22.3,30.8,15.4,0.4
23/06/2014,20.9,28.5,15.1,0.2
24/06/2014,18.0,24.1,14.1,0.1
25/06/2014,18.7,23.5,14.1,0.1
26/06/2014,17.5,23.3,12.7,0.0
27/06/2014,21.2,29.7,11.2,0.1
28/06/2014,20.9,29.9,14.0,0.0
29/06/2014,16.4,22.5,11.9,0.0
30/06/2014,19.5,29.1,9.3,0.0
01/07/2014,20.2,27.4,14.2,10.6
02/07/2014,17.8,24.4,14.0,8.4
03/07/2014,17.4,23.5,13.4,13.4
04/07/2014,18.6,24.3,14.6,1.9
05/07/2014,23.0,30.2,14.4,0.0
06/07/2014,19.2,26.2,13.1,10.1
07/07/2014,15.8,19.7,12.2,0.3
08/07/2014,16.7,21.7,9.8,0.0
09/07/2014,15.6,19.0,13.1,0.0
10/07/2014,15.5,20.2,10.7,0.0
11/07/2014,16.7,21.0,13.1,0.0
12/07/2014,16.8,21.9,13.6,0.0
13/07/2014,19.9,28.5,12.8,0.0
14/07/2014,20.0,25.1,15.3,0.0
15/07/2014,22.3,31.9,12.2,0.0
16/07/2014,26.4,34.9,16.9,0.0
17/07/2014,28.1,35.9,18.8,0.0
18/07/2014,26.8,33.7,17.8,0.0
19/07/2014,22.1,26.8,15.8,0.6
20/07/2014,18.6,25.1,13.8,0.0
21/07/2014,18.0,23.1,11.8,0.0
22/07/2014,20.6,27.5,14.7,0.0
23/07/2014,22.4,30.4,13.1,0.0
24/07/2014,23.4,30.0,15.8,0.0
25/07/2014,22.6,29.1,16.6,9.4
26/07/2014,22.5,29.6,15.8,0.0
27/07/2014,22.0,28.5,15.6,0.0
28/07/2014,20.0,24.9,16.3,0.0
29/07/2014,17.6,22.7,13.6,0.2
30/07/2014,19.1,25.0,13.3,0.0
31/07/2014,21.7,30.7,12.0,0.0
01/08/2014,21.2,31.0,15.4,0.0
02/08/2014,20.9,27.6,16.4,8.3
03/08/2014,21.3,28.7,14.7,0.6
04/08/2014,21.5,28.5,16.6,0.0
05/08/2014,21.6,29.5,13.2,0.0
06/08/2014,22.1,29.7,13.5,0.0
07/08/2014,24.2,31.5,16.4,0.0
08/08/2014,23.6,33.2,18.2,4.4
09/08/2014,23.3,29.4,17.7,0.0
10/08/2014,24.7,33.3,18.8,0.0
11/08/2014,20.3,25.8,16.0,0.0
12/08/2014,21.4,29.7,12.1,0.0
13/08/2014,16.8,22.9,13.0,0.1
14/08/2014,17.0,23.4,10.3,0.0
15/08/2014,17.6,24.2,11.8,0.0
16/08/2014,15.9,20.7,10.5,0.0
17/08/2014,18.4,28.8,8.4,0.0
18/08/2014,20.8,30.1,14.8,4.8
19/08/2014,19.1,24.8,14.6,0.0
20/08/2014,17.9,24.5,12.8,0.0
21/08/2014,18.4,26.7,10.0,0.0
22/08/2014,16.2,19.4,11.9,3.2
23/08/2014,16.7,23.7,9.0,0.0
24/08/2014,19.9,29.3,9.8,0.0
25/08/2014,23.8,32.3,14.6,0.0
26/08/2014,24.8,32.4,17.7,0.0
27/08/2014,25.0,32.7,17.9,0.0
28/08/2014,24.5,33.5,18.3,0.0
29/08/2014,20.9,25.7,17.7,0.0
30/08/2014,21.0,28.3,15.7,0.0
31/08/2014,21.0,28.0,14.2,0.0
01/09/2014,22.2,30.7,13.8,0.0
02/09/2014,22.6,30.9,15.5,0.0
03/09/2014,24.0,33.4,14.7,0.0
04/09/2014,21.8,29.2,16.3,0.5
05/09/2014,22.3,30.3,14.6,0.0
06/09/2014,23.8,31.4,16.0,0.4
07/09/2014,23.2,31.6,15.6,31.8
08/09/2014,21.1,27.8,16.7,0.1
09/09/2014,21.6,28.7,15.7,0.0
10/09/2014,23.3,30.8,16.4,0.1
11/09/2014,22.9,28.2,18.0,0.1
12/09/2014,21.6,28.5,15.3,0.0
13/09/2014,21.2,30.8,12.4,0.0
14/09/2014,20.4,27.9,13.5,0.0
15/09/2014,20.5,26.8,15.0,0.0
16/09/2014,21.7,27.5,17.0,0.0
17/09/2014,22.1,26.8,18.8,0.1
18/09/2014,21.5,26.7,16.4,0.0
19/09/2014,20.5,25.2,15.4,0.0
20/09/2014,19.9,27.2,13.9,0.0
21/09/2014,20.3,28.1,13.4,0.0
22/09/2014,17.3,19.6,15.7,0.0
23/09/2014,15.5,18.8,10.2,0.0
24/09/2014,14.0,19.4,8.6,0.0
25/09/2014,15.3,21.7,10.2,0.0
26/09/2014,15.0,23.5,8.1,0.0
27/09/2014,17.5,23.6,9.4,0.0
28/09/2014,17.4,20.1,14.8,0.0
29/09/2014,16.7,20.0,14.3,0.0
30/09/2014,17.3,22.5,12.8,0.0
01/10/2014,17.8,25.7,11.3,0.0
02/10/2014,18.0,25.1,11.8,0.0
03/10/2014,18.1,25.7,11.9,0.0
04/10/2014,18.0,25.8,11.7,0.0
05/10/2014,15.0,19.8,9.7,0.0
06/10/2014,17.2,23.7,9.6,0.0
07/10/2014,20.0,25.8,15.2,0.0
08/10/2014,20.0,25.8,16.9,0.0
09/10/2014,17.6,20.9,15.8,0.0
10/10/2014,16.0,20.5,13.1,0.0
11/10/2014,17.7,22.2,12.3,0.1
12/10/2014,16.4,19.7,13.2,0.0
13/10/2014,14.6,18.9,12.6,2.9
14/10/2014,15.1,20.9,10.3,0.0
15/10/2014,14.0,18.6,9.0,0.6
16/10/2014,19.2,25.0,14.8,0.0
17/10/2014,19.4,24.6,14.2,0.0
18/10/2014,21.9,27.0,16.8,0.0
19/10/2014,20.3,27.9,13.6,0.0
20/10/2014,19.2,26.9,12.8,0.0
21/10/2014,18.5,26.6,12.7,0.0
22/10/2014,13.6,17.0,9.7,0.0
23/10/2014,15.3,23.4,6.5,0.0
24/10/2014,19.7,27.2,11.5,0.0
25/10/2014,19.1,27.5,11.5,0.0
26/10/2014,17.9,26.9,11.2,0.0
27/10/2014,14.3,19.4,10.2,0.0
28/10/2014,15.1,21.0,11.7,0.0
29/10/2014,14.8,20.2,11.5,0.0
30/10/2014,13.2,19.0,9.5,0.0
31/10/2014,13.1,18.3,8.6,0.2
01/11/2014,13.1,16.7,10.1,0.0
02/11/2014,13.3,16.3,10.9,4.9
03/11/2014,12.6,17.0,8.6,9.6
04/11/2014,8.2,11.9,5.8,12.4
05/11/2014,6.4,9.1,5.1,9.2
06/11/2014,8.4,14.2,3.4,0.0
07/11/2014,9.3,13.5,6.0,4.1
08/11/2014,8.9,13.8,3.9,0.1
09/11/2014,9.0,12.6,3.8,0.0
10/11/2014,7.6,13.1,1.9,0.0
11/11/2014,7.9,9.3,6.7,8.8
12/11/2014,9.1,15.6,4.0,0.0
13/11/2014,13.1,15.8,8.4,0.0
14/11/2014,12.1,15.8,7.8,7.6
15/11/2014,8.8,14.1,5.4,1.4
16/11/2014,8.7,13.2,3.5,7.0
17/11/2014,7.8,13.5,3.1,20.9
18/11/2014,7.7,12.5,3.4,0.0
19/11/2014,10.0,14.7,4.9,0.0
20/11/2014,11.2,16.3,7.4,0.0
21/11/2014,12.1,15.6,9.5,0.0
22/11/2014,12.9,16.0,10.5,0.0
23/11/2014,15.1,18.9,10.9,0.0
24/11/2014,14.7,19.4,11.8,0.0
25/11/2014,12.9,16.8,9.9,14.8
26/11/2014,10.8,13.1,8.6,8.0
27/11/2014,11.2,13.6,7.0,0.9
28/11/2014,12.9,15.0,11.5,1.5
29/11/2014,11.8,13.0,10.7,51.4
30/11/2014,12.9,15.9,9.7,3.4
01/12/2014,9.6,13.8,4.6,12.9
02/12/2014,7.9,10.6,5.7,0.0
03/12/2014,6.1,9.2,1.7,0.0
04/12/2014,4.9,9.9,0.4,0.0
05/12/2014,5.9,10.1,2.1,1.8
06/12/2014,3.8,5.6,2.2,3.6
07/12/2014,5.1,8.6,2.1,0.0
08/12/2014,7.7,11.4,5.3,8.2
09/12/2014,4.8,6.9,2.9,2.1
10/12/2014,7.5,11.2,3.2,0.0
11/12/2014,8.3,11.5,3.2,0.0
12/12/2014,6.2,11.5,0.9,0.0
13/12/2014,9.4,12.1,7.0,1.5
14/12/2014,8.1,9.5,6.7,6.3
15/12/2014,7.5,9.6,5.7,1.4
16/12/2014,8.3,11.0,4.7,4.5
17/12/2014,9.2,12.8,6.9,0.1
18/12/2014,9.7,12.3,8.1,0.0
19/12/2014,8.1,12.4,4.7,0.0
20/12/2014,9.9,14.4,5.1,0.0
21/12/2014,8.4,12.9,3.0,0.0
22/12/2014,1.2,3.1,-0.7,0.2
23/12/2014,0.7,2.4,-0.7,0.1
24/12/2014,2.1,8.9,-1.9,0.0
25/12/2014,7.2,12.1,1.4,0.0
26/12/2014,8.4,12.2,5.2,0.0
27/12/2014,7.9,9.5,6.3,3.5
28/12/2014,4.0,6.8,0.2,12.7
29/12/2014,0.5,3.3,-1.6,0.0
30/12/2014,1.8,8.6,-1.6,0.1
31/12/2014,5.4,11.7,-1.7,0.0
