Fecha, Temperatura media, Temperatura maxima, Temperatura minima, Precipitacion acumulada
01/01/2012,8.2,13.5,4.6,0.0
02/01/2012,7.5,11.6,3.5,1.0
03/01/2012,5.7,12.0,-0.1,0.0
04/01/2012,8.1,12.2,3.1,0.0
05/01/2012,8.0,12.8,1.3,0.0
06/01/2012,9.5,11.2,6.1,0.0
07/01/2012,8.8,12.4,6.2,0.0
08/01/2012,8.8,11.5,7.2,0.0
09/01/2012,5.9,11.3,0.7,0.0
10/01/2012,1.6,6.7,-1.1,0.1
11/01/2012,-1.1,1.8,-3.9,0.2
12/01/2012,-0.6,1.6,-2.9,0.1
13/01/2012,2.3,7.8,-0.2,0.0
14/01/2012,2.1,7.0,-1.0,0.0
15/01/2012,0.6,5.5,-3.1,0.8
16/01/2012,3.4,7.3,0.8,7.0
17/01/2012,4.1,10.6,-0.2,0.0
18/01/2012,6.3,11.7,-0.0,0.0
19/01/2012,10.8,14.3,5.0,0.0
20/01/2012,10.0,13.1,7.7,0.0
21/01/2012,9.7,13.2,5.9,0.0
22/01/2012,9.5,12.2,7.9,0.0
23/01/2012,9.2,12.0,7.4,0.0
24/01/2012,7.0,9.7,1.4,0.0
25/01/2012,3.4,9.9,-1.2,0.0
26/01/2012,5.1,12.0,-1.4,0.0
27/01/2012,5.6,6.8,3.7,0.4
28/01/2012,4.1,8.0,0.4,4.0
29/01/2012,2.8,5.7,1.2,0.3
30/01/2012,3.4,7.6,0.3,0.0
31/01/2012,4.9,9.2,0.4,0.0
01/02/2012,3.8,7.6,-0.2,0.8
02/02/2012,-2.4,-0.2,-4.7,0.0
03/02/2012,-3.6,-0.4,-5.8,0.0
04/02/2012,-1.6,1.8,-6.2,0.0
05/02/2012,2.6,7.4,-0.2,5.6
06/02/2012,2.6,5.0,-0.6,0.0
07/02/2012,0.2,3.5,-2.6,0.0
08/02/2012,-3.4,-1.0,-5.3,0.0
09/02/2012,-1.7,1.2,-4.3,0.1
10/02/2012,0.4,4.3,-3.3,0.0
11/02/2012,-1.9,2.0,-4.9,0.0
12/02/2012,-2.2,2.1,-5.6,0.0
13/02/2012,0.8,4.1,-3.0,0.0
14/02/2012,2.9,6.4,0.8,5.2
15/02/2012,4.1,8.0,1.4,0.0
16/02/2012,5.6,8.5,3.6,0.0
17/02/2012,5.6,10.4,-0.7,0.0
18/02/2012,4.4,12.3,-3.1,0.0
19/02/2012,5.8,10.3,2.6,0.0
20/02/2012,3.9,8.6,-0.5,0.0
21/02/2012,3.1,9.4,-3.8,0.0
22/02/2012,5.1,14.8,-4.1,0.0
23/02/2012,9.3,17.4,1.0,0.0
24/02/2012,10.2,19.3,2.5,0.0
25/02/2012,9.0,15.8,3.3,0.0
26/02/2012,10.6,14.6,7.5,0.0
27/02/2012,9.5,15.1,3.8,0.0
28/02/2012,8.5,17.0,1.6,0.0
29/02/2012,11.0,19.4,3.6,0.0
01/03/2012,10.8,18.8,3.6,0.0
02/03/2012,10.7,17.9,3.4,0.0
03/03/2012,10.6,17.7,3.8,0.0
04/03/2012,8.3,14.7,4.3,2.6
05/03/2012,5.1,9.3,1.8,0.2
06/03/2012,4.8,8.9,2.4,0.1
07/03/2012,6.7,11.9,-1.5,0.0
08/03/2012,7.4,9.6,4.6,0.0
09/03/2012,8.0,13.7,3.9,0.0
10/03/2012,8.2,16.0,0.7,0.0
11/03/2012,9.0,14.5,6.3,0.0
12/03/2012,11.5,18.6,7.0,0.0
13/03/2012,13.9,24.3,4.2,0.0
14/03/2012,15.2,24.8,6.1,0.0
15/03/2012,15.7,23.9,6.8,0.0
16/03/2012,13.9,21.2,6.5,0.0
17/03/2012,12.5,19.3,6.3,0.0
18/03/2012,8.0,13.8,1.6,0.0
19/03/2012,6.2,11.5,1.2,0.0
20/03/2012,7.6,12.3,2.0,0.0
21/03/2012,6.1,8.8,4.6,22.8
22/03/2012,7.3,13.6,1.2,0.0
23/03/2012,9.4,16.1,1.9,0.0
24/03/2012,12.3,19.8,4.0,0.0
25/03/2012,13.4,21.7,5.4,0.0
26/03/2012,14.3,21.3,5.5,0.0
27/03/2012,13.3,20.3,7.0,0.0
28/03/2012,13.7,21.8,6.7,0.0
29/03/2012,15.5,23.1,6.3,0.0
30/03/2012,15.4,23.9,6.7,0.0
31/03/2012,14.3,23.5,6.2,0.0
01/04/2012,13.8,22.3,5.6,0.0
02/04/2012,14.6,21.9,6.4,0.0
03/04/2012,10.9,13.6,8.1,0.0
04/04/2012,10.2,15.0,7.0,0.2
05/04/2012,9.3,13.2,6.5,7.6
06/04/2012,7.7,11.8,3.6,4.1
07/04/2012,6.8,10.0,2.6,0.2
08/04/2012,9.1,14.0,5.9,0.0
09/04/2012,12.9,20.2,4.9,0.0
10/04/2012,11.2,17.4,4.4,3.7
11/04/2012,8.7,14.1,2.6,0.0
12/04/2012,8.6,13.0,5.1,3.1
13/04/2012,7.4,11.7,3.2,0.0
14/04/2012,6.8,10.7,4.6,6.2
15/04/2012,6.0,9.7,2.2,6.5
16/04/2012,5.2,8.7,2.7,1.8
17/04/2012,7.9,16.3,0.3,2.3
18/04/2012,7.9,12.0,3.4,10.5
19/04/2012,8.7,12.6,5.7,0.9
20/04/2012,9.4,14.0,5.3,2.7
21/04/2012,9.9,18.1,5.7,4.7
22/04/2012,9.8,14.6,5.9,0.0
23/04/2012,9.2,15.6,4.1,1.5
24/04/2012,9.1,14.9,2.6,0.0
25/04/2012,14.4,21.2,9.5,0.0
26/04/2012,11.3,16.5,8.0,1.6
27/04/2012,13.3,22.0,6.3,0.6
28/04/2012,8.3,10.6,5.8,33.8
29/04/2012,9.2,13.9,6.1,3.2
30/04/2012,9.1,15.5,6.3,12.7
01/05/2012,11.6,16.6,7.1,0.0
02/05/2012,14.6,20.5,6.5,0.0
03/05/2012,15.7,22.1,8.8,0.1
04/05/2012,12.6,18.1,9.0,4.8
05/05/2012,12.1,17.2,7.2,0.2
06/05/2012,12.9,18.5,7.3,0.0
07/05/2012,14.9,22.4,5.9,0.1
08/05/2012,17.6,23.1,13.6,1.1
09/05/2012,21.2,27.5,13.6,0.0
10/05/2012,23.7,30.2,14.5,0.0
11/05/2012,23.5,32.3,14.0,0.2
12/05/2012,21.0,27.2,14.8,0.0
13/05/2012,16.0,20.4,10.4,0.1
14/05/2012,15.4,24.1,7.6,0.0
15/05/2012,12.0,17.9,6.2,0.0
16/05/2012,15.4,24.6,6.5,0.0
17/05/2012,16.9,24.0,11.1,1.0
18/05/2012,16.4,23.7,12.2,0.3
19/05/2012,13.4,16.9,10.1,0.4
20/05/2012,9.3,11.4,6.7,0.2
21/05/2012,9.5,12.0,7.4,0.2
22/05/2012,13.2,18.1,9.9,0.2
23/05/2012,16.7,23.4,9.5,0.1
24/05/2012,20.6,29.0,11.2,0.1
25/05/2012,23.4,30.4,13.8,0.0
26/05/2012,19.6,25.7,11.7,0.0
27/05/2012,18.4,26.0,9.8,0.0
28/05/2012,19.5,26.6,11.9,0.0
29/05/2012,21.5,29.1,13.6,0.1
30/05/2012,22.5,31.4,12.9,0.0
31/05/2012,23.0,32.4,13.7,0.0
01/06/2012,26.0,34.9,16.8,0.0
02/06/2012,24.1,34.0,14.7,0.1
03/06/2012,16.7,20.6,13.3,0.1
04/06/2012,17.3,22.8,13.0,0.0
05/06/2012,20.9,30.7,9.0,0.0
06/06/2012,22.4,28.7,15.6,0.0
07/06/2012,22.8,28.9,15.7,0.0
08/06/2012,16.0,19.8,11.1,0.0
09/06/2012,16.3,23.3,7.1,0.0
10/06/2012,18.5,24.6,14.4,0.0
11/06/2012,15.6,24.5,9.4,0.1
12/06/2012,14.1,20.4,8.0,0.0
13/06/2012,16.3,23.7,9.0,0.0
14/06/2012,22.4,30.7,12.1,0.0
15/06/2012,24.2,33.4,14.6,0.0
16/06/2012,23.1,32.4,15.4,0.0
17/06/2012,22.8,32.2,11.3,0.0
18/06/2012,20.5,25.4,16.8,0.1
19/06/2012,18.2,22.2,15.4,0.1
20/06/2012,22.5,30.3,14.0,0.0
21/06/2012,20.3,28.4,11.7,0.0
22/06/2012,18.4,26.1,10.9,0.0
23/06/2012,20.9,30.4,10.9,0.0
24/06/2012,23.0,32.5,14.3,0.0
25/06/2012,24.2,33.0,15.1,0.0
26/06/2012,27.0,36.1,16.0,0.0
27/06/2012,28.5,35.5,19.2,0.0
28/06/2012,27.7,36.7,18.7,0.0
29/06/2012,22.7,33.8,14.1,0.0
30/06/2012,18.5,28.6,11.8,0.0
01/07/2012,15.3,19.6,11.7,0.0
02/07/2012,18.7,27.8,8.7,0.0
03/07/2012,23.5,32.9,13.2,0.0
04/07/2012,21.8,29.3,15.9,0.0
05/07/2012,18.9,24.1,14.3,0.0
06/07/2012,19.5,27.1,12.3,0.0
07/07/2012,22.6,31.5,16.0,0.0
08/07/2012,20.2,26.7,14.6,0.0
09/07/2012,20.8,31.1,13.9,0.0
10/07/2012,19.5,26.2,14.4,0.0
11/07/2012,17.9,23.3,13.0,0.0
12/07/2012,21.0,30.6,11.3,0.0
13/07/2012,22.5,33.4,13.3,0.0
14/07/2012,18.7,23.5,15.0,0.0
15/07/2012,17.6,23.4,13.6,0.0
16/07/2012,20.3,29.3,11.2,0.0
17/07/2012,25.7,36.1,13.7,0.0
18/07/2012,27.4,37.6,16.9,0.0
19/07/2012,21.1,28.7,14.8,0.0
20/07/2012,18.8,25.5,12.1,0.0
21/07/2012,18.8,24.7,14.8,0.0
22/07/2012,20.2,26.8,15.0,0.0
23/07/2012,22.5,30.8,12.1,0.0
24/07/2012,24.4,31.6,16.0,0.0
25/07/2012,26.5,34.5,16.7,0.0
26/07/2012,29.9,35.3,21.1,0.0
27/07/2012,22.8,32.9,15.9,1.3
28/07/2012,20.5,26.5,15.7,0.0
29/07/2012,21.0,29.9,14.1,0.0
30/07/2012,22.7,33.1,13.0,0.0
31/07/2012,26.2,35.5,15.2,0.0
01/08/2012,25.2,34.1,17.4,0.0
02/08/2012,21.5,30.4,14.6,0.0
03/08/2012,22.2,30.4,15.4,0.0
04/08/2012,22.1,31.4,14.6,0.0
05/08/2012,18.6,26.7,13.8,0.4
06/08/2012,19.3,26.9,10.6,0.0
07/08/2012,23.0,31.5,12.1,0.0
08/08/2012,26.3,34.1,16.6,0.0
09/08/2012,28.9,38.4,18.8,0.0
10/08/2012,31.2,40.9,20.8,0.0
11/08/2012,26.9,37.7,18.8,0.0
12/08/2012,21.8,28.1,16.8,0.0
13/08/2012,23.1,32.2,13.8,0.0
14/08/2012,29.7,33.9,18.7,0.1
15/08/2012,22.8,26.6,18.3,0.0
16/08/2012,24.8,33.3,13.0,0.0
17/08/2012,29.7,38.2,19.7,0.0
18/08/2012,30.3,38.8,19.7,0.0
19/08/2012,29.8,36.9,22.9,0.0
20/08/2012,30.5,38.4,22.6,0.0
21/08/2012,28.7,38.5,21.0,0.0
22/08/2012,24.9,34.9,16.2,0.0
23/08/2012,24.8,36.2,16.7,0.0
24/08/2012,24.3,33.5,14.0,0.0
25/08/2012,20.4,25.1,15.4,0.0
26/08/2012,20.4,28.9,12.1,0.0
27/08/2012,24.8,32.8,15.1,0.0
28/08/2012,25.0,32.2,15.8,0.0
29/08/2012,23.2,32.8,16.9,15.4
30/08/2012,17.3,20.9,13.4,0.0
31/08/2012,15.7,21.4,12.5,0.0
01/09/2012,14.8,19.8,11.3,0.0
02/09/2012,16.3,22.3,11.3,0.0
03/09/2012,17.6,22.3,13.4,0.0
04/09/2012,18.6,23.2,14.6,0.0
05/09/2012,20.4,26.9,13.4,0.0
06/09/2012,21.4,30.0,12.5,0.0
07/09/2012,23.8,32.0,16.4,0.0
08/09/2012,24.0,32.0,16.6,0.0
09/09/2012,23.8,31.6,17.2,0.0
10/09/2012,22.8,29.0,16.9,0.0
11/09/2012,22.7,31.0,16.0,0.0
12/09/2012,18.6,24.2,13.4,0.0
13/09/2012,15.8,21.0,10.7,0.0
14/09/2012,17.1,24.9,12.5,0.0
15/09/2012,20.1,29.2,12.1,0.0
16/09/2012,21.6,30.0,13.0,0.0
17/09/2012,22.3,28.7,16.4,0.0
18/09/2012,19.4,25.2,15.8,0.0
19/09/2012,16.7,22.7,9.4,0.0
20/09/2012,18.7,27.7,7.8,0.0
21/09/2012,21.6,28.5,16.2,2.5
22/09/2012,22.2,30.0,15.1,0.0
23/09/2012,22.6,31.2,18.1,0.0
24/09/2012,19.4,25.1,13.2,0.2
25/09/2012,16.3,21.5,11.4,0.2
26/09/2012,13.7,18.7,9.5,1.0
27/09/2012,14.8,21.5,7.7,0.0
28/09/2012,16.4,21.0,13.1,1.0
29/09/2012,13.8,16.6,11.5,13.6
30/09/2012,13.4,18.1,8.9,0.0
01/10/2012,13.3,21.8,5.3,0.0
02/10/2012,15.5,25.0,7.4,0.0
03/10/2012,17.3,25.3,10.3,0.0
04/10/2012,17.6,25.4,11.4,0.0
05/10/2012,19.2,26.1,12.9,0.0
06/10/2012,19.5,26.1,11.9,0.0
07/10/2012,20.9,26.6,15.6,0.0
08/10/2012,21.0,29.8,14.5,0.0
09/10/2012,21.0,27.9,13.8,0.0
10/10/2012,19.9,27.2,13.2,17.9
11/10/2012,16.7,23.7,13.2,17.1
12/10/2012,13.6,17.3,9.2,1.5
13/10/2012,12.0,18.7,5.7,0.0
14/10/2012,11.7,18.9,8.2,6.8
15/10/2012,10.3,16.2,6.1,0.0
16/10/2012,12.9,19.0,6.3,0.0
17/10/2012,17.2,22.1,13.6,0.0
18/10/2012,19.3,21.2,17.0,0.0
19/10/2012,14.6,21.2,11.7,2.6
20/10/2012,12.1,12.9,11.5,2.2
21/10/2012,13.9,17.7,11.4,28.6
22/10/2012,14.1,19.7,11.1,14.9
23/10/2012,13.3,20.0,8.8,3.0
24/10/2012,15.4,20.6,10.7,2.5
25/10/2012,15.2,18.1,13.0,4.7
26/10/2012,13.8,15.8,11.4,2.7
27/10/2012,8.5,12.5,2.4,21.6
28/10/2012,4.8,8.2,2.3,15.6
29/10/2012,6.1,13.0,-0.2,0.0
30/10/2012,6.6,11.5,0.8,0.0
31/10/2012,9.1,15.2,3.9,0.0
01/11/2012,10.3,17.2,3.7,1.1
02/11/2012,13.1,19.8,9.0,0.0
03/11/2012,13.5,15.6,11.8,0.8
04/11/2012,11.7,14.4,6.3,8.4
05/11/2012,7.5,12.8,2.7,0.5
06/11/2012,6.9,11.5,2.8,0.2
07/11/2012,5.7,11.7,0.2,0.3
08/11/2012,9.9,13.4,7.0,0.6
09/11/2012,12.6,15.4,9.8,0.0
10/11/2012,11.0,16.3,7.1,1.4
11/11/2012,7.7,11.1,5.5,0.0
12/11/2012,8.0,12.7,4.5,0.0
13/11/2012,7.2,15.3,0.1,0.0
14/11/2012,11.5,18.5,5.9,0.0
15/11/2012,12.3,18.5,7.6,0.0
16/11/2012,11.7,17.8,8.2,0.0
17/11/2012,11.9,15.9,8.8,5.1
18/11/2012,10.4,13.5,5.4,9.4
19/11/2012,7.9,14.6,3.3,0.0
20/11/2012,9.0,14.2,3.9,0.0
21/11/2012,10.2,12.7,5.7,0.1
22/11/2012,7.1,13.2,2.2,0.0
23/11/2012,9.4,14.4,3.5,0.0
24/11/2012,12.3,13.9,10.5,0.0
25/11/2012,11.6,14.2,8.7,0.3
26/11/2012,8.8,12.6,4.3,12.5
27/11/2012,5.2,8.6,3.6,0.4
28/11/2012,3.9,6.8,1.1,26.1
29/11/2012,3.6,6.0,2.2,2.7
30/11/2012,2.9,5.8,1.5,0.1
01/12/2012,2.2,5.5,0.1,0.0
02/12/2012,5.0,9.5,0.5,0.0
03/12/2012,8.0,12.9,4.4,0.0
04/12/2012,6.4,9.0,3.8,1.9
05/12/2012,4.4,7.6,2.2,1.9
06/12/2012,5.0,10.3,1.2,0.0
07/12/2012,6.5,11.3,2.1,0.0
08/12/2012,5.7,8.5,2.6,1.3
09/12/2012,4.3,9.4,-0.6,0.0
10/12/2012,4.5,8.6,-1.1,0.0
11/12/2012,4.5,9.2,-1.4,0.0
12/12/2012,1.4,5.6,-2.2,0.0
13/12/2012,4.9,7.7,1.0,1.3
14/12/2012,9.3,11.3,7.3,5.3
15/12/2012,9.7,15.0,7.0,0.8
16/12/2012,9.8,13.1,5.5,1.0
17/12/2012,8.1,12.9,4.3,0.0
18/12/2012,6.6,10.5,1.8,0.3
19/12/2012,9.2,12.1,5.9,0.0
20/12/2012,10.4,12.8,7.7,0.3
21/12/2012,10.4,15.8,7.6,0.1
22/12/2012,9.4,16.1,5.1,0.0
23/12/2012,7.0,11.5,3.6,0.1
24/12/2012,10.3,17.7,2.7,0.1
25/12/2012,10.8,15.4,7.8,0.0
26/12/2012,7.3,12.2,1.4,0.0
27/12/2012,5.5,13.0,0.5,0.0
28/12/2012,7.7,14.0,3.2,0.0
29/12/2012,7.6,10.5,5.1,0.0
30/12/2012,5.3,10.3,1.2,0.0
31/12/2012,4.5,9.5,-0.5,1.0
