Fecha, Temperatura media, Temperatura maxima, Temperatura minima, Precipitacion acumulada
01/01/2014,6.8,10.1,4.2,2.8
02/01/2014,9.2,11.6,7.5,5.9
03/01/2014,10.1,11.4,9.1,3.3
04/01/2014,8.4,12.9,2.8,8.8
05/01/2014,3.9,5.7,1.2,0.8
06/01/2014,6.6,9.3,4.2,0.0
07/01/2014,9.8,14.2,6.9,0.0
08/01/2014,10.3,18.5,7.0,0.0
09/01/2014,6.6,10.9,4.1,0.0
10/01/2014,5.5,12.0,2.1,0.0
11/01/2014,4.7,6.1,2.5,0.0
12/01/2014,4.8,7.1,1.8,1.5
13/01/2014,6.0,10.3,1.7,1.2
14/01/2014,4.2,7.5,1.6,7.0
15/01/2014,6.6,9.2,4.0,0.0
16/01/2014,8.5,11.9,4.5,2.9
17/01/2014,5.7,8.7,1.9,0.0
18/01/2014,5.8,8.3,4.5,5.0
19/01/2014,5.1,9.3,2.4,0.0
20/01/2014,3.7,5.5,2.8,2.9
21/01/2014,5.1,10.0,0.9,0.0
22/01/2014,5.8,8.2,4.0,3.3
23/01/2014,6.8,9.5,4.2,0.2
24/01/2014,8.9,11.8,7.0,7.9
25/01/2014,11.5,14.7,9.4,0.7
26/01/2014,11.2,14.6,8.5,0.3
27/01/2014,6.2,9.8,2.5,2.7
28/01/2014,2.8,5.1,-0.2,3.8
29/01/2014,4.5,8.1,2.1,0.0
30/01/2014,3.8,6.9,2.6,1.5
31/01/2014,5.4,10.1,1.1,1.7
01/02/2014,5.0,7.5,2.0,8.2
02/02/2014,3.6,8.3,-0.7,0.0
03/02/2014,2.7,6.3,0.3,1.0
04/02/2014,3.4,7.7,-0.6,1.5
05/02/2014,6.8,11.6,3.0,2.3
06/02/2014,8.7,13.7,3.3,8.7
07/02/2014,7.6,11.0,4.7,1.3
08/02/2014,6.9,11.1,0.4,2.8
09/02/2014,3.3,6.8,-0.4,0.0
10/02/2014,4.7,6.8,2.3,5.2
11/02/2014,1.3,3.6,-1.0,7.2
12/02/2014,4.3,8.3,-0.7,0.5
13/02/2014,7.4,12.2,3.7,0.0
14/02/2014,12.4,17.7,6.9,0.0
15/02/2014,9.4,14.0,5.0,0.8
16/02/2014,5.6,11.0,1.4,0.0
17/02/2014,5.8,12.4,0.6,0.0
18/02/2014,6.7,9.5,3.9,0.0
19/02/2014,7.9,10.8,1.8,0.0
20/02/2014,7.0,13.7,1.6,1.6
21/02/2014,6.2,9.5,-1.0,0.3
22/02/2014,4.3,12.4,-1.3,0.0
23/02/2014,7.6,15.1,0.5,0.0
24/02/2014,9.4,14.2,3.8,0.0
25/02/2014,6.6,13.0,1.6,3.8
26/02/2014,3.4,7.4,-0.3,0.5
27/02/2014,3.1,8.3,0.1,2.4
28/02/2014,4.1,7.4,2.4,7.4
01/03/2014,3.1,4.7,1.9,9.1
02/03/2014,8.7,13.5,3.1,2.1
03/03/2014,5.6,10.0,2.3,21.5
04/03/2014,5.8,9.9,3.5,24.7
05/03/2014,9.9,13.6,4.5,1.9
06/03/2014,10.9,18.0,4.9,0.0
07/03/2014,9.0,17.3,2.1,0.0
08/03/2014,9.4,20.0,2.4,0.0
09/03/2014,10.9,18.8,4.0,0.0
10/03/2014,10.0,19.3,1.6,0.0
11/03/2014,10.7,18.8,3.7,0.0
12/03/2014,9.6,16.6,3.6,0.0
13/03/2014,8.3,15.7,3.0,0.0
14/03/2014,10.5,19.0,2.4,0.0
15/03/2014,11.5,16.9,7.8,0.0
16/03/2014,13.2,22.7,6.3,0.0
17/03/2014,12.5,23.7,4.4,0.0
18/03/2014,10.6,16.7,5.8,0.0
19/03/2014,10.5,19.8,3.6,0.0
20/03/2014,12.7,21.2,5.8,0.0
21/03/2014,13.9,19.3,9.6,0.0
22/03/2014,8.8,13.6,3.4,5.6
23/03/2014,4.0,7.6,0.2,3.2
24/03/2014,4.4,8.3,-1.9,6.1
25/03/2014,5.1,8.9,-0.0,13.1
26/03/2014,4.6,8.6,-0.1,7.2
27/03/2014,6.7,12.8,2.2,0.0
28/03/2014,10.4,14.0,5.3,0.0
29/03/2014,12.3,15.6,7.2,0.0
30/03/2014,10.5,13.5,7.4,0.0
31/03/2014,12.2,17.2,7.0,0.0
01/04/2014,15.2,19.0,11.4,0.0
02/04/2014,13.4,18.4,9.7,23.2
03/04/2014,9.7,10.6,8.9,14.3
04/04/2014,11.5,16.0,8.7,0.0
05/04/2014,14.4,20.1,8.9,0.0
06/04/2014,15.4,25.1,7.3,0.0
07/04/2014,16.9,25.5,9.5,8.2
08/04/2014,13.4,18.7,6.0,0.0
09/04/2014,13.3,24.2,5.0,0.0
10/04/2014,16.2,25.4,8.9,0.3
11/04/2014,16.1,22.8,9.4,0.2
12/04/2014,13.0,21.8,6.8,2.2
13/04/2014,13.7,22.2,6.8,0.0
14/04/2014,15.0,24.2,8.0,0.0
15/04/2014,16.9,26.3,11.1,0.0
16/04/2014,17.3,27.2,9.9,0.0
17/04/2014,16.2,24.3,8.5,0.0
18/04/2014,15.1,24.5,5.8,0.0
19/04/2014,14.5,20.6,8.0,3.0
20/04/2014,10.0,13.4,6.2,16.5
21/04/2014,10.5,17.2,6.7,6.6
22/04/2014,12.4,18.7,6.7,0.0
23/04/2014,13.2,21.4,7.3,0.6
24/04/2014,11.8,16.2,9.3,8.8
25/04/2014,10.1,14.5,7.1,0.4
26/04/2014,9.6,13.3,6.5,4.5
27/04/2014,11.5,15.8,7.4,0.1
28/04/2014,12.1,16.1,8.3,0.2
29/04/2014,14.2,19.3,10.1,0.0
30/04/2014,14.8,18.9,11.3,0.0
01/05/2014,13.6,17.8,10.0,0.0
02/05/2014,11.4,14.7,8.7,0.7
03/05/2014,12.6,16.8,7.9,0.0
04/05/2014,13.3,22.4,5.0,0.0
05/05/2014,16.4,25.1,8.5,0.0
06/05/2014,17.4,23.3,13.2,0.0
07/05/2014,17.1,23.2,9.9,0.0
08/05/2014,15.8,25.9,8.1,0.0
09/05/2014,16.2,23.7,8.9,0.0
10/05/2014,17.4,26.4,8.8,0.0
11/05/2014,14.2,17.6,9.2,0.0
12/05/2014,12.7,20.3,5.1,0.0
13/05/2014,11.7,15.6,8.9,0.0
14/05/2014,13.6,20.5,5.5,0.0
15/05/2014,14.7,22.7,7.0,0.0
16/05/2014,14.8,23.8,6.6,0.0
17/05/2014,14.3,21.8,6.5,0.0
18/05/2014,16.2,23.2,6.2,0.0
19/05/2014,17.7,21.7,12.8,0.1
20/05/2014,15.9,18.8,12.6,32.1
21/05/2014,16.2,20.1,11.1,9.9
22/05/2014,12.7,15.8,10.5,0.0
23/05/2014,12.1,16.9,6.7,3.3
24/05/2014,11.8,19.0,6.6,11.9
25/05/2014,12.5,19.2,9.9,19.0
26/05/2014,12.0,16.6,8.9,3.2
27/05/2014,14.2,21.1,7.5,0.0
28/05/2014,12.1,14.5,9.6,6.1
29/05/2014,14.6,19.9,9.0,0.0
30/05/2014,14.3,18.7,10.5,0.3
31/05/2014,15.8,20.1,12.0,0.0
01/06/2014,16.9,21.6,12.6,0.0
02/06/2014,15.5,20.7,8.1,0.0
03/06/2014,16.6,25.1,7.8,0.0
04/06/2014,14.3,18.3,7.4,0.0
05/06/2014,17.9,26.3,7.2,0.0
06/06/2014,22.9,29.7,17.8,0.8
07/06/2014,24.2,30.3,16.1,0.1
08/06/2014,23.6,31.5,14.4,0.0
09/06/2014,21.5,31.3,13.4,1.3
10/06/2014,20.2,28.9,13.0,0.1
11/06/2014,21.7,29.9,13.2,0.0
12/06/2014,22.7,31.5,16.9,0.0
13/06/2014,22.3,29.5,15.6,0.0
14/06/2014,19.8,24.0,15.3,0.0
15/06/2014,18.9,23.2,16.0,0.0
16/06/2014,18.7,23.4,13.5,0.0
17/06/2014,18.0,24.7,9.9,0.0
18/06/2014,18.0,25.8,9.6,0.0
19/06/2014,20.0,28.1,11.5,0.0
20/06/2014,23.3,31.8,15.3,0.8
21/06/2014,24.1,32.4,15.6,3.5
22/06/2014,22.5,31.0,15.2,23.4
23/06/2014,21.6,28.6,15.3,1.4
24/06/2014,17.7,24.7,14.1,13.6
25/06/2014,19.3,23.9,14.2,2.0
26/06/2014,17.4,22.6,11.9,0.3
27/06/2014,20.2,29.1,11.8,0.0
28/06/2014,20.8,29.5,13.5,0.8
29/06/2014,16.3,20.5,12.5,0.1
30/06/2014,18.4,26.9,8.1,0.0
01/07/2014,19.5,27.2,13.8,37.3
02/07/2014,16.7,24.5,13.6,35.4
03/07/2014,17.7,24.3,14.4,7.9
04/07/2014,18.3,24.0,14.3,14.4
05/07/2014,22.0,30.6,14.7,0.4
06/07/2014,19.6,24.9,13.7,10.1
07/07/2014,15.8,20.1,10.6,0.7
08/07/2014,16.5,21.5,10.0,0.0
09/07/2014,15.9,19.3,13.5,0.0
10/07/2014,16.4,20.1,13.4,0.0
11/07/2014,17.9,21.6,15.0,0.0
12/07/2014,17.8,21.8,14.5,0.0
13/07/2014,19.3,26.9,11.0,0.0
14/07/2014,20.1,25.6,13.5,0.0
15/07/2014,21.5,31.6,12.0,0.0
16/07/2014,25.3,34.5,17.4,0.0
17/07/2014,27.7,35.3,20.5,0.0
18/07/2014,27.1,33.7,17.6,0.1
19/07/2014,23.6,26.7,17.6,0.0
20/07/2014,18.3,23.3,13.3,0.0
21/07/2014,18.7,23.6,15.3,0.0
22/07/2014,20.1,28.0,11.2,0.0
23/07/2014,21.4,30.2,13.0,0.0
24/07/2014,22.6,31.3,15.6,0.7
25/07/2014,21.9,28.5,17.2,5.8
26/07/2014,22.5,30.0,14.9,0.0
27/07/2014,22.0,28.9,15.5,0.0
28/07/2014,19.5,24.2,15.0,0.0
29/07/2014,18.4,22.3,14.9,0.0
30/07/2014,20.0,26.4,13.7,0.0
31/07/2014,20.9,29.8,11.6,0.0
01/08/2014,21.7,30.3,16.1,0.0
02/08/2014,21.1,27.0,16.6,0.4
03/08/2014,21.4,28.9,15.6,0.4
04/08/2014,21.1,28.3,16.0,0.3
05/08/2014,21.3,29.4,13.9,0.0
06/08/2014,21.8,29.4,14.4,0.0
07/08/2014,23.2,30.9,15.7,0.0
08/08/2014,22.8,32.8,16.7,15.9
09/08/2014,22.1,29.1,16.9,0.0
10/08/2014,24.3,32.0,18.4,0.0
11/08/2014,20.5,26.6,13.7,0.0
12/08/2014,20.7,29.2,11.7,0.0
13/08/2014,17.3,21.8,14.8,0.3
14/08/2014,17.7,23.0,10.9,0.0
15/08/2014,17.8,23.5,11.7,0.0
16/08/2014,17.0,21.2,10.4,0.0
17/08/2014,18.5,29.5,8.7,0.0
18/08/2014,20.3,31.1,14.6,3.3
19/08/2014,19.2,26.0,13.1,0.0
20/08/2014,17.5,24.0,11.5,0.0
21/08/2014,18.0,26.9,9.8,0.0
22/08/2014,16.3,19.4,13.4,0.8
23/08/2014,16.4,24.5,7.7,0.0
24/08/2014,19.1,29.5,9.7,0.0
25/08/2014,23.5,33.1,15.7,0.0
26/08/2014,24.1,31.1,17.3,0.0
27/08/2014,24.3,31.6,16.9,0.0
28/08/2014,24.1,34.2,17.7,0.2
29/08/2014,21.3,27.2,16.0,0.0
30/08/2014,20.1,27.1,15.2,0.0
31/08/2014,20.8,28.9,14.2,0.0
01/09/2014,21.4,31.5,13.0,0.0
02/09/2014,21.4,31.2,14.3,0.0
03/09/2014,22.5,32.7,14.2,0.0
04/09/2014,20.9,28.8,15.7,0.0
05/09/2014,21.1,29.6,13.5,0.0
06/09/2014,23.2,31.7,16.4,0.0
07/09/2014,23.7,32.0,16.2,6.6
08/09/2014,21.1,28.1,16.7,0.2
09/09/2014,22.0,29.6,17.2,0.1
10/09/2014,23.3,31.7,16.8,0.0
11/09/2014,23.6,30.0,17.2,0.0
12/09/2014,21.3,28.5,14.8,0.0
13/09/2014,21.0,30.4,12.9,0.0
14/09/2014,20.0,26.9,15.7,1.6
15/09/2014,19.4,26.7,14.9,0.0
16/09/2014,21.0,26.9,15.7,1.5
17/09/2014,21.9,27.2,18.0,2.8
18/09/2014,21.2,26.2,16.8,0.0
19/09/2014,20.9,25.9,16.4,6.9
20/09/2014,20.0,27.7,14.8,6.7
21/09/2014,20.1,27.0,14.8,0.0
22/09/2014,16.4,18.6,15.0,12.8
23/09/2014,15.2,20.6,9.1,0.0
24/09/2014,13.8,19.8,6.6,0.0
25/09/2014,15.8,23.0,9.8,0.0
26/09/2014,15.1,23.8,8.3,0.0
27/09/2014,16.7,24.7,10.2,0.0
28/09/2014,17.5,20.5,13.5,1.0
29/09/2014,17.1,22.4,13.1,0.4
30/09/2014,17.0,23.2,12.6,0.0
01/10/2014,17.3,25.2,12.1,0.0
02/10/2014,18.0,26.0,12.3,0.0
03/10/2014,17.9,26.1,12.1,0.0
04/10/2014,17.8,25.1,11.7,0.0
05/10/2014,15.9,20.7,10.4,0.0
06/10/2014,17.3,23.8,9.0,0.0
07/10/2014,19.9,24.6,16.2,0.0
08/10/2014,19.7,24.3,15.3,9.0
09/10/2014,17.2,19.5,16.0,8.3
10/10/2014,15.3,16.4,13.0,19.9
11/10/2014,16.8,21.5,12.5,0.0
12/10/2014,16.8,20.3,13.4,22.9
13/10/2014,14.3,17.8,12.4,6.4
14/10/2014,14.3,18.8,10.1,0.0
15/10/2014,13.0,16.3,10.1,0.9
16/10/2014,18.2,24.5,14.3,0.0
17/10/2014,18.6,24.7,14.2,0.0
18/10/2014,19.5,26.4,13.3,0.0
19/10/2014,19.6,28.7,15.3,0.0
20/10/2014,18.3,26.7,13.8,0.0
21/10/2014,17.4,25.1,11.7,0.0
22/10/2014,14.0,17.4,10.8,0.0
23/10/2014,14.3,23.3,4.1,0.0
24/10/2014,17.7,26.7,9.3,0.0
25/10/2014,17.0,26.0,11.1,0.0
26/10/2014,15.8,25.8,10.0,0.0
27/10/2014,14.3,20.6,9.9,0.0
28/10/2014,13.9,20.3,10.7,0.0
29/10/2014,13.3,19.6,9.7,0.0
30/10/2014,13.7,20.3,9.7,0.0
31/10/2014,13.5,19.7,9.5,0.0
01/11/2014,12.0,16.5,9.3,0.0
02/11/2014,12.7,17.4,9.3,5.0
03/11/2014,13.4,17.6,10.7,13.2
04/11/2014,8.3,11.4,5.4,24.4
05/11/2014,7.0,10.0,5.3,2.2
06/11/2014,8.7,13.0,4.7,0.0
07/11/2014,9.7,12.7,5.1,0.9
08/11/2014,8.0,13.3,4.1,0.0
09/11/2014,9.4,13.1,4.9,0.5
10/11/2014,7.4,13.0,3.0,0.0
11/11/2014,8.4,9.8,7.3,4.1
12/11/2014,9.3,14.6,6.5,0.0
13/11/2014,11.4,15.6,6.3,0.0
14/11/2014,12.3,16.0,8.0,18.5
15/11/2014,9.1,14.0,7.5,3.2
16/11/2014,8.2,9.9,4.8,4.0
17/11/2014,7.3,11.5,5.3,5.6
18/11/2014,7.3,12.4,4.4,0.0
19/11/2014,8.6,14.3,5.1,0.0
20/11/2014,10.3,17.4,6.4,0.0
21/11/2014,9.9,17.8,5.7,0.0
22/11/2014,11.1,16.4,7.9,0.0
23/11/2014,17.4,21.0,10.7,0.0
24/11/2014,13.3,15.5,9.5,0.0
25/11/2014,12.3,15.0,11.0,14.7
26/11/2014,10.9,12.3,10.1,9.0
27/11/2014,11.8,15.1,8.0,0.7
28/11/2014,13.2,15.5,10.8,6.6
29/11/2014,11.5,13.9,10.7,16.5
30/11/2014,12.2,15.7,8.9,2.8
01/12/2014,10.5,14.2,5.9,0.2
02/12/2014,8.5,10.2,7.2,0.0
03/12/2014,5.8,12.1,1.7,0.0
04/12/2014,4.0,8.0,0.6,0.0
05/12/2014,5.9,9.3,2.0,0.0
06/12/2014,5.3,7.3,3.9,0.0
07/12/2014,6.1,9.1,3.5,0.0
08/12/2014,8.2,10.7,5.5,12.9
09/12/2014,5.4,8.0,3.7,0.4
10/12/2014,8.2,10.7,2.9,0.0
11/12/2014,8.8,11.3,3.1,0.4
12/12/2014,5.1,10.8,1.2,0.0
13/12/2014,8.6,13.0,5.4,0.1
14/12/2014,7.7,8.9,6.8,2.8
15/12/2014,7.9,11.2,5.7,0.8
16/12/2014,8.0,12.0,4.2,6.6
17/12/2014,9.9,12.4,8.6,0.2
18/12/2014,10.7,17.1,4.5,0.0
19/12/2014,6.5,9.1,4.7,0.0
20/12/2014,9.0,13.6,3.2,0.0
21/12/2014,6.2,11.7,2.6,0.0
22/12/2014,2.6,7.3,-0.9,0.0
23/12/2014,1.4,5.1,-1.6,0.0
24/12/2014,0.6,3.0,-1.9,0.0
25/12/2014,5.7,13.3,-0.7,0.0
26/12/2014,9.5,13.6,7.1,0.0
27/12/2014,8.5,10.8,6.6,19.8
28/12/2014,4.5,7.8,0.3,5.0
29/12/2014,3.3,9.3,-0.3,0.0
30/12/2014,2.6,8.9,-0.5,0.0
31/12/2014,5.5,14.4,-2.8,0.0
