Fecha, Temperatura media, Temperatura maxima, Temperatura minima, Precipitacion acumulada
01/01/2015,7.9,14.7,1.6,0.0
02/01/2015,2.9,9.1,-1.2,0.0
03/01/2015,6.3,14.1,0.2,0.0
04/01/2015,10.1,15.7,3.7,0.0
05/01/2015,4.0,11.3,-0.1,0.0
06/01/2015,4.2,12.0,0.3,0.0
07/01/2015,2.9,9.7,-0.3,0.0
08/01/2015,2.7,7.8,0.1,0.0
09/01/2015,5.2,10.0,0.9,0.0
10/01/2015,6.6,12.3,2.2,0.0
11/01/2015,8.0,14.0,1.0,0.0
12/01/2015,3.9,11.4,-1.5,0.0
13/01/2015,5.8,14.0,0.8,0.0
14/01/2015,7.3,13.0,3.5,0.0
15/01/2015,7.0,12.4,2.1,0.9
16/01/2015,5.4,9.1,1.2,11.5
17/01/2015,3.7,9.0,1.1,6.2
18/01/2015,2.8,5.8,0.2,0.5
19/01/2015,3.3,5.4,0.7,0.0
20/01/2015,1.8,6.2,-0.8,0.0
21/01/2015,2.3,5.0,0.4,2.1
22/01/2015,3.2,7.0,0.6,0.1
23/01/2015,4.0,6.8,2.5,0.0
24/01/2015,6.1,8.9,3.5,0.0
25/01/2015,4.8,8.8,2.6,0.0
26/01/2015,5.3,8.4,2.8,0.0
27/01/2015,7.3,10.0,5.7,0.0
28/01/2015,6.8,8.9,4.3,0.5
29/01/2015,7.2,10.1,4.0,6.5
30/01/2015,4.7,9.8,1.8,42.4
31/01/2015,2.4,5.5,0.3,26.7
01/02/2015,0.7,1.7,0.2,22.4
02/02/2015,1.9,3.6,0.1,0.4
03/02/2015,2.0,4.6,-0.4,5.5
04/02/2015,0.5,2.4,-0.6,0.0
05/02/2015,0.1,3.0,-1.3,0.0
06/02/2015,-1.2,1.2,-4.6,0.0
07/02/2015,-2.0,4.3,-6.5,0.0
08/02/2015,0.8,7.3,-4.8,0.0
09/02/2015,2.0,8.5,-2.7,0.0
10/02/2015,2.2,11.0,-3.0,0.0
11/02/2015,2.3,8.7,-2.4,2.7
12/02/2015,4.4,9.2,2.2,0.5
13/02/2015,5.4,11.2,0.5,0.0
14/02/2015,4.8,7.5,3.1,11.1
15/02/2015,6.0,11.2,3.0,2.2
16/02/2015,7.5,10.9,4.9,4.7
17/02/2015,7.2,10.3,5.6,0.1
18/02/2015,5.8,11.6,0.1,0.0
19/02/2015,4.5,12.9,-0.2,0.0
20/02/2015,5.4,12.3,0.1,2.2
21/02/2015,4.0,7.0,2.4,19.6
22/02/2015,5.8,9.7,2.5,0.5
23/02/2015,7.3,10.4,4.9,4.4
24/02/2015,3.2,5.6,1.1,24.5
25/02/2015,7.1,11.1,3.5,38.0
26/02/2015,10.4,12.7,9.2,1.1
27/02/2015,6.5,10.8,3.9,3.0
28/02/2015,7.0,11.4,2.2,0.4
01/03/2015,10.8,15.0,8.2,2.5
02/03/2015,11.8,15.9,9.1,0.0
03/03/2015,12.4,18.9,9.0,0.0
04/03/2015,7.3,10.0,3.9,0.6
05/03/2015,7.5,11.4,3.9,0.0
06/03/2015,7.8,18.9,0.5,0.0
07/03/2015,10.1,21.8,1.4,0.0
08/03/2015,10.5,20.4,3.4,0.0
09/03/2015,11.2,21.8,2.5,0.0
10/03/2015,11.1,20.6,3.2,0.0
11/03/2015,11.2,21.6,4.6,0.0
12/03/2015,11.0,22.0,3.8,0.0
13/03/2015,8.7,11.6,3.3,0.0
14/03/2015,4.2,7.9,0.9,2.2
15/03/2015,6.6,10.6,3.5,0.0
16/03/2015,6.8,12.3,1.9,0.0
17/03/2015,8.3,15.9,2.3,0.0
18/03/2015,8.4,12.7,4.5,0.0
19/03/2015,10.3,17.3,6.2,4.7
20/03/2015,8.1,15.1,4.7,1.9
21/03/2015,7.9,13.3,5.2,2.9
22/03/2015,6.8,9.0,3.1,14.5
23/03/2015,5.6,9.1,2.6,18.0
24/03/2015,7.1,11.8,4.2,4.0
25/03/2015,5.4,8.3,3.6,0.0
26/03/2015,8.6,12.7,4.2,0.0
27/03/2015,11.8,15.2,7.4,0.0
28/03/2015,13.0,17.2,8.5,0.0
29/03/2015,14.0,17.6,8.7,0.0
30/03/2015,14.4,16.5,12.8,0.0
31/03/2015,13.5,17.6,9.8,0.0
01/04/2015,10.5,14.0,6.5,0.0
02/04/2015,11.2,20.1,2.6,0.0
03/04/2015,11.7,20.8,4.3,0.0
04/04/2015,11.3,15.8,8.1,0.0
05/04/2015,11.8,17.7,4.6,0.0
06/04/2015,11.2,19.8,3.5,0.0
07/04/2015,11.7,19.0,3.3,0.0
08/04/2015,11.7,19.0,4.3,0.0
09/04/2015,12.0,18.2,5.8,0.2
10/04/2015,13.8,19.6,8.6,0.2
11/04/2015,13.2,20.5,7.2,0.0
12/04/2015,14.8,23.4,7.7,0.0
13/04/2015,15.8,24.4,8.1,0.0
14/04/2015,17.6,26.4,9.7,0.0
15/04/2015,14.8,19.2,8.4,0.1
16/04/2015,12.6,16.5,9.2,1.9
17/04/2015,13.7,19.6,9.3,0.0
18/04/2015,13.5,20.2,8.4,9.2
19/04/2015,11.7,16.2,6.2,0.0
20/04/2015,12.1,20.9,3.2,0.0
21/04/2015,15.5,23.3,8.1,0.0
22/04/2015,14.8,19.7,9.5,0.0
23/04/2015,14.3,21.1,6.3,0.0
24/04/2015,14.9,23.1,7.5,2.4
25/04/2015,16.3,21.3,11.6,0.0
26/04/2015,12.8,15.5,9.5,14.9
27/04/2015,11.5,15.4,8.2,10.4
28/04/2015,11.1,16.7,6.1,0.0
29/04/2015,12.3,18.9,6.3,0.0
30/04/2015,14.5,21.5,6.8,0.0
01/05/2015,15.4,19.1,12.4,1.8
02/05/2015,17.1,22.4,12.1,0.8
03/05/2015,16.9,20.5,15.1,1.9
04/05/2015,20.1,25.2,15.0,1.1
05/05/2015,17.6,22.3,11.2,0.0
06/05/2015,13.9,20.8,7.3,0.0
07/05/2015,17.6,26.5,8.3,0.0
08/05/2015,18.5,22.9,12.2,0.2
09/05/2015,16.9,24.3,9.9,0.0
10/05/2015,20.2,30.0,11.3,0.0
11/05/2015,22.6,31.9,15.2,0.0
12/05/2015,22.9,32.3,14.3,0.0
13/05/2015,23.5,31.9,18.7,0.0
14/05/2015,17.1,24.6,10.2,0.0
15/05/2015,11.2,14.4,8.4,0.6
16/05/2015,14.6,18.4,11.1,0.0
17/05/2015,16.0,22.8,9.2,0.0
18/05/2015,16.1,27.2,6.3,0.0
19/05/2015,12.2,15.9,9.6,0.2
20/05/2015,11.0,14.8,8.6,0.2
21/05/2015,11.6,15.6,8.0,0.0
22/05/2015,13.1,17.3,9.1,0.0
23/05/2015,14.0,18.4,11.0,0.0
24/05/2015,16.3,22.1,8.6,0.0
25/05/2015,16.1,19.5,12.8,0.0
26/05/2015,14.4,18.0,10.3,0.0
27/05/2015,17.6,24.4,9.4,0.0
28/05/2015,17.1,27.3,6.6,0.0
29/05/2015,16.0,24.6,9.9,0.0
30/05/2015,16.2,25.2,6.9,0.0
31/05/2015,18.5,27.8,8.2,0.0
01/06/2015,19.8,28.9,11.6,0.0
02/06/2015,22.0,30.8,12.7,0.0
03/06/2015,22.7,31.8,14.7,0.0
04/06/2015,24.1,31.6,16.4,0.0
05/06/2015,23.7,31.5,16.4,0.0
06/06/2015,21.4,31.9,12.3,0.0
07/06/2015,22.2,31.9,11.9,0.0
08/06/2015,20.9,30.8,15.8,7.1
09/06/2015,19.5,26.9,14.7,0.1
10/06/2015,16.4,21.5,13.6,18.2
11/06/2015,16.6,20.5,14.5,19.3
12/06/2015,18.5,25.7,13.2,0.6
13/06/2015,15.6,20.1,13.4,9.0
14/06/2015,16.6,22.5,10.9,0.0
15/06/2015,16.6,23.2,9.3,0.0
16/06/2015,15.8,18.2,14.3,0.0
17/06/2015,18.1,22.7,13.7,0.0
18/06/2015,18.9,26.0,10.1,0.0
19/06/2015,19.0,23.4,14.3,0.0
20/06/2015,20.0,27.9,10.9,0.0
21/06/2015,21.0,30.4,13.0,0.0
22/06/2015,23.5,33.0,15.6,0.0
23/06/2015,21.0,26.9,14.3,0.0
24/06/2015,19.3,28.4,10.7,0.0
25/06/2015,22.5,31.0,11.7,0.0
26/06/2015,24.4,34.0,15.9,0.0
27/06/2015,23.6,32.3,14.8,0.0
28/06/2015,24.4,34.2,15.4,0.0
29/06/2015,25.9,36.3,14.2,0.0
30/06/2015,29.2,37.0,19.6,0.0
01/07/2015,30.7,35.7,25.2,0.0
02/07/2015,28.1,32.7,19.7,0.0
03/07/2015,28.7,34.2,18.9,0.0
04/07/2015,29.7,36.2,21.8,0.0
05/07/2015,25.5,35.7,16.8,0.0
06/07/2015,27.2,38.3,15.2,0.0
07/07/2015,27.4,37.3,18.6,0.0
08/07/2015,21.0,25.3,15.9,0.0
09/07/2015,20.7,29.6,11.4,0.0
10/07/2015,25.1,37.1,13.7,0.0
11/07/2015,22.8,29.8,16.5,0.0
12/07/2015,22.2,30.8,14.2,0.0
13/07/2015,22.7,33.3,12.2,0.0
14/07/2015,24.0,35.3,12.2,0.0
15/07/2015,26.2,36.6,14.8,0.0
16/07/2015,27.9,37.4,19.2,0.0
17/07/2015,26.4,36.6,20.1,0.4
18/07/2015,25.0,33.6,19.2,2.1
19/07/2015,25.1,33.1,16.6,0.0
20/07/2015,26.6,35.2,17.8,0.0
21/07/2015,25.2,34.9,18.3,14.4
22/07/2015,22.6,28.7,17.3,0.1
23/07/2015,24.5,33.2,15.6,0.0
24/07/2015,23.9,31.5,18.5,0.0
25/07/2015,19.4,23.6,13.0,0.0
26/07/2015,21.4,32.4,9.9,0.0
27/07/2015,21.2,26.8,16.5,0.0
28/07/2015,22.1,30.6,12.6,0.0
29/07/2015,22.0,29.5,14.1,0.0
30/07/2015,16.6,20.8,13.0,10.2
31/07/2015,17.0,20.3,15.0,19.6
01/08/2015,18.5,24.1,13.4,0.0
02/08/2015,23.1,32.8,14.1,0.0
03/08/2015,25.5,34.3,20.0,9.4
04/08/2015,22.8,30.3,17.8,0.0
05/08/2015,25.8,34.5,17.1,0.0
06/08/2015,25.9,36.4,15.4,0.0
07/08/2015,24.1,31.5,17.3,4.1
08/08/2015,17.1,20.7,15.0,7.0
09/08/2015,18.1,22.9,14.1,0.0
10/08/2015,21.1,30.1,12.9,0.0
11/08/2015,25.0,34.8,16.9,7.0
12/08/2015,25.7,34.2,18.0,5.5
13/08/2015,21.3,25.7,17.2,15.8
14/08/2015,17.8,21.7,16.1,0.0
15/08/2015,17.6,21.8,12.7,0.0
16/08/2015,18.3,27.2,9.3,0.0
17/08/2015,19.9,25.1,15.6,0.0
18/08/2015,18.7,24.4,12.2,0.0
19/08/2015,18.3,27.6,8.9,0.0
20/08/2015,21.8,31.7,12.8,0.0
21/08/2015,24.7,34.3,16.3,0.0
22/08/2015,24.8,30.2,18.7,8.6
23/08/2015,21.2,26.7,17.3,0.8
24/08/2015,19.1,23.1,11.5,0.0
25/08/2015,19.2,28.6,10.9,0.0
26/08/2015,24.4,31.9,16.3,0.0
27/08/2015,25.8,33.0,19.7,0.0
28/08/2015,26.0,34.3,18.8,0.0
29/08/2015,28.0,34.5,21.0,0.0
30/08/2015,26.7,33.5,19.8,1.8
31/08/2015,22.0,32.1,16.9,3.6
01/09/2015,18.6,24.0,13.7,0.1
02/09/2015,18.0,25.2,11.8,7.6
03/09/2015,17.6,22.3,12.5,0.1
04/09/2015,15.1,21.6,9.8,3.3
05/09/2015,16.3,21.2,10.8,0.0
06/09/2015,15.3,24.0,7.8,0.0
07/09/2015,15.9,24.3,9.3,0.0
08/09/2015,16.3,25.3,8.4,0.0
09/09/2015,19.3,28.0,11.6,0.0
10/09/2015,19.3,25.6,15.9,1.1
11/09/2015,20.7,27.3,15.1,0.0
12/09/2015,21.4,25.2,17.6,3.4
13/09/2015,19.5,22.3,15.0,0.0
14/09/2015,17.0,21.4,13.1,0.0
15/09/2015,16.6,20.2,14.5,4.0
16/09/2015,19.0,25.0,14.6,4.6
17/09/2015,14.3,18.2,9.0,0.3
18/09/2015,14.2,21.4,6.2,0.0
19/09/2015,14.9,22.4,8.2,0.0
20/09/2015,15.2,24.6,8.3,0.0
21/09/2015,16.4,26.3,7.7,0.0
22/09/2015,15.1,20.2,10.1,0.0
23/09/2015,14.1,18.2,11.2,1.5
24/09/2015,16.3,25.4,7.6,0.0
25/09/2015,18.0,28.1,7.6,0.0
26/09/2015,17.1,26.9,10.0,0.0
27/09/2015,15.6,24.2,9.8,0.0
28/09/2015,16.0,24.0,9.2,0.0
29/09/2015,16.0,23.4,10.7,1.9
30/09/2015,16.6,23.9,10.8,0.0
01/10/2015,16.0,23.7,9.7,0.0
02/10/2015,13.2,17.5,10.3,23.0
03/10/2015,13.7,20.4,9.2,0.0
04/10/2015,13.1,16.3,9.1,1.4
05/10/2015,18.6,21.6,16.1,2.6
06/10/2015,17.5,22.9,13.9,0.1
07/10/2015,14.1,17.8,9.3,0.0
08/10/2015,12.4,20.5,7.5,0.0
09/10/2015,12.8,21.9,7.0,0.0
10/10/2015,13.9,23.3,7.1,0.0
11/10/2015,15.3,19.7,11.1,0.2
12/10/2015,15.9,22.4,11.8,6.2
13/10/2015,13.2,16.5,11.4,1.2
14/10/2015,10.5,14.5,6.9,0.0
15/10/2015,8.2,16.7,2.1,0.0
16/10/2015,8.6,16.5,2.4,0.0
17/10/2015,12.1,20.7,4.8,3.0
18/10/2015,15.1,19.4,12.8,0.2
19/10/2015,15.1,18.4,13.3,3.3
20/10/2015,13.6,16.3,11.0,0.0
21/10/2015,11.3,14.3,9.7,0.0
22/10/2015,12.6,15.7,8.3,0.0
23/10/2015,12.7,21.7,6.3,0.0
24/10/2015,14.9,21.1,11.5,0.0
25/10/2015,15.0,20.6,11.1,0.0
26/10/2015,15.3,21.2,9.7,0.0
27/10/2015,14.9,19.6,9.2,8.7
28/10/2015,10.9,14.3,8.7,2.7
29/10/2015,12.9,18.9,9.6,0.0
30/10/2015,14.7,22.8,9.3,0.0
31/10/2015,14.5,21.2,9.6,0.0
01/11/2015,13.0,20.2,8.7,0.0
02/11/2015,13.9,17.6,11.2,11.6
03/11/2015,11.8,13.6,10.5,8.2
04/11/2015,13.4,18.2,9.2,0.2
05/11/2015,14.1,19.0,10.8,0.0
06/11/2015,14.2,21.3,9.9,0.0
07/11/2015,14.5,22.0,10.1,0.0
08/11/2015,14.2,23.7,9.1,0.0
09/11/2015,12.8,19.6,8.3,0.0
10/11/2015,12.3,16.6,10.2,0.0
11/11/2015,10.4,15.6,6.5,0.0
12/11/2015,9.1,10.9,6.5,0.1
13/11/2015,11.4,17.8,7.1,0.0
14/11/2015,10.5,17.3,6.1,0.0
15/11/2015,8.3,11.8,6.6,0.0
16/11/2015,6.7,10.9,4.3,0.0
17/11/2015,7.7,13.3,2.4,0.0
18/11/2015,12.1,19.0,6.5,0.0
19/11/2015,14.1,20.0,8.6,0.0
20/11/2015,10.7,15.6,6.6,0.0
21/11/2015,7.8,14.5,3.0,27.6
22/11/2015,3.9,5.7,2.0,5.5
23/11/2015,3.9,8.0,1.1,0.0
24/11/2015,5.8,9.7,1.2,1.3
25/11/2015,10.2,13.3,6.6,14.7
26/11/2015,10.8,12.4,9.2,0.6
27/11/2015,10.2,12.5,7.6,0.0
28/11/2015,9.2,11.7,5.5,0.1
29/11/2015,8.2,14.3,3.3,0.0
30/11/2015,5.2,12.6,1.5,0.0
01/12/2015,3.9,11.1,-0.2,0.0
02/12/2015,4.8,12.0,0.3,0.0
03/12/2015,5.7,13.6,1.4,0.0
04/12/2015,7.5,14.0,1.2,0.0
05/12/2015,9.4,15.8,6.1,0.0
06/12/2015,6.9,12.6,3.7,0.0
07/12/2015,7.1,14.4,3.1,0.0
08/12/2015,9.2,11.8,6.7,0.0
09/12/2015,7.7,14.4,3.6,0.0
10/12/2015,5.5,9.8,2.2,0.0
11/12/2015,4.5,9.2,1.7,0.0
12/12/2015,4.0,9.2,1.0,0.0
13/12/2015,4.5,8.9,2.0,0.0
14/12/2015,4.7,7.5,1.8,0.0
15/12/2015,7.5,12.2,5.2,0.8
16/12/2015,7.3,13.0,4.1,0.0
17/12/2015,8.0,13.7,4.0,0.0
18/12/2015,8.6,14.6,4.4,0.0
19/12/2015,8.8,15.3,4.8,0.0
20/12/2015,8.6,15.5,6.2,0.0
21/12/2015,8.0,12.5,4.2,0.0
22/12/2015,6.4,13.7,2.2,0.0
23/12/2015,4.0,6.5,1.0,0.0
24/12/2015,5.2,9.7,2.1,0.0
25/12/2015,4.2,8.9,1.1,0.0
26/12/2015,3.5,7.9,-0.1,0.0
27/12/2015,6.2,13.6,0.3,0.0
28/12/2015,12.5,14.9,9.9,0.0
29/12/2015,9.7,13.3,6.4,0.8
30/12/2015,6.8,13.1,3.1,0.0
31/12/2015,7.4,11.0,5.1,0.6
