Comarca,Fecha, Temperatura media, Temperatura maxima, Temperatura minima, Precipitacion acumulada,Localidad
Pamplona,01/01/2013,6.3,9.3,4.6,6.6,Arazuri
Pamplona,02/01/2013,6.9,8.2,5.5,4.3,Arazuri
Pamplona,03/01/2013,6.7,13.1,-0.1,0.0,Arazuri
Pamplona,04/01/2013,6.3,17.4,-1.8,0.2,Arazuri
Pamplona,05/01/2013,12.1,17.5,9.0,0.0,Arazuri
Pamplona,06/01/2013,8.4,15.2,3.8,0.0,Arazuri
Pamplona,07/01/2013,4.1,12.8,-0.7,0.0,Arazuri
Pamplona,08/01/2013,2.6,13.9,-2.6,0.0,Arazuri
Pamplona,09/01/2013,0.7,3.4,-3.1,2.3,Arazuri
Pamplona,10/01/2013,7.3,13.0,3.2,2.1,Arazuri
Pamplona,11/01/2013,5.5,12.0,-0.1,0.0,Arazuri
Pamplona,12/01/2013,3.6,9.8,-0.9,1.9,Arazuri
Pamplona,13/01/2013,4.4,6.7,2.6,2.9,Arazuri
Pamplona,14/01/2013,2.3,3.3,0.1,32.3,Arazuri
Pamplona,15/01/2013,3.3,6.3,-0.1,57.5,Arazuri
Pamplona,16/01/2013,6.7,9.6,4.9,15.6,Arazuri
Pamplona,17/01/2013,4.7,9.2,2.5,3.5,Arazuri
Pamplona,18/01/2013,5.3,9.7,2.3,19.5,Arazuri
Pamplona,19/01/2013,9.2,12.7,4.8,18.3,Arazuri
Pamplona,20/01/2013,5.6,7.3,3.6,13.8,Arazuri
Pamplona,21/01/2013,4.5,7.6,-1.3,2.7,Arazuri
Pamplona,22/01/2013,2.0,5.9,-1.5,1.4,Arazuri
Pamplona,23/01/2013,3.0,5.8,-0.5,14.4,Arazuri
Pamplona,24/01/2013,3.0,6.5,0.0,36.8,Arazuri
Pamplona,25/01/2013,3.8,8.8,-0.7,3.9,Arazuri
Pamplona,26/01/2013,6.6,10.4,0.9,11.5,Arazuri
Pamplona,27/01/2013,4.3,7.2,1.2,9.5,Arazuri
Pamplona,28/01/2013,6.6,13.2,0.6,1.9,Arazuri
Pamplona,29/01/2013,4.1,11.7,-0.5,0.2,Arazuri
Pamplona,30/01/2013,6.6,12.7,1.5,0.0,Arazuri
Pamplona,31/01/2013,8.3,15.1,2.9,0.2,Arazuri
Pamplona,01/02/2013,8.9,14.6,3.6,6.0,Arazuri
Pamplona,02/02/2013,4.9,8.4,2.5,28.6,Arazuri
Pamplona,03/02/2013,4.3,7.0,1.1,0.2,Arazuri
Pamplona,04/02/2013,7.9,11.8,4.9,0.6,Arazuri
Pamplona,05/02/2013,8.8,13.5,2.2,5.8,Arazuri
Pamplona,06/02/2013,3.9,6.7,2.0,27.1,Arazuri
Pamplona,07/02/2013,2.3,3.8,0.5,22.6,Arazuri
Pamplona,08/02/2013,2.1,3.6,0.4,38.2,Arazuri
Pamplona,09/02/2013,3.7,6.5,0.7,10.3,Arazuri
Pamplona,10/02/2013,4.0,8.3,1.3,7.4,Arazuri
Pamplona,11/02/2013,3.4,6.7,0.5,11.9,Arazuri
Pamplona,12/02/2013,3.4,6.0,0.7,13.0,Arazuri
Pamplona,13/02/2013,6.4,8.8,3.8,6.6,Arazuri
Pamplona,14/02/2013,8.9,10.3,7.4,0.0,Arazuri
Pamplona,15/02/2013,7.4,11.0,1.7,0.2,Arazuri
Pamplona,16/02/2013,4.5,12.2,-1.5,0.2,Arazuri
Pamplona,17/02/2013,4.3,10.1,-1.6,0.2,Arazuri
Pamplona,18/02/2013,7.2,12.1,4.0,2.9,Arazuri
Pamplona,19/02/2013,8.7,12.7,4.6,0.0,Arazuri
Pamplona,20/02/2013,9.0,15.1,2.7,0.0,Arazuri
Pamplona,21/02/2013,9.1,14.2,4.3,0.0,Arazuri
Pamplona,22/02/2013,5.4,9.3,0.2,0.0,Arazuri
Pamplona,23/02/2013,-1.0,0.7,-3.0,0.0,Arazuri
Pamplona,24/02/2013,0.3,2.5,-0.8,3.1,Arazuri
Pamplona,25/02/2013,0.3,2.1,-1.3,1.9,Arazuri
Pamplona,26/02/2013,1.0,3.5,-0.4,6.8,Arazuri
Pamplona,27/02/2013,2.1,9.3,-2.8,0.0,Arazuri
Pamplona,28/02/2013,3.4,8.6,-1.9,0.0,Arazuri
Pamplona,01/03/2013,6.6,10.3,4.6,0.0,Arazuri
Pamplona,02/03/2013,6.3,13.9,0.1,0.0,Arazuri
Pamplona,03/03/2013,6.3,15.6,-2.3,0.2,Arazuri
Pamplona,04/03/2013,10.5,13.2,5.0,0.0,Arazuri
Pamplona,05/03/2013,11.3,12.7,10.0,2.1,Arazuri
Pamplona,06/03/2013,12.8,18.4,8.6,4.7,Arazuri
Pamplona,07/03/2013,12.7,16.7,8.2,5.8,Arazuri
Pamplona,08/03/2013,11.3,16.2,5.9,9.5,Arazuri
Pamplona,09/03/2013,8.9,14.7,3.1,0.2,Arazuri
Pamplona,10/03/2013,9.7,13.7,6.4,0.0,Arazuri
Pamplona,11/03/2013,9.0,14.4,6.3,5.6,Arazuri
Pamplona,12/03/2013,6.3,11.2,1.0,11.3,Arazuri
Pamplona,13/03/2013,1.1,2.2,-0.9,3.7,Arazuri
Pamplona,14/03/2013,1.9,3.3,0.2,16.0,Arazuri
Pamplona,15/03/2013,4.1,9.2,-0.4,0.2,Arazuri
Pamplona,16/03/2013,5.2,9.3,-0.3,0.4,Arazuri
Pamplona,17/03/2013,6.5,8.2,2.7,5.6,Arazuri
Pamplona,18/03/2013,4.6,10.9,-1.4,0.2,Arazuri
Pamplona,19/03/2013,6.0,12.6,-1.4,2.7,Arazuri
Pamplona,20/03/2013,7.5,12.8,1.2,0.0,Arazuri
Pamplona,21/03/2013,7.6,16.0,-1.4,0.0,Arazuri
Pamplona,22/03/2013,11.4,18.4,4.1,2.7,Arazuri
Pamplona,23/03/2013,7.9,16.7,1.0,0.2,Arazuri
Pamplona,24/03/2013,9.4,17.0,2.5,0.0,Arazuri
Pamplona,25/03/2013,8.6,12.1,5.8,19.7,Arazuri
Pamplona,26/03/2013,10.6,15.0,6.9,3.5,Arazuri
Pamplona,27/03/2013,10.9,14.7,8.9,21.2,Arazuri
Pamplona,28/03/2013,11.1,14.4,8.8,3.7,Arazuri
Pamplona,29/03/2013,12.9,17.5,11.0,24.9,Arazuri
Pamplona,30/03/2013,10.1,13.0,4.8,7.0,Arazuri
Pamplona,31/03/2013,10.5,17.1,3.7,0.0,Arazuri
Pamplona,01/04/2013,10.7,13.7,8.1,3.1,Arazuri
Pamplona,02/04/2013,9.0,14.7,4.8,1.2,Arazuri
Pamplona,03/04/2013,9.2,16.9,1.1,6.2,Arazuri
Pamplona,04/04/2013,7.7,11.0,4.2,2.9,Arazuri
Pamplona,05/04/2013,4.0,8.0,1.8,4.5,Arazuri
Pamplona,06/04/2013,3.7,7.8,-0.1,14.2,Arazuri
Pamplona,07/04/2013,8.4,12.4,4.4,0.0,Arazuri
Pamplona,08/04/2013,10.5,14.6,7.2,0.4,Arazuri
Pamplona,09/04/2013,9.5,11.6,5.0,3.5,Arazuri
Pamplona,10/04/2013,11.5,19.2,2.7,0.0,Arazuri
Pamplona,11/04/2013,13.4,18.5,9.0,2.1,Arazuri
Pamplona,12/04/2013,11.8,16.7,6.4,0.0,Arazuri
Pamplona,13/04/2013,12.9,22.0,3.8,0.0,Arazuri
Pamplona,14/04/2013,16.8,25.3,6.0,0.0,Arazuri
Pamplona,15/04/2013,15.6,23.2,7.0,0.4,Arazuri
Pamplona,16/04/2013,16.8,25.9,8.2,0.0,Arazuri
Pamplona,17/04/2013,17.5,27.4,8.0,0.0,Arazuri
Pamplona,18/04/2013,11.9,16.2,9.1,0.6,Arazuri
Pamplona,19/04/2013,9.0,12.6,6.1,0.0,Arazuri
Pamplona,20/04/2013,8.9,13.4,4.4,0.0,Arazuri
Pamplona,21/04/2013,9.5,14.8,4.1,0.0,Arazuri
Pamplona,22/04/2013,9.4,12.3,6.2,0.0,Arazuri
Pamplona,23/04/2013,11.5,18.1,5.9,0.0,Arazuri
Pamplona,24/04/2013,12.1,21.2,2.6,0.0,Arazuri
Pamplona,25/04/2013,14.0,23.0,4.2,0.0,Arazuri
Pamplona,26/04/2013,11.4,13.4,7.3,5.1,Arazuri
Pamplona,27/04/2013,5.6,8.9,2.3,4.5,Arazuri
Pamplona,28/04/2013,5.8,9.0,2.0,1.9,Arazuri
Pamplona,29/04/2013,7.8,10.7,5.9,7.0,Arazuri
Pamplona,30/04/2013,9.3,13.7,7.0,4.9,Arazuri
Pamplona,01/05/2013,10.1,15.7,6.5,1.9,Arazuri
Pamplona,02/05/2013,9.2,11.8,7.1,3.3,Arazuri
Pamplona,03/05/2013,9.8,12.8,7.6,0.2,Arazuri
Pamplona,04/05/2013,12.9,18.5,7.8,0.0,Arazuri
Pamplona,05/05/2013,14.2,20.8,7.0,0.0,Arazuri
Pamplona,06/05/2013,13.6,24.7,3.6,5.3,Arazuri
Pamplona,07/05/2013,17.0,26.8,12.4,3.3,Arazuri
Pamplona,08/05/2013,15.9,19.2,12.5,0.6,Arazuri
Pamplona,09/05/2013,12.2,17.0,9.2,8.6,Arazuri
Pamplona,10/05/2013,10.9,14.9,7.4,0.2,Arazuri
Pamplona,11/05/2013,10.6,15.0,6.4,0.0,Arazuri
Pamplona,12/05/2013,10.1,12.7,7.4,0.0,Arazuri
Pamplona,13/05/2013,12.7,20.6,4.8,0.0,Arazuri
Pamplona,14/05/2013,13.1,22.2,4.6,7.0,Arazuri
Pamplona,15/05/2013,8.6,10.3,5.0,2.7,Arazuri
Pamplona,16/05/2013,8.0,13.1,3.0,1.2,Arazuri
Pamplona,17/05/2013,8.5,14.1,4.1,17.1,Arazuri
Pamplona,18/05/2013,7.4,11.2,3.3,12.7,Arazuri
Pamplona,19/05/2013,9.2,13.1,4.7,0.4,Arazuri
Pamplona,20/05/2013,8.7,14.7,2.4,0.0,Arazuri
Pamplona,21/05/2013,7.3,11.4,0.9,0.6,Arazuri
Pamplona,22/05/2013,11.7,15.0,9.7,0.4,Arazuri
Pamplona,23/05/2013,10.0,11.7,8.2,1.0,Arazuri
Pamplona,24/05/2013,9.1,12.9,5.9,4.3,Arazuri
Pamplona,25/05/2013,9.2,14.3,3.1,1.6,Arazuri
Pamplona,26/05/2013,10.7,20.6,0.1,0.0,Arazuri
Pamplona,27/05/2013,12.7,19.8,8.9,17.3,Arazuri
Pamplona,28/05/2013,9.8,13.9,6.9,8.4,Arazuri
Pamplona,29/05/2013,8.6,13.0,5.7,3.9,Arazuri
Pamplona,30/05/2013,10.1,11.9,7.3,4.1,Arazuri
Pamplona,31/05/2013,11.2,13.3,9.6,5.8,Arazuri
Pamplona,01/06/2013,11.2,12.7,9.9,0.2,Arazuri
Pamplona,02/06/2013,11.7,14.5,9.6,0.0,Arazuri
Pamplona,03/06/2013,13.3,18.2,9.2,0.0,Arazuri
Pamplona,04/06/2013,14.9,23.4,5.2,0.2,Arazuri
Pamplona,05/06/2013,16.9,27.4,6.1,0.0,Arazuri
Pamplona,06/06/2013,18.2,27.1,9.2,0.0,Arazuri
Pamplona,07/06/2013,16.2,24.5,9.1,35.1,Arazuri
Pamplona,08/06/2013,12.1,13.3,10.9,39.3,Arazuri
Pamplona,09/06/2013,13.8,18.0,11.5,24.7,Arazuri
Pamplona,10/06/2013,16.6,22.4,13.1,0.0,Arazuri
Pamplona,11/06/2013,18.9,24.9,13.3,0.0,Arazuri
Pamplona,12/06/2013,21.6,30.5,11.4,0.0,Arazuri
Pamplona,13/06/2013,16.8,19.1,14.8,0.0,Arazuri
Pamplona,14/06/2013,18.6,28.7,10.5,0.0,Arazuri
Pamplona,15/06/2013,17.3,23.9,12.6,0.0,Arazuri
Pamplona,16/06/2013,21.9,32.5,10.3,0.0,Arazuri
Pamplona,17/06/2013,18.0,27.2,12.9,0.0,Arazuri
Pamplona,18/06/2013,13.3,15.8,10.5,11.7,Arazuri
Pamplona,19/06/2013,12.5,15.1,10.5,6.8,Arazuri
Pamplona,20/06/2013,13.7,18.3,11.0,1.2,Arazuri
Pamplona,21/06/2013,13.7,18.7,10.3,13.8,Arazuri
Pamplona,22/06/2013,16.2,24.3,6.4,0.0,Arazuri
Pamplona,23/06/2013,14.0,16.7,11.2,0.0,Arazuri
Pamplona,24/06/2013,13.5,18.4,10.4,0.0,Arazuri
Pamplona,25/06/2013,14.7,19.5,10.8,0.0,Arazuri
Pamplona,26/06/2013,16.5,21.3,12.6,0.0,Arazuri
Pamplona,27/06/2013,16.3,21.0,12.2,0.0,Arazuri
Pamplona,28/06/2013,16.2,21.7,12.0,0.0,Arazuri
Pamplona,29/06/2013,16.5,21.9,10.2,0.0,Arazuri
Pamplona,30/06/2013,18.7,24.9,13.6,0.0,Arazuri
Pamplona,01/07/2013,19.5,28.2,12.0,0.0,Arazuri
Pamplona,02/07/2013,20.9,30.7,12.8,0.0,Arazuri
Pamplona,03/07/2013,19.5,23.6,17.4,0.0,Arazuri
Pamplona,04/07/2013,20.2,24.7,16.9,0.0,Arazuri
Pamplona,05/07/2013,22.4,30.8,14.9,0.0,Arazuri
Pamplona,06/07/2013,23.0,31.9,14.0,0.0,Arazuri
Pamplona,07/07/2013,22.7,30.0,13.3,0.0,Arazuri
Pamplona,08/07/2013,23.9,32.8,13.9,0.0,Arazuri
Pamplona,09/07/2013,24.9,33.7,15.7,0.0,Arazuri
Pamplona,10/07/2013,24.6,32.5,16.7,0.0,Arazuri
Pamplona,11/07/2013,24.4,30.9,15.8,0.0,Arazuri
Pamplona,12/07/2013,24.5,33.7,16.7,1.6,Arazuri
Pamplona,13/07/2013,23.4,31.8,16.3,0.0,Arazuri
Pamplona,14/07/2013,22.6,29.6,15.6,0.0,Arazuri
Pamplona,15/07/2013,22.1,30.5,13.8,0.0,Arazuri
Pamplona,16/07/2013,22.4,28.3,18.4,0.0,Arazuri
Pamplona,17/07/2013,22.2,28.4,16.0,0.0,Arazuri
Pamplona,18/07/2013,22.1,28.7,15.8,0.0,Arazuri
Pamplona,19/07/2013,23.1,32.1,13.8,0.0,Arazuri
Pamplona,20/07/2013,25.0,32.4,16.2,0.0,Arazuri
Pamplona,21/07/2013,24.9,32.5,17.8,0.0,Arazuri
Pamplona,22/07/2013,24.4,32.7,14.0,0.0,Arazuri
Pamplona,23/07/2013,23.0,32.3,17.6,0.0,Arazuri
Pamplona,24/07/2013,24.8,32.7,16.4,0.0,Arazuri
Pamplona,25/07/2013,26.3,35.7,18.4,0.0,Arazuri
Pamplona,26/07/2013,25.9,34.6,17.2,0.2,Arazuri
Pamplona,27/07/2013,22.8,29.4,15.9,0.0,Arazuri
Pamplona,28/07/2013,21.3,28.4,15.8,0.0,Arazuri
Pamplona,29/07/2013,19.8,27.2,11.9,0.0,Arazuri
Pamplona,30/07/2013,22.4,32.3,12.9,0.4,Arazuri
Pamplona,31/07/2013,24.6,35.4,13.3,0.0,Arazuri
Pamplona,01/08/2013,26.9,36.0,15.6,0.0,Arazuri
Pamplona,02/08/2013,25.9,34.9,19.2,0.0,Arazuri
Pamplona,03/08/2013,21.9,27.8,17.7,0.0,Arazuri
Pamplona,04/08/2013,23.7,32.9,17.7,0.0,Arazuri
Pamplona,05/08/2013,20.9,26.2,15.4,0.0,Arazuri
Pamplona,06/08/2013,20.7,27.8,17.7,0.0,Arazuri
Pamplona,07/08/2013,18.3,24.5,14.0,0.0,Arazuri
Pamplona,08/08/2013,17.3,22.6,12.6,0.0,Arazuri
Pamplona,09/08/2013,18.8,24.9,13.3,0.0,Arazuri
Pamplona,10/08/2013,20.3,25.7,15.6,0.0,Arazuri
Pamplona,11/08/2013,23.1,32.4,13.1,0.0,Arazuri
Pamplona,12/08/2013,21.4,30.2,15.3,0.0,Arazuri
Pamplona,13/08/2013,20.4,25.3,16.9,0.0,Arazuri
Pamplona,14/08/2013,20.1,26.4,15.2,0.0,Arazuri
Pamplona,15/08/2013,22.0,32.0,11.8,0.0,Arazuri
Pamplona,16/08/2013,21.1,27.7,15.1,0.0,Arazuri
Pamplona,17/08/2013,22.0,29.3,16.7,0.0,Arazuri
Pamplona,18/08/2013,22.4,32.2,13.3,0.0,Arazuri
Pamplona,19/08/2013,19.7,23.1,16.5,0.0,Arazuri
Pamplona,20/08/2013,20.8,27.0,15.5,0.0,Arazuri
Pamplona,21/08/2013,21.4,33.1,10.5,0.4,Arazuri
Pamplona,22/08/2013,21.2,32.6,13.5,0.2,Arazuri
Pamplona,23/08/2013,21.3,28.3,18.2,0.0,Arazuri
Pamplona,24/08/2013,18.6,22.2,15.5,0.0,Arazuri
Pamplona,25/08/2013,17.8,23.5,13.8,0.2,Arazuri
Pamplona,26/08/2013,16.9,21.9,10.8,0.4,Arazuri
Pamplona,27/08/2013,18.3,23.4,13.1,0.0,Arazuri
Pamplona,28/08/2013,19.0,24.4,15.5,0.0,Arazuri
Pamplona,29/08/2013,18.9,24.4,14.6,0.0,Arazuri
Pamplona,30/08/2013,19.2,24.6,15.2,0.0,Arazuri
Pamplona,31/08/2013,18.8,23.7,15.3,0.0,Arazuri
Pamplona,01/09/2013,19.7,24.4,16.2,0.0,Arazuri
Pamplona,02/09/2013,20.4,26.1,12.9,0.0,Arazuri
Pamplona,03/09/2013,19.7,30.8,8.9,0.0,Arazuri
Pamplona,04/09/2013,21.4,30.7,10.3,0.0,Arazuri
Pamplona,05/09/2013,21.2,29.7,11.6,2.9,Arazuri
Pamplona,06/09/2013,19.4,26.8,15.8,2.7,Arazuri
Pamplona,07/09/2013,16.3,21.3,13.9,5.6,Arazuri
Pamplona,08/09/2013,15.1,19.4,10.4,3.7,Arazuri
Pamplona,09/09/2013,15.4,23.5,7.3,0.0,Arazuri
Pamplona,10/09/2013,16.6,20.7,13.3,0.0,Arazuri
Pamplona,11/09/2013,14.6,19.8,11.4,0.0,Arazuri
Pamplona,12/09/2013,15.0,20.2,10.2,0.0,Arazuri
Pamplona,13/09/2013,18.2,23.5,13.0,0.0,Arazuri
Pamplona,14/09/2013,17.5,25.9,9.7,0.8,Arazuri
Pamplona,15/09/2013,15.5,19.1,10.1,0.0,Arazuri
Pamplona,16/09/2013,14.6,23.4,5.9,0.0,Arazuri
Pamplona,17/09/2013,15.0,17.7,12.9,0.8,Arazuri
Pamplona,18/09/2013,17.0,21.7,13.0,0.2,Arazuri
Pamplona,19/09/2013,16.7,19.2,15.0,0.6,Arazuri
Pamplona,20/09/2013,18.2,23.0,14.5,0.0,Arazuri
Pamplona,21/09/2013,17.8,24.7,11.2,0.0,Arazuri
Pamplona,22/09/2013,17.3,30.0,7.0,0.2,Arazuri
Pamplona,23/09/2013,18.7,28.2,8.4,0.0,Arazuri
Pamplona,24/09/2013,19.9,30.2,11.0,0.0,Arazuri
Pamplona,25/09/2013,22.7,31.3,15.8,0.0,Arazuri
Pamplona,26/09/2013,23.1,31.5,15.1,0.0,Arazuri
Pamplona,27/09/2013,24.3,30.2,16.5,0.0,Arazuri
Pamplona,28/09/2013,19.9,25.5,13.7,7.2,Arazuri
Pamplona,29/09/2013,17.3,23.0,13.7,0.8,Arazuri
Pamplona,30/09/2013,18.2,25.3,13.3,0.0,Arazuri
Pamplona,01/10/2013,18.6,23.5,14.3,1.6,Arazuri
Pamplona,02/10/2013,21.2,28.1,16.2,0.8,Arazuri
Pamplona,03/10/2013,22.4,26.6,18.4,1.0,Arazuri
Pamplona,04/10/2013,18.2,23.0,12.2,7.0,Arazuri
Pamplona,05/10/2013,14.6,20.4,9.1,0.2,Arazuri
Pamplona,06/10/2013,16.0,20.9,12.5,0.0,Arazuri
Pamplona,07/10/2013,15.1,20.0,10.7,0.0,Arazuri
Pamplona,08/10/2013,13.8,19.7,6.4,0.0,Arazuri
Pamplona,09/10/2013,15.0,18.4,11.0,0.0,Arazuri
Pamplona,10/10/2013,12.2,16.6,7.7,1.9,Arazuri
Pamplona,11/10/2013,8.2,15.4,2.7,0.0,Arazuri
Pamplona,12/10/2013,7.4,16.9,-0.2,0.2,Arazuri
Pamplona,13/10/2013,10.4,19.7,1.4,0.0,Arazuri
Pamplona,14/10/2013,14.2,20.7,8.0,0.2,Arazuri
Pamplona,15/10/2013,15.4,17.6,13.0,0.6,Arazuri
Pamplona,16/10/2013,18.3,26.3,13.0,0.0,Arazuri
Pamplona,17/10/2013,17.5,24.9,10.9,0.0,Arazuri
Pamplona,18/10/2013,20.0,27.1,10.4,0.2,Arazuri
Pamplona,19/10/2013,20.7,23.4,16.7,0.2,Arazuri
Pamplona,20/10/2013,16.8,22.6,9.9,0.0,Arazuri
Pamplona,21/10/2013,16.5,21.8,7.8,0.0,Arazuri
Pamplona,22/10/2013,18.5,21.3,14.9,5.1,Arazuri
Pamplona,23/10/2013,15.4,22.3,9.4,0.2,Arazuri
Pamplona,24/10/2013,15.9,22.6,7.6,2.7,Arazuri
Pamplona,25/10/2013,20.0,23.3,16.4,2.7,Arazuri
Pamplona,26/10/2013,18.1,21.8,9.4,0.4,Arazuri
Pamplona,27/10/2013,13.3,20.0,6.6,0.2,Arazuri
Pamplona,28/10/2013,13.3,19.6,8.2,2.1,Arazuri
Pamplona,29/10/2013,9.9,12.4,7.0,2.9,Arazuri
Pamplona,30/10/2013,10.2,14.2,6.5,0.4,Arazuri
Pamplona,31/10/2013,9.9,16.7,2.3,0.0,Arazuri
Pamplona,01/11/2013,8.5,15.4,1.7,0.6,Arazuri
Pamplona,02/11/2013,14.8,21.3,9.3,2.5,Arazuri
Pamplona,03/11/2013,12.1,15.2,7.3,0.0,Arazuri
Pamplona,04/11/2013,11.0,13.7,8.3,28.0,Arazuri
Pamplona,05/11/2013,15.4,17.7,11.0,16.4,Arazuri
Pamplona,06/11/2013,16.4,23.2,11.3,0.0,Arazuri
Pamplona,07/11/2013,13.0,19.2,9.3,0.2,Arazuri
Pamplona,08/11/2013,11.9,19.2,8.6,3.3,Arazuri
Pamplona,09/11/2013,10.1,13.9,4.7,2.3,Arazuri
Pamplona,10/11/2013,12.5,14.5,10.2,3.7,Arazuri
Pamplona,11/11/2013,12.3,14.4,11.4,6.2,Arazuri
Pamplona,12/11/2013,13.2,15.5,11.5,0.2,Arazuri
Pamplona,13/11/2013,13.2,15.2,10.9,0.0,Arazuri
Pamplona,14/11/2013,10.2,12.2,8.1,0.8,Arazuri
Pamplona,15/11/2013,5.0,8.3,2.7,18.7,Arazuri
Pamplona,16/11/2013,5.4,8.8,0.4,0.0,Arazuri
Pamplona,17/11/2013,7.5,8.9,6.5,1.2,Arazuri
Pamplona,18/11/2013,8.8,10.4,7.0,5.8,Arazuri
Pamplona,19/11/2013,7.3,9.5,4.4,11.1,Arazuri
Pamplona,20/11/2013,4.1,5.7,1.7,8.0,Arazuri
Pamplona,21/11/2013,5.6,7.6,4.5,27.3,Arazuri
Pamplona,22/11/2013,4.2,6.1,2.7,5.8,Arazuri
Pamplona,23/11/2013,4.8,7.3,3.2,0.0,Arazuri
Pamplona,24/11/2013,4.7,5.5,3.7,0.0,Arazuri
Pamplona,25/11/2013,4.8,6.3,3.4,0.0,Arazuri
Pamplona,26/11/2013,3.3,5.5,1.4,0.0,Arazuri
Pamplona,27/11/2013,2.2,5.0,-2.6,0.0,Arazuri
Pamplona,28/11/2013,0.6,7.9,-5.7,0.0,Arazuri
Pamplona,29/11/2013,4.7,6.3,2.4,0.0,Arazuri
Pamplona,30/11/2013,6.1,8.3,3.8,3.7,Arazuri
Pamplona,01/12/2013,4.1,6.3,2.5,0.0,Arazuri
Pamplona,02/12/2013,3.6,6.9,-2.1,0.0,Arazuri
Pamplona,03/12/2013,1.5,11.8,-3.5,0.0,Arazuri
Pamplona,04/12/2013,4.9,14.5,-2.9,0.2,Arazuri
Pamplona,05/12/2013,7.8,9.3,5.2,0.0,Arazuri
Pamplona,06/12/2013,6.6,9.5,4.2,0.0,Arazuri
Pamplona,07/12/2013,4.7,13.5,-1.6,0.0,Arazuri
Pamplona,08/12/2013,1.0,10.4,-3.5,0.2,Arazuri
Pamplona,09/12/2013,1.8,6.9,-3.7,0.2,Arazuri
Pamplona,10/12/2013,2.5,6.6,0.6,0.0,Arazuri
Pamplona,11/12/2013,2.7,6.4,-0.1,0.0,Arazuri
Pamplona,12/12/2013,3.2,4.6,1.8,0.0,Arazuri
Pamplona,13/12/2013,3.4,8.4,0.4,0.8,Arazuri
Pamplona,14/12/2013,8.2,14.0,0.3,0.0,Arazuri
Pamplona,15/12/2013,2.5,10.2,-2.7,0.2,Arazuri
Pamplona,16/12/2013,3.5,9.1,-1.8,0.2,Arazuri
Pamplona,17/12/2013,6.0,9.7,2.3,0.0,Arazuri
Pamplona,18/12/2013,6.2,9.5,3.1,0.8,Arazuri
Pamplona,19/12/2013,7.2,10.1,5.2,9.7,Arazuri
Pamplona,20/12/2013,5.8,8.9,0.7,5.1,Arazuri
Pamplona,21/12/2013,2.3,6.7,-2.8,0.0,Arazuri
Pamplona,22/12/2013,2.8,10.1,-2.5,0.2,Arazuri
Pamplona,23/12/2013,3.6,10.8,-1.9,0.0,Arazuri
Pamplona,24/12/2013,10.9,12.3,8.8,12.3,Arazuri
Pamplona,25/12/2013,7.4,11.2,4.7,3.1,Arazuri
Pamplona,26/12/2013,5.1,7.8,2.7,0.4,Arazuri
Pamplona,27/12/2013,7.9,13.9,1.4,0.0,Arazuri
Pamplona,28/12/2013,7.7,13.7,0.4,4.5,Arazuri
Pamplona,29/12/2013,1.7,7.9,-1.1,0.4,Arazuri
Pamplona,30/12/2013,1.8,6.3,-1.4,0.2,Arazuri
Pamplona,31/12/2013,4.0,8.2,-0.1,0.4,Arazuri
