Comarca,Fecha, Temperatura media, Temperatura maxima, Temperatura minima, Precipitacion acumulada,Localidad
Pamplona,01/01/2018,0.0,7.0,2.0,17.0,Azanza
Pamplona,02/01/2018,0.0,10.0,3.0,5.0,Azanza
Pamplona,03/01/2018,0.0,12.0,7.0,1.0,Azanza
Pamplona,04/01/2018,0.0,13.0,10.0,0.0,Azanza
Pamplona,05/01/2018,0.0,9.0,7.0,19.0,Azanza
Pamplona,06/01/2018,0.0,1.5,1.0,37.0,Azanza
Pamplona,07/01/2018,0.0,2.0,0.0,3.0,Azanza
Pamplona,08/01/2018,0.0,0.5,0.0,0.0,Azanza
Pamplona,09/01/2018,0.0,2.0,-3.0,3.0,Azanza
Pamplona,10/01/2018,0.0,2.0,-2.0,3.0,Azanza
Pamplona,11/01/2018,0.0,4.0,0.0,10.0,Azanza
Pamplona,12/01/2018,0.0,4.0,1.0,0.0,Azanza
Pamplona,13/01/2018,0.0,4.0,2.0,10.0,Azanza
Pamplona,14/01/2018,0.0,3.0,1.0,2.0,Azanza
Pamplona,15/01/2018,0.0,5.0,1.0,0.0,Azanza
Pamplona,16/01/2018,0.0,9.0,2.0,0.0,Azanza
Pamplona,17/01/2018,0.0,5.0,4.0,1.0,Azanza
Pamplona,18/01/2018,0.0,9.0,0.0,0.0,Azanza
Pamplona,19/01/2018,0.0,7.0,1.0,1.0,Azanza
Pamplona,20/01/2018,0.0,9.0,4.0,3.0,Azanza
Pamplona,21/01/2018,0.0,10.0,3.0,0.0,Azanza
Pamplona,22/01/2018,0.0,9.0,7.0,1.0,Azanza
Pamplona,23/01/2018,0.0,10.0,7.0,0.0,Azanza
Pamplona,24/01/2018,0.0,8.0,3.0,0.0,Azanza
Pamplona,25/01/2018,0.0,6.0,1.0,16.0,Azanza
Pamplona,26/01/2018,0.0,6.0,-2.0,43.0,Azanza
Pamplona,27/01/2018,0.0,4.0,0.0,1.0,Azanza
Pamplona,28/01/2018,0.0,9.0,-1.0,0.0,Azanza
Pamplona,29/01/2018,0.0,11.0,-2.0,0.0,Azanza
Pamplona,30/01/2018,0.0,10.0,0.0,0.0,Azanza
Pamplona,31/01/2018,0.0,9.0,-1.0,2.0,Azanza
Pamplona,01/02/2018,0.0,3.0,0.0,10.0,Azanza
Pamplona,02/02/2018,0.0,0.0,-1.0,10.0,Azanza
Pamplona,03/02/2018,0.0,2.0,1.0,5.0,Azanza
Pamplona,04/02/2018,0.0,3.0,-1.0,1.0,Azanza
Pamplona,05/02/2018,0.0,2.0,-1.0,0.0,Azanza
Pamplona,06/02/2018,0.0,0.0,-1.0,3.0,Azanza
Pamplona,07/02/2018,0.0,-1.0,-2.0,6.0,Azanza
Pamplona,08/02/2018,0.0,-1.0,-3.0,0.0,Azanza
Pamplona,09/02/2018,0.0,3.0,-4.0,10.0,Azanza
Pamplona,10/02/2018,0.0,5.0,-1.0,16.0,Azanza
Pamplona,11/02/2018,0.0,6.0,0.0,3.0,Azanza
Pamplona,12/02/2018,0.0,0.5,0.0,0.0,Azanza
Pamplona,13/02/2018,0.0,4.0,-4.0,5.0,Azanza
Pamplona,14/02/2018,0.0,8.0,-3.0,14.0,Azanza
Pamplona,15/02/2018,0.0,11.0,4.0,1.0,Azanza
Pamplona,16/02/2018,0.0,13.0,8.0,0.0,Azanza
Pamplona,17/02/2018,0.0,7.0,5.0,2.0,Azanza
Pamplona,18/02/2018,0.0,6.0,5.0,10.0,Azanza
Pamplona,19/02/2018,0.0,7.0,3.0,18.0,Azanza
Pamplona,20/02/2018,0.0,6.5,6.0,21.0,Azanza
Pamplona,21/02/2018,0.0,3.0,2.0,0.0,Azanza
Pamplona,22/02/2018,0.0,2.0,-1.0,0.0,Azanza
Pamplona,23/02/2018,0.0,2.0,-3.0,0.0,Azanza
Pamplona,24/02/2018,0.0,5.0,-4.0,0.0,Azanza
Pamplona,25/02/2018,0.0,6.0,-1.0,0.0,Azanza
Pamplona,26/02/2018,0.0,4.0,-1.0,0.0,Azanza
Pamplona,27/02/2018,0.0,1.0,-8.0,10.0,Azanza
Pamplona,28/02/2018,0.0,4.0,-6.0,25.0,Azanza
Pamplona,01/03/2018,0.0,7.0,-3.0,9.0,Azanza
Pamplona,02/03/2018,0.0,7.0,-1.0,16.0,Azanza
Pamplona,03/03/2018,0.0,10.0,3.0,4.0,Azanza
Pamplona,04/03/2018,0.0,11.0,6.0,13.0,Azanza
Pamplona,05/03/2018,0.0,7.0,3.0,4.0,Azanza
Pamplona,06/03/2018,0.0,7.0,2.0,5.0,Azanza
Pamplona,07/03/2018,0.0,7.0,0.0,2.0,Azanza
Pamplona,08/03/2018,0.0,8.0,1.0,0.0,Azanza
Pamplona,09/03/2018,0.0,12.0,3.0,8.0,Azanza
Pamplona,10/03/2018,0.0,10.0,9.0,1.0,Azanza
Pamplona,11/03/2018,0.0,9.0,6.0,0.0,Azanza
Pamplona,12/03/2018,0.0,9.0,5.0,2.0,Azanza
Pamplona,13/03/2018,0.0,9.0,3.0,2.0,Azanza
Pamplona,14/03/2018,0.0,9.0,2.0,14.0,Azanza
Pamplona,15/03/2018,0.0,10.0,3.0,3.0,Azanza
Pamplona,16/03/2018,0.0,11.0,3.0,0.0,Azanza
Pamplona,17/03/2018,0.0,6.0,3.0,2.0,Azanza
Pamplona,18/03/2018,0.0,4.0,2.0,3.0,Azanza
Pamplona,19/03/2018,0.0,3.0,1.0,8.0,Azanza
Pamplona,20/03/2018,0.0,-1.0,-2.0,5.0,Azanza
Pamplona,21/03/2018,0.0,3.0,-2.0,0.0,Azanza
Pamplona,22/03/2018,0.0,5.0,-3.0,0.0,Azanza
Pamplona,23/03/2018,0.0,12.0,1.0,11.0,Azanza
Pamplona,24/03/2018,0.0,6.0,2.0,2.0,Azanza
Pamplona,25/03/2018,0.0,5.0,2.0,3.0,Azanza
Pamplona,26/03/2018,0.0,8.0,3.0,4.0,Azanza
Pamplona,27/03/2018,0.0,11.0,4.0,0.0,Azanza
Pamplona,28/03/2018,0.0,15.0,2.0,2.0,Azanza
Pamplona,29/03/2018,0.0,13.0,3.0,0.0,Azanza
Pamplona,30/03/2018,0.0,12.0,3.0,6.0,Azanza
Pamplona,31/03/2018,0.0,6.0,2.0,2.0,Azanza
Pamplona,01/04/2018,0.0,12.0,1.0,0.0,Azanza
Pamplona,02/04/2018,0.0,14.0,3.0,0.0,Azanza
Pamplona,03/04/2018,0.0,14.0,5.0,4.0,Azanza
Pamplona,04/04/2018,0.0,13.0,4.0,7.0,Azanza
Pamplona,05/04/2018,0.0,14.0,5.0,0.0,Azanza
Pamplona,06/04/2018,0.0,15.0,4.0,23.0,Azanza
Pamplona,07/04/2018,0.0,8.0,7.0,29.0,Azanza
Pamplona,08/04/2018,0.0,9.0,5.0,1.0,Azanza
Pamplona,09/04/2018,0.0,6.0,3.0,7.0,Azanza
Pamplona,10/04/2018,0.0,4.0,3.0,68.0,Azanza
Pamplona,11/04/2018,0.0,6.0,1.0,110.0,Azanza
Pamplona,12/04/2018,0.0,10.0,4.0,1.0,Azanza
Pamplona,13/04/2018,0.0,11.0,5.0,7.0,Azanza
Pamplona,14/04/2018,0.0,13.0,6.0,0.0,Azanza
Pamplona,15/04/2018,0.0,11.0,7.0,11.0,Azanza
Pamplona,16/04/2018,0.0,9.0,6.0,3.0,Azanza
Pamplona,17/04/2018,0.0,19.0,5.5,0.0,Azanza
Pamplona,18/04/2018,0.0,20.0,6.0,0.0,Azanza
Pamplona,19/04/2018,0.0,19.0,11.0,0.0,Azanza
Pamplona,20/04/2018,0.0,19.0,11.0,0.0,Azanza
Pamplona,21/04/2018,0.0,18.0,11.0,0.0,Azanza
Pamplona,22/04/2018,0.0,20.0,12.0,0.0,Azanza
Pamplona,23/04/2018,0.0,19.0,9.0,0.0,Azanza
Pamplona,24/04/2018,0.0,22.0,8.0,0.0,Azanza
Pamplona,25/04/2018,0.0,14.0,8.0,0.0,Azanza
Pamplona,26/04/2018,0.0,14.0,7.0,0.0,Azanza
Pamplona,27/04/2018,0.0,13.0,7.0,1.0,Azanza
Pamplona,28/04/2018,0.0,16.0,7.0,0.0,Azanza
Pamplona,29/04/2018,0.0,10.0,5.0,2.0,Azanza
Pamplona,30/04/2018,0.0,10.0,3.0,1.0,Azanza
Pamplona,01/05/2018,0.0,9.0,4.0,0.0,Azanza
Pamplona,02/05/2018,0.0,12.0,2.0,1.0,Azanza
Pamplona,03/05/2018,0.0,11.0,3.0,0.0,Azanza
Pamplona,04/05/2018,0.0,11.0,1.0,0.0,Azanza
Pamplona,05/05/2018,0.0,14.0,7.0,0.0,Azanza
Pamplona,06/05/2018,0.0,22.0,7.0,0.0,Azanza
Pamplona,07/05/2018,0.0,22.0,10.0,0.0,Azanza
Pamplona,08/05/2018,0.0,14.0,10.0,0.0,Azanza
Pamplona,09/05/2018,0.0,14.0,8.0,0.0,Azanza
Pamplona,10/05/2018,0.0,11.0,7.0,0.0,Azanza
Pamplona,11/05/2018,0.0,20.0,3.0,0.0,Azanza
Pamplona,12/05/2018,0.0,10.5,10.0,2.0,Azanza
Pamplona,13/05/2018,0.0,10.0,3.0,1.0,Azanza
Pamplona,14/05/2018,0.0,9.0,3.0,0.0,Azanza
Pamplona,15/05/2018,0.0,10.0,4.0,0.0,Azanza
Pamplona,16/05/2018,0.0,12.0,6.0,0.0,Azanza
Pamplona,17/05/2018,0.0,15.0,7.0,0.0,Azanza
Pamplona,18/05/2018,0.0,18.0,10.0,0.0,Azanza
Pamplona,19/05/2018,0.0,18.0,10.0,0.0,Azanza
Pamplona,20/05/2018,0.0,18.0,9.0,0.0,Azanza
Pamplona,21/05/2018,0.0,20.0,9.0,2.0,Azanza
Pamplona,22/05/2018,0.0,19.0,12.0,0.0,Azanza
Pamplona,23/05/2018,0.0,17.0,8.0,1.0,Azanza
Pamplona,24/05/2018,0.0,20.0,11.0,1.0,Azanza
Pamplona,25/05/2018,0.0,18.0,12.0,6.0,Azanza
Pamplona,26/05/2018,0.0,17.0,13.0,36.0,Azanza
Pamplona,27/05/2018,0.0,19.0,12.0,1.0,Azanza
Pamplona,28/05/2018,0.0,16.0,9.0,0.5,Azanza
Pamplona,29/05/2018,0.0,17.0,10.0,8.0,Azanza
Pamplona,30/05/2018,0.0,16.0,10.0,15.0,Azanza
Pamplona,31/05/2018,0.0,16.0,10.0,8.0,Azanza
Pamplona,01/06/2018,0.0,20.0,11.0,47.0,Azanza
Pamplona,02/06/2018,0.0,22.0,12.0,0.0,Azanza
Pamplona,03/06/2018,0.0,22.0,14.0,4.0,Azanza
Pamplona,04/06/2018,0.0,15.0,12.0,4.0,Azanza
Pamplona,05/06/2018,0.0,14.0,9.0,3.0,Azanza
Pamplona,06/06/2018,0.0,15.0,9.0,0.0,Azanza
Pamplona,07/06/2018,0.0,19.0,8.0,0.0,Azanza
Pamplona,08/06/2018,0.0,19.0,11.0,11.0,Azanza
Pamplona,09/06/2018,0.0,18.0,12.0,4.0,Azanza
Pamplona,10/06/2018,0.0,19.0,12.0,17.0,Azanza
Pamplona,11/06/2018,0.0,14.0,9.0,2.0,Azanza
Pamplona,12/06/2018,0.0,13.0,8.0,3.0,Azanza
Pamplona,13/06/2018,0.0,13.0,11.0,0.0,Azanza
Pamplona,14/06/2018,0.0,16.0,9.0,0.0,Azanza
Pamplona,15/06/2018,0.0,17.0,10.0,0.0,Azanza
Pamplona,16/06/2018,0.0,16.0,12.0,0.0,Azanza
Pamplona,17/06/2018,0.0,17.0,9.0,0.0,Azanza
Pamplona,18/06/2018,0.0,15.0,13.0,0.0,Azanza
Pamplona,19/06/2018,0.0,21.0,12.0,0.0,Azanza
Pamplona,20/06/2018,0.0,28.0,13.0,0.0,Azanza
Pamplona,21/06/2018,0.0,25.0,14.0,0.0,Azanza
Pamplona,22/06/2018,0.0,22.0,15.0,0.0,Azanza
Pamplona,23/06/2018,0.0,23.0,14.0,0.0,Azanza
Pamplona,24/06/2018,0.0,26.0,13.0,0.0,Azanza
Pamplona,25/06/2018,0.0,26.0,15.0,0.0,Azanza
Pamplona,26/06/2018,0.0,27.0,14.0,0.0,Azanza
Pamplona,27/06/2018,0.0,24.0,14.0,0.0,Azanza
Pamplona,28/06/2018,0.0,21.0,14.0,2.0,Azanza
Pamplona,29/06/2018,0.0,26.0,15.0,2.0,Azanza
Pamplona,30/06/2018,0.0,27.0,14.0,18.0,Azanza
Pamplona,01/07/2018,0.0,27.0,16.0,1.0,Azanza
Pamplona,02/07/2018,0.0,25.0,13.0,0.0,Azanza
Pamplona,03/07/2018,0.0,26.0,13.0,0.0,Azanza
Pamplona,04/07/2018,0.0,27.0,15.0,7.0,Azanza
Pamplona,05/07/2018,0.0,19.0,14.0,0.0,Azanza
Pamplona,06/07/2018,0.0,20.0,14.0,0.0,Azanza
Pamplona,07/07/2018,0.0,26.0,14.0,2.0,Azanza
Pamplona,08/07/2018,0.0,26.0,11.0,1.0,Azanza
Pamplona,09/07/2018,0.0,23.0,18.0,0.0,Azanza
Pamplona,10/07/2018,0.0,23.0,17.0,0.0,Azanza
Pamplona,11/07/2018,0.0,23.0,15.0,1.0,Azanza
Pamplona,12/07/2018,0.0,23.0,14.0,0.0,Azanza
Pamplona,13/07/2018,0.0,27.0,15.0,6.0,Azanza
Pamplona,14/07/2018,0.0,27.0,15.0,3.0,Azanza
Pamplona,15/07/2018,0.0,26.0,14.0,0.0,Azanza
Pamplona,16/07/2018,0.0,18.0,16.0,0.0,Azanza
Pamplona,17/07/2018,0.0,26.0,16.0,0.0,Azanza
Pamplona,18/07/2018,0.0,27.0,14.0,1.0,Azanza
Pamplona,19/07/2018,0.0,27.0,14.0,0.0,Azanza
Pamplona,20/07/2018,0.0,19.0,15.0,0.0,Azanza
Pamplona,21/07/2018,0.0,18.0,12.0,1.0,Azanza
Pamplona,22/07/2018,0.0,21.0,13.0,0.0,Azanza
Pamplona,23/07/2018,0.0,27.0,12.0,0.0,Azanza
Pamplona,24/07/2018,0.0,26.0,17.0,0.0,Azanza
Pamplona,25/07/2018,0.0,27.0,16.0,0.0,Azanza
Pamplona,26/07/2018,0.0,30.0,17.0,0.0,Azanza
Pamplona,27/07/2018,0.0,28.0,14.0,0.0,Azanza
Pamplona,28/07/2018,0.0,22.0,14.0,0.0,Azanza
Pamplona,29/07/2018,0.0,28.0,14.0,0.0,Azanza
Pamplona,30/07/2018,0.0,29.0,13.0,0.0,Azanza
Pamplona,31/07/2018,0.0,24.0,14.0,0.0,Azanza
Pamplona,01/08/2018,0.0,28.0,16.0,0.0,Azanza
Pamplona,02/08/2018,0.0,31.0,14.0,0.0,Azanza
Pamplona,03/08/2018,0.0,31.0,21.0,0.0,Azanza
Pamplona,04/08/2018,0.0,28.0,21.0,0.0,Azanza
Pamplona,05/08/2018,0.0,29.0,18.0,0.0,Azanza
Pamplona,06/08/2018,0.0,34.0,17.0,0.0,Azanza
Pamplona,07/08/2018,0.0,28.0,18.0,0.0,Azanza
Pamplona,08/08/2018,0.0,28.0,16.0,7.0,Azanza
Pamplona,09/08/2018,0.0,18.0,13.0,0.0,Azanza
Pamplona,10/08/2018,0.0,24.0,11.0,0.0,Azanza
Pamplona,11/08/2018,0.0,27.0,12.0,0.0,Azanza
Pamplona,12/08/2018,0.0,30.0,20.0,2.0,Azanza
Pamplona,13/08/2018,0.0,21.0,15.0,0.0,Azanza
Pamplona,14/08/2018,0.0,18.0,14.0,0.0,Azanza
Pamplona,15/08/2018,0.0,24.0,14.0,0.0,Azanza
Pamplona,16/08/2018,0.0,22.0,15.0,0.0,Azanza
Pamplona,17/08/2018,0.0,18.0,14.0,0.0,Azanza
Pamplona,18/08/2018,0.0,19.0,12.0,0.0,Azanza
Pamplona,19/08/2018,0.0,24.0,13.0,0.0,Azanza
Pamplona,20/08/2018,0.0,25.0,16.0,0.0,Azanza
Pamplona,21/08/2018,0.0,27.0,14.0,0.0,Azanza
Pamplona,22/08/2018,0.0,29.0,14.0,0.0,Azanza
Pamplona,23/08/2018,0.0,23.0,14.0,0.0,Azanza
Pamplona,24/08/2018,0.0,18.0,15.0,0.0,Azanza
Pamplona,25/08/2018,0.0,15.0,13.0,0.0,Azanza
Pamplona,26/08/2018,0.0,24.0,12.0,0.0,Azanza
Pamplona,27/08/2018,0.0,28.0,13.0,0.0,Azanza
Pamplona,28/08/2018,0.0,30.0,17.0,10.0,Azanza
Pamplona,29/08/2018,0.0,22.0,15.0,0.0,Azanza
Pamplona,30/08/2018,0.0,22.0,14.0,0.0,Azanza
Pamplona,31/08/2018,0.0,19.0,15.0,0.0,Azanza
Pamplona,01/09/2018,0.0,23.0,14.0,0.0,Azanza
Pamplona,02/09/2018,0.0,27.0,11.0,0.0,Azanza
Pamplona,03/09/2018,0.0,25.0,14.0,0.0,Azanza
Pamplona,04/09/2018,0.0,23.0,15.0,0.0,Azanza
Pamplona,05/09/2018,0.0,20.0,14.0,3.0,Azanza
Pamplona,06/09/2018,0.0,21.0,14.0,2.0,Azanza
Pamplona,07/09/2018,0.0,19.0,14.0,0.0,Azanza
Pamplona,08/09/2018,0.0,25.0,13.0,4.0,Azanza
Pamplona,09/09/2018,0.0,22.0,15.0,0.0,Azanza
Pamplona,10/09/2018,0.0,23.0,15.0,0.0,Azanza
Pamplona,11/09/2018,0.0,26.0,12.0,0.0,Azanza
Pamplona,12/09/2018,0.0,25.0,13.0,1.0,Azanza
Pamplona,13/09/2018,0.0,19.0,15.0,0.0,Azanza
Pamplona,14/09/2018,0.0,22.0,13.0,0.0,Azanza
Pamplona,15/09/2018,0.0,25.0,13.0,0.0,Azanza
Pamplona,16/09/2018,0.0,28.0,14.0,0.0,Azanza
Pamplona,17/09/2018,0.0,26.0,16.0,0.0,Azanza
Pamplona,18/09/2018,0.0,25.0,16.0,0.0,Azanza
Pamplona,19/09/2018,0.0,26.0,14.0,0.0,Azanza
Pamplona,20/09/2018,0.0,27.0,14.0,0.0,Azanza
Pamplona,21/09/2018,0.0,23.0,13.0,0.0,Azanza
Pamplona,22/09/2018,0.0,26.0,13.0,0.0,Azanza
Pamplona,23/09/2018,0.0,28.0,13.0,0.0,Azanza
Pamplona,24/09/2018,0.0,15.0,14.0,0.0,Azanza
Pamplona,25/09/2018,0.0,18.0,9.0,0.0,Azanza
Pamplona,26/09/2018,0.0,21.0,9.0,0.0,Azanza
Pamplona,27/09/2018,0.0,24.0,14.0,0.0,Azanza
Pamplona,28/09/2018,0.0,23.0,14.0,0.0,Azanza
Pamplona,29/09/2018,0.0,20.0,13.0,0.0,Azanza
Pamplona,30/09/2018,0.0,19.0,6.0,0.0,Azanza
Pamplona,01/10/2018,0.0,11.0,7.0,0.0,Azanza
Pamplona,02/10/2018,0.0,14.0,6.0,0.0,Azanza
Pamplona,03/10/2018,0.0,19.0,8.0,0.0,Azanza
Pamplona,04/10/2018,0.0,22.0,11.0,0.0,Azanza
Pamplona,05/10/2018,0.0,22.0,11.0,0.0,Azanza
Pamplona,06/10/2018,0.0,20.0,12.0,0.0,Azanza
Pamplona,07/10/2018,0.0,11.0,8.0,4.0,Azanza
Pamplona,08/10/2018,0.0,14.0,8.0,0.0,Azanza
Pamplona,09/10/2018,0.0,14.0,5.0,1.0,Azanza
Pamplona,10/10/2018,0.0,14.0,10.0,3.0,Azanza
Pamplona,11/10/2018,0.0,18.0,11.0,3.0,Azanza
Pamplona,12/10/2018,0.0,21.0,13.0,0.0,Azanza
Pamplona,13/10/2018,0.0,21.0,14.0,0.0,Azanza
Pamplona,14/10/2018,0.0,15.5,15.0,11.0,Azanza
Pamplona,15/10/2018,0.0,15.0,9.0,0.0,Azanza
Pamplona,16/10/2018,0.0,16.0,7.0,0.0,Azanza
Pamplona,17/10/2018,0.0,20.0,7.0,0.0,Azanza
Pamplona,18/10/2018,0.0,15.0,8.0,0.0,Azanza
Pamplona,19/10/2018,0.0,17.0,11.0,0.0,Azanza
Pamplona,20/10/2018,0.0,18.0,8.0,0.0,Azanza
Pamplona,21/10/2018,0.0,19.0,10.0,0.0,Azanza
Pamplona,22/10/2018,0.0,14.0,10.0,0.0,Azanza
Pamplona,23/10/2018,0.0,14.0,9.0,0.0,Azanza
Pamplona,24/10/2018,0.0,18.0,9.0,0.0,Azanza
Pamplona,25/10/2018,0.0,19.0,10.0,0.0,Azanza
Pamplona,26/10/2018,0.0,16.0,9.0,2.0,Azanza
Pamplona,27/10/2018,0.0,8.0,6.0,3.0,Azanza
Pamplona,28/10/2018,0.0,2.0,1.0,8.0,Azanza
Pamplona,29/10/2018,0.0,2.0,1.0,8.0,Azanza
Pamplona,30/10/2018,0.0,8.0,0.0,14.0,Azanza
Pamplona,31/10/2018,0.0,7.0,0.0,15.0,Azanza
Pamplona,01/11/2018,0.0,7.0,6.0,8.0,Azanza
Pamplona,02/11/2018,0.0,9.0,6.0,0.0,Azanza
Pamplona,03/11/2018,0.0,11.0,5.0,0.0,Azanza
Pamplona,04/11/2018,0.0,10.0,2.0,0.0,Azanza
Pamplona,05/11/2018,0.0,8.0,6.0,24.0,Azanza
Pamplona,06/11/2018,0.0,8.0,4.0,3.0,Azanza
Pamplona,07/11/2018,0.0,10.0,4.0,0.0,Azanza
Pamplona,08/11/2018,0.0,9.0,3.0,14.0,Azanza
Pamplona,09/11/2018,0.0,10.0,5.0,1.0,Azanza
Pamplona,10/11/2018,0.0,10.0,6.0,3.0,Azanza
Pamplona,11/11/2018,0.0,12.0,6.0,0.0,Azanza
Pamplona,12/11/2018,0.0,12.0,11.0,13.0,Azanza
Pamplona,13/11/2018,0.0,13.0,8.0,0.0,Azanza
Pamplona,14/11/2018,0.0,12.0,9.0,5.0,Azanza
Pamplona,15/11/2018,0.0,12.0,10.0,2.0,Azanza
Pamplona,16/11/2018,0.0,12.0,9.0,0.0,Azanza
Pamplona,17/11/2018,0.0,10.0,9.0,7.0,Azanza
Pamplona,18/11/2018,0.0,8.5,8.0,5.0,Azanza
Pamplona,19/11/2018,0.0,10.0,6.0,0.0,Azanza
Pamplona,20/11/2018,0.0,6.0,3.0,6.5,Azanza
Pamplona,21/11/2018,0.0,8.0,3.0,0.0,Azanza
Pamplona,22/11/2018,0.0,6.0,4.0,4.0,Azanza
Pamplona,23/11/2018,0.0,8.0,4.0,8.0,Azanza
Pamplona,24/11/2018,0.0,7.0,3.0,7.0,Azanza
Pamplona,25/11/2018,0.0,8.0,4.0,4.0,Azanza
Pamplona,26/11/2018,0.0,5.0,3.0,10.0,Azanza
Pamplona,27/11/2018,0.0,9.0,3.0,1.0,Azanza
Pamplona,28/11/2018,0.0,10.0,5.0,0.0,Azanza
Pamplona,29/11/2018,0.0,7.0,4.0,3.0,Azanza
Pamplona,30/11/2018,0.0,8.0,5.0,0.0,Azanza
Pamplona,01/12/2018,0.0,8.0,5.0,1.0,Azanza
Pamplona,02/12/2018,0.0,10.0,6.0,0.0,Azanza
Pamplona,03/12/2018,0.0,11.0,7.0,2.0,Azanza
Pamplona,04/12/2018,0.0,14.0,7.0,0.0,Azanza
Pamplona,05/12/2018,0.0,11.0,9.0,0.0,Azanza
Pamplona,06/12/2018,0.0,10.0,7.0,0.0,Azanza
Pamplona,07/12/2018,0.0,10.0,1.0,0.0,Azanza
Pamplona,08/12/2018,0.0,10.0,1.0,0.0,Azanza
Pamplona,09/12/2018,0.0,10.0,6.0,0.0,Azanza
Pamplona,10/12/2018,0.0,7.0,5.0,0.0,Azanza
Pamplona,11/12/2018,0.0,10.0,2.0,0.0,Azanza
Pamplona,12/12/2018,0.0,7.0,3.0,4.0,Azanza
Pamplona,13/12/2018,0.0,6.0,5.0,6.0,Azanza
Pamplona,14/12/2018,0.0,6.0,5.0,1.0,Azanza
Pamplona,15/12/2018,0.0,10.0,3.0,12.0,Azanza
Pamplona,16/12/2018,0.0,9.0,5.0,3.0,Azanza
Pamplona,17/12/2018,0.0,6.0,3.0,0.0,Azanza
Pamplona,18/12/2018,0.0,5.0,3.0,2.0,Azanza
Pamplona,19/12/2018,0.0,9.0,3.0,0.0,Azanza
Pamplona,20/12/2018,0.0,10.0,4.0,0.0,Azanza
Pamplona,21/12/2018,0.0,7.0,4.0,0.0,Azanza
Pamplona,22/12/2018,0.0,12.0,5.0,0.0,Azanza
Pamplona,23/12/2018,0.0,13.0,5.0,0.0,Azanza
Pamplona,24/12/2018,0.0,11.0,4.0,0.0,Azanza
Pamplona,25/12/2018,0.0,10.0,6.0,0.0,Azanza
Pamplona,26/12/2018,0.0,5.0,4.0,0.0,Azanza
Pamplona,27/12/2018,0.0,7.0,1.0,0.0,Azanza
