Comarca,Fecha, Temperatura media, Temperatura maxima, Temperatura minima, Precipitacion acumulada,Localidad
Pamplona,01/01/2012,6.0,8.0,3.8,0.0,El_Perdon
Pamplona,02/01/2012,3.4,5.4,1.9,5.1,El_Perdon
Pamplona,03/01/2012,4.4,7.3,2.0,0.0,El_Perdon
Pamplona,04/01/2012,4.2,6.1,2.3,0.5,El_Perdon
Pamplona,05/01/2012,4.0,5.9,1.7,0.6,El_Perdon
Pamplona,06/01/2012,4.4,6.2,2.3,3.1,El_Perdon
Pamplona,07/01/2012,4.1,6.1,2.5,0.5,El_Perdon
Pamplona,08/01/2012,3.8,5.0,2.3,0.3,El_Perdon
Pamplona,09/01/2012,0.9,2.3,-0.3,0.0,El_Perdon
Pamplona,10/01/2012,4.2,8.6,-0.3,0.0,El_Perdon
Pamplona,11/01/2012,4.1,6.2,1.5,0.1,El_Perdon
Pamplona,12/01/2012,3.3,9.5,0.1,0.0,El_Perdon
Pamplona,13/01/2012,-0.2,2.5,-1.7,0.0,El_Perdon
Pamplona,14/01/2012,-0.8,2.8,-1.9,0.2,El_Perdon
Pamplona,15/01/2012,2.0,4.7,0.4,0.0,El_Perdon
Pamplona,16/01/2012,0.9,1.9,-0.0,3.8,El_Perdon
Pamplona,17/01/2012,2.1,6.2,-0.7,0.2,El_Perdon
Pamplona,18/01/2012,2.9,6.9,0.6,0.0,El_Perdon
Pamplona,19/01/2012,6.2,7.6,4.0,0.5,El_Perdon
Pamplona,20/01/2012,5.3,6.7,4.0,0.8,El_Perdon
Pamplona,21/01/2012,5.3,6.9,4.0,1.5,El_Perdon
Pamplona,22/01/2012,4.8,5.5,4.4,0.1,El_Perdon
Pamplona,23/01/2012,4.3,5.5,3.2,0.2,El_Perdon
Pamplona,24/01/2012,1.8,3.4,0.1,0.3,El_Perdon
Pamplona,25/01/2012,2.4,5.4,-0.7,0.3,El_Perdon
Pamplona,26/01/2012,3.3,6.4,1.2,0.0,El_Perdon
Pamplona,27/01/2012,0.4,1.2,-0.5,2.2,El_Perdon
Pamplona,28/01/2012,-0.3,1.5,-1.6,6.6,El_Perdon
Pamplona,29/01/2012,-2.5,-1.4,-3.4,0.2,El_Perdon
Pamplona,30/01/2012,-1.8,-0.1,-3.5,0.0,El_Perdon
Pamplona,31/01/2012,1.1,2.6,-0.4,0.0,El_Perdon
Pamplona,01/02/2012,-0.2,2.8,-5.2,1.3,El_Perdon
Pamplona,02/02/2012,-7.9,-5.2,-10.0,0.0,El_Perdon
Pamplona,03/02/2012,-9.7,-7.8,-12.1,0.0,El_Perdon
Pamplona,04/02/2012,-7.2,-4.4,-12.4,0.0,El_Perdon
Pamplona,05/02/2012,-1.4,0.6,-4.7,10.1,El_Perdon
Pamplona,06/02/2012,-2.9,-1.0,-5.9,0.0,El_Perdon
Pamplona,07/02/2012,-5.7,-3.9,-8.3,0.1,El_Perdon
Pamplona,08/02/2012,-9.2,-7.2,-10.7,0.0,El_Perdon
Pamplona,09/02/2012,-6.5,-5.0,-8.9,0.0,El_Perdon
Pamplona,10/02/2012,-5.3,-3.4,-7.9,0.0,El_Perdon
Pamplona,11/02/2012,-7.6,-4.5,-10.3,0.0,El_Perdon
Pamplona,12/02/2012,-7.6,-4.3,-10.5,0.0,El_Perdon
Pamplona,13/02/2012,-4.5,-0.9,-8.3,0.0,El_Perdon
Pamplona,14/02/2012,-1.8,-1.0,-2.6,6.1,El_Perdon
Pamplona,15/02/2012,-1.0,1.1,-3.2,0.0,El_Perdon
Pamplona,16/02/2012,-0.3,0.8,-1.2,0.0,El_Perdon
Pamplona,17/02/2012,0.2,3.3,-1.7,0.0,El_Perdon
Pamplona,18/02/2012,1.2,6.5,-2.1,0.0,El_Perdon
Pamplona,19/02/2012,0.3,3.2,-2.2,0.0,El_Perdon
Pamplona,20/02/2012,-2.3,0.9,-4.5,0.0,El_Perdon
Pamplona,21/02/2012,-1.4,3.8,-4.5,0.0,El_Perdon
Pamplona,22/02/2012,1.4,7.2,-1.9,0.0,El_Perdon
Pamplona,23/02/2012,4.2,9.3,1.1,0.0,El_Perdon
Pamplona,24/02/2012,6.3,11.7,2.9,0.0,El_Perdon
Pamplona,25/02/2012,5.5,9.6,2.7,0.0,El_Perdon
Pamplona,26/02/2012,4.3,6.1,2.7,0.0,El_Perdon
Pamplona,27/02/2012,3.5,7.7,1.2,0.0,El_Perdon
Pamplona,28/02/2012,7.2,12.8,0.9,0.0,El_Perdon
Pamplona,29/02/2012,9.2,14.7,6.5,0.0,El_Perdon
Pamplona,01/03/2012,10.1,13.9,6.5,0.0,El_Perdon
Pamplona,02/03/2012,8.7,12.6,5.0,0.0,El_Perdon
Pamplona,03/03/2012,7.3,12.9,4.0,0.0,El_Perdon
Pamplona,04/03/2012,4.9,9.5,-0.3,2.2,El_Perdon
Pamplona,05/03/2012,-0.4,2.7,-1.4,0.1,El_Perdon
Pamplona,06/03/2012,-0.4,1.2,-1.3,1.4,El_Perdon
Pamplona,07/03/2012,1.3,5.4,-2.8,0.2,El_Perdon
Pamplona,08/03/2012,1.5,4.8,-1.1,0.6,El_Perdon
Pamplona,09/03/2012,1.3,6.4,-1.6,0.0,El_Perdon
Pamplona,10/03/2012,2.7,7.8,-0.5,0.0,El_Perdon
Pamplona,11/03/2012,3.1,6.7,1.2,0.0,El_Perdon
Pamplona,12/03/2012,6.8,12.6,2.9,0.0,El_Perdon
Pamplona,13/03/2012,12.8,18.2,9.3,0.0,El_Perdon
Pamplona,14/03/2012,14.9,20.4,11.1,0.0,El_Perdon
Pamplona,15/03/2012,14.8,19.3,10.9,0.0,El_Perdon
Pamplona,16/03/2012,11.4,16.1,7.1,0.0,El_Perdon
Pamplona,17/03/2012,8.1,13.8,3.8,2.0,El_Perdon
Pamplona,18/03/2012,2.7,7.5,-0.4,0.3,El_Perdon
Pamplona,19/03/2012,0.8,5.4,-1.1,0.5,El_Perdon
Pamplona,20/03/2012,1.2,5.0,-1.2,0.0,El_Perdon
Pamplona,21/03/2012,0.9,2.5,-0.4,19.9,El_Perdon
Pamplona,22/03/2012,3.8,9.2,-0.3,0.0,El_Perdon
Pamplona,23/03/2012,7.4,11.7,3.3,0.0,El_Perdon
Pamplona,24/03/2012,10.0,15.3,5.0,0.0,El_Perdon
Pamplona,25/03/2012,12.0,17.6,8.7,0.0,El_Perdon
Pamplona,26/03/2012,12.3,16.8,8.6,0.0,El_Perdon
Pamplona,27/03/2012,11.4,15.4,7.8,0.0,El_Perdon
Pamplona,28/03/2012,12.9,17.2,9.9,0.0,El_Perdon
Pamplona,29/03/2012,12.7,17.9,8.9,0.0,El_Perdon
Pamplona,30/03/2012,11.0,17.9,7.6,0.0,El_Perdon
Pamplona,31/03/2012,9.7,16.4,6.2,0.0,El_Perdon
Pamplona,01/04/2012,8.3,14.4,4.4,0.0,El_Perdon
Pamplona,02/04/2012,11.4,16.5,8.4,0.0,El_Perdon
Pamplona,03/04/2012,4.8,9.9,2.2,4.9,El_Perdon
Pamplona,04/04/2012,4.1,8.4,2.1,0.1,El_Perdon
Pamplona,05/04/2012,4.0,7.3,1.9,12.7,El_Perdon
Pamplona,06/04/2012,3.6,6.2,1.0,12.5,El_Perdon
Pamplona,07/04/2012,2.3,5.2,0.2,0.6,El_Perdon
Pamplona,08/04/2012,3.9,6.4,1.5,0.1,El_Perdon
Pamplona,09/04/2012,8.4,14.7,2.3,0.0,El_Perdon
Pamplona,10/04/2012,6.3,11.9,1.8,2.1,El_Perdon
Pamplona,11/04/2012,4.4,7.8,1.2,0.0,El_Perdon
Pamplona,12/04/2012,3.9,6.8,0.7,5.2,El_Perdon
Pamplona,13/04/2012,2.2,5.0,0.7,0.0,El_Perdon
Pamplona,14/04/2012,1.7,3.8,0.2,5.8,El_Perdon
Pamplona,15/04/2012,0.6,1.9,-0.5,3.6,El_Perdon
Pamplona,16/04/2012,-0.5,2.9,-2.0,1.4,El_Perdon
Pamplona,17/04/2012,3.1,10.5,-2.2,3.3,El_Perdon
Pamplona,18/04/2012,3.3,6.9,0.9,5.3,El_Perdon
Pamplona,19/04/2012,3.1,5.3,1.7,0.7,El_Perdon
Pamplona,20/04/2012,4.7,10.2,1.5,1.4,El_Perdon
Pamplona,21/04/2012,5.2,10.3,2.3,13.7,El_Perdon
Pamplona,22/04/2012,4.0,8.6,1.3,0.0,El_Perdon
Pamplona,23/04/2012,4.2,8.2,1.1,3.5,El_Perdon
Pamplona,24/04/2012,4.2,8.3,0.2,1.0,El_Perdon
Pamplona,25/04/2012,9.3,14.2,5.7,0.0,El_Perdon
Pamplona,26/04/2012,6.7,11.5,4.6,1.5,El_Perdon
Pamplona,27/04/2012,8.8,16.8,4.0,5.2,El_Perdon
Pamplona,28/04/2012,5.3,7.9,2.6,34.2,El_Perdon
Pamplona,29/04/2012,4.7,8.8,2.1,4.8,El_Perdon
Pamplona,30/04/2012,4.7,9.0,2.3,26.1,El_Perdon
Pamplona,01/05/2012,7.5,12.1,3.4,0.1,El_Perdon
Pamplona,02/05/2012,10.9,15.4,6.2,0.0,El_Perdon
Pamplona,03/05/2012,11.6,16.8,7.0,0.5,El_Perdon
Pamplona,04/05/2012,8.4,12.8,6.1,0.9,El_Perdon
Pamplona,05/05/2012,7.0,11.8,4.1,0.7,El_Perdon
Pamplona,06/05/2012,7.3,13.7,3.8,0.7,El_Perdon
Pamplona,07/05/2012,11.3,16.5,6.0,2.5,El_Perdon
Pamplona,08/05/2012,12.9,17.7,10.1,8.5,El_Perdon
Pamplona,09/05/2012,17.2,22.0,12.4,0.0,El_Perdon
Pamplona,10/05/2012,19.9,24.6,15.2,0.0,El_Perdon
Pamplona,11/05/2012,21.1,26.2,15.1,0.0,El_Perdon
Pamplona,12/05/2012,13.1,21.4,9.5,0.0,El_Perdon
Pamplona,13/05/2012,9.5,13.6,5.7,0.0,El_Perdon
Pamplona,14/05/2012,10.0,17.7,4.1,0.0,El_Perdon
Pamplona,15/05/2012,6.8,12.9,3.4,0.0,El_Perdon
Pamplona,16/05/2012,10.0,16.8,1.8,0.0,El_Perdon
Pamplona,17/05/2012,13.1,19.5,7.4,0.0,El_Perdon
Pamplona,18/05/2012,10.3,15.7,7.4,3.1,El_Perdon
Pamplona,19/05/2012,8.3,12.6,6.2,25.8,El_Perdon
Pamplona,20/05/2012,4.6,6.4,3.5,9.5,El_Perdon
Pamplona,21/05/2012,4.3,6.2,2.8,2.8,El_Perdon
Pamplona,22/05/2012,7.5,10.3,5.9,2.8,El_Perdon
Pamplona,23/05/2012,10.8,17.5,5.5,0.0,El_Perdon
Pamplona,24/05/2012,15.7,22.8,9.9,0.1,El_Perdon
Pamplona,25/05/2012,19.8,24.7,14.2,0.1,El_Perdon
Pamplona,26/05/2012,13.3,19.9,7.8,0.0,El_Perdon
Pamplona,27/05/2012,13.5,20.4,7.7,0.0,El_Perdon
Pamplona,28/05/2012,13.5,19.8,7.9,0.0,El_Perdon
Pamplona,29/05/2012,16.6,23.7,11.2,0.0,El_Perdon
Pamplona,30/05/2012,15.7,24.8,9.8,0.0,El_Perdon
Pamplona,31/05/2012,17.7,25.0,9.6,0.0,El_Perdon
Pamplona,01/06/2012,22.4,28.1,16.8,0.0,El_Perdon
Pamplona,02/06/2012,18.6,27.4,9.0,8.2,El_Perdon
Pamplona,03/06/2012,10.3,13.4,8.4,4.5,El_Perdon
Pamplona,04/06/2012,11.5,17.2,8.0,0.0,El_Perdon
Pamplona,05/06/2012,16.7,24.4,8.6,0.0,El_Perdon
Pamplona,06/06/2012,17.3,23.3,10.9,0.0,El_Perdon
Pamplona,07/06/2012,16.1,21.8,8.4,0.0,El_Perdon
Pamplona,08/06/2012,9.4,13.2,6.1,0.0,El_Perdon
Pamplona,09/06/2012,11.8,17.1,5.8,0.0,El_Perdon
Pamplona,10/06/2012,13.1,17.5,10.3,11.1,El_Perdon
Pamplona,11/06/2012,10.0,18.3,6.8,6.1,El_Perdon
Pamplona,12/06/2012,8.8,13.6,6.3,0.9,El_Perdon
Pamplona,13/06/2012,10.6,15.3,6.5,0.1,El_Perdon
Pamplona,14/06/2012,17.5,24.2,10.8,0.0,El_Perdon
Pamplona,15/06/2012,19.5,26.6,12.7,0.0,El_Perdon
Pamplona,16/06/2012,16.4,25.9,8.8,0.0,El_Perdon
Pamplona,17/06/2012,18.3,26.6,8.6,0.0,El_Perdon
Pamplona,18/06/2012,12.8,18.5,10.7,5.5,El_Perdon
Pamplona,19/06/2012,14.6,18.4,12.4,6.3,El_Perdon
Pamplona,20/06/2012,18.2,24.3,12.7,0.0,El_Perdon
Pamplona,21/06/2012,14.2,21.6,7.0,0.0,El_Perdon
Pamplona,22/06/2012,10.9,17.4,6.6,0.0,El_Perdon
Pamplona,23/06/2012,14.5,24.4,7.2,0.0,El_Perdon
Pamplona,24/06/2012,17.1,24.8,12.5,0.0,El_Perdon
Pamplona,25/06/2012,17.8,24.5,12.0,0.0,El_Perdon
Pamplona,26/06/2012,21.7,29.0,14.5,0.0,El_Perdon
Pamplona,27/06/2012,25.4,30.6,20.9,0.0,El_Perdon
Pamplona,28/06/2012,21.1,31.2,12.1,0.0,El_Perdon
Pamplona,29/06/2012,16.3,24.8,11.0,0.0,El_Perdon
Pamplona,30/06/2012,12.5,20.8,8.2,0.0,El_Perdon
Pamplona,01/07/2012,8.4,10.7,6.1,0.0,El_Perdon
Pamplona,02/07/2012,12.5,20.8,5.7,0.0,El_Perdon
Pamplona,03/07/2012,19.0,27.2,12.1,0.0,El_Perdon
Pamplona,04/07/2012,14.7,21.1,10.9,0.0,El_Perdon
Pamplona,05/07/2012,11.4,15.1,9.0,0.2,El_Perdon
Pamplona,06/07/2012,13.1,19.1,8.9,0.0,El_Perdon
Pamplona,07/07/2012,17.0,27.0,10.6,0.0,El_Perdon
Pamplona,08/07/2012,13.5,19.5,9.7,0.0,El_Perdon
Pamplona,09/07/2012,13.2,21.6,9.7,0.0,El_Perdon
Pamplona,10/07/2012,12.0,16.1,10.7,0.0,El_Perdon
Pamplona,11/07/2012,10.7,14.8,7.8,0.0,El_Perdon
Pamplona,12/07/2012,13.8,23.8,6.7,0.0,El_Perdon
Pamplona,13/07/2012,17.3,27.6,11.6,0.0,El_Perdon
Pamplona,14/07/2012,11.7,16.4,8.8,0.0,El_Perdon
Pamplona,15/07/2012,11.6,17.9,8.1,0.0,El_Perdon
Pamplona,16/07/2012,13.9,22.9,7.2,0.0,El_Perdon
Pamplona,17/07/2012,20.7,30.0,11.9,0.0,El_Perdon
Pamplona,18/07/2012,22.9,32.5,12.1,0.0,El_Perdon
Pamplona,19/07/2012,13.1,18.4,9.7,0.0,El_Perdon
Pamplona,20/07/2012,12.5,17.7,9.8,0.1,El_Perdon
Pamplona,21/07/2012,12.4,17.4,9.4,0.0,El_Perdon
Pamplona,22/07/2012,13.7,19.6,10.1,0.0,El_Perdon
Pamplona,23/07/2012,16.2,23.4,10.5,0.0,El_Perdon
Pamplona,24/07/2012,20.3,27.0,13.9,0.0,El_Perdon
Pamplona,25/07/2012,22.4,30.9,14.2,0.0,El_Perdon
Pamplona,26/07/2012,23.2,31.5,16.0,0.0,El_Perdon
Pamplona,27/07/2012,17.7,27.0,12.7,3.0,El_Perdon
Pamplona,28/07/2012,13.6,18.2,10.7,0.0,El_Perdon
Pamplona,29/07/2012,13.8,20.5,9.7,0.0,El_Perdon
Pamplona,30/07/2012,17.5,27.8,10.8,0.0,El_Perdon
Pamplona,31/07/2012,23.1,31.8,12.5,0.0,El_Perdon
Pamplona,01/08/2012,19.9,28.7,13.0,0.0,El_Perdon
Pamplona,02/08/2012,15.1,22.5,11.6,0.0,El_Perdon
Pamplona,03/08/2012,14.9,21.5,11.2,0.0,El_Perdon
Pamplona,04/08/2012,14.9,23.4,10.5,0.0,El_Perdon
Pamplona,05/08/2012,12.2,18.1,9.2,4.1,El_Perdon
Pamplona,06/08/2012,13.1,20.1,9.2,0.1,El_Perdon
Pamplona,07/08/2012,19.1,27.2,10.5,0.0,El_Perdon
Pamplona,08/08/2012,23.8,30.0,16.4,0.0,El_Perdon
Pamplona,09/08/2012,25.7,34.1,19.7,0.0,El_Perdon
Pamplona,10/08/2012,28.5,36.1,23.1,0.0,El_Perdon
Pamplona,11/08/2012,21.3,28.0,12.6,0.0,El_Perdon
Pamplona,12/08/2012,15.2,22.1,11.8,0.0,El_Perdon
Pamplona,13/08/2012,17.9,27.2,11.7,0.1,El_Perdon
Pamplona,14/08/2012,22.8,29.9,16.5,0.0,El_Perdon
Pamplona,15/08/2012,18.9,22.3,15.3,0.0,El_Perdon
Pamplona,16/08/2012,22.1,28.1,16.2,0.0,El_Perdon
Pamplona,17/08/2012,26.7,33.9,19.6,0.0,El_Perdon
Pamplona,18/08/2012,27.3,34.9,18.9,0.0,El_Perdon
Pamplona,19/08/2012,26.4,32.1,21.9,1.8,El_Perdon
Pamplona,20/08/2012,26.7,32.8,21.8,0.0,El_Perdon
Pamplona,21/08/2012,23.1,32.6,14.1,0.0,El_Perdon
Pamplona,22/08/2012,17.8,29.6,13.3,0.0,El_Perdon
Pamplona,23/08/2012,19.0,29.7,13.1,0.0,El_Perdon
Pamplona,24/08/2012,19.7,26.8,13.3,0.0,El_Perdon
Pamplona,25/08/2012,13.4,16.7,9.6,0.6,El_Perdon
Pamplona,26/08/2012,14.9,21.0,9.4,0.0,El_Perdon
Pamplona,27/08/2012,21.4,29.4,13.6,4.4,El_Perdon
Pamplona,28/08/2012,19.2,27.3,13.3,0.0,El_Perdon
Pamplona,29/08/2012,17.0,25.4,11.4,0.0,El_Perdon
Pamplona,30/08/2012,11.4,14.9,8.2,0.4,El_Perdon
Pamplona,31/08/2012,9.8,14.1,7.5,0.0,El_Perdon
Pamplona,01/09/2012,9.2,14.2,6.5,0.0,El_Perdon
Pamplona,02/09/2012,10.1,16.0,6.0,0.0,El_Perdon
Pamplona,03/09/2012,11.5,15.0,9.1,0.0,El_Perdon
Pamplona,04/09/2012,12.7,17.7,9.6,0.0,El_Perdon
Pamplona,05/09/2012,14.3,19.6,11.3,0.0,El_Perdon
Pamplona,06/09/2012,16.6,23.5,12.0,0.1,El_Perdon
Pamplona,07/09/2012,21.8,27.8,16.8,0.0,El_Perdon
Pamplona,08/09/2012,21.0,28.1,16.6,0.0,El_Perdon
Pamplona,09/09/2012,20.4,27.4,15.2,0.0,El_Perdon
Pamplona,10/09/2012,19.5,24.9,15.9,0.0,El_Perdon
Pamplona,11/09/2012,17.9,26.2,14.4,0.0,El_Perdon
Pamplona,12/09/2012,12.3,14.5,8.4,0.9,El_Perdon
Pamplona,13/09/2012,9.7,11.6,7.5,1.2,El_Perdon
Pamplona,14/09/2012,10.7,16.1,7.4,0.1,El_Perdon
Pamplona,15/09/2012,14.0,20.6,7.6,0.0,El_Perdon
Pamplona,16/09/2012,20.3,26.0,15.0,0.0,El_Perdon
Pamplona,17/09/2012,19.1,25.6,14.8,0.0,El_Perdon
Pamplona,18/09/2012,12.7,16.4,10.9,0.1,El_Perdon
Pamplona,19/09/2012,10.6,14.8,7.6,0.0,El_Perdon
Pamplona,20/09/2012,16.3,23.5,7.6,0.0,El_Perdon
Pamplona,21/09/2012,18.2,24.6,13.0,2.5,El_Perdon
Pamplona,22/09/2012,18.3,24.3,12.4,0.0,El_Perdon
Pamplona,23/09/2012,18.0,25.3,14.0,2.3,El_Perdon
Pamplona,24/09/2012,14.0,19.9,10.0,1.0,El_Perdon
Pamplona,25/09/2012,11.8,15.6,9.7,6.2,El_Perdon
Pamplona,26/09/2012,9.4,14.4,6.3,6.0,El_Perdon
Pamplona,27/09/2012,10.6,14.8,7.9,0.0,El_Perdon
Pamplona,28/09/2012,11.6,14.7,9.3,3.6,El_Perdon
Pamplona,29/09/2012,8.0,9.4,6.2,9.2,El_Perdon
Pamplona,30/09/2012,7.3,11.1,4.8,0.5,El_Perdon
Pamplona,01/10/2012,8.8,15.2,4.8,0.0,El_Perdon
Pamplona,02/10/2012,12.9,19.1,8.9,0.0,El_Perdon
Pamplona,03/10/2012,15.1,20.7,11.6,0.0,El_Perdon
Pamplona,04/10/2012,14.9,19.6,11.7,0.0,El_Perdon
Pamplona,05/10/2012,16.7,21.7,12.0,0.0,El_Perdon
Pamplona,06/10/2012,17.0,21.4,13.6,0.0,El_Perdon
Pamplona,07/10/2012,17.2,20.7,14.8,0.0,El_Perdon
Pamplona,08/10/2012,17.6,24.3,12.6,0.0,El_Perdon
Pamplona,09/10/2012,16.4,23.4,12.2,0.2,El_Perdon
Pamplona,10/10/2012,15.8,20.0,12.6,7.7,El_Perdon
Pamplona,11/10/2012,12.3,18.0,8.9,14.8,El_Perdon
Pamplona,12/10/2012,7.7,9.9,5.3,3.2,El_Perdon
Pamplona,13/10/2012,8.4,12.9,4.4,0.1,El_Perdon
Pamplona,14/10/2012,7.5,11.3,4.4,8.2,El_Perdon
Pamplona,15/10/2012,6.5,10.2,4.2,0.4,El_Perdon
Pamplona,16/10/2012,9.9,13.4,6.4,0.4,El_Perdon
Pamplona,17/10/2012,12.9,16.7,10.0,0.0,El_Perdon
Pamplona,18/10/2012,15.0,17.4,13.0,0.0,El_Perdon
Pamplona,19/10/2012,10.6,17.7,7.4,28.0,El_Perdon
Pamplona,20/10/2012,8.8,9.2,8.2,57.2,El_Perdon
Pamplona,21/10/2012,10.2,12.7,8.7,15.5,El_Perdon
Pamplona,22/10/2012,10.9,13.5,9.1,0.8,El_Perdon
Pamplona,23/10/2012,11.6,14.2,9.7,0.1,El_Perdon
Pamplona,24/10/2012,12.4,16.3,10.1,2.3,El_Perdon
Pamplona,25/10/2012,11.3,13.8,9.6,28.1,El_Perdon
Pamplona,26/10/2012,10.2,11.6,8.6,1.8,El_Perdon
Pamplona,27/10/2012,3.3,9.4,-2.7,9.2,El_Perdon
Pamplona,28/10/2012,-0.7,0.8,-2.5,2.7,El_Perdon
Pamplona,29/10/2012,3.2,8.2,-2.0,0.0,El_Perdon
Pamplona,30/10/2012,4.4,6.0,1.5,0.0,El_Perdon
Pamplona,31/10/2012,5.3,9.0,2.6,0.0,El_Perdon
Pamplona,01/11/2012,6.4,9.2,3.2,2.8,El_Perdon
Pamplona,02/11/2012,8.8,12.2,5.7,0.0,El_Perdon
Pamplona,03/11/2012,9.0,10.5,7.7,1.4,El_Perdon
Pamplona,04/11/2012,6.9,9.8,2.0,11.4,El_Perdon
Pamplona,05/11/2012,4.5,8.2,1.2,0.0,El_Perdon
Pamplona,06/11/2012,2.4,4.4,-0.4,0.7,El_Perdon
Pamplona,07/11/2012,3.2,7.9,-0.8,0.0,El_Perdon
Pamplona,08/11/2012,6.6,8.9,3.5,0.7,El_Perdon
Pamplona,09/11/2012,9.2,10.9,7.1,3.9,El_Perdon
Pamplona,10/11/2012,6.4,8.7,2.7,4.6,El_Perdon
Pamplona,11/11/2012,2.2,3.7,1.3,0.0,El_Perdon
Pamplona,12/11/2012,2.1,4.6,0.4,0.1,El_Perdon
Pamplona,13/11/2012,5.8,11.6,0.7,0.0,El_Perdon
Pamplona,14/11/2012,10.6,14.0,7.6,0.0,El_Perdon
Pamplona,15/11/2012,10.5,13.7,8.9,0.0,El_Perdon
Pamplona,16/11/2012,9.5,12.9,7.2,0.0,El_Perdon
Pamplona,17/11/2012,8.3,10.3,6.6,9.5,El_Perdon
Pamplona,18/11/2012,6.0,7.9,3.6,18.3,El_Perdon
Pamplona,19/11/2012,5.8,8.8,3.2,0.0,El_Perdon
Pamplona,20/11/2012,7.1,10.2,4.8,0.0,El_Perdon
Pamplona,21/11/2012,5.4,7.8,2.7,0.9,El_Perdon
Pamplona,22/11/2012,4.8,9.1,2.3,0.0,El_Perdon
Pamplona,23/11/2012,6.9,8.7,3.8,0.0,El_Perdon
Pamplona,24/11/2012,8.4,9.3,7.3,0.0,El_Perdon
Pamplona,25/11/2012,7.4,8.6,5.7,1.4,El_Perdon
Pamplona,26/11/2012,4.0,8.4,0.9,15.5,El_Perdon
Pamplona,27/11/2012,0.7,2.5,-0.4,0.2,El_Perdon
Pamplona,28/11/2012,-0.5,0.2,-1.5,27.5,El_Perdon
Pamplona,29/11/2012,-1.0,-0.6,-1.6,5.7,El_Perdon
Pamplona,30/11/2012,-2.7,-1.0,-3.6,0.0,El_Perdon
Pamplona,01/12/2012,-3.9,-2.2,-5.3,0.0,El_Perdon
Pamplona,02/12/2012,-0.1,3.1,-4.6,0.0,El_Perdon
Pamplona,03/12/2012,4.4,7.0,2.8,0.0,El_Perdon
Pamplona,04/12/2012,1.9,3.2,0.6,2.9,El_Perdon
Pamplona,05/12/2012,0.4,1.3,-0.6,7.5,El_Perdon
Pamplona,06/12/2012,1.5,4.4,-0.1,0.0,El_Perdon
Pamplona,07/12/2012,3.4,6.0,1.0,3.1,El_Perdon
Pamplona,08/12/2012,0.8,2.3,-0.6,3.1,El_Perdon
Pamplona,09/12/2012,-0.3,1.5,-2.1,0.0,El_Perdon
Pamplona,10/12/2012,0.1,2.1,-2.1,0.0,El_Perdon
Pamplona,11/12/2012,-0.3,2.3,-3.7,0.0,El_Perdon
Pamplona,12/12/2012,-1.2,0.9,-3.6,0.1,El_Perdon
Pamplona,13/12/2012,1.7,4.0,-1.4,4.5,El_Perdon
Pamplona,14/12/2012,5.3,7.0,3.2,8.8,El_Perdon
Pamplona,15/12/2012,6.7,8.5,5.0,0.0,El_Perdon
Pamplona,16/12/2012,5.9,7.3,4.6,3.0,El_Perdon
Pamplona,17/12/2012,4.8,7.1,3.4,0.0,El_Perdon
Pamplona,18/12/2012,5.3,7.5,3.0,1.3,El_Perdon
Pamplona,19/12/2012,7.0,8.1,5.6,0.0,El_Perdon
Pamplona,20/12/2012,5.9,7.0,4.8,1.0,El_Perdon
Pamplona,21/12/2012,5.8,8.7,4.1,0.2,El_Perdon
Pamplona,22/12/2012,8.4,11.7,4.4,0.0,El_Perdon
Pamplona,23/12/2012,8.1,11.2,6.4,0.0,El_Perdon
Pamplona,24/12/2012,10.3,12.3,8.9,0.0,El_Perdon
Pamplona,25/12/2012,6.6,10.3,2.8,0.1,El_Perdon
Pamplona,26/12/2012,4.0,6.3,2.6,0.4,El_Perdon
Pamplona,27/12/2012,4.9,7.6,2.6,0.0,El_Perdon
Pamplona,28/12/2012,6.2,9.3,4.5,0.2,El_Perdon
Pamplona,29/12/2012,4.2,7.1,1.5,0.0,El_Perdon
Pamplona,30/12/2012,3.4,6.0,1.3,0.0,El_Perdon
Pamplona,31/12/2012,1.9,3.8,-0.1,1.6,El_Perdon
