Comarca,Fecha, Temperatura media, Temperatura maxima, Temperatura minima, Precipitacion acumulada,Localidad
Pamplona,01/01/2016,7.7,12.7,-1.9,0.9,Etxarri-Aranaz
Pamplona,02/01/2016,5.8,9.6,-0.9,1.2,Etxarri-Aranaz
Pamplona,03/01/2016,6.6,10.3,-0.4,21.9,Etxarri-Aranaz
Pamplona,04/01/2016,6.8,7.7,5.5,20.8,Etxarri-Aranaz
Pamplona,05/01/2016,3.9,7.9,-0.4,1.3,Etxarri-Aranaz
Pamplona,06/01/2016,6.0,10.4,3.5,1.7,Etxarri-Aranaz
Pamplona,07/01/2016,13.1,14.8,10.8,1.2,Etxarri-Aranaz
Pamplona,08/01/2016,13.6,15.8,8.7,2.3,Etxarri-Aranaz
Pamplona,09/01/2016,10.2,13.0,6.7,0.2,Etxarri-Aranaz
Pamplona,10/01/2016,9.9,11.8,8.2,9.6,Etxarri-Aranaz
Pamplona,11/01/2016,8.9,11.9,6.6,1.9,Etxarri-Aranaz
Pamplona,12/01/2016,5.4,9.9,1.9,1.4,Etxarri-Aranaz
Pamplona,13/01/2016,2.7,8.1,-3.6,0.6,Etxarri-Aranaz
Pamplona,14/01/2016,7.0,9.1,4.4,8.8,Etxarri-Aranaz
Pamplona,15/01/2016,3.3,5.2,1.1,20.8,Etxarri-Aranaz
Pamplona,16/01/2016,2.1,5.4,0.2,7.7,Etxarri-Aranaz
Pamplona,17/01/2016,2.4,7.2,-2.6,1.1,Etxarri-Aranaz
Pamplona,18/01/2016,4.6,7.5,2.8,3.5,Etxarri-Aranaz
Pamplona,19/01/2016,4.5,9.6,-1.4,0.0,Etxarri-Aranaz
Pamplona,20/01/2016,2.0,10.9,-2.6,0.0,Etxarri-Aranaz
Pamplona,21/01/2016,1.5,11.7,-2.9,0.2,Etxarri-Aranaz
Pamplona,22/01/2016,6.0,11.2,1.3,0.9,Etxarri-Aranaz
Pamplona,23/01/2016,7.0,13.6,4.2,0.1,Etxarri-Aranaz
Pamplona,24/01/2016,10.0,15.9,5.4,0.3,Etxarri-Aranaz
Pamplona,25/01/2016,10.1,12.6,7.3,0.0,Etxarri-Aranaz
Pamplona,26/01/2016,8.0,12.2,3.7,0.0,Etxarri-Aranaz
Pamplona,27/01/2016,6.2,11.3,1.2,0.0,Etxarri-Aranaz
Pamplona,28/01/2016,7.4,10.8,5.6,3.5,Etxarri-Aranaz
Pamplona,29/01/2016,5.6,7.4,0.8,0.8,Etxarri-Aranaz
Pamplona,30/01/2016,4.3,10.6,0.3,0.1,Etxarri-Aranaz
Pamplona,31/01/2016,9.4,12.4,4.0,0.4,Etxarri-Aranaz
Pamplona,01/02/2016,9.6,12.1,4.1,0.0,Etxarri-Aranaz
Pamplona,02/02/2016,8.0,10.8,4.2,0.0,Etxarri-Aranaz
Pamplona,03/02/2016,6.3,8.9,2.5,15.8,Etxarri-Aranaz
Pamplona,04/02/2016,4.6,10.4,-1.3,1.2,Etxarri-Aranaz
Pamplona,05/02/2016,4.6,13.8,-2.5,0.1,Etxarri-Aranaz
Pamplona,06/02/2016,8.7,11.8,3.0,4.9,Etxarri-Aranaz
Pamplona,07/02/2016,5.7,9.9,1.9,4.7,Etxarri-Aranaz
Pamplona,08/02/2016,10.9,15.0,5.9,0.0,Etxarri-Aranaz
Pamplona,09/02/2016,10.2,13.4,4.8,22.6,Etxarri-Aranaz
Pamplona,10/02/2016,4.9,6.3,4.0,15.0,Etxarri-Aranaz
Pamplona,11/02/2016,5.6,7.4,4.3,4.3,Etxarri-Aranaz
Pamplona,12/02/2016,9.7,12.6,5.1,14.0,Etxarri-Aranaz
Pamplona,13/02/2016,11.3,17.1,8.2,21.0,Etxarri-Aranaz
Pamplona,14/02/2016,4.5,8.7,1.0,19.0,Etxarri-Aranaz
Pamplona,15/02/2016,1.3,3.6,-0.3,22.0,Etxarri-Aranaz
Pamplona,16/02/2016,1.8,3.5,-1.2,0.3,Etxarri-Aranaz
Pamplona,17/02/2016,1.0,6.6,-5.8,0.0,Etxarri-Aranaz
Pamplona,18/02/2016,1.9,4.6,-1.0,10.0,Etxarri-Aranaz
Pamplona,19/02/2016,2.6,9.3,-2.7,0.3,Etxarri-Aranaz
Pamplona,20/02/2016,3.0,14.5,-3.8,0.1,Etxarri-Aranaz
Pamplona,21/02/2016,6.9,16.3,-2.6,0.0,Etxarri-Aranaz
Pamplona,22/02/2016,7.7,14.0,0.2,0.0,Etxarri-Aranaz
Pamplona,23/02/2016,8.5,11.4,5.1,0.2,Etxarri-Aranaz
Pamplona,24/02/2016,6.2,14.5,0.1,1.1,Etxarri-Aranaz
Pamplona,25/02/2016,6.9,9.8,5.1,2.7,Etxarri-Aranaz
Pamplona,26/02/2016,6.4,12.9,-0.2,24.8,Etxarri-Aranaz
Pamplona,27/02/2016,0.9,2.6,-0.3,67.5,Etxarri-Aranaz
Pamplona,28/02/2016,4.8,6.8,0.7,32.1,Etxarri-Aranaz
Pamplona,29/02/2016,4.7,5.9,3.4,11.1,Etxarri-Aranaz
Pamplona,01/03/2016,6.1,11.0,2.1,0.0,Etxarri-Aranaz
Pamplona,02/03/2016,5.9,9.5,2.0,9.0,Etxarri-Aranaz
Pamplona,03/03/2016,5.3,6.4,4.1,10.6,Etxarri-Aranaz
Pamplona,04/03/2016,5.5,13.0,0.7,16.1,Etxarri-Aranaz
Pamplona,05/03/2016,2.1,4.7,0.1,14.5,Etxarri-Aranaz
Pamplona,06/03/2016,2.2,5.1,-0.1,16.3,Etxarri-Aranaz
Pamplona,07/03/2016,3.2,5.8,0.9,8.7,Etxarri-Aranaz
Pamplona,08/03/2016,3.5,7.5,0.0,4.5,Etxarri-Aranaz
Pamplona,09/03/2016,4.1,7.3,1.6,30.8,Etxarri-Aranaz
Pamplona,10/03/2016,2.7,5.0,-0.0,36.9,Etxarri-Aranaz
Pamplona,11/03/2016,4.7,7.0,2.6,4.9,Etxarri-Aranaz
Pamplona,12/03/2016,4.9,7.3,3.0,0.0,Etxarri-Aranaz
Pamplona,13/03/2016,6.0,9.4,0.8,2.1,Etxarri-Aranaz
Pamplona,14/03/2016,1.9,4.2,-0.0,4.4,Etxarri-Aranaz
Pamplona,15/03/2016,4.3,12.0,-1.3,0.1,Etxarri-Aranaz
Pamplona,16/03/2016,4.9,6.9,-1.4,13.8,Etxarri-Aranaz
Pamplona,17/03/2016,4.4,11.7,-1.2,0.4,Etxarri-Aranaz
Pamplona,18/03/2016,5.2,12.3,-2.4,0.1,Etxarri-Aranaz
Pamplona,19/03/2016,7.7,8.5,6.3,14.6,Etxarri-Aranaz
Pamplona,20/03/2016,8.0,12.8,1.2,0.9,Etxarri-Aranaz
Pamplona,21/03/2016,7.2,13.5,0.8,0.2,Etxarri-Aranaz
Pamplona,22/03/2016,7.0,9.3,5.2,0.1,Etxarri-Aranaz
Pamplona,23/03/2016,6.9,9.2,4.4,0.0,Etxarri-Aranaz
Pamplona,24/03/2016,7.0,11.3,0.8,0.0,Etxarri-Aranaz
Pamplona,25/03/2016,6.9,11.2,-0.6,0.0,Etxarri-Aranaz
Pamplona,26/03/2016,13.2,21.4,5.9,2.9,Etxarri-Aranaz
Pamplona,27/03/2016,9.5,15.0,3.3,2.5,Etxarri-Aranaz
Pamplona,28/03/2016,11.7,15.4,8.9,2.5,Etxarri-Aranaz
Pamplona,29/03/2016,12.0,18.1,6.9,1.7,Etxarri-Aranaz
Pamplona,30/03/2016,15.0,20.9,7.6,0.0,Etxarri-Aranaz
Pamplona,31/03/2016,6.8,14.4,4.0,33.8,Etxarri-Aranaz
Pamplona,01/04/2016,6.0,9.6,2.8,6.1,Etxarri-Aranaz
Pamplona,02/04/2016,8.3,15.6,-2.2,0.0,Etxarri-Aranaz
Pamplona,03/04/2016,10.7,16.7,6.4,3.7,Etxarri-Aranaz
Pamplona,04/04/2016,7.8,10.2,4.7,11.5,Etxarri-Aranaz
Pamplona,05/04/2016,7.9,10.1,6.7,5.4,Etxarri-Aranaz
Pamplona,06/04/2016,8.5,12.6,5.6,0.0,Etxarri-Aranaz
Pamplona,07/04/2016,6.5,8.8,2.6,11.9,Etxarri-Aranaz
Pamplona,08/04/2016,4.3,7.7,1.1,18.1,Etxarri-Aranaz
Pamplona,09/04/2016,6.6,10.9,3.5,1.5,Etxarri-Aranaz
Pamplona,10/04/2016,12.0,18.6,4.3,3.5,Etxarri-Aranaz
Pamplona,11/04/2016,8.2,15.1,2.8,4.1,Etxarri-Aranaz
Pamplona,12/04/2016,9.6,15.8,4.4,2.4,Etxarri-Aranaz
Pamplona,13/04/2016,10.2,17.5,2.2,0.0,Etxarri-Aranaz
Pamplona,14/04/2016,12.7,19.4,6.6,3.2,Etxarri-Aranaz
Pamplona,15/04/2016,14.0,21.6,8.7,0.8,Etxarri-Aranaz
Pamplona,16/04/2016,12.3,18.8,8.7,5.3,Etxarri-Aranaz
Pamplona,17/04/2016,10.0,16.4,5.4,0.2,Etxarri-Aranaz
Pamplona,18/04/2016,10.0,18.3,3.7,0.0,Etxarri-Aranaz
Pamplona,19/04/2016,12.6,16.8,3.1,0.0,Etxarri-Aranaz
Pamplona,20/04/2016,12.0,15.2,8.0,4.4,Etxarri-Aranaz
Pamplona,21/04/2016,12.5,19.1,4.8,0.1,Etxarri-Aranaz
Pamplona,22/04/2016,9.4,16.6,3.9,0.9,Etxarri-Aranaz
Pamplona,23/04/2016,8.9,14.5,3.0,1.6,Etxarri-Aranaz
Pamplona,24/04/2016,8.1,10.9,5.1,3.1,Etxarri-Aranaz
Pamplona,25/04/2016,7.3,11.7,4.2,0.0,Etxarri-Aranaz
Pamplona,26/04/2016,9.0,14.3,3.3,0.0,Etxarri-Aranaz
Pamplona,27/04/2016,8.8,12.3,6.0,0.0,Etxarri-Aranaz
Pamplona,28/04/2016,7.9,12.2,3.8,0.0,Etxarri-Aranaz
Pamplona,29/04/2016,9.8,19.6,-0.4,0.0,Etxarri-Aranaz
Pamplona,30/04/2016,6.8,9.8,3.9,5.7,Etxarri-Aranaz
Pamplona,01/05/2016,6.5,10.0,3.3,0.5,Etxarri-Aranaz
Pamplona,02/05/2016,8.2,16.4,-1.3,0.0,Etxarri-Aranaz
Pamplona,03/05/2016,8.8,16.0,-0.0,0.0,Etxarri-Aranaz
Pamplona,04/05/2016,13.6,25.8,-0.0,0.0,Etxarri-Aranaz
Pamplona,05/05/2016,17.7,25.2,9.1,0.0,Etxarri-Aranaz
Pamplona,06/05/2016,14.6,19.6,12.0,0.9,Etxarri-Aranaz
Pamplona,07/05/2016,13.3,19.1,11.2,12.1,Etxarri-Aranaz
Pamplona,08/05/2016,12.5,15.4,10.2,13.6,Etxarri-Aranaz
Pamplona,09/05/2016,12.9,20.3,7.9,26.9,Etxarri-Aranaz
Pamplona,10/05/2016,12.8,18.0,6.6,2.8,Etxarri-Aranaz
Pamplona,11/05/2016,12.6,19.2,6.3,0.4,Etxarri-Aranaz
Pamplona,12/05/2016,9.9,16.4,4.0,0.8,Etxarri-Aranaz
Pamplona,13/05/2016,10.5,13.4,7.9,3.2,Etxarri-Aranaz
Pamplona,14/05/2016,11.7,13.9,10.4,1.3,Etxarri-Aranaz
Pamplona,15/05/2016,12.0,15.4,10.2,1.3,Etxarri-Aranaz
Pamplona,16/05/2016,12.0,16.8,7.8,0.0,Etxarri-Aranaz
Pamplona,17/05/2016,13.0,20.5,6.3,0.0,Etxarri-Aranaz
Pamplona,18/05/2016,13.3,20.8,7.5,0.1,Etxarri-Aranaz
Pamplona,19/05/2016,11.7,14.2,9.3,2.5,Etxarri-Aranaz
Pamplona,20/05/2016,16.4,26.3,8.0,0.0,Etxarri-Aranaz
Pamplona,21/05/2016,18.5,27.0,7.1,0.0,Etxarri-Aranaz
Pamplona,22/05/2016,12.0,17.8,7.5,7.9,Etxarri-Aranaz
Pamplona,23/05/2016,10.5,16.6,4.3,0.0,Etxarri-Aranaz
Pamplona,24/05/2016,14.7,23.0,4.2,0.0,Etxarri-Aranaz
Pamplona,25/05/2016,16.2,21.8,11.7,0.7,Etxarri-Aranaz
Pamplona,26/05/2016,15.9,24.0,10.6,1.3,Etxarri-Aranaz
Pamplona,27/05/2016,17.8,25.8,12.3,1.3,Etxarri-Aranaz
Pamplona,28/05/2016,15.9,22.9,10.0,0.6,Etxarri-Aranaz
Pamplona,29/05/2016,13.1,17.9,9.5,11.0,Etxarri-Aranaz
Pamplona,30/05/2016,12.4,16.3,9.4,1.0,Etxarri-Aranaz
Pamplona,31/05/2016,13.4,17.1,10.6,0.2,Etxarri-Aranaz
Pamplona,01/06/2016,13.5,18.3,9.7,0.0,Etxarri-Aranaz
Pamplona,02/06/2016,14.7,20.4,9.3,0.0,Etxarri-Aranaz
Pamplona,03/06/2016,17.6,27.6,8.5,1.1,Etxarri-Aranaz
Pamplona,04/06/2016,16.6,19.9,11.2,0.0,Etxarri-Aranaz
Pamplona,05/06/2016,18.6,28.1,10.1,0.0,Etxarri-Aranaz
Pamplona,06/06/2016,18.6,26.0,11.9,7.9,Etxarri-Aranaz
Pamplona,07/06/2016,18.6,28.0,8.9,0.0,Etxarri-Aranaz
Pamplona,08/06/2016,20.7,29.2,12.6,0.0,Etxarri-Aranaz
Pamplona,09/06/2016,19.9,27.5,11.4,0.0,Etxarri-Aranaz
Pamplona,10/06/2016,15.3,17.4,12.0,0.9,Etxarri-Aranaz
Pamplona,11/06/2016,14.2,18.0,8.7,0.0,Etxarri-Aranaz
Pamplona,12/06/2016,15.6,23.2,7.2,0.0,Etxarri-Aranaz
Pamplona,13/06/2016,16.9,22.1,14.2,0.3,Etxarri-Aranaz
Pamplona,14/06/2016,15.6,21.7,11.2,4.1,Etxarri-Aranaz
Pamplona,15/06/2016,12.9,20.6,8.8,7.0,Etxarri-Aranaz
Pamplona,16/06/2016,11.1,17.4,8.1,2.7,Etxarri-Aranaz
Pamplona,17/06/2016,11.1,17.6,7.7,12.2,Etxarri-Aranaz
Pamplona,18/06/2016,11.3,14.2,9.0,3.2,Etxarri-Aranaz
Pamplona,19/06/2016,12.9,17.2,7.2,0.0,Etxarri-Aranaz
Pamplona,20/06/2016,16.3,25.2,6.0,0.0,Etxarri-Aranaz
Pamplona,21/06/2016,20.8,32.0,7.9,0.0,Etxarri-Aranaz
Pamplona,22/06/2016,26.5,32.0,18.2,0.0,Etxarri-Aranaz
Pamplona,23/06/2016,23.7,32.8,17.4,0.0,Etxarri-Aranaz
Pamplona,24/06/2016,17.3,19.4,14.9,6.2,Etxarri-Aranaz
Pamplona,25/06/2016,14.5,16.3,13.5,0.1,Etxarri-Aranaz
Pamplona,26/06/2016,14.2,16.7,12.5,0.0,Etxarri-Aranaz
Pamplona,27/06/2016,16.5,22.8,10.5,0.0,Etxarri-Aranaz
Pamplona,28/06/2016,17.8,26.6,12.2,0.0,Etxarri-Aranaz
Pamplona,29/06/2016,15.6,19.8,11.7,0.0,Etxarri-Aranaz
Pamplona,30/06/2016,17.8,25.4,9.6,0.0,Etxarri-Aranaz
Pamplona,01/07/2016,17.4,20.5,15.3,0.0,Etxarri-Aranaz
Pamplona,02/07/2016,16.0,18.1,13.2,0.0,Etxarri-Aranaz
Pamplona,03/07/2016,17.0,24.4,8.3,0.0,Etxarri-Aranaz
Pamplona,04/07/2016,18.9,28.5,13.6,1.0,Etxarri-Aranaz
Pamplona,05/07/2016,18.0,20.6,16.3,0.0,Etxarri-Aranaz
Pamplona,06/07/2016,20.2,27.4,15.6,0.0,Etxarri-Aranaz
Pamplona,07/07/2016,22.8,29.4,16.0,2.1,Etxarri-Aranaz
Pamplona,08/07/2016,20.2,25.6,15.1,0.0,Etxarri-Aranaz
Pamplona,09/07/2016,21.3,32.6,10.4,0.0,Etxarri-Aranaz
Pamplona,10/07/2016,21.9,29.9,15.7,0.3,Etxarri-Aranaz
Pamplona,11/07/2016,17.6,21.7,15.0,0.0,Etxarri-Aranaz
Pamplona,12/07/2016,15.3,18.5,12.9,0.0,Etxarri-Aranaz
Pamplona,13/07/2016,13.8,17.0,11.3,0.3,Etxarri-Aranaz
Pamplona,14/07/2016,13.6,17.6,10.1,0.0,Etxarri-Aranaz
Pamplona,15/07/2016,15.7,23.8,6.9,0.0,Etxarri-Aranaz
Pamplona,16/07/2016,17.7,27.7,7.2,0.0,Etxarri-Aranaz
Pamplona,17/07/2016,21.4,33.9,7.4,0.0,Etxarri-Aranaz
Pamplona,18/07/2016,27.3,34.8,17.0,0.0,Etxarri-Aranaz
Pamplona,19/07/2016,27.3,36.8,17.5,0.0,Etxarri-Aranaz
Pamplona,20/07/2016,21.3,26.3,16.8,6.5,Etxarri-Aranaz
Pamplona,21/07/2016,18.1,23.1,15.9,0.0,Etxarri-Aranaz
Pamplona,22/07/2016,17.0,18.9,15.3,0.2,Etxarri-Aranaz
Pamplona,23/07/2016,16.9,20.5,14.2,1.5,Etxarri-Aranaz
Pamplona,24/07/2016,17.2,21.3,13.3,0.0,Etxarri-Aranaz
Pamplona,25/07/2016,17.9,22.2,13.2,0.0,Etxarri-Aranaz
Pamplona,26/07/2016,20.2,25.3,17.2,0.0,Etxarri-Aranaz
Pamplona,27/07/2016,18.3,22.6,14.0,0.0,Etxarri-Aranaz
Pamplona,28/07/2016,18.9,25.9,12.6,0.0,Etxarri-Aranaz
Pamplona,29/07/2016,20.6,26.8,15.2,0.0,Etxarri-Aranaz
Pamplona,30/07/2016,20.7,27.6,17.5,0.0,Etxarri-Aranaz
Pamplona,31/07/2016,17.7,21.5,15.2,0.8,Etxarri-Aranaz
Pamplona,01/08/2016,17.0,22.4,11.5,0.0,Etxarri-Aranaz
Pamplona,02/08/2016,17.8,28.3,7.4,0.0,Etxarri-Aranaz
Pamplona,03/08/2016,19.6,29.6,9.1,0.0,Etxarri-Aranaz
Pamplona,04/08/2016,20.1,25.7,17.0,0.0,Etxarri-Aranaz
Pamplona,05/08/2016,18.0,22.5,14.3,0.3,Etxarri-Aranaz
Pamplona,06/08/2016,18.2,24.1,11.7,0.0,Etxarri-Aranaz
Pamplona,07/08/2016,19.2,30.1,9.7,0.0,Etxarri-Aranaz
Pamplona,08/08/2016,18.3,25.3,10.0,0.0,Etxarri-Aranaz
Pamplona,09/08/2016,17.3,21.3,13.7,0.2,Etxarri-Aranaz
Pamplona,10/08/2016,15.6,20.0,11.3,0.0,Etxarri-Aranaz
Pamplona,11/08/2016,15.4,20.0,9.8,0.0,Etxarri-Aranaz
Pamplona,12/08/2016,18.3,31.6,6.1,0.0,Etxarri-Aranaz
Pamplona,13/08/2016,22.2,34.4,10.0,0.0,Etxarri-Aranaz
Pamplona,14/08/2016,26.0,35.3,15.6,0.0,Etxarri-Aranaz
Pamplona,15/08/2016,25.3,35.3,15.9,0.0,Etxarri-Aranaz
Pamplona,16/08/2016,24.4,33.9,16.6,0.1,Etxarri-Aranaz
Pamplona,17/08/2016,20.8,27.2,17.9,0.0,Etxarri-Aranaz
Pamplona,18/08/2016,17.9,23.1,11.2,0.0,Etxarri-Aranaz
Pamplona,19/08/2016,18.7,30.6,9.9,1.6,Etxarri-Aranaz
Pamplona,20/08/2016,16.4,19.6,12.3,0.8,Etxarri-Aranaz
Pamplona,21/08/2016,15.4,22.4,8.3,0.0,Etxarri-Aranaz
Pamplona,22/08/2016,19.7,34.5,6.9,0.0,Etxarri-Aranaz
Pamplona,23/08/2016,24.8,37.3,13.1,0.0,Etxarri-Aranaz
Pamplona,24/08/2016,26.9,35.7,15.6,0.0,Etxarri-Aranaz
Pamplona,25/08/2016,28.0,35.4,21.5,0.0,Etxarri-Aranaz
Pamplona,26/08/2016,23.8,35.1,14.9,0.0,Etxarri-Aranaz
Pamplona,27/08/2016,25.8,36.3,15.0,0.0,Etxarri-Aranaz
Pamplona,28/08/2016,19.3,22.1,16.5,0.0,Etxarri-Aranaz
Pamplona,29/08/2016,17.2,20.7,15.7,0.0,Etxarri-Aranaz
Pamplona,30/08/2016,17.9,24.5,12.0,0.0,Etxarri-Aranaz
Pamplona,31/08/2016,17.1,25.3,8.7,0.0,Etxarri-Aranaz
Pamplona,01/09/2016,19.8,29.9,10.0,0.0,Etxarri-Aranaz
Pamplona,02/09/2016,21.5,33.9,12.5,0.0,Etxarri-Aranaz
Pamplona,03/09/2016,22.6,36.0,12.4,0.0,Etxarri-Aranaz
Pamplona,04/09/2016,22.2,33.9,12.5,0.0,Etxarri-Aranaz
Pamplona,05/09/2016,20.3,28.6,12.5,0.0,Etxarri-Aranaz
Pamplona,06/09/2016,21.3,33.1,10.6,0.0,Etxarri-Aranaz
Pamplona,07/09/2016,22.3,35.5,9.8,0.0,Etxarri-Aranaz
Pamplona,08/09/2016,18.7,21.1,16.8,0.0,Etxarri-Aranaz
Pamplona,09/09/2016,17.3,23.6,15.1,0.0,Etxarri-Aranaz
Pamplona,10/09/2016,19.5,27.8,10.9,0.0,Etxarri-Aranaz
Pamplona,11/09/2016,20.7,32.8,9.0,0.0,Etxarri-Aranaz
Pamplona,12/09/2016,27.0,33.5,17.0,0.0,Etxarri-Aranaz
Pamplona,13/09/2016,19.4,28.5,12.1,4.0,Etxarri-Aranaz
Pamplona,14/09/2016,11.9,19.9,6.7,1.0,Etxarri-Aranaz
Pamplona,15/09/2016,13.5,20.2,6.8,13.7,Etxarri-Aranaz
Pamplona,16/09/2016,14.1,17.8,12.0,8.5,Etxarri-Aranaz
Pamplona,17/09/2016,12.6,15.2,10.9,11.1,Etxarri-Aranaz
Pamplona,18/09/2016,12.6,16.0,10.7,6.1,Etxarri-Aranaz
Pamplona,19/09/2016,13.2,16.1,10.0,0.0,Etxarri-Aranaz
Pamplona,20/09/2016,14.3,19.3,7.8,0.1,Etxarri-Aranaz
Pamplona,21/09/2016,14.8,25.8,7.5,0.1,Etxarri-Aranaz
Pamplona,22/09/2016,17.1,25.0,11.9,0.0,Etxarri-Aranaz
Pamplona,23/09/2016,17.3,24.0,12.0,0.0,Etxarri-Aranaz
Pamplona,24/09/2016,20.0,26.1,10.1,0.0,Etxarri-Aranaz
Pamplona,25/09/2016,16.4,20.2,9.7,0.0,Etxarri-Aranaz
Pamplona,26/09/2016,15.1,24.2,8.7,0.0,Etxarri-Aranaz
Pamplona,27/09/2016,13.8,18.8,7.4,1.3,Etxarri-Aranaz
Pamplona,28/09/2016,18.6,25.5,13.0,0.1,Etxarri-Aranaz
Pamplona,29/09/2016,19.3,27.1,9.4,0.0,Etxarri-Aranaz
Pamplona,30/09/2016,17.9,27.6,8.9,2.3,Etxarri-Aranaz
Pamplona,01/10/2016,14.8,18.2,11.6,2.0,Etxarri-Aranaz
Pamplona,02/10/2016,14.7,22.9,7.6,0.0,Etxarri-Aranaz
Pamplona,03/10/2016,18.8,26.7,11.4,0.0,Etxarri-Aranaz
Pamplona,04/10/2016,19.8,26.9,12.4,0.0,Etxarri-Aranaz
Pamplona,05/10/2016,14.5,18.4,10.5,0.0,Etxarri-Aranaz
Pamplona,06/10/2016,14.3,19.8,5.1,0.0,Etxarri-Aranaz
Pamplona,07/10/2016,12.1,21.6,4.4,0.0,Etxarri-Aranaz
Pamplona,08/10/2016,11.6,16.9,6.6,0.0,Etxarri-Aranaz
Pamplona,09/10/2016,11.7,15.9,6.5,0.0,Etxarri-Aranaz
Pamplona,10/10/2016,8.4,17.1,0.9,0.0,Etxarri-Aranaz
Pamplona,11/10/2016,8.0,17.6,-1.4,0.0,Etxarri-Aranaz
Pamplona,12/10/2016,13.8,16.0,11.1,1.6,Etxarri-Aranaz
Pamplona,13/10/2016,13.0,16.4,11.4,4.5,Etxarri-Aranaz
Pamplona,14/10/2016,10.4,14.0,4.7,6.4,Etxarri-Aranaz
Pamplona,15/10/2016,12.5,19.7,3.3,0.0,Etxarri-Aranaz
Pamplona,16/10/2016,15.9,19.0,14.0,0.0,Etxarri-Aranaz
Pamplona,17/10/2016,15.4,18.6,13.1,4.0,Etxarri-Aranaz
Pamplona,18/10/2016,13.3,18.9,6.0,0.1,Etxarri-Aranaz
Pamplona,19/10/2016,8.9,17.5,3.4,0.0,Etxarri-Aranaz
Pamplona,20/10/2016,8.7,13.0,4.6,0.0,Etxarri-Aranaz
Pamplona,21/10/2016,7.1,15.8,-0.5,0.0,Etxarri-Aranaz
Pamplona,22/10/2016,13.0,15.9,5.7,0.0,Etxarri-Aranaz
Pamplona,23/10/2016,16.0,18.6,12.5,3.8,Etxarri-Aranaz
Pamplona,24/10/2016,13.5,17.3,9.9,0.1,Etxarri-Aranaz
Pamplona,25/10/2016,15.8,22.0,10.9,1.6,Etxarri-Aranaz
Pamplona,26/10/2016,15.1,21.5,8.1,0.1,Etxarri-Aranaz
Pamplona,27/10/2016,10.8,21.0,2.9,0.0,Etxarri-Aranaz
Pamplona,28/10/2016,8.4,22.1,0.6,0.0,Etxarri-Aranaz
Pamplona,29/10/2016,8.7,22.8,2.1,0.0,Etxarri-Aranaz
Pamplona,30/10/2016,8.7,25.6,1.0,0.0,Etxarri-Aranaz
Pamplona,31/10/2016,7.8,21.6,-1.0,0.0,Etxarri-Aranaz
Pamplona,01/11/2016,10.0,18.8,3.1,0.0,Etxarri-Aranaz
Pamplona,02/11/2016,9.3,22.6,2.6,0.0,Etxarri-Aranaz
Pamplona,03/11/2016,8.4,21.0,0.1,0.0,Etxarri-Aranaz
Pamplona,04/11/2016,8.3,13.1,1.5,2.7,Etxarri-Aranaz
Pamplona,05/11/2016,9.4,13.4,6.2,21.4,Etxarri-Aranaz
Pamplona,06/11/2016,5.3,7.2,3.3,4.9,Etxarri-Aranaz
Pamplona,07/11/2016,4.1,7.0,2.7,4.0,Etxarri-Aranaz
Pamplona,08/11/2016,4.2,6.4,2.1,11.2,Etxarri-Aranaz
Pamplona,09/11/2016,7.9,9.5,5.4,10.6,Etxarri-Aranaz
Pamplona,10/11/2016,8.5,12.1,5.0,0.1,Etxarri-Aranaz
Pamplona,11/11/2016,9.1,10.3,7.2,2.8,Etxarri-Aranaz
Pamplona,12/11/2016,8.4,12.7,4.8,9.0,Etxarri-Aranaz
Pamplona,13/11/2016,10.2,11.9,8.1,8.5,Etxarri-Aranaz
Pamplona,14/11/2016,8.9,10.5,7.6,0.2,Etxarri-Aranaz
Pamplona,15/11/2016,7.0,11.1,2.3,0.0,Etxarri-Aranaz
Pamplona,16/11/2016,6.1,14.8,0.3,0.0,Etxarri-Aranaz
Pamplona,17/11/2016,7.7,19.2,-0.1,0.0,Etxarri-Aranaz
Pamplona,18/11/2016,9.8,13.2,6.0,0.0,Etxarri-Aranaz
Pamplona,19/11/2016,9.0,13.5,4.5,0.1,Etxarri-Aranaz
Pamplona,20/11/2016,10.2,12.3,9.3,1.1,Etxarri-Aranaz
Pamplona,21/11/2016,10.1,15.2,4.0,6.9,Etxarri-Aranaz
Pamplona,22/11/2016,5.2,7.8,2.2,10.7,Etxarri-Aranaz
Pamplona,23/11/2016,2.1,5.8,0.1,44.1,Etxarri-Aranaz
Pamplona,24/11/2016,4.6,8.8,0.9,1.3,Etxarri-Aranaz
Pamplona,25/11/2016,3.4,9.4,-1.4,0.0,Etxarri-Aranaz
Pamplona,26/11/2016,7.5,9.3,4.5,1.3,Etxarri-Aranaz
Pamplona,27/11/2016,9.1,16.5,0.8,0.0,Etxarri-Aranaz
Pamplona,28/11/2016,5.4,10.2,-1.6,0.0,Etxarri-Aranaz
Pamplona,29/11/2016,8.7,12.4,5.7,0.0,Etxarri-Aranaz
Pamplona,30/11/2016,10.1,12.1,8.7,0.0,Etxarri-Aranaz
Pamplona,01/12/2016,7.3,13.7,-0.4,0.0,Etxarri-Aranaz
Pamplona,02/12/2016,2.6,9.9,-1.0,0.0,Etxarri-Aranaz
Pamplona,03/12/2016,4.6,11.0,-1.0,0.0,Etxarri-Aranaz
Pamplona,04/12/2016,10.9,12.4,8.6,2.7,Etxarri-Aranaz
Pamplona,05/12/2016,11.0,15.5,2.6,0.8,Etxarri-Aranaz
Pamplona,06/12/2016,0.0,0.0,0.0,0.0,Etxarri-Aranaz
Pamplona,07/12/2016,5.3,12.5,-0.1,0.0,Etxarri-Aranaz
Pamplona,08/12/2016,8.4,12.1,5.5,0.0,Etxarri-Aranaz
Pamplona,09/12/2016,6.3,12.6,-0.2,0.0,Etxarri-Aranaz
Pamplona,10/12/2016,3.8,5.7,1.6,0.0,Etxarri-Aranaz
Pamplona,11/12/2016,6.1,14.2,1.5,0.0,Etxarri-Aranaz
Pamplona,12/12/2016,5.6,15.3,-0.7,0.0,Etxarri-Aranaz
Pamplona,13/12/2016,4.6,12.0,-1.4,0.0,Etxarri-Aranaz
Pamplona,14/12/2016,6.2,9.7,1.2,0.0,Etxarri-Aranaz
Pamplona,15/12/2016,5.4,10.2,0.5,0.0,Etxarri-Aranaz
Pamplona,16/12/2016,7.8,10.3,2.6,1.5,Etxarri-Aranaz
Pamplona,17/12/2016,5.4,12.3,1.3,0.0,Etxarri-Aranaz
Pamplona,18/12/2016,1.8,4.4,-0.9,0.0,Etxarri-Aranaz
Pamplona,19/12/2016,3.2,8.1,-2.9,0.7,Etxarri-Aranaz
Pamplona,20/12/2016,5.0,6.0,4.3,3.5,Etxarri-Aranaz
Pamplona,21/12/2016,6.8,9.0,4.4,5.9,Etxarri-Aranaz
Pamplona,22/12/2016,7.0,8.3,5.3,4.5,Etxarri-Aranaz
Pamplona,23/12/2016,9.5,13.0,7.9,0.2,Etxarri-Aranaz
Pamplona,24/12/2016,9.6,11.2,7.9,3.6,Etxarri-Aranaz
Pamplona,25/12/2016,6.8,9.5,4.1,0.0,Etxarri-Aranaz
Pamplona,26/12/2016,4.7,8.7,-0.6,0.0,Etxarri-Aranaz
Pamplona,27/12/2016,3.0,11.4,-1.4,0.0,Etxarri-Aranaz
Pamplona,28/12/2016,3.0,14.0,-3.6,0.0,Etxarri-Aranaz
Pamplona,29/12/2016,-0.3,12.1,-6.1,0.0,Etxarri-Aranaz
Pamplona,30/12/2016,-2.1,7.2,-6.4,0.0,Etxarri-Aranaz
Pamplona,31/12/2016,0.7,6.3,-2.8,0.0,Etxarri-Aranaz
