Comarca,Fecha, Temperatura media, Temperatura maxima, Temperatura minima, Precipitacion acumulada,Localidad
Pamplona,01/01/2013,0.0,0.0,0.0,0.0,Noain
Pamplona,02/01/2013,0.0,0.0,0.0,0.0,Noain
Pamplona,03/01/2013,0.0,0.0,0.0,0.0,Noain
Pamplona,04/01/2013,0.0,0.0,0.0,0.0,Noain
Pamplona,05/01/2013,0.0,0.0,0.0,0.0,Noain
Pamplona,06/01/2013,0.0,0.0,0.0,0.0,Noain
Pamplona,07/01/2013,0.0,0.0,0.0,0.0,Noain
Pamplona,08/01/2013,0.0,0.0,0.0,0.0,Noain
Pamplona,09/01/2013,0.0,0.0,0.0,0.0,Noain
Pamplona,10/01/2013,0.0,0.0,0.0,0.0,Noain
Pamplona,11/01/2013,0.0,0.0,0.0,0.0,Noain
Pamplona,12/01/2013,0.0,0.0,0.0,0.0,Noain
Pamplona,13/01/2013,0.0,0.0,0.0,0.0,Noain
Pamplona,14/01/2013,0.0,0.0,0.0,0.0,Noain
Pamplona,15/01/2013,0.0,0.0,0.0,0.0,Noain
Pamplona,16/01/2013,0.0,0.0,0.0,0.0,Noain
Pamplona,17/01/2013,0.0,0.0,0.0,0.0,Noain
Pamplona,18/01/2013,0.0,0.0,0.0,0.0,Noain
Pamplona,19/01/2013,0.0,0.0,0.0,0.0,Noain
Pamplona,20/01/2013,0.0,0.0,0.0,0.0,Noain
Pamplona,21/01/2013,0.0,0.0,0.0,0.0,Noain
Pamplona,22/01/2013,0.0,0.0,0.0,0.0,Noain
Pamplona,23/01/2013,0.0,0.0,0.0,0.0,Noain
Pamplona,24/01/2013,0.0,0.0,0.0,0.0,Noain
Pamplona,25/01/2013,0.0,0.0,0.0,0.0,Noain
Pamplona,26/01/2013,0.0,0.0,0.0,0.0,Noain
Pamplona,27/01/2013,0.0,0.0,0.0,0.0,Noain
Pamplona,28/01/2013,0.0,0.0,0.0,0.0,Noain
Pamplona,29/01/2013,0.0,0.0,0.0,0.0,Noain
Pamplona,30/01/2013,0.0,0.0,0.0,0.0,Noain
Pamplona,31/01/2013,0.0,0.0,0.0,0.0,Noain
Pamplona,01/02/2013,0.0,0.0,0.0,0.0,Noain
Pamplona,02/02/2013,0.0,0.0,0.0,0.0,Noain
Pamplona,03/02/2013,0.0,0.0,0.0,0.0,Noain
Pamplona,04/02/2013,0.0,0.0,0.0,0.0,Noain
Pamplona,05/02/2013,0.0,0.0,0.0,0.0,Noain
Pamplona,06/02/2013,0.0,0.0,0.0,0.0,Noain
Pamplona,07/02/2013,0.0,0.0,0.0,0.0,Noain
Pamplona,08/02/2013,0.0,0.0,0.0,0.0,Noain
Pamplona,09/02/2013,0.0,0.0,0.0,0.0,Noain
Pamplona,10/02/2013,0.0,0.0,0.0,0.0,Noain
Pamplona,11/02/2013,0.0,0.0,0.0,0.0,Noain
Pamplona,12/02/2013,0.0,0.0,0.0,0.0,Noain
Pamplona,13/02/2013,0.0,0.0,0.0,0.0,Noain
Pamplona,14/02/2013,0.0,0.0,0.0,0.0,Noain
Pamplona,15/02/2013,0.0,0.0,0.0,0.0,Noain
Pamplona,16/02/2013,0.0,0.0,0.0,0.0,Noain
Pamplona,17/02/2013,0.0,0.0,0.0,0.0,Noain
Pamplona,18/02/2013,0.0,0.0,0.0,0.0,Noain
Pamplona,19/02/2013,0.0,0.0,0.0,0.0,Noain
Pamplona,20/02/2013,0.0,0.0,0.0,0.0,Noain
Pamplona,21/02/2013,0.0,0.0,0.0,0.0,Noain
Pamplona,22/02/2013,0.0,0.0,0.0,0.0,Noain
Pamplona,23/02/2013,0.0,0.0,0.0,0.0,Noain
Pamplona,24/02/2013,0.0,0.0,0.0,0.0,Noain
Pamplona,25/02/2013,0.0,0.0,0.0,0.0,Noain
Pamplona,26/02/2013,0.0,0.0,0.0,0.0,Noain
Pamplona,27/02/2013,0.0,0.0,0.0,0.0,Noain
Pamplona,28/02/2013,0.0,0.0,0.0,0.0,Noain
Pamplona,01/03/2013,0.0,0.0,0.0,0.0,Noain
Pamplona,02/03/2013,0.0,0.0,0.0,0.0,Noain
Pamplona,03/03/2013,0.0,0.0,0.0,0.0,Noain
Pamplona,04/03/2013,0.0,0.0,0.0,0.0,Noain
Pamplona,05/03/2013,0.0,0.0,0.0,0.0,Noain
Pamplona,06/03/2013,0.0,0.0,0.0,0.0,Noain
Pamplona,07/03/2013,0.0,0.0,0.0,0.0,Noain
Pamplona,08/03/2013,0.0,0.0,0.0,0.0,Noain
Pamplona,09/03/2013,0.0,0.0,0.0,0.0,Noain
Pamplona,10/03/2013,0.0,0.0,0.0,0.0,Noain
Pamplona,11/03/2013,0.0,0.0,0.0,0.0,Noain
Pamplona,12/03/2013,0.0,0.0,0.0,0.0,Noain
Pamplona,13/03/2013,0.0,0.0,0.0,0.0,Noain
Pamplona,14/03/2013,0.0,0.0,0.0,0.0,Noain
Pamplona,15/03/2013,0.0,0.0,0.0,0.0,Noain
Pamplona,16/03/2013,0.0,0.0,0.0,0.0,Noain
Pamplona,17/03/2013,0.0,0.0,0.0,0.0,Noain
Pamplona,18/03/2013,0.0,0.0,0.0,0.0,Noain
Pamplona,19/03/2013,0.0,0.0,0.0,0.0,Noain
Pamplona,20/03/2013,0.0,0.0,0.0,0.0,Noain
Pamplona,21/03/2013,0.0,0.0,0.0,0.0,Noain
Pamplona,22/03/2013,0.0,0.0,0.0,0.0,Noain
Pamplona,23/03/2013,0.0,0.0,0.0,0.0,Noain
Pamplona,24/03/2013,0.0,0.0,0.0,0.0,Noain
Pamplona,25/03/2013,0.0,0.0,0.0,0.0,Noain
Pamplona,26/03/2013,0.0,0.0,0.0,0.0,Noain
Pamplona,27/03/2013,0.0,0.0,0.0,0.0,Noain
Pamplona,28/03/2013,0.0,0.0,0.0,0.0,Noain
Pamplona,29/03/2013,0.0,0.0,0.0,0.0,Noain
Pamplona,30/03/2013,0.0,0.0,0.0,0.0,Noain
Pamplona,31/03/2013,0.0,0.0,0.0,0.0,Noain
Pamplona,01/04/2013,0.0,0.0,0.0,0.0,Noain
Pamplona,02/04/2013,0.0,0.0,0.0,0.0,Noain
Pamplona,03/04/2013,0.0,0.0,0.0,0.0,Noain
Pamplona,04/04/2013,0.0,0.0,0.0,0.0,Noain
Pamplona,05/04/2013,0.0,0.0,0.0,0.0,Noain
Pamplona,06/04/2013,0.0,0.0,0.0,0.0,Noain
Pamplona,07/04/2013,0.0,0.0,0.0,0.0,Noain
Pamplona,08/04/2013,0.0,0.0,0.0,0.0,Noain
Pamplona,09/04/2013,0.0,0.0,0.0,0.0,Noain
Pamplona,10/04/2013,0.0,0.0,0.0,0.0,Noain
Pamplona,11/04/2013,0.0,0.0,0.0,0.0,Noain
Pamplona,12/04/2013,0.0,0.0,0.0,0.0,Noain
Pamplona,13/04/2013,0.0,0.0,0.0,0.0,Noain
Pamplona,14/04/2013,0.0,0.0,0.0,0.0,Noain
Pamplona,15/04/2013,0.0,0.0,0.0,0.0,Noain
Pamplona,16/04/2013,0.0,0.0,0.0,0.0,Noain
Pamplona,17/04/2013,0.0,0.0,0.0,0.0,Noain
Pamplona,18/04/2013,0.0,0.0,0.0,0.0,Noain
Pamplona,19/04/2013,0.0,0.0,0.0,0.0,Noain
Pamplona,20/04/2013,0.0,0.0,0.0,0.0,Noain
Pamplona,21/04/2013,0.0,0.0,0.0,0.0,Noain
Pamplona,22/04/2013,0.0,0.0,0.0,0.0,Noain
Pamplona,23/04/2013,0.0,0.0,0.0,0.0,Noain
Pamplona,24/04/2013,0.0,0.0,0.0,0.0,Noain
Pamplona,25/04/2013,0.0,0.0,0.0,0.0,Noain
Pamplona,26/04/2013,0.0,0.0,0.0,0.0,Noain
Pamplona,27/04/2013,0.0,0.0,0.0,0.0,Noain
Pamplona,28/04/2013,0.0,0.0,0.0,0.0,Noain
Pamplona,29/04/2013,0.0,0.0,0.0,0.0,Noain
Pamplona,30/04/2013,0.0,0.0,0.0,0.0,Noain
Pamplona,01/05/2013,0.0,0.0,0.0,0.0,Noain
Pamplona,02/05/2013,0.0,0.0,0.0,0.0,Noain
Pamplona,03/05/2013,0.0,0.0,0.0,0.0,Noain
Pamplona,04/05/2013,0.0,0.0,0.0,0.0,Noain
Pamplona,05/05/2013,0.0,0.0,0.0,0.0,Noain
Pamplona,06/05/2013,0.0,0.0,0.0,0.0,Noain
Pamplona,07/05/2013,0.0,0.0,0.0,0.0,Noain
Pamplona,08/05/2013,0.0,0.0,0.0,0.0,Noain
Pamplona,09/05/2013,0.0,0.0,0.0,0.0,Noain
Pamplona,10/05/2013,0.0,0.0,0.0,0.0,Noain
Pamplona,11/05/2013,0.0,0.0,0.0,0.0,Noain
Pamplona,12/05/2013,0.0,0.0,0.0,0.0,Noain
Pamplona,13/05/2013,0.0,0.0,0.0,0.0,Noain
Pamplona,14/05/2013,0.0,0.0,0.0,0.0,Noain
Pamplona,15/05/2013,0.0,0.0,0.0,0.0,Noain
Pamplona,16/05/2013,0.0,0.0,0.0,0.0,Noain
Pamplona,17/05/2013,0.0,0.0,0.0,0.0,Noain
Pamplona,18/05/2013,0.0,0.0,0.0,0.0,Noain
Pamplona,19/05/2013,0.0,0.0,0.0,0.0,Noain
Pamplona,20/05/2013,0.0,0.0,0.0,0.0,Noain
Pamplona,21/05/2013,0.0,0.0,0.0,0.0,Noain
Pamplona,22/05/2013,0.0,0.0,0.0,0.0,Noain
Pamplona,23/05/2013,0.0,0.0,0.0,0.0,Noain
Pamplona,24/05/2013,0.0,0.0,0.0,0.0,Noain
Pamplona,25/05/2013,0.0,0.0,0.0,0.0,Noain
Pamplona,26/05/2013,0.0,0.0,0.0,0.0,Noain
Pamplona,27/05/2013,0.0,0.0,0.0,0.0,Noain
Pamplona,28/05/2013,0.0,0.0,0.0,0.0,Noain
Pamplona,29/05/2013,0.0,0.0,0.0,0.0,Noain
Pamplona,30/05/2013,0.0,0.0,0.0,0.0,Noain
Pamplona,31/05/2013,0.0,0.0,0.0,0.0,Noain
Pamplona,01/06/2013,0.0,0.0,0.0,0.0,Noain
Pamplona,02/06/2013,0.0,0.0,0.0,0.0,Noain
Pamplona,03/06/2013,0.0,0.0,0.0,0.0,Noain
Pamplona,04/06/2013,0.0,0.0,0.0,0.0,Noain
Pamplona,05/06/2013,0.0,0.0,0.0,0.0,Noain
Pamplona,06/06/2013,0.0,0.0,0.0,0.0,Noain
Pamplona,07/06/2013,0.0,0.0,0.0,0.0,Noain
Pamplona,08/06/2013,0.0,0.0,0.0,0.0,Noain
Pamplona,09/06/2013,0.0,0.0,0.0,0.0,Noain
Pamplona,10/06/2013,0.0,0.0,0.0,0.0,Noain
Pamplona,11/06/2013,0.0,0.0,0.0,0.0,Noain
Pamplona,12/06/2013,0.0,0.0,0.0,0.0,Noain
Pamplona,13/06/2013,0.0,0.0,0.0,0.0,Noain
Pamplona,14/06/2013,0.0,0.0,0.0,0.0,Noain
Pamplona,15/06/2013,0.0,0.0,0.0,0.0,Noain
Pamplona,16/06/2013,0.0,0.0,0.0,0.0,Noain
Pamplona,17/06/2013,0.0,0.0,0.0,0.0,Noain
Pamplona,18/06/2013,0.0,0.0,0.0,0.0,Noain
Pamplona,19/06/2013,0.0,0.0,0.0,0.0,Noain
Pamplona,20/06/2013,0.0,0.0,0.0,0.0,Noain
Pamplona,21/06/2013,0.0,0.0,0.0,0.0,Noain
Pamplona,22/06/2013,0.0,0.0,0.0,0.0,Noain
Pamplona,23/06/2013,0.0,0.0,0.0,0.0,Noain
Pamplona,24/06/2013,0.0,0.0,0.0,0.0,Noain
Pamplona,25/06/2013,0.0,0.0,0.0,0.0,Noain
Pamplona,26/06/2013,0.0,0.0,0.0,0.0,Noain
Pamplona,27/06/2013,0.0,0.0,0.0,0.0,Noain
Pamplona,28/06/2013,0.0,0.0,0.0,0.0,Noain
Pamplona,29/06/2013,0.0,0.0,0.0,0.0,Noain
Pamplona,30/06/2013,0.0,0.0,0.0,0.0,Noain
Pamplona,01/07/2013,0.0,0.0,0.0,0.0,Noain
Pamplona,02/07/2013,0.0,0.0,0.0,0.0,Noain
Pamplona,03/07/2013,0.0,0.0,0.0,0.0,Noain
Pamplona,04/07/2013,0.0,0.0,0.0,0.0,Noain
Pamplona,05/07/2013,0.0,0.0,0.0,0.0,Noain
Pamplona,06/07/2013,0.0,0.0,0.0,0.0,Noain
Pamplona,07/07/2013,0.0,0.0,0.0,0.0,Noain
Pamplona,08/07/2013,0.0,0.0,0.0,0.0,Noain
Pamplona,09/07/2013,0.0,0.0,0.0,0.0,Noain
Pamplona,10/07/2013,0.0,0.0,0.0,0.0,Noain
Pamplona,11/07/2013,0.0,0.0,0.0,0.0,Noain
Pamplona,12/07/2013,0.0,0.0,0.0,0.0,Noain
Pamplona,13/07/2013,0.0,0.0,0.0,0.0,Noain
Pamplona,14/07/2013,0.0,0.0,0.0,0.0,Noain
Pamplona,15/07/2013,0.0,0.0,0.0,0.0,Noain
Pamplona,16/07/2013,0.0,0.0,0.0,0.0,Noain
Pamplona,17/07/2013,0.0,0.0,0.0,0.0,Noain
Pamplona,18/07/2013,0.0,0.0,0.0,0.0,Noain
Pamplona,19/07/2013,0.0,0.0,0.0,0.0,Noain
Pamplona,20/07/2013,0.0,0.0,0.0,0.0,Noain
Pamplona,21/07/2013,0.0,0.0,0.0,0.0,Noain
Pamplona,22/07/2013,0.0,0.0,0.0,0.0,Noain
Pamplona,23/07/2013,0.0,0.0,0.0,0.0,Noain
Pamplona,24/07/2013,0.0,0.0,0.0,0.0,Noain
Pamplona,25/07/2013,0.0,0.0,0.0,0.0,Noain
Pamplona,26/07/2013,0.0,0.0,0.0,0.0,Noain
Pamplona,27/07/2013,0.0,0.0,0.0,0.0,Noain
Pamplona,28/07/2013,0.0,0.0,0.0,0.0,Noain
Pamplona,29/07/2013,0.0,0.0,0.0,0.0,Noain
Pamplona,30/07/2013,0.0,0.0,0.0,0.0,Noain
Pamplona,31/07/2013,0.0,0.0,0.0,0.0,Noain
Pamplona,01/08/2013,0.0,0.0,0.0,0.0,Noain
Pamplona,02/08/2013,0.0,0.0,0.0,0.0,Noain
Pamplona,03/08/2013,0.0,0.0,0.0,0.0,Noain
Pamplona,04/08/2013,0.0,0.0,0.0,0.0,Noain
Pamplona,05/08/2013,0.0,0.0,0.0,0.0,Noain
Pamplona,06/08/2013,0.0,0.0,0.0,0.0,Noain
Pamplona,07/08/2013,0.0,0.0,0.0,0.0,Noain
Pamplona,08/08/2013,0.0,0.0,0.0,0.0,Noain
Pamplona,09/08/2013,0.0,0.0,0.0,0.0,Noain
Pamplona,10/08/2013,0.0,0.0,0.0,0.0,Noain
Pamplona,11/08/2013,0.0,0.0,0.0,0.0,Noain
Pamplona,12/08/2013,0.0,0.0,0.0,0.0,Noain
Pamplona,13/08/2013,0.0,0.0,0.0,0.0,Noain
Pamplona,14/08/2013,0.0,0.0,0.0,0.0,Noain
Pamplona,15/08/2013,0.0,0.0,0.0,0.0,Noain
Pamplona,16/08/2013,0.0,0.0,0.0,0.0,Noain
Pamplona,17/08/2013,0.0,0.0,0.0,0.0,Noain
Pamplona,18/08/2013,0.0,0.0,0.0,0.0,Noain
Pamplona,19/08/2013,0.0,0.0,0.0,0.0,Noain
Pamplona,20/08/2013,0.0,0.0,0.0,0.0,Noain
Pamplona,21/08/2013,0.0,0.0,0.0,0.0,Noain
Pamplona,22/08/2013,0.0,0.0,0.0,0.0,Noain
Pamplona,23/08/2013,0.0,0.0,0.0,0.0,Noain
Pamplona,24/08/2013,0.0,0.0,0.0,0.0,Noain
Pamplona,25/08/2013,0.0,0.0,0.0,0.0,Noain
Pamplona,26/08/2013,0.0,0.0,0.0,0.0,Noain
Pamplona,27/08/2013,0.0,0.0,0.0,0.0,Noain
Pamplona,28/08/2013,0.0,0.0,0.0,0.0,Noain
Pamplona,29/08/2013,0.0,0.0,0.0,0.0,Noain
Pamplona,30/08/2013,0.0,0.0,0.0,0.0,Noain
Pamplona,31/08/2013,0.0,0.0,0.0,0.0,Noain
Pamplona,01/09/2013,0.0,0.0,0.0,0.0,Noain
Pamplona,02/09/2013,0.0,0.0,0.0,0.0,Noain
Pamplona,03/09/2013,0.0,0.0,0.0,0.0,Noain
Pamplona,04/09/2013,0.0,0.0,0.0,0.0,Noain
Pamplona,05/09/2013,0.0,0.0,0.0,0.0,Noain
Pamplona,06/09/2013,0.0,0.0,0.0,0.0,Noain
Pamplona,07/09/2013,0.0,0.0,0.0,0.0,Noain
Pamplona,08/09/2013,0.0,0.0,0.0,0.0,Noain
Pamplona,09/09/2013,0.0,0.0,0.0,0.0,Noain
Pamplona,10/09/2013,0.0,0.0,0.0,0.0,Noain
Pamplona,11/09/2013,0.0,0.0,0.0,0.0,Noain
Pamplona,12/09/2013,0.0,0.0,0.0,0.0,Noain
Pamplona,13/09/2013,0.0,0.0,0.0,0.0,Noain
Pamplona,14/09/2013,0.0,0.0,0.0,0.0,Noain
Pamplona,15/09/2013,0.0,0.0,0.0,0.0,Noain
Pamplona,16/09/2013,0.0,0.0,0.0,0.0,Noain
Pamplona,17/09/2013,0.0,0.0,0.0,0.0,Noain
Pamplona,18/09/2013,0.0,0.0,0.0,0.0,Noain
Pamplona,19/09/2013,0.0,0.0,0.0,0.0,Noain
Pamplona,20/09/2013,0.0,0.0,0.0,0.0,Noain
Pamplona,21/09/2013,0.0,0.0,0.0,0.0,Noain
Pamplona,22/09/2013,0.0,0.0,0.0,0.0,Noain
Pamplona,23/09/2013,0.0,0.0,0.0,0.0,Noain
Pamplona,24/09/2013,0.0,0.0,0.0,0.0,Noain
Pamplona,25/09/2013,0.0,0.0,0.0,0.0,Noain
Pamplona,26/09/2013,0.0,0.0,0.0,0.0,Noain
Pamplona,27/09/2013,0.0,0.0,0.0,0.0,Noain
Pamplona,28/09/2013,0.0,0.0,0.0,0.0,Noain
Pamplona,29/09/2013,0.0,0.0,0.0,0.0,Noain
Pamplona,30/09/2013,0.0,0.0,0.0,0.0,Noain
Pamplona,01/10/2013,0.0,0.0,0.0,0.0,Noain
Pamplona,02/10/2013,0.0,0.0,0.0,0.0,Noain
Pamplona,03/10/2013,0.0,0.0,0.0,0.0,Noain
Pamplona,04/10/2013,0.0,0.0,0.0,0.0,Noain
Pamplona,05/10/2013,0.0,0.0,0.0,0.0,Noain
Pamplona,06/10/2013,0.0,0.0,0.0,0.0,Noain
Pamplona,07/10/2013,0.0,0.0,0.0,0.0,Noain
Pamplona,08/10/2013,0.0,0.0,0.0,0.0,Noain
Pamplona,09/10/2013,0.0,0.0,0.0,0.0,Noain
Pamplona,10/10/2013,0.0,0.0,0.0,0.0,Noain
Pamplona,11/10/2013,0.0,0.0,0.0,0.0,Noain
Pamplona,12/10/2013,0.0,0.0,0.0,0.0,Noain
Pamplona,13/10/2013,0.0,0.0,0.0,0.0,Noain
Pamplona,14/10/2013,0.0,0.0,0.0,0.0,Noain
Pamplona,15/10/2013,0.0,0.0,0.0,0.0,Noain
Pamplona,16/10/2013,0.0,0.0,0.0,0.0,Noain
Pamplona,17/10/2013,0.0,0.0,0.0,0.0,Noain
Pamplona,18/10/2013,0.0,0.0,0.0,0.0,Noain
Pamplona,19/10/2013,0.0,0.0,0.0,0.0,Noain
Pamplona,20/10/2013,0.0,0.0,0.0,0.0,Noain
Pamplona,21/10/2013,0.0,0.0,0.0,0.0,Noain
Pamplona,22/10/2013,0.0,0.0,0.0,0.0,Noain
Pamplona,23/10/2013,0.0,0.0,0.0,0.0,Noain
Pamplona,24/10/2013,0.0,0.0,0.0,0.0,Noain
Pamplona,25/10/2013,0.0,0.0,0.0,0.0,Noain
Pamplona,26/10/2013,0.0,0.0,0.0,0.0,Noain
Pamplona,27/10/2013,0.0,0.0,0.0,0.0,Noain
Pamplona,28/10/2013,0.0,0.0,0.0,0.0,Noain
Pamplona,29/10/2013,0.0,0.0,0.0,0.0,Noain
Pamplona,30/10/2013,0.0,0.0,0.0,0.0,Noain
Pamplona,31/10/2013,0.0,0.0,0.0,0.0,Noain
Pamplona,01/11/2013,0.0,0.0,0.0,0.0,Noain
Pamplona,02/11/2013,0.0,0.0,0.0,0.0,Noain
Pamplona,03/11/2013,0.0,0.0,0.0,0.0,Noain
Pamplona,04/11/2013,0.0,0.0,0.0,0.0,Noain
Pamplona,05/11/2013,0.0,0.0,0.0,0.0,Noain
Pamplona,06/11/2013,0.0,0.0,0.0,0.0,Noain
Pamplona,07/11/2013,0.0,0.0,0.0,0.0,Noain
Pamplona,08/11/2013,0.0,0.0,0.0,0.0,Noain
Pamplona,09/11/2013,0.0,0.0,0.0,0.0,Noain
Pamplona,10/11/2013,0.0,0.0,0.0,0.0,Noain
Pamplona,11/11/2013,0.0,0.0,0.0,0.0,Noain
Pamplona,12/11/2013,0.0,0.0,0.0,0.0,Noain
Pamplona,13/11/2013,0.0,0.0,0.0,0.0,Noain
Pamplona,14/11/2013,0.0,0.0,0.0,0.0,Noain
Pamplona,15/11/2013,0.0,0.0,0.0,0.0,Noain
Pamplona,16/11/2013,0.0,0.0,0.0,0.0,Noain
Pamplona,17/11/2013,0.0,0.0,0.0,0.0,Noain
Pamplona,18/11/2013,0.0,0.0,0.0,0.0,Noain
Pamplona,19/11/2013,0.0,0.0,0.0,0.0,Noain
Pamplona,20/11/2013,0.0,0.0,0.0,0.0,Noain
Pamplona,21/11/2013,0.0,0.0,0.0,0.0,Noain
Pamplona,22/11/2013,0.0,0.0,0.0,0.0,Noain
Pamplona,23/11/2013,0.0,0.0,0.0,0.0,Noain
Pamplona,24/11/2013,0.0,0.0,0.0,0.0,Noain
Pamplona,25/11/2013,0.0,0.0,0.0,0.0,Noain
Pamplona,26/11/2013,0.0,0.0,0.0,0.0,Noain
Pamplona,27/11/2013,0.0,0.0,0.0,0.0,Noain
Pamplona,28/11/2013,0.0,0.0,0.0,0.0,Noain
Pamplona,29/11/2013,0.0,0.0,0.0,0.0,Noain
Pamplona,30/11/2013,0.0,0.0,0.0,0.0,Noain
Pamplona,01/12/2013,0.0,0.0,0.0,0.0,Noain
Pamplona,02/12/2013,0.0,0.0,0.0,0.0,Noain
Pamplona,03/12/2013,0.0,0.0,0.0,0.0,Noain
Pamplona,04/12/2013,0.0,0.0,0.0,0.0,Noain
Pamplona,05/12/2013,0.0,0.0,0.0,0.0,Noain
Pamplona,06/12/2013,0.0,0.0,0.0,0.0,Noain
Pamplona,07/12/2013,0.0,0.0,0.0,0.0,Noain
Pamplona,08/12/2013,0.0,0.0,0.0,0.0,Noain
Pamplona,09/12/2013,0.0,0.0,0.0,0.0,Noain
Pamplona,10/12/2013,0.0,0.0,0.0,0.0,Noain
Pamplona,11/12/2013,0.0,0.0,0.0,0.0,Noain
Pamplona,12/12/2013,0.0,0.0,0.0,0.0,Noain
Pamplona,13/12/2013,0.0,0.0,0.0,0.0,Noain
Pamplona,14/12/2013,0.0,0.0,0.0,0.0,Noain
Pamplona,15/12/2013,0.0,0.0,0.0,0.0,Noain
Pamplona,16/12/2013,0.0,0.0,0.0,0.0,Noain
Pamplona,17/12/2013,0.0,0.0,0.0,0.0,Noain
Pamplona,18/12/2013,0.0,0.0,0.0,0.0,Noain
Pamplona,19/12/2013,0.0,0.0,0.0,0.0,Noain
Pamplona,20/12/2013,0.0,0.0,0.0,0.0,Noain
Pamplona,21/12/2013,0.0,0.0,0.0,0.0,Noain
Pamplona,22/12/2013,0.0,0.0,0.0,0.0,Noain
Pamplona,23/12/2013,0.0,0.0,0.0,0.0,Noain
Pamplona,24/12/2013,0.0,0.0,0.0,0.0,Noain
Pamplona,25/12/2013,0.0,0.0,0.0,0.0,Noain
Pamplona,26/12/2013,0.0,0.0,0.0,0.0,Noain
Pamplona,27/12/2013,0.0,0.0,0.0,0.0,Noain
