Fecha, Temperatura media, Temperatura maxima, Temperatura minima, Precipitacion acumulada
01/01/2019,6.1,13.6,-0.0,0.0
02/01/2019,5.0,10.4,1.7,0.0
03/01/2019,4.6,11.1,-2.9,0.0
04/01/2019,4.7,15.1,-3.6,0.0
05/01/2019,6.0,14.3,-2.9,0.0
06/01/2019,5.9,14.0,0.4,0.0
07/01/2019,2.4,6.4,-1.5,0.0
08/01/2019,4.9,8.3,-0.4,0.0
09/01/2019,5.8,9.1,2.8,0.0
10/01/2019,1.4,3.9,-0.8,0.0
11/01/2019,1.2,4.4,-1.4,0.0
12/01/2019,4.9,9.5,0.5,0.0
13/01/2019,7.5,10.5,5.5,0.0
14/01/2019,8.7,10.9,7.5,0.0
15/01/2019,5.7,12.5,0.1,0.0
16/01/2019,2.4,10.8,-3.4,0.0
17/01/2019,3.7,8.4,-0.5,0.1
18/01/2019,2.4,6.2,-0.4,0.0
19/01/2019,3.4,6.6,0.0,2.8
20/01/2019,4.4,7.2,2.7,2.4
21/01/2019,3.8,6.0,1.4,0.1
22/01/2019,1.1,2.6,-0.3,19.3
23/01/2019,2.5,5.4,-0.4,51.2
24/01/2019,1.8,4.4,-0.2,10.2
25/01/2019,7.5,10.5,2.5,0.7
26/01/2019,7.6,11.8,2.5,0.0
27/01/2019,3.8,6.6,1.2,10.2
28/01/2019,4.1,7.4,1.0,28.0
29/01/2019,3.9,5.2,1.7,18.1
30/01/2019,2.0,4.8,-0.2,19.2
31/01/2019,5.0,9.8,1.8,27.3
01/02/2019,6.5,10.5,0.9,2.8
02/02/2019,1.5,4.6,0.0,38.4
03/02/2019,1.6,4.5,-1.4,2.3
04/02/2019,3.9,9.6,-1.7,0.0
05/02/2019,7.8,13.5,4.1,0.2
06/02/2019,7.1,14.0,3.5,0.0
07/02/2019,5.7,10.8,1.6,0.0
08/02/2019,5.5,13.8,-1.4,0.0
09/02/2019,7.5,13.3,0.5,0.0
10/02/2019,7.7,10.1,5.4,1.1
11/02/2019,5.9,8.7,3.7,1.3
12/02/2019,5.5,13.4,-1.7,0.0
13/02/2019,5.0,14.3,-2.5,0.0
14/02/2019,5.8,15.6,-1.5,0.0
15/02/2019,4.7,14.9,-3.3,0.0
16/02/2019,7.1,16.7,-2.7,0.0
17/02/2019,11.0,17.6,1.8,0.0
18/02/2019,8.6,15.3,1.7,0.0
19/02/2019,6.0,14.3,-0.4,0.0
20/02/2019,6.0,14.7,-1.3,0.0
21/02/2019,7.1,16.6,-1.1,0.0
22/02/2019,9.2,19.9,-0.9,0.0
23/02/2019,10.2,20.4,-0.1,0.0
24/02/2019,10.1,18.1,3.2,0.0
25/02/2019,8.7,18.1,0.7,0.0
26/02/2019,9.6,20.4,1.0,0.0
27/02/2019,10.6,21.9,1.3,0.0
28/02/2019,11.3,16.3,7.5,0.0
01/03/2019,9.8,15.5,4.7,0.0
02/03/2019,10.2,16.2,5.1,0.0
03/03/2019,11.3,18.5,1.4,0.0
04/03/2019,11.0,14.2,5.6,0.0
05/03/2019,10.1,15.8,2.3,0.0
06/03/2019,11.5,15.2,6.6,7.6
07/03/2019,7.1,12.6,1.2,0.6
08/03/2019,7.5,12.2,4.5,0.3
09/03/2019,9.4,17.0,3.0,0.0
10/03/2019,10.0,16.6,4.7,0.0
11/03/2019,8.5,12.9,2.0,0.0
12/03/2019,7.7,17.3,-1.8,0.0
13/03/2019,5.9,9.5,3.6,2.4
14/03/2019,6.7,9.2,4.3,0.6
15/03/2019,9.5,15.2,3.5,0.0
16/03/2019,10.5,23.9,-0.8,0.0
17/03/2019,7.2,12.0,2.8,0.6
18/03/2019,6.2,10.1,2.9,0.5
19/03/2019,5.7,8.8,3.1,1.0
20/03/2019,7.5,11.3,3.6,0.0
21/03/2019,7.1,15.8,-1.9,0.0
22/03/2019,9.2,18.8,-0.6,0.0
23/03/2019,11.6,22.0,1.5,0.0
24/03/2019,12.3,20.9,3.8,0.0
25/03/2019,10.0,12.6,7.6,0.0
26/03/2019,9.9,14.9,4.6,0.0
27/03/2019,9.9,16.5,1.2,0.0
28/03/2019,10.0,17.0,1.9,0.0
29/03/2019,10.5,18.1,0.7,0.0
30/03/2019,10.7,18.1,3.2,0.0
31/03/2019,9.7,16.9,2.6,0.0
01/04/2019,10.3,14.3,6.9,1.2
02/04/2019,10.7,15.9,6.9,0.4
03/04/2019,5.7,9.7,0.2,1.8
04/04/2019,5.9,11.6,-0.3,0.0
05/04/2019,7.2,10.2,2.8,8.7
06/04/2019,6.5,11.6,2.9,3.0
07/04/2019,6.8,12.7,3.7,0.1
08/04/2019,8.3,12.3,5.6,2.1
09/04/2019,7.9,14.4,1.9,4.3
10/04/2019,8.5,12.7,5.6,0.5
11/04/2019,8.1,10.5,5.2,0.0
12/04/2019,10.0,14.4,7.4,0.0
13/04/2019,11.3,21.3,0.2,0.0
14/04/2019,12.9,21.2,6.6,0.0
15/04/2019,13.2,22.2,6.2,27.8
16/04/2019,13.2,19.1,6.3,0.0
17/04/2019,15.3,21.3,10.8,0.0
18/04/2019,13.4,18.5,8.8,0.4
19/04/2019,13.8,20.2,8.2,0.0
20/04/2019,14.2,21.6,9.3,0.0
21/04/2019,11.0,13.7,8.5,0.1
22/04/2019,12.4,17.5,6.3,0.0
23/04/2019,11.5,17.0,8.2,4.9
24/04/2019,8.3,11.7,5.5,13.5
25/04/2019,10.0,14.7,6.1,7.2
26/04/2019,9.0,13.1,6.3,1.0
27/04/2019,10.3,16.4,4.7,0.0
28/04/2019,11.7,17.8,6.9,0.0
29/04/2019,13.2,20.7,4.6,0.0
30/04/2019,14.5,20.4,7.9,0.0
01/05/2019,12.1,21.8,3.2,0.0
02/05/2019,11.7,15.5,8.1,0.0
03/05/2019,8.7,12.2,6.0,0.3
04/05/2019,10.1,14.8,6.7,0.4
05/05/2019,7.8,12.1,3.0,0.0
06/05/2019,12.0,21.4,1.3,0.0
07/05/2019,15.3,22.7,5.6,0.0
08/05/2019,16.4,20.1,11.4,8.8
09/05/2019,12.1,18.9,5.0,11.5
10/05/2019,15.4,23.4,10.6,7.1
11/05/2019,13.1,16.8,8.8,0.0
12/05/2019,13.0,17.5,7.5,0.0
13/05/2019,14.7,19.0,8.7,0.0
14/05/2019,15.2,24.7,4.1,0.0
15/05/2019,17.4,24.0,8.3,0.0
16/05/2019,14.2,24.4,7.0,12.7
17/05/2019,8.8,10.9,7.3,29.7
18/05/2019,8.1,12.1,4.8,9.7
19/05/2019,8.4,11.9,5.7,26.6
20/05/2019,11.4,16.7,6.2,0.0
21/05/2019,12.9,19.5,4.8,0.0
22/05/2019,15.4,23.6,6.4,0.0
23/05/2019,15.5,24.0,9.2,3.8
24/05/2019,12.1,14.4,10.8,10.5
25/05/2019,12.8,16.3,10.5,0.0
26/05/2019,13.3,17.3,10.2,0.0
27/05/2019,14.0,18.4,10.6,0.0
28/05/2019,11.3,14.9,9.2,0.1
29/05/2019,12.7,17.3,8.4,0.1
30/05/2019,17.8,26.2,8.2,0.0
31/05/2019,19.2,27.9,8.9,0.0
01/06/2019,21.2,30.2,11.5,0.0
02/06/2019,22.1,31.4,12.4,0.0
03/06/2019,21.7,30.5,14.3,0.0
04/06/2019,19.0,30.4,11.4,4.3
05/06/2019,10.9,14.7,7.7,28.6
06/06/2019,15.4,22.9,7.2,0.0
07/06/2019,14.2,19.7,8.6,6.7
08/06/2019,14.8,24.1,4.6,0.0
09/06/2019,16.2,26.0,11.3,0.0
10/06/2019,12.6,16.3,10.6,0.0
11/06/2019,10.7,14.8,6.3,0.3
12/06/2019,12.1,20.7,3.2,0.0
13/06/2019,16.4,26.2,6.0,0.0
14/06/2019,15.9,25.3,9.6,0.0
15/06/2019,15.8,20.2,11.5,0.0
16/06/2019,18.1,28.0,6.3,0.0
17/06/2019,22.5,31.7,12.6,0.0
18/06/2019,25.4,32.2,16.4,0.0
19/06/2019,20.4,27.0,15.0,0.0
20/06/2019,17.6,22.1,14.4,1.0
21/06/2019,15.9,19.9,13.0,0.0
22/06/2019,19.2,29.2,7.3,0.0
23/06/2019,26.0,33.8,17.0,0.0
24/06/2019,26.7,31.3,19.1,0.0
25/06/2019,25.0,34.7,16.5,0.0
26/06/2019,29.6,37.0,17.3,0.0
27/06/2019,32.0,39.1,20.0,0.0
28/06/2019,29.6,40.4,20.2,0.0
29/06/2019,28.4,40.3,16.7,0.0
30/06/2019,25.5,39.5,14.0,0.0
01/07/2019,20.3,28.2,15.1,2.7
02/07/2019,20.8,29.9,14.3,0.1
03/07/2019,23.0,34.1,15.0,2.9
04/07/2019,27.2,35.0,18.0,0.0
05/07/2019,27.8,35.1,20.6,0.0
06/07/2019,25.3,35.7,17.4,0.0
07/07/2019,23.8,33.1,17.6,0.0
08/07/2019,19.8,27.2,15.1,51.9
09/07/2019,17.8,22.7,13.8,0.0
10/07/2019,21.4,29.5,14.2,0.0
11/07/2019,22.8,31.7,13.5,0.0
12/07/2019,23.7,33.6,13.7,0.0
13/07/2019,22.9,30.1,15.2,0.0
14/07/2019,21.9,26.2,18.2,0.2
15/07/2019,20.7,25.0,15.6,0.0
16/07/2019,21.3,29.0,11.9,0.0
17/07/2019,21.1,27.0,16.0,0.2
18/07/2019,20.2,24.9,15.6,0.0
19/07/2019,23.4,34.1,11.1,0.0
20/07/2019,24.1,33.6,18.2,0.0
21/07/2019,24.3,34.5,16.4,0.0
22/07/2019,28.5,37.7,19.4,0.0
23/07/2019,29.3,37.8,21.1,1.1
24/07/2019,29.2,37.8,18.8,0.0
25/07/2019,30.0,37.7,21.3,0.0
26/07/2019,20.9,25.7,17.4,1.1
27/07/2019,16.5,20.9,13.3,2.6
28/07/2019,17.8,23.6,12.2,0.2
29/07/2019,19.5,31.7,10.4,0.0
30/07/2019,17.5,21.4,14.2,0.0
31/07/2019,18.8,27.6,9.4,0.0
01/08/2019,20.0,29.9,14.5,6.3
02/08/2019,21.8,29.0,14.2,0.0
03/08/2019,23.3,34.4,12.6,0.0
04/08/2019,23.7,34.5,16.4,0.0
05/08/2019,22.8,34.0,15.4,0.0
06/08/2019,23.8,33.4,15.6,0.0
07/08/2019,24.5,30.5,18.9,0.0
08/08/2019,27.1,34.1,18.6,0.1
09/08/2019,27.2,34.8,17.2,11.6
10/08/2019,20.1,27.3,14.3,0.0
11/08/2019,19.3,24.6,16.2,0.9
12/08/2019,16.7,21.2,13.6,0.0
13/08/2019,17.0,21.8,12.1,0.0
14/08/2019,19.1,29.2,9.2,0.0
15/08/2019,20.1,24.4,14.0,0.0
16/08/2019,21.5,33.4,9.1,0.0
17/08/2019,25.1,35.8,15.4,0.0
18/08/2019,22.5,32.8,16.8,0.0
19/08/2019,17.9,21.1,15.6,0.0
20/08/2019,17.4,21.5,14.1,1.9
21/08/2019,18.6,27.0,11.3,0.0
22/08/2019,20.3,28.0,11.4,0.0
23/08/2019,22.2,32.7,10.8,0.0
24/08/2019,24.4,33.8,15.0,0.0
25/08/2019,24.2,34.3,16.0,0.0
26/08/2019,22.8,30.3,15.9,0.3
27/08/2019,20.2,26.8,15.8,0.0
28/08/2019,22.1,31.4,13.2,0.0
29/08/2019,23.6,33.6,14.5,0.0
30/08/2019,24.7,34.7,15.9,0.0
31/08/2019,24.3,34.6,17.1,0.0
01/09/2019,20.0,25.3,15.4,0.0
02/09/2019,17.5,21.2,14.1,0.0
03/09/2019,18.4,26.9,9.7,0.0
04/09/2019,17.6,27.4,9.9,0.0
05/09/2019,16.1,19.7,13.4,0.0
06/09/2019,15.5,19.4,12.1,0.0
07/09/2019,16.9,22.7,12.7,0.0
08/09/2019,16.5,21.7,11.1,0.0
09/09/2019,14.6,24.5,5.6,0.0
10/09/2019,13.8,18.4,10.5,0.2
11/09/2019,17.6,21.9,14.2,0.0
12/09/2019,18.5,29.1,9.0,0.0
13/09/2019,19.3,28.7,11.5,0.0
14/09/2019,21.5,30.1,13.4,0.1
15/09/2019,19.0,28.9,14.4,2.3
16/09/2019,21.5,29.8,15.1,0.0
17/09/2019,21.8,30.3,14.8,0.0
18/09/2019,19.8,27.9,14.8,3.1
19/09/2019,19.4,27.6,14.5,0.0
20/09/2019,21.3,27.6,14.2,3.8
21/09/2019,20.0,24.5,15.4,13.8
22/09/2019,18.2,21.9,11.6,7.0
23/09/2019,15.5,22.3,9.0,0.0
24/09/2019,18.0,26.4,11.3,0.0
25/09/2019,17.0,21.1,14.3,0.0
26/09/2019,18.4,26.8,11.0,0.0
27/09/2019,18.1,26.7,10.3,0.0
28/09/2019,18.0,26.5,10.8,0.0
29/09/2019,19.3,28.6,10.5,0.0
30/09/2019,19.6,28.8,11.1,0.0
01/10/2019,17.7,25.6,12.5,0.0
02/10/2019,14.2,18.1,12.1,1.5
03/10/2019,15.6,23.2,9.6,0.0
04/10/2019,15.7,22.6,9.1,0.0
05/10/2019,16.8,24.1,11.1,0.0
06/10/2019,15.1,20.2,11.7,0.0
07/10/2019,16.0,22.5,11.3,0.0
08/10/2019,18.3,28.8,10.4,0.0
09/10/2019,15.1,18.9,11.1,0.0
10/10/2019,14.5,22.4,7.4,0.0
11/10/2019,17.5,27.1,6.7,0.0
12/10/2019,22.2,26.2,19.1,0.0
13/10/2019,21.8,26.3,18.0,0.0
14/10/2019,17.5,21.6,9.9,6.9
15/10/2019,10.7,16.6,6.0,3.8
16/10/2019,13.3,19.0,8.8,0.0
17/10/2019,15.1,20.0,10.4,0.5
18/10/2019,16.0,19.5,12.9,0.3
19/10/2019,16.8,18.8,13.8,1.0
20/10/2019,12.0,15.1,7.6,13.1
21/10/2019,9.2,15.6,4.6,0.0
22/10/2019,7.9,11.9,4.2,15.2
23/10/2019,11.6,16.0,8.2,0.1
24/10/2019,10.0,12.9,8.2,4.3
25/10/2019,12.0,21.7,5.6,0.0
26/10/2019,12.8,21.8,6.3,0.0
27/10/2019,13.0,20.5,6.6,0.0
28/10/2019,14.1,21.3,11.0,0.0
29/10/2019,14.1,21.6,7.8,0.0
30/10/2019,14.0,19.4,8.9,0.0
31/10/2019,14.1,17.9,10.0,1.4
01/11/2019,13.4,17.9,10.6,12.2
02/11/2019,14.1,17.4,11.4,2.7
03/11/2019,10.7,14.4,8.5,9.7
04/11/2019,10.6,16.4,6.5,13.5
05/11/2019,6.9,8.8,5.3,23.0
06/11/2019,8.6,11.0,6.8,7.7
07/11/2019,6.4,11.6,0.5,15.7
08/11/2019,2.3,5.4,0.3,40.5
09/11/2019,6.1,8.6,3.6,17.3
10/11/2019,1.5,4.6,-0.3,32.6
11/11/2019,3.8,6.9,0.2,6.9
12/11/2019,7.0,10.2,4.8,0.6
13/11/2019,7.8,11.5,5.8,0.0
14/11/2019,4.6,8.5,1.8,11.0
15/11/2019,2.6,5.5,-0.6,6.3
16/11/2019,0.9,2.0,-0.8,11.2
17/11/2019,3.8,6.0,1.6,4.9
18/11/2019,4.5,6.8,2.3,1.0
19/11/2019,4.5,10.0,0.3,0.0
20/11/2019,4.2,9.8,-1.5,0.7
21/11/2019,7.0,10.2,4.7,0.5
22/11/2019,8.2,9.6,6.7,14.0
23/11/2019,6.8,9.2,4.8,31.6
24/11/2019,6.1,10.3,4.6,8.0
25/11/2019,8.7,15.4,5.8,0.0
26/11/2019,10.1,15.3,4.6,0.0
27/11/2019,10.2,13.5,6.7,8.0
28/11/2019,9.6,11.8,7.4,6.1
29/11/2019,9.9,15.1,4.8,1.3
30/11/2019,7.5,14.1,3.1,19.5
01/12/2019,-,-,-,-
02/12/2019,-,-,-,-
03/12/2019,-,-,-,-
04/12/2019,-,-,-,-
05/12/2019,-,-,-,-
06/12/2019,-,-,-,-
07/12/2019,-,-,-,-
08/12/2019,-,-,-,-
09/12/2019,-,-,-,-
10/12/2019,-,-,-,-
11/12/2019,-,-,-,-
12/12/2019,-,-,-,-
13/12/2019,-,-,-,-
14/12/2019,-,-,-,-
15/12/2019,-,-,-,-
16/12/2019,-,-,-,-
17/12/2019,-,-,-,-
18/12/2019,-,-,-,-
19/12/2019,-,-,-,-
20/12/2019,-,-,-,-
21/12/2019,-,-,-,-
22/12/2019,-,-,-,-
23/12/2019,-,-,-,-
24/12/2019,-,-,-,-
25/12/2019,-,-,-,-
26/12/2019,-,-,-,-
27/12/2019,-,-,-,-
28/12/2019,-,-,-,-
29/12/2019,-,-,-,-
30/12/2019,-,-,-,-
31/12/2019,-,-,-,-
