Fecha, Temperatura media, Temperatura maxima, Temperatura minima, Precipitacion acumulada
01/01/2017,-1.7,-0.8,-3.0,0.0
02/01/2017,-1.0,1.4,-2.1,0.0
03/01/2017,1.1,10.7,-5.0,0.0
04/01/2017,4.9,11.7,-1.1,0.0
05/01/2017,4.1,8.0,1.0,0.0
06/01/2017,1.9,10.3,-4.1,0.0
07/01/2017,0.7,8.9,-5.3,0.0
08/01/2017,3.8,11.9,-4.8,0.0
09/01/2017,6.9,9.8,4.9,0.0
10/01/2017,6.1,7.6,4.9,19.3
11/01/2017,8.9,13.2,4.3,3.3
12/01/2017,9.3,13.6,5.4,0.7
13/01/2017,3.1,6.9,0.9,15.5
14/01/2017,1.9,4.7,0.3,10.1
15/01/2017,2.9,5.0,0.8,15.4
16/01/2017,6.3,9.0,4.1,24.9
17/01/2017,0.1,4.0,-3.5,0.0
18/01/2017,-3.7,-0.4,-5.6,0.0
19/01/2017,-2.3,4.4,-7.4,0.0
20/01/2017,-1.8,3.4,-5.8,0.0
21/01/2017,1.3,11.2,-5.7,0.0
22/01/2017,4.9,8.8,-0.4,0.0
23/01/2017,5.3,9.0,3.2,0.0
24/01/2017,5.1,10.1,0.7,0.0
25/01/2017,1.6,6.2,-4.1,0.0
26/01/2017,1.0,7.3,-6.7,0.0
27/01/2017,7.1,8.6,5.8,2.7
28/01/2017,6.3,11.6,1.1,0.0
29/01/2017,5.4,10.7,-0.2,0.2
30/01/2017,8.9,13.0,6.3,0.0
31/01/2017,10.7,15.5,4.6,0.0
01/02/2017,10.1,15.3,4.0,0.0
02/02/2017,8.1,11.0,2.6,9.2
03/02/2017,7.9,12.0,3.4,5.1
04/02/2017,9.6,14.0,7.4,8.3
05/02/2017,5.9,10.7,1.6,17.4
06/02/2017,6.1,9.4,2.9,8.3
07/02/2017,7.5,10.6,1.9,3.9
08/02/2017,2.6,5.6,0.6,24.2
09/02/2017,4.0,9.8,-1.3,0.0
10/02/2017,4.3,11.9,-1.0,0.0
11/02/2017,4.0,8.7,0.5,3.0
12/02/2017,11.0,13.4,5.0,0.1
13/02/2017,10.3,13.8,5.3,9.5
14/02/2017,6.4,13.2,2.1,0.0
15/02/2017,7.3,15.4,1.6,0.0
16/02/2017,7.1,14.9,2.7,0.0
17/02/2017,6.4,15.2,-0.9,0.0
18/02/2017,6.4,15.2,-1.4,0.0
19/02/2017,6.6,13.8,0.7,0.0
20/02/2017,9.1,13.9,4.0,0.0
21/02/2017,6.9,15.2,0.2,0.0
22/02/2017,7.8,18.6,1.3,0.0
23/02/2017,7.7,13.3,1.8,0.0
24/02/2017,7.2,9.4,3.5,0.0
25/02/2017,8.3,18.0,1.1,0.0
26/02/2017,7.9,16.6,0.5,0.0
27/02/2017,9.1,15.5,1.2,0.0
28/02/2017,7.7,11.4,1.5,2.2
01/03/2017,6.5,14.7,-0.2,0.0
02/03/2017,10.0,16.8,3.7,0.0
03/03/2017,11.0,16.2,2.0,28.3
04/03/2017,3.8,8.9,1.5,2.7
05/03/2017,5.5,9.8,1.7,2.5
06/03/2017,9.8,16.2,7.0,2.4
07/03/2017,8.7,11.0,6.4,3.4
08/03/2017,12.7,19.2,6.9,0.0
09/03/2017,12.5,23.5,3.0,0.0
10/03/2017,14.0,25.5,3.9,0.0
11/03/2017,12.2,22.5,3.9,0.0
12/03/2017,9.1,12.8,5.7,6.6
13/03/2017,9.3,12.3,6.4,0.7
14/03/2017,11.2,17.5,5.1,0.0
15/03/2017,10.3,19.5,2.6,0.0
16/03/2017,11.2,20.5,3.5,0.0
17/03/2017,11.2,21.1,3.3,0.0
18/03/2017,10.2,18.4,3.8,0.0
19/03/2017,11.0,21.4,3.0,0.0
20/03/2017,10.2,20.2,4.6,0.0
21/03/2017,8.0,12.3,4.5,0.0
22/03/2017,5.5,11.9,0.7,12.6
23/03/2017,4.2,9.3,-0.2,0.7
24/03/2017,6.0,11.4,0.3,4.2
25/03/2017,3.2,5.3,0.4,17.0
26/03/2017,10.3,15.7,4.4,0.0
27/03/2017,9.7,12.3,6.7,2.9
28/03/2017,10.6,17.3,5.0,0.0
29/03/2017,11.3,20.6,3.1,0.0
30/03/2017,13.7,21.4,4.6,0.0
31/03/2017,12.1,16.9,8.1,6.7
01/04/2017,7.7,10.9,4.7,7.4
02/04/2017,8.0,11.9,5.6,7.6
03/04/2017,10.6,18.3,2.2,0.0
04/04/2017,11.2,14.4,7.9,0.0
05/04/2017,10.4,14.3,7.2,0.0
06/04/2017,11.4,14.9,8.4,0.0
07/04/2017,11.9,21.1,2.7,0.0
08/04/2017,13.8,23.3,5.0,0.0
09/04/2017,14.5,23.3,5.4,0.0
10/04/2017,15.0,24.4,5.8,0.0
11/04/2017,12.8,19.0,5.6,0.0
12/04/2017,13.9,22.8,4.1,0.0
13/04/2017,14.8,25.2,5.6,0.0
14/04/2017,13.5,22.0,7.5,0.0
15/04/2017,11.4,14.4,9.2,0.0
16/04/2017,12.8,20.0,6.8,0.0
17/04/2017,12.9,22.8,2.9,0.0
18/04/2017,13.2,17.0,7.9,0.0
19/04/2017,11.2,15.0,6.8,0.0
20/04/2017,10.4,18.4,0.9,0.0
21/04/2017,11.4,19.9,3.0,0.0
22/04/2017,13.2,22.8,3.8,0.0
23/04/2017,14.5,24.6,4.0,0.0
24/04/2017,16.3,26.0,5.9,0.0
25/04/2017,12.8,19.5,8.6,2.0
26/04/2017,7.3,9.9,4.6,0.1
27/04/2017,5.8,10.1,2.2,1.5
28/04/2017,8.2,14.4,1.4,0.0
29/04/2017,9.2,14.4,0.2,0.0
30/04/2017,9.1,13.7,1.9,8.3
01/05/2017,8.2,14.9,-0.4,0.0
02/05/2017,11.4,15.4,8.1,0.6
03/05/2017,13.4,21.2,6.9,0.1
04/05/2017,16.2,23.3,8.3,0.0
05/05/2017,16.8,24.3,10.6,13.7
06/05/2017,13.2,20.2,7.2,0.6
07/05/2017,13.8,20.0,6.0,0.0
08/05/2017,15.5,22.1,8.8,0.0
09/05/2017,15.3,22.1,5.9,0.3
10/05/2017,15.2,22.9,10.9,4.3
11/05/2017,14.4,19.6,10.4,4.8
12/05/2017,14.7,19.2,11.2,0.1
13/05/2017,15.3,20.5,10.7,0.0
14/05/2017,17.1,23.6,9.8,0.0
15/05/2017,18.9,26.2,9.5,0.0
16/05/2017,21.5,28.9,13.0,0.0
17/05/2017,19.1,25.5,13.1,0.0
18/05/2017,10.0,14.5,6.7,19.2
19/05/2017,10.2,16.2,5.0,0.0
20/05/2017,12.4,19.9,5.4,0.0
21/05/2017,17.4,25.7,6.2,0.0
22/05/2017,19.1,26.7,12.6,0.0
23/05/2017,18.4,27.0,9.5,0.0
24/05/2017,20.8,31.0,10.1,0.0
25/05/2017,23.8,32.5,14.2,0.0
26/05/2017,23.4,32.5,14.7,1.7
27/05/2017,23.7,31.4,14.8,0.1
28/05/2017,25.0,29.7,20.0,0.0
29/05/2017,18.2,22.4,14.0,4.0
30/05/2017,17.4,23.6,12.7,0.2
31/05/2017,18.3,25.5,10.9,0.0
01/06/2017,20.8,29.6,11.6,0.0
02/06/2017,20.2,28.2,14.8,0.5
03/06/2017,16.3,21.2,12.8,6.2
04/06/2017,12.1,14.9,9.8,7.2
05/06/2017,16.3,22.7,11.0,0.0
06/06/2017,14.4,17.9,10.7,0.0
07/06/2017,18.1,26.1,10.3,0.0
08/06/2017,20.7,30.8,11.7,6.2
09/06/2017,20.4,29.4,14.1,0.0
10/06/2017,23.5,32.5,14.0,0.0
11/06/2017,23.8,34.7,16.9,0.0
12/06/2017,23.3,33.9,15.4,0.0
13/06/2017,24.9,34.8,15.4,0.0
14/06/2017,25.9,35.8,17.5,0.0
15/06/2017,21.9,28.5,16.9,0.0
16/06/2017,22.9,31.2,14.5,0.0
17/06/2017,24.6,32.3,14.9,0.0
18/06/2017,26.1,36.0,14.7,0.0
19/06/2017,28.4,34.6,21.1,0.0
20/06/2017,25.4,33.3,18.5,0.0
21/06/2017,25.0,35.3,17.9,17.6
22/06/2017,25.9,36.6,17.3,0.0
23/06/2017,22.7,32.0,16.9,0.0
24/06/2017,20.3,25.6,14.9,0.0
25/06/2017,22.8,30.8,15.8,4.1
26/06/2017,20.2,24.7,16.3,1.6
27/06/2017,18.9,28.6,15.1,11.5
28/06/2017,15.7,21.4,12.2,11.8
29/06/2017,14.0,18.4,9.5,0.6
30/06/2017,11.9,15.6,8.0,2.3
01/07/2017,12.6,17.2,10.0,0.2
02/07/2017,15.7,20.8,10.3,0.0
03/07/2017,20.0,27.7,11.6,0.0
04/07/2017,24.6,32.9,13.6,0.0
05/07/2017,26.9,34.7,16.4,0.0
06/07/2017,25.6,31.9,19.7,0.0
07/07/2017,25.7,33.7,17.3,0.0
08/07/2017,21.7,28.7,17.1,1.0
09/07/2017,21.5,28.3,16.1,0.0
10/07/2017,17.9,23.0,14.2,14.1
11/07/2017,21.6,31.0,13.5,0.0
12/07/2017,22.0,29.1,15.6,0.0
13/07/2017,20.6,27.8,14.3,0.0
14/07/2017,19.4,24.2,15.8,0.0
15/07/2017,21.1,26.9,14.3,0.0
16/07/2017,23.6,34.2,13.4,0.0
17/07/2017,27.6,34.5,19.8,0.0
18/07/2017,27.5,35.4,20.9,1.2
19/07/2017,24.2,32.0,17.8,1.0
20/07/2017,19.5,24.4,16.0,0.0
21/07/2017,19.1,27.9,14.5,0.2
22/07/2017,19.9,29.2,14.2,0.0
23/07/2017,19.2,26.3,13.4,0.0
24/07/2017,18.7,22.9,15.4,0.1
25/07/2017,17.4,20.7,14.6,0.0
26/07/2017,20.2,26.3,13.0,0.0
27/07/2017,22.5,31.4,13.9,0.0
28/07/2017,23.6,32.5,15.5,0.0
29/07/2017,25.6,35.3,15.8,0.0
30/07/2017,23.5,33.8,17.8,0.0
31/07/2017,21.9,32.5,14.6,2.4
01/08/2017,20.5,27.8,15.2,0.0
02/08/2017,24.9,34.4,14.5,0.0
03/08/2017,25.2,35.1,17.1,0.0
04/08/2017,24.6,32.3,16.6,0.0
05/08/2017,21.6,28.5,16.4,0.0
06/08/2017,19.3,25.2,14.5,0.0
07/08/2017,21.6,31.6,15.4,6.6
08/08/2017,16.5,20.6,12.9,0.0
09/08/2017,14.6,19.3,9.9,0.0
10/08/2017,13.8,17.0,11.1,1.0
11/08/2017,15.6,21.0,9.4,0.0
12/08/2017,18.4,28.0,9.1,0.0
13/08/2017,20.7,31.4,12.3,0.0
14/08/2017,24.4,34.4,14.7,2.2
15/08/2017,21.5,31.7,16.3,0.3
16/08/2017,20.9,29.2,15.7,0.0
17/08/2017,22.9,33.8,13.2,0.0
18/08/2017,20.6,26.8,15.8,0.0
19/08/2017,19.4,24.5,15.5,0.0
20/08/2017,19.5,26.5,13.3,0.0
21/08/2017,23.2,35.3,11.0,0.0
22/08/2017,24.9,35.9,15.3,0.2
23/08/2017,23.7,33.5,16.2,0.1
24/08/2017,24.9,34.0,16.1,0.0
25/08/2017,24.6,34.3,16.3,0.0
26/08/2017,24.7,33.4,17.0,3.3
27/08/2017,20.0,29.7,16.4,4.8
28/08/2017,21.2,31.4,15.1,14.1
29/08/2017,19.5,27.6,14.7,7.8
30/08/2017,19.8,26.3,15.5,2.5
31/08/2017,16.4,21.3,12.8,2.7
01/09/2017,14.9,20.0,11.1,0.0
02/09/2017,14.8,20.4,11.2,0.0
03/09/2017,17.3,25.4,10.4,0.1
04/09/2017,19.5,25.1,15.5,3.2
05/09/2017,19.8,29.5,13.5,0.0
06/09/2017,18.3,21.7,14.4,0.0
07/09/2017,15.8,20.3,11.9,0.0
08/09/2017,17.0,26.6,7.6,0.0
09/09/2017,14.6,18.8,9.8,4.8
10/09/2017,13.2,17.9,10.1,21.5
11/09/2017,15.6,20.5,12.1,2.9
12/09/2017,15.7,20.9,12.5,0.0
13/09/2017,18.6,28.1,10.6,0.0
14/09/2017,14.2,16.8,10.9,0.0
15/09/2017,12.3,17.0,9.0,0.0
16/09/2017,10.4,15.1,5.2,0.0
17/09/2017,11.8,18.7,5.3,0.0
18/09/2017,12.8,16.9,10.0,8.5
19/09/2017,13.5,17.9,8.9,0.0
20/09/2017,14.5,24.8,5.1,0.0
21/09/2017,15.9,26.2,7.9,0.0
22/09/2017,14.3,19.4,11.8,3.3
23/09/2017,16.2,25.2,9.9,0.0
24/09/2017,18.8,27.4,11.2,0.0
25/09/2017,17.1,20.9,14.5,0.0
26/09/2017,16.5,22.7,11.1,0.0
27/09/2017,16.3,25.0,8.6,0.0
28/09/2017,18.0,26.2,10.7,0.0
29/09/2017,18.6,27.4,11.9,0.0
30/09/2017,14.5,18.2,11.0,2.6
01/10/2017,14.8,17.5,10.8,0.2
02/10/2017,18.0,22.5,13.7,0.0
03/10/2017,17.5,23.7,10.8,0.0
04/10/2017,18.0,25.7,11.2,0.0
05/10/2017,17.6,25.9,11.8,0.0
06/10/2017,15.1,19.8,11.6,0.0
07/10/2017,14.9,22.8,8.2,0.0
08/10/2017,14.1,24.6,5.8,0.0
09/10/2017,15.2,25.5,7.5,0.0
10/10/2017,15.1,25.3,5.9,0.0
11/10/2017,15.7,26.3,6.6,0.0
12/10/2017,16.3,26.2,8.1,0.0
13/10/2017,17.6,27.6,8.5,0.0
14/10/2017,17.9,26.3,10.2,0.0
15/10/2017,17.3,25.0,11.3,0.0
16/10/2017,18.5,26.0,12.5,0.0
17/10/2017,17.0,23.8,9.3,0.0
18/10/2017,14.7,17.8,11.0,15.7
19/10/2017,13.1,18.4,10.0,0.0
20/10/2017,12.8,19.8,8.2,0.0
21/10/2017,12.2,14.3,10.4,1.0
22/10/2017,11.2,14.0,8.8,0.1
23/10/2017,13.1,21.4,6.3,0.0
24/10/2017,14.2,23.6,5.8,0.0
25/10/2017,15.1,25.3,7.3,0.0
26/10/2017,15.7,26.1,7.7,0.0
27/10/2017,14.8,19.9,9.4,0.0
28/10/2017,13.7,16.5,10.1,0.0
29/10/2017,12.5,15.8,9.6,0.0
30/10/2017,12.3,16.6,6.8,0.0
31/10/2017,9.4,17.8,1.7,0.0
01/11/2017,11.2,18.3,5.0,0.0
02/11/2017,13.5,19.0,8.3,0.0
03/11/2017,14.7,19.5,10.4,0.0
04/11/2017,11.4,14.3,8.5,9.7
05/11/2017,8.8,11.8,6.3,7.3
06/11/2017,6.5,9.3,4.4,0.8
07/11/2017,6.7,12.1,1.9,0.2
08/11/2017,4.7,8.1,0.9,11.9
09/11/2017,5.9,7.9,1.9,1.7
10/11/2017,9.1,13.8,5.8,0.3
11/11/2017,10.5,13.2,9.0,0.1
12/11/2017,10.8,13.4,9.4,0.5
13/11/2017,6.0,9.2,4.2,0.1
14/11/2017,5.8,9.0,3.3,0.0
15/11/2017,4.1,12.4,-2.1,0.0
16/11/2017,7.8,19.0,-1.4,0.0
17/11/2017,10.3,19.2,2.6,0.0
18/11/2017,9.2,14.7,2.5,0.0
19/11/2017,6.2,16.4,-1.2,0.0
20/11/2017,5.7,15.2,-1.1,0.0
21/11/2017,5.3,14.8,-1.2,0.0
22/11/2017,6.9,15.7,-1.8,0.0
23/11/2017,14.1,18.0,11.2,0.0
24/11/2017,12.2,14.7,9.3,0.0
25/11/2017,8.4,12.0,4.7,5.4
26/11/2017,5.6,9.1,2.3,0.2
27/11/2017,2.9,9.0,-1.5,0.0
28/11/2017,2.7,9.9,-3.3,0.2
29/11/2017,4.3,8.6,1.1,0.1
30/11/2017,2.6,6.7,-1.9,3.0
01/12/2017,0.2,2.4,-1.2,17.3
02/12/2017,0.2,2.6,-1.6,0.3
03/12/2017,1.3,4.8,-1.8,0.0
04/12/2017,4.8,10.1,-0.1,0.0
05/12/2017,1.4,8.6,-3.2,0.0
06/12/2017,-0.0,7.3,-5.5,0.0
07/12/2017,1.0,7.2,-4.1,0.0
08/12/2017,5.3,10.5,2.5,1.0
09/12/2017,5.0,8.4,3.0,9.8
10/12/2017,7.5,12.1,4.4,7.1
11/12/2017,6.9,11.9,3.3,4.6
12/12/2017,3.1,7.8,-0.8,1.3
13/12/2017,1.9,5.5,-2.2,0.8
14/12/2017,6.4,8.7,4.1,7.7
15/12/2017,3.8,7.2,0.8,15.4
16/12/2017,2.6,5.7,0.1,12.6
17/12/2017,4.6,6.8,3.0,0.7
18/12/2017,6.6,10.5,2.8,0.9
19/12/2017,5.0,7.7,2.4,0.1
20/12/2017,6.0,11.2,0.4,0.0
21/12/2017,9.1,13.4,4.5,0.0
22/12/2017,7.3,9.1,5.3,0.0
23/12/2017,7.4,11.6,1.8,0.0
24/12/2017,1.7,8.6,-2.0,0.0
25/12/2017,1.5,7.8,-2.3,0.3
26/12/2017,4.5,6.8,1.4,4.5
27/12/2017,3.2,6.2,0.9,30.3
28/12/2017,3.1,7.5,1.3,13.5
29/12/2017,6.6,10.2,4.7,4.3
30/12/2017,8.1,15.7,3.7,0.0
31/12/2017,5.9,12.4,2.2,5.8
