Fecha, Temperatura media, Temperatura maxima, Temperatura minima, Precipitacion acumulada
01/01/2015,-2.0,6.8,-6.7,0.0
02/01/2015,0.3,8.7,-3.0,0.0
03/01/2015,1.3,10.7,-2.7,0.0
04/01/2015,5.1,8.7,1.6,1.0
05/01/2015,1.1,9.4,-2.2,0.0
06/01/2015,3.0,7.7,-2.4,0.0
07/01/2015,2.0,9.7,-1.6,0.0
08/01/2015,1.6,9.2,-4.1,0.1
09/01/2015,5.2,13.5,0.1,0.0
10/01/2015,4.4,15.1,-0.4,0.1
11/01/2015,2.6,6.9,-2.3,8.4
12/01/2015,4.3,14.0,-5.0,0.0
13/01/2015,8.2,13.6,2.3,0.1
14/01/2015,5.9,10.4,0.3,0.0
15/01/2015,7.2,8.5,5.7,8.0
16/01/2015,2.9,6.2,-0.0,30.2
17/01/2015,0.6,5.1,-1.3,18.8
18/01/2015,1.2,3.1,-0.7,3.2
19/01/2015,0.2,1.8,-1.4,15.2
20/01/2015,-1.0,2.8,-3.2,0.0
21/01/2015,-0.4,2.0,-3.0,11.2
22/01/2015,0.3,1.4,-0.3,14.1
23/01/2015,0.0,1.8,-1.0,0.0
24/01/2015,1.3,3.6,-1.1,4.2
25/01/2015,0.1,2.2,-1.1,0.0
26/01/2015,0.6,3.3,-1.7,3.5
27/01/2015,2.1,3.3,0.4,11.3
28/01/2015,2.0,4.1,0.8,4.2
29/01/2015,3.2,6.7,1.1,14.6
30/01/2015,1.3,5.6,-0.0,67.7
31/01/2015,0.2,1.2,-0.2,43.8
01/02/2015,-0.5,0.2,-1.2,34.5
02/02/2015,0.2,3.2,-1.2,8.3
03/02/2015,-1.1,2.5,-4.7,11.3
04/02/2015,-3.8,-3.0,-4.9,2.0
05/02/2015,-4.3,-3.0,-5.3,0.5
06/02/2015,-5.0,-3.8,-5.7,0.0
07/02/2015,-3.8,1.2,-7.1,0.0
08/02/2015,-2.7,-0.4,-7.1,0.0
09/02/2015,-0.7,7.4,-4.8,0.0
10/02/2015,-1.9,8.9,-7.9,0.0
11/02/2015,-0.4,7.5,-6.7,2.5
12/02/2015,1.6,5.8,-1.0,11.0
13/02/2015,2.2,9.6,-1.4,1.2
14/02/2015,1.3,4.4,0.0,16.6
15/02/2015,1.9,5.0,0.1,13.3
16/02/2015,2.2,4.5,0.3,20.0
17/02/2015,2.2,3.0,0.7,24.5
18/02/2015,1.7,3.7,0.1,1.0
19/02/2015,2.0,9.9,-1.9,0.0
20/02/2015,2.6,9.9,-2.7,10.4
21/02/2015,0.8,2.5,-0.0,51.2
22/02/2015,0.9,2.7,-0.5,19.1
23/02/2015,2.2,4.4,0.6,16.8
24/02/2015,1.1,2.8,0.2,28.9
25/02/2015,3.3,5.2,0.8,85.1
26/02/2015,4.4,5.4,3.4,47.8
27/02/2015,2.6,4.9,0.5,21.0
28/02/2015,3.1,4.9,0.5,9.1
01/03/2015,4.8,6.8,3.7,9.0
02/03/2015,5.2,6.7,4.3,4.5
03/03/2015,5.8,9.6,3.3,2.1
04/03/2015,2.5,5.2,0.3,21.0
05/03/2015,2.9,7.4,0.2,0.0
06/03/2015,4.6,16.0,-1.6,0.0
07/03/2015,5.3,16.2,-2.2,0.0
08/03/2015,5.3,14.5,-0.5,0.0
09/03/2015,5.5,15.7,-1.7,0.0
10/03/2015,6.5,15.8,-0.2,0.0
11/03/2015,6.6,16.1,-0.3,0.0
12/03/2015,7.1,19.1,-0.9,0.0
13/03/2015,4.6,6.9,0.3,9.5
14/03/2015,1.3,3.2,-0.2,14.4
15/03/2015,2.5,6.5,0.0,2.8
16/03/2015,3.2,6.9,0.5,1.3
17/03/2015,6.0,14.4,-1.0,0.0
18/03/2015,5.3,12.0,0.3,0.0
19/03/2015,7.0,14.4,3.5,1.6
20/03/2015,5.1,7.2,2.9,2.4
21/03/2015,3.7,4.9,2.2,2.8
22/03/2015,3.3,5.1,0.1,9.5
23/03/2015,4.1,10.7,0.1,15.6
24/03/2015,3.3,6.8,0.2,12.1
25/03/2015,1.0,2.5,0.0,11.9
26/03/2015,4.3,7.1,1.3,7.8
27/03/2015,6.3,10.8,1.7,12.4
28/03/2015,7.3,10.3,5.9,2.5
29/03/2015,8.3,12.4,6.0,0.3
30/03/2015,8.3,10.0,6.0,0.7
31/03/2015,8.7,13.7,6.4,1.7
01/04/2015,5.9,9.3,2.0,3.6
02/04/2015,6.6,16.5,-1.1,0.0
03/04/2015,7.6,16.3,0.4,0.1
04/04/2015,6.4,10.7,4.2,4.4
05/04/2015,6.8,11.7,1.2,1.0
06/04/2015,6.6,15.6,-1.5,0.0
07/04/2015,8.7,18.5,-1.0,0.0
08/04/2015,10.5,19.0,2.9,0.0
09/04/2015,12.3,20.6,4.0,0.0
10/04/2015,12.6,19.5,7.9,0.0
11/04/2015,9.7,16.4,3.8,0.0
12/04/2015,10.9,21.5,1.0,0.0
13/04/2015,13.0,25.1,2.8,0.0
14/04/2015,15.3,25.9,3.1,0.0
15/04/2015,16.4,23.5,10.8,0.1
16/04/2015,10.8,17.7,8.6,4.4
17/04/2015,10.2,16.5,7.1,2.5
18/04/2015,11.1,19.0,6.6,10.1
19/04/2015,7.8,11.2,3.1,0.2
20/04/2015,9.3,16.7,2.8,0.0
21/04/2015,12.9,22.6,1.6,0.0
22/04/2015,13.7,18.8,8.2,7.0
23/04/2015,10.6,17.3,4.7,0.0
24/04/2015,12.2,22.6,1.8,1.3
25/04/2015,13.3,19.2,8.1,0.1
26/04/2015,10.9,14.4,6.4,17.8
27/04/2015,7.6,9.8,4.2,29.1
28/04/2015,6.9,11.4,2.9,3.6
29/04/2015,8.4,14.6,2.8,0.0
30/04/2015,11.3,18.2,3.1,0.0
01/05/2015,13.0,15.0,11.2,8.0
02/05/2015,15.6,20.9,9.8,0.0
03/05/2015,16.3,20.1,12.6,1.8
04/05/2015,19.3,24.9,12.9,0.3
05/05/2015,-,-,-,-
06/05/2015,-,-,-,0.0
07/05/2015,15.2,24.6,4.0,0.0
08/05/2015,14.9,20.4,9.6,0.0
09/05/2015,12.0,19.6,6.3,0.0
10/05/2015,15.6,27.3,4.2,0.0
11/05/2015,17.8,29.2,8.5,0.0
12/05/2015,18.2,29.1,7.7,0.0
13/05/2015,19.3,28.0,12.6,0.0
14/05/2015,11.5,20.6,5.7,1.3
15/05/2015,7.2,8.8,5.6,14.8
16/05/2015,8.2,9.6,6.5,10.6
17/05/2015,11.9,16.0,8.8,0.0
18/05/2015,13.2,23.4,7.8,0.0
19/05/2015,7.3,8.7,5.4,7.4
20/05/2015,6.2,8.3,5.1,14.2
21/05/2015,6.2,8.4,4.2,4.7
22/05/2015,8.1,11.5,5.4,0.7
23/05/2015,7.9,9.0,6.8,9.9
24/05/2015,10.7,14.1,8.9,2.8
25/05/2015,10.2,11.5,9.2,2.1
26/05/2015,8.6,11.0,6.1,1.0
27/05/2015,12.0,16.4,6.5,0.0
28/05/2015,12.5,19.7,3.8,0.0
29/05/2015,11.1,12.7,9.4,0.0
30/05/2015,11.9,16.7,6.9,0.0
31/05/2015,13.3,22.9,4.5,0.0
01/06/2015,14.7,23.1,9.1,0.0
02/06/2015,17.8,26.0,11.9,0.0
03/06/2015,17.4,26.1,13.2,0.0
04/06/2015,19.0,28.8,10.8,0.0
05/06/2015,18.4,28.0,9.9,0.0
06/06/2015,16.6,22.7,13.2,0.0
07/06/2015,18.1,24.9,12.6,0.0
08/06/2015,18.0,24.7,10.9,0.0
09/06/2015,14.4,18.2,10.8,0.1
10/06/2015,13.4,17.2,11.3,44.3
11/06/2015,14.0,19.7,10.2,19.0
12/06/2015,13.5,18.7,9.3,3.1
13/06/2015,13.0,18.4,9.6,14.3
14/06/2015,12.6,18.8,8.6,0.4
15/06/2015,12.8,17.7,9.2,1.8
16/06/2015,11.0,12.6,10.1,22.0
17/06/2015,12.3,16.4,9.6,2.2
18/06/2015,14.2,17.3,11.3,0.0
19/06/2015,13.1,14.9,11.9,6.8
20/06/2015,15.3,19.7,11.3,0.0
21/06/2015,16.1,23.0,8.9,0.0
22/06/2015,19.1,27.0,11.6,0.0
23/06/2015,16.4,20.8,11.7,0.0
24/06/2015,15.6,21.5,10.5,0.0
25/06/2015,17.7,26.1,10.4,0.0
26/06/2015,18.8,28.5,8.6,0.0
27/06/2015,17.4,22.7,12.4,0.0
28/06/2015,18.5,27.7,9.4,0.0
29/06/2015,21.5,30.0,14.4,0.0
30/06/2015,22.4,32.8,13.8,0.0
01/07/2015,24.5,33.6,15.4,0.4
02/07/2015,20.4,28.9,15.1,0.0
03/07/2015,23.9,32.4,13.7,0.0
04/07/2015,23.8,32.1,16.5,0.0
05/07/2015,19.1,29.5,13.8,0.0
06/07/2015,22.7,32.2,15.2,0.0
07/07/2015,20.2,32.5,16.3,0.0
08/07/2015,15.1,16.6,13.4,0.2
09/07/2015,16.0,20.7,11.1,0.0
10/07/2015,19.4,32.0,8.7,0.0
11/07/2015,16.3,17.8,15.0,0.0
12/07/2015,16.2,18.8,14.2,0.0
13/07/2015,17.6,23.4,12.6,0.0
14/07/2015,18.9,26.2,12.4,0.0
15/07/2015,20.2,28.1,12.4,0.0
16/07/2015,21.3,33.9,14.0,0.0
17/07/2015,21.5,33.4,12.5,0.6
18/07/2015,20.0,29.7,14.2,6.4
19/07/2015,19.8,26.6,15.3,0.0
20/07/2015,20.6,27.5,14.7,0.0
21/07/2015,20.5,29.2,15.5,49.2
22/07/2015,17.7,22.1,15.4,2.5
23/07/2015,19.2,25.2,14.8,0.0
24/07/2015,18.7,26.4,13.8,2.5
25/07/2015,13.8,17.8,11.4,2.1
26/07/2015,16.9,23.8,8.7,0.0
27/07/2015,16.3,19.2,14.0,0.0
28/07/2015,17.7,25.8,11.0,0.0
29/07/2015,15.3,22.5,10.9,0.2
30/07/2015,11.5,12.8,9.2,19.5
31/07/2015,13.8,19.0,11.9,25.5
01/08/2015,13.5,18.2,9.3,0.1
02/08/2015,17.5,26.8,8.5,0.0
03/08/2015,19.9,30.8,12.5,4.7
04/08/2015,16.5,21.1,14.0,0.0
05/08/2015,20.8,29.9,13.6,0.0
06/08/2015,21.7,30.7,16.2,0.0
07/08/2015,17.5,21.5,15.5,0.2
08/08/2015,13.4,15.4,10.8,11.9
09/08/2015,13.1,14.7,10.8,1.4
10/08/2015,15.8,23.6,9.5,0.0
11/08/2015,18.4,28.2,8.9,0.3
12/08/2015,21.0,30.6,15.1,3.5
13/08/2015,17.4,23.1,14.3,6.1
14/08/2015,13.7,16.7,12.1,1.0
15/08/2015,13.0,16.4,9.9,1.3
16/08/2015,14.9,23.1,6.9,0.0
17/08/2015,14.9,17.7,11.5,0.0
18/08/2015,13.4,16.9,9.5,0.0
19/08/2015,14.2,21.6,7.9,0.0
20/08/2015,16.0,26.5,6.9,0.0
21/08/2015,18.0,29.4,8.5,0.0
22/08/2015,18.0,25.2,13.1,6.0
23/08/2015,16.5,21.1,13.7,17.5
24/08/2015,13.9,19.2,8.0,0.2
25/08/2015,14.4,23.8,6.3,0.0
26/08/2015,19.7,28.6,10.6,0.0
27/08/2015,20.6,29.8,13.9,0.0
28/08/2015,20.0,29.3,13.2,0.0
29/08/2015,22.9,31.9,14.9,0.0
30/08/2015,22.1,31.2,14.6,1.4
31/08/2015,19.1,29.1,14.5,23.2
01/09/2015,14.1,15.7,12.1,10.1
02/09/2015,13.3,16.0,11.4,12.5
03/09/2015,12.6,14.5,10.5,1.3
04/09/2015,10.9,15.9,7.0,0.0
05/09/2015,12.1,16.7,9.1,0.0
06/09/2015,12.0,18.2,5.8,0.0
07/09/2015,11.9,19.0,5.6,0.0
08/09/2015,12.8,20.8,6.0,0.0
09/09/2015,14.4,22.5,7.3,0.3
10/09/2015,14.1,18.5,11.9,18.0
11/09/2015,16.4,23.5,10.6,0.0
12/09/2015,16.6,20.0,13.2,5.1
13/09/2015,14.7,19.2,10.5,2.0
14/09/2015,12.0,15.3,9.0,1.9
15/09/2015,13.7,17.5,8.9,4.4
16/09/2015,15.8,19.9,12.8,7.5
17/09/2015,10.5,13.6,7.6,1.3
18/09/2015,10.4,17.6,5.1,0.0
19/09/2015,11.2,17.5,5.5,0.0
20/09/2015,11.2,18.7,5.5,0.0
21/09/2015,10.8,20.5,1.7,0.0
22/09/2015,11.5,14.7,9.1,3.1
23/09/2015,9.9,12.3,6.7,8.6
24/09/2015,10.2,17.9,4.2,0.0
25/09/2015,11.6,19.8,5.0,0.0
26/09/2015,11.7,18.5,7.2,0.0
27/09/2015,11.3,18.5,6.8,0.0
28/09/2015,11.5,18.2,6.7,0.0
29/09/2015,11.4,18.5,6.1,8.9
30/09/2015,12.2,18.3,8.0,0.1
01/10/2015,11.4,17.7,5.8,3.1
02/10/2015,9.1,11.2,6.4,19.9
03/10/2015,8.6,13.3,4.7,3.2
04/10/2015,11.4,15.4,3.5,4.3
05/10/2015,17.2,19.1,15.2,2.8
06/10/2015,14.2,20.2,10.0,6.6
07/10/2015,9.8,11.2,8.7,5.4
08/10/2015,10.4,12.6,7.3,0.1
09/10/2015,9.2,16.0,4.8,0.0
10/10/2015,9.2,16.6,3.5,0.0
11/10/2015,11.7,18.0,6.2,0.2
12/10/2015,12.7,17.3,10.2,7.1
13/10/2015,9.0,10.7,7.2,0.9
14/10/2015,5.9,8.1,2.1,0.0
15/10/2015,4.6,11.6,-0.9,0.0
16/10/2015,5.1,13.5,-0.6,0.0
17/10/2015,8.6,16.9,0.1,1.8
18/10/2015,12.6,18.1,9.8,1.9
19/10/2015,12.4,16.5,9.4,0.0
20/10/2015,9.3,12.3,6.9,0.1
21/10/2015,7.1,7.9,6.0,0.0
22/10/2015,8.1,9.6,6.0,1.4
23/10/2015,11.6,19.9,6.6,0.0
24/10/2015,13.4,19.5,9.8,0.0
25/10/2015,12.3,16.9,7.8,0.0
26/10/2015,12.8,19.8,6.5,0.0
27/10/2015,11.7,14.5,5.7,47.2
28/10/2015,8.3,13.2,5.3,1.8
29/10/2015,10.6,16.1,6.3,0.0
30/10/2015,12.6,21.8,5.7,0.0
31/10/2015,12.7,21.3,7.0,0.0
01/11/2015,10.1,19.3,4.6,0.0
02/11/2015,11.2,17.3,7.0,7.9
03/11/2015,10.4,11.4,9.0,4.7
04/11/2015,11.9,17.6,6.9,0.0
05/11/2015,11.9,18.0,6.1,0.0
06/11/2015,11.9,22.6,6.8,0.0
07/11/2015,12.5,22.9,6.5,0.0
08/11/2015,12.8,24.8,6.9,0.0
09/11/2015,10.6,21.1,5.8,0.0
10/11/2015,9.6,21.6,3.6,0.0
11/11/2015,8.6,22.1,1.8,0.0
12/11/2015,8.0,22.3,1.6,0.0
13/11/2015,8.0,15.7,2.2,0.0
14/11/2015,10.3,17.8,5.0,0.0
15/11/2015,6.3,18.9,-0.3,0.0
16/11/2015,5.2,16.7,-0.1,0.0
17/11/2015,6.0,17.2,-1.0,0.0
18/11/2015,9.8,19.5,5.2,0.0
19/11/2015,9.8,16.4,5.4,0.0
20/11/2015,9.4,17.4,3.4,0.0
21/11/2015,4.4,10.1,0.7,54.3
22/11/2015,0.8,3.0,0.0,15.3
23/11/2015,-0.1,3.9,-2.7,0.3
24/11/2015,0.3,5.1,-4.4,9.2
25/11/2015,6.6,8.6,2.4,83.0
26/11/2015,6.6,7.4,5.3,33.6
27/11/2015,5.8,7.5,4.3,3.3
28/11/2015,5.4,7.4,1.9,17.1
29/11/2015,4.2,10.3,-0.6,0.0
30/11/2015,1.2,10.9,-2.1,0.0
01/12/2015,-0.2,10.1,-4.4,0.0
02/12/2015,1.1,11.9,-3.2,0.0
03/12/2015,3.0,12.9,-2.0,0.0
04/12/2015,6.3,12.8,0.1,0.0
05/12/2015,5.5,13.1,0.6,0.0
06/12/2015,3.5,11.8,-0.4,0.0
07/12/2015,6.5,14.0,1.2,0.0
08/12/2015,8.0,11.3,4.6,1.0
09/12/2015,7.1,11.4,4.2,0.1
10/12/2015,4.0,11.2,0.9,0.0
11/12/2015,2.5,10.8,-0.5,0.0
12/12/2015,2.4,9.7,-1.2,0.0
13/12/2015,1.5,7.4,-1.0,0.0
14/12/2015,6.3,11.3,-0.7,0.0
15/12/2015,8.7,14.5,3.2,0.1
16/12/2015,6.0,15.9,0.8,0.0
17/12/2015,7.5,17.0,1.8,0.0
18/12/2015,7.8,16.9,2.3,0.0
19/12/2015,9.3,17.0,3.8,0.0
20/12/2015,11.4,17.4,6.9,0.0
21/12/2015,4.3,10.4,-0.6,0.0
22/12/2015,5.6,13.8,-0.8,0.0
23/12/2015,5.6,13.1,-0.5,0.0
24/12/2015,7.0,13.7,0.6,0.0
25/12/2015,3.0,12.5,-1.2,0.0
26/12/2015,6.3,15.1,-0.6,0.0
27/12/2015,9.5,16.4,1.5,0.0
28/12/2015,11.0,13.6,8.9,0.0
29/12/2015,6.1,10.1,1.5,1.3
30/12/2015,5.9,12.6,0.4,0.0
31/12/2015,6.1,9.7,-0.7,0.9
