Fecha, Temperatura media, Temperatura maxima, Temperatura minima, Precipitacion acumulada
01/01/2012,7.0,10.6,4.5,0.3
02/01/2012,2.9,5.7,0.8,10.8
03/01/2012,2.2,8.7,-2.5,0.0
04/01/2012,3.1,6.4,-1.3,2.3
05/01/2012,3.5,6.8,-3.0,5.8
06/01/2012,4.1,6.3,2.4,5.2
07/01/2012,4.3,7.1,2.3,0.3
08/01/2012,4.0,6.0,1.9,0.0
09/01/2012,0.7,5.7,-5.2,0.0
10/01/2012,-0.4,12.6,-6.6,0.0
11/01/2012,-0.9,11.2,-7.2,0.0
12/01/2012,-0.3,12.2,-7.1,0.1
13/01/2012,-2.9,4.7,-7.4,0.0
14/01/2012,-4.4,2.6,-8.8,0.0
15/01/2012,-2.4,6.9,-9.4,0.0
16/01/2012,-0.8,3.9,-6.5,0.0
17/01/2012,-2.3,8.1,-7.9,0.0
18/01/2012,-0.7,8.8,-8.4,0.0
19/01/2012,5.4,8.9,-3.4,0.1
20/01/2012,5.1,7.3,3.7,1.5
21/01/2012,5.0,7.7,1.8,0.3
22/01/2012,5.2,6.4,4.4,0.5
23/01/2012,4.2,6.4,1.1,0.4
24/01/2012,1.2,4.3,-4.5,0.7
25/01/2012,-1.0,9.4,-7.8,0.0
26/01/2012,0.0,6.7,-7.4,0.7
27/01/2012,-0.3,1.1,-2.2,3.7
28/01/2012,-1.5,1.7,-4.6,9.0
29/01/2012,-3.3,-2.5,-5.8,0.3
30/01/2012,-3.8,0.9,-7.3,0.4
31/01/2012,-2.2,1.8,-8.2,2.7
01/02/2012,-1.9,1.7,-7.5,7.6
02/02/2012,-10.0,-7.4,-11.7,0.0
03/02/2012,-11.7,-9.3,-13.6,0.0
04/02/2012,-8.8,-5.5,-12.7,0.4
05/02/2012,-2.2,0.9,-5.4,15.3
06/02/2012,-3.5,-1.8,-5.8,0.0
07/02/2012,-6.7,-5.0,-12.7,0.4
08/02/2012,-10.8,-7.4,-14.8,0.0
09/02/2012,-8.2,-4.9,-12.4,0.0
10/02/2012,-6.6,-2.8,-13.6,0.0
11/02/2012,-11.1,-5.3,-22.6,0.3
12/02/2012,-9.2,-5.8,-14.2,0.0
13/02/2012,-5.1,-2.9,-8.2,0.0
14/02/2012,-2.6,-1.5,-3.7,3.3
15/02/2012,-1.0,1.5,-3.0,1.5
16/02/2012,-0.2,0.6,-1.2,1.9
17/02/2012,-1.0,3.4,-9.1,0.1
18/02/2012,-2.1,7.1,-12.0,0.3
19/02/2012,0.5,3.5,-1.9,0.3
20/02/2012,-2.0,0.7,-5.2,0.4
21/02/2012,-5.2,4.6,-13.9,0.1
22/02/2012,-3.3,8.8,-14.6,0.0
23/02/2012,3.0,10.7,-6.8,0.3
24/02/2012,3.1,13.1,-3.4,0.3
25/02/2012,2.5,14.3,-5.4,0.3
26/02/2012,5.4,8.1,2.0,0.1
27/02/2012,3.5,10.2,-3.7,0.1
28/02/2012,3.2,15.0,-5.0,0.3
29/02/2012,3.8,15.0,-4.1,0.1
01/03/2012,5.1,14.7,-4.0,0.5
02/03/2012,6.8,14.1,-2.3,0.1
03/03/2012,4.2,12.0,-3.2,0.1
04/03/2012,3.3,7.5,-2.8,8.9
05/03/2012,-0.0,2.3,-1.9,1.2
06/03/2012,-0.6,1.2,-1.9,1.4
07/03/2012,1.5,7.4,-7.1,0.9
08/03/2012,1.7,4.7,-0.1,1.5
09/03/2012,2.6,6.8,-0.8,0.3
10/03/2012,2.7,9.3,-5.5,0.1
11/03/2012,3.9,7.2,-1.4,0.3
12/03/2012,5.6,15.2,-1.3,0.1
13/03/2012,6.8,19.4,-3.4,0.0
14/03/2012,7.9,21.4,-2.8,0.3
15/03/2012,8.8,20.1,-1.9,0.1
16/03/2012,12.6,17.0,7.5,0.3
17/03/2012,7.6,12.7,2.9,6.5
18/03/2012,1.6,5.1,-1.3,1.4
19/03/2012,0.5,4.1,-1.5,5.4
20/03/2012,1.7,4.8,-1.2,0.3
21/03/2012,0.7,4.2,-0.6,45.7
22/03/2012,3.3,9.1,-2.1,0.1
23/03/2012,4.7,13.5,-4.2,0.5
24/03/2012,9.4,16.1,-0.7,0.3
25/03/2012,7.0,17.4,-2.7,0.1
26/03/2012,10.4,16.5,-0.6,0.3
27/03/2012,7.7,15.0,-0.9,0.5
28/03/2012,7.4,17.5,-2.7,0.3
29/03/2012,7.2,16.6,-2.5,0.3
30/03/2012,7.5,17.1,-2.7,0.4
31/03/2012,7.4,17.6,-2.5,0.5
01/04/2012,7.1,16.8,-1.8,0.3
02/04/2012,9.8,17.0,0.6,2.8
03/04/2012,4.8,6.8,2.5,3.1
04/04/2012,4.4,7.7,1.4,0.4
05/04/2012,4.0,8.1,1.4,17.1
06/04/2012,3.0,7.8,-0.3,19.3
07/04/2012,2.2,4.0,-0.2,7.2
08/04/2012,4.0,6.3,1.9,3.0
09/04/2012,8.2,15.2,-1.5,0.1
10/04/2012,6.2,11.0,0.8,9.1
11/04/2012,4.2,7.2,1.4,0.1
12/04/2012,4.0,7.6,1.2,6.9
13/04/2012,1.8,4.7,0.3,1.0
14/04/2012,1.2,3.8,-1.1,7.6
15/04/2012,0.8,2.7,-0.7,7.8
16/04/2012,-0.4,1.8,-2.1,0.1
17/04/2012,2.8,9.6,-2.8,3.2
18/04/2012,2.4,4.4,-0.6,21.1
19/04/2012,2.0,3.8,0.5,12.4
20/04/2012,3.7,8.1,0.6,4.7
21/04/2012,5.0,9.3,1.8,20.3
22/04/2012,2.9,6.7,-0.8,2.2
23/04/2012,3.6,7.4,-0.7,14.3
24/04/2012,2.8,6.6,-0.0,1.5
25/04/2012,10.0,14.9,5.0,0.1
26/04/2012,8.4,11.4,6.7,17.3
27/04/2012,11.6,16.7,4.8,5.3
28/04/2012,6.1,8.9,2.5,72.9
29/04/2012,4.2,7.8,2.4,12.8
30/04/2012,3.1,6.9,-0.8,22.3
01/05/2012,6.9,11.7,3.4,0.6
02/05/2012,10.4,15.8,5.6,0.0
03/05/2012,11.8,16.1,6.8,7.4
04/05/2012,8.1,11.5,3.8,8.4
05/05/2012,6.2,10.7,-0.6,12.4
06/05/2012,5.2,10.9,-0.9,0.0
07/05/2012,9.2,15.5,-1.2,2.3
08/05/2012,12.3,16.6,9.8,19.6
09/05/2012,16.5,22.1,8.4,0.1
10/05/2012,20.6,25.6,16.3,0.0
11/05/2012,21.5,27.2,13.1,0.1
12/05/2012,15.1,21.3,10.7,0.0
13/05/2012,10.5,14.0,3.7,0.0
14/05/2012,9.0,18.2,-2.0,0.1
15/05/2012,6.6,11.5,2.8,0.1
16/05/2012,8.9,17.4,1.5,0.3
17/05/2012,15.0,20.6,4.5,0.0
18/05/2012,10.9,18.1,8.0,15.1
19/05/2012,9.1,12.8,6.3,19.0
20/05/2012,4.8,6.3,2.8,20.5
21/05/2012,3.9,5.7,2.3,23.5
22/05/2012,7.9,10.6,5.4,3.6
23/05/2012,10.6,17.9,0.7,0.0
24/05/2012,13.5,22.2,2.5,0.1
25/05/2012,19.3,25.4,7.5,1.2
26/05/2012,13.5,16.8,9.4,0.0
27/05/2012,12.5,19.7,4.1,0.4
28/05/2012,11.9,19.6,2.8,0.3
29/05/2012,14.1,22.4,5.1,0.3
30/05/2012,14.9,23.7,3.5,0.1
31/05/2012,16.8,25.3,7.8,0.0
01/06/2012,18.9,29.0,6.0,0.3
02/06/2012,17.5,26.7,9.3,19.7
03/06/2012,10.7,13.5,7.2,11.7
04/06/2012,10.3,15.6,3.0,0.0
05/06/2012,13.8,23.9,1.0,0.1
06/06/2012,16.5,22.6,8.8,0.0
07/06/2012,16.8,21.9,8.6,0.0
08/06/2012,8.7,12.6,0.4,0.6
09/06/2012,9.4,16.5,-1.2,0.4
10/06/2012,12.2,15.2,10.2,9.5
11/06/2012,9.8,16.7,6.5,9.3
12/06/2012,8.1,11.4,5.7,2.9
13/06/2012,9.8,15.3,6.0,0.0
14/06/2012,17.3,23.3,9.8,0.0
15/06/2012,18.3,25.3,9.8,0.0
16/06/2012,15.9,24.8,7.9,0.1
17/06/2012,18.6,25.8,8.7,0.0
18/06/2012,13.9,17.0,11.5,9.4
19/06/2012,14.9,17.4,11.6,17.7
20/06/2012,18.3,24.3,9.8,0.0
21/06/2012,14.6,21.1,5.7,0.0
22/06/2012,10.8,17.4,1.7,0.3
23/06/2012,14.3,22.9,6.8,0.3
24/06/2012,15.4,24.6,5.2,0.1
25/06/2012,15.8,24.3,4.7,0.3
26/06/2012,18.3,28.0,6.8,0.0
27/06/2012,21.7,31.2,7.0,0.1
28/06/2012,22.0,29.9,13.5,0.0
29/06/2012,17.1,27.5,9.5,0.1
30/06/2012,13.3,22.0,8.8,0.0
01/07/2012,9.0,11.8,7.5,0.0
02/07/2012,11.3,19.6,-0.1,0.1
03/07/2012,17.5,26.4,7.0,0.1
04/07/2012,15.2,19.7,12.3,0.0
05/07/2012,11.0,13.3,5.5,9.0
06/07/2012,12.3,17.9,6.3,0.0
07/07/2012,16.6,24.0,10.5,11.1
08/07/2012,13.0,18.6,7.4,0.0
09/07/2012,14.6,22.7,10.1,0.0
10/07/2012,13.1,17.5,10.7,0.0
11/07/2012,11.4,15.2,8.2,0.1
12/07/2012,14.1,22.9,4.7,0.3
13/07/2012,16.2,27.0,4.0,0.0
14/07/2012,11.8,15.2,5.5,0.0
15/07/2012,9.6,15.5,1.9,0.1
16/07/2012,12.8,20.9,3.2,0.4
17/07/2012,16.6,28.0,3.3,0.3
18/07/2012,19.2,29.8,4.8,0.0
19/07/2012,13.7,19.1,5.4,0.0
20/07/2012,12.4,16.9,5.4,0.0
21/07/2012,13.4,17.5,10.1,0.0
22/07/2012,14.6,18.3,10.9,0.0
23/07/2012,14.6,22.3,2.9,0.1
24/07/2012,18.9,27.5,6.6,0.0
25/07/2012,22.2,29.7,14.1,0.0
26/07/2012,22.0,31.0,13.7,5.7
27/07/2012,17.8,26.6,12.7,7.5
28/07/2012,14.3,19.1,11.0,0.0
29/07/2012,14.0,21.6,6.5,0.0
30/07/2012,15.5,26.4,5.6,0.3
31/07/2012,21.0,30.6,7.1,0.0
01/08/2012,19.5,27.3,10.8,0.0
02/08/2012,15.2,22.5,8.0,0.0
03/08/2012,14.4,21.0,8.2,0.0
04/08/2012,15.3,24.0,8.0,0.5
05/08/2012,12.4,15.3,9.9,2.3
06/08/2012,12.5,19.7,4.8,0.0
07/08/2012,16.1,27.1,2.7,0.0
08/08/2012,21.6,30.2,9.1,0.0
09/08/2012,23.5,33.3,10.7,0.0
10/08/2012,22.7,34.6,9.4,0.0
11/08/2012,19.0,31.1,11.1,0.0
12/08/2012,15.2,20.2,8.3,0.0
13/08/2012,15.5,26.9,4.1,0.0
14/08/2012,23.1,28.6,9.8,0.0
15/08/2012,17.8,23.0,6.1,0.0
16/08/2012,17.1,27.6,3.6,0.3
17/08/2012,27.7,34.3,21.9,0.0
18/08/2012,29.9,35.8,25.8,0.0
19/08/2012,27.4,33.5,23.8,0.1
20/08/2012,25.9,33.3,15.3,0.0
21/08/2012,22.9,33.0,13.0,0.0
22/08/2012,19.2,30.5,12.4,0.0
23/08/2012,20.4,31.5,11.9,0.1
24/08/2012,17.7,27.7,8.7,0.0
25/08/2012,12.6,16.0,8.1,1.1
26/08/2012,13.2,20.8,4.8,0.3
27/08/2012,19.9,29.2,3.9,0.1
28/08/2012,18.9,27.2,9.7,2.3
29/08/2012,17.4,26.5,12.7,7.6
30/08/2012,11.9,16.1,9.4,0.4
31/08/2012,10.1,13.9,7.8,2.2
01/09/2012,9.3,12.8,6.9,0.0
02/09/2012,10.7,15.0,7.5,0.1
03/09/2012,12.4,15.8,10.3,0.0
04/09/2012,13.4,16.2,10.6,0.0
05/09/2012,13.2,20.1,5.3,0.0
06/09/2012,14.3,23.9,4.5,0.3
07/09/2012,17.5,28.0,6.9,0.0
08/09/2012,16.6,27.0,7.7,0.0
09/09/2012,17.0,27.3,5.0,0.1
10/09/2012,19.8,26.0,12.3,0.0
11/09/2012,16.2,24.4,7.4,0.1
12/09/2012,12.1,14.5,8.5,1.8
13/09/2012,10.0,12.3,8.0,8.1
14/09/2012,11.8,17.8,6.8,0.1
15/09/2012,12.2,23.7,2.7,0.4
16/09/2012,14.6,27.0,2.3,0.1
17/09/2012,16.6,26.2,6.9,0.1
18/09/2012,12.8,17.7,10.3,0.3
19/09/2012,10.6,15.5,-0.3,0.1
20/09/2012,15.7,24.3,-1.1,0.0
21/09/2012,19.0,25.7,13.2,1.1
22/09/2012,17.0,25.1,7.8,0.3
23/09/2012,18.9,25.1,13.9,9.5
24/09/2012,13.0,18.0,9.7,6.7
25/09/2012,11.8,14.5,8.9,25.5
26/09/2012,8.4,12.2,3.0,12.5
27/09/2012,7.8,15.4,1.0,0.1
28/09/2012,10.8,16.2,5.0,9.5
29/09/2012,8.4,10.7,6.7,22.1
30/09/2012,7.5,11.5,0.5,0.6
01/10/2012,6.5,16.7,-0.8,0.3
02/10/2012,8.7,19.3,-2.0,0.1
03/10/2012,10.0,20.1,1.0,0.1
04/10/2012,12.4,20.2,4.4,0.3
05/10/2012,16.7,21.6,8.8,0.0
06/10/2012,16.4,22.2,6.6,0.0
07/10/2012,13.7,19.1,8.6,0.0
08/10/2012,15.0,24.5,8.4,0.1
09/10/2012,13.8,21.8,6.5,0.1
10/10/2012,13.5,20.5,9.4,8.4
11/10/2012,12.2,16.5,9.9,28.1
12/10/2012,6.8,10.0,0.6,4.6
13/10/2012,5.1,12.8,-0.2,0.5
14/10/2012,6.6,12.0,0.4,19.3
15/10/2012,4.5,9.7,-0.6,2.9
16/10/2012,8.8,14.5,-0.3,0.3
17/10/2012,13.6,17.1,10.5,0.0
18/10/2012,15.7,18.2,13.3,0.0
19/10/2012,11.4,18.2,8.7,96.2
20/10/2012,9.0,10.0,8.4,97.8
21/10/2012,10.0,15.2,5.4,9.9
22/10/2012,8.6,14.3,3.0,0.5
23/10/2012,7.7,16.8,0.8,0.3
24/10/2012,12.6,16.9,2.7,2.9
25/10/2012,11.6,13.0,10.5,8.5
26/10/2012,10.1,11.5,7.8,22.3
27/10/2012,3.1,8.5,-1.8,10.4
28/10/2012,-0.3,2.2,-3.5,1.8
29/10/2012,0.6,9.6,-7.4,0.1
30/10/2012,2.6,9.9,-5.6,0.5
31/10/2012,3.8,9.2,-1.8,0.4
01/11/2012,5.8,8.4,3.4,11.6
02/11/2012,8.5,10.9,5.6,0.0
03/11/2012,9.8,11.1,8.4,2.9
04/11/2012,7.3,10.7,2.2,16.8
05/11/2012,1.8,8.1,-2.4,0.8
06/11/2012,1.9,4.8,-3.1,1.1
07/11/2012,2.0,8.6,-8.0,0.6
08/11/2012,10.0,12.6,6.5,0.3
09/11/2012,11.3,13.3,9.7,3.3
10/11/2012,6.6,9.6,2.5,22.8
11/11/2012,2.5,4.5,1.5,2.3
12/11/2012,2.3,6.3,-3.8,0.4
13/11/2012,2.7,14.2,-6.3,0.3
14/11/2012,9.8,16.2,2.3,0.3
15/11/2012,8.2,14.7,1.3,0.0
16/11/2012,9.4,14.0,0.8,0.3
17/11/2012,9.7,12.6,7.3,2.8
18/11/2012,5.8,8.3,-1.1,2.4
19/11/2012,1.3,10.5,-4.0,0.5
20/11/2012,4.9,12.3,-4.0,0.3
21/11/2012,5.3,9.3,-0.8,2.0
22/11/2012,4.2,10.2,-1.9,0.3
23/11/2012,7.4,10.7,5.6,0.3
24/11/2012,9.2,10.8,7.8,0.1
25/11/2012,7.8,9.9,5.6,4.6
26/11/2012,4.1,8.7,1.3,30.2
27/11/2012,0.1,1.6,-1.1,10.3
28/11/2012,-0.2,0.3,-0.9,9.2
29/11/2012,-1.0,-0.5,-1.4,0.5
30/11/2012,-2.2,0.1,-5.8,0.0
01/12/2012,-3.9,-0.3,-6.7,0.0
02/12/2012,0.2,3.1,-4.3,3.4
03/12/2012,2.7,5.9,-1.5,5.0
04/12/2012,0.6,2.5,-0.4,24.3
05/12/2012,-0.3,0.4,-0.6,35.1
06/12/2012,-0.8,2.3,-5.1,2.2
07/12/2012,1.8,4.9,-1.1,6.2
08/12/2012,0.1,1.2,-0.8,6.6
09/12/2012,-2.4,5.0,-10.2,0.1
10/12/2012,-2.9,3.0,-11.4,0.3
11/12/2012,-1.9,2.6,-11.2,0.0
12/12/2012,-1.4,2.7,-11.3,0.6
13/12/2012,1.5,2.7,0.3,29.0
14/12/2012,5.0,7.2,2.5,49.6
15/12/2012,6.5,7.8,2.9,0.5
16/12/2012,5.4,6.9,2.4,20.9
17/12/2012,2.8,5.3,-1.9,3.8
18/12/2012,2.5,7.9,-2.7,0.6
19/12/2012,6.9,8.5,4.5,1.1
20/12/2012,5.1,7.2,1.7,3.4
21/12/2012,4.7,8.3,0.2,5.0
22/12/2012,4.3,11.8,-0.6,0.3
23/12/2012,6.0,16.1,-2.1,0.3
24/12/2012,12.4,15.0,10.7,0.4
25/12/2012,7.1,10.8,2.6,0.1
26/12/2012,1.7,5.5,-4.9,0.6
27/12/2012,1.8,7.8,-5.3,0.6
28/12/2012,5.7,12.2,-1.2,0.1
29/12/2012,5.1,9.8,-3.9,1.1
30/12/2012,-0.7,4.9,-5.5,0.0
31/12/2012,0.1,5.8,-5.8,2.4
