Fecha, Temperatura media, Temperatura maxima, Temperatura minima, Precipitacion acumulada
01/01/2016,-,13.0,0.0,2.5
02/01/2016,-,10.0,5.0,3.1
03/01/2016,-,7.0,0.0,24.5
04/01/2016,-,8.0,6.0,15.2
05/01/2016,-,7.0,1.0,1.9
06/01/2016,-,6.0,0.0,6.8
07/01/2016,-,14.0,3.0,1.3
08/01/2016,-,13.0,7.0,8.8
09/01/2016,-,12.0,8.0,3.7
10/01/2016,-,12.0,10.0,10.0
11/01/2016,-,10.0,6.0,0.0
12/01/2016,-,9.0,2.0,0.0
13/01/2016,-,7.0,-1.0,7.0
14/01/2016,-,7.0,0.0,5.0
15/01/2016,-,4.0,2.0,12.0
16/01/2016,-,4.0,0.0,8.1
17/01/2016,-,7.0,0.0,4.8
18/01/2016,-,5.0,0.0,7.3
19/01/2016,-,7.0,2.0,0.3
20/01/2016,-,9.0,-1.0,0.0
21/01/2016,-,11.0,-3.0,0.0
22/01/2016,-,9.0,-2.0,5.4
23/01/2016,-,13.0,5.0,0.0
24/01/2016,-,16.0,3.0,0.3
25/01/2016,-,10.0,3.0,0.0
26/01/2016,-,9.0,4.0,0.0
27/01/2016,-,10.0,5.0,0.0
28/01/2016,-,9.0,7.0,2.2
29/01/2016,-,8.0,6.0,0.0
30/01/2016,-,9.0,1.0,1.8
31/01/2016,-,11.0,1.0,2.8
01/02/2016,-,12.0,5.0,0.0
02/02/2016,-,11.0,4.0,0.7
03/02/2016,-,8.0,4.0,6.6
04/02/2016,-,9.0,1.0,0.0
05/02/2016,-,13.0,-2.0,0.0
06/02/2016,-,11.0,-3.0,7.1
07/02/2016,-,8.0,2.0,0.6
08/02/2016,-,14.0,0.0,0.0
09/02/2016,-,13.0,1.0,13.2
10/02/2016,-,7.0,4.0,6.5
11/02/2016,-,8.0,4.0,9.9
12/02/2016,-,11.0,5.0,28.5
13/02/2016,-,16.0,7.0,30.5
14/02/2016,-,7.0,3.0,15.7
15/02/2016,-,4.0,1.0,3.1
16/02/2016,-,3.0,0.0,0.0
17/02/2016,-,6.0,-5.0,1.1
18/02/2016,-,6.0,-4.0,3.5
19/02/2016,-,8.0,-1.0,0.0
20/02/2016,-,13.0,-3.0,0.0
21/02/2016,-,16.0,-2.5,0.0
22/02/2016,-,14.0,-2.0,2.5
23/02/2016,-,10.0,3.0,0.3
24/02/2016,-,13.0,1.0,1.9
25/02/2016,-,9.0,1.0,2.1
26/02/2016,-,11.0,2.0,31.6
27/02/2016,-,5.0,1.0,38.2
28/02/2016,-,7.0,1.0,9.8
29/02/2016,-,6.0,3.0,2.5
01/03/2016,-,10.0,3.0,0.2
02/03/2016,-,10.0,3.0,13.5
03/03/2016,-,7.0,4.0,8.1
04/03/2016,-,12.0,4.0,14.5
05/03/2016,-,6.0,1.0,27.4
06/03/2016,-,4.0,0.0,9.8
07/03/2016,-,4.0,1.0,2.2
08/03/2016,-,6.0,0.0,1.8
09/03/2016,-,7.0,1.0,47.2
10/03/2016,-,6.0,1.0,4.5
11/03/2016,-,6.0,1.0,0.0
12/03/2016,-,7.0,4.0,0.0
13/03/2016,-,9.0,2.0,3.8
14/03/2016,-,2.0,1.0,23.4
15/03/2016,-,11.0,0.0,2.4
16/03/2016,-,6.0,0.0,2.2
17/03/2016,-,9.0,0.0,0.0
18/03/2016,-,12.0,-2.0,0.0
19/03/2016,-,9.0,0.0,8.8
20/03/2016,-,12.0,5.0,0.5
21/03/2016,-,12.0,0.0,0.0
22/03/2016,-,10.0,6.0,0.0
23/03/2016,-,9.0,3.0,0.0
24/03/2016,-,11.0,6.0,0.0
25/03/2016,-,12.0,0.0,0.0
26/03/2016,-,20.0,4.0,11.1
27/03/2016,-,14.0,3.0,0.2
28/03/2016,-,14.0,3.0,4.9
29/03/2016,-,15.0,8.0,1.1
30/03/2016,-,20.0,7.0,0.0
31/03/2016,-,10.5,10.0,25.6
01/04/2016,-,9.0,4.0,0.0
02/04/2016,-,15.0,-1.5,0.0
03/04/2016,-,16.0,0.0,0.8
04/04/2016,-,10.0,4.0,12.8
05/04/2016,-,10.0,7.0,0.8
06/04/2016,-,11.0,6.0,0.6
07/04/2016,-,10.0,7.0,14.2
08/04/2016,-,8.0,3.0,6.7
09/04/2016,-,12.0,3.0,0.6
10/04/2016,-,17.0,3.0,1.3
11/04/2016,-,15.0,4.0,0.2
12/04/2016,-,15.0,6.0,9.4
13/04/2016,-,16.0,4.0,0.0
14/04/2016,-,18.0,5.0,4.0
15/04/2016,-,20.0,9.0,2.4
16/04/2016,-,17.0,7.0,3.8
17/04/2016,-,16.0,5.0,0.0
18/04/2016,-,16.0,1.0,0.0
19/04/2016,-,19.0,2.0,1.4
20/04/2016,-,15.0,5.0,6.1
21/04/2016,-,16.0,8.0,0.9
22/04/2016,-,16.0,3.0,4.8
23/04/2016,-,13.0,3.0,2.2
24/04/2016,-,10.0,6.0,0.3
25/04/2016,-,11.0,2.0,0.0
26/04/2016,-,14.0,0.0,0.0
27/04/2016,-,12.0,3.0,0.0
28/04/2016,-,12.0,3.0,0.0
29/04/2016,-,17.0,0.0,2.2
30/04/2016,-,9.0,6.0,7.9
01/05/2016,-,10.0,4.0,0.0
02/05/2016,-,14.0,3.0,0.0
03/05/2016,-,15.0,2.0,0.0
04/05/2016,-,25.0,1.0,0.0
05/05/2016,-,24.0,5.0,0.0
06/05/2016,-,19.0,9.0,0.0
07/05/2016,-,18.0,12.0,2.9
08/05/2016,-,19.0,12.0,11.1
09/05/2016,-,18.0,13.0,7.0
10/05/2016,-,18.0,9.0,6.6
11/05/2016,-,18.0,10.0,0.0
12/05/2016,-,15.0,4.0,0.8
13/05/2016,-,13.0,6.0,1.6
14/05/2016,-,13.0,9.0,0.8
15/05/2016,-,14.0,10.0,0.6
16/05/2016,-,15.0,9.0,0.0
17/05/2016,-,20.0,7.0,0.0
18/05/2016,-,21.0,5.0,0.0
19/05/2016,-,14.0,8.0,0.0
20/05/2016,-,24.0,7.0,0.0
21/05/2016,-,28.0,6.0,2.8
22/05/2016,-,17.0,12.0,7.3
23/05/2016,-,15.0,5.0,0.0
24/05/2016,-,23.0,4.0,0.0
25/05/2016,-,24.0,7.0,0.2
26/05/2016,-,23.0,13.0,0.0
27/05/2016,-,27.0,11.0,0.0
28/05/2016,-,24.0,11.0,28.2
29/05/2016,-,18.0,10.0,0.5
30/05/2016,-,17.0,8.0,2.8
31/05/2016,-,16.0,10.0,0.3
01/06/2016,-,18.0,6.0,0.0
02/06/2016,-,20.0,10.0,0.0
03/06/2016,-,26.0,7.0,1.1
04/06/2016,-,21.0,11.0,0.0
05/06/2016,-,25.0,9.0,0.0
06/06/2016,-,25.0,10.0,9.2
07/06/2016,-,26.0,9.0,0.0
08/06/2016,-,28.0,10.0,0.0
09/06/2016,-,26.0,11.0,0.0
10/06/2016,-,17.0,13.0,0.0
11/06/2016,-,18.0,10.0,0.0
12/06/2016,-,22.0,8.0,0.0
13/06/2016,-,21.0,14.0,0.0
14/06/2016,-,22.0,13.0,4.5
15/06/2016,-,20.0,11.0,2.8
16/06/2016,-,15.0,8.0,3.1
17/06/2016,-,16.0,5.0,8.8
18/06/2016,-,15.0,8.0,0.8
19/06/2016,-,16.0,10.0,0.0
20/06/2016,-,24.0,10.0,0.0
21/06/2016,-,32.0,10.0,0.0
22/06/2016,-,33.0,12.0,0.0
23/06/2016,-,33.0,14.0,0.0
24/06/2016,-,24.0,15.0,6.2
25/06/2016,-,16.0,14.0,0.0
26/06/2016,-,17.0,11.0,0.0
27/06/2016,-,22.0,9.0,0.0
28/06/2016,-,28.0,8.0,0.0
29/06/2016,-,24.0,10.0,0.0
30/06/2016,-,25.0,10.0,0.0
01/07/2016,-,25.0,13.0,0.0
02/07/2016,-,19.0,14.0,0.0
03/07/2016,-,23.0,8.0,0.0
04/07/2016,-,31.0,10.0,8.7
05/07/2016,-,21.0,13.0,0.0
06/07/2016,-,28.0,13.0,3.5
07/07/2016,-,31.0,15.0,0.0
08/07/2016,-,29.0,17.0,0.0
09/07/2016,-,33.0,14.0,0.0
10/07/2016,-,33.0,15.0,0.2
11/07/2016,-,24.0,15.0,0.0
12/07/2016,-,19.0,15.0,0.0
13/07/2016,-,17.0,12.0,0.0
14/07/2016,-,20.0,12.0,0.0
15/07/2016,-,24.0,8.0,0.0
16/07/2016,-,26.0,9.0,0.0
17/07/2016,-,33.0,9.0,0.0
18/07/2016,-,35.0,12.0,0.0
19/07/2016,-,37.0,12.0,0.0
20/07/2016,-,31.0,15.0,0.0
21/07/2016,-,27.0,15.0,2.3
22/07/2016,-,21.0,15.0,0.9
23/07/2016,-,21.0,13.0,0.0
24/07/2016,-,23.0,15.0,0.0
25/07/2016,-,25.0,11.0,0.0
26/07/2016,-,26.0,12.0,0.0
27/07/2016,-,22.0,13.0,0.0
28/07/2016,-,26.0,10.0,0.0
29/07/2016,-,32.0,10.0,0.0
30/07/2016,-,34.0,12.0,0.0
31/07/2016,-,21.0,17.0,0.0
01/08/2016,-,22.0,13.0,0.0
02/08/2016,-,30.0,8.0,0.0
03/08/2016,-,33.0,10.0,0.0
04/08/2016,-,27.0,13.0,0.0
05/08/2016,-,22.0,15.0,0.0
06/08/2016,-,24.0,16.0,0.0
07/08/2016,-,27.0,14.0,0.0
08/08/2016,-,26.0,12.0,0.0
09/08/2016,-,22.0,17.0,0.0
10/08/2016,-,20.0,10.0,0.0
11/08/2016,-,21.0,10.0,0.0
12/08/2016,-,31.0,7.0,0.0
13/08/2016,-,34.0,8.0,0.0
14/08/2016,-,35.0,11.0,0.0
15/08/2016,-,34.0,13.0,0.0
16/08/2016,-,33.0,12.0,0.0
17/08/2016,-,31.0,13.0,0.0
18/08/2016,-,25.0,16.0,0.0
19/08/2016,-,31.0,9.0,1.1
20/08/2016,-,20.0,11.0,0.0
21/08/2016,-,22.0,10.0,0.0
22/08/2016,-,34.0,8.0,0.0
23/08/2016,-,37.0,8.0,0.0
24/08/2016,-,36.0,11.0,0.0
25/08/2016,-,35.0,10.0,0.0
26/08/2016,-,34.0,10.0,0.0
27/08/2016,-,35.0,11.0,0.0
28/08/2016,-,27.0,13.0,0.0
29/08/2016,-,21.0,15.0,0.0
30/08/2016,-,24.0,10.0,0.0
31/08/2016,-,26.0,10.0,0.0
01/09/2016,-,31.0,10.0,0.0
02/09/2016,-,34.0,12.0,0.0
03/09/2016,-,36.0,12.0,0.0
04/09/2016,-,35.0,13.0,0.0
05/09/2016,-,28.0,12.0,0.0
06/09/2016,-,31.0,12.0,0.0
07/09/2016,-,34.0,12.0,0.0
08/09/2016,-,22.0,17.0,0.0
09/09/2016,-,26.0,15.0,0.0
10/09/2016,-,27.0,9.0,0.0
11/09/2016,-,31.0,10.0,0.0
12/09/2016,-,34.0,10.0,0.0
13/09/2016,-,27.0,16.0,17.3
14/09/2016,-,18.0,8.0,1.4
15/09/2016,-,16.0,8.0,24.5
16/09/2016,-,18.0,9.0,3.4
17/09/2016,-,14.0,9.0,6.4
18/09/2016,-,16.0,10.0,2.6
19/09/2016,-,17.0,9.0,0.0
20/09/2016,-,19.0,9.0,0.0
21/09/2016,-,24.0,7.0,0.0
22/09/2016,-,25.0,7.0,0.0
23/09/2016,-,25.0,13.0,0.0
24/09/2016,-,25.0,9.0,0.0
25/09/2016,-,20.0,11.0,0.0
26/09/2016,-,25.0,10.0,0.0
27/09/2016,-,19.0,7.0,0.0
28/09/2016,-,24.0,7.0,0.0
29/09/2016,-,26.0,8.0,0.0
30/09/2016,-,26.0,7.0,1.5
01/10/2016,-,19.0,7.0,0.0
02/10/2016,-,23.0,9.0,0.0
03/10/2016,-,26.0,8.0,0.0
04/10/2016,-,26.0,8.0,0.0
05/10/2016,-,20.0,8.0,0.0
06/10/2016,-,19.0,10.0,0.0
07/10/2016,-,21.0,4.0,0.0
08/10/2016,-,17.0,4.0,0.0
09/10/2016,-,15.0,5.0,0.0
10/10/2016,-,15.0,1.0,0.0
11/10/2016,-,16.0,-1.0,0.0
12/10/2016,-,17.0,5.0,5.1
13/10/2016,-,16.0,10.0,7.0
14/10/2016,-,14.0,10.0,2.3
15/10/2016,-,19.0,2.0,0.0
16/10/2016,-,19.0,8.0,3.8
17/10/2016,-,18.0,11.0,0.0
18/10/2016,-,17.0,10.0,0.0
19/10/2016,-,12.0,3.0,0.0
20/10/2016,-,16.0,4.0,0.0
21/10/2016,-,16.0,0.0,0.0
22/10/2016,-,16.0,1.0,0.0
23/10/2016,-,20.0,8.0,3.6
24/10/2016,-,16.0,10.0,0.2
25/10/2016,-,22.0,10.0,0.0
26/10/2016,-,21.0,9.0,0.0
27/10/2016,-,20.0,9.0,0.0
28/10/2016,-,22.0,0.0,0.0
29/10/2016,-,23.0,1.0,0.0
30/10/2016,-,23.0,0.0,0.0
31/10/2016,-,19.0,0.0,0.0
01/11/2016,-,17.0,3.0,0.0
02/11/2016,-,21.0,1.0,0.0
03/11/2016,-,19.0,0.0,0.0
04/11/2016,-,13.0,0.0,16.1
05/11/2016,-,10.0,4.0,14.5
06/11/2016,-,7.0,5.0,1.8
07/11/2016,-,7.0,3.0,8.7
08/11/2016,-,7.0,1.0,22.5
09/11/2016,-,9.0,1.0,9.1
10/11/2016,-,10.0,7.0,0.6
11/11/2016,-,10.0,7.0,0.4
12/11/2016,-,13.0,3.0,6.4
13/11/2016,-,12.0,4.0,1.6
14/11/2016,-,10.0,8.0,0.0
15/11/2016,-,11.0,2.0,0.0
16/11/2016,-,15.0,0.0,0.0
17/11/2016,-,17.0,0.0,0.0
18/11/2016,-,12.0,1.0,0.5
19/11/2016,-,11.0,4.0,0.0
20/11/2016,-,12.0,4.0,7.5
21/11/2016,-,14.0,10.0,5.5
22/11/2016,-,8.0,6.0,40.5
23/11/2016,-,5.0,3.0,43.5
24/11/2016,-,8.0,3.0,0.0
25/11/2016,-,9.0,-3.0,0.0
26/11/2016,-,9.0,-2.0,0.6
27/11/2016,-,15.0,1.0,0.0
28/11/2016,-,10.0,-2.0,0.0
29/11/2016,-,12.0,-1.0,0.0
30/11/2016,-,12.0,4.0,0.0
01/12/2016,-,12.0,-2.0,0.0
02/12/2016,-,10.0,-2.0,0.0
03/12/2016,-,10.0,-2.0,0.5
04/12/2016,-,11.0,-1.0,0.0
05/12/2016,-,14.0,5.0,0.0
06/12/2016,-,13.0,-1.0,0.0
07/12/2016,-,10.0,-1.0,0.0
08/12/2016,-,13.0,-1.0,0.0
09/12/2016,-,12.0,-1.0,0.0
10/12/2016,-,9.0,0.0,0.0
11/12/2016,-,13.0,0.0,0.0
12/12/2016,-,14.0,-1.0,0.0
13/12/2016,-,9.0,-2.0,0.0
14/12/2016,-,10.0,-1.5,0.0
15/12/2016,-,9.0,-3.0,0.0
16/12/2016,-,10.0,-3.0,0.4
17/12/2016,-,11.0,-2.0,0.0
18/12/2016,-,9.0,-2.5,0.0
19/12/2016,-,8.0,-4.0,0.9
20/12/2016,-,8.0,1.0,0.0
21/12/2016,-,8.0,-1.0,1.8
22/12/2016,-,9.0,0.0,1.4
23/12/2016,-,11.0,5.0,0.6
24/12/2016,-,11.0,6.0,0.5
25/12/2016,-,12.0,0.0,0.0
26/12/2016,-,9.0,-2.5,0.0
27/12/2016,-,9.0,-2.5,0.0
