Comarca,Fecha, Temperatura media, Temperatura maxima, Temperatura minima, Precipitacion acumulada,Localidad
Ribera_Alta,01/01/2017,0.0,1.5,0.5,0.0,Andosilla
Ribera_Alta,02/01/2017,0.0,3.0,0.0,0.0,Andosilla
Ribera_Alta,03/01/2017,0.0,11.5,-3.0,0.0,Andosilla
Ribera_Alta,04/01/2017,0.0,14.5,3.0,0.0,Andosilla
Ribera_Alta,05/01/2017,0.0,11.5,0.0,0.0,Andosilla
Ribera_Alta,06/01/2017,0.0,11.0,1.0,0.0,Andosilla
Ribera_Alta,07/01/2017,0.0,13.0,1.5,0.0,Andosilla
Ribera_Alta,08/01/2017,0.0,14.5,3.5,0.0,Andosilla
Ribera_Alta,09/01/2017,0.0,12.5,4.5,0.0,Andosilla
Ribera_Alta,10/01/2017,0.0,12.0,4.5,0.8,Andosilla
Ribera_Alta,11/01/2017,0.0,15.5,7.5,0.0,Andosilla
Ribera_Alta,12/01/2017,0.0,14.0,4.0,0.0,Andosilla
Ribera_Alta,13/01/2017,0.0,9.5,4.0,0.0,Andosilla
Ribera_Alta,14/01/2017,0.0,8.0,3.0,0.3,Andosilla
Ribera_Alta,15/01/2017,0.0,10.5,4.0,0.0,Andosilla
Ribera_Alta,16/01/2017,0.0,12.0,7.5,0.6,Andosilla
Ribera_Alta,17/01/2017,0.0,5.5,2.0,0.0,Andosilla
Ribera_Alta,18/01/2017,0.0,2.0,-2.5,0.0,Andosilla
Ribera_Alta,19/01/2017,0.0,5.5,-5.0,0.0,Andosilla
Ribera_Alta,20/01/2017,0.0,5.0,-5.0,0.0,Andosilla
Ribera_Alta,21/01/2017,0.0,11.5,-4.0,0.0,Andosilla
Ribera_Alta,22/01/2017,0.0,10.5,3.0,0.0,Andosilla
Ribera_Alta,23/01/2017,0.0,12.0,4.0,0.0,Andosilla
Ribera_Alta,24/01/2017,0.0,12.0,4.0,0.0,Andosilla
Ribera_Alta,25/01/2017,0.0,9.5,-1.5,0.0,Andosilla
Ribera_Alta,26/01/2017,0.0,7.0,-6.0,0.0,Andosilla
Ribera_Alta,27/01/2017,0.0,10.0,-5.5,33.2,Andosilla
Ribera_Alta,28/01/2017,0.0,11.5,4.5,0.0,Andosilla
Ribera_Alta,29/01/2017,0.0,11.0,0.0,0.0,Andosilla
Ribera_Alta,30/01/2017,0.0,14.0,1.0,0.0,Andosilla
Ribera_Alta,31/01/2017,0.0,15.5,1.0,0.0,Andosilla
Ribera_Alta,01/02/2017,0.0,13.0,2.0,2.4,Andosilla
Ribera_Alta,02/02/2017,0.0,13.5,7.0,3.5,Andosilla
Ribera_Alta,03/02/2017,0.0,17.5,2.5,4.3,Andosilla
Ribera_Alta,04/02/2017,0.0,12.0,8.0,2.7,Andosilla
Ribera_Alta,05/02/2017,0.0,11.0,6.5,0.3,Andosilla
Ribera_Alta,06/02/2017,0.0,14.5,6.0,0.2,Andosilla
Ribera_Alta,07/02/2017,0.0,13.0,6.5,5.9,Andosilla
Ribera_Alta,08/02/2017,0.0,9.0,3.5,0.3,Andosilla
Ribera_Alta,09/02/2017,0.0,12.0,3.0,0.0,Andosilla
Ribera_Alta,10/02/2017,0.0,11.5,1.5,0.0,Andosilla
Ribera_Alta,11/02/2017,0.0,9.5,1.5,13.0,Andosilla
Ribera_Alta,12/02/2017,0.0,13.0,5.0,7.9,Andosilla
Ribera_Alta,13/02/2017,0.0,12.0,8.5,8.3,Andosilla
Ribera_Alta,14/02/2017,0.0,14.5,6.5,0.0,Andosilla
Ribera_Alta,15/02/2017,0.0,15.0,6.5,0.0,Andosilla
Ribera_Alta,16/02/2017,0.0,15.0,4.0,0.0,Andosilla
Ribera_Alta,17/02/2017,0.0,15.0,1.0,0.0,Andosilla
Ribera_Alta,18/02/2017,0.0,15.0,0.0,0.0,Andosilla
Ribera_Alta,19/02/2017,0.0,16.5,1.5,0.0,Andosilla
Ribera_Alta,20/02/2017,0.0,15.5,6.0,0.0,Andosilla
Ribera_Alta,21/02/2017,0.0,16.5,3.5,0.0,Andosilla
Ribera_Alta,22/02/2017,0.0,16.5,1.0,0.0,Andosilla
Ribera_Alta,23/02/2017,0.0,14.0,2.0,0.0,Andosilla
Ribera_Alta,24/02/2017,0.0,13.0,4.5,0.0,Andosilla
Ribera_Alta,25/02/2017,0.0,20.0,3.5,0.0,Andosilla
Ribera_Alta,26/02/2017,0.0,17.0,1.0,0.0,Andosilla
Ribera_Alta,27/02/2017,0.0,18.0,1.0,0.0,Andosilla
Ribera_Alta,28/02/2017,0.0,16.0,3.0,1.1,Andosilla
Ribera_Alta,01/03/2017,0.0,16.5,1.5,0.0,Andosilla
Ribera_Alta,02/03/2017,0.0,18.5,3.0,0.0,Andosilla
Ribera_Alta,03/03/2017,0.0,16.5,4.5,0.8,Andosilla
Ribera_Alta,04/03/2017,0.0,13.0,3.5,0.4,Andosilla
Ribera_Alta,05/03/2017,0.0,14.0,4.5,1.3,Andosilla
Ribera_Alta,06/03/2017,0.0,19.5,7.0,0.1,Andosilla
Ribera_Alta,07/03/2017,0.0,19.5,7.0,0.0,Andosilla
Ribera_Alta,08/03/2017,0.0,21.0,8.0,0.0,Andosilla
Ribera_Alta,09/03/2017,0.0,25.0,5.0,0.0,Andosilla
Ribera_Alta,10/03/2017,0.0,27.0,4.5,0.0,Andosilla
Ribera_Alta,11/03/2017,0.0,24.5,5.0,0.0,Andosilla
Ribera_Alta,12/03/2017,0.0,16.5,10.5,1.0,Andosilla
Ribera_Alta,13/03/2017,0.0,13.5,7.5,0.0,Andosilla
Ribera_Alta,14/03/2017,0.0,19.0,6.5,0.0,Andosilla
Ribera_Alta,15/03/2017,0.0,21.0,7.0,0.0,Andosilla
Ribera_Alta,16/03/2017,0.0,22.0,3.0,0.0,Andosilla
Ribera_Alta,17/03/2017,0.0,22.5,2.0,0.0,Andosilla
Ribera_Alta,18/03/2017,0.0,21.5,3.5,0.0,Andosilla
Ribera_Alta,19/03/2017,0.0,23.5,8.5,0.0,Andosilla
Ribera_Alta,20/03/2017,0.0,22.5,5.5,0.0,Andosilla
Ribera_Alta,21/03/2017,0.0,15.0,6.0,0.0,Andosilla
Ribera_Alta,22/03/2017,0.0,16.0,1.5,7.9,Andosilla
Ribera_Alta,23/03/2017,0.0,12.5,0.5,0.0,Andosilla
Ribera_Alta,24/03/2017,0.0,13.5,1.5,17.0,Andosilla
Ribera_Alta,25/03/2017,0.0,8.0,2.5,22.0,Andosilla
Ribera_Alta,26/03/2017,0.0,16.5,2.0,0.3,Andosilla
Ribera_Alta,27/03/2017,0.0,14.5,7.5,0.4,Andosilla
Ribera_Alta,28/03/2017,0.0,18.5,6.5,0.0,Andosilla
Ribera_Alta,29/03/2017,0.0,21.5,4.0,0.0,Andosilla
Ribera_Alta,30/03/2017,0.0,22.0,4.0,0.0,Andosilla
Ribera_Alta,31/03/2017,0.0,18.0,5.5,4.2,Andosilla
Ribera_Alta,01/04/2017,0.0,16.0,8.0,0.9,Andosilla
Ribera_Alta,02/04/2017,0.0,14.5,7.5,0.0,Andosilla
Ribera_Alta,03/04/2017,0.0,20.0,5.0,0.0,Andosilla
Ribera_Alta,04/04/2017,0.0,17.0,5.0,0.0,Andosilla
Ribera_Alta,05/04/2017,0.0,16.5,8.0,0.0,Andosilla
Ribera_Alta,06/04/2017,0.0,19.5,9.0,0.0,Andosilla
Ribera_Alta,07/04/2017,0.0,21.5,6.5,0.0,Andosilla
Ribera_Alta,08/04/2017,0.0,25.0,4.5,0.0,Andosilla
Ribera_Alta,09/04/2017,0.0,25.0,5.0,0.0,Andosilla
Ribera_Alta,10/04/2017,0.0,27.0,5.5,0.0,Andosilla
Ribera_Alta,11/04/2017,0.0,22.5,6.0,0.0,Andosilla
Ribera_Alta,12/04/2017,0.0,24.5,7.0,0.0,Andosilla
Ribera_Alta,13/04/2017,0.0,27.0,6.0,0.0,Andosilla
Ribera_Alta,14/04/2017,0.0,24.0,5.5,0.0,Andosilla
Ribera_Alta,15/04/2017,0.0,18.5,9.0,0.0,Andosilla
Ribera_Alta,16/04/2017,0.0,23.5,7.0,0.0,Andosilla
Ribera_Alta,17/04/2017,0.0,25.0,5.0,0.0,Andosilla
Ribera_Alta,18/04/2017,0.0,21.0,9.0,0.0,Andosilla
Ribera_Alta,19/04/2017,0.0,18.5,7.5,0.0,Andosilla
Ribera_Alta,20/04/2017,0.0,20.5,4.5,0.0,Andosilla
Ribera_Alta,21/04/2017,0.0,21.0,4.5,0.0,Andosilla
Ribera_Alta,22/04/2017,0.0,23.5,3.5,0.0,Andosilla
Ribera_Alta,23/04/2017,0.0,26.5,3.5,0.0,Andosilla
Ribera_Alta,24/04/2017,0.0,26.5,5.5,0.0,Andosilla
Ribera_Alta,25/04/2017,0.0,21.0,11.5,11.3,Andosilla
Ribera_Alta,26/04/2017,0.0,12.0,8.0,0.0,Andosilla
Ribera_Alta,27/04/2017,0.0,14.0,5.5,0.0,Andosilla
Ribera_Alta,28/04/2017,0.0,17.0,2.0,0.0,Andosilla
Ribera_Alta,29/04/2017,0.0,16.5,1.0,0.0,Andosilla
Ribera_Alta,30/04/2017,0.0,18.0,9.0,1.5,Andosilla
Ribera_Alta,01/05/2017,0.0,19.0,1.0,0.0,Andosilla
Ribera_Alta,02/05/2017,0.0,20.0,9.0,0.0,Andosilla
Ribera_Alta,03/05/2017,0.0,23.5,6.5,0.0,Andosilla
Ribera_Alta,04/05/2017,0.0,24.5,8.5,0.0,Andosilla
Ribera_Alta,05/05/2017,0.0,25.5,13.0,2.5,Andosilla
Ribera_Alta,06/05/2017,0.0,22.5,8.5,0.0,Andosilla
Ribera_Alta,07/05/2017,0.0,24.5,6.5,0.0,Andosilla
Ribera_Alta,08/05/2017,0.0,25.0,7.0,0.0,Andosilla
Ribera_Alta,09/05/2017,0.0,25.0,8.0,3.8,Andosilla
Ribera_Alta,10/05/2017,0.0,25.0,11.5,2.3,Andosilla
Ribera_Alta,11/05/2017,0.0,22.0,11.5,5.1,Andosilla
Ribera_Alta,12/05/2017,0.0,22.0,9.5,11.5,Andosilla
Ribera_Alta,13/05/2017,0.0,23.0,8.5,0.0,Andosilla
Ribera_Alta,14/05/2017,0.0,26.0,9.0,0.0,Andosilla
Ribera_Alta,15/05/2017,0.0,28.5,9.5,0.0,Andosilla
Ribera_Alta,16/05/2017,0.0,30.5,11.5,0.0,Andosilla
Ribera_Alta,17/05/2017,0.0,27.5,14.5,0.0,Andosilla
Ribera_Alta,18/05/2017,0.0,15.5,12.0,12.9,Andosilla
Ribera_Alta,19/05/2017,0.0,18.5,7.5,0.0,Andosilla
Ribera_Alta,20/05/2017,0.0,22.5,5.0,0.0,Andosilla
Ribera_Alta,21/05/2017,0.0,26.5,6.0,0.0,Andosilla
Ribera_Alta,22/05/2017,0.0,29.0,14.0,0.0,Andosilla
Ribera_Alta,23/05/2017,0.0,29.0,11.5,0.0,Andosilla
Ribera_Alta,24/05/2017,0.0,32.5,10.5,0.0,Andosilla
Ribera_Alta,25/05/2017,0.0,34.5,12.5,0.0,Andosilla
Ribera_Alta,26/05/2017,0.0,34.5,15.0,2.5,Andosilla
Ribera_Alta,27/05/2017,0.0,32.5,15.5,0.0,Andosilla
Ribera_Alta,28/05/2017,0.0,31.5,17.0,0.0,Andosilla
Ribera_Alta,29/05/2017,0.0,21.0,18.0,10.9,Andosilla
Ribera_Alta,30/05/2017,0.0,26.5,14.0,0.4,Andosilla
Ribera_Alta,31/05/2017,0.0,28.5,13.5,0.0,Andosilla
Ribera_Alta,01/06/2017,0.0,31.0,14.0,0.0,Andosilla
Ribera_Alta,02/06/2017,0.0,27.0,17.0,8.7,Andosilla
Ribera_Alta,03/06/2017,0.0,23.0,16.5,1.4,Andosilla
Ribera_Alta,04/06/2017,0.0,16.5,10.5,11.8,Andosilla
Ribera_Alta,05/06/2017,0.0,25.5,11.5,0.0,Andosilla
Ribera_Alta,06/06/2017,0.0,20.0,12.0,0.0,Andosilla
Ribera_Alta,07/06/2017,0.0,28.0,10.0,0.0,Andosilla
Ribera_Alta,08/06/2017,0.0,31.0,11.5,22.3,Andosilla
Ribera_Alta,09/06/2017,0.0,29.0,15.5,0.0,Andosilla
Ribera_Alta,10/06/2017,0.0,32.5,16.0,0.0,Andosilla
Ribera_Alta,11/06/2017,0.0,35.5,17.5,0.0,Andosilla
Ribera_Alta,12/06/2017,0.0,33.5,16.5,0.0,Andosilla
Ribera_Alta,13/06/2017,0.0,35.5,17.0,0.0,Andosilla
Ribera_Alta,14/06/2017,0.0,37.0,18.5,0.0,Andosilla
Ribera_Alta,15/06/2017,0.0,31.5,20.0,0.0,Andosilla
Ribera_Alta,16/06/2017,0.0,33.0,16.5,0.0,Andosilla
Ribera_Alta,17/06/2017,0.0,35.5,17.5,0.0,Andosilla
Ribera_Alta,18/06/2017,0.0,37.5,18.0,0.0,Andosilla
Ribera_Alta,19/06/2017,0.0,36.5,20.5,0.0,Andosilla
Ribera_Alta,20/06/2017,0.0,34.0,19.5,0.0,Andosilla
Ribera_Alta,21/06/2017,0.0,37.0,18.5,0.0,Andosilla
Ribera_Alta,22/06/2017,0.0,38.0,19.0,0.0,Andosilla
Ribera_Alta,23/06/2017,0.0,34.5,18.5,0.0,Andosilla
Ribera_Alta,24/06/2017,0.0,29.5,17.0,0.3,Andosilla
Ribera_Alta,25/06/2017,0.0,30.5,18.0,31.1,Andosilla
Ribera_Alta,26/06/2017,0.0,27.5,18.0,0.8,Andosilla
Ribera_Alta,27/06/2017,0.0,27.0,16.5,23.8,Andosilla
Ribera_Alta,28/06/2017,0.0,27.0,15.0,0.8,Andosilla
Ribera_Alta,29/06/2017,0.0,23.5,13.5,0.0,Andosilla
Ribera_Alta,30/06/2017,0.0,21.5,10.0,0.2,Andosilla
Ribera_Alta,01/07/2017,0.0,19.0,12.5,0.0,Andosilla
Ribera_Alta,02/07/2017,0.0,25.0,11.0,0.0,Andosilla
Ribera_Alta,03/07/2017,0.0,29.5,14.0,0.0,Andosilla
Ribera_Alta,04/07/2017,0.0,34.0,14.0,0.0,Andosilla
Ribera_Alta,05/07/2017,0.0,34.5,16.5,0.2,Andosilla
Ribera_Alta,06/07/2017,0.0,31.5,20.5,0.7,Andosilla
Ribera_Alta,07/07/2017,0.0,33.0,16.0,0.3,Andosilla
Ribera_Alta,08/07/2017,0.0,32.5,18.5,0.3,Andosilla
Ribera_Alta,09/07/2017,0.0,32.0,17.5,7.4,Andosilla
Ribera_Alta,10/07/2017,0.0,25.0,16.5,0.0,Andosilla
Ribera_Alta,11/07/2017,0.0,32.5,13.5,0.0,Andosilla
Ribera_Alta,12/07/2017,0.0,31.0,16.5,0.0,Andosilla
Ribera_Alta,13/07/2017,0.0,30.5,16.0,0.0,Andosilla
Ribera_Alta,14/07/2017,0.0,28.0,16.0,0.0,Andosilla
Ribera_Alta,15/07/2017,0.0,30.5,15.5,0.0,Andosilla
Ribera_Alta,16/07/2017,0.0,35.5,16.0,0.9,Andosilla
Ribera_Alta,17/07/2017,0.0,35.5,22.0,0.0,Andosilla
Ribera_Alta,18/07/2017,0.0,36.0,20.5,0.4,Andosilla
Ribera_Alta,19/07/2017,0.0,35.0,21.5,1.7,Andosilla
Ribera_Alta,20/07/2017,0.0,28.0,17.5,0.0,Andosilla
Ribera_Alta,21/07/2017,0.0,30.0,16.0,0.0,Andosilla
Ribera_Alta,22/07/2017,0.0,32.0,14.0,0.0,Andosilla
Ribera_Alta,23/07/2017,0.0,29.5,15.5,0.0,Andosilla
Ribera_Alta,24/07/2017,0.0,26.5,18.0,0.0,Andosilla
Ribera_Alta,25/07/2017,0.0,23.5,16.5,0.0,Andosilla
Ribera_Alta,26/07/2017,0.0,31.0,13.5,0.0,Andosilla
Ribera_Alta,27/07/2017,0.0,34.5,12.5,0.0,Andosilla
Ribera_Alta,28/07/2017,0.0,35.5,17.5,0.0,Andosilla
Ribera_Alta,29/07/2017,0.0,37.0,14.5,0.0,Andosilla
Ribera_Alta,30/07/2017,0.0,36.0,19.0,0.0,Andosilla
Ribera_Alta,31/07/2017,0.0,33.5,17.0,0.0,Andosilla
Ribera_Alta,01/08/2017,0.0,30.5,18.0,0.0,Andosilla
Ribera_Alta,02/08/2017,0.0,37.0,17.0,0.0,Andosilla
Ribera_Alta,03/08/2017,0.0,38.0,18.0,0.0,Andosilla
Ribera_Alta,04/08/2017,0.0,37.0,19.0,0.0,Andosilla
Ribera_Alta,05/08/2017,0.0,30.5,20.0,0.3,Andosilla
Ribera_Alta,06/08/2017,0.0,28.0,15.5,0.0,Andosilla
Ribera_Alta,07/08/2017,0.0,34.0,16.5,0.0,Andosilla
Ribera_Alta,08/08/2017,0.0,25.0,17.0,0.0,Andosilla
Ribera_Alta,09/08/2017,0.0,23.0,12.5,0.0,Andosilla
Ribera_Alta,10/08/2017,0.0,22.0,14.0,0.0,Andosilla
Ribera_Alta,11/08/2017,0.0,24.5,11.5,0.0,Andosilla
Ribera_Alta,12/08/2017,0.0,30.5,10.0,0.0,Andosilla
Ribera_Alta,13/08/2017,0.0,33.0,12.5,0.0,Andosilla
Ribera_Alta,14/08/2017,0.0,36.0,18.0,7.4,Andosilla
Ribera_Alta,15/08/2017,0.0,32.0,19.0,0.0,Andosilla
Ribera_Alta,16/08/2017,0.0,31.5,17.0,0.0,Andosilla
Ribera_Alta,17/08/2017,0.0,35.0,13.5,0.0,Andosilla
Ribera_Alta,18/08/2017,0.0,29.0,13.5,0.0,Andosilla
Ribera_Alta,19/08/2017,0.0,28.0,17.0,0.0,Andosilla
Ribera_Alta,20/08/2017,0.0,31.0,13.0,0.0,Andosilla
Ribera_Alta,21/08/2017,0.0,35.0,11.0,0.0,Andosilla
Ribera_Alta,22/08/2017,0.0,36.0,17.0,0.0,Andosilla
Ribera_Alta,23/08/2017,0.0,33.5,18.0,7.0,Andosilla
Ribera_Alta,24/08/2017,0.0,33.0,17.5,0.0,Andosilla
Ribera_Alta,25/08/2017,0.0,35.0,16.0,0.0,Andosilla
Ribera_Alta,26/08/2017,0.0,33.5,18.0,0.0,Andosilla
Ribera_Alta,27/08/2017,0.0,24.5,18.0,3.4,Andosilla
Ribera_Alta,28/08/2017,0.0,28.0,16.5,6.7,Andosilla
Ribera_Alta,29/08/2017,0.0,27.0,15.0,2.2,Andosilla
Ribera_Alta,30/08/2017,0.0,26.5,15.0,13.0,Andosilla
Ribera_Alta,31/08/2017,0.0,23.0,15.0,0.0,Andosilla
Ribera_Alta,01/09/2017,0.0,23.5,11.0,0.0,Andosilla
Ribera_Alta,02/09/2017,0.0,23.5,12.5,0.0,Andosilla
Ribera_Alta,03/09/2017,0.0,27.5,12.0,0.0,Andosilla
Ribera_Alta,04/09/2017,0.0,28.0,15.0,0.0,Andosilla
Ribera_Alta,05/09/2017,0.0,31.5,14.0,0.0,Andosilla
Ribera_Alta,06/09/2017,0.0,25.5,15.5,0.0,Andosilla
Ribera_Alta,07/09/2017,0.0,23.5,12.5,0.0,Andosilla
Ribera_Alta,08/09/2017,0.0,27.0,9.5,1.2,Andosilla
Ribera_Alta,09/09/2017,0.0,21.0,11.0,0.4,Andosilla
Ribera_Alta,10/09/2017,0.0,22.0,12.0,0.0,Andosilla
Ribera_Alta,11/09/2017,0.0,24.5,13.0,0.0,Andosilla
Ribera_Alta,12/09/2017,0.0,25.0,14.5,0.0,Andosilla
Ribera_Alta,13/09/2017,0.0,29.5,11.0,0.0,Andosilla
Ribera_Alta,14/09/2017,0.0,18.5,14.0,0.0,Andosilla
Ribera_Alta,15/09/2017,0.0,18.5,10.5,0.0,Andosilla
Ribera_Alta,16/09/2017,0.0,19.5,8.0,0.0,Andosilla
Ribera_Alta,17/09/2017,0.0,22.0,5.0,2.2,Andosilla
Ribera_Alta,18/09/2017,0.0,21.0,10.5,0.6,Andosilla
Ribera_Alta,19/09/2017,0.0,21.0,10.0,0.0,Andosilla
Ribera_Alta,20/09/2017,0.0,27.0,5.0,0.0,Andosilla
Ribera_Alta,21/09/2017,0.0,27.0,6.0,0.0,Andosilla
Ribera_Alta,22/09/2017,0.0,22.0,12.5,0.4,Andosilla
Ribera_Alta,23/09/2017,0.0,25.5,11.0,0.0,Andosilla
Ribera_Alta,24/09/2017,0.0,29.5,10.5,0.0,Andosilla
Ribera_Alta,25/09/2017,0.0,23.0,15.0,0.0,Andosilla
Ribera_Alta,26/09/2017,0.0,25.0,15.0,0.0,Andosilla
Ribera_Alta,27/09/2017,0.0,26.5,9.0,0.0,Andosilla
Ribera_Alta,28/09/2017,0.0,27.5,9.5,0.0,Andosilla
Ribera_Alta,29/09/2017,0.0,27.0,12.0,1.0,Andosilla
Ribera_Alta,30/09/2017,0.0,22.0,13.0,0.2,Andosilla
Ribera_Alta,01/10/2017,0.0,22.5,13.5,0.4,Andosilla
Ribera_Alta,02/10/2017,0.0,26.0,16.0,0.0,Andosilla
Ribera_Alta,03/10/2017,0.0,26.5,13.5,0.0,Andosilla
Ribera_Alta,04/10/2017,0.0,27.0,10.5,0.0,Andosilla
Ribera_Alta,05/10/2017,0.0,27.5,10.5,0.0,Andosilla
Ribera_Alta,06/10/2017,0.0,23.0,11.0,0.0,Andosilla
Ribera_Alta,07/10/2017,0.0,23.5,10.0,0.0,Andosilla
Ribera_Alta,08/10/2017,0.0,27.0,4.5,0.0,Andosilla
Ribera_Alta,09/10/2017,0.0,27.0,9.0,0.0,Andosilla
Ribera_Alta,10/10/2017,0.0,27.0,6.0,0.0,Andosilla
Ribera_Alta,11/10/2017,0.0,24.5,6.0,0.0,Andosilla
Ribera_Alta,12/10/2017,0.0,25.5,7.5,0.0,Andosilla
Ribera_Alta,13/10/2017,0.0,26.5,9.0,0.0,Andosilla
Ribera_Alta,14/10/2017,0.0,24.5,9.5,0.0,Andosilla
Ribera_Alta,15/10/2017,0.0,19.0,15.0,0.0,Andosilla
Ribera_Alta,16/10/2017,0.0,25.0,15.5,0.0,Andosilla
Ribera_Alta,17/10/2017,0.0,22.5,13.0,0.7,Andosilla
Ribera_Alta,18/10/2017,0.0,19.0,15.0,7.5,Andosilla
Ribera_Alta,19/10/2017,0.0,19.5,11.0,0.0,Andosilla
Ribera_Alta,20/10/2017,0.0,22.0,9.5,0.0,Andosilla
Ribera_Alta,21/10/2017,0.0,17.0,9.0,0.0,Andosilla
Ribera_Alta,22/10/2017,0.0,17.5,8.0,0.0,Andosilla
Ribera_Alta,23/10/2017,0.0,23.0,6.5,0.0,Andosilla
Ribera_Alta,24/10/2017,0.0,24.5,7.0,0.0,Andosilla
Ribera_Alta,25/10/2017,0.0,23.5,5.5,0.0,Andosilla
Ribera_Alta,26/10/2017,0.0,26.5,5.0,0.0,Andosilla
Ribera_Alta,27/10/2017,0.0,22.0,10.5,0.0,Andosilla
Ribera_Alta,28/10/2017,0.0,19.5,13.5,0.0,Andosilla
Ribera_Alta,29/10/2017,0.0,19.0,9.5,0.0,Andosilla
Ribera_Alta,30/10/2017,0.0,18.0,11.5,0.0,Andosilla
Ribera_Alta,31/10/2017,0.0,17.0,4.5,0.0,Andosilla
Ribera_Alta,01/11/2017,0.0,21.0,5.0,0.0,Andosilla
Ribera_Alta,02/11/2017,0.0,20.0,10.5,0.0,Andosilla
Ribera_Alta,03/11/2017,0.0,21.5,12.0,0.1,Andosilla
Ribera_Alta,04/11/2017,0.0,16.5,8.5,0.9,Andosilla
Ribera_Alta,05/11/2017,0.0,14.0,10.0,0.6,Andosilla
Ribera_Alta,06/11/2017,0.0,12.5,8.0,0.2,Andosilla
Ribera_Alta,07/11/2017,0.0,15.5,2.5,0.0,Andosilla
Ribera_Alta,08/11/2017,0.0,12.0,4.5,0.7,Andosilla
Ribera_Alta,09/11/2017,0.0,11.5,5.0,0.2,Andosilla
Ribera_Alta,10/11/2017,0.0,15.0,6.5,0.3,Andosilla
Ribera_Alta,11/11/2017,0.0,16.0,9.0,0.0,Andosilla
Ribera_Alta,12/11/2017,0.0,17.5,9.0,0.2,Andosilla
Ribera_Alta,13/11/2017,0.0,11.5,6.0,0.0,Andosilla
Ribera_Alta,14/11/2017,0.0,12.5,5.5,0.0,Andosilla
Ribera_Alta,15/11/2017,0.0,16.0,3.5,0.0,Andosilla
Ribera_Alta,16/11/2017,0.0,20.0,-0.5,0.0,Andosilla
Ribera_Alta,17/11/2017,0.0,20.0,6.5,0.0,Andosilla
Ribera_Alta,18/11/2017,0.0,16.0,7.0,0.0,Andosilla
Ribera_Alta,19/11/2017,0.0,16.5,5.0,0.0,Andosilla
Ribera_Alta,20/11/2017,0.0,16.5,1.5,0.0,Andosilla
Ribera_Alta,21/11/2017,0.0,16.0,-1.5,0.0,Andosilla
Ribera_Alta,22/11/2017,0.0,13.5,-2.0,0.0,Andosilla
Ribera_Alta,23/11/2017,0.0,17.0,1.0,0.2,Andosilla
Ribera_Alta,24/11/2017,0.0,12.5,7.0,4.2,Andosilla
Ribera_Alta,25/11/2017,0.0,12.5,8.5,0.2,Andosilla
Ribera_Alta,26/11/2017,0.0,11.5,6.0,0.0,Andosilla
Ribera_Alta,27/11/2017,0.0,11.0,2.0,0.0,Andosilla
Ribera_Alta,28/11/2017,0.0,12.5,2.5,0.0,Andosilla
Ribera_Alta,29/11/2017,0.0,10.0,3.0,0.0,Andosilla
Ribera_Alta,30/11/2017,0.0,9.5,-1.0,2.4,Andosilla
Ribera_Alta,01/12/2017,0.0,4.5,3.0,11.4,Andosilla
Ribera_Alta,02/12/2017,0.0,5.0,-1.0,0.1,Andosilla
Ribera_Alta,03/12/2017,0.0,8.0,-3.0,0.0,Andosilla
Ribera_Alta,04/12/2017,0.0,10.5,2.0,0.0,Andosilla
Ribera_Alta,05/12/2017,0.0,10.5,-1.0,0.0,Andosilla
Ribera_Alta,06/12/2017,0.0,8.5,-6.0,0.0,Andosilla
Ribera_Alta,07/12/2017,0.0,8.5,-4.0,0.0,Andosilla
Ribera_Alta,08/12/2017,0.0,11.5,-1.0,0.0,Andosilla
Ribera_Alta,09/12/2017,0.0,11.0,2.0,1.3,Andosilla
Ribera_Alta,10/12/2017,0.0,16.0,4.0,0.7,Andosilla
Ribera_Alta,11/12/2017,0.0,12.5,6.0,1.0,Andosilla
Ribera_Alta,12/12/2017,0.0,9.5,2.0,0.0,Andosilla
Ribera_Alta,13/12/2017,0.0,8.5,-3.0,8.3,Andosilla
Ribera_Alta,14/12/2017,0.0,10.5,-0.5,3.3,Andosilla
Ribera_Alta,15/12/2017,0.0,10.5,4.0,0.6,Andosilla
Ribera_Alta,16/12/2017,0.0,8.5,3.0,0.2,Andosilla
Ribera_Alta,17/12/2017,0.0,10.0,1.0,0.0,Andosilla
Ribera_Alta,18/12/2017,0.0,11.5,2.0,0.0,Andosilla
Ribera_Alta,19/12/2017,0.0,11.0,2.0,0.0,Andosilla
Ribera_Alta,20/12/2017,0.0,12.0,3.0,0.0,Andosilla
Ribera_Alta,21/12/2017,0.0,14.5,4.0,0.0,Andosilla
Ribera_Alta,22/12/2017,0.0,12.5,3.5,0.0,Andosilla
Ribera_Alta,23/12/2017,0.0,13.0,4.0,0.0,Andosilla
Ribera_Alta,24/12/2017,0.0,5.5,-2.0,0.2,Andosilla
Ribera_Alta,25/12/2017,0.0,3.5,0.0,0.5,Andosilla
Ribera_Alta,26/12/2017,0.0,8.5,0.0,5.1,Andosilla
Ribera_Alta,27/12/2017,0.0,10.0,1.5,1.5,Andosilla
