Comarca,Fecha, Temperatura media, Temperatura maxima, Temperatura minima, Precipitacion acumulada,Localidad
Ribera_Alta,01/01/2012,0.0,13.1,3.3,0.2,Falces
Ribera_Alta,02/01/2012,0.0,13.0,5.2,0.0,Falces
Ribera_Alta,03/01/2012,0.0,12.4,0.0,0.0,Falces
Ribera_Alta,04/01/2012,0.0,14.1,0.5,0.0,Falces
Ribera_Alta,05/01/2012,0.0,15.4,3.4,0.0,Falces
Ribera_Alta,06/01/2012,0.0,14.0,4.2,0.0,Falces
Ribera_Alta,07/01/2012,0.0,13.1,7.4,0.0,Falces
Ribera_Alta,08/01/2012,0.0,13.0,8.0,0.0,Falces
Ribera_Alta,09/01/2012,0.0,12.5,6.0,0.0,Falces
Ribera_Alta,10/01/2012,0.0,6.1,-3.0,0.0,Falces
Ribera_Alta,11/01/2012,0.0,1.0,-3.0,0.0,Falces
Ribera_Alta,12/01/2012,0.0,5.0,-1.0,0.0,Falces
Ribera_Alta,13/01/2012,0.0,8.4,1.0,0.0,Falces
Ribera_Alta,14/01/2012,0.0,9.0,1.0,0.0,Falces
Ribera_Alta,15/01/2012,0.0,3.0,-3.3,10.0,Falces
Ribera_Alta,16/01/2012,0.0,7.0,-3.0,0.3,Falces
Ribera_Alta,17/01/2012,0.0,9.2,0.0,0.0,Falces
Ribera_Alta,18/01/2012,0.0,13.0,-1.2,0.0,Falces
Ribera_Alta,19/01/2012,0.0,16.1,0.0,0.0,Falces
Ribera_Alta,20/01/2012,0.0,13.1,7.0,0.0,Falces
Ribera_Alta,21/01/2012,0.0,14.2,7.0,0.0,Falces
Ribera_Alta,22/01/2012,0.0,13.1,10.0,0.0,Falces
Ribera_Alta,23/01/2012,0.0,13.1,9.0,0.0,Falces
Ribera_Alta,24/01/2012,0.0,11.0,8.1,0.0,Falces
Ribera_Alta,25/01/2012,0.0,10.3,1.0,0.0,Falces
Ribera_Alta,26/01/2012,0.0,13.0,-2.0,0.0,Falces
Ribera_Alta,27/01/2012,0.0,8.2,1.0,1.8,Falces
Ribera_Alta,28/01/2012,0.0,9.0,4.0,1.5,Falces
Ribera_Alta,29/01/2012,0.0,7.0,4.0,0.0,Falces
Ribera_Alta,30/01/2012,0.0,9.1,0.2,0.0,Falces
Ribera_Alta,31/01/2012,0.0,12.0,1.0,0.0,Falces
Ribera_Alta,01/02/2012,0.0,10.0,0.3,0.0,Falces
Ribera_Alta,02/02/2012,0.0,2.0,1.0,0.0,Falces
Ribera_Alta,03/02/2012,0.0,1.5,-3.3,0.0,Falces
Ribera_Alta,04/02/2012,0.0,5.0,-3.2,4.0,Falces
Ribera_Alta,05/02/2012,0.0,8.5,-1.0,0.0,Falces
Ribera_Alta,06/02/2012,0.0,7.0,4.0,0.0,Falces
Ribera_Alta,07/02/2012,0.0,6.0,1.3,0.0,Falces
Ribera_Alta,08/02/2012,0.0,3.3,-2.2,0.0,Falces
Ribera_Alta,09/02/2012,0.0,5.2,-1.4,0.0,Falces
Ribera_Alta,10/02/2012,0.0,6.1,1.0,0.0,Falces
Ribera_Alta,11/02/2012,0.0,4.3,-2.0,0.0,Falces
Ribera_Alta,12/02/2012,0.0,5.0,-1.4,0.0,Falces
Ribera_Alta,13/02/2012,0.0,6.0,-0.4,1.5,Falces
Ribera_Alta,14/02/2012,0.0,8.3,3.4,0.3,Falces
Ribera_Alta,15/02/2012,0.0,8.2,3.1,0.2,Falces
Ribera_Alta,16/02/2012,0.0,9.0,6.0,0.0,Falces
Ribera_Alta,17/02/2012,0.0,10.0,6.0,0.0,Falces
Ribera_Alta,18/02/2012,0.0,13.0,-3.2,0.0,Falces
Ribera_Alta,19/02/2012,0.0,12.3,-2.0,0.0,Falces
Ribera_Alta,20/02/2012,0.0,9.1,3.4,0.0,Falces
Ribera_Alta,21/02/2012,0.0,10.2,1.3,0.0,Falces
Ribera_Alta,22/02/2012,0.0,16.0,-4.0,0.0,Falces
Ribera_Alta,23/02/2012,0.0,17.0,1.4,0.0,Falces
Ribera_Alta,24/02/2012,0.0,19.2,4.0,0.0,Falces
Ribera_Alta,25/02/2012,0.0,17.4,4.0,0.0,Falces
Ribera_Alta,26/02/2012,0.0,16.1,4.1,0.0,Falces
Ribera_Alta,27/02/2012,0.0,16.1,8.0,0.0,Falces
Ribera_Alta,28/02/2012,0.0,17.1,1.3,0.0,Falces
Ribera_Alta,29/02/2012,0.0,20.0,2.0,0.0,Falces
Ribera_Alta,01/03/2012,0.0,18.3,1.1,0.0,Falces
Ribera_Alta,02/03/2012,0.0,17.0,1.0,0.0,Falces
Ribera_Alta,03/03/2012,0.0,17.1,3.3,0.0,Falces
Ribera_Alta,04/03/2012,0.0,14.2,4.0,3.1,Falces
Ribera_Alta,05/03/2012,0.0,9.3,5.1,0.0,Falces
Ribera_Alta,06/03/2012,0.0,11.3,3.1,0.0,Falces
Ribera_Alta,07/03/2012,0.0,14.0,3.3,0.0,Falces
Ribera_Alta,08/03/2012,0.0,12.1,5.0,0.0,Falces
Ribera_Alta,09/03/2012,0.0,13.1,6.0,0.0,Falces
Ribera_Alta,10/03/2012,0.0,15.2,3.0,0.0,Falces
Ribera_Alta,11/03/2012,0.0,16.1,7.0,0.0,Falces
Ribera_Alta,12/03/2012,0.0,18.2,8.2,0.0,Falces
Ribera_Alta,13/03/2012,0.0,23.4,3.2,0.0,Falces
Ribera_Alta,14/03/2012,0.0,23.0,4.0,0.0,Falces
Ribera_Alta,15/03/2012,0.0,24.0,4.2,0.0,Falces
Ribera_Alta,16/03/2012,0.0,20.2,5.0,0.0,Falces
Ribera_Alta,17/03/2012,0.0,20.0,5.0,0.3,Falces
Ribera_Alta,18/03/2012,0.0,15.1,4.4,0.0,Falces
Ribera_Alta,19/03/2012,0.0,12.3,5.0,0.0,Falces
Ribera_Alta,20/03/2012,0.0,13.2,5.4,6.2,Falces
Ribera_Alta,21/03/2012,0.0,8.1,6.0,11.1,Falces
Ribera_Alta,22/03/2012,0.0,13.0,1.2,0.0,Falces
Ribera_Alta,23/03/2012,0.0,16.3,1.3,0.0,Falces
Ribera_Alta,24/03/2012,0.0,20.2,4.0,0.0,Falces
Ribera_Alta,25/03/2012,0.0,20.3,3.2,0.0,Falces
Ribera_Alta,26/03/2012,0.0,22.0,4.0,0.0,Falces
Ribera_Alta,27/03/2012,0.0,21.2,6.0,0.0,Falces
Ribera_Alta,28/03/2012,0.0,21.2,4.0,0.0,Falces
Ribera_Alta,29/03/2012,0.0,23.2,4.0,0.0,Falces
Ribera_Alta,30/03/2012,0.0,23.3,7.2,0.0,Falces
Ribera_Alta,31/03/2012,0.0,24.0,11.0,0.0,Falces
Ribera_Alta,01/04/2012,0.0,23.2,11.0,1.3,Falces
Ribera_Alta,02/04/2012,0.0,22.1,8.0,0.5,Falces
Ribera_Alta,03/04/2012,0.0,12.2,11.3,8.7,Falces
Ribera_Alta,04/04/2012,0.0,15.1,9.0,4.0,Falces
Ribera_Alta,05/04/2012,0.0,13.1,8.3,6.3,Falces
Ribera_Alta,06/04/2012,0.0,13.0,8.0,0.2,Falces
Ribera_Alta,07/04/2012,0.0,11.2,1.0,0.0,Falces
Ribera_Alta,08/04/2012,0.0,16.0,1.1,0.0,Falces
Ribera_Alta,09/04/2012,0.0,20.2,8.0,0.7,Falces
Ribera_Alta,10/04/2012,0.0,18.2,11.2,4.2,Falces
Ribera_Alta,11/04/2012,0.0,16.0,4.0,0.0,Falces
Ribera_Alta,12/04/2012,0.0,15.0,7.0,0.9,Falces
Ribera_Alta,13/04/2012,0.0,13.1,7.0,4.0,Falces
Ribera_Alta,14/04/2012,0.0,13.0,6.3,0.0,Falces
Ribera_Alta,15/04/2012,0.0,11.0,6.0,0.9,Falces
Ribera_Alta,16/04/2012,0.0,11.0,5.1,0.0,Falces
Ribera_Alta,17/04/2012,0.0,18.1,4.0,0.9,Falces
Ribera_Alta,18/04/2012,0.0,14.1,7.0,2.6,Falces
Ribera_Alta,19/04/2012,0.0,13.2,8.0,0.8,Falces
Ribera_Alta,20/04/2012,0.0,14.2,7.1,3.4,Falces
Ribera_Alta,21/04/2012,0.0,20.1,7.0,1.2,Falces
Ribera_Alta,22/04/2012,0.0,14.1,8.0,0.0,Falces
Ribera_Alta,23/04/2012,0.0,17.0,4.2,0.7,Falces
Ribera_Alta,24/04/2012,0.0,16.2,7.0,0.0,Falces
Ribera_Alta,25/04/2012,0.0,22.2,9.3,0.0,Falces
Ribera_Alta,26/04/2012,0.0,17.3,11.0,0.0,Falces
Ribera_Alta,27/04/2012,0.0,22.0,7.3,11.5,Falces
Ribera_Alta,28/04/2012,0.0,10.1,9.1,17.3,Falces
Ribera_Alta,29/04/2012,0.0,15.2,6.3,28.8,Falces
Ribera_Alta,30/04/2012,0.0,16.0,7.0,3.3,Falces
Ribera_Alta,01/05/2012,0.0,17.0,7.0,0.0,Falces
Ribera_Alta,02/05/2012,0.0,22.0,6.4,0.0,Falces
Ribera_Alta,03/05/2012,0.0,23.1,11.0,0.9,Falces
Ribera_Alta,04/05/2012,0.0,20.0,11.0,0.8,Falces
Ribera_Alta,05/05/2012,0.0,19.0,9.2,0.0,Falces
Ribera_Alta,06/05/2012,0.0,19.2,11.0,0.0,Falces
Ribera_Alta,07/05/2012,0.0,23.2,7.0,0.6,Falces
Ribera_Alta,08/05/2012,0.0,24.0,13.2,0.1,Falces
Ribera_Alta,09/05/2012,0.0,27.3,13.3,0.0,Falces
Ribera_Alta,10/05/2012,0.0,30.5,13.0,0.0,Falces
Ribera_Alta,11/05/2012,0.0,33.0,17.0,0.6,Falces
Ribera_Alta,12/05/2012,0.0,27.0,18.1,2.6,Falces
Ribera_Alta,13/05/2012,0.0,22.2,15.0,0.0,Falces
Ribera_Alta,14/05/2012,0.0,26.0,11.1,0.0,Falces
Ribera_Alta,15/05/2012,0.0,20.0,7.0,0.0,Falces
Ribera_Alta,16/05/2012,0.0,23.1,10.0,0.0,Falces
Ribera_Alta,17/05/2012,0.0,24.0,11.0,5.0,Falces
Ribera_Alta,18/05/2012,0.0,23.5,15.0,8.0,Falces
Ribera_Alta,19/05/2012,0.0,19.2,13.3,30.0,Falces
Ribera_Alta,20/05/2012,0.0,12.0,10.3,1.7,Falces
Ribera_Alta,21/05/2012,0.0,15.1,10.3,0.0,Falces
Ribera_Alta,22/05/2012,0.0,19.2,11.2,0.0,Falces
Ribera_Alta,23/05/2012,0.0,27.1,11.0,0.0,Falces
Ribera_Alta,24/05/2012,0.0,30.0,13.0,0.0,Falces
Ribera_Alta,25/05/2012,0.0,31.2,15.0,0.0,Falces
Ribera_Alta,26/05/2012,0.0,27.0,15.3,0.0,Falces
Ribera_Alta,27/05/2012,0.0,27.0,11.2,0.0,Falces
Ribera_Alta,28/05/2012,0.0,27.1,11.1,0.0,Falces
Ribera_Alta,29/05/2012,0.0,30.0,15.0,0.0,Falces
Ribera_Alta,30/05/2012,0.0,30.2,15.3,0.0,Falces
Ribera_Alta,31/05/2012,0.0,31.1,16.0,0.0,Falces
Ribera_Alta,01/06/2012,0.0,35.2,16.0,0.0,Falces
Ribera_Alta,02/06/2012,0.0,34.0,21.0,6.4,Falces
Ribera_Alta,03/06/2012,0.0,21.1,15.1,0.0,Falces
Ribera_Alta,04/06/2012,0.0,24.0,16.0,0.0,Falces
Ribera_Alta,05/06/2012,0.0,31.0,11.0,0.0,Falces
Ribera_Alta,06/06/2012,0.0,28.0,12.1,0.0,Falces
Ribera_Alta,07/06/2012,0.0,28.2,19.1,0.0,Falces
Ribera_Alta,08/06/2012,0.0,20.1,15.0,0.0,Falces
Ribera_Alta,09/06/2012,0.0,24.0,10.0,0.0,Falces
Ribera_Alta,10/06/2012,0.0,26.2,13.0,0.0,Falces
Ribera_Alta,11/06/2012,0.0,24.0,17.0,1.4,Falces
Ribera_Alta,12/06/2012,0.0,20.2,11.0,0.0,Falces
Ribera_Alta,13/06/2012,0.0,23.2,11.3,0.0,Falces
Ribera_Alta,14/06/2012,0.0,31.0,12.2,0.0,Falces
Ribera_Alta,15/06/2012,0.0,34.0,17.0,0.0,Falces
Ribera_Alta,16/06/2012,0.0,33.0,15.1,0.0,Falces
Ribera_Alta,17/06/2012,0.0,31.2,15.0,0.0,Falces
Ribera_Alta,18/06/2012,0.0,24.0,18.1,7.6,Falces
Ribera_Alta,19/06/2012,0.0,21.0,16.1,1.5,Falces
Ribera_Alta,20/06/2012,0.0,31.0,15.3,0.0,Falces
Ribera_Alta,21/06/2012,0.0,29.0,18.0,0.0,Falces
Ribera_Alta,22/06/2012,0.0,26.3,15.0,0.0,Falces
Ribera_Alta,23/06/2012,0.0,30.1,15.0,0.0,Falces
Ribera_Alta,24/06/2012,0.0,33.0,15.3,0.0,Falces
Ribera_Alta,25/06/2012,0.0,33.2,15.3,0.0,Falces
Ribera_Alta,26/06/2012,0.0,37.0,19.0,0.0,Falces
Ribera_Alta,27/06/2012,0.0,35.0,19.0,0.0,Falces
Ribera_Alta,28/06/2012,0.0,37.2,19.1,0.0,Falces
Ribera_Alta,29/06/2012,0.0,34.0,18.1,0.0,Falces
Ribera_Alta,30/06/2012,0.0,27.1,16.0,0.0,Falces
Ribera_Alta,01/07/2012,0.0,20.1,16.0,0.0,Falces
Ribera_Alta,02/07/2012,0.0,27.2,12.0,0.0,Falces
Ribera_Alta,03/07/2012,0.0,32.0,14.1,0.0,Falces
Ribera_Alta,04/07/2012,0.0,29.0,17.2,0.0,Falces
Ribera_Alta,05/07/2012,0.0,23.0,17.0,0.0,Falces
Ribera_Alta,06/07/2012,0.0,27.0,14.2,0.0,Falces
Ribera_Alta,07/07/2012,0.0,31.1,16.1,0.0,Falces
Ribera_Alta,08/07/2012,0.0,27.0,17.0,0.0,Falces
Ribera_Alta,09/07/2012,0.0,30.2,17.0,0.0,Falces
Ribera_Alta,10/07/2012,0.0,25.1,17.0,0.0,Falces
Ribera_Alta,11/07/2012,0.0,23.0,16.1,0.0,Falces
Ribera_Alta,12/07/2012,0.0,30.1,13.3,0.0,Falces
Ribera_Alta,13/07/2012,0.0,34.1,14.3,0.0,Falces
Ribera_Alta,14/07/2012,0.0,24.0,17.1,0.0,Falces
Ribera_Alta,15/07/2012,0.0,24.0,16.1,0.0,Falces
Ribera_Alta,16/07/2012,0.0,30.0,11.0,0.0,Falces
Ribera_Alta,17/07/2012,0.0,35.0,14.0,0.0,Falces
Ribera_Alta,18/07/2012,0.0,37.1,15.3,0.0,Falces
Ribera_Alta,19/07/2012,0.0,27.3,18.2,0.0,Falces
Ribera_Alta,20/07/2012,0.0,26.0,16.1,0.0,Falces
Ribera_Alta,21/07/2012,0.0,24.0,17.0,0.0,Falces
Ribera_Alta,22/07/2012,0.0,26.3,16.3,0.0,Falces
Ribera_Alta,23/07/2012,0.0,30.3,16.3,0.0,Falces
Ribera_Alta,24/07/2012,0.0,31.2,18.1,0.0,Falces
Ribera_Alta,25/07/2012,0.0,36.2,18.3,0.0,Falces
Ribera_Alta,26/07/2012,0.0,35.4,21.2,0.9,Falces
Ribera_Alta,27/07/2012,0.0,31.2,19.0,2.4,Falces
Ribera_Alta,28/07/2012,0.0,27.1,19.0,0.0,Falces
Ribera_Alta,29/07/2012,0.0,29.3,16.2,0.0,Falces
Ribera_Alta,30/07/2012,0.0,32.1,15.2,0.0,Falces
Ribera_Alta,31/07/2012,0.0,34.2,18.1,0.0,Falces
Ribera_Alta,01/08/2012,0.0,34.1,18.3,0.0,Falces
Ribera_Alta,02/08/2012,0.0,30.2,19.0,0.0,Falces
Ribera_Alta,03/08/2012,0.0,29.1,17.1,0.0,Falces
Ribera_Alta,04/08/2012,0.0,30.2,18.0,0.0,Falces
Ribera_Alta,05/08/2012,0.0,27.2,17.1,0.8,Falces
Ribera_Alta,06/08/2012,0.0,26.0,13.3,0.0,Falces
Ribera_Alta,07/08/2012,0.0,31.2,15.0,0.0,Falces
Ribera_Alta,08/08/2012,0.0,34.0,17.3,0.0,Falces
Ribera_Alta,09/08/2012,0.0,37.1,17.1,0.0,Falces
Ribera_Alta,10/08/2012,0.0,41.1,19.1,0.0,Falces
Ribera_Alta,11/08/2012,0.0,35.0,19.3,0.0,Falces
Ribera_Alta,12/08/2012,0.0,27.2,19.0,0.0,Falces
Ribera_Alta,13/08/2012,0.0,31.0,18.0,0.0,Falces
Ribera_Alta,14/08/2012,0.0,34.0,18.2,0.0,Falces
Ribera_Alta,15/08/2012,0.0,27.0,22.0,0.0,Falces
Ribera_Alta,16/08/2012,0.0,33.1,13.2,0.0,Falces
Ribera_Alta,17/08/2012,0.0,37.8,19.3,0.0,Falces
Ribera_Alta,18/08/2012,0.0,37.4,20.3,0.0,Falces
Ribera_Alta,19/08/2012,0.0,36.0,23.0,0.0,Falces
Ribera_Alta,20/08/2012,0.0,37.3,21.0,0.0,Falces
Ribera_Alta,21/08/2012,0.0,37.2,21.1,0.0,Falces
Ribera_Alta,22/08/2012,0.0,33.0,20.3,0.0,Falces
Ribera_Alta,23/08/2012,0.0,34.2,20.0,0.0,Falces
Ribera_Alta,24/08/2012,0.0,33.0,17.0,0.0,Falces
Ribera_Alta,25/08/2012,0.0,25.1,20.1,0.0,Falces
Ribera_Alta,26/08/2012,0.0,27.1,15.0,0.0,Falces
Ribera_Alta,27/08/2012,0.0,33.2,14.2,0.0,Falces
Ribera_Alta,28/08/2012,0.0,31.1,18.4,0.0,Falces
Ribera_Alta,29/08/2012,0.0,31.0,22.0,10.0,Falces
Ribera_Alta,30/08/2012,0.0,22.1,18.0,0.0,Falces
Ribera_Alta,31/08/2012,0.0,20.3,16.0,0.0,Falces
Ribera_Alta,01/09/2012,0.0,20.2,13.1,0.0,Falces
Ribera_Alta,02/09/2012,0.0,23.0,13.0,0.0,Falces
Ribera_Alta,03/09/2012,0.0,23.0,16.1,0.0,Falces
Ribera_Alta,04/09/2012,0.0,24.0,16.0,0.0,Falces
Ribera_Alta,05/09/2012,0.0,27.0,16.1,0.0,Falces
Ribera_Alta,06/09/2012,0.0,29.1,16.2,0.0,Falces
Ribera_Alta,07/09/2012,0.0,31.1,15.1,0.0,Falces
Ribera_Alta,08/09/2012,0.0,31.3,16.0,0.0,Falces
Ribera_Alta,09/09/2012,0.0,30.2,15.3,0.3,Falces
Ribera_Alta,10/09/2012,0.0,30.0,16.0,0.0,Falces
Ribera_Alta,11/09/2012,0.0,29.0,16.0,0.0,Falces
Ribera_Alta,12/09/2012,0.0,24.0,18.3,0.0,Falces
Ribera_Alta,13/09/2012,0.0,23.0,15.1,0.0,Falces
Ribera_Alta,14/09/2012,0.0,24.0,15.0,0.0,Falces
Ribera_Alta,15/09/2012,0.0,30.2,14.3,0.0,Falces
Ribera_Alta,16/09/2012,0.0,28.3,10.1,0.0,Falces
Ribera_Alta,17/09/2012,0.0,28.0,14.0,0.0,Falces
Ribera_Alta,18/09/2012,0.0,24.0,19.0,0.0,Falces
Ribera_Alta,19/09/2012,0.0,23.0,16.0,0.0,Falces
Ribera_Alta,20/09/2012,0.0,26.2,10.1,0.0,Falces
Ribera_Alta,21/09/2012,0.0,27.3,12.1,0.2,Falces
Ribera_Alta,22/09/2012,0.0,28.2,16.0,0.0,Falces
Ribera_Alta,23/09/2012,0.0,30.3,18.2,0.0,Falces
Ribera_Alta,24/09/2012,0.0,26.0,18.3,0.0,Falces
Ribera_Alta,25/09/2012,0.0,22.3,11.0,0.3,Falces
Ribera_Alta,26/09/2012,0.0,19.1,8.0,0.0,Falces
Ribera_Alta,27/09/2012,0.0,20.3,7.1,1.3,Falces
Ribera_Alta,28/09/2012,0.0,20.0,11.1,15.1,Falces
Ribera_Alta,29/09/2012,0.0,16.2,14.2,0.2,Falces
Ribera_Alta,30/09/2012,0.0,20.0,13.1,0.0,Falces
Ribera_Alta,01/10/2012,0.0,20.1,7.3,0.0,Falces
Ribera_Alta,02/10/2012,0.0,23.3,8.0,0.0,Falces
Ribera_Alta,03/10/2012,0.0,24.0,8.2,0.0,Falces
Ribera_Alta,04/10/2012,0.0,24.2,11.0,0.0,Falces
Ribera_Alta,05/10/2012,0.0,26.0,11.0,0.0,Falces
Ribera_Alta,06/10/2012,0.0,24.0,11.0,0.0,Falces
Ribera_Alta,07/10/2012,0.0,27.1,15.1,0.0,Falces
Ribera_Alta,08/10/2012,0.0,27.2,15.0,0.0,Falces
Ribera_Alta,09/10/2012,0.0,27.0,15.1,0.0,Falces
Ribera_Alta,10/10/2012,0.0,26.1,19.1,20.0,Falces
Ribera_Alta,11/10/2012,0.0,22.0,15.1,2.2,Falces
Ribera_Alta,12/10/2012,0.0,18.0,14.0,0.0,Falces
Ribera_Alta,13/10/2012,0.0,19.3,8.0,0.0,Falces
Ribera_Alta,14/10/2012,0.0,18.3,7.2,8.6,Falces
Ribera_Alta,15/10/2012,0.0,17.0,8.0,0.0,Falces
Ribera_Alta,16/10/2012,0.0,20.0,7.0,0.0,Falces
Ribera_Alta,17/10/2012,0.0,23.2,10.0,0.0,Falces
Ribera_Alta,18/10/2012,0.0,20.1,11.3,16.0,Falces
Ribera_Alta,19/10/2012,0.0,15.3,15.0,16.9,Falces
Ribera_Alta,20/10/2012,0.0,14.0,11.2,35.8,Falces
Ribera_Alta,21/10/2012,0.0,16.1,12.0,19.8,Falces
Ribera_Alta,22/10/2012,0.0,18.0,12.1,0.0,Falces
Ribera_Alta,23/10/2012,0.0,19.1,9.0,0.0,Falces
Ribera_Alta,24/10/2012,0.0,20.0,9.0,24.1,Falces
Ribera_Alta,25/10/2012,0.0,19.0,13.0,12.4,Falces
Ribera_Alta,26/10/2012,0.0,17.0,14.1,3.7,Falces
Ribera_Alta,27/10/2012,0.0,14.0,14.0,0.0,Falces
Ribera_Alta,28/10/2012,0.0,9.3,5.3,0.0,Falces
Ribera_Alta,29/10/2012,0.0,13.0,2.3,0.0,Falces
Ribera_Alta,30/10/2012,0.0,11.0,1.0,0.0,Falces
Ribera_Alta,31/10/2012,0.0,15.0,7.0,0.0,Falces
Ribera_Alta,01/11/2012,0.0,17.0,4.0,0.0,Falces
Ribera_Alta,02/11/2012,0.0,20.0,8.0,0.0,Falces
Ribera_Alta,03/11/2012,0.0,16.0,11.8,2.7,Falces
Ribera_Alta,04/11/2012,0.0,13.0,12.0,4.9,Falces
Ribera_Alta,05/11/2012,0.0,14.1,5.0,0.0,Falces
Ribera_Alta,06/11/2012,0.0,12.3,5.0,0.3,Falces
Ribera_Alta,07/11/2012,0.0,12.0,2.3,1.0,Falces
Ribera_Alta,08/11/2012,0.0,12.0,1.0,1.0,Falces
Ribera_Alta,09/11/2012,0.0,12.1,9.0,2.0,Falces
Ribera_Alta,10/11/2012,0.0,16.0,11.0,2.0,Falces
Ribera_Alta,11/11/2012,0.0,12.0,7.0,0.0,Falces
Ribera_Alta,12/11/2012,0.0,13.0,7.0,0.0,Falces
Ribera_Alta,13/11/2012,0.0,14.3,2.0,0.0,Falces
Ribera_Alta,14/11/2012,0.0,18.0,5.0,0.0,Falces
Ribera_Alta,15/11/2012,0.0,17.1,7.0,0.0,Falces
Ribera_Alta,16/11/2012,0.0,13.2,7.0,0.0,Falces
Ribera_Alta,17/11/2012,0.0,14.2,11.0,8.0,Falces
Ribera_Alta,18/11/2012,0.0,14.1,11.1,0.0,Falces
Ribera_Alta,19/11/2012,0.0,15.0,3.3,0.0,Falces
Ribera_Alta,20/11/2012,0.0,12.1,3.1,0.0,Falces
Ribera_Alta,21/11/2012,0.0,13.0,4.0,0.0,Falces
Ribera_Alta,22/11/2012,0.0,13.0,3.0,0.0,Falces
Ribera_Alta,23/11/2012,0.0,13.1,1.3,0.0,Falces
Ribera_Alta,24/11/2012,0.0,14.1,5.3,0.2,Falces
Ribera_Alta,25/11/2012,0.0,13.2,9.1,9.0,Falces
Ribera_Alta,26/11/2012,0.0,11.0,9.0,0.6,Falces
Ribera_Alta,27/11/2012,0.0,9.0,5.3,3.9,Falces
Ribera_Alta,28/11/2012,0.0,7.1,5.0,28.6,Falces
Ribera_Alta,29/11/2012,0.0,7.0,4.1,1.2,Falces
Ribera_Alta,30/11/2012,0.0,7.0,5.0,0.0,Falces
Ribera_Alta,01/12/2012,0.0,7.0,3.3,0.0,Falces
Ribera_Alta,02/12/2012,0.0,11.0,3.1,0.0,Falces
Ribera_Alta,03/12/2012,0.0,12.0,6.1,0.6,Falces
Ribera_Alta,04/12/2012,0.0,10.2,7.0,0.2,Falces
Ribera_Alta,05/12/2012,0.0,9.1,5.2,0.0,Falces
Ribera_Alta,06/12/2012,0.0,10.3,5.0,0.0,Falces
Ribera_Alta,07/12/2012,0.0,13.0,2.1,0.0,Falces
Ribera_Alta,08/12/2012,0.0,10.1,2.1,0.0,Falces
Ribera_Alta,09/12/2012,0.0,9.3,4.1,0.0,Falces
Ribera_Alta,10/12/2012,0.0,10.0,0.0,0.0,Falces
Ribera_Alta,11/12/2012,0.0,10.3,2.0,0.0,Falces
Ribera_Alta,12/12/2012,0.0,5.0,-3.0,0.0,Falces
Ribera_Alta,13/12/2012,0.0,9.3,1.0,2.0,Falces
Ribera_Alta,14/12/2012,0.0,12.1,4.0,1.7,Falces
Ribera_Alta,15/12/2012,0.0,15.2,7.3,0.0,Falces
Ribera_Alta,16/12/2012,0.0,13.2,6.0,1.2,Falces
Ribera_Alta,17/12/2012,0.0,14.0,6.0,0.0,Falces
Ribera_Alta,18/12/2012,0.0,12.0,1.2,0.2,Falces
Ribera_Alta,19/12/2012,0.0,11.1,1.3,0.5,Falces
Ribera_Alta,20/12/2012,0.0,13.3,7.3,0.0,Falces
Ribera_Alta,21/12/2012,0.0,16.0,8.3,0.0,Falces
Ribera_Alta,22/12/2012,0.0,14.2,5.0,0.0,Falces
Ribera_Alta,23/12/2012,0.0,7.1,4.1,0.0,Falces
Ribera_Alta,24/12/2012,0.0,13.0,4.2,0.0,Falces
Ribera_Alta,25/12/2012,0.0,13.0,5.0,0.5,Falces
Ribera_Alta,26/12/2012,0.0,13.0,8.0,0.0,Falces
Ribera_Alta,27/12/2012,0.0,12.2,0.1,0.0,Falces
