Comarca,Fecha, Temperatura media, Temperatura maxima, Temperatura minima, Precipitacion acumulada,Localidad
Ribera_Alta,01/01/2017,0.1,1.0,-0.6,0.4,Funes
Ribera_Alta,02/01/2017,0.4,2.2,-1.2,0.0,Funes
Ribera_Alta,03/01/2017,1.7,10.5,-4.0,0.2,Funes
Ribera_Alta,04/01/2017,6.6,13.7,1.6,0.2,Funes
Ribera_Alta,05/01/2017,4.6,10.2,0.6,0.0,Funes
Ribera_Alta,06/01/2017,3.3,10.0,-0.2,0.0,Funes
Ribera_Alta,07/01/2017,3.9,10.1,0.4,0.0,Funes
Ribera_Alta,08/01/2017,5.8,13.2,0.4,0.0,Funes
Ribera_Alta,09/01/2017,6.6,11.6,3.4,0.0,Funes
Ribera_Alta,10/01/2017,8.1,10.8,6.0,1.0,Funes
Ribera_Alta,11/01/2017,10.8,14.4,5.8,0.0,Funes
Ribera_Alta,12/01/2017,8.8,12.6,4.1,0.0,Funes
Ribera_Alta,13/01/2017,5.5,9.5,2.3,0.2,Funes
Ribera_Alta,14/01/2017,3.6,6.5,1.9,1.0,Funes
Ribera_Alta,15/01/2017,6.1,8.9,3.0,0.6,Funes
Ribera_Alta,16/01/2017,8.2,10.8,6.6,2.6,Funes
Ribera_Alta,17/01/2017,2.4,8.2,-2.5,0.2,Funes
Ribera_Alta,18/01/2017,-2.0,0.5,-3.9,0.0,Funes
Ribera_Alta,19/01/2017,-0.7,4.6,-4.2,0.0,Funes
Ribera_Alta,20/01/2017,-0.3,4.0,-3.3,0.2,Funes
Ribera_Alta,21/01/2017,2.5,10.7,-3.5,0.2,Funes
Ribera_Alta,22/01/2017,5.1,9.0,2.3,0.0,Funes
Ribera_Alta,23/01/2017,5.5,10.9,2.2,0.0,Funes
Ribera_Alta,24/01/2017,5.0,10.7,1.0,0.0,Funes
Ribera_Alta,25/01/2017,2.2,8.4,-2.5,0.0,Funes
Ribera_Alta,26/01/2017,0.9,6.6,-5.5,0.0,Funes
Ribera_Alta,27/01/2017,5.9,9.7,3.8,13.1,Funes
Ribera_Alta,28/01/2017,6.1,10.9,2.0,0.6,Funes
Ribera_Alta,29/01/2017,5.4,10.8,0.3,0.0,Funes
Ribera_Alta,30/01/2017,8.6,12.6,5.1,0.0,Funes
Ribera_Alta,31/01/2017,9.2,14.9,4.2,0.0,Funes
Ribera_Alta,01/02/2017,9.1,14.3,5.0,0.0,Funes
Ribera_Alta,02/02/2017,8.5,12.2,4.1,9.0,Funes
Ribera_Alta,03/02/2017,10.0,14.3,3.8,1.0,Funes
Ribera_Alta,04/02/2017,11.4,16.0,8.5,2.8,Funes
Ribera_Alta,05/02/2017,8.0,12.8,5.5,2.4,Funes
Ribera_Alta,06/02/2017,8.8,13.6,5.2,0.2,Funes
Ribera_Alta,07/02/2017,9.0,12.2,4.1,0.8,Funes
Ribera_Alta,08/02/2017,4.7,8.2,2.4,3.0,Funes
Ribera_Alta,09/02/2017,5.6,10.8,0.8,0.0,Funes
Ribera_Alta,10/02/2017,5.4,10.2,0.1,0.0,Funes
Ribera_Alta,11/02/2017,5.0,7.5,2.3,12.3,Funes
Ribera_Alta,12/02/2017,9.2,11.9,5.8,2.8,Funes
Ribera_Alta,13/02/2017,9.1,10.6,5.9,17.5,Funes
Ribera_Alta,14/02/2017,8.9,13.8,6.1,0.0,Funes
Ribera_Alta,15/02/2017,9.1,13.9,5.1,0.0,Funes
Ribera_Alta,16/02/2017,8.5,14.6,4.6,0.2,Funes
Ribera_Alta,17/02/2017,7.2,13.8,1.0,0.2,Funes
Ribera_Alta,18/02/2017,7.1,12.9,0.7,0.2,Funes
Ribera_Alta,19/02/2017,7.4,15.0,3.1,0.0,Funes
Ribera_Alta,20/02/2017,8.1,14.2,3.2,0.0,Funes
Ribera_Alta,21/02/2017,8.6,15.4,1.7,0.0,Funes
Ribera_Alta,22/02/2017,8.7,15.7,1.6,0.2,Funes
Ribera_Alta,23/02/2017,8.4,12.4,4.4,0.0,Funes
Ribera_Alta,24/02/2017,8.1,11.5,3.8,0.0,Funes
Ribera_Alta,25/02/2017,9.5,19.5,3.0,0.0,Funes
Ribera_Alta,26/02/2017,8.8,15.3,2.0,0.0,Funes
Ribera_Alta,27/02/2017,9.9,17.2,1.9,0.0,Funes
Ribera_Alta,28/02/2017,8.2,14.9,3.7,0.6,Funes
Ribera_Alta,01/03/2017,8.1,14.6,1.4,0.0,Funes
Ribera_Alta,02/03/2017,10.7,17.8,3.1,0.0,Funes
Ribera_Alta,03/03/2017,9.6,15.3,5.5,19.5,Funes
Ribera_Alta,04/03/2017,6.6,11.4,2.7,0.6,Funes
Ribera_Alta,05/03/2017,7.9,12.1,4.4,0.8,Funes
Ribera_Alta,06/03/2017,11.2,18.4,6.4,0.2,Funes
Ribera_Alta,07/03/2017,11.6,18.4,5.6,0.0,Funes
Ribera_Alta,08/03/2017,13.4,19.4,7.0,0.0,Funes
Ribera_Alta,09/03/2017,13.8,24.8,4.8,0.0,Funes
Ribera_Alta,10/03/2017,15.9,26.3,6.6,0.0,Funes
Ribera_Alta,11/03/2017,14.2,23.2,7.5,0.0,Funes
Ribera_Alta,12/03/2017,10.3,16.0,6.4,1.6,Funes
Ribera_Alta,13/03/2017,9.4,12.9,6.7,0.2,Funes
Ribera_Alta,14/03/2017,11.2,17.9,5.1,0.0,Funes
Ribera_Alta,15/03/2017,11.8,18.7,5.0,0.0,Funes
Ribera_Alta,16/03/2017,12.7,20.4,5.6,0.0,Funes
Ribera_Alta,17/03/2017,12.6,20.9,4.1,0.0,Funes
Ribera_Alta,18/03/2017,11.4,20.2,5.0,0.0,Funes
Ribera_Alta,19/03/2017,13.4,22.4,6.5,0.0,Funes
Ribera_Alta,20/03/2017,11.6,21.3,4.7,0.0,Funes
Ribera_Alta,21/03/2017,9.0,14.6,4.1,0.0,Funes
Ribera_Alta,22/03/2017,6.7,14.8,2.9,5.4,Funes
Ribera_Alta,23/03/2017,6.2,10.8,1.1,0.2,Funes
Ribera_Alta,24/03/2017,7.3,11.7,2.4,0.0,Funes
Ribera_Alta,25/03/2017,4.6,7.7,3.1,39.4,Funes
Ribera_Alta,26/03/2017,9.6,15.3,4.7,0.2,Funes
Ribera_Alta,27/03/2017,9.8,13.3,7.3,1.0,Funes
Ribera_Alta,28/03/2017,11.7,17.4,5.6,0.0,Funes
Ribera_Alta,29/03/2017,13.0,20.4,4.6,0.0,Funes
Ribera_Alta,30/03/2017,14.2,21.0,7.2,0.0,Funes
Ribera_Alta,31/03/2017,13.0,18.4,8.8,1.2,Funes
Ribera_Alta,01/04/2017,10.7,15.4,7.7,0.6,Funes
Ribera_Alta,02/04/2017,9.6,14.2,5.6,0.0,Funes
Ribera_Alta,03/04/2017,11.1,18.9,3.7,0.0,Funes
Ribera_Alta,04/04/2017,11.9,16.7,7.3,0.0,Funes
Ribera_Alta,05/04/2017,11.2,16.0,6.9,0.0,Funes
Ribera_Alta,06/04/2017,12.5,18.8,8.3,0.0,Funes
Ribera_Alta,07/04/2017,12.8,20.6,5.4,0.0,Funes
Ribera_Alta,08/04/2017,15.6,24.5,7.1,0.0,Funes
Ribera_Alta,09/04/2017,16.0,24.2,7.7,0.0,Funes
Ribera_Alta,10/04/2017,16.3,25.9,7.9,0.0,Funes
Ribera_Alta,11/04/2017,14.0,21.9,7.5,0.0,Funes
Ribera_Alta,12/04/2017,14.9,23.3,6.3,0.0,Funes
Ribera_Alta,13/04/2017,16.4,26.5,8.1,0.0,Funes
Ribera_Alta,14/04/2017,15.1,23.9,6.7,0.0,Funes
Ribera_Alta,15/04/2017,12.6,18.2,7.8,0.0,Funes
Ribera_Alta,16/04/2017,13.7,22.5,5.9,0.0,Funes
Ribera_Alta,17/04/2017,14.6,24.7,6.0,0.0,Funes
Ribera_Alta,18/04/2017,13.8,20.8,8.0,0.0,Funes
Ribera_Alta,19/04/2017,11.5,17.6,4.9,0.0,Funes
Ribera_Alta,20/04/2017,11.9,19.4,3.3,0.0,Funes
Ribera_Alta,21/04/2017,12.6,20.1,4.7,0.0,Funes
Ribera_Alta,22/04/2017,14.0,22.5,4.4,0.0,Funes
Ribera_Alta,23/04/2017,15.8,25.0,4.7,0.0,Funes
Ribera_Alta,24/04/2017,17.5,25.8,7.8,0.0,Funes
Ribera_Alta,25/04/2017,13.8,20.9,9.5,18.1,Funes
Ribera_Alta,26/04/2017,8.2,10.9,4.7,0.0,Funes
Ribera_Alta,27/04/2017,7.1,12.4,2.3,0.0,Funes
Ribera_Alta,28/04/2017,8.4,16.1,0.3,0.0,Funes
Ribera_Alta,29/04/2017,10.3,14.8,3.5,0.8,Funes
Ribera_Alta,30/04/2017,10.3,17.5,4.9,3.4,Funes
Ribera_Alta,01/05/2017,9.9,17.5,1.4,0.2,Funes
Ribera_Alta,02/05/2017,13.4,19.2,8.6,0.0,Funes
Ribera_Alta,03/05/2017,14.4,22.0,7.6,0.4,Funes
Ribera_Alta,04/05/2017,16.5,22.2,9.9,0.0,Funes
Ribera_Alta,05/05/2017,16.4,24.2,11.6,5.8,Funes
Ribera_Alta,06/05/2017,14.7,21.3,8.2,0.4,Funes
Ribera_Alta,07/05/2017,14.9,22.8,6.4,0.0,Funes
Ribera_Alta,08/05/2017,15.8,24.5,7.8,0.0,Funes
Ribera_Alta,09/05/2017,15.9,24.3,8.6,1.8,Funes
Ribera_Alta,10/05/2017,17.0,23.8,11.6,0.2,Funes
Ribera_Alta,11/05/2017,14.9,20.2,10.9,12.1,Funes
Ribera_Alta,12/05/2017,15.0,20.4,11.6,1.4,Funes
Ribera_Alta,13/05/2017,15.6,21.4,8.6,0.2,Funes
Ribera_Alta,14/05/2017,17.8,24.5,10.5,0.0,Funes
Ribera_Alta,15/05/2017,19.7,28.0,11.0,0.0,Funes
Ribera_Alta,16/05/2017,22.3,29.6,14.2,0.0,Funes
Ribera_Alta,17/05/2017,20.5,27.7,14.5,0.0,Funes
Ribera_Alta,18/05/2017,11.4,14.5,7.0,13.3,Funes
Ribera_Alta,19/05/2017,11.8,17.2,6.9,0.0,Funes
Ribera_Alta,20/05/2017,13.9,21.3,5.3,0.0,Funes
Ribera_Alta,21/05/2017,17.8,24.9,9.6,0.0,Funes
Ribera_Alta,22/05/2017,20.1,29.1,13.1,0.0,Funes
Ribera_Alta,23/05/2017,19.8,28.8,11.7,0.0,Funes
Ribera_Alta,24/05/2017,22.2,31.4,11.8,0.0,Funes
Ribera_Alta,25/05/2017,25.1,33.5,15.7,0.0,Funes
Ribera_Alta,26/05/2017,24.0,33.8,15.5,0.8,Funes
Ribera_Alta,27/05/2017,24.3,32.8,16.3,0.0,Funes
Ribera_Alta,28/05/2017,23.3,31.3,16.5,0.0,Funes
Ribera_Alta,29/05/2017,17.2,21.3,13.7,17.1,Funes
Ribera_Alta,30/05/2017,18.6,24.7,13.8,0.2,Funes
Ribera_Alta,31/05/2017,20.0,27.0,13.0,0.0,Funes
Ribera_Alta,01/06/2017,22.3,29.5,15.1,0.0,Funes
Ribera_Alta,02/06/2017,19.8,26.1,16.3,5.6,Funes
Ribera_Alta,03/06/2017,16.8,21.4,11.9,6.4,Funes
Ribera_Alta,04/06/2017,12.6,15.4,10.6,11.1,Funes
Ribera_Alta,05/06/2017,17.1,23.4,11.3,0.2,Funes
Ribera_Alta,06/06/2017,16.0,19.3,12.5,0.0,Funes
Ribera_Alta,07/06/2017,18.2,26.8,8.6,0.0,Funes
Ribera_Alta,08/06/2017,21.0,30.2,14.1,4.4,Funes
Ribera_Alta,09/06/2017,21.4,28.6,15.4,0.0,Funes
Ribera_Alta,10/06/2017,24.2,32.5,16.1,0.0,Funes
Ribera_Alta,11/06/2017,25.0,35.1,18.0,0.0,Funes
Ribera_Alta,12/06/2017,24.2,33.1,15.9,0.0,Funes
Ribera_Alta,13/06/2017,26.1,35.4,16.7,0.0,Funes
Ribera_Alta,14/06/2017,27.7,36.1,19.1,0.0,Funes
Ribera_Alta,15/06/2017,23.6,31.1,18.6,0.0,Funes
Ribera_Alta,16/06/2017,23.5,33.3,16.2,0.0,Funes
Ribera_Alta,17/06/2017,26.2,36.3,16.2,0.0,Funes
Ribera_Alta,18/06/2017,27.7,37.5,16.4,0.0,Funes
Ribera_Alta,19/06/2017,27.5,36.0,20.5,0.4,Funes
Ribera_Alta,20/06/2017,25.1,31.9,19.1,0.0,Funes
Ribera_Alta,21/06/2017,27.4,35.3,19.0,0.0,Funes
Ribera_Alta,22/06/2017,28.4,37.2,20.9,0.0,Funes
Ribera_Alta,23/06/2017,23.8,33.5,18.1,0.0,Funes
Ribera_Alta,24/06/2017,21.9,28.7,16.6,0.0,Funes
Ribera_Alta,25/06/2017,22.1,28.8,17.0,7.8,Funes
Ribera_Alta,26/06/2017,21.0,26.2,17.7,4.2,Funes
Ribera_Alta,27/06/2017,19.7,27.0,15.9,9.2,Funes
Ribera_Alta,28/06/2017,18.2,24.7,14.2,8.8,Funes
Ribera_Alta,29/06/2017,16.0,21.3,11.4,1.8,Funes
Ribera_Alta,30/06/2017,14.2,20.0,9.7,0.4,Funes
Ribera_Alta,01/07/2017,14.5,17.5,11.6,0.0,Funes
Ribera_Alta,02/07/2017,17.4,24.9,9.9,0.0,Funes
Ribera_Alta,03/07/2017,21.2,29.3,13.9,0.0,Funes
Ribera_Alta,04/07/2017,24.8,34.1,14.0,0.0,Funes
Ribera_Alta,05/07/2017,26.1,34.3,17.1,0.0,Funes
Ribera_Alta,06/07/2017,24.3,30.4,18.3,0.6,Funes
Ribera_Alta,07/07/2017,24.2,33.0,17.4,0.2,Funes
Ribera_Alta,08/07/2017,21.5,31.1,16.8,1.6,Funes
Ribera_Alta,09/07/2017,23.0,30.4,16.5,4.4,Funes
Ribera_Alta,10/07/2017,19.6,24.6,15.7,0.2,Funes
Ribera_Alta,11/07/2017,22.4,31.1,14.6,0.0,Funes
Ribera_Alta,12/07/2017,23.8,31.2,16.2,0.0,Funes
Ribera_Alta,13/07/2017,22.0,30.3,15.6,0.0,Funes
Ribera_Alta,14/07/2017,20.6,27.3,15.4,0.0,Funes
Ribera_Alta,15/07/2017,21.4,29.8,14.2,0.0,Funes
Ribera_Alta,16/07/2017,24.6,34.0,15.4,0.0,Funes
Ribera_Alta,17/07/2017,27.2,34.8,20.7,3.0,Funes
Ribera_Alta,18/07/2017,26.7,35.3,20.3,0.2,Funes
Ribera_Alta,19/07/2017,25.2,33.7,18.2,0.0,Funes
Ribera_Alta,20/07/2017,20.7,26.5,16.3,0.0,Funes
Ribera_Alta,21/07/2017,20.8,28.7,15.2,0.0,Funes
Ribera_Alta,22/07/2017,21.1,30.4,14.4,0.0,Funes
Ribera_Alta,23/07/2017,21.1,28.6,14.5,0.0,Funes
Ribera_Alta,24/07/2017,21.0,26.5,16.7,0.0,Funes
Ribera_Alta,25/07/2017,18.7,22.8,15.1,0.0,Funes
Ribera_Alta,26/07/2017,21.0,29.4,13.4,0.0,Funes
Ribera_Alta,27/07/2017,23.8,33.4,13.9,0.0,Funes
Ribera_Alta,28/07/2017,24.7,33.3,17.0,0.0,Funes
Ribera_Alta,29/07/2017,26.4,35.0,16.6,0.0,Funes
Ribera_Alta,30/07/2017,24.7,34.4,17.8,0.0,Funes
Ribera_Alta,31/07/2017,22.2,31.9,16.1,0.0,Funes
Ribera_Alta,01/08/2017,22.0,29.4,16.8,0.0,Funes
Ribera_Alta,02/08/2017,25.5,35.3,16.4,0.0,Funes
Ribera_Alta,03/08/2017,26.6,35.6,18.6,0.0,Funes
Ribera_Alta,04/08/2017,26.2,34.2,18.8,0.0,Funes
Ribera_Alta,05/08/2017,22.8,29.8,17.6,0.2,Funes
Ribera_Alta,06/08/2017,20.7,26.8,15.3,0.0,Funes
Ribera_Alta,07/08/2017,22.8,32.7,15.9,0.0,Funes
Ribera_Alta,08/08/2017,18.4,23.7,12.5,0.0,Funes
Ribera_Alta,09/08/2017,15.7,20.9,11.6,0.0,Funes
Ribera_Alta,10/08/2017,15.7,21.0,11.0,0.0,Funes
Ribera_Alta,11/08/2017,16.9,23.6,10.6,0.0,Funes
Ribera_Alta,12/08/2017,19.3,29.6,9.6,0.0,Funes
Ribera_Alta,13/08/2017,22.0,31.4,12.8,0.0,Funes
Ribera_Alta,14/08/2017,24.8,34.4,17.6,1.8,Funes
Ribera_Alta,15/08/2017,22.9,30.7,17.0,0.0,Funes
Ribera_Alta,16/08/2017,21.8,30.3,16.2,0.0,Funes
Ribera_Alta,17/08/2017,23.7,34.1,13.4,0.0,Funes
Ribera_Alta,18/08/2017,22.3,28.7,16.2,0.0,Funes
Ribera_Alta,19/08/2017,20.1,27.0,14.7,0.0,Funes
Ribera_Alta,20/08/2017,20.2,29.7,12.3,0.0,Funes
Ribera_Alta,21/08/2017,23.6,34.0,11.7,0.0,Funes
Ribera_Alta,22/08/2017,26.0,34.3,19.5,0.0,Funes
Ribera_Alta,23/08/2017,23.7,32.0,18.1,12.3,Funes
Ribera_Alta,24/08/2017,24.0,30.8,17.5,0.0,Funes
Ribera_Alta,25/08/2017,24.4,33.4,16.1,0.0,Funes
Ribera_Alta,26/08/2017,25.7,32.4,18.8,0.0,Funes
Ribera_Alta,27/08/2017,20.7,26.4,17.8,2.6,Funes
Ribera_Alta,28/08/2017,19.7,26.9,16.7,7.6,Funes
Ribera_Alta,29/08/2017,18.5,24.7,15.1,2.2,Funes
Ribera_Alta,30/08/2017,19.0,25.0,15.1,9.2,Funes
Ribera_Alta,31/08/2017,16.9,21.6,12.9,1.4,Funes
Ribera_Alta,01/09/2017,15.9,22.4,11.0,0.0,Funes
Ribera_Alta,02/09/2017,16.5,22.3,10.9,0.0,Funes
Ribera_Alta,03/09/2017,18.6,25.2,12.1,0.0,Funes
Ribera_Alta,04/09/2017,21.1,27.0,15.8,0.0,Funes
Ribera_Alta,05/09/2017,21.0,30.1,14.3,0.0,Funes
Ribera_Alta,06/09/2017,18.6,24.1,13.3,0.0,Funes
Ribera_Alta,07/09/2017,16.2,22.7,10.9,0.0,Funes
Ribera_Alta,08/09/2017,17.3,25.9,8.2,0.0,Funes
Ribera_Alta,09/09/2017,15.5,19.9,10.7,1.8,Funes
Ribera_Alta,10/09/2017,15.8,20.6,10.7,0.0,Funes
Ribera_Alta,11/09/2017,17.5,23.1,13.0,0.0,Funes
Ribera_Alta,12/09/2017,17.5,23.6,12.8,0.0,Funes
Ribera_Alta,13/09/2017,19.8,28.6,11.3,0.0,Funes
Ribera_Alta,14/09/2017,15.4,18.5,11.2,0.0,Funes
Ribera_Alta,15/09/2017,13.2,18.7,8.7,0.0,Funes
Ribera_Alta,16/09/2017,11.7,18.1,5.7,0.0,Funes
Ribera_Alta,17/09/2017,13.3,20.4,6.0,0.0,Funes
Ribera_Alta,18/09/2017,14.8,19.9,11.1,2.4,Funes
Ribera_Alta,19/09/2017,14.6,20.1,9.9,0.0,Funes
Ribera_Alta,20/09/2017,15.6,24.8,6.5,0.0,Funes
Ribera_Alta,21/09/2017,16.4,28.0,5.0,0.0,Funes
Ribera_Alta,22/09/2017,15.8,21.4,10.7,4.5,Funes
Ribera_Alta,23/09/2017,17.7,24.4,12.3,0.2,Funes
Ribera_Alta,24/09/2017,19.7,27.1,11.9,0.0,Funes
Ribera_Alta,25/09/2017,17.7,22.5,13.6,0.0,Funes
Ribera_Alta,26/09/2017,17.5,23.3,13.0,0.0,Funes
Ribera_Alta,27/09/2017,17.8,25.3,10.7,0.0,Funes
Ribera_Alta,28/09/2017,19.2,26.5,14.0,0.0,Funes
Ribera_Alta,29/09/2017,19.5,25.9,13.7,0.0,Funes
Ribera_Alta,30/09/2017,16.6,20.8,13.5,0.0,Funes
Ribera_Alta,01/10/2017,16.8,21.6,12.8,0.0,Funes
Ribera_Alta,02/10/2017,19.4,24.6,14.7,0.0,Funes
Ribera_Alta,03/10/2017,18.6,25.6,13.1,0.0,Funes
Ribera_Alta,04/10/2017,18.7,26.6,11.4,0.0,Funes
Ribera_Alta,05/10/2017,18.2,26.4,11.7,0.0,Funes
Ribera_Alta,06/10/2017,15.7,21.5,11.0,0.0,Funes
Ribera_Alta,07/10/2017,14.4,21.4,9.1,0.0,Funes
Ribera_Alta,08/10/2017,15.1,25.4,6.3,0.0,Funes
Ribera_Alta,09/10/2017,16.4,25.7,7.7,0.0,Funes
Ribera_Alta,10/10/2017,15.9,25.0,6.2,0.0,Funes
Ribera_Alta,11/10/2017,15.9,23.3,8.2,0.0,Funes
Ribera_Alta,12/10/2017,16.4,24.4,8.1,0.0,Funes
Ribera_Alta,13/10/2017,18.0,25.2,11.4,0.0,Funes
Ribera_Alta,14/10/2017,18.1,23.5,14.3,0.0,Funes
Ribera_Alta,15/10/2017,18.2,23.4,14.1,0.0,Funes
Ribera_Alta,16/10/2017,17.9,24.4,14.0,0.0,Funes
Ribera_Alta,17/10/2017,17.3,22.3,12.1,0.4,Funes
Ribera_Alta,18/10/2017,14.7,17.9,10.5,9.4,Funes
Ribera_Alta,19/10/2017,12.6,18.2,8.9,1.8,Funes
Ribera_Alta,20/10/2017,14.7,21.0,8.9,0.0,Funes
Ribera_Alta,21/10/2017,12.7,15.8,9.0,0.0,Funes
Ribera_Alta,22/10/2017,11.4,15.4,7.0,0.0,Funes
Ribera_Alta,23/10/2017,12.4,21.2,5.2,0.0,Funes
Ribera_Alta,24/10/2017,14.9,23.6,7.6,0.0,Funes
Ribera_Alta,25/10/2017,15.0,23.4,7.3,0.6,Funes
Ribera_Alta,26/10/2017,15.7,25.1,7.1,0.0,Funes
Ribera_Alta,27/10/2017,15.6,20.5,10.6,0.0,Funes
Ribera_Alta,28/10/2017,14.4,17.6,10.4,0.0,Funes
Ribera_Alta,29/10/2017,12.8,17.5,9.0,0.0,Funes
Ribera_Alta,30/10/2017,13.5,18.5,7.4,0.0,Funes
Ribera_Alta,31/10/2017,9.4,17.5,4.2,0.0,Funes
Ribera_Alta,01/11/2017,12.8,19.1,6.3,0.0,Funes
Ribera_Alta,02/11/2017,14.2,18.4,10.8,0.0,Funes
Ribera_Alta,03/11/2017,14.8,19.9,11.2,0.0,Funes
Ribera_Alta,04/11/2017,13.0,16.7,11.1,2.6,Funes
Ribera_Alta,05/11/2017,10.6,12.8,8.0,0.2,Funes
Ribera_Alta,06/11/2017,8.0,11.1,5.6,1.8,Funes
Ribera_Alta,07/11/2017,8.5,14.0,2.6,0.2,Funes
Ribera_Alta,08/11/2017,7.4,10.5,3.9,1.2,Funes
Ribera_Alta,09/11/2017,7.2,10.3,4.0,0.2,Funes
Ribera_Alta,10/11/2017,9.8,13.7,4.4,0.4,Funes
Ribera_Alta,11/11/2017,11.8,15.2,8.4,0.0,Funes
Ribera_Alta,12/11/2017,12.2,16.1,7.0,0.0,Funes
Ribera_Alta,13/11/2017,7.7,11.4,4.3,0.6,Funes
Ribera_Alta,14/11/2017,6.9,11.6,3.5,0.0,Funes
Ribera_Alta,15/11/2017,7.1,15.1,1.6,0.0,Funes
Ribera_Alta,16/11/2017,7.6,14.4,-1.0,0.0,Funes
Ribera_Alta,17/11/2017,11.0,19.0,5.8,0.0,Funes
Ribera_Alta,18/11/2017,9.2,15.4,4.5,0.0,Funes
Ribera_Alta,19/11/2017,8.4,16.0,3.4,0.0,Funes
Ribera_Alta,20/11/2017,8.0,15.3,1.1,0.0,Funes
Ribera_Alta,21/11/2017,6.7,14.0,-0.4,0.0,Funes
Ribera_Alta,22/11/2017,6.1,12.9,-1.1,0.0,Funes
Ribera_Alta,23/11/2017,11.2,16.9,6.6,0.0,Funes
Ribera_Alta,24/11/2017,10.3,14.0,7.9,0.8,Funes
Ribera_Alta,25/11/2017,8.6,12.1,2.9,2.0,Funes
Ribera_Alta,26/11/2017,5.9,10.1,2.3,0.0,Funes
Ribera_Alta,27/11/2017,3.8,9.2,-0.2,0.0,Funes
Ribera_Alta,28/11/2017,3.7,10.9,-2.5,0.0,Funes
Ribera_Alta,29/11/2017,5.3,9.0,1.2,0.0,Funes
Ribera_Alta,30/11/2017,4.2,8.2,0.4,0.0,Funes
Ribera_Alta,01/12/2017,2.9,5.9,0.4,4.0,Funes
Ribera_Alta,02/12/2017,1.5,4.4,-0.1,3.6,Funes
Ribera_Alta,03/12/2017,3.1,6.6,-0.4,0.0,Funes
Ribera_Alta,04/12/2017,5.8,10.0,1.2,0.0,Funes
Ribera_Alta,05/12/2017,3.6,9.7,-0.8,0.0,Funes
Ribera_Alta,06/12/2017,1.1,6.7,-4.4,0.2,Funes
Ribera_Alta,07/12/2017,1.6,6.4,-2.8,0.0,Funes
Ribera_Alta,08/12/2017,6.3,11.2,1.1,0.2,Funes
Ribera_Alta,09/12/2017,6.4,9.9,3.1,0.8,Funes
Ribera_Alta,10/12/2017,8.8,15.1,3.6,0.0,Funes
Ribera_Alta,11/12/2017,8.2,14.8,4.2,1.2,Funes
Ribera_Alta,12/12/2017,4.2,8.6,0.9,0.0,Funes
Ribera_Alta,13/12/2017,2.4,5.9,-2.1,0.0,Funes
Ribera_Alta,14/12/2017,7.0,9.9,2.6,8.2,Funes
Ribera_Alta,15/12/2017,6.8,9.4,4.4,1.0,Funes
Ribera_Alta,16/12/2017,4.7,7.5,1.9,0.4,Funes
Ribera_Alta,17/12/2017,5.1,9.2,1.3,0.2,Funes
Ribera_Alta,18/12/2017,6.9,10.3,2.9,0.0,Funes
Ribera_Alta,19/12/2017,6.2,10.2,3.2,0.0,Funes
Ribera_Alta,20/12/2017,6.4,11.9,3.3,0.0,Funes
Ribera_Alta,21/12/2017,8.6,13.7,4.9,0.0,Funes
Ribera_Alta,22/12/2017,7.5,10.6,4.3,0.0,Funes
Ribera_Alta,23/12/2017,7.4,11.8,2.6,0.0,Funes
Ribera_Alta,24/12/2017,2.3,4.9,-1.5,0.2,Funes
Ribera_Alta,25/12/2017,1.0,2.5,0.2,0.4,Funes
Ribera_Alta,26/12/2017,4.4,9.0,1.1,2.4,Funes
Ribera_Alta,27/12/2017,5.7,9.0,2.4,6.2,Funes
Ribera_Alta,28/12/2017,6.8,11.4,4.0,1.2,Funes
Ribera_Alta,29/12/2017,8.8,14.6,5.0,2.0,Funes
Ribera_Alta,30/12/2017,9.7,16.5,4.1,0.2,Funes
Ribera_Alta,31/12/2017,7.2,12.0,3.5,2.4,Funes
