Comarca,Fecha, Temperatura media, Temperatura maxima, Temperatura minima, Precipitacion acumulada,Localidad
Ribera_Alta,01/01/2012,0.0,0.0,0.0,0.0,Miranda_de_Arga
Ribera_Alta,02/01/2012,7.4,12.9,1.7,0.4,Miranda_de_Arga
Ribera_Alta,03/01/2012,4.0,12.8,-2.9,0.0,Miranda_de_Arga
Ribera_Alta,04/01/2012,7.7,14.8,0.3,0.0,Miranda_de_Arga
Ribera_Alta,05/01/2012,7.5,15.0,-0.8,0.0,Miranda_de_Arga
Ribera_Alta,06/01/2012,10.7,12.8,7.1,0.0,Miranda_de_Arga
Ribera_Alta,07/01/2012,9.2,13.0,4.7,0.0,Miranda_de_Arga
Ribera_Alta,08/01/2012,9.5,12.5,6.9,0.0,Miranda_de_Arga
Ribera_Alta,09/01/2012,6.6,11.0,0.5,0.0,Miranda_de_Arga
Ribera_Alta,10/01/2012,0.7,8.4,-4.7,0.0,Miranda_de_Arga
Ribera_Alta,11/01/2012,-1.0,1.2,-4.3,0.2,Miranda_de_Arga
Ribera_Alta,12/01/2012,0.7,2.3,-1.1,0.0,Miranda_de_Arga
Ribera_Alta,13/01/2012,3.4,8.9,-0.5,0.1,Miranda_de_Arga
Ribera_Alta,14/01/2012,2.6,7.9,-2.9,0.0,Miranda_de_Arga
Ribera_Alta,15/01/2012,-0.9,4.5,-5.9,0.1,Miranda_de_Arga
Ribera_Alta,16/01/2012,2.5,7.5,0.1,10.8,Miranda_de_Arga
Ribera_Alta,17/01/2012,2.8,10.2,-2.4,0.1,Miranda_de_Arga
Ribera_Alta,18/01/2012,4.0,13.4,-4.3,0.2,Miranda_de_Arga
Ribera_Alta,19/01/2012,9.5,15.4,3.5,0.0,Miranda_de_Arga
Ribera_Alta,20/01/2012,10.5,15.2,7.1,0.0,Miranda_de_Arga
Ribera_Alta,21/01/2012,9.2,14.6,3.4,0.0,Miranda_de_Arga
Ribera_Alta,22/01/2012,10.2,13.7,7.0,0.0,Miranda_de_Arga
Ribera_Alta,23/01/2012,10.0,13.8,6.9,0.0,Miranda_de_Arga
Ribera_Alta,24/01/2012,7.5,11.2,3.6,0.0,Miranda_de_Arga
Ribera_Alta,25/01/2012,3.3,10.3,-2.3,0.0,Miranda_de_Arga
Ribera_Alta,26/01/2012,3.9,12.6,-4.7,0.0,Miranda_de_Arga
Ribera_Alta,27/01/2012,5.4,7.7,1.6,1.9,Miranda_de_Arga
Ribera_Alta,28/01/2012,4.7,8.9,0.7,1.6,Miranda_de_Arga
Ribera_Alta,29/01/2012,3.2,6.1,1.2,0.8,Miranda_de_Arga
Ribera_Alta,30/01/2012,3.4,8.9,-1.5,0.0,Miranda_de_Arga
Ribera_Alta,31/01/2012,4.4,11.1,-2.1,0.0,Miranda_de_Arga
Ribera_Alta,01/02/2012,4.7,9.1,0.6,0.4,Miranda_de_Arga
Ribera_Alta,02/02/2012,-0.8,2.2,-3.7,0.0,Miranda_de_Arga
Ribera_Alta,03/02/2012,-1.7,0.9,-4.1,0.0,Miranda_de_Arga
Ribera_Alta,04/02/2012,-0.5,4.5,-4.9,0.0,Miranda_de_Arga
Ribera_Alta,05/02/2012,3.6,8.7,-2.6,4.4,Miranda_de_Arga
Ribera_Alta,06/02/2012,4.2,6.0,1.7,0.0,Miranda_de_Arga
Ribera_Alta,07/02/2012,1.6,4.9,-2.3,0.0,Miranda_de_Arga
Ribera_Alta,08/02/2012,-2.0,0.9,-3.9,0.0,Miranda_de_Arga
Ribera_Alta,09/02/2012,0.1,3.7,-2.9,0.0,Miranda_de_Arga
Ribera_Alta,10/02/2012,1.7,6.3,-3.0,0.0,Miranda_de_Arga
Ribera_Alta,11/02/2012,-1.4,3.5,-6.1,0.0,Miranda_de_Arga
Ribera_Alta,12/02/2012,-0.9,3.4,-5.1,0.0,Miranda_de_Arga
Ribera_Alta,13/02/2012,1.9,5.9,-4.3,0.0,Miranda_de_Arga
Ribera_Alta,14/02/2012,3.8,7.5,1.0,2.6,Miranda_de_Arga
Ribera_Alta,15/02/2012,5.3,9.5,1.2,0.0,Miranda_de_Arga
Ribera_Alta,16/02/2012,6.5,9.5,4.1,0.0,Miranda_de_Arga
Ribera_Alta,17/02/2012,5.7,10.6,-0.4,0.0,Miranda_de_Arga
Ribera_Alta,18/02/2012,3.5,13.0,-5.9,0.0,Miranda_de_Arga
Ribera_Alta,19/02/2012,6.3,11.0,1.4,0.0,Miranda_de_Arga
Ribera_Alta,20/02/2012,4.3,9.1,0.7,0.0,Miranda_de_Arga
Ribera_Alta,21/02/2012,3.8,10.6,-2.1,0.0,Miranda_de_Arga
Ribera_Alta,22/02/2012,4.9,15.2,-5.8,0.0,Miranda_de_Arga
Ribera_Alta,23/02/2012,9.8,17.6,1.3,0.0,Miranda_de_Arga
Ribera_Alta,24/02/2012,10.5,20.1,3.3,0.0,Miranda_de_Arga
Ribera_Alta,25/02/2012,8.4,16.3,0.0,0.0,Miranda_de_Arga
Ribera_Alta,26/02/2012,11.3,15.1,8.7,0.0,Miranda_de_Arga
Ribera_Alta,27/02/2012,10.3,15.2,6.3,0.0,Miranda_de_Arga
Ribera_Alta,28/02/2012,7.8,17.8,-1.6,0.0,Miranda_de_Arga
Ribera_Alta,29/02/2012,8.7,20.4,-1.3,0.0,Miranda_de_Arga
Ribera_Alta,01/03/2012,8.7,19.3,-0.5,0.0,Miranda_de_Arga
Ribera_Alta,02/03/2012,8.5,18.1,-1.7,0.0,Miranda_de_Arga
Ribera_Alta,03/03/2012,10.1,18.6,1.2,0.0,Miranda_de_Arga
Ribera_Alta,04/03/2012,7.8,15.1,2.7,1.7,Miranda_de_Arga
Ribera_Alta,05/03/2012,6.0,10.4,2.9,0.0,Miranda_de_Arga
Ribera_Alta,06/03/2012,5.6,10.4,2.2,0.1,Miranda_de_Arga
Ribera_Alta,07/03/2012,7.7,13.9,-0.3,0.0,Miranda_de_Arga
Ribera_Alta,08/03/2012,8.9,12.1,6.1,0.0,Miranda_de_Arga
Ribera_Alta,09/03/2012,8.7,14.2,4.8,0.0,Miranda_de_Arga
Ribera_Alta,10/03/2012,8.8,16.6,0.7,0.0,Miranda_de_Arga
Ribera_Alta,11/03/2012,9.7,15.2,5.7,0.0,Miranda_de_Arga
Ribera_Alta,12/03/2012,11.1,19.6,4.6,0.0,Miranda_de_Arga
Ribera_Alta,13/03/2012,12.1,25.7,0.3,0.0,Miranda_de_Arga
Ribera_Alta,14/03/2012,13.2,25.9,1.5,0.0,Miranda_de_Arga
Ribera_Alta,15/03/2012,12.9,24.6,1.9,0.0,Miranda_de_Arga
Ribera_Alta,16/03/2012,12.4,21.8,1.9,0.0,Miranda_de_Arga
Ribera_Alta,17/03/2012,11.9,19.9,2.9,0.0,Miranda_de_Arga
Ribera_Alta,18/03/2012,8.3,13.9,2.3,6.4,Miranda_de_Arga
Ribera_Alta,19/03/2012,6.7,11.8,2.4,0.0,Miranda_de_Arga
Ribera_Alta,20/03/2012,7.0,12.2,1.1,0.0,Miranda_de_Arga
Ribera_Alta,21/03/2012,6.2,7.9,4.7,21.0,Miranda_de_Arga
Ribera_Alta,22/03/2012,6.9,15.0,-0.5,0.2,Miranda_de_Arga
Ribera_Alta,23/03/2012,8.2,16.3,-0.3,0.1,Miranda_de_Arga
Ribera_Alta,24/03/2012,10.3,19.9,1.5,0.0,Miranda_de_Arga
Ribera_Alta,25/03/2012,11.6,22.4,1.3,0.2,Miranda_de_Arga
Ribera_Alta,26/03/2012,12.9,22.0,2.3,0.0,Miranda_de_Arga
Ribera_Alta,27/03/2012,12.6,21.1,4.0,0.0,Miranda_de_Arga
Ribera_Alta,28/03/2012,12.4,22.7,2.1,0.0,Miranda_de_Arga
Ribera_Alta,29/03/2012,13.2,24.2,1.9,0.0,Miranda_de_Arga
Ribera_Alta,30/03/2012,15.3,24.2,6.5,0.0,Miranda_de_Arga
Ribera_Alta,31/03/2012,14.5,23.9,5.9,0.0,Miranda_de_Arga
Ribera_Alta,01/04/2012,13.4,21.9,6.5,3.7,Miranda_de_Arga
Ribera_Alta,02/04/2012,14.0,22.4,4.9,5.4,Miranda_de_Arga
Ribera_Alta,03/04/2012,10.1,11.4,8.3,3.5,Miranda_de_Arga
Ribera_Alta,04/04/2012,10.3,14.7,7.9,0.2,Miranda_de_Arga
Ribera_Alta,05/04/2012,9.7,13.2,7.4,6.6,Miranda_de_Arga
Ribera_Alta,06/04/2012,8.5,12.9,3.0,3.4,Miranda_de_Arga
Ribera_Alta,07/04/2012,6.2,10.8,-0.5,0.3,Miranda_de_Arga
Ribera_Alta,08/04/2012,10.0,14.2,6.5,0.0,Miranda_de_Arga
Ribera_Alta,09/04/2012,13.5,21.2,5.5,0.0,Miranda_de_Arga
Ribera_Alta,10/04/2012,11.6,17.8,5.8,3.4,Miranda_de_Arga
Ribera_Alta,11/04/2012,9.1,14.4,2.1,0.0,Miranda_de_Arga
Ribera_Alta,12/04/2012,8.5,13.9,4.5,1.4,Miranda_de_Arga
Ribera_Alta,13/04/2012,8.2,13.6,3.7,0.0,Miranda_de_Arga
Ribera_Alta,14/04/2012,7.7,11.5,5.2,7.9,Miranda_de_Arga
Ribera_Alta,15/04/2012,7.0,10.4,4.4,0.3,Miranda_de_Arga
Ribera_Alta,16/04/2012,5.9,10.2,2.9,0.4,Miranda_de_Arga
Ribera_Alta,17/04/2012,8.8,17.6,1.1,4.8,Miranda_de_Arga
Ribera_Alta,18/04/2012,9.0,12.9,4.8,3.7,Miranda_de_Arga
Ribera_Alta,19/04/2012,9.8,13.3,6.9,1.3,Miranda_de_Arga
Ribera_Alta,20/04/2012,10.0,14.7,6.1,0.5,Miranda_de_Arga
Ribera_Alta,21/04/2012,10.3,19.1,5.6,0.3,Miranda_de_Arga
Ribera_Alta,22/04/2012,10.1,15.0,6.6,0.1,Miranda_de_Arga
Ribera_Alta,23/04/2012,9.3,16.4,3.2,1.7,Miranda_de_Arga
Ribera_Alta,24/04/2012,10.0,15.6,4.0,0.0,Miranda_de_Arga
Ribera_Alta,25/04/2012,14.5,22.5,9.0,0.0,Miranda_de_Arga
Ribera_Alta,26/04/2012,11.9,17.4,8.5,0.3,Miranda_de_Arga
Ribera_Alta,27/04/2012,13.2,23.0,5.1,1.9,Miranda_de_Arga
Ribera_Alta,28/04/2012,9.0,10.3,7.5,8.9,Miranda_de_Arga
Ribera_Alta,29/04/2012,9.6,14.4,6.4,4.4,Miranda_de_Arga
Ribera_Alta,30/04/2012,9.9,15.6,6.4,0.3,Miranda_de_Arga
Ribera_Alta,01/05/2012,11.5,17.6,5.7,0.1,Miranda_de_Arga
Ribera_Alta,02/05/2012,14.1,21.5,4.5,0.0,Miranda_de_Arga
Ribera_Alta,03/05/2012,16.1,23.1,10.3,0.1,Miranda_de_Arga
Ribera_Alta,04/05/2012,13.0,19.2,9.1,0.0,Miranda_de_Arga
Ribera_Alta,05/05/2012,11.7,18.3,7.2,0.1,Miranda_de_Arga
Ribera_Alta,06/05/2012,12.4,18.1,7.3,7.0,Miranda_de_Arga
Ribera_Alta,07/05/2012,14.8,23.1,4.5,8.7,Miranda_de_Arga
Ribera_Alta,08/05/2012,17.9,24.2,13.6,0.3,Miranda_de_Arga
Ribera_Alta,09/05/2012,20.5,28.7,10.8,0.0,Miranda_de_Arga
Ribera_Alta,10/05/2012,23.0,30.6,15.6,0.0,Miranda_de_Arga
Ribera_Alta,11/05/2012,23.2,32.3,13.1,0.0,Miranda_de_Arga
Ribera_Alta,12/05/2012,19.6,25.5,15.0,0.0,Miranda_de_Arga
Ribera_Alta,13/05/2012,16.2,20.2,10.9,2.8,Miranda_de_Arga
Ribera_Alta,14/05/2012,15.5,24.1,8.4,0.0,Miranda_de_Arga
Ribera_Alta,15/05/2012,12.9,19.5,6.7,0.0,Miranda_de_Arga
Ribera_Alta,16/05/2012,15.2,24.3,6.9,0.9,Miranda_de_Arga
Ribera_Alta,17/05/2012,17.0,23.6,11.9,1.1,Miranda_de_Arga
Ribera_Alta,18/05/2012,16.2,23.4,12.1,5.1,Miranda_de_Arga
Ribera_Alta,19/05/2012,13.6,17.4,10.7,6.5,Miranda_de_Arga
Ribera_Alta,20/05/2012,10.5,12.0,8.9,6.8,Miranda_de_Arga
Ribera_Alta,21/05/2012,10.9,12.5,8.9,1.1,Miranda_de_Arga
Ribera_Alta,22/05/2012,13.9,18.9,9.3,0.0,Miranda_de_Arga
Ribera_Alta,23/05/2012,16.9,25.1,7.9,4.4,Miranda_de_Arga
Ribera_Alta,24/05/2012,20.3,29.0,11.3,0.0,Miranda_de_Arga
Ribera_Alta,25/05/2012,22.7,31.4,12.1,1.7,Miranda_de_Arga
Ribera_Alta,26/05/2012,18.7,24.7,12.9,0.0,Miranda_de_Arga
Ribera_Alta,27/05/2012,17.7,26.1,9.7,3.7,Miranda_de_Arga
Ribera_Alta,28/05/2012,18.6,25.9,10.5,0.2,Miranda_de_Arga
Ribera_Alta,29/05/2012,21.0,29.6,13.5,2.7,Miranda_de_Arga
Ribera_Alta,30/05/2012,21.3,31.0,13.3,3.1,Miranda_de_Arga
Ribera_Alta,31/05/2012,21.9,32.2,13.7,0.0,Miranda_de_Arga
Ribera_Alta,01/06/2012,24.6,35.5,13.5,0.1,Miranda_de_Arga
Ribera_Alta,02/06/2012,22.6,34.6,14.0,3.0,Miranda_de_Arga
Ribera_Alta,03/06/2012,16.6,20.1,14.0,3.7,Miranda_de_Arga
Ribera_Alta,04/06/2012,17.3,22.7,12.8,0.2,Miranda_de_Arga
Ribera_Alta,05/06/2012,20.3,31.0,9.4,0.1,Miranda_de_Arga
Ribera_Alta,06/06/2012,21.5,29.1,13.8,0.1,Miranda_de_Arga
Ribera_Alta,07/06/2012,21.1,27.7,14.0,0.0,Miranda_de_Arga
Ribera_Alta,08/06/2012,15.4,19.8,10.2,0.1,Miranda_de_Arga
Ribera_Alta,09/06/2012,15.8,23.3,7.1,0.1,Miranda_de_Arga
Ribera_Alta,10/06/2012,18.6,24.8,15.0,0.1,Miranda_de_Arga
Ribera_Alta,11/06/2012,15.8,23.6,11.1,0.1,Miranda_de_Arga
Ribera_Alta,12/06/2012,14.2,19.5,9.4,0.7,Miranda_de_Arga
Ribera_Alta,13/06/2012,15.8,22.2,9.8,2.4,Miranda_de_Arga
Ribera_Alta,14/06/2012,21.6,30.8,9.2,0.3,Miranda_de_Arga
Ribera_Alta,15/06/2012,23.1,32.2,12.5,0.0,Miranda_de_Arga
Ribera_Alta,16/06/2012,21.4,32.6,12.8,0.0,Miranda_de_Arga
Ribera_Alta,17/06/2012,22.7,32.0,11.7,0.0,Miranda_de_Arga
Ribera_Alta,18/06/2012,19.2,23.7,15.9,1.5,Miranda_de_Arga
Ribera_Alta,19/06/2012,18.3,22.5,14.7,5.8,Miranda_de_Arga
Ribera_Alta,20/06/2012,22.5,30.1,14.1,0.3,Miranda_de_Arga
Ribera_Alta,21/06/2012,19.5,28.7,11.9,0.0,Miranda_de_Arga
Ribera_Alta,22/06/2012,17.6,25.7,10.2,0.0,Miranda_de_Arga
Ribera_Alta,23/06/2012,20.7,30.9,12.0,0.0,Miranda_de_Arga
Ribera_Alta,24/06/2012,22.7,32.0,15.2,5.3,Miranda_de_Arga
Ribera_Alta,25/06/2012,23.5,32.1,12.7,0.3,Miranda_de_Arga
Ribera_Alta,26/06/2012,26.2,35.4,16.6,0.3,Miranda_de_Arga
Ribera_Alta,27/06/2012,26.4,36.6,15.8,0.4,Miranda_de_Arga
Ribera_Alta,28/06/2012,25.0,37.1,17.2,0.6,Miranda_de_Arga
Ribera_Alta,29/06/2012,21.7,32.9,14.9,3.0,Miranda_de_Arga
Ribera_Alta,30/06/2012,18.6,27.5,13.3,1.6,Miranda_de_Arga
Ribera_Alta,01/07/2012,16.0,20.0,11.3,0.0,Miranda_de_Arga
Ribera_Alta,02/07/2012,18.5,27.4,8.5,0.0,Miranda_de_Arga
Ribera_Alta,03/07/2012,22.6,32.8,12.1,0.0,Miranda_de_Arga
Ribera_Alta,04/07/2012,21.5,28.7,16.2,0.0,Miranda_de_Arga
Ribera_Alta,05/07/2012,18.7,23.6,12.7,0.0,Miranda_de_Arga
Ribera_Alta,06/07/2012,19.2,25.9,12.6,0.0,Miranda_de_Arga
Ribera_Alta,07/07/2012,22.1,30.8,15.1,0.0,Miranda_de_Arga
Ribera_Alta,08/07/2012,19.9,26.0,14.8,0.0,Miranda_de_Arga
Ribera_Alta,09/07/2012,20.4,29.6,15.2,0.0,Miranda_de_Arga
Ribera_Alta,10/07/2012,18.7,24.5,14.5,5.6,Miranda_de_Arga
Ribera_Alta,11/07/2012,17.4,22.3,12.7,0.8,Miranda_de_Arga
Ribera_Alta,12/07/2012,19.5,31.2,10.2,0.2,Miranda_de_Arga
Ribera_Alta,13/07/2012,21.6,33.0,12.2,2.3,Miranda_de_Arga
Ribera_Alta,14/07/2012,18.5,22.7,15.4,4.5,Miranda_de_Arga
Ribera_Alta,15/07/2012,17.5,23.0,12.6,6.6,Miranda_de_Arga
Ribera_Alta,16/07/2012,19.4,28.3,10.1,5.6,Miranda_de_Arga
Ribera_Alta,17/07/2012,24.3,34.2,12.5,6.1,Miranda_de_Arga
Ribera_Alta,18/07/2012,25.1,36.3,13.3,1.6,Miranda_de_Arga
Ribera_Alta,19/07/2012,19.9,26.3,14.6,1.4,Miranda_de_Arga
Ribera_Alta,20/07/2012,18.6,24.4,13.7,4.3,Miranda_de_Arga
Ribera_Alta,21/07/2012,19.0,24.3,14.7,2.0,Miranda_de_Arga
Ribera_Alta,22/07/2012,20.3,25.3,16.0,0.0,Miranda_de_Arga
Ribera_Alta,23/07/2012,21.5,29.3,13.7,5.2,Miranda_de_Arga
Ribera_Alta,24/07/2012,22.9,30.4,13.9,0.3,Miranda_de_Arga
Ribera_Alta,25/07/2012,29.4,35.2,16.6,0.3,Miranda_de_Arga
Ribera_Alta,26/07/2012,26.5,34.4,20.1,0.4,Miranda_de_Arga
Ribera_Alta,27/07/2012,21.8,30.7,16.2,5.0,Miranda_de_Arga
Ribera_Alta,28/07/2012,20.1,25.5,15.7,1.0,Miranda_de_Arga
Ribera_Alta,29/07/2012,20.0,27.7,14.4,0.1,Miranda_de_Arga
Ribera_Alta,30/07/2012,21.6,32.3,13.1,0.1,Miranda_de_Arga
Ribera_Alta,31/07/2012,24.8,33.2,14.7,0.1,Miranda_de_Arga
Ribera_Alta,01/08/2012,24.0,33.2,17.0,0.1,Miranda_de_Arga
Ribera_Alta,02/08/2012,20.9,28.7,15.3,0.1,Miranda_de_Arga
Ribera_Alta,03/08/2012,20.8,28.0,14.6,0.0,Miranda_de_Arga
Ribera_Alta,04/08/2012,21.2,29.6,14.6,0.0,Miranda_de_Arga
Ribera_Alta,05/08/2012,17.9,25.6,13.9,0.3,Miranda_de_Arga
Ribera_Alta,06/08/2012,18.3,25.3,11.1,0.1,Miranda_de_Arga
Ribera_Alta,07/08/2012,21.6,30.8,11.4,0.1,Miranda_de_Arga
Ribera_Alta,08/08/2012,23.9,32.6,14.2,0.0,Miranda_de_Arga
Ribera_Alta,09/08/2012,26.0,37.9,14.2,0.0,Miranda_de_Arga
Ribera_Alta,10/08/2012,27.8,38.9,16.3,0.0,Miranda_de_Arga
Ribera_Alta,11/08/2012,24.7,33.3,19.0,0.0,Miranda_de_Arga
Ribera_Alta,12/08/2012,21.0,26.6,16.0,0.0,Miranda_de_Arga
Ribera_Alta,13/08/2012,22.3,32.4,13.4,0.1,Miranda_de_Arga
Ribera_Alta,14/08/2012,24.8,32.5,15.4,0.1,Miranda_de_Arga
Ribera_Alta,15/08/2012,21.8,26.4,14.1,0.0,Miranda_de_Arga
Ribera_Alta,16/08/2012,22.7,34.6,10.3,0.0,Miranda_de_Arga
Ribera_Alta,17/08/2012,27.5,35.5,18.9,0.0,Miranda_de_Arga
Ribera_Alta,18/08/2012,28.0,35.5,18.4,0.0,Miranda_de_Arga
Ribera_Alta,19/08/2012,27.3,35.0,21.0,0.0,Miranda_de_Arga
Ribera_Alta,20/08/2012,27.8,38.4,18.5,0.0,Miranda_de_Arga
Ribera_Alta,21/08/2012,25.6,38.4,17.2,1.1,Miranda_de_Arga
Ribera_Alta,22/08/2012,23.4,33.1,16.7,0.1,Miranda_de_Arga
Ribera_Alta,23/08/2012,23.5,34.4,16.6,0.0,Miranda_de_Arga
Ribera_Alta,24/08/2012,23.2,32.8,14.5,0.0,Miranda_de_Arga
Ribera_Alta,25/08/2012,19.9,24.8,14.8,0.1,Miranda_de_Arga
Ribera_Alta,26/08/2012,19.4,27.9,11.3,0.0,Miranda_de_Arga
Ribera_Alta,27/08/2012,22.7,32.1,11.2,0.0,Miranda_de_Arga
Ribera_Alta,28/08/2012,23.8,32.3,15.4,0.1,Miranda_de_Arga
Ribera_Alta,29/08/2012,22.5,30.7,18.8,0.0,Miranda_de_Arga
Ribera_Alta,30/08/2012,18.1,21.9,13.8,0.0,Miranda_de_Arga
Ribera_Alta,31/08/2012,15.6,20.4,11.8,0.0,Miranda_de_Arga
Ribera_Alta,01/09/2012,15.3,20.2,11.5,0.0,Miranda_de_Arga
Ribera_Alta,02/09/2012,16.1,21.9,10.1,0.0,Miranda_de_Arga
Ribera_Alta,03/09/2012,17.8,22.6,12.8,0.0,Miranda_de_Arga
Ribera_Alta,04/09/2012,18.4,23.3,13.4,0.1,Miranda_de_Arga
Ribera_Alta,05/09/2012,19.7,25.7,13.1,0.0,Miranda_de_Arga
Ribera_Alta,06/09/2012,21.1,30.5,12.8,0.0,Miranda_de_Arga
Ribera_Alta,07/09/2012,21.9,32.2,12.5,0.0,Miranda_de_Arga
Ribera_Alta,08/09/2012,21.9,32.2,13.0,0.0,Miranda_de_Arga
Ribera_Alta,09/09/2012,21.7,32.0,11.4,0.0,Miranda_de_Arga
Ribera_Alta,10/09/2012,22.0,28.6,15.1,0.0,Miranda_de_Arga
Ribera_Alta,11/09/2012,21.8,31.0,13.9,0.0,Miranda_de_Arga
Ribera_Alta,12/09/2012,18.5,23.5,14.6,0.0,Miranda_de_Arga
Ribera_Alta,13/09/2012,16.9,21.5,13.5,0.0,Miranda_de_Arga
Ribera_Alta,14/09/2012,17.1,23.8,10.5,0.0,Miranda_de_Arga
Ribera_Alta,15/09/2012,19.4,29.7,10.8,0.0,Miranda_de_Arga
Ribera_Alta,16/09/2012,19.0,30.7,7.5,0.0,Miranda_de_Arga
Ribera_Alta,17/09/2012,20.6,28.7,13.4,0.0,Miranda_de_Arga
Ribera_Alta,18/09/2012,18.7,23.3,15.6,0.0,Miranda_de_Arga
Ribera_Alta,19/09/2012,16.8,21.9,10.7,0.0,Miranda_de_Arga
Ribera_Alta,20/09/2012,17.7,27.2,6.9,0.0,Miranda_de_Arga
Ribera_Alta,21/09/2012,21.3,28.3,17.8,0.0,Miranda_de_Arga
Ribera_Alta,22/09/2012,20.7,28.8,13.3,0.0,Miranda_de_Arga
Ribera_Alta,23/09/2012,22.3,31.0,18.2,0.0,Miranda_de_Arga
Ribera_Alta,24/09/2012,19.7,25.7,13.4,0.0,Miranda_de_Arga
Ribera_Alta,25/09/2012,15.7,21.5,9.1,0.0,Miranda_de_Arga
Ribera_Alta,26/09/2012,13.8,19.1,8.5,0.0,Miranda_de_Arga
Ribera_Alta,27/09/2012,13.7,21.7,5.3,0.0,Miranda_de_Arga
Ribera_Alta,28/09/2012,15.8,20.7,11.5,0.0,Miranda_de_Arga
Ribera_Alta,29/09/2012,14.1,16.0,12.0,0.0,Miranda_de_Arga
Ribera_Alta,30/09/2012,13.9,18.8,8.0,0.0,Miranda_de_Arga
Ribera_Alta,01/10/2012,12.6,22.9,3.8,0.0,Miranda_de_Arga
Ribera_Alta,02/10/2012,14.9,24.6,5.3,0.0,Miranda_de_Arga
Ribera_Alta,03/10/2012,15.7,25.9,6.9,0.0,Miranda_de_Arga
Ribera_Alta,04/10/2012,15.6,25.6,8.1,0.0,Miranda_de_Arga
Ribera_Alta,05/10/2012,16.6,26.5,8.5,0.0,Miranda_de_Arga
Ribera_Alta,06/10/2012,16.9,24.7,8.3,0.0,Miranda_de_Arga
Ribera_Alta,07/10/2012,19.3,26.7,13.3,0.0,Miranda_de_Arga
Ribera_Alta,08/10/2012,19.4,28.8,12.5,0.0,Miranda_de_Arga
Ribera_Alta,09/10/2012,20.1,28.0,12.3,0.0,Miranda_de_Arga
Ribera_Alta,10/10/2012,19.8,25.8,14.7,0.0,Miranda_de_Arga
Ribera_Alta,11/10/2012,16.7,23.2,13.5,0.0,Miranda_de_Arga
Ribera_Alta,12/10/2012,13.5,17.0,9.5,0.0,Miranda_de_Arga
Ribera_Alta,13/10/2012,11.7,18.6,5.8,0.0,Miranda_de_Arga
Ribera_Alta,14/10/2012,10.5,18.9,5.5,0.0,Miranda_de_Arga
Ribera_Alta,15/10/2012,10.9,16.4,5.9,0.0,Miranda_de_Arga
Ribera_Alta,16/10/2012,11.9,20.0,4.9,0.0,Miranda_de_Arga
Ribera_Alta,17/10/2012,18.9,22.8,0.0,0.1,Miranda_de_Arga
Ribera_Alta,18/10/2012,19.2,21.7,16.7,0.0,Miranda_de_Arga
Ribera_Alta,19/10/2012,14.4,20.9,12.1,35.4,Miranda_de_Arga
Ribera_Alta,20/10/2012,12.6,13.5,11.7,6.8,Miranda_de_Arga
Ribera_Alta,21/10/2012,13.9,16.6,11.7,7.5,Miranda_de_Arga
Ribera_Alta,22/10/2012,14.0,20.5,10.6,22.5,Miranda_de_Arga
Ribera_Alta,23/10/2012,13.2,20.8,8.1,0.1,Miranda_de_Arga
Ribera_Alta,24/10/2012,14.0,21.1,6.9,1.8,Miranda_de_Arga
Ribera_Alta,25/10/2012,15.7,19.6,13.7,31.8,Miranda_de_Arga
Ribera_Alta,26/10/2012,14.8,17.3,12.9,3.0,Miranda_de_Arga
Ribera_Alta,27/10/2012,9.3,13.9,3.3,5.0,Miranda_de_Arga
Ribera_Alta,28/10/2012,5.4,8.6,2.1,0.0,Miranda_de_Arga
Ribera_Alta,29/10/2012,5.3,13.7,-0.7,0.0,Miranda_de_Arga
Ribera_Alta,30/10/2012,5.6,11.6,-1.0,0.1,Miranda_de_Arga
Ribera_Alta,31/10/2012,8.9,15.4,4.3,0.0,Miranda_de_Arga
Ribera_Alta,01/11/2012,9.2,16.8,1.4,0.4,Miranda_de_Arga
Ribera_Alta,02/11/2012,12.9,19.8,7.9,0.0,Miranda_de_Arga
Ribera_Alta,03/11/2012,13.6,16.0,11.8,0.5,Miranda_de_Arga
Ribera_Alta,04/11/2012,11.6,13.3,6.5,8.7,Miranda_de_Arga
Ribera_Alta,05/11/2012,7.7,13.6,2.7,0.1,Miranda_de_Arga
Ribera_Alta,06/11/2012,6.5,11.3,3.1,0.5,Miranda_de_Arga
Ribera_Alta,07/11/2012,5.7,11.8,-0.5,0.9,Miranda_de_Arga
Ribera_Alta,08/11/2012,9.7,12.6,6.9,0.9,Miranda_de_Arga
Ribera_Alta,09/11/2012,12.1,14.5,9.8,1.7,Miranda_de_Arga
Ribera_Alta,10/11/2012,11.1,15.5,7.7,1.9,Miranda_de_Arga
Ribera_Alta,11/11/2012,7.7,10.9,4.9,0.0,Miranda_de_Arga
Ribera_Alta,12/11/2012,8.0,12.4,4.1,0.0,Miranda_de_Arga
Ribera_Alta,13/11/2012,7.0,15.0,1.4,0.0,Miranda_de_Arga
Ribera_Alta,14/11/2012,9.2,18.2,3.0,0.0,Miranda_de_Arga
Ribera_Alta,15/11/2012,10.3,18.5,4.5,0.0,Miranda_de_Arga
Ribera_Alta,16/11/2012,10.4,15.4,5.7,0.0,Miranda_de_Arga
Ribera_Alta,17/11/2012,12.3,16.1,10.2,2.4,Miranda_de_Arga
Ribera_Alta,18/11/2012,10.6,14.4,5.9,13.1,Miranda_de_Arga
Ribera_Alta,19/11/2012,7.2,14.6,1.5,0.0,Miranda_de_Arga
Ribera_Alta,20/11/2012,6.8,13.6,0.9,0.1,Miranda_de_Arga
Ribera_Alta,21/11/2012,9.6,12.7,4.3,0.0,Miranda_de_Arga
Ribera_Alta,22/11/2012,6.0,13.2,-0.2,0.0,Miranda_de_Arga
Ribera_Alta,23/11/2012,7.1,14.9,-0.1,0.1,Miranda_de_Arga
Ribera_Alta,24/11/2012,11.1,14.1,7.9,0.0,Miranda_de_Arga
Ribera_Alta,25/11/2012,11.0,14.4,8.5,1.1,Miranda_de_Arga
Ribera_Alta,26/11/2012,9.1,11.9,5.0,8.9,Miranda_de_Arga
Ribera_Alta,27/11/2012,6.1,8.9,4.3,0.0,Miranda_de_Arga
Ribera_Alta,28/11/2012,5.1,7.7,3.5,5.2,Miranda_de_Arga
Ribera_Alta,29/11/2012,4.2,6.7,2.5,33.9,Miranda_de_Arga
Ribera_Alta,30/11/2012,3.8,5.8,1.9,0.9,Miranda_de_Arga
Ribera_Alta,01/12/2012,3.0,6.3,0.6,0.0,Miranda_de_Arga
Ribera_Alta,02/12/2012,5.7,10.3,0.5,0.0,Miranda_de_Arga
Ribera_Alta,03/12/2012,8.4,13.5,4.8,0.0,Miranda_de_Arga
Ribera_Alta,04/12/2012,7.2,10.4,3.8,0.1,Miranda_de_Arga
Ribera_Alta,05/12/2012,5.3,9.2,2.8,0.0,Miranda_de_Arga
Ribera_Alta,06/12/2012,5.2,10.9,1.3,0.1,Miranda_de_Arga
Ribera_Alta,07/12/2012,6.0,11.0,0.5,0.0,Miranda_de_Arga
Ribera_Alta,08/12/2012,6.9,10.7,4.6,0.1,Miranda_de_Arga
Ribera_Alta,09/12/2012,4.7,10.4,0.5,0.0,Miranda_de_Arga
Ribera_Alta,10/12/2012,3.9,9.5,-1.8,0.1,Miranda_de_Arga
Ribera_Alta,11/12/2012,5.6,10.8,-1.2,0.0,Miranda_de_Arga
Ribera_Alta,12/12/2012,0.0,4.9,-3.6,0.0,Miranda_de_Arga
Ribera_Alta,13/12/2012,3.9,7.4,-0.3,3.1,Miranda_de_Arga
Ribera_Alta,14/12/2012,9.1,10.7,7.1,0.8,Miranda_de_Arga
Ribera_Alta,15/12/2012,9.9,15.6,6.9,2.1,Miranda_de_Arga
Ribera_Alta,16/12/2012,9.1,13.9,5.2,0.4,Miranda_de_Arga
Ribera_Alta,17/12/2012,8.0,13.2,2.2,0.5,Miranda_de_Arga
Ribera_Alta,18/12/2012,5.7,10.6,-0.6,1.5,Miranda_de_Arga
Ribera_Alta,19/12/2012,8.4,10.7,6.1,0.1,Miranda_de_Arga
Ribera_Alta,20/12/2012,10.1,13.2,7.8,0.1,Miranda_de_Arga
Ribera_Alta,21/12/2012,10.3,16.1,6.5,0.3,Miranda_de_Arga
Ribera_Alta,22/12/2012,8.1,15.1,3.6,0.0,Miranda_de_Arga
Ribera_Alta,23/12/2012,4.9,7.4,2.0,0.2,Miranda_de_Arga
Ribera_Alta,24/12/2012,7.9,14.6,2.9,0.1,Miranda_de_Arga
Ribera_Alta,25/12/2012,9.5,13.2,6.3,0.5,Miranda_de_Arga
Ribera_Alta,26/12/2012,7.8,12.5,0.7,0.0,Miranda_de_Arga
Ribera_Alta,27/12/2012,4.7,12.6,-1.6,0.0,Miranda_de_Arga
Ribera_Alta,28/12/2012,6.4,14.2,0.6,0.0,Miranda_de_Arga
Ribera_Alta,29/12/2012,3.6,7.8,-1.0,0.2,Miranda_de_Arga
Ribera_Alta,30/12/2012,3.5,11.2,-1.0,0.1,Miranda_de_Arga
Ribera_Alta,31/12/2012,2.6,8.9,-3.0,0.4,Miranda_de_Arga
