Comarca,Fecha, Temperatura media, Temperatura maxima, Temperatura minima, Precipitacion acumulada,Localidad
Ribera_Alta,01/01/2011,7.5,13.0,2.2,0.0,Miranda_de_Arga
Ribera_Alta,02/01/2011,7.8,11.6,2.5,0.0,Miranda_de_Arga
Ribera_Alta,03/01/2011,2.7,6.6,-2.6,0.0,Miranda_de_Arga
Ribera_Alta,04/01/2011,0.0,0.0,0.0,0.0,Miranda_de_Arga
Ribera_Alta,05/01/2011,6.4,9.3,3.9,2.3,Miranda_de_Arga
Ribera_Alta,06/01/2011,11.2,13.9,9.0,0.1,Miranda_de_Arga
Ribera_Alta,07/01/2011,12.4,14.0,10.3,0.0,Miranda_de_Arga
Ribera_Alta,08/01/2011,11.8,15.4,9.8,0.0,Miranda_de_Arga
Ribera_Alta,09/01/2011,8.2,11.2,2.1,0.0,Miranda_de_Arga
Ribera_Alta,10/01/2011,4.4,11.0,-0.6,0.2,Miranda_de_Arga
Ribera_Alta,11/01/2011,7.3,13.5,1.3,0.1,Miranda_de_Arga
Ribera_Alta,12/01/2011,11.0,15.9,7.1,0.0,Miranda_de_Arga
Ribera_Alta,13/01/2011,7.6,15.1,1.6,0.0,Miranda_de_Arga
Ribera_Alta,14/01/2011,4.4,10.0,1.5,0.1,Miranda_de_Arga
Ribera_Alta,15/01/2011,4.4,11.7,-0.8,0.1,Miranda_de_Arga
Ribera_Alta,16/01/2011,3.4,5.8,-0.7,0.1,Miranda_de_Arga
Ribera_Alta,17/01/2011,0.0,0.0,0.0,0.0,Miranda_de_Arga
Ribera_Alta,18/01/2011,0.0,0.0,0.0,0.0,Miranda_de_Arga
Ribera_Alta,19/01/2011,5.7,8.9,3.7,0.1,Miranda_de_Arga
Ribera_Alta,20/01/2011,5.0,11.5,-0.3,0.0,Miranda_de_Arga
Ribera_Alta,21/01/2011,1.3,5.5,-1.6,0.0,Miranda_de_Arga
Ribera_Alta,22/01/2011,-0.2,4.7,-4.2,0.0,Miranda_de_Arga
Ribera_Alta,23/01/2011,0.1,6.1,-3.9,0.0,Miranda_de_Arga
Ribera_Alta,24/01/2011,0.0,7.2,-5.8,0.0,Miranda_de_Arga
Ribera_Alta,25/01/2011,0.3,7.4,-5.5,0.0,Miranda_de_Arga
Ribera_Alta,26/01/2011,-0.3,7.6,-6.9,0.0,Miranda_de_Arga
Ribera_Alta,27/01/2011,0.7,6.1,-5.1,0.0,Miranda_de_Arga
Ribera_Alta,28/01/2011,3.2,4.8,1.2,11.7,Miranda_de_Arga
Ribera_Alta,29/01/2011,4.7,7.4,3.1,0.6,Miranda_de_Arga
Ribera_Alta,30/01/2011,4.8,7.3,3.5,0.4,Miranda_de_Arga
Ribera_Alta,31/01/2011,3.3,6.1,0.4,0.0,Miranda_de_Arga
Ribera_Alta,01/02/2011,4.6,7.5,2.3,0.0,Miranda_de_Arga
Ribera_Alta,02/02/2011,6.4,10.8,2.1,0.0,Miranda_de_Arga
Ribera_Alta,03/02/2011,7.9,12.0,3.9,0.0,Miranda_de_Arga
Ribera_Alta,04/02/2011,7.9,14.8,2.1,0.0,Miranda_de_Arga
Ribera_Alta,05/02/2011,8.6,19.6,1.5,0.0,Miranda_de_Arga
Ribera_Alta,06/02/2011,5.6,16.5,-2.5,0.0,Miranda_de_Arga
Ribera_Alta,07/02/2011,4.9,15.3,-3.3,0.0,Miranda_de_Arga
Ribera_Alta,08/02/2011,4.5,14.6,-2.7,0.0,Miranda_de_Arga
Ribera_Alta,09/02/2011,3.9,13.8,-3.7,0.0,Miranda_de_Arga
Ribera_Alta,10/02/2011,4.5,14.1,-3.3,0.0,Miranda_de_Arga
Ribera_Alta,11/02/2011,4.3,13.0,-1.9,0.0,Miranda_de_Arga
Ribera_Alta,12/02/2011,4.4,13.7,-3.4,0.1,Miranda_de_Arga
Ribera_Alta,13/02/2011,5.3,13.1,-3.3,1.5,Miranda_de_Arga
Ribera_Alta,14/02/2011,6.3,10.2,2.1,1.4,Miranda_de_Arga
Ribera_Alta,15/02/2011,5.8,8.2,3.6,4.1,Miranda_de_Arga
Ribera_Alta,16/02/2011,5.0,9.4,-1.0,0.9,Miranda_de_Arga
Ribera_Alta,17/02/2011,6.6,11.0,2.3,0.0,Miranda_de_Arga
Ribera_Alta,18/02/2011,8.1,14.7,2.3,0.0,Miranda_de_Arga
Ribera_Alta,19/02/2011,6.8,10.2,3.0,1.7,Miranda_de_Arga
Ribera_Alta,20/02/2011,7.1,15.4,0.9,0.1,Miranda_de_Arga
Ribera_Alta,21/02/2011,7.2,11.2,3.7,10.7,Miranda_de_Arga
Ribera_Alta,22/02/2011,11.1,13.0,9.1,2.8,Miranda_de_Arga
Ribera_Alta,23/02/2011,11.4,14.5,9.8,0.0,Miranda_de_Arga
Ribera_Alta,24/02/2011,10.4,14.6,6.6,0.0,Miranda_de_Arga
Ribera_Alta,25/02/2011,11.9,19.0,7.0,0.0,Miranda_de_Arga
Ribera_Alta,26/02/2011,10.9,14.8,6.3,0.0,Miranda_de_Arga
Ribera_Alta,27/02/2011,7.1,10.7,4.9,0.2,Miranda_de_Arga
Ribera_Alta,28/02/2011,5.1,8.3,2.7,8.1,Miranda_de_Arga
Ribera_Alta,01/03/2011,4.8,8.0,1.4,0.0,Miranda_de_Arga
Ribera_Alta,02/03/2011,6.2,9.2,4.5,0.0,Miranda_de_Arga
Ribera_Alta,03/03/2011,4.2,8.2,1.9,0.5,Miranda_de_Arga
Ribera_Alta,04/03/2011,3.4,6.8,0.8,2.5,Miranda_de_Arga
Ribera_Alta,05/03/2011,6.6,13.2,1.8,0.0,Miranda_de_Arga
Ribera_Alta,06/03/2011,6.5,16.5,-1.5,0.0,Miranda_de_Arga
Ribera_Alta,07/03/2011,7.4,15.6,-1.5,0.0,Miranda_de_Arga
Ribera_Alta,08/03/2011,8.3,11.1,4.4,0.1,Miranda_de_Arga
Ribera_Alta,09/03/2011,7.6,14.4,2.2,0.0,Miranda_de_Arga
Ribera_Alta,10/03/2011,7.5,16.4,-0.7,0.0,Miranda_de_Arga
Ribera_Alta,11/03/2011,8.6,16.6,-0.4,1.1,Miranda_de_Arga
Ribera_Alta,12/03/2011,9.0,12.8,5.5,4.6,Miranda_de_Arga
Ribera_Alta,13/03/2011,9.4,16.4,3.3,0.0,Miranda_de_Arga
Ribera_Alta,14/03/2011,11.1,13.2,7.9,0.4,Miranda_de_Arga
Ribera_Alta,15/03/2011,10.1,10.8,9.4,27.8,Miranda_de_Arga
Ribera_Alta,16/03/2011,11.1,13.2,9.6,2.0,Miranda_de_Arga
Ribera_Alta,17/03/2011,10.5,12.1,8.7,0.1,Miranda_de_Arga
Ribera_Alta,18/03/2011,10.0,16.2,5.1,0.0,Miranda_de_Arga
Ribera_Alta,19/03/2011,9.3,15.0,4.5,0.0,Miranda_de_Arga
Ribera_Alta,20/03/2011,9.5,16.5,3.5,0.0,Miranda_de_Arga
Ribera_Alta,21/03/2011,9.3,16.1,2.9,0.0,Miranda_de_Arga
Ribera_Alta,22/03/2011,7.7,11.0,3.9,0.4,Miranda_de_Arga
Ribera_Alta,23/03/2011,7.9,14.6,1.3,0.0,Miranda_de_Arga
Ribera_Alta,24/03/2011,7.7,11.3,3.2,4.7,Miranda_de_Arga
Ribera_Alta,25/03/2011,11.1,16.5,7.7,0.0,Miranda_de_Arga
Ribera_Alta,26/03/2011,12.6,19.0,4.5,0.0,Miranda_de_Arga
Ribera_Alta,27/03/2011,10.4,15.8,4.9,4.2,Miranda_de_Arga
Ribera_Alta,28/03/2011,11.0,16.4,5.3,0.2,Miranda_de_Arga
Ribera_Alta,29/03/2011,12.0,16.9,6.9,3.4,Miranda_de_Arga
Ribera_Alta,30/03/2011,11.9,15.6,6.3,2.1,Miranda_de_Arga
Ribera_Alta,31/03/2011,15.5,22.9,9.5,0.0,Miranda_de_Arga
Ribera_Alta,01/04/2011,15.3,23.7,5.4,0.0,Miranda_de_Arga
Ribera_Alta,02/04/2011,16.9,23.7,10.8,0.0,Miranda_de_Arga
Ribera_Alta,03/04/2011,12.3,16.0,9.5,1.2,Miranda_de_Arga
Ribera_Alta,04/04/2011,11.8,17.6,6.9,0.0,Miranda_de_Arga
Ribera_Alta,05/04/2011,14.6,24.1,5.2,0.0,Miranda_de_Arga
Ribera_Alta,06/04/2011,16.4,25.1,7.3,0.0,Miranda_de_Arga
Ribera_Alta,07/04/2011,16.8,27.5,7.1,0.0,Miranda_de_Arga
Ribera_Alta,08/04/2011,18.1,29.5,7.6,0.0,Miranda_de_Arga
Ribera_Alta,09/04/2011,18.5,31.4,8.5,0.0,Miranda_de_Arga
Ribera_Alta,10/04/2011,13.9,17.9,10.4,0.0,Miranda_de_Arga
Ribera_Alta,11/04/2011,13.3,16.3,10.5,0.0,Miranda_de_Arga
Ribera_Alta,12/04/2011,13.0,18.2,7.1,0.0,Miranda_de_Arga
Ribera_Alta,13/04/2011,13.8,24.0,4.9,0.0,Miranda_de_Arga
Ribera_Alta,14/04/2011,12.6,20.3,5.3,0.0,Miranda_de_Arga
Ribera_Alta,15/04/2011,12.0,18.4,6.1,0.0,Miranda_de_Arga
Ribera_Alta,16/04/2011,12.8,19.7,6.1,0.0,Miranda_de_Arga
Ribera_Alta,17/04/2011,14.2,20.9,6.5,0.0,Miranda_de_Arga
Ribera_Alta,18/04/2011,14.7,20.9,7.1,0.0,Miranda_de_Arga
Ribera_Alta,19/04/2011,12.9,18.9,7.6,0.4,Miranda_de_Arga
Ribera_Alta,20/04/2011,13.8,18.0,9.2,0.1,Miranda_de_Arga
Ribera_Alta,21/04/2011,14.2,19.0,10.9,6.6,Miranda_de_Arga
Ribera_Alta,22/04/2011,12.4,15.8,9.6,9.1,Miranda_de_Arga
Ribera_Alta,23/04/2011,13.8,19.5,9.5,0.0,Miranda_de_Arga
Ribera_Alta,24/04/2011,13.6,19.4,10.8,7.2,Miranda_de_Arga
Ribera_Alta,25/04/2011,14.4,19.5,10.5,0.0,Miranda_de_Arga
Ribera_Alta,26/04/2011,15.2,20.5,10.1,0.0,Miranda_de_Arga
Ribera_Alta,27/04/2011,15.1,21.9,8.1,0.0,Miranda_de_Arga
Ribera_Alta,28/04/2011,14.8,22.1,8.7,0.0,Miranda_de_Arga
Ribera_Alta,29/04/2011,13.8,22.2,5.3,0.0,Miranda_de_Arga
Ribera_Alta,30/04/2011,14.6,21.1,9.5,1.7,Miranda_de_Arga
Ribera_Alta,01/05/2011,16.2,22.1,11.8,0.0,Miranda_de_Arga
Ribera_Alta,02/05/2011,16.6,24.1,10.3,0.0,Miranda_de_Arga
Ribera_Alta,03/05/2011,15.1,21.5,8.9,0.0,Miranda_de_Arga
Ribera_Alta,04/05/2011,15.0,22.9,6.7,0.0,Miranda_de_Arga
Ribera_Alta,05/05/2011,16.3,25.7,8.1,0.0,Miranda_de_Arga
Ribera_Alta,06/05/2011,18.1,23.7,12.9,0.7,Miranda_de_Arga
Ribera_Alta,07/05/2011,13.4,15.9,10.4,20.1,Miranda_de_Arga
Ribera_Alta,08/05/2011,15.5,23.4,7.7,0.0,Miranda_de_Arga
Ribera_Alta,09/05/2011,17.6,25.7,8.1,0.0,Miranda_de_Arga
Ribera_Alta,10/05/2011,18.5,25.3,10.2,0.0,Miranda_de_Arga
Ribera_Alta,11/05/2011,19.3,28.1,9.9,0.0,Miranda_de_Arga
Ribera_Alta,12/05/2011,17.9,23.6,12.4,0.0,Miranda_de_Arga
Ribera_Alta,13/05/2011,17.5,24.4,12.1,0.0,Miranda_de_Arga
Ribera_Alta,14/05/2011,14.2,16.6,9.5,0.5,Miranda_de_Arga
Ribera_Alta,15/05/2011,13.1,18.5,7.9,0.0,Miranda_de_Arga
Ribera_Alta,16/05/2011,15.4,23.7,6.1,0.0,Miranda_de_Arga
Ribera_Alta,17/05/2011,18.1,28.0,6.6,0.0,Miranda_de_Arga
Ribera_Alta,18/05/2011,18.3,25.7,9.7,0.0,Miranda_de_Arga
Ribera_Alta,19/05/2011,18.6,25.5,11.3,0.0,Miranda_de_Arga
Ribera_Alta,20/05/2011,17.4,26.3,8.1,5.8,Miranda_de_Arga
Ribera_Alta,21/05/2011,19.2,29.2,10.6,0.4,Miranda_de_Arga
Ribera_Alta,22/05/2011,18.1,23.6,13.7,0.3,Miranda_de_Arga
Ribera_Alta,23/05/2011,20.5,31.4,9.5,0.0,Miranda_de_Arga
Ribera_Alta,24/05/2011,19.1,25.3,12.8,0.0,Miranda_de_Arga
Ribera_Alta,25/05/2011,21.5,33.0,9.9,9.1,Miranda_de_Arga
Ribera_Alta,26/05/2011,17.4,21.9,13.3,1.2,Miranda_de_Arga
Ribera_Alta,27/05/2011,14.4,18.6,9.2,1.1,Miranda_de_Arga
Ribera_Alta,28/05/2011,16.7,26.5,6.6,0.0,Miranda_de_Arga
Ribera_Alta,29/05/2011,19.2,28.5,9.4,0.0,Miranda_de_Arga
Ribera_Alta,30/05/2011,18.2,25.5,15.4,3.8,Miranda_de_Arga
Ribera_Alta,31/05/2011,14.7,18.4,10.1,2.8,Miranda_de_Arga
Ribera_Alta,01/06/2011,13.9,18.4,9.6,0.0,Miranda_de_Arga
Ribera_Alta,02/06/2011,15.8,19.2,13.3,0.3,Miranda_de_Arga
Ribera_Alta,03/06/2011,17.5,24.9,9.6,0.0,Miranda_de_Arga
Ribera_Alta,04/06/2011,17.3,25.1,12.9,2.7,Miranda_de_Arga
Ribera_Alta,05/06/2011,17.0,25.7,10.5,0.6,Miranda_de_Arga
Ribera_Alta,06/06/2011,17.3,25.1,12.3,14.3,Miranda_de_Arga
Ribera_Alta,07/06/2011,14.5,16.7,11.2,0.2,Miranda_de_Arga
Ribera_Alta,08/06/2011,14.6,19.3,10.7,0.0,Miranda_de_Arga
Ribera_Alta,09/06/2011,16.4,25.3,10.1,3.6,Miranda_de_Arga
Ribera_Alta,10/06/2011,14.4,18.8,10.1,1.1,Miranda_de_Arga
Ribera_Alta,11/06/2011,15.7,22.5,7.1,0.0,Miranda_de_Arga
Ribera_Alta,12/06/2011,21.1,30.8,10.6,0.0,Miranda_de_Arga
Ribera_Alta,13/06/2011,21.1,29.5,13.7,0.0,Miranda_de_Arga
Ribera_Alta,14/06/2011,22.3,31.4,13.5,0.0,Miranda_de_Arga
Ribera_Alta,15/06/2011,23.2,32.4,16.0,0.0,Miranda_de_Arga
Ribera_Alta,16/06/2011,18.6,23.0,14.8,0.0,Miranda_de_Arga
Ribera_Alta,17/06/2011,20.3,30.8,12.7,0.0,Miranda_de_Arga
Ribera_Alta,18/06/2011,16.8,21.9,13.5,0.0,Miranda_de_Arga
Ribera_Alta,19/06/2011,19.9,28.2,11.5,0.0,Miranda_de_Arga
Ribera_Alta,20/06/2011,25.0,34.8,12.4,0.0,Miranda_de_Arga
Ribera_Alta,21/06/2011,24.6,35.9,16.6,2.2,Miranda_de_Arga
Ribera_Alta,22/06/2011,19.1,24.3,14.8,0.0,Miranda_de_Arga
Ribera_Alta,23/06/2011,17.5,22.7,11.7,0.0,Miranda_de_Arga
Ribera_Alta,24/06/2011,18.6,26.6,10.1,0.0,Miranda_de_Arga
Ribera_Alta,25/06/2011,24.4,36.2,12.2,0.0,Miranda_de_Arga
Ribera_Alta,26/06/2011,29.0,38.5,17.4,0.0,Miranda_de_Arga
Ribera_Alta,27/06/2011,28.2,37.5,20.1,3.9,Miranda_de_Arga
Ribera_Alta,28/06/2011,21.1,28.1,15.6,1.8,Miranda_de_Arga
Ribera_Alta,29/06/2011,16.2,20.2,12.5,0.0,Miranda_de_Arga
Ribera_Alta,30/06/2011,17.3,23.3,11.7,0.0,Miranda_de_Arga
Ribera_Alta,01/07/2011,20.0,27.7,11.8,0.0,Miranda_de_Arga
Ribera_Alta,02/07/2011,23.8,35.5,12.1,0.0,Miranda_de_Arga
Ribera_Alta,03/07/2011,23.3,33.5,18.4,0.6,Miranda_de_Arga
Ribera_Alta,04/07/2011,21.6,28.1,15.5,0.0,Miranda_de_Arga
Ribera_Alta,05/07/2011,22.8,34.6,12.3,0.0,Miranda_de_Arga
Ribera_Alta,06/07/2011,20.0,26.9,14.8,0.0,Miranda_de_Arga
Ribera_Alta,07/07/2011,18.1,24.6,12.7,0.0,Miranda_de_Arga
Ribera_Alta,08/07/2011,21.1,30.4,10.0,0.0,Miranda_de_Arga
Ribera_Alta,09/07/2011,23.7,32.3,17.0,0.0,Miranda_de_Arga
Ribera_Alta,10/07/2011,21.9,28.3,17.6,0.0,Miranda_de_Arga
Ribera_Alta,11/07/2011,25.2,34.6,15.1,0.0,Miranda_de_Arga
Ribera_Alta,12/07/2011,21.3,31.3,16.2,0.0,Miranda_de_Arga
Ribera_Alta,13/07/2011,17.4,22.3,13.7,0.7,Miranda_de_Arga
Ribera_Alta,14/07/2011,18.9,24.4,13.7,0.0,Miranda_de_Arga
Ribera_Alta,15/07/2011,20.8,30.1,10.4,0.0,Miranda_de_Arga
Ribera_Alta,16/07/2011,23.7,33.6,16.2,0.0,Miranda_de_Arga
Ribera_Alta,17/07/2011,17.8,21.9,14.5,0.0,Miranda_de_Arga
Ribera_Alta,18/07/2011,19.2,27.3,10.3,0.5,Miranda_de_Arga
Ribera_Alta,19/07/2011,16.8,19.9,13.5,1.1,Miranda_de_Arga
Ribera_Alta,20/07/2011,18.8,27.1,12.1,0.0,Miranda_de_Arga
Ribera_Alta,21/07/2011,18.4,23.7,13.3,0.0,Miranda_de_Arga
Ribera_Alta,22/07/2011,16.5,21.2,12.5,0.0,Miranda_de_Arga
Ribera_Alta,23/07/2011,16.3,21.8,10.5,0.0,Miranda_de_Arga
Ribera_Alta,24/07/2011,18.4,23.3,14.8,0.0,Miranda_de_Arga
Ribera_Alta,25/07/2011,20.7,25.1,17.3,0.1,Miranda_de_Arga
Ribera_Alta,26/07/2011,20.2,25.1,14.6,0.0,Miranda_de_Arga
Ribera_Alta,27/07/2011,18.9,24.4,13.3,0.0,Miranda_de_Arga
Ribera_Alta,28/07/2011,19.6,25.5,13.3,0.0,Miranda_de_Arga
Ribera_Alta,29/07/2011,20.5,28.6,12.3,0.0,Miranda_de_Arga
Ribera_Alta,30/07/2011,21.2,26.9,15.5,0.0,Miranda_de_Arga
Ribera_Alta,31/07/2011,21.5,29.7,12.9,0.0,Miranda_de_Arga
Ribera_Alta,01/08/2011,23.6,33.0,13.1,0.0,Miranda_de_Arga
Ribera_Alta,02/08/2011,0.0,0.0,0.0,0.0,Miranda_de_Arga
Ribera_Alta,03/08/2011,22.5,28.5,17.8,0.0,Miranda_de_Arga
Ribera_Alta,04/08/2011,23.5,33.3,14.8,0.0,Miranda_de_Arga
Ribera_Alta,05/08/2011,23.0,32.2,17.6,0.0,Miranda_de_Arga
Ribera_Alta,06/08/2011,23.0,31.4,16.8,0.0,Miranda_de_Arga
Ribera_Alta,07/08/2011,21.8,29.7,17.0,0.0,Miranda_de_Arga
Ribera_Alta,08/08/2011,18.1,22.8,12.8,0.0,Miranda_de_Arga
Ribera_Alta,09/08/2011,17.2,22.5,11.3,0.0,Miranda_de_Arga
Ribera_Alta,10/08/2011,20.2,30.8,10.6,0.0,Miranda_de_Arga
Ribera_Alta,11/08/2011,21.7,33.3,12.0,0.0,Miranda_de_Arga
Ribera_Alta,12/08/2011,22.3,32.8,13.8,0.0,Miranda_de_Arga
Ribera_Alta,13/08/2011,25.0,35.5,16.6,0.0,Miranda_de_Arga
Ribera_Alta,14/08/2011,23.6,30.6,17.8,0.0,Miranda_de_Arga
Ribera_Alta,15/08/2011,23.0,29.2,18.2,0.0,Miranda_de_Arga
Ribera_Alta,16/08/2011,25.1,34.8,15.0,0.0,Miranda_de_Arga
Ribera_Alta,17/08/2011,25.0,35.3,18.4,0.0,Miranda_de_Arga
Ribera_Alta,18/08/2011,22.2,30.4,15.8,1.0,Miranda_de_Arga
Ribera_Alta,19/08/2011,25.5,34.6,16.2,0.0,Miranda_de_Arga
Ribera_Alta,20/08/2011,28.2,36.8,17.5,0.0,Miranda_de_Arga
Ribera_Alta,21/08/2011,27.7,37.5,19.1,0.0,Miranda_de_Arga
Ribera_Alta,22/08/2011,25.4,32.6,19.5,0.0,Miranda_de_Arga
Ribera_Alta,23/08/2011,23.7,32.8,18.4,0.0,Miranda_de_Arga
Ribera_Alta,24/08/2011,21.6,27.3,17.6,0.1,Miranda_de_Arga
Ribera_Alta,25/08/2011,23.2,31.1,14.2,0.0,Miranda_de_Arga
Ribera_Alta,26/08/2011,19.8,23.9,14.9,1.3,Miranda_de_Arga
Ribera_Alta,27/08/2011,17.2,23.3,9.7,0.0,Miranda_de_Arga
Ribera_Alta,28/08/2011,19.4,31.0,8.3,0.0,Miranda_de_Arga
Ribera_Alta,29/08/2011,20.4,29.8,15.3,0.0,Miranda_de_Arga
Ribera_Alta,30/08/2011,21.1,31.9,11.7,0.0,Miranda_de_Arga
Ribera_Alta,31/08/2011,21.3,28.1,16.2,0.0,Miranda_de_Arga
Ribera_Alta,01/09/2011,23.2,30.8,16.2,0.0,Miranda_de_Arga
Ribera_Alta,02/09/2011,21.8,29.3,15.0,14.3,Miranda_de_Arga
Ribera_Alta,03/09/2011,20.2,25.5,16.9,1.6,Miranda_de_Arga
Ribera_Alta,04/09/2011,18.8,24.1,14.9,0.0,Miranda_de_Arga
Ribera_Alta,05/09/2011,16.9,22.4,11.3,0.0,Miranda_de_Arga
Ribera_Alta,06/09/2011,18.8,29.7,9.7,0.0,Miranda_de_Arga
Ribera_Alta,07/09/2011,20.7,28.5,13.3,0.0,Miranda_de_Arga
Ribera_Alta,08/09/2011,21.9,31.2,13.5,0.0,Miranda_de_Arga
Ribera_Alta,09/09/2011,22.7,31.9,12.8,0.0,Miranda_de_Arga
Ribera_Alta,10/09/2011,24.0,33.2,16.2,0.0,Miranda_de_Arga
Ribera_Alta,11/09/2011,19.6,25.9,14.0,0.0,Miranda_de_Arga
Ribera_Alta,12/09/2011,21.1,30.7,11.4,0.0,Miranda_de_Arga
Ribera_Alta,13/09/2011,21.4,31.2,13.1,0.0,Miranda_de_Arga
Ribera_Alta,14/09/2011,22.0,28.9,16.6,0.0,Miranda_de_Arga
Ribera_Alta,15/09/2011,23.7,33.0,16.7,0.0,Miranda_de_Arga
Ribera_Alta,16/09/2011,22.3,31.4,15.7,0.2,Miranda_de_Arga
Ribera_Alta,17/09/2011,20.1,26.3,16.6,0.0,Miranda_de_Arga
Ribera_Alta,18/09/2011,15.6,18.6,11.9,0.0,Miranda_de_Arga
Ribera_Alta,19/09/2011,14.9,19.8,10.5,0.0,Miranda_de_Arga
Ribera_Alta,20/09/2011,18.0,27.7,9.9,0.0,Miranda_de_Arga
Ribera_Alta,21/09/2011,18.8,30.0,8.8,0.0,Miranda_de_Arga
Ribera_Alta,22/09/2011,19.3,26.6,14.2,0.0,Miranda_de_Arga
Ribera_Alta,23/09/2011,18.4,26.7,11.1,0.5,Miranda_de_Arga
Ribera_Alta,24/09/2011,18.7,26.2,13.1,0.0,Miranda_de_Arga
Ribera_Alta,25/09/2011,18.5,27.8,10.5,0.0,Miranda_de_Arga
Ribera_Alta,26/09/2011,19.7,29.5,9.9,0.0,Miranda_de_Arga
Ribera_Alta,27/09/2011,19.5,29.8,10.5,0.0,Miranda_de_Arga
Ribera_Alta,28/09/2011,18.9,28.6,11.6,0.0,Miranda_de_Arga
Ribera_Alta,29/09/2011,17.7,26.3,9.5,0.0,Miranda_de_Arga
Ribera_Alta,30/09/2011,16.9,25.5,8.8,0.0,Miranda_de_Arga
Ribera_Alta,01/10/2011,16.0,24.6,7.7,0.0,Miranda_de_Arga
Ribera_Alta,02/10/2011,16.6,30.0,6.6,0.0,Miranda_de_Arga
Ribera_Alta,03/10/2011,17.1,29.7,5.9,0.0,Miranda_de_Arga
Ribera_Alta,04/10/2011,19.1,28.7,8.3,0.0,Miranda_de_Arga
Ribera_Alta,05/10/2011,19.1,26.9,12.5,0.0,Miranda_de_Arga
Ribera_Alta,06/10/2011,17.9,24.3,11.1,0.0,Miranda_de_Arga
Ribera_Alta,07/10/2011,14.7,17.2,10.8,0.6,Miranda_de_Arga
Ribera_Alta,08/10/2011,13.4,16.8,10.8,0.2,Miranda_de_Arga
Ribera_Alta,09/10/2011,15.5,19.8,11.5,0.0,Miranda_de_Arga
Ribera_Alta,10/10/2011,16.1,27.6,7.1,0.0,Miranda_de_Arga
Ribera_Alta,11/10/2011,18.8,30.2,7.9,0.0,Miranda_de_Arga
Ribera_Alta,12/10/2011,18.7,29.2,9.6,0.0,Miranda_de_Arga
Ribera_Alta,13/10/2011,16.7,24.5,11.3,0.0,Miranda_de_Arga
Ribera_Alta,14/10/2011,16.1,25.3,9.1,0.0,Miranda_de_Arga
Ribera_Alta,15/10/2011,14.5,23.0,6.9,0.0,Miranda_de_Arga
Ribera_Alta,16/10/2011,13.9,23.8,5.7,0.0,Miranda_de_Arga
Ribera_Alta,17/10/2011,12.4,24.3,2.9,0.0,Miranda_de_Arga
Ribera_Alta,18/10/2011,13.0,24.6,3.7,0.0,Miranda_de_Arga
Ribera_Alta,19/10/2011,11.9,19.1,6.8,3.4,Miranda_de_Arga
Ribera_Alta,20/10/2011,10.4,15.6,5.1,0.0,Miranda_de_Arga
Ribera_Alta,21/10/2011,7.9,16.6,-0.1,0.0,Miranda_de_Arga
Ribera_Alta,22/10/2011,10.8,20.5,1.5,0.0,Miranda_de_Arga
Ribera_Alta,23/10/2011,15.4,21.3,7.9,0.0,Miranda_de_Arga
Ribera_Alta,24/10/2011,13.7,16.0,8.3,0.5,Miranda_de_Arga
Ribera_Alta,25/10/2011,9.3,16.5,3.0,0.0,Miranda_de_Arga
Ribera_Alta,26/10/2011,10.8,16.8,1.6,0.0,Miranda_de_Arga
Ribera_Alta,27/10/2011,13.6,18.2,9.7,7.4,Miranda_de_Arga
Ribera_Alta,28/10/2011,12.2,16.4,8.6,0.2,Miranda_de_Arga
Ribera_Alta,29/10/2011,12.4,17.5,8.4,0.0,Miranda_de_Arga
Ribera_Alta,30/10/2011,12.5,21.3,6.9,0.0,Miranda_de_Arga
Ribera_Alta,31/10/2011,12.3,19.7,4.1,0.0,Miranda_de_Arga
Ribera_Alta,01/11/2011,15.4,18.9,13.2,5.3,Miranda_de_Arga
Ribera_Alta,02/11/2011,15.6,17.3,13.9,1.2,Miranda_de_Arga
Ribera_Alta,03/11/2011,13.9,15.8,9.0,6.4,Miranda_de_Arga
Ribera_Alta,04/11/2011,12.1,15.8,9.3,3.4,Miranda_de_Arga
Ribera_Alta,05/11/2011,10.7,13.0,8.9,30.4,Miranda_de_Arga
Ribera_Alta,06/11/2011,11.5,12.9,9.3,1.5,Miranda_de_Arga
Ribera_Alta,07/11/2011,12.9,14.8,11.0,0.4,Miranda_de_Arga
Ribera_Alta,08/11/2011,11.6,18.2,5.9,0.1,Miranda_de_Arga
Ribera_Alta,09/11/2011,10.8,17.1,4.3,0.1,Miranda_de_Arga
Ribera_Alta,10/11/2011,12.8,17.4,9.5,7.5,Miranda_de_Arga
Ribera_Alta,11/11/2011,14.0,19.2,10.3,0.0,Miranda_de_Arga
Ribera_Alta,12/11/2011,13.1,18.3,7.1,0.0,Miranda_de_Arga
Ribera_Alta,13/11/2011,14.7,17.2,12.5,0.0,Miranda_de_Arga
Ribera_Alta,14/11/2011,13.8,15.0,12.6,1.9,Miranda_de_Arga
Ribera_Alta,15/11/2011,11.5,15.2,7.9,4.7,Miranda_de_Arga
Ribera_Alta,16/11/2011,10.4,16.8,5.8,0.1,Miranda_de_Arga
Ribera_Alta,17/11/2011,8.6,14.0,3.8,0.0,Miranda_de_Arga
Ribera_Alta,18/11/2011,10.4,14.3,5.7,0.3,Miranda_de_Arga
Ribera_Alta,19/11/2011,11.9,15.3,9.6,0.0,Miranda_de_Arga
Ribera_Alta,20/11/2011,12.8,15.9,10.8,0.0,Miranda_de_Arga
Ribera_Alta,21/11/2011,11.4,16.1,5.6,0.0,Miranda_de_Arga
Ribera_Alta,22/11/2011,9.7,14.0,4.0,0.0,Miranda_de_Arga
Ribera_Alta,23/11/2011,12.9,17.2,8.1,0.0,Miranda_de_Arga
Ribera_Alta,24/11/2011,10.3,17.1,3.7,0.0,Miranda_de_Arga
Ribera_Alta,25/11/2011,7.5,15.7,0.1,0.0,Miranda_de_Arga
Ribera_Alta,26/11/2011,9.6,16.6,3.5,0.0,Miranda_de_Arga
Ribera_Alta,27/11/2011,3.3,5.1,0.5,0.0,Miranda_de_Arga
Ribera_Alta,28/11/2011,4.0,5.0,3.1,0.1,Miranda_de_Arga
Ribera_Alta,29/11/2011,4.9,5.9,4.0,0.3,Miranda_de_Arga
Ribera_Alta,30/11/2011,4.5,5.3,3.1,0.0,Miranda_de_Arga
Ribera_Alta,01/12/2011,4.8,5.2,4.2,0.0,Miranda_de_Arga
Ribera_Alta,02/12/2011,6.4,8.8,4.3,4.3,Miranda_de_Arga
Ribera_Alta,03/12/2011,7.8,11.2,5.4,0.0,Miranda_de_Arga
Ribera_Alta,04/12/2011,7.4,13.7,2.1,0.0,Miranda_de_Arga
Ribera_Alta,05/12/2011,9.7,13.8,6.5,0.0,Miranda_de_Arga
Ribera_Alta,06/12/2011,8.1,14.0,3.5,0.0,Miranda_de_Arga
Ribera_Alta,07/12/2011,7.6,15.0,0.5,0.0,Miranda_de_Arga
Ribera_Alta,08/12/2011,7.0,14.9,1.7,0.0,Miranda_de_Arga
Ribera_Alta,09/12/2011,3.7,10.2,-0.3,0.0,Miranda_de_Arga
Ribera_Alta,10/12/2011,3.7,5.4,1.6,0.1,Miranda_de_Arga
Ribera_Alta,11/12/2011,4.4,5.5,3.3,0.1,Miranda_de_Arga
Ribera_Alta,12/12/2011,5.6,12.2,2.3,0.0,Miranda_de_Arga
Ribera_Alta,13/12/2011,6.6,12.3,-0.3,0.0,Miranda_de_Arga
Ribera_Alta,14/12/2011,10.2,13.8,5.2,0.0,Miranda_de_Arga
Ribera_Alta,15/12/2011,7.5,12.9,2.5,0.0,Miranda_de_Arga
Ribera_Alta,16/12/2011,7.9,14.5,2.2,0.9,Miranda_de_Arga
Ribera_Alta,17/12/2011,5.8,8.5,4.0,0.8,Miranda_de_Arga
Ribera_Alta,18/12/2011,4.4,8.0,1.9,0.3,Miranda_de_Arga
Ribera_Alta,19/12/2011,4.6,8.4,0.1,0.1,Miranda_de_Arga
Ribera_Alta,20/12/2011,8.2,12.4,1.6,0.1,Miranda_de_Arga
Ribera_Alta,21/12/2011,12.1,14.9,10.4,0.0,Miranda_de_Arga
Ribera_Alta,22/12/2011,10.1,13.1,4.5,0.0,Miranda_de_Arga
Ribera_Alta,23/12/2011,6.7,12.2,-1.5,0.0,Miranda_de_Arga
Ribera_Alta,24/12/2011,7.3,10.0,4.3,0.0,Miranda_de_Arga
Ribera_Alta,25/12/2011,5.3,11.0,-2.7,0.0,Miranda_de_Arga
Ribera_Alta,26/12/2011,0.5,8.1,-5.1,0.0,Miranda_de_Arga
Ribera_Alta,27/12/2011,0.3,8.8,-5.4,0.0,Miranda_de_Arga
Ribera_Alta,28/12/2011,3.8,12.2,-5.1,0.1,Miranda_de_Arga
Ribera_Alta,29/12/2011,6.3,9.1,3.7,0.2,Miranda_de_Arga
Ribera_Alta,30/12/2011,6.8,10.3,3.1,0.0,Miranda_de_Arga
Ribera_Alta,31/12/2011,9.2,14.7,6.0,0.0,Miranda_de_Arga
