Comarca,Fecha, Temperatura media, Temperatura maxima, Temperatura minima, Precipitacion acumulada,Localidad
Ribera_Alta,01/01/2010,6.0,9.7,1.0,0.0,Murillo_el_Fruto
Ribera_Alta,02/01/2010,3.5,9.3,-1.5,0.2,Murillo_el_Fruto
Ribera_Alta,03/01/2010,5.9,7.2,3.5,7.6,Murillo_el_Fruto
Ribera_Alta,04/01/2010,5.6,8.9,3.2,2.2,Murillo_el_Fruto
Ribera_Alta,05/01/2010,5.7,8.6,2.9,1.8,Murillo_el_Fruto
Ribera_Alta,06/01/2010,2.4,7.4,-1.0,0.0,Murillo_el_Fruto
Ribera_Alta,07/01/2010,1.7,4.8,-1.4,0.0,Murillo_el_Fruto
Ribera_Alta,08/01/2010,0.4,2.9,-1.6,0.0,Murillo_el_Fruto
Ribera_Alta,09/01/2010,-0.9,1.7,-3.4,0.0,Murillo_el_Fruto
Ribera_Alta,10/01/2010,-1.1,3.7,-5.3,0.0,Murillo_el_Fruto
Ribera_Alta,11/01/2010,0.4,5.3,-3.2,0.0,Murillo_el_Fruto
Ribera_Alta,12/01/2010,0.5,4.4,-4.1,6.4,Murillo_el_Fruto
Ribera_Alta,13/01/2010,3.8,8.8,-1.8,10.0,Murillo_el_Fruto
Ribera_Alta,14/01/2010,6.5,7.9,4.4,7.4,Murillo_el_Fruto
Ribera_Alta,15/01/2010,6.0,11.6,1.9,0.0,Murillo_el_Fruto
Ribera_Alta,16/01/2010,7.3,10.7,2.9,0.4,Murillo_el_Fruto
Ribera_Alta,17/01/2010,7.9,11.5,4.1,0.2,Murillo_el_Fruto
Ribera_Alta,18/01/2010,8.1,11.0,4.1,0.0,Murillo_el_Fruto
Ribera_Alta,19/01/2010,10.0,12.6,8.0,0.6,Murillo_el_Fruto
Ribera_Alta,20/01/2010,8.1,12.8,3.5,0.0,Murillo_el_Fruto
Ribera_Alta,21/01/2010,5.3,11.3,0.6,0.0,Murillo_el_Fruto
Ribera_Alta,22/01/2010,5.0,13.4,-1.4,0.2,Murillo_el_Fruto
Ribera_Alta,23/01/2010,6.6,9.3,3.5,0.0,Murillo_el_Fruto
Ribera_Alta,24/01/2010,6.3,11.9,3.0,0.0,Murillo_el_Fruto
Ribera_Alta,25/01/2010,4.2,8.3,1.0,0.0,Murillo_el_Fruto
Ribera_Alta,26/01/2010,3.5,8.2,-2.3,0.0,Murillo_el_Fruto
Ribera_Alta,27/01/2010,1.5,6.2,-2.0,0.0,Murillo_el_Fruto
Ribera_Alta,28/01/2010,3.8,7.8,-1.2,0.2,Murillo_el_Fruto
Ribera_Alta,29/01/2010,6.2,10.8,2.7,1.2,Murillo_el_Fruto
Ribera_Alta,30/01/2010,5.3,8.0,3.6,3.4,Murillo_el_Fruto
Ribera_Alta,31/01/2010,4.0,7.3,1.2,0.2,Murillo_el_Fruto
Ribera_Alta,01/02/2010,2.5,9.1,-2.0,0.2,Murillo_el_Fruto
Ribera_Alta,02/02/2010,2.1,9.3,-2.2,0.2,Murillo_el_Fruto
Ribera_Alta,03/02/2010,2.3,11.2,-4.5,0.0,Murillo_el_Fruto
Ribera_Alta,04/02/2010,6.7,8.2,2.0,3.6,Murillo_el_Fruto
Ribera_Alta,05/02/2010,7.5,13.0,2.6,1.0,Murillo_el_Fruto
Ribera_Alta,06/02/2010,8.4,12.9,3.4,0.0,Murillo_el_Fruto
Ribera_Alta,07/02/2010,7.5,10.7,3.7,0.0,Murillo_el_Fruto
Ribera_Alta,08/02/2010,5.1,7.0,2.1,5.2,Murillo_el_Fruto
Ribera_Alta,09/02/2010,5.0,7.7,2.7,0.0,Murillo_el_Fruto
Ribera_Alta,10/02/2010,3.0,6.2,-0.6,0.0,Murillo_el_Fruto
Ribera_Alta,11/02/2010,-0.9,1.2,-3.4,0.0,Murillo_el_Fruto
Ribera_Alta,12/02/2010,-1.1,2.8,-3.9,0.0,Murillo_el_Fruto
Ribera_Alta,13/02/2010,-1.8,1.3,-5.1,0.0,Murillo_el_Fruto
Ribera_Alta,14/02/2010,0.3,3.7,-3.7,0.0,Murillo_el_Fruto
Ribera_Alta,15/02/2010,-0.1,4.2,-5.1,0.0,Murillo_el_Fruto
Ribera_Alta,16/02/2010,3.5,7.5,-0.4,7.6,Murillo_el_Fruto
Ribera_Alta,17/02/2010,7.4,8.7,5.1,8.2,Murillo_el_Fruto
Ribera_Alta,18/02/2010,7.0,11.6,2.1,1.2,Murillo_el_Fruto
Ribera_Alta,19/02/2010,6.0,9.6,0.0,0.2,Murillo_el_Fruto
Ribera_Alta,20/02/2010,3.1,10.6,-2.9,0.0,Murillo_el_Fruto
Ribera_Alta,21/02/2010,4.3,7.6,-0.5,2.4,Murillo_el_Fruto
Ribera_Alta,22/02/2010,8.4,12.6,4.3,1.2,Murillo_el_Fruto
Ribera_Alta,23/02/2010,11.2,16.4,7.8,0.2,Murillo_el_Fruto
Ribera_Alta,24/02/2010,10.6,14.3,5.3,0.0,Murillo_el_Fruto
Ribera_Alta,25/02/2010,11.7,16.2,8.3,0.2,Murillo_el_Fruto
Ribera_Alta,26/02/2010,8.5,14.5,2.2,0.0,Murillo_el_Fruto
Ribera_Alta,27/02/2010,10.9,17.2,5.2,0.0,Murillo_el_Fruto
Ribera_Alta,28/02/2010,11.0,15.7,6.6,0.2,Murillo_el_Fruto
Ribera_Alta,01/03/2010,9.4,15.4,3.6,2.8,Murillo_el_Fruto
Ribera_Alta,02/03/2010,9.0,15.3,0.8,0.0,Murillo_el_Fruto
Ribera_Alta,03/03/2010,6.8,10.1,5.5,4.6,Murillo_el_Fruto
Ribera_Alta,04/03/2010,8.0,13.3,3.9,0.2,Murillo_el_Fruto
Ribera_Alta,05/03/2010,8.2,14.5,2.4,0.0,Murillo_el_Fruto
Ribera_Alta,06/03/2010,7.7,12.1,3.5,0.0,Murillo_el_Fruto
Ribera_Alta,07/03/2010,4.7,11.0,-0.6,0.0,Murillo_el_Fruto
Ribera_Alta,08/03/2010,1.0,4.8,-3.3,0.0,Murillo_el_Fruto
Ribera_Alta,09/03/2010,2.5,6.7,-1.2,0.0,Murillo_el_Fruto
Ribera_Alta,10/03/2010,0.8,3.6,-1.6,0.2,Murillo_el_Fruto
Ribera_Alta,11/03/2010,2.2,5.7,-0.6,0.0,Murillo_el_Fruto
Ribera_Alta,12/03/2010,3.1,7.6,-0.8,0.0,Murillo_el_Fruto
Ribera_Alta,13/03/2010,6.0,11.6,-0.3,0.0,Murillo_el_Fruto
Ribera_Alta,14/03/2010,5.4,11.0,0.5,0.0,Murillo_el_Fruto
Ribera_Alta,15/03/2010,7.1,17.7,-0.9,0.0,Murillo_el_Fruto
Ribera_Alta,16/03/2010,6.6,16.8,-3.7,0.0,Murillo_el_Fruto
Ribera_Alta,17/03/2010,10.1,19.4,-0.4,0.0,Murillo_el_Fruto
Ribera_Alta,18/03/2010,10.7,15.4,5.5,0.0,Murillo_el_Fruto
Ribera_Alta,19/03/2010,12.0,19.3,4.1,1.0,Murillo_el_Fruto
Ribera_Alta,20/03/2010,16.3,21.2,12.2,0.0,Murillo_el_Fruto
Ribera_Alta,21/03/2010,13.9,18.6,8.6,0.0,Murillo_el_Fruto
Ribera_Alta,22/03/2010,13.4,21.2,5.1,0.0,Murillo_el_Fruto
Ribera_Alta,23/03/2010,11.3,19.7,1.0,0.0,Murillo_el_Fruto
Ribera_Alta,24/03/2010,13.0,17.5,10.1,0.0,Murillo_el_Fruto
Ribera_Alta,25/03/2010,11.3,15.9,8.0,3.4,Murillo_el_Fruto
Ribera_Alta,26/03/2010,10.0,16.5,2.4,9.6,Murillo_el_Fruto
Ribera_Alta,27/03/2010,10.3,17.0,3.1,0.0,Murillo_el_Fruto
Ribera_Alta,28/03/2010,10.6,17.5,4.1,0.0,Murillo_el_Fruto
Ribera_Alta,29/03/2010,13.4,19.2,7.7,0.0,Murillo_el_Fruto
Ribera_Alta,30/03/2010,9.9,15.3,5.4,0.0,Murillo_el_Fruto
Ribera_Alta,31/03/2010,8.7,16.7,2.5,0.0,Murillo_el_Fruto
Ribera_Alta,01/04/2010,8.2,14.3,1.3,0.0,Murillo_el_Fruto
Ribera_Alta,02/04/2010,8.8,16.4,0.4,0.0,Murillo_el_Fruto
Ribera_Alta,03/04/2010,10.7,14.1,7.6,0.0,Murillo_el_Fruto
Ribera_Alta,04/04/2010,0.0,0.0,0.0,0.0,Murillo_el_Fruto
Ribera_Alta,05/04/2010,0.0,0.0,0.0,0.0,Murillo_el_Fruto
Ribera_Alta,06/04/2010,0.0,0.0,0.0,0.0,Murillo_el_Fruto
Ribera_Alta,07/04/2010,0.0,0.0,0.0,0.0,Murillo_el_Fruto
Ribera_Alta,08/04/2010,0.0,0.0,0.0,0.0,Murillo_el_Fruto
Ribera_Alta,09/04/2010,0.0,0.0,0.0,0.0,Murillo_el_Fruto
Ribera_Alta,10/04/2010,0.0,0.0,0.0,0.0,Murillo_el_Fruto
Ribera_Alta,11/04/2010,0.0,0.0,0.0,0.0,Murillo_el_Fruto
Ribera_Alta,12/04/2010,0.0,0.0,0.0,0.0,Murillo_el_Fruto
Ribera_Alta,13/04/2010,0.0,0.0,0.0,0.0,Murillo_el_Fruto
Ribera_Alta,14/04/2010,0.0,0.0,0.0,0.0,Murillo_el_Fruto
Ribera_Alta,15/04/2010,10.4,12.8,7.9,2.2,Murillo_el_Fruto
Ribera_Alta,16/04/2010,13.0,19.1,5.7,1.8,Murillo_el_Fruto
Ribera_Alta,17/04/2010,12.9,18.0,9.4,0.6,Murillo_el_Fruto
Ribera_Alta,18/04/2010,12.8,18.5,8.7,0.8,Murillo_el_Fruto
Ribera_Alta,19/04/2010,15.4,22.2,9.9,1.6,Murillo_el_Fruto
Ribera_Alta,20/04/2010,15.7,23.8,6.9,1.6,Murillo_el_Fruto
Ribera_Alta,21/04/2010,17.3,24.0,9.0,0.0,Murillo_el_Fruto
Ribera_Alta,22/04/2010,14.0,16.3,11.4,6.4,Murillo_el_Fruto
Ribera_Alta,23/04/2010,14.3,19.3,9.3,11.2,Murillo_el_Fruto
Ribera_Alta,24/04/2010,14.7,24.3,5.2,0.2,Murillo_el_Fruto
Ribera_Alta,25/04/2010,17.3,26.0,10.0,0.6,Murillo_el_Fruto
Ribera_Alta,26/04/2010,17.7,27.1,8.0,0.0,Murillo_el_Fruto
Ribera_Alta,27/04/2010,18.9,28.3,9.2,0.0,Murillo_el_Fruto
Ribera_Alta,28/04/2010,18.7,26.7,9.2,3.0,Murillo_el_Fruto
Ribera_Alta,29/04/2010,0.0,0.0,0.0,0.0,Murillo_el_Fruto
Ribera_Alta,30/04/2010,16.8,24.3,10.1,8.8,Murillo_el_Fruto
Ribera_Alta,01/05/2010,14.4,18.8,9.5,1.4,Murillo_el_Fruto
Ribera_Alta,02/05/2010,11.8,15.9,8.0,0.0,Murillo_el_Fruto
Ribera_Alta,03/05/2010,9.6,13.4,6.0,0.2,Murillo_el_Fruto
Ribera_Alta,04/05/2010,6.8,8.1,5.6,1.0,Murillo_el_Fruto
Ribera_Alta,05/05/2010,7.8,11.8,6.0,0.2,Murillo_el_Fruto
Ribera_Alta,06/05/2010,8.6,12.9,4.3,0.0,Murillo_el_Fruto
Ribera_Alta,07/05/2010,8.9,15.9,0.2,1.2,Murillo_el_Fruto
Ribera_Alta,08/05/2010,13.8,20.3,8.6,0.2,Murillo_el_Fruto
Ribera_Alta,09/05/2010,13.8,20.3,10.4,15.4,Murillo_el_Fruto
Ribera_Alta,10/05/2010,13.7,21.6,6.1,2.8,Murillo_el_Fruto
Ribera_Alta,11/05/2010,12.2,18.9,4.9,3.4,Murillo_el_Fruto
Ribera_Alta,12/05/2010,11.5,17.2,7.9,0.6,Murillo_el_Fruto
Ribera_Alta,13/05/2010,9.8,14.5,7.0,0.0,Murillo_el_Fruto
Ribera_Alta,14/05/2010,10.5,16.0,5.6,0.4,Murillo_el_Fruto
Ribera_Alta,15/05/2010,10.0,15.2,5.1,0.0,Murillo_el_Fruto
Ribera_Alta,16/05/2010,10.5,16.3,3.7,0.0,Murillo_el_Fruto
Ribera_Alta,17/05/2010,13.0,19.3,5.6,0.0,Murillo_el_Fruto
Ribera_Alta,18/05/2010,15.7,25.5,5.3,0.0,Murillo_el_Fruto
Ribera_Alta,19/05/2010,14.9,21.0,0.0,0.0,Murillo_el_Fruto
Ribera_Alta,20/05/2010,17.5,27.2,8.8,0.0,Murillo_el_Fruto
Ribera_Alta,21/05/2010,18.6,29.6,7.4,0.0,Murillo_el_Fruto
Ribera_Alta,22/05/2010,20.9,29.3,9.6,0.0,Murillo_el_Fruto
Ribera_Alta,23/05/2010,20.7,28.4,10.6,0.0,Murillo_el_Fruto
Ribera_Alta,24/05/2010,21.7,28.6,12.0,0.0,Murillo_el_Fruto
Ribera_Alta,25/05/2010,22.0,29.8,14.6,0.0,Murillo_el_Fruto
Ribera_Alta,26/05/2010,18.9,25.6,11.8,0.0,Murillo_el_Fruto
Ribera_Alta,27/05/2010,17.9,25.5,10.0,0.0,Murillo_el_Fruto
Ribera_Alta,28/05/2010,16.3,21.2,11.3,0.6,Murillo_el_Fruto
Ribera_Alta,29/05/2010,17.2,25.1,7.1,0.0,Murillo_el_Fruto
Ribera_Alta,30/05/2010,19.4,26.2,12.2,0.0,Murillo_el_Fruto
Ribera_Alta,31/05/2010,20.5,26.0,15.6,0.0,Murillo_el_Fruto
Ribera_Alta,01/06/2010,20.3,27.2,12.2,0.0,Murillo_el_Fruto
Ribera_Alta,02/06/2010,18.5,25.4,12.5,0.0,Murillo_el_Fruto
Ribera_Alta,03/06/2010,19.9,29.7,8.9,0.0,Murillo_el_Fruto
Ribera_Alta,04/06/2010,21.4,30.2,10.5,0.0,Murillo_el_Fruto
Ribera_Alta,05/06/2010,23.8,33.5,13.1,0.2,Murillo_el_Fruto
Ribera_Alta,06/06/2010,19.2,23.2,10.8,0.0,Murillo_el_Fruto
Ribera_Alta,07/06/2010,20.0,29.0,6.2,0.0,Murillo_el_Fruto
Ribera_Alta,08/06/2010,21.0,30.3,15.9,1.6,Murillo_el_Fruto
Ribera_Alta,09/06/2010,17.2,20.9,14.8,3.0,Murillo_el_Fruto
Ribera_Alta,10/06/2010,17.5,22.8,13.8,8.0,Murillo_el_Fruto
Ribera_Alta,11/06/2010,17.1,21.7,13.9,0.6,Murillo_el_Fruto
Ribera_Alta,12/06/2010,15.7,19.6,13.1,0.0,Murillo_el_Fruto
Ribera_Alta,13/06/2010,17.7,24.1,10.5,0.2,Murillo_el_Fruto
Ribera_Alta,14/06/2010,15.4,20.0,11.1,0.0,Murillo_el_Fruto
Ribera_Alta,15/06/2010,13.9,19.9,7.3,0.0,Murillo_el_Fruto
Ribera_Alta,16/06/2010,12.6,16.1,10.3,0.0,Murillo_el_Fruto
Ribera_Alta,17/06/2010,13.7,18.9,10.8,0.0,Murillo_el_Fruto
Ribera_Alta,18/06/2010,16.3,22.7,9.6,0.0,Murillo_el_Fruto
Ribera_Alta,19/06/2010,16.6,21.2,13.2,0.0,Murillo_el_Fruto
Ribera_Alta,20/06/2010,14.3,18.2,11.5,0.2,Murillo_el_Fruto
Ribera_Alta,21/06/2010,16.6,23.3,10.0,0.0,Murillo_el_Fruto
Ribera_Alta,22/06/2010,18.7,27.3,11.6,0.0,Murillo_el_Fruto
Ribera_Alta,23/06/2010,19.2,29.6,9.2,0.0,Murillo_el_Fruto
Ribera_Alta,24/06/2010,21.4,32.2,9.3,0.0,Murillo_el_Fruto
Ribera_Alta,25/06/2010,23.3,32.7,12.5,0.0,Murillo_el_Fruto
Ribera_Alta,26/06/2010,23.4,32.3,16.5,0.0,Murillo_el_Fruto
Ribera_Alta,27/06/2010,24.0,32.6,17.9,0.0,Murillo_el_Fruto
Ribera_Alta,28/06/2010,22.8,31.4,16.0,0.0,Murillo_el_Fruto
Ribera_Alta,29/06/2010,23.0,30.1,15.4,0.0,Murillo_el_Fruto
Ribera_Alta,30/06/2010,23.6,32.1,14.3,0.0,Murillo_el_Fruto
Ribera_Alta,01/07/2010,26.0,35.6,14.3,0.0,Murillo_el_Fruto
Ribera_Alta,02/07/2010,24.5,32.0,18.8,0.0,Murillo_el_Fruto
Ribera_Alta,03/07/2010,23.9,32.6,17.0,0.0,Murillo_el_Fruto
Ribera_Alta,04/07/2010,23.6,30.5,17.2,0.0,Murillo_el_Fruto
Ribera_Alta,05/07/2010,21.4,28.7,14.5,0.0,Murillo_el_Fruto
Ribera_Alta,06/07/2010,22.1,29.6,15.8,0.0,Murillo_el_Fruto
Ribera_Alta,07/07/2010,24.7,36.9,12.5,0.0,Murillo_el_Fruto
Ribera_Alta,08/07/2010,29.5,36.5,19.6,0.0,Murillo_el_Fruto
Ribera_Alta,09/07/2010,27.5,35.0,18.7,0.0,Murillo_el_Fruto
Ribera_Alta,10/07/2010,26.2,35.7,15.8,0.0,Murillo_el_Fruto
Ribera_Alta,11/07/2010,29.3,37.5,19.6,0.0,Murillo_el_Fruto
Ribera_Alta,12/07/2010,27.1,35.5,19.1,0.0,Murillo_el_Fruto
Ribera_Alta,13/07/2010,26.4,35.8,16.1,0.0,Murillo_el_Fruto
Ribera_Alta,14/07/2010,25.5,33.9,15.8,0.0,Murillo_el_Fruto
Ribera_Alta,15/07/2010,23.1,32.8,14.0,0.0,Murillo_el_Fruto
Ribera_Alta,16/07/2010,23.8,31.6,16.8,0.0,Murillo_el_Fruto
Ribera_Alta,17/07/2010,20.5,26.6,14.7,0.0,Murillo_el_Fruto
Ribera_Alta,18/07/2010,23.4,34.2,12.5,0.0,Murillo_el_Fruto
Ribera_Alta,19/07/2010,25.3,35.7,15.2,0.0,Murillo_el_Fruto
Ribera_Alta,20/07/2010,24.5,34.3,15.8,23.8,Murillo_el_Fruto
Ribera_Alta,21/07/2010,20.6,26.4,16.3,0.0,Murillo_el_Fruto
Ribera_Alta,22/07/2010,18.5,24.5,15.3,4.4,Murillo_el_Fruto
Ribera_Alta,23/07/2010,18.3,23.5,13.3,0.0,Murillo_el_Fruto
Ribera_Alta,24/07/2010,18.7,26.2,11.6,0.0,Murillo_el_Fruto
Ribera_Alta,25/07/2010,19.4,25.0,14.2,0.0,Murillo_el_Fruto
Ribera_Alta,26/07/2010,20.3,26.0,16.3,0.0,Murillo_el_Fruto
Ribera_Alta,27/07/2010,22.3,32.0,13.4,0.0,Murillo_el_Fruto
Ribera_Alta,28/07/2010,22.8,32.9,13.3,0.2,Murillo_el_Fruto
Ribera_Alta,29/07/2010,21.2,26.5,16.7,0.0,Murillo_el_Fruto
Ribera_Alta,30/07/2010,21.1,28.4,14.5,0.0,Murillo_el_Fruto
Ribera_Alta,31/07/2010,24.6,35.3,13.9,0.0,Murillo_el_Fruto
Ribera_Alta,01/08/2010,24.9,34.6,18.2,0.0,Murillo_el_Fruto
Ribera_Alta,02/08/2010,19.9,23.3,15.8,0.0,Murillo_el_Fruto
Ribera_Alta,03/08/2010,19.4,25.1,14.6,0.0,Murillo_el_Fruto
Ribera_Alta,04/08/2010,19.8,26.0,14.4,0.0,Murillo_el_Fruto
Ribera_Alta,05/08/2010,19.0,24.1,14.4,0.0,Murillo_el_Fruto
Ribera_Alta,06/08/2010,19.5,28.3,12.1,0.0,Murillo_el_Fruto
Ribera_Alta,07/08/2010,22.5,34.8,10.9,0.0,Murillo_el_Fruto
Ribera_Alta,08/08/2010,22.9,31.8,14.4,0.0,Murillo_el_Fruto
Ribera_Alta,09/08/2010,22.3,28.3,14.8,0.2,Murillo_el_Fruto
Ribera_Alta,10/08/2010,21.9,33.5,13.1,0.0,Murillo_el_Fruto
Ribera_Alta,11/08/2010,21.5,30.0,11.9,0.0,Murillo_el_Fruto
Ribera_Alta,12/08/2010,20.2,25.0,15.2,0.0,Murillo_el_Fruto
Ribera_Alta,13/08/2010,18.1,24.0,13.5,0.0,Murillo_el_Fruto
Ribera_Alta,14/08/2010,17.2,23.5,11.5,0.0,Murillo_el_Fruto
Ribera_Alta,15/08/2010,17.3,24.0,11.5,0.0,Murillo_el_Fruto
Ribera_Alta,16/08/2010,18.8,28.6,9.8,0.0,Murillo_el_Fruto
Ribera_Alta,17/08/2010,21.6,31.8,11.3,0.0,Murillo_el_Fruto
Ribera_Alta,18/08/2010,22.2,32.2,13.5,0.0,Murillo_el_Fruto
Ribera_Alta,19/08/2010,22.4,29.5,17.7,0.0,Murillo_el_Fruto
Ribera_Alta,20/08/2010,23.9,34.1,15.2,0.0,Murillo_el_Fruto
Ribera_Alta,21/08/2010,26.6,37.2,16.6,0.0,Murillo_el_Fruto
Ribera_Alta,22/08/2010,28.9,36.1,20.3,0.0,Murillo_el_Fruto
Ribera_Alta,23/08/2010,26.7,35.9,17.1,0.0,Murillo_el_Fruto
Ribera_Alta,24/08/2010,23.1,29.1,16.4,0.0,Murillo_el_Fruto
Ribera_Alta,25/08/2010,24.9,36.3,13.9,0.0,Murillo_el_Fruto
Ribera_Alta,26/08/2010,28.8,39.4,21.7,0.0,Murillo_el_Fruto
Ribera_Alta,27/08/2010,23.6,31.3,17.8,0.0,Murillo_el_Fruto
Ribera_Alta,28/08/2010,19.8,24.3,15.5,0.0,Murillo_el_Fruto
Ribera_Alta,29/08/2010,19.3,26.3,14.1,0.0,Murillo_el_Fruto
Ribera_Alta,30/08/2010,18.0,24.5,12.7,0.0,Murillo_el_Fruto
Ribera_Alta,31/08/2010,19.0,28.5,9.4,0.0,Murillo_el_Fruto
Ribera_Alta,01/09/2010,20.9,29.9,13.5,0.0,Murillo_el_Fruto
Ribera_Alta,02/09/2010,20.8,27.1,15.3,0.0,Murillo_el_Fruto
Ribera_Alta,03/09/2010,20.8,31.0,12.1,0.0,Murillo_el_Fruto
Ribera_Alta,04/09/2010,20.4,33.2,9.8,0.0,Murillo_el_Fruto
Ribera_Alta,05/09/2010,23.3,34.0,11.6,0.0,Murillo_el_Fruto
Ribera_Alta,06/09/2010,25.1,32.5,18.9,0.0,Murillo_el_Fruto
Ribera_Alta,07/09/2010,19.6,26.3,13.1,0.0,Murillo_el_Fruto
Ribera_Alta,08/09/2010,17.2,23.6,10.8,0.0,Murillo_el_Fruto
Ribera_Alta,09/09/2010,17.8,23.0,13.4,0.0,Murillo_el_Fruto
Ribera_Alta,10/09/2010,19.0,28.8,11.1,0.0,Murillo_el_Fruto
Ribera_Alta,11/09/2010,20.1,30.8,10.9,0.0,Murillo_el_Fruto
Ribera_Alta,12/09/2010,18.4,24.7,11.4,0.0,Murillo_el_Fruto
Ribera_Alta,13/09/2010,18.5,26.0,12.3,0.0,Murillo_el_Fruto
Ribera_Alta,14/09/2010,19.7,30.0,11.1,0.0,Murillo_el_Fruto
Ribera_Alta,15/09/2010,19.6,30.2,10.6,0.0,Murillo_el_Fruto
Ribera_Alta,16/09/2010,17.6,20.2,15.1,0.0,Murillo_el_Fruto
Ribera_Alta,17/09/2010,17.5,24.0,13.3,0.0,Murillo_el_Fruto
Ribera_Alta,18/09/2010,16.3,21.5,10.6,0.0,Murillo_el_Fruto
Ribera_Alta,19/09/2010,15.4,25.6,5.7,0.0,Murillo_el_Fruto
Ribera_Alta,20/09/2010,18.7,25.8,8.8,0.0,Murillo_el_Fruto
Ribera_Alta,21/09/2010,21.0,28.5,14.0,0.0,Murillo_el_Fruto
Ribera_Alta,22/09/2010,20.7,27.9,12.5,0.0,Murillo_el_Fruto
Ribera_Alta,23/09/2010,20.5,25.2,15.7,0.0,Murillo_el_Fruto
Ribera_Alta,24/09/2010,15.9,20.2,9.2,0.0,Murillo_el_Fruto
Ribera_Alta,25/09/2010,13.6,17.7,9.1,0.0,Murillo_el_Fruto
Ribera_Alta,26/09/2010,12.3,16.8,6.8,0.0,Murillo_el_Fruto
Ribera_Alta,27/09/2010,12.1,19.8,3.8,0.0,Murillo_el_Fruto
Ribera_Alta,28/09/2010,13.4,20.8,5.1,0.0,Murillo_el_Fruto
Ribera_Alta,29/09/2010,15.6,26.9,4.7,0.0,Murillo_el_Fruto
Ribera_Alta,30/09/2010,15.1,22.7,8.7,0.0,Murillo_el_Fruto
Ribera_Alta,01/10/2010,16.7,25.7,8.4,0.0,Murillo_el_Fruto
Ribera_Alta,02/10/2010,20.8,27.1,15.9,0.0,Murillo_el_Fruto
Ribera_Alta,03/10/2010,18.8,25.3,15.3,0.0,Murillo_el_Fruto
Ribera_Alta,04/10/2010,15.0,19.6,7.8,0.0,Murillo_el_Fruto
Ribera_Alta,05/10/2010,14.4,23.4,5.6,0.0,Murillo_el_Fruto
Ribera_Alta,06/10/2010,17.6,25.9,9.5,0.0,Murillo_el_Fruto
Ribera_Alta,07/10/2010,19.5,24.5,13.6,0.0,Murillo_el_Fruto
Ribera_Alta,08/10/2010,20.9,26.3,16.6,0.0,Murillo_el_Fruto
Ribera_Alta,09/10/2010,18.8,21.4,15.4,0.0,Murillo_el_Fruto
Ribera_Alta,10/10/2010,13.0,15.8,11.4,0.0,Murillo_el_Fruto
Ribera_Alta,11/10/2010,14.0,18.7,11.2,0.0,Murillo_el_Fruto
Ribera_Alta,12/10/2010,14.8,20.0,9.8,0.0,Murillo_el_Fruto
Ribera_Alta,13/10/2010,15.2,19.6,10.5,0.0,Murillo_el_Fruto
Ribera_Alta,14/10/2010,12.0,17.6,6.5,0.0,Murillo_el_Fruto
Ribera_Alta,15/10/2010,11.8,16.9,6.8,0.0,Murillo_el_Fruto
Ribera_Alta,16/10/2010,11.2,17.2,5.9,0.0,Murillo_el_Fruto
Ribera_Alta,17/10/2010,9.8,14.6,6.2,0.0,Murillo_el_Fruto
Ribera_Alta,18/10/2010,9.1,13.7,5.4,0.0,Murillo_el_Fruto
Ribera_Alta,19/10/2010,11.8,17.8,6.8,1.0,Murillo_el_Fruto
Ribera_Alta,20/10/2010,10.4,16.9,5.0,0.0,Murillo_el_Fruto
Ribera_Alta,21/10/2010,8.8,17.7,1.5,0.0,Murillo_el_Fruto
Ribera_Alta,22/10/2010,9.9,18.6,2.1,0.0,Murillo_el_Fruto
Ribera_Alta,23/10/2010,12.0,19.6,6.6,0.0,Murillo_el_Fruto
Ribera_Alta,24/10/2010,11.7,19.5,6.1,3.4,Murillo_el_Fruto
Ribera_Alta,25/10/2010,8.8,12.5,5.2,0.0,Murillo_el_Fruto
Ribera_Alta,26/10/2010,8.3,16.6,1.7,0.0,Murillo_el_Fruto
Ribera_Alta,27/10/2010,9.5,21.9,-0.0,0.0,Murillo_el_Fruto
Ribera_Alta,28/10/2010,11.3,21.1,3.7,0.0,Murillo_el_Fruto
Ribera_Alta,29/10/2010,13.7,18.0,7.2,3.8,Murillo_el_Fruto
Ribera_Alta,30/10/2010,11.1,13.5,5.6,0.2,Murillo_el_Fruto
Ribera_Alta,31/10/2010,11.4,15.1,9.6,6.6,Murillo_el_Fruto
Ribera_Alta,01/11/2010,12.7,16.5,9.1,3.2,Murillo_el_Fruto
Ribera_Alta,02/11/2010,12.3,15.1,9.6,0.0,Murillo_el_Fruto
Ribera_Alta,03/11/2010,14.2,19.0,10.2,0.0,Murillo_el_Fruto
Ribera_Alta,04/11/2010,14.1,22.6,7.8,0.0,Murillo_el_Fruto
Ribera_Alta,05/11/2010,11.7,19.4,6.3,0.2,Murillo_el_Fruto
Ribera_Alta,06/11/2010,9.6,16.9,4.1,0.2,Murillo_el_Fruto
Ribera_Alta,07/11/2010,9.5,13.3,3.5,0.6,Murillo_el_Fruto
Ribera_Alta,08/11/2010,6.3,11.1,3.1,14.2,Murillo_el_Fruto
Ribera_Alta,09/11/2010,9.5,15.1,4.4,0.2,Murillo_el_Fruto
Ribera_Alta,10/11/2010,8.1,11.7,5.3,1.0,Murillo_el_Fruto
Ribera_Alta,11/11/2010,7.2,11.9,1.3,0.2,Murillo_el_Fruto
Ribera_Alta,12/11/2010,10.9,18.8,5.3,0.0,Murillo_el_Fruto
Ribera_Alta,13/11/2010,10.8,17.6,5.1,0.2,Murillo_el_Fruto
Ribera_Alta,14/11/2010,10.3,12.8,7.8,2.8,Murillo_el_Fruto
Ribera_Alta,15/11/2010,7.8,12.4,4.3,0.2,Murillo_el_Fruto
Ribera_Alta,16/11/2010,7.0,11.7,1.1,0.0,Murillo_el_Fruto
Ribera_Alta,17/11/2010,4.2,8.8,0.5,1.6,Murillo_el_Fruto
Ribera_Alta,18/11/2010,4.9,12.2,-1.5,0.2,Murillo_el_Fruto
Ribera_Alta,19/11/2010,5.9,9.1,1.2,0.2,Murillo_el_Fruto
Ribera_Alta,20/11/2010,8.8,12.9,6.4,8.0,Murillo_el_Fruto
Ribera_Alta,21/11/2010,7.4,10.5,4.1,8.2,Murillo_el_Fruto
Ribera_Alta,22/11/2010,6.8,9.8,4.1,0.6,Murillo_el_Fruto
Ribera_Alta,23/11/2010,5.7,10.9,1.5,0.0,Murillo_el_Fruto
Ribera_Alta,24/11/2010,4.2,10.4,-0.6,0.2,Murillo_el_Fruto
Ribera_Alta,25/11/2010,3.7,11.1,-2.6,0.2,Murillo_el_Fruto
Ribera_Alta,26/11/2010,3.1,8.2,-1.9,0.2,Murillo_el_Fruto
Ribera_Alta,27/11/2010,0.4,6.9,-4.3,0.2,Murillo_el_Fruto
Ribera_Alta,28/11/2010,-0.1,7.6,-5.2,0.2,Murillo_el_Fruto
Ribera_Alta,29/11/2010,-0.4,3.7,-5.6,0.0,Murillo_el_Fruto
Ribera_Alta,30/11/2010,3.5,6.5,0.8,0.6,Murillo_el_Fruto
Ribera_Alta,01/12/2010,3.5,6.9,0.0,1.2,Murillo_el_Fruto
Ribera_Alta,02/12/2010,1.3,6.0,-0.8,2.4,Murillo_el_Fruto
Ribera_Alta,03/12/2010,1.5,6.2,-2.8,0.0,Murillo_el_Fruto
Ribera_Alta,04/12/2010,1.4,7.3,-4.4,0.2,Murillo_el_Fruto
Ribera_Alta,05/12/2010,5.9,8.8,4.1,5.0,Murillo_el_Fruto
Ribera_Alta,06/12/2010,11.9,17.2,8.5,0.2,Murillo_el_Fruto
Ribera_Alta,07/12/2010,13.2,16.6,11.7,2.8,Murillo_el_Fruto
Ribera_Alta,08/12/2010,13.4,18.8,10.0,6.2,Murillo_el_Fruto
Ribera_Alta,09/12/2010,7.3,11.2,2.2,0.6,Murillo_el_Fruto
Ribera_Alta,10/12/2010,3.7,10.9,-1.3,0.0,Murillo_el_Fruto
Ribera_Alta,11/12/2010,0.1,5.1,-3.8,0.2,Murillo_el_Fruto
Ribera_Alta,12/12/2010,4.1,11.1,-1.4,0.2,Murillo_el_Fruto
Ribera_Alta,13/12/2010,8.0,11.9,4.9,0.0,Murillo_el_Fruto
Ribera_Alta,14/12/2010,4.1,8.6,1.0,0.0,Murillo_el_Fruto
Ribera_Alta,15/12/2010,0.7,3.2,-1.9,0.0,Murillo_el_Fruto
Ribera_Alta,16/12/2010,-0.1,4.3,-3.5,0.0,Murillo_el_Fruto
Ribera_Alta,17/12/2010,0.9,6.1,-5.8,0.0,Murillo_el_Fruto
Ribera_Alta,18/12/2010,1.4,8.1,-4.8,0.0,Murillo_el_Fruto
Ribera_Alta,19/12/2010,2.9,9.3,-3.1,0.0,Murillo_el_Fruto
Ribera_Alta,20/12/2010,2.5,11.5,-4.3,0.2,Murillo_el_Fruto
Ribera_Alta,21/12/2010,6.9,8.8,2.9,2.2,Murillo_el_Fruto
Ribera_Alta,22/12/2010,10.0,13.0,7.7,8.4,Murillo_el_Fruto
Ribera_Alta,23/12/2010,6.8,9.4,3.3,8.2,Murillo_el_Fruto
Ribera_Alta,24/12/2010,3.3,5.8,0.3,1.2,Murillo_el_Fruto
Ribera_Alta,25/12/2010,0.5,2.8,-1.6,0.0,Murillo_el_Fruto
Ribera_Alta,26/12/2010,-0.1,6.5,-4.5,0.0,Murillo_el_Fruto
Ribera_Alta,27/12/2010,-0.8,7.0,-5.8,0.0,Murillo_el_Fruto
Ribera_Alta,28/12/2010,1.5,9.7,-4.2,0.0,Murillo_el_Fruto
Ribera_Alta,29/12/2010,4.2,12.4,-1.1,0.0,Murillo_el_Fruto
Ribera_Alta,30/12/2010,6.2,9.2,2.1,0.0,Murillo_el_Fruto
Ribera_Alta,31/12/2010,8.5,12.5,5.7,0.0,Murillo_el_Fruto
