Comarca,Fecha, Temperatura media, Temperatura maxima, Temperatura minima, Precipitacion acumulada,Localidad
Ribera_Alta,01/01/2015,6.3,13.7,0.3,0.0,San_Andrian
Ribera_Alta,02/01/2015,6.8,14.5,3.1,0.0,San_Andrian
Ribera_Alta,03/01/2015,7.4,16.4,1.0,0.0,San_Andrian
Ribera_Alta,04/01/2015,7.0,14.3,1.6,0.0,San_Andrian
Ribera_Alta,05/01/2015,2.9,4.3,1.4,0.1,San_Andrian
Ribera_Alta,06/01/2015,5.7,11.7,0.7,0.1,San_Andrian
Ribera_Alta,07/01/2015,4.0,10.6,-1.3,0.0,San_Andrian
Ribera_Alta,08/01/2015,3.2,7.2,-0.0,0.1,San_Andrian
Ribera_Alta,09/01/2015,7.2,16.9,-0.9,0.0,San_Andrian
Ribera_Alta,10/01/2015,9.3,16.7,4.1,0.0,San_Andrian
Ribera_Alta,11/01/2015,6.9,13.3,-1.1,0.0,San_Andrian
Ribera_Alta,12/01/2015,2.3,10.4,-3.0,0.1,San_Andrian
Ribera_Alta,13/01/2015,0.9,3.5,-3.3,0.0,San_Andrian
Ribera_Alta,14/01/2015,4.7,12.8,-2.3,0.1,San_Andrian
Ribera_Alta,15/01/2015,7.6,11.7,0.3,0.0,San_Andrian
Ribera_Alta,16/01/2015,6.1,11.2,2.8,0.1,San_Andrian
Ribera_Alta,17/01/2015,3.8,9.2,-1.3,0.0,San_Andrian
Ribera_Alta,18/01/2015,2.7,5.7,-0.0,0.4,San_Andrian
Ribera_Alta,19/01/2015,3.2,7.7,-0.0,1.3,San_Andrian
Ribera_Alta,20/01/2015,1.7,4.7,-1.7,0.0,San_Andrian
Ribera_Alta,21/01/2015,3.9,6.7,1.0,0.0,San_Andrian
Ribera_Alta,22/01/2015,4.0,6.3,1.8,0.2,San_Andrian
Ribera_Alta,23/01/2015,4.5,8.9,1.0,0.1,San_Andrian
Ribera_Alta,24/01/2015,5.2,10.1,0.8,0.0,San_Andrian
Ribera_Alta,25/01/2015,4.6,8.7,1.4,0.0,San_Andrian
Ribera_Alta,26/01/2015,5.4,9.4,0.8,0.0,San_Andrian
Ribera_Alta,27/01/2015,7.4,11.0,4.5,0.0,San_Andrian
Ribera_Alta,28/01/2015,7.8,11.4,4.7,0.0,San_Andrian
Ribera_Alta,29/01/2015,9.2,13.1,2.8,0.0,San_Andrian
Ribera_Alta,30/01/2015,7.8,12.9,4.8,20.1,San_Andrian
Ribera_Alta,31/01/2015,4.4,7.2,1.7,2.6,San_Andrian
Ribera_Alta,01/02/2015,2.2,5.2,0.1,7.7,San_Andrian
Ribera_Alta,02/02/2015,4.4,8.1,2.1,0.0,San_Andrian
Ribera_Alta,03/02/2015,3.4,7.5,-2.3,0.5,San_Andrian
Ribera_Alta,04/02/2015,-0.5,2.4,-4.5,0.4,San_Andrian
Ribera_Alta,05/02/2015,1.0,4.3,-1.4,0.0,San_Andrian
Ribera_Alta,06/02/2015,-0.7,1.4,-3.5,0.0,San_Andrian
Ribera_Alta,07/02/2015,0.3,3.9,-2.7,0.0,San_Andrian
Ribera_Alta,08/02/2015,2.4,7.1,-2.5,0.0,San_Andrian
Ribera_Alta,09/02/2015,2.8,9.3,-3.3,0.0,San_Andrian
Ribera_Alta,10/02/2015,1.5,10.4,-6.0,0.0,San_Andrian
Ribera_Alta,11/02/2015,2.3,8.8,-4.8,0.0,San_Andrian
Ribera_Alta,12/02/2015,5.2,11.2,-1.3,0.2,San_Andrian
Ribera_Alta,13/02/2015,6.2,13.0,0.6,0.0,San_Andrian
Ribera_Alta,14/02/2015,6.3,9.2,3.6,7.0,San_Andrian
Ribera_Alta,15/02/2015,8.1,12.2,5.2,1.5,San_Andrian
Ribera_Alta,16/02/2015,8.0,10.6,5.9,1.6,San_Andrian
Ribera_Alta,17/02/2015,6.4,10.0,3.2,0.2,San_Andrian
Ribera_Alta,18/02/2015,4.8,9.1,-1.1,0.0,San_Andrian
Ribera_Alta,19/02/2015,3.5,12.4,-3.7,0.0,San_Andrian
Ribera_Alta,20/02/2015,4.4,10.6,-2.2,1.4,San_Andrian
Ribera_Alta,21/02/2015,5.5,9.1,2.6,3.1,San_Andrian
Ribera_Alta,22/02/2015,6.5,9.1,3.9,0.2,San_Andrian
Ribera_Alta,23/02/2015,8.4,15.6,3.8,3.5,San_Andrian
Ribera_Alta,24/02/2015,5.2,8.1,3.4,1.7,San_Andrian
Ribera_Alta,25/02/2015,8.2,11.0,4.3,1.0,San_Andrian
Ribera_Alta,26/02/2015,11.4,14.6,10.0,0.1,San_Andrian
Ribera_Alta,27/02/2015,7.0,10.8,3.1,0.0,San_Andrian
Ribera_Alta,28/02/2015,8.6,14.5,2.7,0.1,San_Andrian
Ribera_Alta,01/03/2015,13.6,19.1,8.6,0.0,San_Andrian
Ribera_Alta,02/03/2015,13.6,18.6,9.5,0.0,San_Andrian
Ribera_Alta,03/03/2015,12.4,19.1,6.3,0.0,San_Andrian
Ribera_Alta,04/03/2015,7.7,10.3,4.0,0.1,San_Andrian
Ribera_Alta,05/03/2015,6.3,11.1,1.5,0.0,San_Andrian
Ribera_Alta,06/03/2015,8.9,19.1,2.4,0.0,San_Andrian
Ribera_Alta,07/03/2015,10.7,23.6,-0.8,0.0,San_Andrian
Ribera_Alta,08/03/2015,12.8,21.7,6.9,0.0,San_Andrian
Ribera_Alta,09/03/2015,12.2,22.1,3.5,0.0,San_Andrian
Ribera_Alta,10/03/2015,13.0,22.4,5.8,0.0,San_Andrian
Ribera_Alta,11/03/2015,12.2,23.6,3.6,0.0,San_Andrian
Ribera_Alta,12/03/2015,12.0,23.6,4.4,0.0,San_Andrian
Ribera_Alta,13/03/2015,8.7,13.9,4.1,0.0,San_Andrian
Ribera_Alta,14/03/2015,6.1,10.4,2.2,0.0,San_Andrian
Ribera_Alta,15/03/2015,5.5,9.8,0.3,0.0,San_Andrian
Ribera_Alta,16/03/2015,7.1,13.1,3.1,0.0,San_Andrian
Ribera_Alta,17/03/2015,8.8,16.5,-1.1,0.0,San_Andrian
Ribera_Alta,18/03/2015,8.3,11.9,4.2,3.6,San_Andrian
Ribera_Alta,19/03/2015,10.5,16.7,7.0,4.6,San_Andrian
Ribera_Alta,20/03/2015,8.0,13.5,3.9,1.8,San_Andrian
Ribera_Alta,21/03/2015,6.9,9.6,4.5,8.8,San_Andrian
Ribera_Alta,22/03/2015,6.8,8.9,4.1,10.4,San_Andrian
Ribera_Alta,23/03/2015,4.0,8.2,1.1,19.0,San_Andrian
Ribera_Alta,24/03/2015,7.1,9.1,4.1,7.9,San_Andrian
Ribera_Alta,25/03/2015,4.8,9.2,1.8,0.2,San_Andrian
Ribera_Alta,26/03/2015,8.4,13.2,3.6,0.1,San_Andrian
Ribera_Alta,27/03/2015,12.6,17.5,9.4,0.0,San_Andrian
Ribera_Alta,28/03/2015,13.7,19.9,7.3,0.0,San_Andrian
Ribera_Alta,29/03/2015,13.0,21.0,6.4,0.0,San_Andrian
Ribera_Alta,30/03/2015,13.3,19.4,7.6,0.0,San_Andrian
Ribera_Alta,31/03/2015,13.2,20.4,5.7,0.0,San_Andrian
Ribera_Alta,01/04/2015,11.0,14.9,5.7,0.0,San_Andrian
Ribera_Alta,02/04/2015,12.2,22.0,4.5,0.0,San_Andrian
Ribera_Alta,03/04/2015,12.9,22.9,5.7,0.0,San_Andrian
Ribera_Alta,04/04/2015,10.4,15.0,6.5,0.0,San_Andrian
Ribera_Alta,05/04/2015,11.2,17.5,3.9,0.0,San_Andrian
Ribera_Alta,06/04/2015,11.1,19.5,2.0,0.0,San_Andrian
Ribera_Alta,07/04/2015,12.0,19.2,4.2,0.0,San_Andrian
Ribera_Alta,08/04/2015,11.2,17.9,3.3,0.0,San_Andrian
Ribera_Alta,09/04/2015,11.0,16.7,5.6,0.0,San_Andrian
Ribera_Alta,10/04/2015,12.6,19.3,8.4,0.0,San_Andrian
Ribera_Alta,11/04/2015,13.4,21.0,5.4,0.0,San_Andrian
Ribera_Alta,12/04/2015,13.9,22.8,4.1,0.0,San_Andrian
Ribera_Alta,13/04/2015,15.4,23.6,4.9,0.0,San_Andrian
Ribera_Alta,14/04/2015,17.4,26.2,6.6,0.0,San_Andrian
Ribera_Alta,15/04/2015,13.7,18.6,9.0,0.0,San_Andrian
Ribera_Alta,16/04/2015,13.3,18.9,9.5,0.3,San_Andrian
Ribera_Alta,17/04/2015,13.9,19.4,8.4,1.3,San_Andrian
Ribera_Alta,18/04/2015,13.2,19.9,9.4,7.0,San_Andrian
Ribera_Alta,19/04/2015,11.5,17.5,5.9,0.1,San_Andrian
Ribera_Alta,20/04/2015,13.0,21.5,3.1,0.0,San_Andrian
Ribera_Alta,21/04/2015,15.2,23.6,5.7,0.0,San_Andrian
Ribera_Alta,22/04/2015,14.1,20.9,9.1,0.2,San_Andrian
Ribera_Alta,23/04/2015,14.4,22.2,7.2,0.0,San_Andrian
Ribera_Alta,24/04/2015,15.4,23.1,5.4,0.0,San_Andrian
Ribera_Alta,25/04/2015,16.5,21.8,10.4,0.0,San_Andrian
Ribera_Alta,26/04/2015,12.9,18.7,10.0,16.4,San_Andrian
Ribera_Alta,27/04/2015,11.9,16.5,8.3,0.0,San_Andrian
Ribera_Alta,28/04/2015,11.1,16.7,5.2,0.0,San_Andrian
Ribera_Alta,29/04/2015,12.7,19.0,7.1,0.0,San_Andrian
Ribera_Alta,30/04/2015,14.4,23.3,4.7,0.0,San_Andrian
Ribera_Alta,01/05/2015,16.5,20.8,12.5,0.0,San_Andrian
Ribera_Alta,02/05/2015,18.3,24.0,12.3,0.0,San_Andrian
Ribera_Alta,03/05/2015,18.4,22.4,15.3,1.1,San_Andrian
Ribera_Alta,04/05/2015,20.6,26.4,15.7,0.0,San_Andrian
Ribera_Alta,05/05/2015,17.6,22.9,10.8,0.0,San_Andrian
Ribera_Alta,06/05/2015,14.4,22.5,6.7,0.0,San_Andrian
Ribera_Alta,07/05/2015,17.4,27.1,6.8,0.0,San_Andrian
Ribera_Alta,08/05/2015,18.5,25.4,10.7,0.0,San_Andrian
Ribera_Alta,09/05/2015,17.5,26.9,8.6,0.0,San_Andrian
Ribera_Alta,10/05/2015,20.9,30.8,10.4,0.0,San_Andrian
Ribera_Alta,11/05/2015,23.6,31.9,13.9,0.0,San_Andrian
Ribera_Alta,12/05/2015,23.6,32.3,15.8,0.0,San_Andrian
Ribera_Alta,13/05/2015,23.9,32.7,17.3,0.0,San_Andrian
Ribera_Alta,14/05/2015,17.3,25.2,10.7,0.0,San_Andrian
Ribera_Alta,15/05/2015,12.6,16.3,9.6,0.0,San_Andrian
Ribera_Alta,16/05/2015,14.5,19.6,10.8,0.0,San_Andrian
Ribera_Alta,17/05/2015,16.6,22.3,8.8,0.0,San_Andrian
Ribera_Alta,18/05/2015,16.1,28.1,6.5,0.0,San_Andrian
Ribera_Alta,19/05/2015,12.7,17.1,8.9,0.0,San_Andrian
Ribera_Alta,20/05/2015,12.0,16.5,8.2,0.0,San_Andrian
Ribera_Alta,21/05/2015,11.2,16.5,5.6,0.0,San_Andrian
Ribera_Alta,22/05/2015,12.1,18.9,4.9,0.0,San_Andrian
Ribera_Alta,23/05/2015,13.6,19.1,8.5,0.0,San_Andrian
Ribera_Alta,24/05/2015,15.6,21.6,8.6,0.0,San_Andrian
Ribera_Alta,25/05/2015,15.7,21.8,9.8,0.0,San_Andrian
Ribera_Alta,26/05/2015,14.3,20.2,8.6,0.0,San_Andrian
Ribera_Alta,27/05/2015,16.6,24.0,9.4,0.0,San_Andrian
Ribera_Alta,28/05/2015,17.8,28.4,7.3,0.0,San_Andrian
Ribera_Alta,29/05/2015,16.0,23.4,9.3,0.0,San_Andrian
Ribera_Alta,30/05/2015,16.8,26.8,6.9,0.0,San_Andrian
Ribera_Alta,31/05/2015,19.5,30.2,10.0,0.0,San_Andrian
Ribera_Alta,01/06/2015,19.5,29.9,11.2,0.1,San_Andrian
Ribera_Alta,02/06/2015,22.0,31.3,11.1,0.0,San_Andrian
Ribera_Alta,03/06/2015,24.6,33.2,15.3,0.0,San_Andrian
Ribera_Alta,04/06/2015,25.2,33.3,15.7,0.0,San_Andrian
Ribera_Alta,05/06/2015,24.2,32.9,14.3,0.0,San_Andrian
Ribera_Alta,06/06/2015,21.4,32.7,12.3,0.0,San_Andrian
Ribera_Alta,07/06/2015,22.7,32.8,11.9,0.0,San_Andrian
Ribera_Alta,08/06/2015,24.2,32.7,17.0,0.0,San_Andrian
Ribera_Alta,09/06/2015,19.9,27.3,14.9,0.0,San_Andrian
Ribera_Alta,10/06/2015,14.7,18.8,12.2,18.0,San_Andrian
Ribera_Alta,11/06/2015,15.9,19.0,12.9,26.3,San_Andrian
Ribera_Alta,12/06/2015,17.3,25.8,12.1,1.6,San_Andrian
Ribera_Alta,13/06/2015,15.9,23.8,12.4,6.4,San_Andrian
Ribera_Alta,14/06/2015,16.1,24.0,11.1,0.5,San_Andrian
Ribera_Alta,15/06/2015,15.3,22.3,9.3,0.0,San_Andrian
Ribera_Alta,16/06/2015,15.6,20.8,11.4,0.0,San_Andrian
Ribera_Alta,17/06/2015,16.5,22.1,11.3,0.0,San_Andrian
Ribera_Alta,18/06/2015,18.2,25.0,10.7,0.0,San_Andrian
Ribera_Alta,19/06/2015,17.8,24.4,11.9,0.0,San_Andrian
Ribera_Alta,20/06/2015,19.7,28.2,11.3,0.0,San_Andrian
Ribera_Alta,21/06/2015,22.0,31.7,11.6,0.0,San_Andrian
Ribera_Alta,22/06/2015,22.2,32.2,12.9,5.2,San_Andrian
Ribera_Alta,23/06/2015,20.7,27.1,13.3,0.0,San_Andrian
Ribera_Alta,24/06/2015,20.4,29.4,10.2,0.0,San_Andrian
Ribera_Alta,25/06/2015,23.6,33.5,12.9,0.0,San_Andrian
Ribera_Alta,26/06/2015,25.2,36.1,14.9,0.0,San_Andrian
Ribera_Alta,27/06/2015,24.1,33.5,14.6,0.0,San_Andrian
Ribera_Alta,28/06/2015,25.0,36.8,14.9,0.0,San_Andrian
Ribera_Alta,29/06/2015,26.2,35.9,14.6,0.0,San_Andrian
Ribera_Alta,30/06/2015,29.5,38.1,20.6,0.0,San_Andrian
Ribera_Alta,01/07/2015,29.3,37.3,22.0,0.0,San_Andrian
Ribera_Alta,02/07/2015,26.4,34.9,19.9,0.0,San_Andrian
Ribera_Alta,03/07/2015,27.7,36.3,19.6,0.0,San_Andrian
Ribera_Alta,04/07/2015,29.1,37.2,19.8,0.0,San_Andrian
Ribera_Alta,05/07/2015,24.8,34.9,18.0,0.0,San_Andrian
Ribera_Alta,06/07/2015,26.9,37.7,15.8,0.0,San_Andrian
Ribera_Alta,07/07/2015,26.8,38.1,18.1,0.0,San_Andrian
Ribera_Alta,08/07/2015,20.5,24.8,15.0,0.0,San_Andrian
Ribera_Alta,09/07/2015,20.9,29.7,12.0,0.0,San_Andrian
Ribera_Alta,10/07/2015,24.0,37.8,11.4,0.0,San_Andrian
Ribera_Alta,11/07/2015,21.6,29.3,14.7,0.0,San_Andrian
Ribera_Alta,12/07/2015,22.3,32.1,15.0,0.0,San_Andrian
Ribera_Alta,13/07/2015,23.2,35.1,12.8,0.0,San_Andrian
Ribera_Alta,14/07/2015,25.1,36.3,14.2,0.0,San_Andrian
Ribera_Alta,15/07/2015,27.2,37.3,15.9,0.0,San_Andrian
Ribera_Alta,16/07/2015,26.4,33.5,20.4,6.8,San_Andrian
Ribera_Alta,17/07/2015,23.8,34.3,15.6,0.2,San_Andrian
Ribera_Alta,18/07/2015,23.7,33.8,17.1,0.5,San_Andrian
Ribera_Alta,19/07/2015,24.6,34.1,16.7,0.1,San_Andrian
Ribera_Alta,20/07/2015,27.2,36.6,17.5,2.9,San_Andrian
Ribera_Alta,21/07/2015,25.4,35.9,18.5,0.0,San_Andrian
Ribera_Alta,22/07/2015,22.3,29.5,16.5,0.0,San_Andrian
Ribera_Alta,23/07/2015,24.4,33.3,15.5,0.1,San_Andrian
Ribera_Alta,24/07/2015,24.0,33.9,17.3,0.0,San_Andrian
Ribera_Alta,25/07/2015,19.9,24.7,13.8,0.0,San_Andrian
Ribera_Alta,26/07/2015,21.6,33.1,10.0,0.0,San_Andrian
Ribera_Alta,27/07/2015,21.8,28.2,18.1,0.0,San_Andrian
Ribera_Alta,28/07/2015,23.4,33.5,15.7,0.0,San_Andrian
Ribera_Alta,29/07/2015,22.3,31.1,15.3,0.0,San_Andrian
Ribera_Alta,30/07/2015,17.3,21.9,14.3,0.0,San_Andrian
Ribera_Alta,31/07/2015,17.1,21.4,14.9,1.6,San_Andrian
Ribera_Alta,01/08/2015,18.5,24.8,12.4,0.0,San_Andrian
Ribera_Alta,02/08/2015,23.4,32.5,12.4,0.0,San_Andrian
Ribera_Alta,03/08/2015,25.1,32.5,19.0,0.2,San_Andrian
Ribera_Alta,04/08/2015,22.7,29.4,18.1,0.2,San_Andrian
Ribera_Alta,05/08/2015,25.1,36.0,16.2,0.0,San_Andrian
Ribera_Alta,06/08/2015,25.7,36.5,14.3,0.0,San_Andrian
Ribera_Alta,07/08/2015,23.5,30.3,18.5,0.0,San_Andrian
Ribera_Alta,08/08/2015,17.6,20.6,13.1,0.0,San_Andrian
Ribera_Alta,09/08/2015,19.4,25.5,13.0,0.0,San_Andrian
Ribera_Alta,10/08/2015,22.7,34.0,12.3,0.0,San_Andrian
Ribera_Alta,11/08/2015,25.5,34.8,14.3,0.0,San_Andrian
Ribera_Alta,12/08/2015,27.8,35.6,22.6,0.0,San_Andrian
Ribera_Alta,13/08/2015,21.8,28.1,16.7,1.2,San_Andrian
Ribera_Alta,14/08/2015,17.9,22.6,14.3,0.2,San_Andrian
Ribera_Alta,15/08/2015,18.7,24.5,12.7,0.0,San_Andrian
Ribera_Alta,16/08/2015,19.6,29.4,8.3,0.0,San_Andrian
Ribera_Alta,17/08/2015,20.1,26.2,14.9,0.0,San_Andrian
Ribera_Alta,18/08/2015,19.1,27.5,12.0,0.0,San_Andrian
Ribera_Alta,19/08/2015,19.9,30.5,9.2,0.0,San_Andrian
Ribera_Alta,20/08/2015,22.7,33.6,11.6,0.0,San_Andrian
Ribera_Alta,21/08/2015,24.6,33.9,13.1,0.0,San_Andrian
Ribera_Alta,22/08/2015,24.5,31.9,18.9,0.0,San_Andrian
Ribera_Alta,23/08/2015,22.9,29.5,17.3,0.0,San_Andrian
Ribera_Alta,24/08/2015,19.3,26.5,12.2,0.0,San_Andrian
Ribera_Alta,25/08/2015,19.4,29.9,8.2,0.0,San_Andrian
Ribera_Alta,26/08/2015,25.1,33.7,16.9,0.0,San_Andrian
Ribera_Alta,27/08/2015,26.2,37.2,19.2,0.0,San_Andrian
Ribera_Alta,28/08/2015,26.8,35.5,16.5,0.0,San_Andrian
Ribera_Alta,29/08/2015,27.5,35.2,20.4,0.0,San_Andrian
Ribera_Alta,30/08/2015,26.0,33.5,18.4,0.0,San_Andrian
Ribera_Alta,31/08/2015,21.2,32.1,16.0,0.1,San_Andrian
Ribera_Alta,01/09/2015,18.6,24.0,14.8,0.0,San_Andrian
Ribera_Alta,02/09/2015,17.3,25.3,11.0,8.6,San_Andrian
Ribera_Alta,03/09/2015,16.7,22.2,11.1,0.1,San_Andrian
Ribera_Alta,04/09/2015,15.2,21.2,9.7,0.6,San_Andrian
Ribera_Alta,05/09/2015,14.8,22.0,8.8,0.0,San_Andrian
Ribera_Alta,06/09/2015,15.5,25.3,7.8,0.0,San_Andrian
Ribera_Alta,07/09/2015,16.9,26.7,9.5,0.0,San_Andrian
Ribera_Alta,08/09/2015,16.9,26.7,9.5,0.0,San_Andrian
Ribera_Alta,09/09/2015,18.9,27.9,8.0,0.0,San_Andrian
Ribera_Alta,10/09/2015,20.3,27.4,14.3,0.1,San_Andrian
Ribera_Alta,11/09/2015,20.7,28.0,13.1,0.0,San_Andrian
Ribera_Alta,12/09/2015,21.0,25.6,18.1,2.7,San_Andrian
Ribera_Alta,13/09/2015,18.4,23.3,11.7,0.0,San_Andrian
Ribera_Alta,14/09/2015,17.0,24.5,10.8,0.0,San_Andrian
Ribera_Alta,15/09/2015,15.9,20.1,11.5,3.6,San_Andrian
Ribera_Alta,16/09/2015,21.3,27.7,17.7,0.1,San_Andrian
Ribera_Alta,17/09/2015,15.0,21.9,9.4,8.3,San_Andrian
Ribera_Alta,18/09/2015,14.3,24.0,6.2,0.2,San_Andrian
Ribera_Alta,19/09/2015,15.6,24.6,7.8,0.0,San_Andrian
Ribera_Alta,20/09/2015,16.9,27.7,7.6,0.0,San_Andrian
Ribera_Alta,21/09/2015,17.7,29.2,7.4,0.0,San_Andrian
Ribera_Alta,22/09/2015,16.5,23.2,10.5,0.0,San_Andrian
Ribera_Alta,23/09/2015,15.0,19.4,10.2,0.0,San_Andrian
Ribera_Alta,24/09/2015,17.1,25.8,9.3,0.0,San_Andrian
Ribera_Alta,25/09/2015,18.9,29.0,10.5,0.0,San_Andrian
Ribera_Alta,26/09/2015,18.4,28.8,10.6,0.0,San_Andrian
Ribera_Alta,27/09/2015,16.4,25.6,9.0,0.0,San_Andrian
Ribera_Alta,28/09/2015,15.0,24.4,6.6,0.0,San_Andrian
Ribera_Alta,29/09/2015,15.7,25.2,6.7,0.2,San_Andrian
Ribera_Alta,30/09/2015,17.0,23.7,12.2,0.0,San_Andrian
Ribera_Alta,01/10/2015,16.6,26.6,7.2,0.0,San_Andrian
Ribera_Alta,02/10/2015,13.6,19.8,8.4,0.0,San_Andrian
Ribera_Alta,03/10/2015,13.3,22.4,5.8,0.0,San_Andrian
Ribera_Alta,04/10/2015,13.8,19.0,7.6,0.2,San_Andrian
Ribera_Alta,05/10/2015,21.9,26.6,17.5,0.0,San_Andrian
Ribera_Alta,06/10/2015,18.6,24.9,12.9,0.5,San_Andrian
Ribera_Alta,07/10/2015,14.0,19.8,9.2,0.0,San_Andrian
Ribera_Alta,08/10/2015,13.5,21.4,7.5,0.0,San_Andrian
Ribera_Alta,09/10/2015,13.0,24.1,5.8,0.0,San_Andrian
Ribera_Alta,10/10/2015,14.1,24.0,4.0,0.0,San_Andrian
Ribera_Alta,11/10/2015,14.7,18.7,9.3,0.7,San_Andrian
Ribera_Alta,12/10/2015,14.5,23.9,7.9,3.5,San_Andrian
Ribera_Alta,13/10/2015,12.4,16.4,9.3,0.1,San_Andrian
Ribera_Alta,14/10/2015,10.3,15.5,5.7,0.0,San_Andrian
Ribera_Alta,15/10/2015,9.3,17.4,3.2,0.0,San_Andrian
Ribera_Alta,16/10/2015,8.8,19.1,1.2,0.0,San_Andrian
Ribera_Alta,17/10/2015,11.6,18.8,2.9,4.1,San_Andrian
Ribera_Alta,18/10/2015,15.1,19.9,13.5,0.4,San_Andrian
Ribera_Alta,19/10/2015,15.4,16.6,14.4,4.5,San_Andrian
Ribera_Alta,20/10/2015,13.1,15.9,10.0,6.6,San_Andrian
Ribera_Alta,21/10/2015,11.1,15.3,5.4,0.0,San_Andrian
Ribera_Alta,22/10/2015,12.1,17.0,7.0,0.0,San_Andrian
Ribera_Alta,23/10/2015,12.7,20.3,5.4,0.0,San_Andrian
Ribera_Alta,24/10/2015,14.5,19.5,9.4,0.0,San_Andrian
Ribera_Alta,25/10/2015,15.3,21.7,10.8,0.0,San_Andrian
Ribera_Alta,26/10/2015,15.9,21.1,11.8,0.0,San_Andrian
Ribera_Alta,27/10/2015,13.8,20.9,7.9,2.5,San_Andrian
Ribera_Alta,28/10/2015,11.3,17.6,7.1,4.1,San_Andrian
Ribera_Alta,29/10/2015,13.8,21.7,8.0,0.0,San_Andrian
Ribera_Alta,30/10/2015,15.6,22.0,9.4,0.0,San_Andrian
Ribera_Alta,31/10/2015,14.8,20.3,11.3,0.0,San_Andrian
Ribera_Alta,01/11/2015,13.7,18.4,7.5,0.0,San_Andrian
Ribera_Alta,02/11/2015,12.4,14.5,10.6,22.6,San_Andrian
Ribera_Alta,03/11/2015,12.3,15.1,10.3,0.9,San_Andrian
Ribera_Alta,04/11/2015,12.0,18.0,6.5,0.3,San_Andrian
Ribera_Alta,05/11/2015,11.9,16.5,9.3,0.3,San_Andrian
Ribera_Alta,06/11/2015,14.0,21.8,7.8,0.1,San_Andrian
Ribera_Alta,07/11/2015,12.7,19.9,8.1,0.2,San_Andrian
Ribera_Alta,08/11/2015,13.1,17.5,8.4,0.3,San_Andrian
Ribera_Alta,09/11/2015,15.4,22.2,9.6,0.1,San_Andrian
Ribera_Alta,10/11/2015,12.7,17.8,8.8,0.2,San_Andrian
Ribera_Alta,11/11/2015,9.4,11.8,10.8,0.0,San_Andrian
Ribera_Alta,12/11/2015,9.4,10.2,8.4,0.3,San_Andrian
Ribera_Alta,13/11/2015,11.7,17.6,6.5,0.0,San_Andrian
Ribera_Alta,14/11/2015,12.1,18.5,5.0,0.0,San_Andrian
Ribera_Alta,15/11/2015,7.6,9.0,4.7,0.4,San_Andrian
Ribera_Alta,16/11/2015,9.0,17.7,3.8,0.1,San_Andrian
Ribera_Alta,17/11/2015,9.8,15.9,5.3,0.0,San_Andrian
Ribera_Alta,18/11/2015,11.9,19.6,7.6,0.0,San_Andrian
Ribera_Alta,19/11/2015,12.6,19.7,7.5,0.0,San_Andrian
Ribera_Alta,20/11/2015,12.1,16.6,7.9,0.0,San_Andrian
Ribera_Alta,21/11/2015,8.4,13.6,4.3,4.4,San_Andrian
Ribera_Alta,22/11/2015,5.0,8.9,1.8,2.6,San_Andrian
Ribera_Alta,23/11/2015,4.1,8.5,-0.0,0.1,San_Andrian
Ribera_Alta,24/11/2015,4.1,8.5,-0.0,0.1,San_Andrian
Ribera_Alta,25/11/2015,11.7,14.3,9.2,0.0,San_Andrian
Ribera_Alta,26/11/2015,11.9,14.7,9.6,0.0,San_Andrian
Ribera_Alta,27/11/2015,10.8,14.0,8.6,0.0,San_Andrian
Ribera_Alta,28/11/2015,9.0,12.2,2.1,0.0,San_Andrian
Ribera_Alta,29/11/2015,6.6,14.4,1.3,0.0,San_Andrian
Ribera_Alta,30/11/2015,4.6,14.6,-1.9,0.0,San_Andrian
Ribera_Alta,01/12/2015,3.0,12.4,-2.7,0.1,San_Andrian
Ribera_Alta,02/12/2015,4.5,14.7,-2.5,0.1,San_Andrian
Ribera_Alta,03/12/2015,4.4,12.6,-1.5,0.0,San_Andrian
Ribera_Alta,04/12/2015,6.8,16.1,-0.5,0.0,San_Andrian
Ribera_Alta,05/12/2015,7.0,14.8,0.2,0.0,San_Andrian
Ribera_Alta,06/12/2015,8.1,11.8,3.9,0.1,San_Andrian
Ribera_Alta,07/12/2015,9.8,12.4,7.3,0.0,San_Andrian
Ribera_Alta,08/12/2015,9.3,11.7,7.1,0.0,San_Andrian
Ribera_Alta,09/12/2015,8.8,16.2,3.0,0.0,San_Andrian
Ribera_Alta,10/12/2015,5.1,6.3,1.2,0.5,San_Andrian
Ribera_Alta,11/12/2015,5.4,6.0,4.9,0.5,San_Andrian
Ribera_Alta,12/12/2015,4.9,5.3,4.3,0.6,San_Andrian
Ribera_Alta,13/12/2015,4.8,5.2,4.1,0.0,San_Andrian
Ribera_Alta,14/12/2015,4.6,5.5,3.5,0.2,San_Andrian
Ribera_Alta,15/12/2015,5.4,8.5,2.9,0.0,San_Andrian
Ribera_Alta,16/12/2015,6.7,16.3,1.2,0.1,San_Andrian
Ribera_Alta,17/12/2015,4.8,11.4,0.1,0.1,San_Andrian
Ribera_Alta,18/12/2015,6.4,14.2,-0.2,0.1,San_Andrian
Ribera_Alta,19/12/2015,6.6,12.1,1.4,0.1,San_Andrian
Ribera_Alta,20/12/2015,7.7,10.7,4.6,0.0,San_Andrian
Ribera_Alta,21/12/2015,7.8,14.0,1.8,0.0,San_Andrian
Ribera_Alta,22/12/2015,4.6,5.9,1.7,0.1,San_Andrian
Ribera_Alta,23/12/2015,3.8,4.6,2.1,0.1,San_Andrian
Ribera_Alta,24/12/2015,5.8,6.9,4.4,0.1,San_Andrian
Ribera_Alta,25/12/2015,5.6,6.4,4.7,0.1,San_Andrian
Ribera_Alta,26/12/2015,3.6,4.7,3.0,0.0,San_Andrian
Ribera_Alta,27/12/2015,3.2,4.8,2.2,0.2,San_Andrian
Ribera_Alta,28/12/2015,8.4,11.3,4.9,0.0,San_Andrian
Ribera_Alta,29/12/2015,8.2,13.6,2.5,0.0,San_Andrian
Ribera_Alta,30/12/2015,5.2,11.9,-1.3,0.1,San_Andrian
Ribera_Alta,31/12/2015,7.4,11.6,1.5,1.0,San_Andrian
