Comarca,Fecha, Temperatura media, Temperatura maxima, Temperatura minima, Precipitacion acumulada,Localidad
Zona_Noroeste,01/01/2019,0.0,4.5,-2.6,1.0,Arizkun
Zona_Noroeste,02/01/2019,0.0,6.0,2.5,0.0,Arizkun
Zona_Noroeste,03/01/2019,0.0,6.5,-4.5,0.0,Arizkun
Zona_Noroeste,04/01/2019,0.0,3.0,-5.0,0.0,Arizkun
Zona_Noroeste,05/01/2019,0.0,9.5,-6.7,0.0,Arizkun
Zona_Noroeste,06/01/2019,0.0,6.0,-1.2,0.0,Arizkun
Zona_Noroeste,07/01/2019,0.0,5.5,0.0,0.0,Arizkun
Zona_Noroeste,08/01/2019,0.0,9.0,1.7,10.5,Arizkun
Zona_Noroeste,09/01/2019,0.0,10.0,5.0,0.8,Arizkun
Zona_Noroeste,10/01/2019,0.0,6.0,-0.5,0.0,Arizkun
Zona_Noroeste,11/01/2019,0.0,7.5,-3.0,0.0,Arizkun
Zona_Noroeste,12/01/2019,0.0,9.0,2.5,2.2,Arizkun
Zona_Noroeste,13/01/2019,0.0,9.5,5.0,11.0,Arizkun
Zona_Noroeste,14/01/2019,0.0,11.0,5.5,6.0,Arizkun
Zona_Noroeste,15/01/2019,0.0,14.5,6.5,0.0,Arizkun
Zona_Noroeste,16/01/2019,0.0,16.0,-1.5,5.0,Arizkun
Zona_Noroeste,17/01/2019,0.0,10.0,6.0,12.0,Arizkun
Zona_Noroeste,18/01/2019,0.0,7.5,3.5,2.5,Arizkun
Zona_Noroeste,19/01/2019,0.0,11.0,2.5,4.0,Arizkun
Zona_Noroeste,20/01/2019,0.0,10.0,4.5,43.0,Arizkun
Zona_Noroeste,21/01/2019,0.0,6.5,4.5,1.0,Arizkun
Zona_Noroeste,22/01/2019,0.0,12.0,2.5,93.0,Arizkun
Zona_Noroeste,23/01/2019,0.0,8.0,3.5,63.0,Arizkun
Zona_Noroeste,24/01/2019,0.0,11.0,2.5,14.5,Arizkun
Zona_Noroeste,25/01/2019,0.0,12.0,3.0,32.0,Arizkun
Zona_Noroeste,26/01/2019,0.0,12.0,8.0,14.0,Arizkun
Zona_Noroeste,27/01/2019,0.0,10.5,2.0,54.0,Arizkun
Zona_Noroeste,28/01/2019,0.0,11.0,5.0,23.0,Arizkun
Zona_Noroeste,29/01/2019,0.0,10.0,4.5,22.0,Arizkun
Zona_Noroeste,30/01/2019,0.0,9.0,3.5,24.2,Arizkun
Zona_Noroeste,31/01/2019,0.0,13.5,2.5,27.0,Arizkun
Zona_Noroeste,01/02/2019,0.0,12.5,4.5,63.0,Arizkun
Zona_Noroeste,02/02/2019,0.0,7.5,3.5,32.0,Arizkun
Zona_Noroeste,03/02/2019,0.0,7.5,1.0,1.0,Arizkun
Zona_Noroeste,04/02/2019,0.0,9.0,-1.5,16.5,Arizkun
Zona_Noroeste,05/02/2019,0.0,10.0,6.0,11.3,Arizkun
Zona_Noroeste,06/02/2019,0.0,18.5,7.5,0.0,Arizkun
Zona_Noroeste,07/02/2019,0.0,11.0,4.5,1.5,Arizkun
Zona_Noroeste,08/02/2019,0.0,18.0,-0.5,0.0,Arizkun
Zona_Noroeste,09/02/2019,0.0,17.0,0.5,0.0,Arizkun
Zona_Noroeste,10/02/2019,0.0,11.5,9.0,15.0,Arizkun
Zona_Noroeste,11/02/2019,0.0,11.0,5.0,4.0,Arizkun
Zona_Noroeste,12/02/2019,0.0,14.0,0.0,0.0,Arizkun
Zona_Noroeste,13/02/2019,0.0,18.5,-2.5,0.0,Arizkun
Zona_Noroeste,14/02/2019,0.0,20.0,0.0,0.0,Arizkun
Zona_Noroeste,15/02/2019,0.0,20.0,-1.5,0.0,Arizkun
Zona_Noroeste,16/02/2019,0.0,20.0,-2.5,0.0,Arizkun
Zona_Noroeste,17/02/2019,0.0,20.5,10.0,0.0,Arizkun
Zona_Noroeste,18/02/2019,0.0,19.5,2.0,0.0,Arizkun
Zona_Noroeste,19/02/2019,0.0,14.5,2.0,0.0,Arizkun
Zona_Noroeste,20/02/2019,0.0,18.5,-0.5,0.0,Arizkun
Zona_Noroeste,21/02/2019,0.0,20.5,0.5,0.0,Arizkun
Zona_Noroeste,22/02/2019,0.0,22.5,0.0,0.0,Arizkun
Zona_Noroeste,23/02/2019,0.0,19.5,-1.0,0.0,Arizkun
Zona_Noroeste,24/02/2019,0.0,21.5,-0.5,0.0,Arizkun
Zona_Noroeste,25/02/2019,0.0,22.5,-1.0,0.0,Arizkun
Zona_Noroeste,26/02/2019,0.0,24.0,0.5,0.0,Arizkun
Zona_Noroeste,27/02/2019,0.0,27.0,0.0,0.0,Arizkun
Zona_Noroeste,28/02/2019,0.0,15.5,2.0,0.0,Arizkun
Zona_Noroeste,01/03/2019,0.0,15.5,0.5,0.5,Arizkun
Zona_Noroeste,02/03/2019,0.0,16.0,3.0,0.0,Arizkun
Zona_Noroeste,03/03/2019,0.0,22.5,1.0,0.0,Arizkun
Zona_Noroeste,04/03/2019,0.0,12.5,7.0,0.0,Arizkun
Zona_Noroeste,05/03/2019,0.0,19.0,1.0,0.0,Arizkun
Zona_Noroeste,06/03/2019,0.0,20.0,16.0,6.0,Arizkun
Zona_Noroeste,07/03/2019,0.0,15.5,4.0,6.0,Arizkun
Zona_Noroeste,08/03/2019,0.0,13.0,4.5,2.5,Arizkun
Zona_Noroeste,09/03/2019,0.0,16.0,3.5,1.5,Arizkun
Zona_Noroeste,10/03/2019,0.0,14.5,4.0,6.5,Arizkun
Zona_Noroeste,11/03/2019,0.0,14.0,6.0,0.0,Arizkun
Zona_Noroeste,12/03/2019,0.0,20.0,-1.5,14.0,Arizkun
Zona_Noroeste,13/03/2019,0.0,10.5,4.5,26.0,Arizkun
Zona_Noroeste,14/03/2019,0.0,10.0,6.0,4.0,Arizkun
Zona_Noroeste,15/03/2019,0.0,13.0,7.0,0.0,Arizkun
Zona_Noroeste,16/03/2019,0.0,25.5,0.0,0.0,Arizkun
Zona_Noroeste,17/03/2019,0.0,11.5,5.0,16.0,Arizkun
Zona_Noroeste,18/03/2019,0.0,12.5,4.5,22.0,Arizkun
Zona_Noroeste,19/03/2019,0.0,11.0,6.0,2.0,Arizkun
Zona_Noroeste,20/03/2019,0.0,13.0,7.0,0.0,Arizkun
Zona_Noroeste,21/03/2019,0.0,15.5,-1.5,0.0,Arizkun
Zona_Noroeste,22/03/2019,0.0,21.5,-1.0,0.0,Arizkun
Zona_Noroeste,23/03/2019,0.0,22.5,0.5,0.0,Arizkun
Zona_Noroeste,24/03/2019,0.0,20.0,1.5,0.0,Arizkun
Zona_Noroeste,25/03/2019,0.0,13.5,2.0,0.0,Arizkun
Zona_Noroeste,26/03/2019,0.0,14.0,3.5,0.0,Arizkun
Zona_Noroeste,27/03/2019,0.0,15.0,-1.5,0.0,Arizkun
Zona_Noroeste,28/03/2019,0.0,15.0,-1.0,0.0,Arizkun
Zona_Noroeste,29/03/2019,0.0,21.0,-1.0,0.0,Arizkun
Zona_Noroeste,30/03/2019,0.0,21.5,9.5,0.0,Arizkun
Zona_Noroeste,31/03/2019,0.0,20.5,3.5,3.2,Arizkun
Zona_Noroeste,01/04/2019,0.0,17.0,8.0,0.0,Arizkun
Zona_Noroeste,02/04/2019,0.0,15.5,8.0,6.5,Arizkun
Zona_Noroeste,03/04/2019,0.0,9.0,6.5,15.5,Arizkun
Zona_Noroeste,04/04/2019,0.0,14.0,1.5,0.0,Arizkun
Zona_Noroeste,05/04/2019,0.0,14.5,9.5,6.0,Arizkun
Zona_Noroeste,06/04/2019,0.0,15.5,5.0,7.5,Arizkun
Zona_Noroeste,07/04/2019,0.0,13.5,6.0,3.5,Arizkun
Zona_Noroeste,08/04/2019,0.0,12.0,4.5,4.0,Arizkun
Zona_Noroeste,09/04/2019,0.0,16.0,1.5,3.0,Arizkun
Zona_Noroeste,10/04/2019,0.0,13.0,7.0,13.0,Arizkun
Zona_Noroeste,11/04/2019,0.0,10.0,6.5,4.5,Arizkun
Zona_Noroeste,12/04/2019,0.0,13.0,7.0,0.0,Arizkun
Zona_Noroeste,13/04/2019,0.0,19.0,-1.0,0.0,Arizkun
Zona_Noroeste,14/04/2019,0.0,17.0,7.0,0.0,Arizkun
Zona_Noroeste,15/04/2019,0.0,22.0,5.0,17.5,Arizkun
Zona_Noroeste,16/04/2019,0.0,19.0,10.0,0.0,Arizkun
Zona_Noroeste,17/04/2019,0.0,23.0,9.0,0.0,Arizkun
Zona_Noroeste,18/04/2019,0.0,18.0,14.5,0.0,Arizkun
Zona_Noroeste,19/04/2019,0.0,20.0,9.5,0.0,Arizkun
Zona_Noroeste,20/04/2019,0.0,20.0,6.5,0.0,Arizkun
Zona_Noroeste,21/04/2019,0.0,16.0,5.0,0.0,Arizkun
Zona_Noroeste,22/04/2019,0.0,21.0,8.0,0.0,Arizkun
Zona_Noroeste,23/04/2019,0.0,18.0,10.5,4.0,Arizkun
Zona_Noroeste,24/04/2019,0.0,14.0,4.5,10.0,Arizkun
Zona_Noroeste,25/04/2019,0.0,17.0,9.0,6.0,Arizkun
Zona_Noroeste,26/04/2019,0.0,14.0,6.5,2.5,Arizkun
Zona_Noroeste,27/04/2019,0.0,13.0,7.5,1.7,Arizkun
Zona_Noroeste,28/04/2019,0.0,16.0,7.0,0.0,Arizkun
Zona_Noroeste,29/04/2019,0.0,20.0,3.5,0.0,Arizkun
Zona_Noroeste,30/04/2019,0.0,19.0,4.0,0.0,Arizkun
Zona_Noroeste,01/05/2019,0.0,19.0,15.0,1.5,Arizkun
Zona_Noroeste,02/05/2019,0.0,14.0,9.0,12.0,Arizkun
Zona_Noroeste,03/05/2019,0.0,13.0,8.0,5.0,Arizkun
Zona_Noroeste,04/05/2019,0.0,14.0,7.0,10.0,Arizkun
Zona_Noroeste,05/05/2019,0.0,13.0,2.0,0.0,Arizkun
Zona_Noroeste,06/05/2019,0.0,20.0,1.5,0.0,Arizkun
Zona_Noroeste,07/05/2019,0.0,23.0,3.5,0.0,Arizkun
Zona_Noroeste,08/05/2019,0.0,19.0,15.0,0.0,Arizkun
Zona_Noroeste,09/05/2019,0.0,20.0,5.0,26.0,Arizkun
Zona_Noroeste,10/05/2019,0.0,23.0,10.5,6.0,Arizkun
Zona_Noroeste,11/05/2019,0.0,16.0,11.0,1.0,Arizkun
Zona_Noroeste,12/05/2019,0.0,19.0,7.0,0.0,Arizkun
Zona_Noroeste,13/05/2019,0.0,19.0,7.5,0.0,Arizkun
Zona_Noroeste,14/05/2019,0.0,20.5,4.0,0.0,Arizkun
Zona_Noroeste,15/05/2019,0.0,21.5,4.0,0.0,Arizkun
Zona_Noroeste,16/05/2019,0.0,23.0,9.0,60.0,Arizkun
Zona_Noroeste,17/05/2019,0.0,12.0,10.0,22.0,Arizkun
Zona_Noroeste,18/05/2019,0.0,11.0,7.0,58.0,Arizkun
Zona_Noroeste,19/05/2019,0.0,12.0,8.0,43.0,Arizkun
Zona_Noroeste,20/05/2019,0.0,15.0,8.0,0.0,Arizkun
Zona_Noroeste,21/05/2019,0.0,16.0,6.0,0.0,Arizkun
Zona_Noroeste,22/05/2019,0.0,24.0,9.0,0.0,Arizkun
Zona_Noroeste,23/05/2019,0.0,21.0,7.0,8.0,Arizkun
Zona_Noroeste,24/05/2019,0.0,13.0,12.0,4.5,Arizkun
Zona_Noroeste,25/05/2019,0.0,14.0,12.0,10.0,Arizkun
Zona_Noroeste,26/05/2019,0.0,14.0,11.0,9.0,Arizkun
Zona_Noroeste,27/05/2019,0.0,15.0,11.0,6.0,Arizkun
Zona_Noroeste,28/05/2019,0.0,14.0,10.5,9.0,Arizkun
Zona_Noroeste,29/05/2019,0.0,16.0,11.0,0.0,Arizkun
Zona_Noroeste,30/05/2019,0.0,24.0,5.5,0.0,Arizkun
Zona_Noroeste,31/05/2019,0.0,28.0,9.5,0.0,Arizkun
Zona_Noroeste,01/06/2019,0.0,31.5,10.0,0.0,Arizkun
Zona_Noroeste,02/06/2019,0.0,31.0,10.5,0.0,Arizkun
Zona_Noroeste,03/06/2019,0.0,25.0,11.5,0.0,Arizkun
Zona_Noroeste,04/06/2019,0.0,28.0,12.5,25.0,Arizkun
Zona_Noroeste,05/06/2019,0.0,14.0,11.0,23.0,Arizkun
Zona_Noroeste,06/06/2019,0.0,25.0,8.5,0.0,Arizkun
Zona_Noroeste,07/06/2019,0.0,18.0,10.0,2.0,Arizkun
Zona_Noroeste,08/06/2019,0.0,21.0,4.0,0.0,Arizkun
Zona_Noroeste,09/06/2019,0.0,21.0,13.0,5.2,Arizkun
Zona_Noroeste,10/06/2019,0.0,14.0,11.0,2.0,Arizkun
Zona_Noroeste,11/06/2019,0.0,14.0,10.0,8.0,Arizkun
Zona_Noroeste,12/06/2019,0.0,18.0,5.5,0.0,Arizkun
Zona_Noroeste,13/06/2019,0.0,20.0,6.0,1.5,Arizkun
Zona_Noroeste,14/06/2019,0.0,16.0,11.0,6.0,Arizkun
Zona_Noroeste,15/06/2019,0.0,20.0,12.0,0.0,Arizkun
Zona_Noroeste,16/06/2019,0.0,26.0,8.5,0.0,Arizkun
Zona_Noroeste,17/06/2019,0.0,30.0,9.5,0.0,Arizkun
Zona_Noroeste,18/06/2019,0.0,32.0,13.0,0.0,Arizkun
Zona_Noroeste,19/06/2019,0.0,24.0,12.0,0.5,Arizkun
Zona_Noroeste,20/06/2019,0.0,17.0,15.0,11.0,Arizkun
Zona_Noroeste,21/06/2019,0.0,18.0,13.0,0.0,Arizkun
Zona_Noroeste,22/06/2019,0.0,28.0,9.0,0.0,Arizkun
Zona_Noroeste,23/06/2019,0.0,32.0,12.5,0.0,Arizkun
Zona_Noroeste,24/06/2019,0.0,24.0,13.0,0.0,Arizkun
Zona_Noroeste,25/06/2019,0.0,29.0,15.0,0.0,Arizkun
Zona_Noroeste,26/06/2019,0.0,35.0,17.0,0.0,Arizkun
Zona_Noroeste,27/06/2019,0.0,36.0,15.5,0.0,Arizkun
Zona_Noroeste,28/06/2019,0.0,28.5,15.5,0.0,Arizkun
Zona_Noroeste,29/06/2019,0.0,28.0,16.5,0.0,Arizkun
Zona_Noroeste,30/06/2019,0.0,24.0,17.0,0.0,Arizkun
Zona_Noroeste,01/07/2019,0.0,19.0,15.0,2.2,Arizkun
Zona_Noroeste,02/07/2019,0.0,23.0,16.5,0.0,Arizkun
Zona_Noroeste,03/07/2019,0.0,28.0,16.0,0.0,Arizkun
Zona_Noroeste,04/07/2019,0.0,33.5,19.0,0.0,Arizkun
Zona_Noroeste,05/07/2019,0.0,29.0,15.5,0.0,Arizkun
Zona_Noroeste,06/07/2019,0.0,27.0,19.0,0.8,Arizkun
Zona_Noroeste,07/07/2019,0.0,22.0,18.0,6.5,Arizkun
Zona_Noroeste,08/07/2019,0.0,20.5,17.5,38.5,Arizkun
Zona_Noroeste,09/07/2019,0.0,22.0,17.0,8.2,Arizkun
Zona_Noroeste,10/07/2019,0.0,24.0,14.0,0.0,Arizkun
Zona_Noroeste,11/07/2019,0.0,26.0,15.0,0.0,Arizkun
Zona_Noroeste,12/07/2019,0.0,28.0,12.0,0.0,Arizkun
Zona_Noroeste,13/07/2019,0.0,25.0,13.0,0.0,Arizkun
Zona_Noroeste,14/07/2019,0.0,25.0,15.5,0.0,Arizkun
Zona_Noroeste,15/07/2019,0.0,24.0,12.5,0.0,Arizkun
Zona_Noroeste,16/07/2019,0.0,25.0,12.5,0.0,Arizkun
Zona_Noroeste,17/07/2019,0.0,25.5,15.5,0.0,Arizkun
Zona_Noroeste,18/07/2019,0.0,24.0,16.0,0.0,Arizkun
Zona_Noroeste,19/07/2019,0.0,30.5,14.0,0.0,Arizkun
Zona_Noroeste,20/07/2019,0.0,21.5,19.0,0.0,Arizkun
Zona_Noroeste,21/07/2019,0.0,25.0,18.5,0.0,Arizkun
Zona_Noroeste,22/07/2019,0.0,33.0,19.0,0.0,Arizkun
Zona_Noroeste,23/07/2019,0.0,37.5,17.0,0.3,Arizkun
Zona_Noroeste,24/07/2019,0.0,37.0,15.5,0.0,Arizkun
Zona_Noroeste,25/07/2019,0.0,35.0,17.5,19.0,Arizkun
Zona_Noroeste,26/07/2019,0.0,21.0,19.0,10.0,Arizkun
Zona_Noroeste,27/07/2019,0.0,17.0,15.5,32.0,Arizkun
Zona_Noroeste,28/07/2019,0.0,23.0,14.5,0.0,Arizkun
Zona_Noroeste,29/07/2019,0.0,28.5,9.0,1.0,Arizkun
Zona_Noroeste,30/07/2019,0.0,19.5,11.5,0.0,Arizkun
Zona_Noroeste,31/07/2019,0.0,23.0,10.5,17.0,Arizkun
Zona_Noroeste,01/08/2019,0.0,25.0,12.5,1.0,Arizkun
Zona_Noroeste,02/08/2019,0.0,25.0,15.5,0.0,Arizkun
Zona_Noroeste,03/08/2019,0.0,29.5,13.0,0.0,Arizkun
Zona_Noroeste,04/08/2019,0.0,23.5,15.5,0.0,Arizkun
Zona_Noroeste,05/08/2019,0.0,23.0,18.5,0.0,Arizkun
Zona_Noroeste,06/08/2019,0.0,27.0,18.5,2.0,Arizkun
Zona_Noroeste,07/08/2019,0.0,26.5,18.0,0.0,Arizkun
Zona_Noroeste,08/08/2019,0.0,34.0,16.0,0.0,Arizkun
Zona_Noroeste,09/08/2019,0.0,32.0,19.0,2.6,Arizkun
Zona_Noroeste,10/08/2019,0.0,23.0,16.5,8.5,Arizkun
Zona_Noroeste,11/08/2019,0.0,20.5,16.0,1.3,Arizkun
Zona_Noroeste,12/08/2019,0.0,20.0,15.0,4.2,Arizkun
Zona_Noroeste,13/08/2019,0.0,22.0,13.0,0.0,Arizkun
Zona_Noroeste,14/08/2019,0.0,26.0,10.5,3.6,Arizkun
Zona_Noroeste,15/08/2019,0.0,21.5,17.0,0.0,Arizkun
Zona_Noroeste,16/08/2019,0.0,28.0,10.0,0.0,Arizkun
Zona_Noroeste,17/08/2019,0.0,28.5,11.5,0.0,Arizkun
Zona_Noroeste,18/08/2019,0.0,24.5,14.5,3.5,Arizkun
Zona_Noroeste,19/08/2019,0.0,22.0,15.0,6.0,Arizkun
Zona_Noroeste,20/08/2019,0.0,20.0,14.5,0.0,Arizkun
Zona_Noroeste,21/08/2019,0.0,25.5,10.5,0.0,Arizkun
Zona_Noroeste,22/08/2019,0.0,25.0,8.5,0.0,Arizkun
Zona_Noroeste,23/08/2019,0.0,32.5,9.0,0.0,Arizkun
Zona_Noroeste,24/08/2019,0.0,31.5,11.5,0.0,Arizkun
Zona_Noroeste,25/08/2019,0.0,26.0,17.0,0.0,Arizkun
Zona_Noroeste,26/08/2019,0.0,30.0,19.0,0.0,Arizkun
Zona_Noroeste,27/08/2019,0.0,24.5,17.5,0.0,Arizkun
Zona_Noroeste,28/08/2019,0.0,28.0,17.0,0.0,Arizkun
Zona_Noroeste,29/08/2019,0.0,27.5,15.5,0.0,Arizkun
Zona_Noroeste,30/08/2019,0.0,28.0,15.0,0.0,Arizkun
Zona_Noroeste,31/08/2019,0.0,25.0,17.0,0.0,Arizkun
Zona_Noroeste,01/09/2019,0.0,24.5,14.5,0.4,Arizkun
Zona_Noroeste,02/09/2019,0.0,21.5,12.0,0.0,Arizkun
Zona_Noroeste,03/09/2019,0.0,24.5,7.0,0.0,Arizkun
Zona_Noroeste,04/09/2019,0.0,23.5,6.5,5.2,Arizkun
Zona_Noroeste,05/09/2019,0.0,19.5,11.5,0.0,Arizkun
Zona_Noroeste,06/09/2019,0.0,20.0,8.0,0.0,Arizkun
Zona_Noroeste,07/09/2019,0.0,21.0,5.0,0.5,Arizkun
Zona_Noroeste,08/09/2019,0.0,21.5,10.0,0.1,Arizkun
Zona_Noroeste,09/09/2019,0.0,20.0,4.5,8.7,Arizkun
Zona_Noroeste,10/09/2019,0.0,18.5,10.0,16.7,Arizkun
Zona_Noroeste,11/09/2019,0.0,21.0,11.0,0.0,Arizkun
Zona_Noroeste,12/09/2019,0.0,24.5,7.5,0.0,Arizkun
Zona_Noroeste,13/09/2019,0.0,25.0,9.5,0.0,Arizkun
Zona_Noroeste,14/09/2019,0.0,27.5,12.0,0.0,Arizkun
Zona_Noroeste,15/09/2019,0.0,27.0,13.5,1.0,Arizkun
Zona_Noroeste,16/09/2019,0.0,27.0,15.0,0.0,Arizkun
Zona_Noroeste,17/09/2019,0.0,26.0,13.5,0.0,Arizkun
Zona_Noroeste,18/09/2019,0.0,25.5,15.5,0.0,Arizkun
Zona_Noroeste,19/09/2019,0.0,24.5,13.5,0.0,Arizkun
Zona_Noroeste,20/09/2019,0.0,29.5,13.0,0.0,Arizkun
Zona_Noroeste,21/09/2019,0.0,25.0,18.5,17.1,Arizkun
Zona_Noroeste,22/09/2019,0.0,21.0,15.0,0.5,Arizkun
Zona_Noroeste,23/09/2019,0.0,23.0,9.5,0.0,Arizkun
Zona_Noroeste,24/09/2019,0.0,25.0,11.0,0.3,Arizkun
Zona_Noroeste,25/09/2019,0.0,19.5,14.5,0.0,Arizkun
Zona_Noroeste,26/09/2019,0.0,22.5,10.5,0.0,Arizkun
Zona_Noroeste,27/09/2019,0.0,23.5,12.0,0.0,Arizkun
Zona_Noroeste,28/09/2019,0.0,23.0,14.0,0.0,Arizkun
Zona_Noroeste,29/09/2019,0.0,28.5,8.5,0.0,Arizkun
Zona_Noroeste,30/09/2019,0.0,26.0,12.0,0.0,Arizkun
Zona_Noroeste,01/10/2019,0.0,0.0,0.0,0.0,Arizkun
Zona_Noroeste,02/10/2019,0.0,16.5,0.0,12.0,Arizkun
Zona_Noroeste,03/10/2019,0.0,0.0,9.5,0.0,Arizkun
Zona_Noroeste,04/10/2019,0.0,16.5,0.0,2.7,Arizkun
Zona_Noroeste,05/10/2019,0.0,0.0,13.0,0.0,Arizkun
Zona_Noroeste,06/10/2019,0.0,0.0,0.0,0.0,Arizkun
Zona_Noroeste,07/10/2019,0.0,0.0,0.0,0.0,Arizkun
Zona_Noroeste,08/10/2019,0.0,0.0,0.0,0.0,Arizkun
Zona_Noroeste,09/10/2019,0.0,0.0,0.0,0.0,Arizkun
Zona_Noroeste,10/10/2019,0.0,0.0,0.0,0.0,Arizkun
Zona_Noroeste,11/10/2019,0.0,0.0,0.0,0.0,Arizkun
Zona_Noroeste,12/10/2019,0.0,25.5,0.0,0.0,Arizkun
Zona_Noroeste,13/10/2019,0.0,27.5,0.0,0.0,Arizkun
Zona_Noroeste,14/10/2019,0.0,0.0,15.5,0.0,Arizkun
Zona_Noroeste,15/10/2019,0.0,18.0,0.0,0.0,Arizkun
Zona_Noroeste,16/10/2019,0.0,20.5,6.5,3.0,Arizkun
Zona_Noroeste,17/10/2019,0.0,21.5,12.0,1.5,Arizkun
Zona_Noroeste,18/10/2019,0.0,17.0,11.5,0.3,Arizkun
Zona_Noroeste,19/10/2019,0.0,20.5,12.0,8.5,Arizkun
Zona_Noroeste,20/10/2019,0.0,0.0,12.5,0.0,Arizkun
Zona_Noroeste,21/10/2019,0.0,16.0,0.0,0.2,Arizkun
Zona_Noroeste,22/10/2019,0.0,0.0,6.5,0.0,Arizkun
Zona_Noroeste,23/10/2019,0.0,0.0,0.0,0.0,Arizkun
Zona_Noroeste,24/10/2019,0.0,0.0,0.0,0.0,Arizkun
Zona_Noroeste,25/10/2019,0.0,0.0,0.0,0.0,Arizkun
Zona_Noroeste,26/10/2019,0.0,23.5,0.0,0.0,Arizkun
Zona_Noroeste,27/10/2019,0.0,0.0,6.0,0.0,Arizkun
Zona_Noroeste,28/10/2019,0.0,19.0,0.0,0.0,Arizkun
Zona_Noroeste,29/10/2019,0.0,23.0,8.5,0.0,Arizkun
Zona_Noroeste,30/10/2019,0.0,0.0,7.0,0.0,Arizkun
Zona_Noroeste,31/10/2019,0.0,0.0,0.0,0.0,Arizkun
Zona_Noroeste,01/11/2019,0.0,0.0,0.0,0.0,Arizkun
Zona_Noroeste,02/11/2019,0.0,0.0,0.0,0.0,Arizkun
Zona_Noroeste,03/11/2019,0.0,0.0,0.0,0.0,Arizkun
Zona_Noroeste,04/11/2019,0.0,0.0,0.0,0.0,Arizkun
Zona_Noroeste,05/11/2019,0.0,0.0,0.0,0.0,Arizkun
Zona_Noroeste,06/11/2019,0.0,0.0,0.0,0.0,Arizkun
Zona_Noroeste,07/11/2019,0.0,11.0,0.0,15.0,Arizkun
Zona_Noroeste,08/11/2019,0.0,8.0,3.5,56.0,Arizkun
Zona_Noroeste,09/11/2019,0.0,11.0,5.5,58.0,Arizkun
Zona_Noroeste,10/11/2019,0.0,0.0,4.0,0.0,Arizkun
Zona_Noroeste,11/11/2019,0.0,0.0,0.0,0.0,Arizkun
Zona_Noroeste,12/11/2019,0.0,9.0,0.0,9.5,Arizkun
Zona_Noroeste,13/11/2019,0.0,12.0,7.0,21.0,Arizkun
Zona_Noroeste,14/11/2019,0.0,11.0,4.0,11.0,Arizkun
Zona_Noroeste,15/11/2019,0.0,7.0,3.5,10.0,Arizkun
Zona_Noroeste,16/11/2019,0.0,0.0,2.0,0.0,Arizkun
Zona_Noroeste,17/11/2019,0.0,8.0,0.0,19.0,Arizkun
Zona_Noroeste,18/11/2019,0.0,0.0,4.0,0.0,Arizkun
Zona_Noroeste,19/11/2019,0.0,0.0,0.0,0.0,Arizkun
Zona_Noroeste,20/11/2019,0.0,0.0,0.0,0.0,Arizkun
Zona_Noroeste,21/11/2019,0.0,0.0,0.0,0.0,Arizkun
Zona_Noroeste,22/11/2019,0.0,0.0,0.0,0.0,Arizkun
Zona_Noroeste,23/11/2019,0.0,11.0,0.0,75.0,Arizkun
Zona_Noroeste,24/11/2019,0.0,0.0,7.5,0.0,Arizkun
Zona_Noroeste,25/11/2019,0.0,17.0,0.0,0.0,Arizkun
Zona_Noroeste,26/11/2019,0.0,17.0,0.0,2.5,Arizkun
Zona_Noroeste,27/11/2019,0.0,0.0,6.0,0.0,Arizkun
Zona_Noroeste,28/11/2019,0.0,0.0,0.0,0.0,Arizkun
Zona_Noroeste,29/11/2019,0.0,0.0,0.0,0.0,Arizkun
Zona_Noroeste,30/11/2019,0.0,15.5,0.0,2.7,Arizkun
Zona_Noroeste,01/12/2019,0.0,0.0,3.0,0.0,Arizkun
Zona_Noroeste,02/12/2019,0.0,0.0,0.0,0.0,Arizkun
Zona_Noroeste,03/12/2019,0.0,0.0,0.0,0.0,Arizkun
Zona_Noroeste,04/12/2019,0.0,0.0,0.0,0.0,Arizkun
Zona_Noroeste,05/12/2019,0.0,0.0,0.0,0.0,Arizkun
Zona_Noroeste,06/12/2019,0.0,0.0,0.0,0.0,Arizkun
Zona_Noroeste,07/12/2019,0.0,0.0,0.0,0.0,Arizkun
Zona_Noroeste,08/12/2019,0.0,0.0,0.0,0.0,Arizkun
Zona_Noroeste,09/12/2019,0.0,0.0,0.0,0.0,Arizkun
Zona_Noroeste,10/12/2019,0.0,0.0,0.0,0.0,Arizkun
Zona_Noroeste,11/12/2019,0.0,0.0,0.0,0.0,Arizkun
Zona_Noroeste,12/12/2019,0.0,0.0,0.0,0.0,Arizkun
Zona_Noroeste,13/12/2019,0.0,0.0,0.0,0.0,Arizkun
Zona_Noroeste,14/12/2019,0.0,0.0,0.0,0.0,Arizkun
Zona_Noroeste,15/12/2019,0.0,0.0,0.0,0.0,Arizkun
Zona_Noroeste,16/12/2019,0.0,0.0,0.0,0.0,Arizkun
Zona_Noroeste,17/12/2019,0.0,0.0,0.0,0.0,Arizkun
Zona_Noroeste,18/12/2019,0.0,0.0,0.0,0.0,Arizkun
Zona_Noroeste,19/12/2019,0.0,0.0,0.0,0.0,Arizkun
Zona_Noroeste,20/12/2019,0.0,0.0,0.0,0.0,Arizkun
Zona_Noroeste,21/12/2019,0.0,0.0,0.0,0.0,Arizkun
Zona_Noroeste,22/12/2019,0.0,0.0,0.0,0.0,Arizkun
Zona_Noroeste,23/12/2019,0.0,0.0,0.0,0.0,Arizkun
Zona_Noroeste,24/12/2019,0.0,0.0,0.0,0.0,Arizkun
Zona_Noroeste,25/12/2019,0.0,0.0,0.0,0.0,Arizkun
Zona_Noroeste,26/12/2019,0.0,0.0,0.0,0.0,Arizkun
Zona_Noroeste,27/12/2019,0.0,0.0,0.0,0.0,Arizkun
