Comarca,Fecha, Temperatura media, Temperatura maxima, Temperatura minima, Precipitacion acumulada,Localidad
Zona_Noroeste,01/01/2013,0.0,0.0,0.0,24.6,Belate
Zona_Noroeste,02/01/2013,0.0,0.0,0.0,4.0,Belate
Zona_Noroeste,03/01/2013,0.0,0.0,0.0,0.0,Belate
Zona_Noroeste,04/01/2013,0.0,0.0,0.0,0.0,Belate
Zona_Noroeste,05/01/2013,0.0,0.0,0.0,0.0,Belate
Zona_Noroeste,06/01/2013,0.0,0.0,0.0,0.0,Belate
Zona_Noroeste,07/01/2013,0.0,0.0,0.0,0.0,Belate
Zona_Noroeste,08/01/2013,0.0,0.0,0.0,0.0,Belate
Zona_Noroeste,09/01/2013,0.0,0.0,0.0,0.0,Belate
Zona_Noroeste,10/01/2013,0.0,0.0,0.0,4.0,Belate
Zona_Noroeste,11/01/2013,0.0,0.0,0.0,0.0,Belate
Zona_Noroeste,12/01/2013,0.0,0.0,0.0,18.4,Belate
Zona_Noroeste,13/01/2013,0.0,0.0,0.0,30.4,Belate
Zona_Noroeste,14/01/2013,0.0,0.0,0.0,39.6,Belate
Zona_Noroeste,15/01/2013,0.0,0.0,0.0,59.0,Belate
Zona_Noroeste,16/01/2013,0.0,0.0,0.0,54.4,Belate
Zona_Noroeste,17/01/2013,0.0,0.0,0.0,4.0,Belate
Zona_Noroeste,18/01/2013,0.0,0.0,0.0,34.3,Belate
Zona_Noroeste,19/01/2013,0.0,0.0,0.0,30.2,Belate
Zona_Noroeste,20/01/2013,0.0,0.0,0.0,18.0,Belate
Zona_Noroeste,21/01/2013,0.0,0.0,0.0,30.0,Belate
Zona_Noroeste,22/01/2013,0.0,0.0,0.0,15.2,Belate
Zona_Noroeste,23/01/2013,0.0,0.0,0.0,42.2,Belate
Zona_Noroeste,24/01/2013,0.0,0.0,0.0,15.0,Belate
Zona_Noroeste,25/01/2013,0.0,0.0,0.0,32.0,Belate
Zona_Noroeste,26/01/2013,0.0,0.0,0.0,10.0,Belate
Zona_Noroeste,27/01/2013,0.0,0.0,0.0,8.2,Belate
Zona_Noroeste,28/01/2013,0.0,0.0,0.0,3.0,Belate
Zona_Noroeste,29/01/2013,0.0,0.0,0.0,0.0,Belate
Zona_Noroeste,30/01/2013,0.0,0.0,0.0,0.0,Belate
Zona_Noroeste,31/01/2013,0.0,0.0,0.0,2.2,Belate
Zona_Noroeste,01/02/2013,0.0,0.0,0.0,25.6,Belate
Zona_Noroeste,02/02/2013,0.0,0.0,0.0,41.0,Belate
Zona_Noroeste,03/02/2013,0.0,0.0,0.0,10.6,Belate
Zona_Noroeste,04/02/2013,0.0,0.0,0.0,16.0,Belate
Zona_Noroeste,05/02/2013,0.0,0.0,0.0,10.2,Belate
Zona_Noroeste,06/02/2013,0.0,0.0,0.0,30.0,Belate
Zona_Noroeste,07/02/2013,0.0,0.0,0.0,40.2,Belate
Zona_Noroeste,08/02/2013,0.0,0.0,0.0,35.0,Belate
Zona_Noroeste,09/02/2013,0.0,0.0,0.0,22.4,Belate
Zona_Noroeste,10/02/2013,0.0,0.0,0.0,23.3,Belate
Zona_Noroeste,11/02/2013,0.0,0.0,0.0,34.6,Belate
Zona_Noroeste,12/02/2013,0.0,0.0,0.0,30.0,Belate
Zona_Noroeste,13/02/2013,0.0,0.0,0.0,28.5,Belate
Zona_Noroeste,14/02/2013,0.0,0.0,0.0,2.2,Belate
Zona_Noroeste,15/02/2013,0.0,0.0,0.0,0.0,Belate
Zona_Noroeste,16/02/2013,0.0,0.0,0.0,0.0,Belate
Zona_Noroeste,17/02/2013,0.0,0.0,0.0,1.2,Belate
Zona_Noroeste,18/02/2013,0.0,0.0,0.0,0.9,Belate
Zona_Noroeste,19/02/2013,0.0,0.0,0.0,0.0,Belate
Zona_Noroeste,20/02/2013,0.0,0.0,0.0,0.0,Belate
Zona_Noroeste,21/02/2013,0.0,0.0,0.0,0.0,Belate
Zona_Noroeste,22/02/2013,0.0,0.0,0.0,3.0,Belate
Zona_Noroeste,23/02/2013,0.0,0.0,0.0,7.0,Belate
Zona_Noroeste,24/02/2013,0.0,0.0,0.0,10.2,Belate
Zona_Noroeste,25/02/2013,0.0,0.0,0.0,15.0,Belate
Zona_Noroeste,26/02/2013,0.0,0.0,0.0,1.6,Belate
Zona_Noroeste,27/02/2013,0.0,0.0,0.0,0.0,Belate
Zona_Noroeste,28/02/2013,0.0,0.0,0.0,5.0,Belate
Zona_Noroeste,01/03/2013,0.0,0.0,0.0,0.0,Belate
Zona_Noroeste,02/03/2013,0.0,0.0,0.0,0.0,Belate
Zona_Noroeste,03/03/2013,0.0,0.0,0.0,0.0,Belate
Zona_Noroeste,04/03/2013,0.0,0.0,0.0,0.0,Belate
Zona_Noroeste,05/03/2013,0.0,0.0,0.0,6.4,Belate
Zona_Noroeste,06/03/2013,0.0,0.0,0.0,0.0,Belate
Zona_Noroeste,07/03/2013,0.0,0.0,0.0,14.9,Belate
Zona_Noroeste,08/03/2013,0.0,0.0,0.0,1.4,Belate
Zona_Noroeste,09/03/2013,0.0,0.0,0.0,0.0,Belate
Zona_Noroeste,10/03/2013,0.0,0.0,0.0,0.0,Belate
Zona_Noroeste,11/03/2013,0.0,0.0,0.0,4.0,Belate
Zona_Noroeste,12/03/2013,0.0,0.0,0.0,10.2,Belate
Zona_Noroeste,13/03/2013,0.0,0.0,0.0,32.4,Belate
Zona_Noroeste,14/03/2013,0.0,0.0,0.0,23.0,Belate
Zona_Noroeste,15/03/2013,0.0,0.0,0.0,0.0,Belate
Zona_Noroeste,16/03/2013,0.0,0.0,0.0,8.0,Belate
Zona_Noroeste,17/03/2013,0.0,0.0,0.0,14.2,Belate
Zona_Noroeste,18/03/2013,0.0,0.0,0.0,3.0,Belate
Zona_Noroeste,19/03/2013,0.0,0.0,0.0,1.6,Belate
Zona_Noroeste,20/03/2013,0.0,0.0,0.0,0.0,Belate
Zona_Noroeste,21/03/2013,0.0,0.0,0.0,0.0,Belate
Zona_Noroeste,22/03/2013,0.0,0.0,0.0,0.0,Belate
Zona_Noroeste,23/03/2013,0.0,0.0,0.0,0.0,Belate
Zona_Noroeste,24/03/2013,0.0,0.0,0.0,1.8,Belate
Zona_Noroeste,25/03/2013,0.0,0.0,0.0,7.4,Belate
Zona_Noroeste,26/03/2013,0.0,0.0,0.0,4.0,Belate
Zona_Noroeste,27/03/2013,0.0,0.0,0.0,24.5,Belate
Zona_Noroeste,28/03/2013,0.0,0.0,0.0,7.0,Belate
Zona_Noroeste,29/03/2013,0.0,0.0,0.0,40.0,Belate
Zona_Noroeste,30/03/2013,0.0,0.0,0.0,7.8,Belate
Zona_Noroeste,31/03/2013,0.0,0.0,0.0,8.0,Belate
Zona_Noroeste,01/04/2013,0.0,0.0,0.0,4.0,Belate
Zona_Noroeste,02/04/2013,0.0,0.0,0.0,8.0,Belate
Zona_Noroeste,03/04/2013,0.0,0.0,0.0,2.4,Belate
Zona_Noroeste,04/04/2013,0.0,0.0,0.0,16.0,Belate
Zona_Noroeste,05/04/2013,0.0,0.0,0.0,24.4,Belate
Zona_Noroeste,06/04/2013,0.0,0.0,0.0,4.2,Belate
Zona_Noroeste,07/04/2013,0.0,0.0,0.0,3.0,Belate
Zona_Noroeste,08/04/2013,0.0,0.0,0.0,0.0,Belate
Zona_Noroeste,09/04/2013,0.0,0.0,0.0,4.1,Belate
Zona_Noroeste,10/04/2013,0.0,0.0,0.0,0.0,Belate
Zona_Noroeste,11/04/2013,0.0,0.0,0.0,3.0,Belate
Zona_Noroeste,12/04/2013,0.0,0.0,0.0,0.0,Belate
Zona_Noroeste,13/04/2013,0.0,0.0,0.0,0.0,Belate
Zona_Noroeste,14/04/2013,0.0,0.0,0.0,0.0,Belate
Zona_Noroeste,15/04/2013,0.0,0.0,0.0,0.0,Belate
Zona_Noroeste,16/04/2013,0.0,0.0,0.0,0.0,Belate
Zona_Noroeste,17/04/2013,0.0,0.0,0.0,0.0,Belate
Zona_Noroeste,18/04/2013,0.0,0.0,0.0,7.2,Belate
Zona_Noroeste,19/04/2013,0.0,0.0,0.0,1.4,Belate
Zona_Noroeste,20/04/2013,0.0,0.0,0.0,0.0,Belate
Zona_Noroeste,21/04/2013,0.0,0.0,0.0,0.0,Belate
Zona_Noroeste,22/04/2013,0.0,0.0,0.0,0.0,Belate
Zona_Noroeste,23/04/2013,0.0,0.0,0.0,0.0,Belate
Zona_Noroeste,24/04/2013,0.0,0.0,0.0,0.0,Belate
Zona_Noroeste,25/04/2013,0.0,0.0,0.0,2.0,Belate
Zona_Noroeste,26/04/2013,0.0,0.0,0.0,1.7,Belate
Zona_Noroeste,27/04/2013,0.0,0.0,0.0,20.6,Belate
Zona_Noroeste,28/04/2013,0.0,0.0,0.0,15.2,Belate
Zona_Noroeste,29/04/2013,0.0,0.0,0.0,14.0,Belate
Zona_Noroeste,30/04/2013,0.0,0.0,0.0,6.4,Belate
Zona_Noroeste,01/05/2013,0.0,0.0,0.0,3.0,Belate
Zona_Noroeste,02/05/2013,0.0,0.0,0.0,8.2,Belate
Zona_Noroeste,03/05/2013,0.0,0.0,0.0,6.0,Belate
Zona_Noroeste,04/05/2013,0.0,0.0,0.0,0.0,Belate
Zona_Noroeste,05/05/2013,0.0,0.0,0.0,0.0,Belate
Zona_Noroeste,06/05/2013,0.0,0.0,0.0,1.0,Belate
Zona_Noroeste,07/05/2013,0.0,0.0,0.0,2.2,Belate
Zona_Noroeste,08/05/2013,0.0,0.0,0.0,2.0,Belate
Zona_Noroeste,09/05/2013,0.0,0.0,0.0,18.0,Belate
Zona_Noroeste,10/05/2013,0.0,0.0,0.0,4.0,Belate
Zona_Noroeste,11/05/2013,0.0,0.0,0.0,0.0,Belate
Zona_Noroeste,12/05/2013,0.0,0.0,0.0,0.0,Belate
Zona_Noroeste,13/05/2013,0.0,0.0,0.0,0.0,Belate
Zona_Noroeste,14/05/2013,0.0,0.0,0.0,2.4,Belate
Zona_Noroeste,15/05/2013,0.0,0.0,0.0,13.0,Belate
Zona_Noroeste,16/05/2013,0.0,0.0,0.0,3.5,Belate
Zona_Noroeste,17/05/2013,0.0,0.0,0.0,38.8,Belate
Zona_Noroeste,18/05/2013,0.0,0.0,0.0,48.0,Belate
Zona_Noroeste,19/05/2013,0.0,0.0,0.0,12.1,Belate
Zona_Noroeste,20/05/2013,0.0,0.0,0.0,0.0,Belate
Zona_Noroeste,21/05/2013,0.0,0.0,0.0,16.2,Belate
Zona_Noroeste,22/05/2013,0.0,0.0,0.0,20.4,Belate
Zona_Noroeste,23/05/2013,0.0,0.0,0.0,8.0,Belate
Zona_Noroeste,24/05/2013,0.0,0.0,0.0,3.0,Belate
Zona_Noroeste,25/05/2013,0.0,0.0,0.0,4.0,Belate
Zona_Noroeste,26/05/2013,0.0,0.0,0.0,0.0,Belate
Zona_Noroeste,27/05/2013,0.0,0.0,0.0,25.2,Belate
Zona_Noroeste,28/05/2013,0.0,0.0,0.0,24.0,Belate
Zona_Noroeste,29/05/2013,0.0,0.0,0.0,31.5,Belate
Zona_Noroeste,30/05/2013,0.0,0.0,0.0,40.2,Belate
Zona_Noroeste,31/05/2013,0.0,0.0,0.0,34.0,Belate
Zona_Noroeste,01/06/2013,0.0,0.0,0.0,13.8,Belate
Zona_Noroeste,02/06/2013,0.0,0.0,0.0,4.0,Belate
Zona_Noroeste,03/06/2013,0.0,0.0,0.0,0.0,Belate
Zona_Noroeste,04/06/2013,0.0,0.0,0.0,0.0,Belate
Zona_Noroeste,05/06/2013,0.0,0.0,0.0,0.0,Belate
Zona_Noroeste,06/06/2013,0.0,0.0,0.0,4.3,Belate
Zona_Noroeste,07/06/2013,0.0,0.0,0.0,6.0,Belate
Zona_Noroeste,08/06/2013,0.0,0.0,0.0,64.2,Belate
Zona_Noroeste,09/06/2013,0.0,0.0,0.0,50.0,Belate
Zona_Noroeste,10/06/2013,0.0,0.0,0.0,4.2,Belate
Zona_Noroeste,11/06/2013,0.0,0.0,0.0,1.6,Belate
Zona_Noroeste,12/06/2013,0.0,0.0,0.0,0.0,Belate
Zona_Noroeste,13/06/2013,0.0,0.0,0.0,0.0,Belate
Zona_Noroeste,14/06/2013,0.0,0.0,0.0,3.8,Belate
Zona_Noroeste,15/06/2013,0.0,0.0,0.0,0.0,Belate
Zona_Noroeste,16/06/2013,0.0,0.0,0.0,0.0,Belate
Zona_Noroeste,17/06/2013,0.0,0.0,0.0,14.5,Belate
Zona_Noroeste,18/06/2013,0.0,0.0,0.0,30.0,Belate
Zona_Noroeste,19/06/2013,0.0,0.0,0.0,2.4,Belate
Zona_Noroeste,20/06/2013,0.0,0.0,0.0,12.0,Belate
Zona_Noroeste,21/06/2013,0.0,0.0,0.0,14.4,Belate
Zona_Noroeste,22/06/2013,0.0,0.0,0.0,0.0,Belate
Zona_Noroeste,23/06/2013,0.0,0.0,0.0,0.0,Belate
Zona_Noroeste,24/06/2013,0.0,0.0,0.0,0.0,Belate
Zona_Noroeste,25/06/2013,0.0,0.0,0.0,0.0,Belate
Zona_Noroeste,26/06/2013,0.0,0.0,0.0,0.0,Belate
Zona_Noroeste,27/06/2013,0.0,0.0,0.0,0.0,Belate
Zona_Noroeste,28/06/2013,0.0,0.0,0.0,0.0,Belate
Zona_Noroeste,29/06/2013,0.0,0.0,0.0,0.0,Belate
Zona_Noroeste,30/06/2013,0.0,0.0,0.0,0.0,Belate
Zona_Noroeste,01/07/2013,0.0,0.0,0.0,0.0,Belate
Zona_Noroeste,02/07/2013,0.0,0.0,0.0,0.0,Belate
Zona_Noroeste,03/07/2013,0.0,0.0,0.0,4.0,Belate
Zona_Noroeste,04/07/2013,0.0,0.0,0.0,1.3,Belate
Zona_Noroeste,05/07/2013,0.0,0.0,0.0,0.0,Belate
Zona_Noroeste,06/07/2013,0.0,0.0,0.0,0.0,Belate
Zona_Noroeste,07/07/2013,0.0,0.0,0.0,0.0,Belate
Zona_Noroeste,08/07/2013,0.0,0.0,0.0,0.0,Belate
Zona_Noroeste,09/07/2013,0.0,0.0,0.0,0.0,Belate
Zona_Noroeste,10/07/2013,0.0,0.0,0.0,0.0,Belate
Zona_Noroeste,11/07/2013,0.0,0.0,0.0,0.0,Belate
Zona_Noroeste,12/07/2013,0.0,0.0,0.0,6.5,Belate
Zona_Noroeste,13/07/2013,0.0,0.0,0.0,0.0,Belate
Zona_Noroeste,14/07/2013,0.0,0.0,0.0,0.0,Belate
Zona_Noroeste,15/07/2013,0.0,0.0,0.0,0.0,Belate
Zona_Noroeste,16/07/2013,0.0,0.0,0.0,8.0,Belate
Zona_Noroeste,17/07/2013,0.0,0.0,0.0,0.0,Belate
Zona_Noroeste,18/07/2013,0.0,0.0,0.0,0.0,Belate
Zona_Noroeste,19/07/2013,0.0,0.0,0.0,0.0,Belate
Zona_Noroeste,20/07/2013,0.0,0.0,0.0,0.0,Belate
Zona_Noroeste,21/07/2013,0.0,0.0,0.0,0.0,Belate
Zona_Noroeste,22/07/2013,0.0,0.0,0.0,6.3,Belate
Zona_Noroeste,23/07/2013,0.0,0.0,0.0,3.0,Belate
Zona_Noroeste,24/07/2013,0.0,0.0,0.0,0.0,Belate
Zona_Noroeste,25/07/2013,0.0,0.0,0.0,0.0,Belate
Zona_Noroeste,26/07/2013,0.0,0.0,0.0,7.2,Belate
Zona_Noroeste,27/07/2013,0.0,0.0,0.0,1.0,Belate
Zona_Noroeste,28/07/2013,0.0,0.0,0.0,4.2,Belate
Zona_Noroeste,29/07/2013,0.0,0.0,0.0,0.0,Belate
Zona_Noroeste,30/07/2013,0.0,0.0,0.0,0.0,Belate
Zona_Noroeste,31/07/2013,0.0,0.0,0.0,0.0,Belate
Zona_Noroeste,01/08/2013,0.0,0.0,0.0,0.0,Belate
Zona_Noroeste,02/08/2013,0.0,0.0,0.0,2.0,Belate
Zona_Noroeste,03/08/2013,0.0,0.0,0.0,0.0,Belate
Zona_Noroeste,04/08/2013,0.0,0.0,0.0,0.0,Belate
Zona_Noroeste,05/08/2013,0.0,0.0,0.0,1.5,Belate
Zona_Noroeste,06/08/2013,0.0,0.0,0.0,3.8,Belate
Zona_Noroeste,07/08/2013,0.0,0.0,0.0,1.8,Belate
Zona_Noroeste,08/08/2013,0.0,0.0,0.0,0.0,Belate
Zona_Noroeste,09/08/2013,0.0,0.0,0.0,0.9,Belate
Zona_Noroeste,10/08/2013,0.0,0.0,0.0,0.0,Belate
Zona_Noroeste,11/08/2013,0.0,0.0,0.0,0.0,Belate
Zona_Noroeste,12/08/2013,0.0,0.0,0.0,0.7,Belate
Zona_Noroeste,13/08/2013,0.0,0.0,0.0,0.6,Belate
Zona_Noroeste,14/08/2013,0.0,0.0,0.0,0.0,Belate
Zona_Noroeste,15/08/2013,0.0,0.0,0.0,0.0,Belate
Zona_Noroeste,16/08/2013,0.0,0.0,0.0,0.0,Belate
Zona_Noroeste,17/08/2013,0.0,0.0,0.0,0.0,Belate
Zona_Noroeste,18/08/2013,0.0,0.0,0.0,0.6,Belate
Zona_Noroeste,19/08/2013,0.0,0.0,0.0,1.8,Belate
Zona_Noroeste,20/08/2013,0.0,0.0,0.0,0.0,Belate
Zona_Noroeste,21/08/2013,0.0,0.0,0.0,0.0,Belate
Zona_Noroeste,22/08/2013,0.0,0.0,0.0,5.0,Belate
Zona_Noroeste,23/08/2013,0.0,0.0,0.0,1.8,Belate
Zona_Noroeste,24/08/2013,0.0,0.0,0.0,6.4,Belate
Zona_Noroeste,25/08/2013,0.0,0.0,0.0,2.0,Belate
Zona_Noroeste,26/08/2013,0.0,0.0,0.0,4.1,Belate
Zona_Noroeste,27/08/2013,0.0,0.0,0.0,0.0,Belate
Zona_Noroeste,28/08/2013,0.0,0.0,0.0,0.0,Belate
Zona_Noroeste,29/08/2013,0.0,0.0,0.0,0.0,Belate
Zona_Noroeste,30/08/2013,0.0,0.0,0.0,0.0,Belate
Zona_Noroeste,31/08/2013,0.0,0.0,0.0,0.8,Belate
Zona_Noroeste,01/09/2013,0.0,0.0,0.0,0.0,Belate
Zona_Noroeste,02/09/2013,0.0,0.0,0.0,0.0,Belate
Zona_Noroeste,03/09/2013,0.0,0.0,0.0,0.0,Belate
Zona_Noroeste,04/09/2013,0.0,0.0,0.0,0.0,Belate
Zona_Noroeste,05/09/2013,0.0,0.0,0.0,0.0,Belate
Zona_Noroeste,06/09/2013,0.0,0.0,0.0,14.3,Belate
Zona_Noroeste,07/09/2013,0.0,0.0,0.0,9.4,Belate
Zona_Noroeste,08/09/2013,0.0,0.0,0.0,0.0,Belate
Zona_Noroeste,09/09/2013,0.0,0.0,0.0,3.6,Belate
Zona_Noroeste,10/09/2013,0.0,0.0,0.0,7.0,Belate
Zona_Noroeste,11/09/2013,0.0,0.0,0.0,4.4,Belate
Zona_Noroeste,12/09/2013,0.0,0.0,0.0,0.9,Belate
Zona_Noroeste,13/09/2013,0.0,0.0,0.0,3.3,Belate
Zona_Noroeste,14/09/2013,0.0,0.0,0.0,2.4,Belate
Zona_Noroeste,15/09/2013,0.0,0.0,0.0,0.0,Belate
Zona_Noroeste,16/09/2013,0.0,0.0,0.0,3.0,Belate
Zona_Noroeste,17/09/2013,0.0,0.0,0.0,8.6,Belate
Zona_Noroeste,18/09/2013,0.0,0.0,0.0,5.4,Belate
Zona_Noroeste,19/09/2013,0.0,0.0,0.0,2.5,Belate
Zona_Noroeste,20/09/2013,0.0,0.0,0.0,7.0,Belate
Zona_Noroeste,21/09/2013,0.0,0.0,0.0,0.0,Belate
Zona_Noroeste,22/09/2013,0.0,0.0,0.0,0.0,Belate
Zona_Noroeste,23/09/2013,0.0,0.0,0.0,0.0,Belate
Zona_Noroeste,24/09/2013,0.0,0.0,0.0,0.0,Belate
Zona_Noroeste,25/09/2013,0.0,0.0,0.0,0.0,Belate
Zona_Noroeste,26/09/2013,0.0,0.0,0.0,0.0,Belate
Zona_Noroeste,27/09/2013,0.0,0.0,0.0,0.0,Belate
Zona_Noroeste,28/09/2013,0.0,0.0,0.0,5.4,Belate
Zona_Noroeste,29/09/2013,0.0,0.0,0.0,12.0,Belate
Zona_Noroeste,30/09/2013,0.0,0.0,0.0,2.4,Belate
Zona_Noroeste,01/10/2013,0.0,0.0,0.0,0.0,Belate
Zona_Noroeste,02/10/2013,0.0,0.0,0.0,0.0,Belate
Zona_Noroeste,03/10/2013,0.0,0.0,0.0,24.0,Belate
Zona_Noroeste,04/10/2013,0.0,0.0,0.0,6.3,Belate
Zona_Noroeste,05/10/2013,0.0,0.0,0.0,5.4,Belate
Zona_Noroeste,06/10/2013,0.0,0.0,0.0,1.3,Belate
Zona_Noroeste,07/10/2013,0.0,0.0,0.0,0.0,Belate
Zona_Noroeste,08/10/2013,0.0,0.0,0.0,0.0,Belate
Zona_Noroeste,09/10/2013,0.0,0.0,0.0,0.0,Belate
Zona_Noroeste,10/10/2013,0.0,0.0,0.0,6.7,Belate
Zona_Noroeste,11/10/2013,0.0,0.0,0.0,1.7,Belate
Zona_Noroeste,12/10/2013,0.0,0.0,0.0,0.0,Belate
Zona_Noroeste,13/10/2013,0.0,0.0,0.0,0.0,Belate
Zona_Noroeste,14/10/2013,0.0,0.0,0.0,0.0,Belate
Zona_Noroeste,15/10/2013,0.0,0.0,0.0,0.0,Belate
Zona_Noroeste,16/10/2013,0.0,0.0,0.0,0.6,Belate
Zona_Noroeste,17/10/2013,0.0,0.0,0.0,0.0,Belate
Zona_Noroeste,18/10/2013,0.0,0.0,0.0,0.0,Belate
Zona_Noroeste,19/10/2013,0.0,0.0,0.0,0.0,Belate
Zona_Noroeste,20/10/2013,0.0,0.0,0.0,0.0,Belate
Zona_Noroeste,21/10/2013,0.0,0.0,0.0,2.0,Belate
Zona_Noroeste,22/10/2013,0.0,0.0,0.0,1.5,Belate
Zona_Noroeste,23/10/2013,0.0,0.0,0.0,0.0,Belate
Zona_Noroeste,24/10/2013,0.0,0.0,0.0,3.0,Belate
Zona_Noroeste,25/10/2013,0.0,0.0,0.0,15.6,Belate
Zona_Noroeste,26/10/2013,0.0,0.0,0.0,0.0,Belate
Zona_Noroeste,27/10/2013,0.0,0.0,0.0,0.0,Belate
Zona_Noroeste,28/10/2013,0.0,0.0,0.0,12.0,Belate
Zona_Noroeste,29/10/2013,0.0,0.0,0.0,20.4,Belate
Zona_Noroeste,30/10/2013,0.0,0.0,0.0,0.0,Belate
Zona_Noroeste,31/10/2013,0.0,0.0,0.0,0.0,Belate
Zona_Noroeste,01/11/2013,0.0,0.0,0.0,0.0,Belate
Zona_Noroeste,02/11/2013,0.0,0.0,0.0,13.4,Belate
Zona_Noroeste,03/11/2013,0.0,0.0,0.0,20.0,Belate
Zona_Noroeste,04/11/2013,0.0,0.0,0.0,34.6,Belate
Zona_Noroeste,05/11/2013,0.0,0.0,0.0,40.2,Belate
Zona_Noroeste,06/11/2013,0.0,0.0,0.0,8.0,Belate
Zona_Noroeste,07/11/2013,0.0,0.0,0.0,0.0,Belate
Zona_Noroeste,08/11/2013,0.0,0.0,0.0,11.2,Belate
Zona_Noroeste,09/11/2013,0.0,0.0,0.0,18.0,Belate
Zona_Noroeste,10/11/2013,0.0,0.0,0.0,36.4,Belate
Zona_Noroeste,11/11/2013,0.0,0.0,0.0,29.0,Belate
Zona_Noroeste,12/11/2013,0.0,0.0,0.0,18.5,Belate
Zona_Noroeste,13/11/2013,0.0,0.0,0.0,13.0,Belate
Zona_Noroeste,14/11/2013,0.0,0.0,0.0,16.2,Belate
Zona_Noroeste,15/11/2013,0.0,0.0,0.0,14.4,Belate
Zona_Noroeste,16/11/2013,0.0,0.0,0.0,25.5,Belate
Zona_Noroeste,17/11/2013,0.0,0.0,0.0,16.7,Belate
Zona_Noroeste,18/11/2013,0.0,0.0,0.0,36.0,Belate
Zona_Noroeste,19/11/2013,0.0,0.0,0.0,36.2,Belate
Zona_Noroeste,20/11/2013,0.0,0.0,0.0,18.2,Belate
Zona_Noroeste,21/11/2013,0.0,0.0,0.0,32.0,Belate
Zona_Noroeste,22/11/2013,0.0,0.0,0.0,23.8,Belate
Zona_Noroeste,23/11/2013,0.0,0.0,0.0,0.0,Belate
Zona_Noroeste,24/11/2013,0.0,0.0,0.0,0.0,Belate
Zona_Noroeste,25/11/2013,0.0,0.0,0.0,0.0,Belate
Zona_Noroeste,26/11/2013,0.0,0.0,0.0,0.0,Belate
Zona_Noroeste,27/11/2013,0.0,0.0,0.0,0.0,Belate
Zona_Noroeste,28/11/2013,0.0,0.0,0.0,14.4,Belate
Zona_Noroeste,29/11/2013,0.0,0.0,0.0,6.0,Belate
Zona_Noroeste,30/11/2013,0.0,0.0,0.0,7.0,Belate
Zona_Noroeste,01/12/2013,0.0,0.0,0.0,0.0,Belate
Zona_Noroeste,02/12/2013,0.0,0.0,0.0,0.0,Belate
Zona_Noroeste,03/12/2013,0.0,0.0,0.0,0.0,Belate
Zona_Noroeste,04/12/2013,0.0,0.0,0.0,1.4,Belate
Zona_Noroeste,05/12/2013,0.0,0.0,0.0,0.9,Belate
Zona_Noroeste,06/12/2013,0.0,0.0,0.0,0.0,Belate
Zona_Noroeste,07/12/2013,0.0,0.0,0.0,0.0,Belate
Zona_Noroeste,08/12/2013,0.0,0.0,0.0,0.0,Belate
Zona_Noroeste,09/12/2013,0.0,0.0,0.0,0.0,Belate
Zona_Noroeste,10/12/2013,0.0,0.0,0.0,0.0,Belate
Zona_Noroeste,11/12/2013,0.0,0.0,0.0,0.0,Belate
Zona_Noroeste,12/12/2013,0.0,0.0,0.0,0.0,Belate
Zona_Noroeste,13/12/2013,0.0,0.0,0.0,8.4,Belate
Zona_Noroeste,14/12/2013,0.0,0.0,0.0,0.0,Belate
Zona_Noroeste,15/12/2013,0.0,0.0,0.0,0.0,Belate
Zona_Noroeste,16/12/2013,0.0,0.0,0.0,0.0,Belate
Zona_Noroeste,17/12/2013,0.0,0.0,0.0,0.0,Belate
Zona_Noroeste,18/12/2013,0.0,0.0,0.0,10.0,Belate
Zona_Noroeste,19/12/2013,0.0,0.0,0.0,21.5,Belate
Zona_Noroeste,20/12/2013,0.0,0.0,0.0,1.6,Belate
Zona_Noroeste,21/12/2013,0.0,0.0,0.0,0.0,Belate
Zona_Noroeste,22/12/2013,0.0,0.0,0.0,0.0,Belate
Zona_Noroeste,23/12/2013,0.0,0.0,0.0,1.0,Belate
Zona_Noroeste,24/12/2013,0.0,0.0,0.0,20.0,Belate
Zona_Noroeste,25/12/2013,0.0,0.0,0.0,3.0,Belate
Zona_Noroeste,26/12/2013,0.0,0.0,0.0,3.0,Belate
Zona_Noroeste,27/12/2013,0.0,0.0,0.0,6.5,Belate
