Comarca,Fecha, Temperatura media, Temperatura maxima, Temperatura minima, Precipitacion acumulada,Localidad
Zona_Noroeste,01/01/2019,0.0,6.3,1.2,0.9,Bera
Zona_Noroeste,02/01/2019,0.0,6.8,1.3,0.2,Bera
Zona_Noroeste,03/01/2019,0.0,8.5,-1.0,0.0,Bera
Zona_Noroeste,04/01/2019,0.0,6.6,-1.5,0.0,Bera
Zona_Noroeste,05/01/2019,0.0,10.3,-3.0,0.0,Bera
Zona_Noroeste,06/01/2019,0.0,6.5,-3.0,0.0,Bera
Zona_Noroeste,07/01/2019,0.0,6.8,1.1,0.0,Bera
Zona_Noroeste,08/01/2019,0.0,10.6,2.2,9.3,Bera
Zona_Noroeste,09/01/2019,0.0,9.7,4.2,0.2,Bera
Zona_Noroeste,10/01/2019,0.0,7.0,-1.4,0.0,Bera
Zona_Noroeste,11/01/2019,0.0,8.4,-5.0,0.0,Bera
Zona_Noroeste,12/01/2019,0.0,9.0,0.0,1.0,Bera
Zona_Noroeste,13/01/2019,0.0,10.7,0.7,4.2,Bera
Zona_Noroeste,14/01/2019,0.0,12.0,5.7,10.2,Bera
Zona_Noroeste,15/01/2019,0.0,13.6,6.5,0.0,Bera
Zona_Noroeste,16/01/2019,0.0,15.0,-0.6,4.5,Bera
Zona_Noroeste,17/01/2019,0.0,12.2,5.0,17.2,Bera
Zona_Noroeste,18/01/2019,0.0,8.4,2.8,1.9,Bera
Zona_Noroeste,19/01/2019,0.0,11.5,3.4,1.0,Bera
Zona_Noroeste,20/01/2019,0.0,12.0,5.0,12.8,Bera
Zona_Noroeste,21/01/2019,0.0,8.7,5.0,2.1,Bera
Zona_Noroeste,22/01/2019,0.0,11.6,2.5,56.4,Bera
Zona_Noroeste,23/01/2019,0.0,11.8,3.5,31.2,Bera
Zona_Noroeste,24/01/2019,0.0,11.0,4.0,4.6,Bera
Zona_Noroeste,25/01/2019,0.0,11.6,3.5,29.2,Bera
Zona_Noroeste,26/01/2019,0.0,14.0,7.5,6.8,Bera
Zona_Noroeste,27/01/2019,0.0,11.0,3.2,45.4,Bera
Zona_Noroeste,28/01/2019,0.0,11.5,6.2,17.4,Bera
Zona_Noroeste,29/01/2019,0.0,12.0,5.2,14.4,Bera
Zona_Noroeste,30/01/2019,0.0,11.6,5.2,13.1,Bera
Zona_Noroeste,31/01/2019,0.0,14.6,4.5,36.1,Bera
Zona_Noroeste,01/02/2019,0.0,0.0,7.0,0.0,Bera
Zona_Noroeste,02/02/2019,0.0,0.0,0.0,0.0,Bera
Zona_Noroeste,03/02/2019,0.0,0.0,0.0,0.0,Bera
Zona_Noroeste,04/02/2019,0.0,0.0,0.0,0.0,Bera
Zona_Noroeste,05/02/2019,0.0,0.0,0.0,0.0,Bera
Zona_Noroeste,06/02/2019,0.0,0.0,0.0,0.0,Bera
Zona_Noroeste,07/02/2019,0.0,0.0,0.0,0.0,Bera
Zona_Noroeste,08/02/2019,0.0,0.0,0.0,0.0,Bera
Zona_Noroeste,09/02/2019,0.0,0.0,0.0,0.0,Bera
Zona_Noroeste,10/02/2019,0.0,0.0,0.0,0.0,Bera
Zona_Noroeste,11/02/2019,0.0,0.0,0.0,0.0,Bera
Zona_Noroeste,12/02/2019,0.0,0.0,0.0,0.0,Bera
Zona_Noroeste,13/02/2019,0.0,19.7,0.0,0.0,Bera
Zona_Noroeste,14/02/2019,0.0,20.4,3.5,0.0,Bera
Zona_Noroeste,15/02/2019,0.0,21.2,7.5,0.0,Bera
Zona_Noroeste,16/02/2019,0.0,20.7,1.0,0.0,Bera
Zona_Noroeste,17/02/2019,0.0,22.4,3.1,0.0,Bera
Zona_Noroeste,18/02/2019,0.0,20.0,7.6,0.0,Bera
Zona_Noroeste,19/02/2019,0.0,15.6,3.0,0.0,Bera
Zona_Noroeste,20/02/2019,0.0,22.5,2.5,0.0,Bera
Zona_Noroeste,21/02/2019,0.0,21.3,3.2,0.0,Bera
Zona_Noroeste,22/02/2019,0.0,24.6,1.5,0.0,Bera
Zona_Noroeste,23/02/2019,0.0,20.0,0.8,0.0,Bera
Zona_Noroeste,24/02/2019,0.0,20.4,0.0,0.0,Bera
Zona_Noroeste,25/02/2019,0.0,22.5,0.0,0.0,Bera
Zona_Noroeste,26/02/2019,0.0,25.2,0.6,0.0,Bera
Zona_Noroeste,27/02/2019,0.0,27.8,1.5,0.0,Bera
Zona_Noroeste,28/02/2019,0.0,17.4,1.0,0.0,Bera
Zona_Noroeste,01/03/2019,0.0,17.0,4.0,0.0,Bera
Zona_Noroeste,02/03/2019,0.0,17.8,3.8,0.0,Bera
Zona_Noroeste,03/03/2019,0.0,23.8,4.8,0.0,Bera
Zona_Noroeste,04/03/2019,0.0,13.5,9.4,0.0,Bera
Zona_Noroeste,05/03/2019,0.0,21.0,2.2,0.2,Bera
Zona_Noroeste,06/03/2019,0.0,21.6,17.8,4.8,Bera
Zona_Noroeste,07/03/2019,0.0,18.5,8.6,6.8,Bera
Zona_Noroeste,08/03/2019,0.0,15.5,4.5,6.2,Bera
Zona_Noroeste,09/03/2019,0.0,18.4,4.5,0.6,Bera
Zona_Noroeste,10/03/2019,0.0,16.0,6.2,5.6,Bera
Zona_Noroeste,11/03/2019,0.0,15.2,5.8,0.2,Bera
Zona_Noroeste,12/03/2019,0.0,21.0,-0.5,16.4,Bera
Zona_Noroeste,13/03/2019,0.0,12.3,4.3,15.5,Bera
Zona_Noroeste,14/03/2019,0.0,11.7,6.8,4.2,Bera
Zona_Noroeste,15/03/2019,0.0,14.6,7.3,0.0,Bera
Zona_Noroeste,16/03/2019,0.0,27.4,2.6,0.0,Bera
Zona_Noroeste,17/03/2019,0.0,13.2,8.2,13.8,Bera
Zona_Noroeste,18/03/2019,0.0,14.0,4.1,19.8,Bera
Zona_Noroeste,19/03/2019,0.0,12.5,5.0,1.7,Bera
Zona_Noroeste,20/03/2019,0.0,14.6,3.8,0.0,Bera
Zona_Noroeste,21/03/2019,0.0,15.6,1.3,0.0,Bera
Zona_Noroeste,22/03/2019,0.0,22.7,-1.0,0.0,Bera
Zona_Noroeste,23/03/2019,0.0,22.0,-0.8,0.0,Bera
Zona_Noroeste,24/03/2019,0.0,20.9,1.0,0.0,Bera
Zona_Noroeste,25/03/2019,0.0,14.5,2.0,0.0,Bera
Zona_Noroeste,26/03/2019,0.0,14.5,0.8,0.0,Bera
Zona_Noroeste,27/03/2019,0.0,15.4,-1.2,0.0,Bera
Zona_Noroeste,28/03/2019,0.0,16.2,-1.0,0.0,Bera
Zona_Noroeste,29/03/2019,0.0,22.8,1.4,0.0,Bera
Zona_Noroeste,30/03/2019,0.0,23.0,3.2,0.0,Bera
Zona_Noroeste,31/03/2019,0.0,21.6,3.1,2.6,Bera
Zona_Noroeste,01/04/2019,0.0,17.8,8.2,3.8,Bera
Zona_Noroeste,02/04/2019,0.0,16.8,9.2,7.3,Bera
Zona_Noroeste,03/04/2019,0.0,10.0,7.3,18.6,Bera
Zona_Noroeste,04/04/2019,0.0,16.1,2.8,0.3,Bera
Zona_Noroeste,05/04/2019,0.0,15.0,8.8,10.2,Bera
Zona_Noroeste,06/04/2019,0.0,17.4,5.5,1.0,Bera
Zona_Noroeste,07/04/2019,0.0,15.5,5.4,1.3,Bera
Zona_Noroeste,08/04/2019,0.0,15.4,5.6,7.8,Bera
Zona_Noroeste,09/04/2019,0.0,18.8,3.8,0.0,Bera
Zona_Noroeste,10/04/2019,0.0,17.0,6.5,16.6,Bera
Zona_Noroeste,11/04/2019,0.0,14.8,8.0,3.6,Bera
Zona_Noroeste,12/04/2019,0.0,16.0,8.2,0.0,Bera
Zona_Noroeste,13/04/2019,0.0,21.4,1.2,0.0,Bera
Zona_Noroeste,14/04/2019,0.0,20.0,7.5,0.0,Bera
Zona_Noroeste,15/04/2019,0.0,26.0,6.2,18.7,Bera
Zona_Noroeste,16/04/2019,0.0,20.5,6.1,0.0,Bera
Zona_Noroeste,17/04/2019,0.0,25.5,7.6,0.0,Bera
Zona_Noroeste,18/04/2019,0.0,20.0,15.0,0.0,Bera
Zona_Noroeste,19/04/2019,0.0,22.0,10.5,0.0,Bera
Zona_Noroeste,20/04/2019,0.0,21.3,7.6,0.0,Bera
Zona_Noroeste,21/04/2019,0.0,19.2,6.0,0.0,Bera
Zona_Noroeste,22/04/2019,0.0,22.5,7.2,0.0,Bera
Zona_Noroeste,23/04/2019,0.0,21.2,14.4,7.7,Bera
Zona_Noroeste,24/04/2019,0.0,17.2,7.0,5.4,Bera
Zona_Noroeste,25/04/2019,0.0,20.4,6.2,6.6,Bera
Zona_Noroeste,26/04/2019,0.0,16.4,7.4,4.1,Bera
Zona_Noroeste,27/04/2019,0.0,15.8,6.5,0.8,Bera
Zona_Noroeste,28/04/2019,0.0,17.0,8.8,0.0,Bera
Zona_Noroeste,29/04/2019,0.0,20.0,5.0,0.0,Bera
Zona_Noroeste,30/04/2019,0.0,20.0,5.5,0.0,Bera
Zona_Noroeste,01/05/2019,0.0,19.8,3.7,2.3,Bera
Zona_Noroeste,02/05/2019,0.0,17.0,9.6,2.0,Bera
Zona_Noroeste,03/05/2019,0.0,14.6,9.5,7.8,Bera
Zona_Noroeste,04/05/2019,0.0,17.8,7.2,7.9,Bera
Zona_Noroeste,05/05/2019,0.0,14.6,1.5,0.0,Bera
Zona_Noroeste,06/05/2019,0.0,20.8,2.2,0.0,Bera
Zona_Noroeste,07/05/2019,0.0,24.0,3.0,0.0,Bera
Zona_Noroeste,08/05/2019,0.0,20.6,14.8,3.1,Bera
Zona_Noroeste,09/05/2019,0.0,20.7,7.4,11.6,Bera
Zona_Noroeste,10/05/2019,0.0,24.0,8.6,1.6,Bera
Zona_Noroeste,11/05/2019,0.0,18.0,12.1,2.1,Bera
Zona_Noroeste,12/05/2019,0.0,19.4,7.6,0.0,Bera
Zona_Noroeste,13/05/2019,0.0,20.0,4.2,0.0,Bera
Zona_Noroeste,14/05/2019,0.0,21.5,4.3,0.0,Bera
Zona_Noroeste,15/05/2019,0.0,22.5,4.0,0.0,Bera
Zona_Noroeste,16/05/2019,0.0,24.0,4.5,31.8,Bera
Zona_Noroeste,17/05/2019,0.0,14.8,10.0,24.2,Bera
Zona_Noroeste,18/05/2019,0.0,14.0,9.1,65.4,Bera
Zona_Noroeste,19/05/2019,0.0,13.0,9.5,58.6,Bera
Zona_Noroeste,20/05/2019,0.0,17.5,8.2,0.0,Bera
Zona_Noroeste,21/05/2019,0.0,20.0,7.4,0.0,Bera
Zona_Noroeste,22/05/2019,0.0,24.0,8.0,0.0,Bera
Zona_Noroeste,23/05/2019,0.0,21.6,10.0,5.8,Bera
Zona_Noroeste,24/05/2019,0.0,15.8,10.0,3.2,Bera
Zona_Noroeste,25/05/2019,0.0,16.5,13.0,5.2,Bera
Zona_Noroeste,26/05/2019,0.0,16.6,11.6,8.6,Bera
Zona_Noroeste,27/05/2019,0.0,16.7,12.1,4.4,Bera
Zona_Noroeste,28/05/2019,0.0,17.2,10.8,2.6,Bera
Zona_Noroeste,29/05/2019,0.0,19.0,11.0,0.0,Bera
Zona_Noroeste,30/05/2019,0.0,24.0,7.0,0.0,Bera
Zona_Noroeste,31/05/2019,0.0,28.7,8.0,0.0,Bera
Zona_Noroeste,01/06/2019,0.0,33.5,11.0,0.0,Bera
Zona_Noroeste,02/06/2019,0.0,29.7,10.8,0.0,Bera
Zona_Noroeste,03/06/2019,0.0,24.6,11.0,0.0,Bera
Zona_Noroeste,04/06/2019,0.0,28.6,12.2,25.6,Bera
Zona_Noroeste,05/06/2019,0.0,17.4,12.2,31.4,Bera
Zona_Noroeste,06/06/2019,0.0,27.4,9.8,0.7,Bera
Zona_Noroeste,07/06/2019,0.0,20.5,10.0,0.0,Bera
Zona_Noroeste,08/06/2019,0.0,22.3,5.5,0.0,Bera
Zona_Noroeste,09/06/2019,0.0,22.4,11.8,0.7,Bera
Zona_Noroeste,10/06/2019,0.0,17.6,12.4,2.2,Bera
Zona_Noroeste,11/06/2019,0.0,16.6,10.2,12.6,Bera
Zona_Noroeste,12/06/2019,0.0,20.0,8.5,0.0,Bera
Zona_Noroeste,13/06/2019,0.0,20.8,7.8,2.8,Bera
Zona_Noroeste,14/06/2019,0.0,17.2,9.0,3.5,Bera
Zona_Noroeste,15/06/2019,0.0,21.2,11.7,0.0,Bera
Zona_Noroeste,16/06/2019,0.0,26.8,9.7,0.0,Bera
Zona_Noroeste,17/06/2019,0.0,30.6,10.5,0.0,Bera
Zona_Noroeste,18/06/2019,0.0,35.0,14.0,0.0,Bera
Zona_Noroeste,19/06/2019,0.0,26.8,13.4,0.7,Bera
Zona_Noroeste,20/06/2019,0.0,19.5,15.0,9.4,Bera
Zona_Noroeste,21/06/2019,0.0,20.3,13.6,1.9,Bera
Zona_Noroeste,22/06/2019,0.0,28.0,10.1,0.0,Bera
Zona_Noroeste,23/06/2019,0.0,31.8,10.5,0.0,Bera
Zona_Noroeste,24/06/2019,0.0,27.6,15.5,0.0,Bera
Zona_Noroeste,25/06/2019,0.0,27.5,15.6,0.0,Bera
Zona_Noroeste,26/06/2019,0.0,34.0,16.2,0.0,Bera
Zona_Noroeste,27/06/2019,0.0,33.5,16.6,0.0,Bera
Zona_Noroeste,28/06/2019,0.0,27.2,14.5,0.0,Bera
Zona_Noroeste,29/06/2019,0.0,23.6,14.7,0.0,Bera
Zona_Noroeste,30/06/2019,0.0,22.8,17.0,0.0,Bera
Zona_Noroeste,01/07/2019,0.0,22.8,17.0,2.0,Bera
Zona_Noroeste,02/07/2019,0.0,23.8,17.0,0.3,Bera
Zona_Noroeste,03/07/2019,0.0,27.6,17.0,0.0,Bera
Zona_Noroeste,04/07/2019,0.0,34.0,17.0,0.0,Bera
Zona_Noroeste,05/07/2019,0.0,30.3,19.2,0.0,Bera
Zona_Noroeste,06/07/2019,0.0,26.8,17.0,0.0,Bera
Zona_Noroeste,07/07/2019,0.0,23.0,17.2,6.5,Bera
Zona_Noroeste,08/07/2019,0.0,21.5,18.2,26.4,Bera
Zona_Noroeste,09/07/2019,0.0,23.5,17.5,2.8,Bera
Zona_Noroeste,10/07/2019,0.0,25.5,13.0,0.0,Bera
Zona_Noroeste,11/07/2019,0.0,27.4,15.0,0.0,Bera
Zona_Noroeste,12/07/2019,0.0,28.0,12.1,0.0,Bera
Zona_Noroeste,13/07/2019,0.0,26.0,13.6,0.0,Bera
Zona_Noroeste,14/07/2019,0.0,25.0,15.0,0.0,Bera
Zona_Noroeste,15/07/2019,0.0,26.4,14.0,0.0,Bera
Zona_Noroeste,16/07/2019,0.0,26.0,13.4,0.2,Bera
Zona_Noroeste,17/07/2019,0.0,24.8,15.8,0.0,Bera
Zona_Noroeste,18/07/2019,0.0,25.0,15.8,0.0,Bera
Zona_Noroeste,19/07/2019,0.0,30.0,12.4,0.0,Bera
Zona_Noroeste,20/07/2019,0.0,23.8,18.8,0.5,Bera
Zona_Noroeste,21/07/2019,0.0,26.4,19.0,0.0,Bera
Zona_Noroeste,22/07/2019,0.0,34.0,18.8,0.0,Bera
Zona_Noroeste,23/07/2019,0.0,39.3,20.1,0.0,Bera
Zona_Noroeste,24/07/2019,0.0,34.5,18.1,0.0,Bera
Zona_Noroeste,25/07/2019,0.0,30.0,17.8,13.2,Bera
Zona_Noroeste,26/07/2019,0.0,23.0,18.0,4.6,Bera
Zona_Noroeste,27/07/2019,0.0,19.0,16.4,36.8,Bera
Zona_Noroeste,28/07/2019,0.0,23.5,14.0,0.0,Bera
Zona_Noroeste,29/07/2019,0.0,27.2,10.6,0.3,Bera
Zona_Noroeste,30/07/2019,0.0,23.4,15.8,0.0,Bera
Zona_Noroeste,31/07/2019,0.0,26.5,11.6,25.2,Bera
Zona_Noroeste,01/08/2019,0.0,25.0,13.2,8.1,Bera
Zona_Noroeste,02/08/2019,0.0,25.8,15.8,0.0,Bera
Zona_Noroeste,03/08/2019,0.0,30.8,15.4,0.0,Bera
Zona_Noroeste,04/08/2019,0.0,25.0,15.5,0.2,Bera
Zona_Noroeste,05/08/2019,0.0,24.7,17.8,0.8,Bera
Zona_Noroeste,06/08/2019,0.0,27.5,18.5,19.1,Bera
Zona_Noroeste,07/08/2019,0.0,28.0,17.8,0.0,Bera
Zona_Noroeste,08/08/2019,0.0,34.7,18.2,0.0,Bera
Zona_Noroeste,09/08/2019,0.0,31.8,18.1,4.2,Bera
Zona_Noroeste,10/08/2019,0.0,23.5,18.0,8.0,Bera
Zona_Noroeste,11/08/2019,0.0,23.0,17.0,15.3,Bera
Zona_Noroeste,12/08/2019,0.0,22.0,14.4,10.1,Bera
Zona_Noroeste,13/08/2019,0.0,23.4,14.0,0.0,Bera
Zona_Noroeste,14/08/2019,0.0,27.2,11.5,3.8,Bera
Zona_Noroeste,15/08/2019,0.0,23.7,12.2,1.2,Bera
Zona_Noroeste,16/08/2019,0.0,28.4,13.7,0.0,Bera
Zona_Noroeste,17/08/2019,0.0,30.4,13.2,0.0,Bera
Zona_Noroeste,18/08/2019,0.0,26.0,13.8,15.6,Bera
Zona_Noroeste,19/08/2019,0.0,22.5,15.6,4.8,Bera
Zona_Noroeste,20/08/2019,0.0,22.0,15.0,0.4,Bera
Zona_Noroeste,21/08/2019,0.0,26.5,12.1,0.0,Bera
Zona_Noroeste,22/08/2019,0.0,26.6,12.6,0.0,Bera
Zona_Noroeste,23/08/2019,0.0,34.5,11.7,0.0,Bera
Zona_Noroeste,24/08/2019,0.0,32.6,11.7,0.0,Bera
Zona_Noroeste,25/08/2019,0.0,26.5,13.5,0.0,Bera
Zona_Noroeste,26/08/2019,0.0,30.2,17.7,8.8,Bera
Zona_Noroeste,27/08/2019,0.0,27.0,17.6,0.0,Bera
Zona_Noroeste,28/08/2019,0.0,28.5,17.3,0.0,Bera
Zona_Noroeste,29/08/2019,0.0,28.6,18.8,0.0,Bera
Zona_Noroeste,30/08/2019,0.0,27.6,16.5,0.0,Bera
Zona_Noroeste,31/08/2019,0.0,24.4,18.0,0.6,Bera
Zona_Noroeste,01/09/2019,0.0,26.0,17.0,1.3,Bera
Zona_Noroeste,02/09/2019,0.0,23.6,14.2,0.0,Bera
Zona_Noroeste,03/09/2019,0.0,24.8,11.7,0.0,Bera
Zona_Noroeste,04/09/2019,0.0,25.0,9.5,9.7,Bera
Zona_Noroeste,05/09/2019,0.0,21.8,9.2,0.0,Bera
Zona_Noroeste,06/09/2019,0.0,21.5,9.3,0.0,Bera
Zona_Noroeste,07/09/2019,0.0,22.4,9.8,1.6,Bera
Zona_Noroeste,08/09/2019,0.0,22.0,10.2,0.0,Bera
Zona_Noroeste,09/09/2019,0.0,22.4,8.8,19.4,Bera
Zona_Noroeste,10/09/2019,0.0,20.4,10.0,12.4,Bera
Zona_Noroeste,11/09/2019,0.0,22.8,14.2,0.0,Bera
Zona_Noroeste,12/09/2019,0.0,24.0,11.3,0.0,Bera
Zona_Noroeste,13/09/2019,0.0,25.4,12.0,0.0,Bera
Zona_Noroeste,14/09/2019,0.0,29.0,12.8,0.0,Bera
Zona_Noroeste,15/09/2019,0.0,28.5,16.0,1.1,Bera
Zona_Noroeste,16/09/2019,0.0,27.4,15.4,0.0,Bera
Zona_Noroeste,17/09/2019,0.0,28.4,15.0,0.0,Bera
Zona_Noroeste,18/09/2019,0.0,27.0,15.0,0.0,Bera
Zona_Noroeste,19/09/2019,0.0,25.0,15.0,0.0,Bera
Zona_Noroeste,20/09/2019,0.0,31.8,14.8,0.0,Bera
Zona_Noroeste,21/09/2019,0.0,27.5,19.5,14.0,Bera
Zona_Noroeste,22/09/2019,0.0,23.6,16.2,6.4,Bera
Zona_Noroeste,23/09/2019,0.0,24.8,12.7,0.0,Bera
Zona_Noroeste,24/09/2019,0.0,27.5,17.5,0.4,Bera
Zona_Noroeste,25/09/2019,0.0,22.0,15.0,0.0,Bera
Zona_Noroeste,26/09/2019,0.0,23.7,13.0,0.0,Bera
Zona_Noroeste,27/09/2019,0.0,24.6,12.5,0.0,Bera
Zona_Noroeste,28/09/2019,0.0,24.6,13.5,0.0,Bera
Zona_Noroeste,29/09/2019,0.0,29.6,14.6,0.5,Bera
Zona_Noroeste,30/09/2019,0.0,27.5,15.5,0.0,Bera
Zona_Noroeste,01/10/2019,0.0,23.8,14.6,19.6,Bera
Zona_Noroeste,02/10/2019,0.0,19.0,14.8,21.9,Bera
Zona_Noroeste,03/10/2019,0.0,22.4,14.5,0.0,Bera
Zona_Noroeste,04/10/2019,0.0,18.7,10.2,2.1,Bera
Zona_Noroeste,05/10/2019,0.0,21.6,13.2,0.2,Bera
Zona_Noroeste,06/10/2019,0.0,19.3,13.8,2.0,Bera
Zona_Noroeste,07/10/2019,0.0,22.0,12.0,0.0,Bera
Zona_Noroeste,08/10/2019,0.0,25.6,8.2,4.2,Bera
Zona_Noroeste,09/10/2019,0.0,19.6,8.2,1.8,Bera
Zona_Noroeste,10/10/2019,0.0,22.2,12.0,0.0,Bera
Zona_Noroeste,11/10/2019,0.0,28.8,13.8,0.0,Bera
Zona_Noroeste,12/10/2019,0.0,27.4,16.0,0.0,Bera
Zona_Noroeste,13/10/2019,0.0,29.8,18.2,0.0,Bera
Zona_Noroeste,14/10/2019,0.0,26.4,16.6,13.4,Bera
Zona_Noroeste,15/10/2019,0.0,19.8,10.0,0.0,Bera
Zona_Noroeste,16/10/2019,0.0,22.0,7.8,1.1,Bera
Zona_Noroeste,17/10/2019,0.0,23.7,13.4,1.8,Bera
Zona_Noroeste,18/10/2019,0.0,19.6,12.7,2.0,Bera
Zona_Noroeste,19/10/2019,0.0,0.0,13.8,0.0,Bera
Zona_Noroeste,20/10/2019,0.0,17.8,0.0,5.2,Bera
Zona_Noroeste,21/10/2019,0.0,17.4,8.0,0.0,Bera
Zona_Noroeste,22/10/2019,0.0,0.0,7.6,0.0,Bera
Zona_Noroeste,23/10/2019,0.0,18.0,0.0,3.3,Bera
Zona_Noroeste,24/10/2019,0.0,17.0,8.8,5.4,Bera
Zona_Noroeste,25/10/2019,0.0,25.6,8.6,0.0,Bera
Zona_Noroeste,26/10/2019,0.0,25.0,7.8,0.0,Bera
Zona_Noroeste,27/10/2019,0.0,24.6,11.5,0.0,Bera
Zona_Noroeste,28/10/2019,0.0,23.4,13.0,0.0,Bera
Zona_Noroeste,29/10/2019,0.0,24.0,9.8,0.0,Bera
Zona_Noroeste,30/10/2019,0.0,24.4,9.2,6.8,Bera
Zona_Noroeste,31/10/2019,0.0,20.7,9.0,12.7,Bera
Zona_Noroeste,01/11/2019,0.0,22.0,11.2,15.6,Bera
Zona_Noroeste,02/11/2019,0.0,0.0,13.0,0.0,Bera
Zona_Noroeste,03/11/2019,0.0,0.0,0.0,0.0,Bera
Zona_Noroeste,04/11/2019,0.0,0.0,0.0,0.0,Bera
Zona_Noroeste,05/11/2019,0.0,0.0,0.0,0.0,Bera
Zona_Noroeste,06/11/2019,0.0,0.0,0.0,0.0,Bera
Zona_Noroeste,07/11/2019,0.0,0.0,0.0,0.0,Bera
Zona_Noroeste,08/11/2019,0.0,0.0,0.0,0.0,Bera
Zona_Noroeste,09/11/2019,0.0,0.0,0.0,0.0,Bera
Zona_Noroeste,10/11/2019,0.0,0.0,0.0,0.0,Bera
Zona_Noroeste,11/11/2019,0.0,0.0,0.0,0.0,Bera
Zona_Noroeste,12/11/2019,0.0,0.0,0.0,0.0,Bera
Zona_Noroeste,13/11/2019,0.0,0.0,0.0,0.0,Bera
Zona_Noroeste,14/11/2019,0.0,12.0,0.0,12.6,Bera
Zona_Noroeste,15/11/2019,0.0,10.2,4.4,13.8,Bera
Zona_Noroeste,16/11/2019,0.0,9.2,0.8,27.3,Bera
Zona_Noroeste,17/11/2019,0.0,10.7,1.7,23.2,Bera
Zona_Noroeste,18/11/2019,0.0,10.5,4.6,0.0,Bera
Zona_Noroeste,19/11/2019,0.0,12.7,2.2,0.0,Bera
Zona_Noroeste,20/11/2019,0.0,14.5,0.1,0.3,Bera
Zona_Noroeste,21/11/2019,0.0,15.5,8.0,0.0,Bera
Zona_Noroeste,22/11/2019,0.0,15.3,4.0,6.6,Bera
Zona_Noroeste,23/11/2019,0.0,13.6,9.3,77.8,Bera
Zona_Noroeste,24/11/2019,0.0,15.0,8.0,8.2,Bera
Zona_Noroeste,25/11/2019,0.0,0.0,6.2,0.0,Bera
Zona_Noroeste,26/11/2019,0.0,19.6,0.0,0.0,Bera
Zona_Noroeste,27/11/2019,0.0,17.6,5.7,1.3,Bera
Zona_Noroeste,28/11/2019,0.0,13.8,5.6,6.8,Bera
Zona_Noroeste,29/11/2019,0.0,18.2,8.4,0.0,Bera
Zona_Noroeste,30/11/2019,0.0,17.2,4.6,22.5,Bera
Zona_Noroeste,01/12/2019,0.0,0.0,3.6,0.0,Bera
Zona_Noroeste,02/12/2019,0.0,0.0,0.0,0.0,Bera
Zona_Noroeste,03/12/2019,0.0,0.0,0.0,0.0,Bera
Zona_Noroeste,04/12/2019,0.0,0.0,0.0,0.0,Bera
Zona_Noroeste,05/12/2019,0.0,0.0,0.0,0.0,Bera
Zona_Noroeste,06/12/2019,0.0,0.0,0.0,0.0,Bera
Zona_Noroeste,07/12/2019,0.0,0.0,0.0,0.0,Bera
Zona_Noroeste,08/12/2019,0.0,0.0,0.0,0.0,Bera
Zona_Noroeste,09/12/2019,0.0,0.0,0.0,0.0,Bera
Zona_Noroeste,10/12/2019,0.0,0.0,0.0,0.0,Bera
Zona_Noroeste,11/12/2019,0.0,0.0,0.0,0.0,Bera
Zona_Noroeste,12/12/2019,0.0,0.0,0.0,0.0,Bera
Zona_Noroeste,13/12/2019,0.0,0.0,0.0,0.0,Bera
Zona_Noroeste,14/12/2019,0.0,0.0,0.0,0.0,Bera
Zona_Noroeste,15/12/2019,0.0,0.0,0.0,0.0,Bera
Zona_Noroeste,16/12/2019,0.0,0.0,0.0,0.0,Bera
Zona_Noroeste,17/12/2019,0.0,0.0,0.0,0.0,Bera
Zona_Noroeste,18/12/2019,0.0,0.0,0.0,0.0,Bera
Zona_Noroeste,19/12/2019,0.0,0.0,0.0,0.0,Bera
Zona_Noroeste,20/12/2019,0.0,0.0,0.0,0.0,Bera
Zona_Noroeste,21/12/2019,0.0,0.0,0.0,0.0,Bera
Zona_Noroeste,22/12/2019,0.0,0.0,0.0,0.0,Bera
Zona_Noroeste,23/12/2019,0.0,0.0,0.0,0.0,Bera
Zona_Noroeste,24/12/2019,0.0,0.0,0.0,0.0,Bera
Zona_Noroeste,25/12/2019,0.0,0.0,0.0,0.0,Bera
Zona_Noroeste,26/12/2019,0.0,0.0,0.0,0.0,Bera
Zona_Noroeste,27/12/2019,0.0,0.0,0.0,0.0,Bera
