Comarca,Fecha, Temperatura media, Temperatura maxima, Temperatura minima, Precipitacion acumulada,Localidad
Zona_Noroeste,01/01/2017,3.5,5.5,2.2,0.0,Gorramendi
Zona_Noroeste,02/01/2017,4.2,6.4,2.3,0.0,Gorramendi
Zona_Noroeste,03/01/2017,4.8,7.2,2.9,0.0,Gorramendi
Zona_Noroeste,04/01/2017,2.1,3.5,0.5,0.0,Gorramendi
Zona_Noroeste,05/01/2017,-1.8,0.8,-3.4,0.0,Gorramendi
Zona_Noroeste,06/01/2017,0.6,3.3,-3.5,0.0,Gorramendi
Zona_Noroeste,07/01/2017,2.1,3.5,0.1,0.0,Gorramendi
Zona_Noroeste,08/01/2017,2.1,3.8,0.6,0.0,Gorramendi
Zona_Noroeste,09/01/2017,1.5,3.4,-0.1,0.0,Gorramendi
Zona_Noroeste,10/01/2017,2.7,4.0,1.9,73.4,Gorramendi
Zona_Noroeste,11/01/2017,5.4,7.2,2.3,28.9,Gorramendi
Zona_Noroeste,12/01/2017,5.8,8.4,1.9,9.7,Gorramendi
Zona_Noroeste,13/01/2017,-0.8,1.9,-1.8,29.0,Gorramendi
Zona_Noroeste,14/01/2017,-2.0,-0.5,-2.9,32.5,Gorramendi
Zona_Noroeste,15/01/2017,-0.0,2.3,-0.8,95.4,Gorramendi
Zona_Noroeste,16/01/2017,2.4,3.6,-0.3,70.0,Gorramendi
Zona_Noroeste,17/01/2017,-6.0,-0.4,-9.0,0.5,Gorramendi
Zona_Noroeste,18/01/2017,-8.7,-7.0,-10.2,0.0,Gorramendi
Zona_Noroeste,19/01/2017,-4.5,-0.5,-7.1,0.0,Gorramendi
Zona_Noroeste,20/01/2017,1.2,2.9,-2.3,0.0,Gorramendi
Zona_Noroeste,21/01/2017,2.3,3.7,0.5,0.0,Gorramendi
Zona_Noroeste,22/01/2017,0.6,2.2,-1.4,0.0,Gorramendi
Zona_Noroeste,23/01/2017,-0.0,0.9,-1.0,0.0,Gorramendi
Zona_Noroeste,24/01/2017,-1.1,0.1,-3.0,0.0,Gorramendi
Zona_Noroeste,25/01/2017,-3.4,-2.5,-4.8,0.0,Gorramendi
Zona_Noroeste,26/01/2017,-0.0,2.7,-3.7,0.0,Gorramendi
Zona_Noroeste,27/01/2017,3.3,4.3,2.2,0.1,Gorramendi
Zona_Noroeste,28/01/2017,1.7,3.5,0.6,6.0,Gorramendi
Zona_Noroeste,29/01/2017,4.4,7.2,1.8,0.6,Gorramendi
Zona_Noroeste,30/01/2017,6.8,8.3,4.8,0.0,Gorramendi
Zona_Noroeste,31/01/2017,8.9,11.5,7.1,0.0,Gorramendi
Zona_Noroeste,01/02/2017,8.8,11.1,7.2,0.0,Gorramendi
Zona_Noroeste,02/02/2017,5.2,7.7,2.1,6.3,Gorramendi
Zona_Noroeste,03/02/2017,4.7,7.6,2.4,0.3,Gorramendi
Zona_Noroeste,04/02/2017,4.9,7.5,3.0,23.6,Gorramendi
Zona_Noroeste,05/02/2017,1.4,7.3,-0.9,39.4,Gorramendi
Zona_Noroeste,06/02/2017,3.1,7.1,-0.1,15.9,Gorramendi
Zona_Noroeste,07/02/2017,3.8,7.3,-0.9,20.4,Gorramendi
Zona_Noroeste,08/02/2017,-0.4,-0.0,-1.6,40.6,Gorramendi
Zona_Noroeste,09/02/2017,0.4,3.9,-2.2,0.5,Gorramendi
Zona_Noroeste,10/02/2017,4.1,5.6,3.1,0.0,Gorramendi
Zona_Noroeste,11/02/2017,3.0,6.1,1.3,0.3,Gorramendi
Zona_Noroeste,12/02/2017,6.2,9.0,1.8,0.0,Gorramendi
Zona_Noroeste,13/02/2017,7.3,9.5,3.9,1.0,Gorramendi
Zona_Noroeste,14/02/2017,6.2,9.2,4.0,0.0,Gorramendi
Zona_Noroeste,15/02/2017,7.7,10.7,5.5,0.0,Gorramendi
Zona_Noroeste,16/02/2017,7.8,10.3,6.0,0.0,Gorramendi
Zona_Noroeste,17/02/2017,8.1,11.2,5.9,0.0,Gorramendi
Zona_Noroeste,18/02/2017,6.9,9.4,4.5,0.0,Gorramendi
Zona_Noroeste,19/02/2017,4.0,5.3,3.2,0.0,Gorramendi
Zona_Noroeste,20/02/2017,3.1,4.9,2.2,0.0,Gorramendi
Zona_Noroeste,21/02/2017,4.3,7.4,1.8,0.0,Gorramendi
Zona_Noroeste,22/02/2017,10.7,13.9,6.6,0.0,Gorramendi
Zona_Noroeste,23/02/2017,8.8,12.7,3.4,0.0,Gorramendi
Zona_Noroeste,24/02/2017,1.5,4.7,-1.0,2.3,Gorramendi
Zona_Noroeste,25/02/2017,4.5,10.2,-0.7,0.0,Gorramendi
Zona_Noroeste,26/02/2017,7.0,10.0,5.2,0.0,Gorramendi
Zona_Noroeste,27/02/2017,6.3,10.3,3.6,0.2,Gorramendi
Zona_Noroeste,28/02/2017,2.5,4.9,0.1,7.3,Gorramendi
Zona_Noroeste,01/03/2017,5.2,9.5,0.6,0.0,Gorramendi
Zona_Noroeste,02/03/2017,8.4,12.3,5.0,0.0,Gorramendi
Zona_Noroeste,03/03/2017,7.5,12.3,-0.3,51.0,Gorramendi
Zona_Noroeste,04/03/2017,0.1,1.4,-1.1,4.6,Gorramendi
Zona_Noroeste,05/03/2017,3.7,6.2,0.7,1.2,Gorramendi
Zona_Noroeste,06/03/2017,5.2,7.3,2.9,10.4,Gorramendi
Zona_Noroeste,07/03/2017,5.0,6.9,2.6,16.6,Gorramendi
Zona_Noroeste,08/03/2017,8.1,14.3,5.6,1.3,Gorramendi
Zona_Noroeste,09/03/2017,14.6,17.0,12.7,0.0,Gorramendi
Zona_Noroeste,10/03/2017,17.0,19.0,14.7,0.0,Gorramendi
Zona_Noroeste,11/03/2017,12.5,18.6,5.7,0.1,Gorramendi
Zona_Noroeste,12/03/2017,4.0,5.8,2.4,62.4,Gorramendi
Zona_Noroeste,13/03/2017,3.9,5.0,2.9,32.3,Gorramendi
Zona_Noroeste,14/03/2017,5.3,7.3,3.9,0.0,Gorramendi
Zona_Noroeste,15/03/2017,7.6,11.3,4.8,0.0,Gorramendi
Zona_Noroeste,16/03/2017,12.0,15.7,8.8,0.0,Gorramendi
Zona_Noroeste,17/03/2017,8.6,11.7,3.9,0.0,Gorramendi
Zona_Noroeste,18/03/2017,3.7,6.2,2.4,0.0,Gorramendi
Zona_Noroeste,19/03/2017,6.5,9.4,4.1,0.0,Gorramendi
Zona_Noroeste,20/03/2017,4.4,10.2,2.3,0.1,Gorramendi
Zona_Noroeste,21/03/2017,2.7,4.5,1.0,6.6,Gorramendi
Zona_Noroeste,22/03/2017,2.1,6.4,-1.0,10.3,Gorramendi
Zona_Noroeste,23/03/2017,0.2,3.9,-3.1,1.0,Gorramendi
Zona_Noroeste,24/03/2017,2.1,4.4,-0.5,0.0,Gorramendi
Zona_Noroeste,25/03/2017,0.9,3.3,-0.8,4.6,Gorramendi
Zona_Noroeste,26/03/2017,7.1,10.4,3.2,0.0,Gorramendi
Zona_Noroeste,27/03/2017,6.9,9.2,4.7,0.0,Gorramendi
Zona_Noroeste,28/03/2017,8.3,12.6,5.0,0.1,Gorramendi
Zona_Noroeste,29/03/2017,12.1,17.1,8.5,0.0,Gorramendi
Zona_Noroeste,30/03/2017,13.4,16.8,10.8,0.0,Gorramendi
Zona_Noroeste,31/03/2017,9.3,13.0,3.3,8.1,Gorramendi
Zona_Noroeste,01/04/2017,3.1,4.2,1.9,32.0,Gorramendi
Zona_Noroeste,02/04/2017,2.9,3.5,1.9,25.5,Gorramendi
Zona_Noroeste,03/04/2017,5.4,9.1,1.6,0.0,Gorramendi
Zona_Noroeste,04/04/2017,4.7,6.1,3.5,3.1,Gorramendi
Zona_Noroeste,05/04/2017,4.2,5.5,2.7,3.5,Gorramendi
Zona_Noroeste,06/04/2017,4.8,6.9,3.6,0.0,Gorramendi
Zona_Noroeste,07/04/2017,8.3,12.6,3.2,0.0,Gorramendi
Zona_Noroeste,08/04/2017,14.4,19.2,10.7,0.0,Gorramendi
Zona_Noroeste,09/04/2017,15.1,19.5,12.1,0.0,Gorramendi
Zona_Noroeste,10/04/2017,12.8,15.7,5.8,0.0,Gorramendi
Zona_Noroeste,11/04/2017,6.1,8.6,4.3,0.0,Gorramendi
Zona_Noroeste,12/04/2017,9.3,12.7,5.6,0.0,Gorramendi
Zona_Noroeste,13/04/2017,11.1,15.8,7.2,0.0,Gorramendi
Zona_Noroeste,14/04/2017,6.8,9.5,4.4,0.0,Gorramendi
Zona_Noroeste,15/04/2017,5.3,6.6,4.0,1.7,Gorramendi
Zona_Noroeste,16/04/2017,5.4,8.9,2.5,0.0,Gorramendi
Zona_Noroeste,17/04/2017,8.0,11.8,5.4,0.0,Gorramendi
Zona_Noroeste,18/04/2017,6.9,9.1,3.6,0.0,Gorramendi
Zona_Noroeste,19/04/2017,3.9,6.8,0.5,0.0,Gorramendi
Zona_Noroeste,20/04/2017,4.9,8.4,1.1,0.0,Gorramendi
Zona_Noroeste,21/04/2017,9.9,14.5,5.8,0.0,Gorramendi
Zona_Noroeste,22/04/2017,12.5,17.4,8.6,0.0,Gorramendi
Zona_Noroeste,23/04/2017,13.3,15.9,11.1,0.0,Gorramendi
Zona_Noroeste,24/04/2017,13.9,18.2,10.2,0.0,Gorramendi
Zona_Noroeste,25/04/2017,7.7,11.7,3.8,4.9,Gorramendi
Zona_Noroeste,26/04/2017,0.6,3.9,-0.7,3.4,Gorramendi
Zona_Noroeste,27/04/2017,0.1,2.7,-1.3,0.0,Gorramendi
Zona_Noroeste,28/04/2017,2.8,6.3,-0.7,0.0,Gorramendi
Zona_Noroeste,29/04/2017,7.5,11.1,3.1,0.0,Gorramendi
Zona_Noroeste,30/04/2017,4.6,9.2,0.5,9.1,Gorramendi
Zona_Noroeste,01/05/2017,3.6,9.2,0.1,0.5,Gorramendi
Zona_Noroeste,02/05/2017,6.2,6.8,5.3,13.6,Gorramendi
Zona_Noroeste,03/05/2017,8.4,11.7,5.2,0.0,Gorramendi
Zona_Noroeste,04/05/2017,11.3,15.2,7.9,0.0,Gorramendi
Zona_Noroeste,05/05/2017,14.6,20.3,7.4,16.1,Gorramendi
Zona_Noroeste,06/05/2017,7.9,10.3,5.8,3.0,Gorramendi
Zona_Noroeste,07/05/2017,9.3,11.7,7.4,0.0,Gorramendi
Zona_Noroeste,08/05/2017,9.5,12.3,7.3,0.0,Gorramendi
Zona_Noroeste,09/05/2017,11.2,14.6,7.0,0.0,Gorramendi
Zona_Noroeste,10/05/2017,12.6,17.4,8.9,5.8,Gorramendi
Zona_Noroeste,11/05/2017,10.5,14.1,8.1,1.0,Gorramendi
Zona_Noroeste,12/05/2017,10.5,13.9,8.3,0.0,Gorramendi
Zona_Noroeste,13/05/2017,10.8,14.7,8.1,0.0,Gorramendi
Zona_Noroeste,14/05/2017,12.8,16.0,9.5,0.0,Gorramendi
Zona_Noroeste,15/05/2017,16.8,20.6,13.3,0.0,Gorramendi
Zona_Noroeste,16/05/2017,18.9,21.7,16.4,0.0,Gorramendi
Zona_Noroeste,17/05/2017,15.1,19.7,9.1,0.0,Gorramendi
Zona_Noroeste,18/05/2017,6.0,10.2,3.2,27.1,Gorramendi
Zona_Noroeste,19/05/2017,4.2,6.7,2.9,1.1,Gorramendi
Zona_Noroeste,20/05/2017,7.6,12.5,4.5,0.4,Gorramendi
Zona_Noroeste,21/05/2017,17.2,21.2,12.6,0.0,Gorramendi
Zona_Noroeste,22/05/2017,15.0,18.3,11.2,0.0,Gorramendi
Zona_Noroeste,23/05/2017,10.3,13.8,6.7,0.0,Gorramendi
Zona_Noroeste,24/05/2017,17.2,20.4,10.6,0.0,Gorramendi
Zona_Noroeste,25/05/2017,21.5,25.9,15.9,0.0,Gorramendi
Zona_Noroeste,26/05/2017,20.0,25.6,12.1,6.1,Gorramendi
Zona_Noroeste,27/05/2017,20.9,25.1,16.1,0.0,Gorramendi
Zona_Noroeste,28/05/2017,20.9,22.9,18.7,0.0,Gorramendi
Zona_Noroeste,29/05/2017,14.2,19.2,11.1,9.5,Gorramendi
Zona_Noroeste,30/05/2017,11.4,12.3,10.2,3.9,Gorramendi
Zona_Noroeste,31/05/2017,13.4,17.0,10.0,0.0,Gorramendi
Zona_Noroeste,01/06/2017,16.7,20.5,13.3,0.0,Gorramendi
Zona_Noroeste,02/06/2017,14.8,18.5,11.4,1.4,Gorramendi
Zona_Noroeste,03/06/2017,10.1,11.8,6.4,27.5,Gorramendi
Zona_Noroeste,04/06/2017,7.2,8.4,6.3,17.1,Gorramendi
Zona_Noroeste,05/06/2017,10.8,15.4,6.8,3.4,Gorramendi
Zona_Noroeste,06/06/2017,8.1,13.5,6.2,7.7,Gorramendi
Zona_Noroeste,07/06/2017,11.3,18.1,6.0,0.0,Gorramendi
Zona_Noroeste,08/06/2017,18.2,24.4,10.6,5.3,Gorramendi
Zona_Noroeste,09/06/2017,13.0,16.8,10.8,0.1,Gorramendi
Zona_Noroeste,10/06/2017,19.4,23.1,13.8,0.0,Gorramendi
Zona_Noroeste,11/06/2017,17.2,23.3,11.8,0.3,Gorramendi
Zona_Noroeste,12/06/2017,13.6,15.4,11.8,0.1,Gorramendi
Zona_Noroeste,13/06/2017,19.5,23.5,14.8,0.0,Gorramendi
Zona_Noroeste,14/06/2017,19.8,23.1,16.3,0.0,Gorramendi
Zona_Noroeste,15/06/2017,13.5,16.4,12.3,1.0,Gorramendi
Zona_Noroeste,16/06/2017,14.0,16.0,12.0,0.2,Gorramendi
Zona_Noroeste,17/06/2017,17.6,20.4,14.2,0.0,Gorramendi
Zona_Noroeste,18/06/2017,21.2,23.7,17.4,0.0,Gorramendi
Zona_Noroeste,19/06/2017,24.1,28.3,20.0,0.0,Gorramendi
Zona_Noroeste,20/06/2017,22.6,26.1,20.3,0.0,Gorramendi
Zona_Noroeste,21/06/2017,23.7,27.3,20.4,0.0,Gorramendi
Zona_Noroeste,22/06/2017,20.5,26.1,13.5,0.2,Gorramendi
Zona_Noroeste,23/06/2017,13.3,14.6,11.7,1.2,Gorramendi
Zona_Noroeste,24/06/2017,12.2,13.3,11.1,0.2,Gorramendi
Zona_Noroeste,25/06/2017,14.2,20.0,11.3,1.2,Gorramendi
Zona_Noroeste,26/06/2017,15.9,20.1,13.1,3.1,Gorramendi
Zona_Noroeste,27/06/2017,13.3,16.5,10.8,4.5,Gorramendi
Zona_Noroeste,28/06/2017,10.7,15.5,7.6,10.7,Gorramendi
Zona_Noroeste,29/06/2017,8.0,11.4,6.8,5.9,Gorramendi
Zona_Noroeste,30/06/2017,7.1,8.6,6.3,9.4,Gorramendi
Zona_Noroeste,01/07/2017,7.2,8.1,6.1,48.4,Gorramendi
Zona_Noroeste,02/07/2017,9.0,10.7,7.3,3.0,Gorramendi
Zona_Noroeste,03/07/2017,12.9,15.5,9.9,0.0,Gorramendi
Zona_Noroeste,04/07/2017,20.7,24.9,13.4,0.0,Gorramendi
Zona_Noroeste,05/07/2017,22.4,27.5,19.1,0.0,Gorramendi
Zona_Noroeste,06/07/2017,21.4,25.5,19.2,0.0,Gorramendi
Zona_Noroeste,07/07/2017,21.6,23.9,17.5,0.0,Gorramendi
Zona_Noroeste,08/07/2017,15.4,19.9,12.8,6.4,Gorramendi
Zona_Noroeste,09/07/2017,13.9,18.5,11.6,10.3,Gorramendi
Zona_Noroeste,10/07/2017,12.0,13.0,11.0,5.4,Gorramendi
Zona_Noroeste,11/07/2017,14.6,18.8,11.0,0.0,Gorramendi
Zona_Noroeste,12/07/2017,14.3,16.4,12.6,0.0,Gorramendi
Zona_Noroeste,13/07/2017,12.8,14.6,11.0,0.3,Gorramendi
Zona_Noroeste,14/07/2017,11.7,14.0,10.6,1.8,Gorramendi
Zona_Noroeste,15/07/2017,13.4,16.1,10.6,0.0,Gorramendi
Zona_Noroeste,16/07/2017,17.8,20.8,14.0,0.0,Gorramendi
Zona_Noroeste,17/07/2017,23.0,25.8,19.3,0.8,Gorramendi
Zona_Noroeste,18/07/2017,22.9,28.5,16.8,9.9,Gorramendi
Zona_Noroeste,19/07/2017,16.8,20.2,12.7,12.2,Gorramendi
Zona_Noroeste,20/07/2017,11.4,13.1,9.6,4.6,Gorramendi
Zona_Noroeste,21/07/2017,11.1,13.2,10.0,2.0,Gorramendi
Zona_Noroeste,22/07/2017,12.7,15.4,10.1,1.6,Gorramendi
Zona_Noroeste,23/07/2017,11.5,13.3,10.2,0.0,Gorramendi
Zona_Noroeste,24/07/2017,11.8,13.1,10.4,29.2,Gorramendi
Zona_Noroeste,25/07/2017,10.4,10.9,9.8,3.2,Gorramendi
Zona_Noroeste,26/07/2017,13.4,17.4,9.8,0.0,Gorramendi
Zona_Noroeste,27/07/2017,16.4,19.6,14.5,0.0,Gorramendi
Zona_Noroeste,28/07/2017,15.3,16.7,14.3,0.3,Gorramendi
Zona_Noroeste,29/07/2017,19.2,22.2,14.7,0.0,Gorramendi
Zona_Noroeste,30/07/2017,15.0,17.1,11.6,0.3,Gorramendi
Zona_Noroeste,31/07/2017,12.7,14.9,11.3,0.0,Gorramendi
Zona_Noroeste,01/08/2017,13.4,14.5,12.0,0.0,Gorramendi
Zona_Noroeste,02/08/2017,18.3,24.3,13.0,0.0,Gorramendi
Zona_Noroeste,03/08/2017,17.0,19.9,14.6,0.0,Gorramendi
Zona_Noroeste,04/08/2017,17.9,21.4,14.2,0.0,Gorramendi
Zona_Noroeste,05/08/2017,13.9,17.0,9.6,2.5,Gorramendi
Zona_Noroeste,06/08/2017,11.5,14.1,9.0,0.0,Gorramendi
Zona_Noroeste,07/08/2017,14.8,19.8,11.0,17.3,Gorramendi
Zona_Noroeste,08/08/2017,9.8,11.3,8.8,14.1,Gorramendi
Zona_Noroeste,09/08/2017,8.4,9.7,6.5,9.1,Gorramendi
Zona_Noroeste,10/08/2017,9.0,10.1,7.7,27.7,Gorramendi
Zona_Noroeste,11/08/2017,9.1,11.2,7.6,0.2,Gorramendi
Zona_Noroeste,12/08/2017,12.0,15.6,8.3,0.0,Gorramendi
Zona_Noroeste,13/08/2017,14.8,17.6,11.3,0.0,Gorramendi
Zona_Noroeste,14/08/2017,21.9,27.5,17.1,0.3,Gorramendi
Zona_Noroeste,15/08/2017,14.8,20.0,12.9,0.7,Gorramendi
Zona_Noroeste,16/08/2017,13.6,15.1,12.6,0.4,Gorramendi
Zona_Noroeste,17/08/2017,17.7,20.1,13.0,0.0,Gorramendi
Zona_Noroeste,18/08/2017,13.8,15.8,11.7,1.1,Gorramendi
Zona_Noroeste,19/08/2017,11.8,14.5,9.5,0.2,Gorramendi
Zona_Noroeste,20/08/2017,12.2,15.4,8.6,0.0,Gorramendi
Zona_Noroeste,21/08/2017,20.6,25.2,13.9,0.0,Gorramendi
Zona_Noroeste,22/08/2017,21.3,25.5,13.8,0.8,Gorramendi
Zona_Noroeste,23/08/2017,16.2,19.6,12.5,0.0,Gorramendi
Zona_Noroeste,24/08/2017,18.3,23.2,14.4,0.2,Gorramendi
Zona_Noroeste,25/08/2017,17.4,22.9,13.7,0.2,Gorramendi
Zona_Noroeste,26/08/2017,21.4,26.1,14.7,0.5,Gorramendi
Zona_Noroeste,27/08/2017,20.3,22.8,15.6,11.0,Gorramendi
Zona_Noroeste,28/08/2017,20.0,23.7,14.5,8.1,Gorramendi
Zona_Noroeste,29/08/2017,17.2,20.2,14.1,8.2,Gorramendi
Zona_Noroeste,30/08/2017,15.1,19.5,10.0,24.7,Gorramendi
Zona_Noroeste,31/08/2017,9.9,11.9,8.7,5.6,Gorramendi
Zona_Noroeste,01/09/2017,9.2,10.2,8.2,6.6,Gorramendi
Zona_Noroeste,02/09/2017,9.5,12.0,7.9,6.7,Gorramendi
Zona_Noroeste,03/09/2017,14.7,17.0,12.1,0.8,Gorramendi
Zona_Noroeste,04/09/2017,13.9,15.1,12.4,6.3,Gorramendi
Zona_Noroeste,05/09/2017,14.9,19.0,12.8,0.0,Gorramendi
Zona_Noroeste,06/09/2017,11.5,13.0,8.8,3.4,Gorramendi
Zona_Noroeste,07/09/2017,9.8,11.6,8.7,0.0,Gorramendi
Zona_Noroeste,08/09/2017,11.6,16.0,8.5,0.0,Gorramendi
Zona_Noroeste,09/09/2017,8.8,11.3,6.2,41.9,Gorramendi
Zona_Noroeste,10/09/2017,8.6,11.8,6.6,49.0,Gorramendi
Zona_Noroeste,11/09/2017,10.5,12.7,7.9,27.8,Gorramendi
Zona_Noroeste,12/09/2017,9.8,12.3,7.9,6.0,Gorramendi
Zona_Noroeste,13/09/2017,14.1,19.3,11.5,0.1,Gorramendi
Zona_Noroeste,14/09/2017,9.0,12.5,6.8,8.5,Gorramendi
Zona_Noroeste,15/09/2017,6.5,7.6,5.3,15.8,Gorramendi
Zona_Noroeste,16/09/2017,5.5,7.5,4.2,4.8,Gorramendi
Zona_Noroeste,17/09/2017,7.4,11.1,5.2,0.1,Gorramendi
Zona_Noroeste,18/09/2017,8.1,9.2,7.2,14.0,Gorramendi
Zona_Noroeste,19/09/2017,7.5,9.3,6.1,0.0,Gorramendi
Zona_Noroeste,20/09/2017,12.7,17.4,6.1,0.1,Gorramendi
Zona_Noroeste,21/09/2017,13.8,17.2,9.2,0.0,Gorramendi
Zona_Noroeste,22/09/2017,11.0,12.7,9.0,1.3,Gorramendi
Zona_Noroeste,23/09/2017,15.5,19.3,11.8,0.0,Gorramendi
Zona_Noroeste,24/09/2017,17.8,21.4,12.9,0.1,Gorramendi
Zona_Noroeste,25/09/2017,10.8,13.2,9.8,18.2,Gorramendi
Zona_Noroeste,26/09/2017,10.4,12.9,9.0,0.1,Gorramendi
Zona_Noroeste,27/09/2017,15.4,19.1,12.6,0.0,Gorramendi
Zona_Noroeste,28/09/2017,17.4,20.4,15.2,0.0,Gorramendi
Zona_Noroeste,29/09/2017,15.7,20.1,11.4,0.0,Gorramendi
Zona_Noroeste,30/09/2017,10.6,12.5,9.1,2.3,Gorramendi
Zona_Noroeste,01/10/2017,11.4,13.0,8.9,16.8,Gorramendi
Zona_Noroeste,02/10/2017,13.5,14.9,11.9,6.5,Gorramendi
Zona_Noroeste,03/10/2017,13.6,14.7,12.6,1.9,Gorramendi
Zona_Noroeste,04/10/2017,16.2,18.4,12.5,0.2,Gorramendi
Zona_Noroeste,05/10/2017,13.8,17.5,9.7,0.2,Gorramendi
Zona_Noroeste,06/10/2017,8.6,11.0,6.0,2.7,Gorramendi
Zona_Noroeste,07/10/2017,8.7,13.7,5.8,0.0,Gorramendi
Zona_Noroeste,08/10/2017,10.7,13.7,8.9,0.0,Gorramendi
Zona_Noroeste,09/10/2017,10.5,13.6,8.4,0.0,Gorramendi
Zona_Noroeste,10/10/2017,13.5,17.0,9.5,0.0,Gorramendi
Zona_Noroeste,11/10/2017,15.2,19.5,9.8,0.0,Gorramendi
Zona_Noroeste,12/10/2017,16.3,19.8,11.4,0.0,Gorramendi
Zona_Noroeste,13/10/2017,18.7,21.9,17.1,0.0,Gorramendi
Zona_Noroeste,14/10/2017,18.7,21.3,16.0,0.0,Gorramendi
Zona_Noroeste,15/10/2017,16.6,19.6,14.5,0.0,Gorramendi
Zona_Noroeste,16/10/2017,17.5,20.7,15.5,0.0,Gorramendi
Zona_Noroeste,17/10/2017,15.6,17.8,12.5,0.0,Gorramendi
Zona_Noroeste,18/10/2017,10.9,14.0,7.8,4.9,Gorramendi
Zona_Noroeste,19/10/2017,9.4,12.5,7.7,0.4,Gorramendi
Zona_Noroeste,20/10/2017,12.8,15.8,10.5,0.0,Gorramendi
Zona_Noroeste,21/10/2017,8.8,14.0,6.1,12.5,Gorramendi
Zona_Noroeste,22/10/2017,6.2,6.8,5.5,13.4,Gorramendi
Zona_Noroeste,23/10/2017,9.6,13.7,5.2,0.1,Gorramendi
Zona_Noroeste,24/10/2017,16.7,19.4,13.3,0.0,Gorramendi
Zona_Noroeste,25/10/2017,18.5,20.6,16.3,0.0,Gorramendi
Zona_Noroeste,26/10/2017,17.0,20.2,12.8,0.0,Gorramendi
Zona_Noroeste,27/10/2017,10.4,12.6,8.8,0.8,Gorramendi
Zona_Noroeste,28/10/2017,7.4,9.0,5.7,0.4,Gorramendi
Zona_Noroeste,29/10/2017,6.8,8.0,5.5,1.5,Gorramendi
Zona_Noroeste,30/10/2017,6.0,7.6,2.5,2.1,Gorramendi
Zona_Noroeste,31/10/2017,7.3,11.2,2.0,0.1,Gorramendi
Zona_Noroeste,01/11/2017,11.0,12.8,9.5,0.0,Gorramendi
Zona_Noroeste,02/11/2017,11.8,12.8,10.1,0.0,Gorramendi
Zona_Noroeste,03/11/2017,12.3,13.4,11.1,0.0,Gorramendi
Zona_Noroeste,04/11/2017,9.2,11.5,7.0,52.7,Gorramendi
Zona_Noroeste,05/11/2017,4.0,7.3,1.6,47.6,Gorramendi
Zona_Noroeste,06/11/2017,1.4,2.3,-0.2,1.0,Gorramendi
Zona_Noroeste,07/11/2017,1.8,4.1,-1.0,3.6,Gorramendi
Zona_Noroeste,08/11/2017,1.2,4.1,-0.2,46.6,Gorramendi
Zona_Noroeste,09/11/2017,2.0,2.9,1.0,23.7,Gorramendi
Zona_Noroeste,10/11/2017,5.0,6.7,2.4,19.7,Gorramendi
Zona_Noroeste,11/11/2017,6.6,7.2,6.0,29.7,Gorramendi
Zona_Noroeste,12/11/2017,6.6,7.7,3.4,8.1,Gorramendi
Zona_Noroeste,13/11/2017,0.1,3.8,-1.0,1.4,Gorramendi
Zona_Noroeste,14/11/2017,-0.3,0.9,-1.5,0.0,Gorramendi
Zona_Noroeste,15/11/2017,6.3,10.6,0.1,0.0,Gorramendi
Zona_Noroeste,16/11/2017,10.2,11.7,9.2,0.0,Gorramendi
Zona_Noroeste,17/11/2017,7.2,9.5,4.1,0.0,Gorramendi
Zona_Noroeste,18/11/2017,4.1,5.3,2.5,0.0,Gorramendi
Zona_Noroeste,19/11/2017,5.7,8.4,2.7,0.0,Gorramendi
Zona_Noroeste,20/11/2017,10.4,13.6,5.5,0.0,Gorramendi
Zona_Noroeste,21/11/2017,11.5,14.3,9.5,0.0,Gorramendi
Zona_Noroeste,22/11/2017,10.7,13.3,7.6,0.0,Gorramendi
Zona_Noroeste,23/11/2017,11.3,12.7,9.4,0.2,Gorramendi
Zona_Noroeste,24/11/2017,9.4,12.0,7.7,0.4,Gorramendi
Zona_Noroeste,25/11/2017,3.4,7.7,0.4,35.7,Gorramendi
Zona_Noroeste,26/11/2017,0.9,1.9,-0.0,3.8,Gorramendi
Zona_Noroeste,27/11/2017,4.3,8.6,-0.2,0.0,Gorramendi
Zona_Noroeste,28/11/2017,2.3,5.1,0.4,6.5,Gorramendi
Zona_Noroeste,29/11/2017,-0.4,1.5,-2.3,13.7,Gorramendi
Zona_Noroeste,30/11/2017,-1.2,0.2,-2.5,12.6,Gorramendi
Zona_Noroeste,01/12/2017,-3.1,0.1,-5.7,24.9,Gorramendi
Zona_Noroeste,02/12/2017,-4.8,-2.8,-6.1,0.3,Gorramendi
Zona_Noroeste,03/12/2017,-2.9,1.5,-6.2,0.0,Gorramendi
Zona_Noroeste,04/12/2017,1.2,2.4,0.1,0.0,Gorramendi
Zona_Noroeste,05/12/2017,1.1,5.0,-0.5,0.0,Gorramendi
Zona_Noroeste,06/12/2017,4.5,6.3,3.0,0.0,Gorramendi
Zona_Noroeste,07/12/2017,4.2,5.8,2.9,0.0,Gorramendi
Zona_Noroeste,08/12/2017,3.0,5.1,0.7,24.7,Gorramendi
Zona_Noroeste,09/12/2017,1.4,5.6,-0.8,17.5,Gorramendi
Zona_Noroeste,10/12/2017,6.4,8.6,5.0,10.7,Gorramendi
Zona_Noroeste,11/12/2017,1.8,8.2,-1.0,17.6,Gorramendi
Zona_Noroeste,12/12/2017,-0.7,0.1,-2.4,13.0,Gorramendi
Zona_Noroeste,13/12/2017,2.4,4.7,-0.1,1.8,Gorramendi
Zona_Noroeste,14/12/2017,4.9,5.8,3.7,14.5,Gorramendi
Zona_Noroeste,15/12/2017,0.8,3.8,-0.6,28.2,Gorramendi
Zona_Noroeste,16/12/2017,-0.5,0.9,-1.4,24.5,Gorramendi
Zona_Noroeste,17/12/2017,0.4,1.7,-1.3,6.5,Gorramendi
Zona_Noroeste,18/12/2017,2.9,6.5,1.1,17.7,Gorramendi
Zona_Noroeste,19/12/2017,-0.7,1.7,-1.7,0.0,Gorramendi
Zona_Noroeste,20/12/2017,-0.4,2.2,-2.4,0.0,Gorramendi
Zona_Noroeste,21/12/2017,2.7,5.8,-0.7,0.0,Gorramendi
Zona_Noroeste,22/12/2017,1.9,4.3,0.5,0.1,Gorramendi
Zona_Noroeste,23/12/2017,2.5,8.0,1.5,0.0,Gorramendi
Zona_Noroeste,24/12/2017,7.6,9.4,6.4,0.0,Gorramendi
Zona_Noroeste,25/12/2017,5.4,7.4,1.9,0.8,Gorramendi
Zona_Noroeste,26/12/2017,1.6,2.8,0.9,4.0,Gorramendi
Zona_Noroeste,27/12/2017,0.4,1.8,-1.2,55.4,Gorramendi
Zona_Noroeste,28/12/2017,1.0,3.9,-1.4,41.1,Gorramendi
Zona_Noroeste,29/12/2017,5.6,8.1,2.7,6.4,Gorramendi
Zona_Noroeste,30/12/2017,8.5,10.3,7.6,0.0,Gorramendi
Zona_Noroeste,31/12/2017,5.1,8.0,1.0,7.9,Gorramendi
