Comarca,Fecha, Temperatura media, Temperatura maxima, Temperatura minima, Precipitacion acumulada,Localidad
Zona_Noroeste,01/01/2014,5.4,6.7,4.0,0.0,Gorramendi
Zona_Noroeste,02/01/2014,6.8,8.0,5.2,1.2,Gorramendi
Zona_Noroeste,03/01/2014,7.4,8.7,5.1,7.4,Gorramendi
Zona_Noroeste,04/01/2014,3.8,7.9,-1.1,5.0,Gorramendi
Zona_Noroeste,05/01/2014,3.0,8.3,-0.6,1.5,Gorramendi
Zona_Noroeste,06/01/2014,7.3,8.2,5.8,0.0,Gorramendi
Zona_Noroeste,07/01/2014,8.6,9.8,7.3,0.0,Gorramendi
Zona_Noroeste,08/01/2014,10.7,12.1,8.9,0.0,Gorramendi
Zona_Noroeste,09/01/2014,10.9,12.0,9.6,0.0,Gorramendi
Zona_Noroeste,10/01/2014,11.1,12.6,7.4,0.0,Gorramendi
Zona_Noroeste,11/01/2014,5.2,7.8,3.7,0.0,Gorramendi
Zona_Noroeste,12/01/2014,6.7,8.5,5.4,0.4,Gorramendi
Zona_Noroeste,13/01/2014,2.9,5.4,1.6,13.9,Gorramendi
Zona_Noroeste,14/01/2014,1.8,3.2,1.0,8.7,Gorramendi
Zona_Noroeste,15/01/2014,5.4,6.6,3.0,1.5,Gorramendi
Zona_Noroeste,16/01/2014,3.9,6.0,1.8,3.2,Gorramendi
Zona_Noroeste,17/01/2014,2.5,4.5,0.5,0.0,Gorramendi
Zona_Noroeste,18/01/2014,2.2,4.2,-0.6,9.5,Gorramendi
Zona_Noroeste,19/01/2014,-0.4,0.4,-1.8,21.5,Gorramendi
Zona_Noroeste,20/01/2014,-0.7,0.1,-1.6,26.8,Gorramendi
Zona_Noroeste,21/01/2014,1.2,3.3,-0.5,1.1,Gorramendi
Zona_Noroeste,22/01/2014,2.0,3.3,0.5,39.9,Gorramendi
Zona_Noroeste,23/01/2014,2.0,3.2,0.2,24.6,Gorramendi
Zona_Noroeste,24/01/2014,4.3,6.5,2.4,106.8,Gorramendi
Zona_Noroeste,25/01/2014,5.9,6.7,4.4,69.7,Gorramendi
Zona_Noroeste,26/01/2014,6.1,8.2,3.6,14.3,Gorramendi
Zona_Noroeste,27/01/2014,-0.5,3.6,-2.0,36.9,Gorramendi
Zona_Noroeste,28/01/2014,-1.0,0.6,-2.2,15.5,Gorramendi
Zona_Noroeste,29/01/2014,-0.4,0.7,-1.7,12.2,Gorramendi
Zona_Noroeste,30/01/2014,-0.9,-0.2,-1.9,29.2,Gorramendi
Zona_Noroeste,31/01/2014,1.2,3.9,-1.0,10.6,Gorramendi
Zona_Noroeste,01/02/2014,0.5,4.7,-2.6,32.7,Gorramendi
Zona_Noroeste,02/02/2014,-1.0,0.7,-2.3,2.3,Gorramendi
Zona_Noroeste,03/02/2014,-0.3,0.8,-2.3,1.1,Gorramendi
Zona_Noroeste,04/02/2014,0.8,2.6,-1.4,0.0,Gorramendi
Zona_Noroeste,05/02/2014,3.0,5.8,1.7,0.0,Gorramendi
Zona_Noroeste,06/02/2014,6.4,10.4,3.1,3.0,Gorramendi
Zona_Noroeste,07/02/2014,3.0,5.3,-0.2,7.3,Gorramendi
Zona_Noroeste,08/02/2014,2.3,5.4,-1.1,15.4,Gorramendi
Zona_Noroeste,09/02/2014,0.3,3.2,-1.3,2.9,Gorramendi
Zona_Noroeste,10/02/2014,0.1,2.7,-1.4,51.9,Gorramendi
Zona_Noroeste,11/02/2014,-0.6,1.6,-2.9,11.0,Gorramendi
Zona_Noroeste,12/02/2014,2.9,5.4,0.3,1.1,Gorramendi
Zona_Noroeste,13/02/2014,4.8,6.8,2.5,1.9,Gorramendi
Zona_Noroeste,14/02/2014,9.7,12.5,6.6,0.0,Gorramendi
Zona_Noroeste,15/02/2014,4.2,7.8,2.3,2.3,Gorramendi
Zona_Noroeste,16/02/2014,1.6,3.6,0.5,0.0,Gorramendi
Zona_Noroeste,17/02/2014,3.8,6.6,1.0,0.0,Gorramendi
Zona_Noroeste,18/02/2014,3.1,4.9,1.6,6.9,Gorramendi
Zona_Noroeste,19/02/2014,2.7,5.2,1.1,7.3,Gorramendi
Zona_Noroeste,20/02/2014,6.0,9.3,2.0,4.2,Gorramendi
Zona_Noroeste,21/02/2014,-0.1,2.4,-1.4,16.0,Gorramendi
Zona_Noroeste,22/02/2014,2.4,5.3,0.7,0.0,Gorramendi
Zona_Noroeste,23/02/2014,6.2,9.3,2.9,0.0,Gorramendi
Zona_Noroeste,24/02/2014,6.2,8.7,4.7,0.0,Gorramendi
Zona_Noroeste,25/02/2014,2.6,6.4,-1.3,14.7,Gorramendi
Zona_Noroeste,26/02/2014,-0.9,-0.2,-2.0,18.5,Gorramendi
Zona_Noroeste,27/02/2014,1.8,4.2,-0.9,7.7,Gorramendi
Zona_Noroeste,28/02/2014,0.6,3.9,-1.4,24.1,Gorramendi
Zona_Noroeste,01/03/2014,0.6,3.4,-1.7,19.9,Gorramendi
Zona_Noroeste,02/03/2014,4.3,6.4,1.9,10.0,Gorramendi
Zona_Noroeste,03/03/2014,0.0,2.7,-1.3,51.6,Gorramendi
Zona_Noroeste,04/03/2014,1.2,4.8,-0.4,38.2,Gorramendi
Zona_Noroeste,05/03/2014,4.4,4.9,3.8,71.6,Gorramendi
Zona_Noroeste,06/03/2014,4.0,6.4,2.7,1.8,Gorramendi
Zona_Noroeste,07/03/2014,7.1,10.3,5.4,0.0,Gorramendi
Zona_Noroeste,08/03/2014,10.8,15.0,6.2,0.0,Gorramendi
Zona_Noroeste,09/03/2014,10.6,13.6,8.2,0.0,Gorramendi
Zona_Noroeste,10/03/2014,7.9,9.4,6.1,0.0,Gorramendi
Zona_Noroeste,11/03/2014,7.0,9.1,5.1,0.0,Gorramendi
Zona_Noroeste,12/03/2014,8.1,12.5,5.7,0.0,Gorramendi
Zona_Noroeste,13/03/2014,6.9,10.3,4.6,0.0,Gorramendi
Zona_Noroeste,14/03/2014,7.7,10.8,5.9,0.0,Gorramendi
Zona_Noroeste,15/03/2014,3.5,6.3,2.3,0.0,Gorramendi
Zona_Noroeste,16/03/2014,4.8,10.4,1.5,0.0,Gorramendi
Zona_Noroeste,17/03/2014,14.1,18.4,9.4,0.0,Gorramendi
Zona_Noroeste,18/03/2014,4.6,9.6,2.8,1.0,Gorramendi
Zona_Noroeste,19/03/2014,4.8,11.9,1.6,0.3,Gorramendi
Zona_Noroeste,20/03/2014,11.6,16.0,8.3,0.0,Gorramendi
Zona_Noroeste,21/03/2014,9.8,14.3,5.3,6.5,Gorramendi
Zona_Noroeste,22/03/2014,1.2,5.9,-1.6,20.4,Gorramendi
Zona_Noroeste,23/03/2014,-1.2,-0.2,-3.1,46.7,Gorramendi
Zona_Noroeste,24/03/2014,1.0,3.1,-2.2,17.2,Gorramendi
Zona_Noroeste,25/03/2014,0.5,2.6,-2.2,48.5,Gorramendi
Zona_Noroeste,26/03/2014,-0.1,0.9,-2.2,39.1,Gorramendi
Zona_Noroeste,27/03/2014,1.0,4.1,-1.8,6.8,Gorramendi
Zona_Noroeste,28/03/2014,5.5,7.9,3.5,0.0,Gorramendi
Zona_Noroeste,29/03/2014,7.8,10.6,5.5,0.0,Gorramendi
Zona_Noroeste,30/03/2014,7.3,8.3,6.6,0.0,Gorramendi
Zona_Noroeste,31/03/2014,8.8,11.3,6.3,0.0,Gorramendi
Zona_Noroeste,01/04/2014,11.1,13.8,8.6,0.0,Gorramendi
Zona_Noroeste,02/04/2014,10.3,13.8,6.3,1.1,Gorramendi
Zona_Noroeste,03/04/2014,5.3,7.1,3.9,46.3,Gorramendi
Zona_Noroeste,04/04/2014,5.4,8.7,3.5,5.1,Gorramendi
Zona_Noroeste,05/04/2014,8.7,11.8,6.0,4.1,Gorramendi
Zona_Noroeste,06/04/2014,13.1,16.6,8.8,0.0,Gorramendi
Zona_Noroeste,07/04/2014,13.1,19.9,8.1,0.0,Gorramendi
Zona_Noroeste,08/04/2014,5.5,8.0,3.7,0.9,Gorramendi
Zona_Noroeste,09/04/2014,9.3,14.3,3.2,0.0,Gorramendi
Zona_Noroeste,10/04/2014,14.1,17.7,8.5,3.9,Gorramendi
Zona_Noroeste,11/04/2014,8.2,14.1,4.8,0.0,Gorramendi
Zona_Noroeste,12/04/2014,5.7,7.0,4.6,0.1,Gorramendi
Zona_Noroeste,13/04/2014,7.9,9.7,6.2,0.0,Gorramendi
Zona_Noroeste,14/04/2014,10.5,13.8,7.0,0.0,Gorramendi
Zona_Noroeste,15/04/2014,13.5,16.5,10.8,0.0,Gorramendi
Zona_Noroeste,16/04/2014,14.6,17.5,12.3,0.0,Gorramendi
Zona_Noroeste,17/04/2014,11.3,13.6,9.5,0.0,Gorramendi
Zona_Noroeste,18/04/2014,11.0,13.8,6.7,0.0,Gorramendi
Zona_Noroeste,19/04/2014,5.8,8.4,3.8,0.0,Gorramendi
Zona_Noroeste,20/04/2014,4.4,5.6,3.0,10.9,Gorramendi
Zona_Noroeste,21/04/2014,7.2,10.0,4.6,9.1,Gorramendi
Zona_Noroeste,22/04/2014,6.5,8.7,4.8,3.2,Gorramendi
Zona_Noroeste,23/04/2014,8.1,12.2,5.5,0.6,Gorramendi
Zona_Noroeste,24/04/2014,6.8,9.9,3.1,7.9,Gorramendi
Zona_Noroeste,25/04/2014,4.3,7.8,1.9,20.2,Gorramendi
Zona_Noroeste,26/04/2014,5.6,7.3,2.8,13.1,Gorramendi
Zona_Noroeste,27/04/2014,3.8,6.0,1.9,3.3,Gorramendi
Zona_Noroeste,28/04/2014,5.0,6.2,3.6,15.6,Gorramendi
Zona_Noroeste,29/04/2014,6.9,8.2,5.0,8.2,Gorramendi
Zona_Noroeste,30/04/2014,7.4,8.7,6.3,2.6,Gorramendi
Zona_Noroeste,01/05/2014,6.2,7.7,5.0,13.9,Gorramendi
Zona_Noroeste,02/05/2014,4.3,5.1,3.4,27.1,Gorramendi
Zona_Noroeste,03/05/2014,4.9,6.3,2.5,10.6,Gorramendi
Zona_Noroeste,04/05/2014,5.9,9.6,2.3,0.0,Gorramendi
Zona_Noroeste,05/05/2014,14.7,19.0,9.0,0.0,Gorramendi
Zona_Noroeste,06/05/2014,12.7,16.4,8.7,0.0,Gorramendi
Zona_Noroeste,07/05/2014,9.7,11.9,8.0,0.0,Gorramendi
Zona_Noroeste,08/05/2014,10.1,14.3,7.3,0.0,Gorramendi
Zona_Noroeste,09/05/2014,8.9,10.9,6.6,0.0,Gorramendi
Zona_Noroeste,10/05/2014,11.7,14.9,8.5,0.0,Gorramendi
Zona_Noroeste,11/05/2014,6.4,9.5,4.4,2.3,Gorramendi
Zona_Noroeste,12/05/2014,5.7,7.7,4.1,0.6,Gorramendi
Zona_Noroeste,13/05/2014,3.9,5.5,2.5,11.1,Gorramendi
Zona_Noroeste,14/05/2014,6.5,9.9,3.4,0.0,Gorramendi
Zona_Noroeste,15/05/2014,9.1,12.4,6.2,0.0,Gorramendi
Zona_Noroeste,16/05/2014,8.1,10.3,5.4,0.0,Gorramendi
Zona_Noroeste,17/05/2014,8.9,11.4,6.7,0.0,Gorramendi
Zona_Noroeste,18/05/2014,14.1,18.4,10.2,0.0,Gorramendi
Zona_Noroeste,19/05/2014,13.7,17.2,8.2,13.3,Gorramendi
Zona_Noroeste,20/05/2014,9.7,12.3,7.6,4.8,Gorramendi
Zona_Noroeste,21/05/2014,10.3,13.5,7.1,38.5,Gorramendi
Zona_Noroeste,22/05/2014,7.2,9.6,5.4,1.4,Gorramendi
Zona_Noroeste,23/05/2014,4.8,7.8,0.2,6.4,Gorramendi
Zona_Noroeste,24/05/2014,5.6,7.6,3.4,18.7,Gorramendi
Zona_Noroeste,25/05/2014,5.9,7.9,5.0,28.0,Gorramendi
Zona_Noroeste,26/05/2014,5.0,6.5,3.7,8.3,Gorramendi
Zona_Noroeste,27/05/2014,7.3,10.0,4.7,0.4,Gorramendi
Zona_Noroeste,28/05/2014,6.0,7.4,4.2,9.8,Gorramendi
Zona_Noroeste,29/05/2014,7.3,10.8,4.3,3.3,Gorramendi
Zona_Noroeste,30/05/2014,6.7,7.7,5.9,13.6,Gorramendi
Zona_Noroeste,31/05/2014,7.3,8.9,6.2,10.7,Gorramendi
Zona_Noroeste,01/06/2014,8.4,10.1,6.7,3.1,Gorramendi
Zona_Noroeste,02/06/2014,7.9,8.8,6.8,9.3,Gorramendi
Zona_Noroeste,03/06/2014,9.6,12.4,6.2,0.0,Gorramendi
Zona_Noroeste,04/06/2014,7.1,10.5,5.0,6.5,Gorramendi
Zona_Noroeste,05/06/2014,13.7,19.0,5.5,0.1,Gorramendi
Zona_Noroeste,06/06/2014,19.0,23.5,11.9,0.0,Gorramendi
Zona_Noroeste,07/06/2014,17.5,23.4,11.2,0.0,Gorramendi
Zona_Noroeste,08/06/2014,17.7,20.8,14.6,0.1,Gorramendi
Zona_Noroeste,09/06/2014,15.3,21.5,10.9,5.5,Gorramendi
Zona_Noroeste,10/06/2014,11.1,13.1,9.1,0.5,Gorramendi
Zona_Noroeste,11/06/2014,14.8,17.6,11.2,0.1,Gorramendi
Zona_Noroeste,12/06/2014,18.0,21.0,14.9,0.0,Gorramendi
Zona_Noroeste,13/06/2014,15.8,17.8,11.8,0.0,Gorramendi
Zona_Noroeste,14/06/2014,11.4,12.9,10.5,0.1,Gorramendi
Zona_Noroeste,15/06/2014,10.8,12.0,9.5,0.3,Gorramendi
Zona_Noroeste,16/06/2014,10.4,11.2,9.2,0.0,Gorramendi
Zona_Noroeste,17/06/2014,11.0,12.8,9.6,0.0,Gorramendi
Zona_Noroeste,18/06/2014,11.6,14.7,8.8,0.0,Gorramendi
Zona_Noroeste,19/06/2014,15.3,18.6,11.0,0.0,Gorramendi
Zona_Noroeste,20/06/2014,19.5,24.7,16.1,0.0,Gorramendi
Zona_Noroeste,21/06/2014,18.8,22.8,14.6,0.4,Gorramendi
Zona_Noroeste,22/06/2014,15.8,19.1,13.1,10.7,Gorramendi
Zona_Noroeste,23/06/2014,15.1,19.0,11.7,4.7,Gorramendi
Zona_Noroeste,24/06/2014,12.7,16.6,11.0,21.3,Gorramendi
Zona_Noroeste,25/06/2014,12.3,12.7,11.4,1.5,Gorramendi
Zona_Noroeste,26/06/2014,11.1,11.8,9.9,14.4,Gorramendi
Zona_Noroeste,27/06/2014,14.2,18.4,10.9,0.0,Gorramendi
Zona_Noroeste,28/06/2014,14.0,20.6,8.7,3.8,Gorramendi
Zona_Noroeste,29/06/2014,8.8,10.2,7.9,0.8,Gorramendi
Zona_Noroeste,30/06/2014,12.8,16.1,7.9,0.0,Gorramendi
Zona_Noroeste,01/07/2014,14.2,18.0,10.4,35.6,Gorramendi
Zona_Noroeste,02/07/2014,11.9,13.3,10.6,12.8,Gorramendi
Zona_Noroeste,03/07/2014,13.5,15.2,11.6,17.1,Gorramendi
Zona_Noroeste,04/07/2014,13.3,15.9,10.5,121.8,Gorramendi
Zona_Noroeste,05/07/2014,17.4,22.4,13.9,1.7,Gorramendi
Zona_Noroeste,06/07/2014,13.3,18.3,8.7,23.7,Gorramendi
Zona_Noroeste,07/07/2014,8.7,9.4,7.7,4.1,Gorramendi
Zona_Noroeste,08/07/2014,9.9,11.6,8.0,5.8,Gorramendi
Zona_Noroeste,09/07/2014,9.0,9.9,8.0,13.0,Gorramendi
Zona_Noroeste,10/07/2014,8.9,9.7,8.2,0.8,Gorramendi
Zona_Noroeste,11/07/2014,10.3,11.3,9.3,7.5,Gorramendi
Zona_Noroeste,12/07/2014,10.2,11.2,9.5,12.6,Gorramendi
Zona_Noroeste,13/07/2014,12.1,16.3,9.1,0.1,Gorramendi
Zona_Noroeste,14/07/2014,12.7,14.7,11.8,7.4,Gorramendi
Zona_Noroeste,15/07/2014,15.3,19.2,11.4,0.0,Gorramendi
Zona_Noroeste,16/07/2014,20.9,25.6,16.2,0.0,Gorramendi
Zona_Noroeste,17/07/2014,23.8,29.2,15.0,0.0,Gorramendi
Zona_Noroeste,18/07/2014,21.1,27.9,14.6,0.5,Gorramendi
Zona_Noroeste,19/07/2014,16.4,20.4,13.5,2.8,Gorramendi
Zona_Noroeste,20/07/2014,11.7,13.9,10.8,11.9,Gorramendi
Zona_Noroeste,21/07/2014,11.7,12.8,10.7,17.2,Gorramendi
Zona_Noroeste,22/07/2014,13.1,15.9,10.2,0.0,Gorramendi
Zona_Noroeste,23/07/2014,16.0,18.6,13.7,0.0,Gorramendi
Zona_Noroeste,24/07/2014,15.5,16.7,14.5,0.3,Gorramendi
Zona_Noroeste,25/07/2014,15.7,17.9,14.2,3.3,Gorramendi
Zona_Noroeste,26/07/2014,15.5,17.9,13.5,0.0,Gorramendi
Zona_Noroeste,27/07/2014,15.4,17.6,13.0,0.0,Gorramendi
Zona_Noroeste,28/07/2014,13.0,15.1,10.8,9.6,Gorramendi
Zona_Noroeste,29/07/2014,11.1,12.9,10.0,7.5,Gorramendi
Zona_Noroeste,30/07/2014,12.1,13.2,10.9,1.0,Gorramendi
Zona_Noroeste,31/07/2014,14.8,18.1,12.1,0.0,Gorramendi
Zona_Noroeste,01/08/2014,13.7,15.6,12.3,8.3,Gorramendi
Zona_Noroeste,02/08/2014,14.2,16.3,12.4,3.6,Gorramendi
Zona_Noroeste,03/08/2014,14.5,17.8,12.3,1.3,Gorramendi
Zona_Noroeste,04/08/2014,12.9,14.5,11.4,19.1,Gorramendi
Zona_Noroeste,05/08/2014,14.5,17.1,12.8,0.0,Gorramendi
Zona_Noroeste,06/08/2014,14.8,17.2,12.5,0.0,Gorramendi
Zona_Noroeste,07/08/2014,16.3,19.2,14.2,0.0,Gorramendi
Zona_Noroeste,08/08/2014,17.3,24.3,14.6,15.2,Gorramendi
Zona_Noroeste,09/08/2014,17.9,22.5,13.3,2.1,Gorramendi
Zona_Noroeste,10/08/2014,17.6,22.5,13.8,2.2,Gorramendi
Zona_Noroeste,11/08/2014,12.1,13.8,10.5,1.3,Gorramendi
Zona_Noroeste,12/08/2014,13.7,18.3,10.2,0.0,Gorramendi
Zona_Noroeste,13/08/2014,9.8,13.5,8.9,31.8,Gorramendi
Zona_Noroeste,14/08/2014,10.3,13.2,8.9,2.9,Gorramendi
Zona_Noroeste,15/08/2014,10.1,10.8,9.5,4.0,Gorramendi
Zona_Noroeste,16/08/2014,9.6,11.5,8.0,4.6,Gorramendi
Zona_Noroeste,17/08/2014,12.7,17.9,8.5,0.0,Gorramendi
Zona_Noroeste,18/08/2014,12.3,15.3,10.7,1.9,Gorramendi
Zona_Noroeste,19/08/2014,11.4,14.0,9.7,1.0,Gorramendi
Zona_Noroeste,20/08/2014,10.1,11.7,8.7,0.0,Gorramendi
Zona_Noroeste,21/08/2014,10.1,12.0,7.9,0.1,Gorramendi
Zona_Noroeste,22/08/2014,9.5,10.2,8.6,10.8,Gorramendi
Zona_Noroeste,23/08/2014,10.6,12.9,8.9,0.0,Gorramendi
Zona_Noroeste,24/08/2014,14.3,19.4,9.4,0.0,Gorramendi
Zona_Noroeste,25/08/2014,18.9,24.3,15.3,0.0,Gorramendi
Zona_Noroeste,26/08/2014,17.3,23.4,13.3,1.4,Gorramendi
Zona_Noroeste,27/08/2014,17.7,22.3,13.8,0.7,Gorramendi
Zona_Noroeste,28/08/2014,16.6,20.1,12.5,0.5,Gorramendi
Zona_Noroeste,29/08/2014,12.6,13.4,11.4,3.8,Gorramendi
Zona_Noroeste,30/08/2014,12.6,13.7,11.5,0.3,Gorramendi
Zona_Noroeste,31/08/2014,13.4,15.8,11.9,0.0,Gorramendi
Zona_Noroeste,01/09/2014,14.6,17.3,11.9,0.0,Gorramendi
Zona_Noroeste,02/09/2014,15.7,18.3,13.6,0.0,Gorramendi
Zona_Noroeste,03/09/2014,17.4,21.2,14.7,0.0,Gorramendi
Zona_Noroeste,04/09/2014,14.8,16.8,13.7,0.0,Gorramendi
Zona_Noroeste,05/09/2014,14.5,16.4,11.9,0.0,Gorramendi
Zona_Noroeste,06/09/2014,19.7,24.7,14.5,0.0,Gorramendi
Zona_Noroeste,07/09/2014,19.4,24.8,13.7,17.7,Gorramendi
Zona_Noroeste,08/09/2014,16.3,20.1,14.5,0.0,Gorramendi
Zona_Noroeste,09/09/2014,17.6,20.0,14.6,0.0,Gorramendi
Zona_Noroeste,10/09/2014,19.6,22.2,18.0,0.0,Gorramendi
Zona_Noroeste,11/09/2014,18.0,20.9,15.5,0.0,Gorramendi
Zona_Noroeste,12/09/2014,16.0,17.9,14.2,0.0,Gorramendi
Zona_Noroeste,13/09/2014,16.0,19.6,13.9,0.0,Gorramendi
Zona_Noroeste,14/09/2014,16.5,20.7,11.7,8.9,Gorramendi
Zona_Noroeste,15/09/2014,16.5,19.6,13.9,0.0,Gorramendi
Zona_Noroeste,16/09/2014,18.0,21.6,14.4,1.0,Gorramendi
Zona_Noroeste,17/09/2014,17.5,20.3,15.0,0.0,Gorramendi
Zona_Noroeste,18/09/2014,17.1,19.5,14.4,0.0,Gorramendi
Zona_Noroeste,19/09/2014,16.7,19.5,13.7,0.0,Gorramendi
Zona_Noroeste,20/09/2014,16.4,20.4,13.7,12.6,Gorramendi
Zona_Noroeste,21/09/2014,15.4,17.3,13.9,0.0,Gorramendi
Zona_Noroeste,22/09/2014,13.3,14.2,11.4,0.0,Gorramendi
Zona_Noroeste,23/09/2014,10.0,12.8,7.3,0.0,Gorramendi
Zona_Noroeste,24/09/2014,8.5,10.4,7.2,0.0,Gorramendi
Zona_Noroeste,25/09/2014,9.5,11.6,7.2,0.0,Gorramendi
Zona_Noroeste,26/09/2014,11.6,14.4,9.0,0.0,Gorramendi
Zona_Noroeste,27/09/2014,15.1,18.7,11.9,0.0,Gorramendi
Zona_Noroeste,28/09/2014,14.1,15.4,13.0,0.0,Gorramendi
Zona_Noroeste,29/09/2014,13.4,14.7,12.5,1.1,Gorramendi
Zona_Noroeste,30/09/2014,12.1,13.0,11.6,19.1,Gorramendi
Zona_Noroeste,01/10/2014,12.7,14.0,11.2,0.0,Gorramendi
Zona_Noroeste,02/10/2014,13.4,15.7,11.8,0.0,Gorramendi
Zona_Noroeste,03/10/2014,14.1,16.6,12.4,0.0,Gorramendi
Zona_Noroeste,04/10/2014,13.3,16.9,8.6,28.1,Gorramendi
Zona_Noroeste,05/10/2014,8.1,11.2,5.8,3.1,Gorramendi
Zona_Noroeste,06/10/2014,13.2,16.5,9.9,0.0,Gorramendi
Zona_Noroeste,07/10/2014,14.1,16.9,12.2,0.0,Gorramendi
Zona_Noroeste,08/10/2014,15.5,18.6,13.8,2.1,Gorramendi
Zona_Noroeste,09/10/2014,12.6,14.9,9.1,9.4,Gorramendi
Zona_Noroeste,10/10/2014,11.5,13.5,10.0,1.2,Gorramendi
Zona_Noroeste,11/10/2014,13.1,15.7,9.9,1.6,Gorramendi
Zona_Noroeste,12/10/2014,12.2,15.0,8.6,3.2,Gorramendi
Zona_Noroeste,13/10/2014,10.5,12.3,8.7,0.1,Gorramendi
Zona_Noroeste,14/10/2014,10.4,15.1,8.9,0.0,Gorramendi
Zona_Noroeste,15/10/2014,11.0,13.0,8.6,2.2,Gorramendi
Zona_Noroeste,16/10/2014,15.0,17.8,12.1,0.8,Gorramendi
Zona_Noroeste,17/10/2014,16.1,19.0,13.4,0.0,Gorramendi
Zona_Noroeste,18/10/2014,17.9,20.7,14.9,0.0,Gorramendi
Zona_Noroeste,19/10/2014,20.6,23.4,18.7,0.0,Gorramendi
Zona_Noroeste,20/10/2014,19.1,20.9,16.6,0.0,Gorramendi
Zona_Noroeste,21/10/2014,13.7,16.6,8.4,6.8,Gorramendi
Zona_Noroeste,22/10/2014,6.7,8.2,5.9,0.3,Gorramendi
Zona_Noroeste,23/10/2014,12.6,14.7,7.7,0.0,Gorramendi
Zona_Noroeste,24/10/2014,16.6,21.0,13.0,0.0,Gorramendi
Zona_Noroeste,25/10/2014,16.1,19.1,13.5,0.0,Gorramendi
Zona_Noroeste,26/10/2014,17.2,19.6,15.1,0.0,Gorramendi
Zona_Noroeste,27/10/2014,15.0,17.0,12.0,0.0,Gorramendi
Zona_Noroeste,28/10/2014,12.9,15.5,11.0,0.0,Gorramendi
Zona_Noroeste,29/10/2014,15.2,19.4,11.1,0.0,Gorramendi
Zona_Noroeste,30/10/2014,19.0,21.5,16.3,0.0,Gorramendi
Zona_Noroeste,31/10/2014,16.7,18.5,14.5,0.0,Gorramendi
Zona_Noroeste,01/11/2014,13.0,15.1,10.5,0.0,Gorramendi
Zona_Noroeste,02/11/2014,10.5,12.0,9.1,2.1,Gorramendi
Zona_Noroeste,03/11/2014,8.7,10.7,5.2,18.0,Gorramendi
Zona_Noroeste,04/11/2014,2.7,5.2,0.5,37.4,Gorramendi
Zona_Noroeste,05/11/2014,2.2,3.2,0.9,22.6,Gorramendi
Zona_Noroeste,06/11/2014,4.7,7.1,1.8,3.0,Gorramendi
Zona_Noroeste,07/11/2014,6.6,8.2,5.6,8.2,Gorramendi
Zona_Noroeste,08/11/2014,6.2,7.6,4.9,0.0,Gorramendi
Zona_Noroeste,09/11/2014,3.7,6.0,2.9,2.2,Gorramendi
Zona_Noroeste,10/11/2014,5.0,8.1,2.4,0.0,Gorramendi
Zona_Noroeste,11/11/2014,4.9,5.9,4.1,0.0,Gorramendi
Zona_Noroeste,12/11/2014,6.7,10.3,4.4,0.0,Gorramendi
Zona_Noroeste,13/11/2014,9.9,12.2,6.9,0.1,Gorramendi
Zona_Noroeste,14/11/2014,8.6,12.2,5.8,13.8,Gorramendi
Zona_Noroeste,15/11/2014,5.0,7.7,4.1,0.2,Gorramendi
Zona_Noroeste,16/11/2014,4.2,6.2,2.2,13.1,Gorramendi
Zona_Noroeste,17/11/2014,3.4,4.5,2.2,12.4,Gorramendi
Zona_Noroeste,18/11/2014,5.5,7.2,3.9,0.0,Gorramendi
Zona_Noroeste,19/11/2014,8.9,12.5,5.2,0.0,Gorramendi
Zona_Noroeste,20/11/2014,13.2,15.9,10.3,0.0,Gorramendi
Zona_Noroeste,21/11/2014,12.9,15.3,9.9,0.0,Gorramendi
Zona_Noroeste,22/11/2014,13.6,15.7,10.8,0.0,Gorramendi
Zona_Noroeste,23/11/2014,15.1,17.3,12.5,0.0,Gorramendi
Zona_Noroeste,24/11/2014,10.5,13.0,9.0,0.6,Gorramendi
Zona_Noroeste,25/11/2014,8.8,9.8,7.6,8.1,Gorramendi
Zona_Noroeste,26/11/2014,6.8,8.0,6.2,2.8,Gorramendi
Zona_Noroeste,27/11/2014,8.0,10.4,5.7,0.0,Gorramendi
Zona_Noroeste,28/11/2014,9.3,11.4,7.5,1.8,Gorramendi
Zona_Noroeste,29/11/2014,8.6,11.4,7.1,4.5,Gorramendi
Zona_Noroeste,30/11/2014,8.3,9.0,7.3,21.9,Gorramendi
Zona_Noroeste,01/12/2014,3.3,7.3,0.6,13.1,Gorramendi
Zona_Noroeste,02/12/2014,1.5,2.8,0.2,0.9,Gorramendi
Zona_Noroeste,03/12/2014,-0.2,1.1,-1.5,0.2,Gorramendi
Zona_Noroeste,04/12/2014,0.6,2.5,-2.0,0.7,Gorramendi
Zona_Noroeste,05/12/2014,1.5,2.3,0.8,13.2,Gorramendi
Zona_Noroeste,06/12/2014,-1.5,0.7,-3.1,1.8,Gorramendi
Zona_Noroeste,07/12/2014,0.1,4.2,-3.0,12.2,Gorramendi
Zona_Noroeste,08/12/2014,3.6,4.7,0.0,72.0,Gorramendi
Zona_Noroeste,09/12/2014,-1.4,-0.3,-2.7,0.0,Gorramendi
Zona_Noroeste,10/12/2014,3.6,6.0,-0.2,12.1,Gorramendi
Zona_Noroeste,11/12/2014,3.7,5.8,1.9,7.9,Gorramendi
Zona_Noroeste,12/12/2014,5.4,7.8,2.2,0.0,Gorramendi
Zona_Noroeste,13/12/2014,5.7,6.8,4.4,2.0,Gorramendi
Zona_Noroeste,14/12/2014,5.2,6.4,3.9,6.0,Gorramendi
Zona_Noroeste,15/12/2014,1.8,4.2,1.2,4.1,Gorramendi
Zona_Noroeste,16/12/2014,4.6,5.9,3.3,54.1,Gorramendi
Zona_Noroeste,17/12/2014,4.9,6.9,3.3,13.9,Gorramendi
Zona_Noroeste,18/12/2014,4.9,5.4,4.3,1.8,Gorramendi
Zona_Noroeste,19/12/2014,3.5,4.7,2.8,0.2,Gorramendi
Zona_Noroeste,20/12/2014,5.9,7.1,4.0,8.3,Gorramendi
Zona_Noroeste,21/12/2014,3.9,8.6,0.8,0.0,Gorramendi
Zona_Noroeste,22/12/2014,10.9,14.0,7.2,0.0,Gorramendi
Zona_Noroeste,23/12/2014,8.3,9.6,5.0,0.0,Gorramendi
Zona_Noroeste,24/12/2014,4.6,5.9,3.9,0.0,Gorramendi
Zona_Noroeste,25/12/2014,3.9,5.7,1.5,0.7,Gorramendi
Zona_Noroeste,26/12/2014,3.9,5.0,2.2,12.5,Gorramendi
Zona_Noroeste,27/12/2014,4.1,4.9,2.1,68.4,Gorramendi
Zona_Noroeste,28/12/2014,-2.1,3.0,-6.1,12.2,Gorramendi
Zona_Noroeste,29/12/2014,-5.5,-2.2,-8.5,0.0,Gorramendi
Zona_Noroeste,30/12/2014,-3.3,1.1,-6.3,0.0,Gorramendi
Zona_Noroeste,31/12/2014,2.8,4.6,0.7,0.0,Gorramendi
