Comarca,Fecha, Temperatura media, Temperatura maxima, Temperatura minima, Precipitacion acumulada,Localidad
Zona_Noroeste,01/01/2018,3.4,5.2,1.2,20.8,Gorramendi
Zona_Noroeste,02/01/2018,6.8,9.2,2.8,6.4,Gorramendi
Zona_Noroeste,03/01/2018,9.4,9.8,8.5,10.8,Gorramendi
Zona_Noroeste,04/01/2018,9.0,10.2,7.7,0.0,Gorramendi
Zona_Noroeste,05/01/2018,5.1,7.8,0.7,17.5,Gorramendi
Zona_Noroeste,06/01/2018,-1.1,0.6,-2.1,39.7,Gorramendi
Zona_Noroeste,07/01/2018,2.0,4.8,-0.4,6.5,Gorramendi
Zona_Noroeste,08/01/2018,2.3,5.4,0.3,0.0,Gorramendi
Zona_Noroeste,09/01/2018,0.5,2.1,-1.2,0.0,Gorramendi
Zona_Noroeste,10/01/2018,1.0,3.0,-0.4,10.8,Gorramendi
Zona_Noroeste,11/01/2018,-0.5,1.0,-1.5,24.2,Gorramendi
Zona_Noroeste,12/01/2018,1.7,4.2,0.7,5.4,Gorramendi
Zona_Noroeste,13/01/2018,2.4,3.6,-0.3,1.9,Gorramendi
Zona_Noroeste,14/01/2018,-0.1,0.8,-1.1,25.4,Gorramendi
Zona_Noroeste,15/01/2018,1.5,2.7,0.4,2.0,Gorramendi
Zona_Noroeste,16/01/2018,5.4,6.6,2.9,10.6,Gorramendi
Zona_Noroeste,17/01/2018,2.6,6.1,1.3,16.8,Gorramendi
Zona_Noroeste,18/01/2018,3.9,7.5,1.3,0.1,Gorramendi
Zona_Noroeste,19/01/2018,3.7,5.1,2.3,7.3,Gorramendi
Zona_Noroeste,20/01/2018,4.7,6.8,2.1,15.9,Gorramendi
Zona_Noroeste,21/01/2018,6.9,7.2,6.5,61.8,Gorramendi
Zona_Noroeste,22/01/2018,6.4,7.0,5.7,6.0,Gorramendi
Zona_Noroeste,23/01/2018,6.8,7.5,5.7,5.4,Gorramendi
Zona_Noroeste,24/01/2018,8.6,10.7,4.9,0.0,Gorramendi
Zona_Noroeste,25/01/2018,4.1,7.6,-0.3,17.7,Gorramendi
Zona_Noroeste,26/01/2018,0.5,1.4,-0.5,46.5,Gorramendi
Zona_Noroeste,27/01/2018,-0.2,0.6,-0.8,6.3,Gorramendi
Zona_Noroeste,28/01/2018,3.6,7.7,-0.7,0.0,Gorramendi
Zona_Noroeste,29/01/2018,6.8,11.7,4.2,0.0,Gorramendi
Zona_Noroeste,30/01/2018,5.7,8.4,3.6,0.0,Gorramendi
Zona_Noroeste,31/01/2018,5.3,8.6,1.9,0.7,Gorramendi
Zona_Noroeste,01/02/2018,-0.1,3.5,-2.1,47.5,Gorramendi
Zona_Noroeste,02/02/2018,-2.3,-1.4,-3.3,16.4,Gorramendi
Zona_Noroeste,03/02/2018,-0.7,1.5,-2.1,46.9,Gorramendi
Zona_Noroeste,04/02/2018,-0.9,-0.1,-1.8,7.9,Gorramendi
Zona_Noroeste,05/02/2018,-2.1,-1.4,-2.9,13.2,Gorramendi
Zona_Noroeste,06/02/2018,-3.9,-2.6,-5.3,1.8,Gorramendi
Zona_Noroeste,07/02/2018,-4.6,-3.3,-5.7,2.2,Gorramendi
Zona_Noroeste,08/02/2018,-5.1,-3.8,-6.3,4.4,Gorramendi
Zona_Noroeste,09/02/2018,-2.7,-0.1,-6.2,12.5,Gorramendi
Zona_Noroeste,10/02/2018,-1.9,0.4,-3.3,5.5,Gorramendi
Zona_Noroeste,11/02/2018,3.3,5.6,-0.1,41.7,Gorramendi
Zona_Noroeste,12/02/2018,-2.5,0.1,-3.9,22.5,Gorramendi
Zona_Noroeste,13/02/2018,-2.0,-0.1,-4.7,9.0,Gorramendi
Zona_Noroeste,14/02/2018,2.9,5.6,-0.2,11.6,Gorramendi
Zona_Noroeste,15/02/2018,7.8,9.5,5.5,0.0,Gorramendi
Zona_Noroeste,16/02/2018,9.0,11.8,7.5,0.0,Gorramendi
Zona_Noroeste,17/02/2018,2.8,8.0,0.8,15.0,Gorramendi
Zona_Noroeste,18/02/2018,2.1,4.0,0.4,22.1,Gorramendi
Zona_Noroeste,19/02/2018,4.4,5.1,3.1,65.7,Gorramendi
Zona_Noroeste,20/02/2018,3.4,4.9,2.1,69.3,Gorramendi
Zona_Noroeste,21/02/2018,-1.5,2.4,-3.9,16.8,Gorramendi
Zona_Noroeste,22/02/2018,-4.0,-2.6,-5.2,0.0,Gorramendi
Zona_Noroeste,23/02/2018,-5.2,-4.6,-5.9,0.0,Gorramendi
Zona_Noroeste,24/02/2018,-1.9,1.4,-6.0,0.0,Gorramendi
Zona_Noroeste,25/02/2018,-0.6,2.4,-2.7,0.0,Gorramendi
Zona_Noroeste,26/02/2018,-3.7,-1.9,-8.4,0.0,Gorramendi
Zona_Noroeste,27/02/2018,-8.2,-6.1,-9.8,0.0,Gorramendi
Zona_Noroeste,28/02/2018,-1.2,4.5,-7.9,6.8,Gorramendi
Zona_Noroeste,01/03/2018,6.3,9.0,-0.7,2.8,Gorramendi
Zona_Noroeste,02/03/2018,1.7,4.8,-1.5,0.0,Gorramendi
Zona_Noroeste,03/03/2018,5.4,8.4,2.3,0.0,Gorramendi
Zona_Noroeste,04/03/2018,5.4,7.3,3.4,2.8,Gorramendi
Zona_Noroeste,05/03/2018,3.4,6.0,0.9,16.2,Gorramendi
Zona_Noroeste,06/03/2018,1.0,4.2,-0.8,15.7,Gorramendi
Zona_Noroeste,07/03/2018,1.5,4.2,-1.5,1.9,Gorramendi
Zona_Noroeste,08/03/2018,5.3,7.6,2.5,0.0,Gorramendi
Zona_Noroeste,09/03/2018,8.4,9.8,7.0,0.5,Gorramendi
Zona_Noroeste,10/03/2018,9.1,11.7,6.8,0.0,Gorramendi
Zona_Noroeste,11/03/2018,6.1,8.6,4.1,0.1,Gorramendi
Zona_Noroeste,12/03/2018,3.0,4.8,1.8,0.2,Gorramendi
Zona_Noroeste,13/03/2018,3.8,6.8,1.7,1.0,Gorramendi
Zona_Noroeste,14/03/2018,6.1,8.5,3.0,5.9,Gorramendi
Zona_Noroeste,15/03/2018,4.5,8.6,2.1,1.4,Gorramendi
Zona_Noroeste,16/03/2018,3.0,5.9,1.1,0.2,Gorramendi
Zona_Noroeste,17/03/2018,0.3,2.6,-1.6,23.0,Gorramendi
Zona_Noroeste,18/03/2018,-0.4,0.3,-1.3,20.1,Gorramendi
Zona_Noroeste,19/03/2018,-1.7,0.3,-3.9,19.2,Gorramendi
Zona_Noroeste,20/03/2018,-3.7,-2.2,-4.6,18.2,Gorramendi
Zona_Noroeste,21/03/2018,-3.6,-2.1,-5.4,0.0,Gorramendi
Zona_Noroeste,22/03/2018,-2.9,-1.5,-4.4,0.0,Gorramendi
Zona_Noroeste,23/03/2018,2.4,6.4,-2.1,7.5,Gorramendi
Zona_Noroeste,24/03/2018,0.5,2.3,-1.2,11.4,Gorramendi
Zona_Noroeste,25/03/2018,1.0,2.8,-0.1,17.4,Gorramendi
Zona_Noroeste,26/03/2018,1.7,3.0,0.7,30.7,Gorramendi
Zona_Noroeste,27/03/2018,4.7,5.6,1.6,8.2,Gorramendi
Zona_Noroeste,28/03/2018,5.2,8.7,2.9,7.3,Gorramendi
Zona_Noroeste,29/03/2018,4.4,8.5,1.1,1.4,Gorramendi
Zona_Noroeste,30/03/2018,3.7,7.1,-1.0,0.1,Gorramendi
Zona_Noroeste,31/03/2018,0.4,1.8,-1.3,31.1,Gorramendi
Zona_Noroeste,01/04/2018,6.2,10.6,0.6,0.0,Gorramendi
Zona_Noroeste,02/04/2018,10.5,13.4,8.1,0.0,Gorramendi
Zona_Noroeste,03/04/2018,9.0,11.7,6.6,0.0,Gorramendi
Zona_Noroeste,04/04/2018,6.1,10.5,3.3,11.8,Gorramendi
Zona_Noroeste,05/04/2018,7.8,13.0,2.7,0.0,Gorramendi
Zona_Noroeste,06/04/2018,12.3,17.3,8.6,0.0,Gorramendi
Zona_Noroeste,07/04/2018,7.3,9.7,4.1,38.6,Gorramendi
Zona_Noroeste,08/04/2018,4.1,5.5,2.6,27.9,Gorramendi
Zona_Noroeste,09/04/2018,4.1,7.8,1.1,4.7,Gorramendi
Zona_Noroeste,10/04/2018,2.1,3.0,0.8,3.9,Gorramendi
Zona_Noroeste,11/04/2018,3.2,4.4,1.1,123.7,Gorramendi
Zona_Noroeste,12/04/2018,4.9,6.8,2.8,24.7,Gorramendi
Zona_Noroeste,13/04/2018,5.7,7.0,4.4,5.1,Gorramendi
Zona_Noroeste,14/04/2018,6.7,9.5,3.5,0.0,Gorramendi
Zona_Noroeste,15/04/2018,6.4,9.6,4.7,0.0,Gorramendi
Zona_Noroeste,16/04/2018,4.8,8.0,3.3,14.6,Gorramendi
Zona_Noroeste,17/04/2018,12.2,16.6,7.3,0.0,Gorramendi
Zona_Noroeste,18/04/2018,15.7,19.4,11.9,0.0,Gorramendi
Zona_Noroeste,19/04/2018,15.2,18.6,12.6,0.0,Gorramendi
Zona_Noroeste,20/04/2018,13.7,17.3,11.8,0.2,Gorramendi
Zona_Noroeste,21/04/2018,14.4,18.1,11.4,0.0,Gorramendi
Zona_Noroeste,22/04/2018,14.3,17.7,10.5,2.8,Gorramendi
Zona_Noroeste,23/04/2018,10.4,13.0,9.0,0.1,Gorramendi
Zona_Noroeste,24/04/2018,14.2,20.2,9.2,0.1,Gorramendi
Zona_Noroeste,25/04/2018,8.2,11.2,6.2,2.1,Gorramendi
Zona_Noroeste,26/04/2018,5.9,12.2,3.2,0.6,Gorramendi
Zona_Noroeste,27/04/2018,7.0,12.7,3.5,2.8,Gorramendi
Zona_Noroeste,28/04/2018,4.9,7.5,2.4,7.7,Gorramendi
Zona_Noroeste,29/04/2018,3.7,5.7,1.6,1.8,Gorramendi
Zona_Noroeste,30/04/2018,1.9,5.0,-0.0,4.2,Gorramendi
Zona_Noroeste,01/05/2018,2.5,5.4,0.1,2.1,Gorramendi
Zona_Noroeste,02/05/2018,6.0,8.7,4.2,10.2,Gorramendi
Zona_Noroeste,03/05/2018,3.3,6.7,2.2,20.3,Gorramendi
Zona_Noroeste,04/05/2018,4.6,6.3,3.0,0.7,Gorramendi
Zona_Noroeste,05/05/2018,7.0,10.5,4.2,0.0,Gorramendi
Zona_Noroeste,06/05/2018,13.1,16.4,9.7,0.0,Gorramendi
Zona_Noroeste,07/05/2018,14.4,17.4,13.0,0.0,Gorramendi
Zona_Noroeste,08/05/2018,9.0,13.3,5.6,4.1,Gorramendi
Zona_Noroeste,09/05/2018,7.1,8.9,5.4,2.2,Gorramendi
Zona_Noroeste,10/05/2018,4.9,6.7,3.1,3.6,Gorramendi
Zona_Noroeste,11/05/2018,10.5,16.2,3.7,0.0,Gorramendi
Zona_Noroeste,12/05/2018,4.0,8.5,0.9,10.7,Gorramendi
Zona_Noroeste,13/05/2018,1.7,3.9,-0.3,9.1,Gorramendi
Zona_Noroeste,14/05/2018,3.3,4.3,2.2,2.7,Gorramendi
Zona_Noroeste,15/05/2018,4.5,5.4,3.5,0.8,Gorramendi
Zona_Noroeste,16/05/2018,6.2,7.5,4.4,0.2,Gorramendi
Zona_Noroeste,17/05/2018,8.0,9.3,6.5,0.0,Gorramendi
Zona_Noroeste,18/05/2018,9.9,11.5,8.7,0.0,Gorramendi
Zona_Noroeste,19/05/2018,10.9,12.3,8.4,0.0,Gorramendi
Zona_Noroeste,20/05/2018,10.8,12.9,7.9,0.0,Gorramendi
Zona_Noroeste,21/05/2018,12.2,17.7,9.3,1.5,Gorramendi
Zona_Noroeste,22/05/2018,11.4,14.0,8.7,0.0,Gorramendi
Zona_Noroeste,23/05/2018,13.1,15.4,10.2,1.7,Gorramendi
Zona_Noroeste,24/05/2018,14.3,17.8,11.7,0.5,Gorramendi
Zona_Noroeste,25/05/2018,12.7,14.4,11.3,0.8,Gorramendi
Zona_Noroeste,26/05/2018,12.3,16.0,8.7,56.8,Gorramendi
Zona_Noroeste,27/05/2018,11.9,13.6,8.9,0.3,Gorramendi
Zona_Noroeste,28/05/2018,9.5,10.0,9.0,10.0,Gorramendi
Zona_Noroeste,29/05/2018,10.4,13.2,8.8,8.0,Gorramendi
Zona_Noroeste,30/05/2018,10.2,12.0,9.0,2.0,Gorramendi
Zona_Noroeste,31/05/2018,10.5,12.0,8.9,0.5,Gorramendi
Zona_Noroeste,01/06/2018,13.2,15.7,10.9,9.9,Gorramendi
Zona_Noroeste,02/06/2018,14.0,16.7,11.7,0.0,Gorramendi
Zona_Noroeste,03/06/2018,13.6,17.0,10.9,5.1,Gorramendi
Zona_Noroeste,04/06/2018,10.8,12.5,9.3,19.5,Gorramendi
Zona_Noroeste,05/06/2018,8.7,9.5,7.7,18.6,Gorramendi
Zona_Noroeste,06/06/2018,8.8,10.5,6.7,3.4,Gorramendi
Zona_Noroeste,07/06/2018,12.0,14.8,8.9,1.1,Gorramendi
Zona_Noroeste,08/06/2018,15.1,16.8,13.5,1.2,Gorramendi
Zona_Noroeste,09/06/2018,13.3,15.2,11.2,4.0,Gorramendi
Zona_Noroeste,10/06/2018,11.8,15.9,9.4,16.7,Gorramendi
Zona_Noroeste,11/06/2018,9.5,10.7,8.4,4.7,Gorramendi
Zona_Noroeste,12/06/2018,9.6,10.3,9.1,112.1,Gorramendi
Zona_Noroeste,13/06/2018,9.2,9.9,8.5,105.0,Gorramendi
Zona_Noroeste,14/06/2018,8.6,9.5,7.7,0.8,Gorramendi
Zona_Noroeste,15/06/2018,10.0,11.5,7.7,3.2,Gorramendi
Zona_Noroeste,16/06/2018,9.7,11.2,8.1,2.2,Gorramendi
Zona_Noroeste,17/06/2018,9.8,12.3,8.0,0.8,Gorramendi
Zona_Noroeste,18/06/2018,10.9,12.1,8.5,0.8,Gorramendi
Zona_Noroeste,19/06/2018,13.2,15.9,9.9,1.2,Gorramendi
Zona_Noroeste,20/06/2018,20.3,24.4,15.4,0.0,Gorramendi
Zona_Noroeste,21/06/2018,16.8,20.0,13.8,0.0,Gorramendi
Zona_Noroeste,22/06/2018,14.3,16.1,12.6,0.2,Gorramendi
Zona_Noroeste,23/06/2018,15.0,17.5,12.0,0.0,Gorramendi
Zona_Noroeste,24/06/2018,17.2,20.8,14.0,0.0,Gorramendi
Zona_Noroeste,25/06/2018,17.4,20.0,15.1,0.0,Gorramendi
Zona_Noroeste,26/06/2018,19.2,22.2,14.3,0.0,Gorramendi
Zona_Noroeste,27/06/2018,15.7,20.3,13.1,0.5,Gorramendi
Zona_Noroeste,28/06/2018,13.5,14.1,12.8,0.8,Gorramendi
Zona_Noroeste,29/06/2018,17.1,20.5,13.6,7.8,Gorramendi
Zona_Noroeste,30/06/2018,19.2,24.3,15.6,7.5,Gorramendi
Zona_Noroeste,01/07/2018,18.4,22.8,14.2,1.3,Gorramendi
Zona_Noroeste,02/07/2018,16.6,19.8,13.0,0.4,Gorramendi
Zona_Noroeste,03/07/2018,15.9,17.5,14.3,0.0,Gorramendi
Zona_Noroeste,04/07/2018,14.8,19.0,12.1,21.9,Gorramendi
Zona_Noroeste,05/07/2018,11.8,13.0,11.1,10.0,Gorramendi
Zona_Noroeste,06/07/2018,12.9,14.4,10.9,0.2,Gorramendi
Zona_Noroeste,07/07/2018,16.3,19.5,13.0,1.4,Gorramendi
Zona_Noroeste,08/07/2018,18.1,19.9,16.1,0.0,Gorramendi
Zona_Noroeste,09/07/2018,17.4,19.3,16.3,0.0,Gorramendi
Zona_Noroeste,10/07/2018,15.8,18.1,14.5,0.0,Gorramendi
Zona_Noroeste,11/07/2018,15.7,18.0,13.5,0.0,Gorramendi
Zona_Noroeste,12/07/2018,14.8,16.3,13.2,0.1,Gorramendi
Zona_Noroeste,13/07/2018,16.3,21.0,12.5,43.7,Gorramendi
Zona_Noroeste,14/07/2018,18.9,21.0,14.9,4.6,Gorramendi
Zona_Noroeste,15/07/2018,17.0,20.7,14.2,0.0,Gorramendi
Zona_Noroeste,16/07/2018,13.2,14.9,11.1,31.5,Gorramendi
Zona_Noroeste,17/07/2018,15.1,18.2,9.8,0.0,Gorramendi
Zona_Noroeste,18/07/2018,18.2,22.6,15.4,12.9,Gorramendi
Zona_Noroeste,19/07/2018,16.4,19.9,14.7,5.5,Gorramendi
Zona_Noroeste,20/07/2018,12.9,14.7,10.9,7.0,Gorramendi
Zona_Noroeste,21/07/2018,11.6,13.7,10.2,11.6,Gorramendi
Zona_Noroeste,22/07/2018,13.2,15.4,10.9,0.0,Gorramendi
Zona_Noroeste,23/07/2018,17.7,22.3,12.9,0.0,Gorramendi
Zona_Noroeste,24/07/2018,17.8,22.6,14.5,0.0,Gorramendi
Zona_Noroeste,25/07/2018,17.2,19.6,14.8,0.2,Gorramendi
Zona_Noroeste,26/07/2018,18.1,21.8,14.2,0.0,Gorramendi
Zona_Noroeste,27/07/2018,16.7,20.7,13.9,0.2,Gorramendi
Zona_Noroeste,28/07/2018,14.5,16.9,13.3,4.9,Gorramendi
Zona_Noroeste,29/07/2018,16.8,19.8,15.4,0.0,Gorramendi
Zona_Noroeste,30/07/2018,17.2,20.8,14.1,0.0,Gorramendi
Zona_Noroeste,31/07/2018,15.6,17.3,14.1,0.7,Gorramendi
Zona_Noroeste,01/08/2018,16.2,19.0,13.6,0.0,Gorramendi
Zona_Noroeste,02/08/2018,19.6,22.7,16.0,0.0,Gorramendi
Zona_Noroeste,03/08/2018,21.7,24.1,19.9,0.0,Gorramendi
Zona_Noroeste,04/08/2018,20.2,21.5,18.9,0.0,Gorramendi
Zona_Noroeste,05/08/2018,20.9,23.0,19.2,0.0,Gorramendi
Zona_Noroeste,06/08/2018,23.4,27.8,19.4,0.0,Gorramendi
Zona_Noroeste,07/08/2018,16.4,24.5,12.9,9.2,Gorramendi
Zona_Noroeste,08/08/2018,14.7,17.3,12.2,14.3,Gorramendi
Zona_Noroeste,09/08/2018,11.4,15.5,10.4,12.5,Gorramendi
Zona_Noroeste,10/08/2018,12.3,14.9,9.7,0.1,Gorramendi
Zona_Noroeste,11/08/2018,16.9,20.8,12.6,0.0,Gorramendi
Zona_Noroeste,12/08/2018,19.1,25.9,13.7,0.3,Gorramendi
Zona_Noroeste,13/08/2018,13.6,15.3,12.4,7.2,Gorramendi
Zona_Noroeste,14/08/2018,12.4,13.5,11.6,4.3,Gorramendi
Zona_Noroeste,15/08/2018,14.7,17.9,10.9,0.0,Gorramendi
Zona_Noroeste,16/08/2018,16.3,18.9,12.8,4.0,Gorramendi
Zona_Noroeste,17/08/2018,11.2,13.1,8.9,10.0,Gorramendi
Zona_Noroeste,18/08/2018,11.8,15.1,9.0,0.0,Gorramendi
Zona_Noroeste,19/08/2018,15.0,17.6,12.7,0.0,Gorramendi
Zona_Noroeste,20/08/2018,15.5,17.5,12.6,0.0,Gorramendi
Zona_Noroeste,21/08/2018,17.3,20.1,14.4,0.0,Gorramendi
Zona_Noroeste,22/08/2018,19.5,22.5,16.2,0.0,Gorramendi
Zona_Noroeste,23/08/2018,15.4,16.5,13.3,0.4,Gorramendi
Zona_Noroeste,24/08/2018,12.4,13.5,10.9,7.8,Gorramendi
Zona_Noroeste,25/08/2018,10.8,12.6,9.6,0.0,Gorramendi
Zona_Noroeste,26/08/2018,13.8,17.2,9.8,0.0,Gorramendi
Zona_Noroeste,27/08/2018,17.9,20.2,14.4,0.0,Gorramendi
Zona_Noroeste,28/08/2018,21.4,27.3,14.8,3.6,Gorramendi
Zona_Noroeste,29/08/2018,14.4,16.7,11.9,1.3,Gorramendi
Zona_Noroeste,30/08/2018,12.6,15.2,10.3,0.3,Gorramendi
Zona_Noroeste,31/08/2018,12.6,14.8,10.8,0.1,Gorramendi
Zona_Noroeste,01/09/2018,14.1,16.8,11.5,0.0,Gorramendi
Zona_Noroeste,02/09/2018,16.2,21.3,13.4,0.0,Gorramendi
Zona_Noroeste,03/09/2018,15.5,18.2,12.9,0.0,Gorramendi
Zona_Noroeste,04/09/2018,14.3,16.9,12.0,1.2,Gorramendi
Zona_Noroeste,05/09/2018,14.1,16.9,12.3,5.6,Gorramendi
Zona_Noroeste,06/09/2018,12.2,13.1,11.2,3.5,Gorramendi
Zona_Noroeste,07/09/2018,12.2,14.0,10.7,0.0,Gorramendi
Zona_Noroeste,08/09/2018,16.9,21.9,12.5,0.6,Gorramendi
Zona_Noroeste,09/09/2018,15.5,18.6,13.3,7.1,Gorramendi
Zona_Noroeste,10/09/2018,13.6,14.9,12.4,0.7,Gorramendi
Zona_Noroeste,11/09/2018,18.0,22.2,13.4,0.2,Gorramendi
Zona_Noroeste,12/09/2018,17.2,21.3,13.5,0.3,Gorramendi
Zona_Noroeste,13/09/2018,12.6,13.5,11.5,0.5,Gorramendi
Zona_Noroeste,14/09/2018,12.9,15.9,11.1,0.2,Gorramendi
Zona_Noroeste,15/09/2018,15.1,18.6,11.0,0.0,Gorramendi
Zona_Noroeste,16/09/2018,17.4,21.4,14.6,0.0,Gorramendi
Zona_Noroeste,17/09/2018,20.3,24.0,14.7,0.0,Gorramendi
Zona_Noroeste,18/09/2018,17.6,21.0,14.7,0.0,Gorramendi
Zona_Noroeste,19/09/2018,17.2,20.9,13.6,0.0,Gorramendi
Zona_Noroeste,20/09/2018,19.5,25.1,13.8,0.0,Gorramendi
Zona_Noroeste,21/09/2018,14.7,16.9,12.8,1.8,Gorramendi
Zona_Noroeste,22/09/2018,16.6,20.6,12.1,0.1,Gorramendi
Zona_Noroeste,23/09/2018,17.5,21.7,13.9,2.6,Gorramendi
Zona_Noroeste,24/09/2018,9.2,14.8,6.9,5.2,Gorramendi
Zona_Noroeste,25/09/2018,9.2,12.8,6.7,0.0,Gorramendi
Zona_Noroeste,26/09/2018,16.3,20.2,12.3,0.0,Gorramendi
Zona_Noroeste,27/09/2018,17.7,22.2,14.4,0.0,Gorramendi
Zona_Noroeste,28/09/2018,16.3,17.8,14.2,0.0,Gorramendi
Zona_Noroeste,29/09/2018,12.7,14.4,10.6,0.0,Gorramendi
Zona_Noroeste,30/09/2018,10.1,12.8,8.4,0.0,Gorramendi
Zona_Noroeste,01/10/2018,6.5,8.4,4.3,0.0,Gorramendi
Zona_Noroeste,02/10/2018,6.6,8.9,4.7,0.0,Gorramendi
Zona_Noroeste,03/10/2018,10.3,13.5,7.2,0.0,Gorramendi
Zona_Noroeste,04/10/2018,14.4,19.0,9.5,0.0,Gorramendi
Zona_Noroeste,05/10/2018,17.0,20.3,14.8,0.0,Gorramendi
Zona_Noroeste,06/10/2018,11.6,17.2,5.4,5.2,Gorramendi
Zona_Noroeste,07/10/2018,6.3,8.0,4.9,63.1,Gorramendi
Zona_Noroeste,08/10/2018,7.4,8.7,6.3,0.5,Gorramendi
Zona_Noroeste,09/10/2018,10.4,14.2,6.9,0.6,Gorramendi
Zona_Noroeste,10/10/2018,11.8,13.2,9.3,1.6,Gorramendi
Zona_Noroeste,11/10/2018,14.7,17.1,12.7,0.5,Gorramendi
Zona_Noroeste,12/10/2018,16.7,18.4,14.9,0.0,Gorramendi
Zona_Noroeste,13/10/2018,17.5,20.0,15.9,0.0,Gorramendi
Zona_Noroeste,14/10/2018,11.7,18.3,6.3,20.9,Gorramendi
Zona_Noroeste,15/10/2018,8.7,12.8,6.6,5.2,Gorramendi
Zona_Noroeste,16/10/2018,10.0,12.3,8.8,0.0,Gorramendi
Zona_Noroeste,17/10/2018,10.6,13.6,8.9,0.0,Gorramendi
Zona_Noroeste,18/10/2018,10.8,11.7,9.9,0.0,Gorramendi
Zona_Noroeste,19/10/2018,11.5,13.4,9.8,0.0,Gorramendi
Zona_Noroeste,20/10/2018,11.4,13.1,10.3,0.0,Gorramendi
Zona_Noroeste,21/10/2018,13.7,16.5,10.4,0.0,Gorramendi
Zona_Noroeste,22/10/2018,8.2,11.4,6.0,0.1,Gorramendi
Zona_Noroeste,23/10/2018,8.0,10.3,6.6,0.0,Gorramendi
Zona_Noroeste,24/10/2018,9.1,11.4,6.4,0.1,Gorramendi
Zona_Noroeste,25/10/2018,12.3,14.9,9.7,0.0,Gorramendi
Zona_Noroeste,26/10/2018,10.7,15.2,5.1,2.7,Gorramendi
Zona_Noroeste,27/10/2018,2.1,5.5,-0.1,14.7,Gorramendi
Zona_Noroeste,28/10/2018,-1.5,-0.2,-2.8,10.6,Gorramendi
Zona_Noroeste,29/10/2018,-0.5,-0.1,-1.5,34.9,Gorramendi
Zona_Noroeste,30/10/2018,2.4,4.9,-0.7,0.1,Gorramendi
Zona_Noroeste,31/10/2018,4.1,5.3,3.2,10.3,Gorramendi
Zona_Noroeste,01/11/2018,4.3,5.9,2.7,11.8,Gorramendi
Zona_Noroeste,02/11/2018,4.8,6.1,3.3,7.7,Gorramendi
Zona_Noroeste,03/11/2018,3.7,6.6,2.0,0.0,Gorramendi
Zona_Noroeste,04/11/2018,9.5,12.6,4.6,0.0,Gorramendi
Zona_Noroeste,05/11/2018,7.5,10.3,3.7,0.9,Gorramendi
Zona_Noroeste,06/11/2018,4.3,6.4,2.1,5.3,Gorramendi
Zona_Noroeste,07/11/2018,5.9,9.4,3.8,3.3,Gorramendi
Zona_Noroeste,08/11/2018,7.0,8.4,4.6,1.4,Gorramendi
Zona_Noroeste,09/11/2018,5.4,7.8,4.0,16.6,Gorramendi
Zona_Noroeste,10/11/2018,9.0,11.0,6.8,0.2,Gorramendi
Zona_Noroeste,11/11/2018,10.7,12.3,8.1,0.0,Gorramendi
Zona_Noroeste,12/11/2018,9.6,12.2,6.4,13.1,Gorramendi
Zona_Noroeste,13/11/2018,8.6,12.4,6.2,2.1,Gorramendi
Zona_Noroeste,14/11/2018,11.0,13.0,9.0,0.0,Gorramendi
Zona_Noroeste,15/11/2018,10.9,13.3,9.6,0.0,Gorramendi
Zona_Noroeste,16/11/2018,11.0,12.8,9.6,0.0,Gorramendi
Zona_Noroeste,17/11/2018,9.2,11.6,7.2,0.0,Gorramendi
Zona_Noroeste,18/11/2018,6.3,7.2,5.1,1.2,Gorramendi
Zona_Noroeste,19/11/2018,5.0,7.7,1.5,0.0,Gorramendi
Zona_Noroeste,20/11/2018,-0.2,1.8,-2.7,1.2,Gorramendi
Zona_Noroeste,21/11/2018,4.9,7.7,0.6,1.5,Gorramendi
Zona_Noroeste,22/11/2018,5.5,7.3,4.0,0.0,Gorramendi
Zona_Noroeste,23/11/2018,4.7,6.5,2.6,1.8,Gorramendi
Zona_Noroeste,24/11/2018,4.9,7.1,3.5,0.0,Gorramendi
Zona_Noroeste,25/11/2018,3.0,4.9,2.1,5.6,Gorramendi
Zona_Noroeste,26/11/2018,2.7,4.4,0.8,31.0,Gorramendi
Zona_Noroeste,27/11/2018,5.2,7.8,2.5,0.2,Gorramendi
Zona_Noroeste,28/11/2018,8.9,11.4,6.1,0.0,Gorramendi
Zona_Noroeste,29/11/2018,7.9,10.7,3.7,6.4,Gorramendi
Zona_Noroeste,30/11/2018,3.9,4.9,2.9,12.0,Gorramendi
Zona_Noroeste,01/12/2018,4.7,7.5,2.9,5.8,Gorramendi
Zona_Noroeste,02/12/2018,8.3,10.5,6.4,0.4,Gorramendi
Zona_Noroeste,03/12/2018,9.8,11.6,7.4,1.8,Gorramendi
Zona_Noroeste,04/12/2018,11.4,13.0,9.7,0.0,Gorramendi
Zona_Noroeste,05/12/2018,11.6,14.4,8.0,0.0,Gorramendi
Zona_Noroeste,06/12/2018,6.6,9.8,4.7,0.7,Gorramendi
Zona_Noroeste,07/12/2018,5.7,8.8,3.6,7.7,Gorramendi
Zona_Noroeste,08/12/2018,5.2,8.6,3.1,8.7,Gorramendi
Zona_Noroeste,09/12/2018,5.5,7.4,4.0,3.7,Gorramendi
Zona_Noroeste,10/12/2018,3.5,4.5,2.3,0.5,Gorramendi
Zona_Noroeste,11/12/2018,7.8,12.2,2.4,0.1,Gorramendi
Zona_Noroeste,12/12/2018,4.7,6.1,3.1,6.4,Gorramendi
Zona_Noroeste,13/12/2018,4.0,5.7,2.5,56.0,Gorramendi
Zona_Noroeste,14/12/2018,3.5,4.0,1.9,54.8,Gorramendi
Zona_Noroeste,15/12/2018,6.5,9.2,1.8,2.8,Gorramendi
Zona_Noroeste,16/12/2018,5.0,7.0,2.1,12.1,Gorramendi
Zona_Noroeste,17/12/2018,3.4,5.2,1.9,2.2,Gorramendi
Zona_Noroeste,18/12/2018,6.3,8.0,4.8,0.0,Gorramendi
Zona_Noroeste,19/12/2018,3.7,6.9,2.3,0.2,Gorramendi
Zona_Noroeste,20/12/2018,4.6,7.2,2.6,0.0,Gorramendi
Zona_Noroeste,21/12/2018,6.9,8.2,5.1,0.0,Gorramendi
Zona_Noroeste,22/12/2018,9.5,10.7,8.0,0.0,Gorramendi
Zona_Noroeste,23/12/2018,10.3,12.1,8.3,0.0,Gorramendi
Zona_Noroeste,24/12/2018,8.4,10.9,7.1,0.0,Gorramendi
Zona_Noroeste,25/12/2018,9.7,12.0,6.9,0.0,Gorramendi
Zona_Noroeste,26/12/2018,9.5,11.0,8.0,0.0,Gorramendi
Zona_Noroeste,27/12/2018,7.2,8.7,2.5,0.0,Gorramendi
Zona_Noroeste,28/12/2018,4.2,5.2,2.6,2.5,Gorramendi
Zona_Noroeste,29/12/2018,2.8,5.0,1.3,0.0,Gorramendi
Zona_Noroeste,30/12/2018,6.2,7.6,4.2,0.0,Gorramendi
Zona_Noroeste,31/12/2018,7.7,10.1,5.9,0.0,Gorramendi
