Comarca,Fecha, Temperatura media, Temperatura maxima, Temperatura minima, Precipitacion acumulada,Localidad
Zona_Noroeste,01/01/2009,0.0,14.0,2.0,0.0,Olague
Zona_Noroeste,02/01/2009,0.0,13.0,4.0,0.0,Olague
Zona_Noroeste,03/01/2009,0.0,7.0,0.0,0.0,Olague
Zona_Noroeste,04/01/2009,0.0,6.0,1.0,0.0,Olague
Zona_Noroeste,05/01/2009,0.0,5.0,-4.0,2.0,Olague
Zona_Noroeste,06/01/2009,0.0,-1.0,-2.0,0.0,Olague
Zona_Noroeste,07/01/2009,0.0,-2.0,-5.0,1.0,Olague
Zona_Noroeste,08/01/2009,0.0,-1.0,-5.0,0.0,Olague
Zona_Noroeste,09/01/2009,0.0,4.0,-8.0,0.0,Olague
Zona_Noroeste,10/01/2009,0.0,6.0,-4.0,0.0,Olague
Zona_Noroeste,11/01/2009,0.0,5.0,-6.0,0.0,Olague
Zona_Noroeste,12/01/2009,0.0,5.0,-6.0,0.0,Olague
Zona_Noroeste,13/01/2009,0.0,3.0,-5.0,28.0,Olague
Zona_Noroeste,14/01/2009,0.0,9.0,-2.0,0.0,Olague
Zona_Noroeste,15/01/2009,0.0,6.0,-5.0,0.0,Olague
Zona_Noroeste,16/01/2009,0.0,10.0,-5.0,0.0,Olague
Zona_Noroeste,17/01/2009,0.0,10.0,-2.0,0.0,Olague
Zona_Noroeste,18/01/2009,0.0,11.0,-3.0,0.0,Olague
Zona_Noroeste,19/01/2009,0.0,6.0,2.0,11.0,Olague
Zona_Noroeste,20/01/2009,0.0,4.0,0.0,3.0,Olague
Zona_Noroeste,21/01/2009,0.0,4.0,-2.0,17.0,Olague
Zona_Noroeste,22/01/2009,0.0,12.0,1.0,9.0,Olague
Zona_Noroeste,23/01/2009,0.0,13.0,3.0,30.5,Olague
Zona_Noroeste,24/01/2009,0.0,4.0,0.0,20.0,Olague
Zona_Noroeste,25/01/2009,0.0,5.0,0.0,2.5,Olague
Zona_Noroeste,26/01/2009,0.0,4.0,0.0,52.0,Olague
Zona_Noroeste,27/01/2009,0.0,5.0,0.0,22.0,Olague
Zona_Noroeste,28/01/2009,0.0,8.0,1.0,5.0,Olague
Zona_Noroeste,29/01/2009,0.0,10.0,1.0,0.0,Olague
Zona_Noroeste,30/01/2009,0.0,12.0,3.0,0.0,Olague
Zona_Noroeste,31/01/2009,0.0,10.0,4.0,0.0,Olague
Zona_Noroeste,01/02/2009,0.0,9.0,3.0,12.0,Olague
Zona_Noroeste,02/02/2009,0.0,6.0,2.0,4.0,Olague
Zona_Noroeste,03/02/2009,0.0,8.0,0.0,0.0,Olague
Zona_Noroeste,04/02/2009,0.0,10.0,2.0,2.0,Olague
Zona_Noroeste,05/02/2009,0.0,6.0,4.0,7.0,Olague
Zona_Noroeste,06/02/2009,0.0,2.0,0.0,18.0,Olague
Zona_Noroeste,07/02/2009,0.0,1.0,0.0,36.0,Olague
Zona_Noroeste,08/02/2009,0.0,5.0,-1.0,5.0,Olague
Zona_Noroeste,09/02/2009,0.0,11.0,4.0,5.0,Olague
Zona_Noroeste,10/02/2009,0.0,6.0,1.0,26.0,Olague
Zona_Noroeste,11/02/2009,0.0,6.0,0.0,54.0,Olague
Zona_Noroeste,12/02/2009,0.0,6.0,6.0,0.0,Olague
Zona_Noroeste,13/02/2009,0.0,7.0,-2.0,0.0,Olague
Zona_Noroeste,14/02/2009,0.0,8.0,-3.0,0.0,Olague
Zona_Noroeste,15/02/2009,0.0,11.0,-5.0,0.0,Olague
Zona_Noroeste,16/02/2009,0.0,7.0,-7.0,0.0,Olague
Zona_Noroeste,17/02/2009,0.0,10.0,-3.0,0.0,Olague
Zona_Noroeste,18/02/2009,0.0,9.0,4.0,0.0,Olague
Zona_Noroeste,19/02/2009,0.0,10.0,3.0,0.0,Olague
Zona_Noroeste,20/02/2009,0.0,11.0,0.0,0.0,Olague
Zona_Noroeste,21/02/2009,0.0,10.0,-3.0,0.0,Olague
Zona_Noroeste,22/02/2009,0.0,10.0,3.0,0.0,Olague
Zona_Noroeste,23/02/2009,0.0,9.0,4.0,0.0,Olague
Zona_Noroeste,24/02/2009,0.0,10.0,4.0,0.0,Olague
Zona_Noroeste,25/02/2009,0.0,14.0,-3.0,0.0,Olague
Zona_Noroeste,26/02/2009,0.0,15.0,-4.0,0.0,Olague
Zona_Noroeste,27/02/2009,0.0,19.0,-5.0,0.0,Olague
Zona_Noroeste,28/02/2009,0.0,10.0,-3.0,0.0,Olague
Zona_Noroeste,01/03/2009,0.0,9.0,4.0,1.5,Olague
Zona_Noroeste,02/03/2009,0.0,8.0,4.0,0.0,Olague
Zona_Noroeste,03/03/2009,0.0,10.0,0.0,7.0,Olague
Zona_Noroeste,04/03/2009,0.0,6.0,4.0,17.0,Olague
Zona_Noroeste,05/03/2009,0.0,4.0,0.0,32.0,Olague
Zona_Noroeste,06/03/2009,0.0,7.0,0.0,7.0,Olague
Zona_Noroeste,07/03/2009,0.0,10.0,1.0,1.0,Olague
Zona_Noroeste,08/03/2009,0.0,10.0,3.0,0.0,Olague
Zona_Noroeste,09/03/2009,0.0,9.0,2.0,0.0,Olague
Zona_Noroeste,10/03/2009,0.0,15.0,-5.0,0.0,Olague
Zona_Noroeste,11/03/2009,0.0,10.0,4.0,0.0,Olague
Zona_Noroeste,12/03/2009,0.0,18.0,-1.0,0.0,Olague
Zona_Noroeste,13/03/2009,0.0,22.0,0.0,0.0,Olague
Zona_Noroeste,14/03/2009,0.0,18.0,0.0,0.0,Olague
Zona_Noroeste,15/03/2009,0.0,15.0,7.0,0.0,Olague
Zona_Noroeste,16/03/2009,0.0,20.0,-1.0,0.0,Olague
Zona_Noroeste,17/03/2009,0.0,18.0,0.0,0.0,Olague
Zona_Noroeste,18/03/2009,0.0,19.0,1.0,0.0,Olague
Zona_Noroeste,19/03/2009,0.0,21.0,0.0,0.0,Olague
Zona_Noroeste,20/03/2009,0.0,19.0,-1.0,0.0,Olague
Zona_Noroeste,21/03/2009,0.0,14.0,-3.0,0.0,Olague
Zona_Noroeste,22/03/2009,0.0,13.0,0.0,0.0,Olague
Zona_Noroeste,23/03/2009,0.0,15.0,-2.0,0.0,Olague
Zona_Noroeste,24/03/2009,0.0,8.0,0.0,0.0,Olague
Zona_Noroeste,25/03/2009,0.0,12.0,-1.0,0.0,Olague
Zona_Noroeste,26/03/2009,0.0,19.0,0.0,0.0,Olague
Zona_Noroeste,27/03/2009,0.0,18.0,0.0,0.0,Olague
Zona_Noroeste,28/03/2009,0.0,7.0,3.0,0.0,Olague
Zona_Noroeste,29/03/2009,0.0,8.0,4.0,3.0,Olague
Zona_Noroeste,30/03/2009,0.0,10.0,-2.0,0.0,Olague
Zona_Noroeste,31/03/2009,0.0,10.0,-1.0,0.0,Olague
Zona_Noroeste,01/04/2009,0.0,10.0,5.0,0.0,Olague
Zona_Noroeste,02/04/2009,0.0,11.0,2.0,0.0,Olague
Zona_Noroeste,03/04/2009,0.0,11.0,5.0,0.0,Olague
Zona_Noroeste,04/04/2009,0.0,15.0,2.0,0.0,Olague
Zona_Noroeste,05/04/2009,0.0,19.0,7.0,0.0,Olague
Zona_Noroeste,06/04/2009,0.0,21.0,-1.0,11.5,Olague
Zona_Noroeste,07/04/2009,0.0,7.0,4.0,4.0,Olague
Zona_Noroeste,08/04/2009,0.0,12.0,0.0,0.0,Olague
Zona_Noroeste,09/04/2009,0.0,17.0,-2.0,0.0,Olague
Zona_Noroeste,10/04/2009,0.0,10.0,9.0,38.0,Olague
Zona_Noroeste,11/04/2009,0.0,8.0,0.0,10.0,Olague
Zona_Noroeste,12/04/2009,0.0,9.0,3.0,2.0,Olague
Zona_Noroeste,13/04/2009,0.0,17.0,4.0,0.0,Olague
Zona_Noroeste,14/04/2009,0.0,15.0,1.0,6.5,Olague
Zona_Noroeste,15/04/2009,0.0,11.0,7.0,1.5,Olague
Zona_Noroeste,16/04/2009,0.0,15.0,1.0,11.0,Olague
Zona_Noroeste,17/04/2009,0.0,14.0,4.0,0.0,Olague
Zona_Noroeste,18/04/2009,0.0,14.0,-1.0,0.0,Olague
Zona_Noroeste,19/04/2009,0.0,13.0,1.0,3.0,Olague
Zona_Noroeste,20/04/2009,0.0,11.0,7.0,0.0,Olague
Zona_Noroeste,21/04/2009,0.0,15.0,8.0,0.0,Olague
Zona_Noroeste,22/04/2009,0.0,15.0,8.0,0.0,Olague
Zona_Noroeste,23/04/2009,0.0,22.0,0.0,0.0,Olague
Zona_Noroeste,24/04/2009,0.0,25.0,0.0,3.0,Olague
Zona_Noroeste,25/04/2009,0.0,8.0,6.0,18.5,Olague
Zona_Noroeste,26/04/2009,0.0,8.0,3.0,10.0,Olague
Zona_Noroeste,27/04/2009,0.0,13.0,5.0,4.0,Olague
Zona_Noroeste,28/04/2009,0.0,14.0,6.0,6.0,Olague
Zona_Noroeste,29/04/2009,0.0,13.0,7.0,0.0,Olague
Zona_Noroeste,30/04/2009,0.0,14.0,3.0,0.0,Olague
Zona_Noroeste,01/05/2009,0.0,10.0,3.0,0.0,Olague
Zona_Noroeste,02/05/2009,0.0,15.0,8.0,0.0,Olague
Zona_Noroeste,03/05/2009,0.0,17.0,4.0,1.5,Olague
Zona_Noroeste,04/05/2009,0.0,18.0,9.0,0.0,Olague
Zona_Noroeste,05/05/2009,0.0,14.0,3.0,0.0,Olague
Zona_Noroeste,06/05/2009,0.0,28.0,4.0,0.0,Olague
Zona_Noroeste,07/05/2009,0.0,27.0,8.0,0.0,Olague
Zona_Noroeste,08/05/2009,0.0,18.0,8.0,0.0,Olague
Zona_Noroeste,09/05/2009,0.0,23.0,7.0,18.0,Olague
Zona_Noroeste,10/05/2009,0.0,21.0,13.0,2.0,Olague
Zona_Noroeste,11/05/2009,0.0,22.0,11.0,5.5,Olague
Zona_Noroeste,12/05/2009,0.0,23.0,7.0,0.0,Olague
Zona_Noroeste,13/05/2009,0.0,22.0,8.0,21.5,Olague
Zona_Noroeste,14/05/2009,0.0,13.0,10.0,3.0,Olague
Zona_Noroeste,15/05/2009,0.0,11.0,7.0,0.0,Olague
Zona_Noroeste,16/05/2009,0.0,22.0,1.0,0.0,Olague
Zona_Noroeste,17/05/2009,0.0,18.0,7.0,0.0,Olague
Zona_Noroeste,18/05/2009,0.0,18.0,3.0,0.0,Olague
Zona_Noroeste,19/05/2009,0.0,21.0,8.0,0.0,Olague
Zona_Noroeste,20/05/2009,0.0,27.0,9.0,8.0,Olague
Zona_Noroeste,21/05/2009,0.0,21.0,11.0,0.0,Olague
Zona_Noroeste,22/05/2009,0.0,27.0,12.0,0.0,Olague
Zona_Noroeste,23/05/2009,0.0,26.0,12.0,13.0,Olague
Zona_Noroeste,24/05/2009,0.0,18.0,13.0,6.0,Olague
Zona_Noroeste,25/05/2009,0.0,19.0,8.0,11.5,Olague
Zona_Noroeste,26/05/2009,0.0,12.0,11.0,0.0,Olague
Zona_Noroeste,27/05/2009,0.0,17.0,8.0,0.0,Olague
Zona_Noroeste,28/05/2009,0.0,21.0,7.0,0.0,Olague
Zona_Noroeste,29/05/2009,0.0,28.0,6.0,0.0,Olague
Zona_Noroeste,30/05/2009,0.0,26.0,7.0,0.0,Olague
Zona_Noroeste,31/05/2009,0.0,28.0,8.0,0.0,Olague
Zona_Noroeste,01/06/2009,0.0,22.0,7.0,0.0,Olague
Zona_Noroeste,02/06/2009,0.0,22.0,7.0,0.0,Olague
Zona_Noroeste,03/06/2009,0.0,26.0,8.0,0.0,Olague
Zona_Noroeste,04/06/2009,0.0,25.0,9.0,4.0,Olague
Zona_Noroeste,05/06/2009,0.0,18.0,12.0,16.0,Olague
Zona_Noroeste,06/06/2009,0.0,19.0,8.0,4.5,Olague
Zona_Noroeste,07/06/2009,0.0,18.0,11.0,2.0,Olague
Zona_Noroeste,08/06/2009,0.0,18.0,8.0,6.0,Olague
Zona_Noroeste,09/06/2009,0.0,20.0,7.0,0.0,Olague
Zona_Noroeste,10/06/2009,0.0,23.0,12.0,0.0,Olague
Zona_Noroeste,11/06/2009,0.0,21.0,10.0,0.0,Olague
Zona_Noroeste,12/06/2009,0.0,30.0,9.0,0.0,Olague
Zona_Noroeste,13/06/2009,0.0,33.0,12.0,0.0,Olague
Zona_Noroeste,14/06/2009,0.0,29.0,14.0,2.0,Olague
Zona_Noroeste,15/06/2009,0.0,23.0,16.0,0.0,Olague
Zona_Noroeste,16/06/2009,0.0,19.0,12.0,1.5,Olague
Zona_Noroeste,17/06/2009,0.0,30.0,16.0,0.0,Olague
Zona_Noroeste,18/06/2009,0.0,28.0,15.0,0.0,Olague
Zona_Noroeste,19/06/2009,0.0,14.0,14.0,0.0,Olague
Zona_Noroeste,20/06/2009,0.0,18.0,12.0,0.0,Olague
Zona_Noroeste,21/06/2009,0.0,19.0,8.0,0.0,Olague
Zona_Noroeste,22/06/2009,0.0,22.0,10.0,0.0,Olague
Zona_Noroeste,23/06/2009,0.0,25.0,7.0,0.0,Olague
Zona_Noroeste,24/06/2009,0.0,26.0,8.0,1.5,Olague
Zona_Noroeste,25/06/2009,0.0,27.0,11.0,0.0,Olague
Zona_Noroeste,26/06/2009,0.0,25.0,12.0,0.0,Olague
Zona_Noroeste,27/06/2009,0.0,30.0,8.0,0.0,Olague
Zona_Noroeste,28/06/2009,0.0,30.0,10.0,0.0,Olague
Zona_Noroeste,29/06/2009,0.0,32.0,12.0,0.0,Olague
Zona_Noroeste,30/06/2009,0.0,33.0,16.0,0.0,Olague
Zona_Noroeste,01/07/2009,0.0,33.0,15.0,0.0,Olague
Zona_Noroeste,02/07/2009,0.0,25.0,16.0,0.0,Olague
Zona_Noroeste,03/07/2009,0.0,26.0,15.0,0.0,Olague
Zona_Noroeste,04/07/2009,0.0,22.0,16.0,0.0,Olague
Zona_Noroeste,05/07/2009,0.0,25.0,17.0,0.0,Olague
Zona_Noroeste,06/07/2009,0.0,22.0,15.0,0.0,Olague
Zona_Noroeste,07/07/2009,0.0,20.0,12.0,0.0,Olague
Zona_Noroeste,08/07/2009,0.0,19.0,10.0,0.0,Olague
Zona_Noroeste,09/07/2009,0.0,18.0,8.0,0.0,Olague
Zona_Noroeste,10/07/2009,0.0,21.0,9.0,0.0,Olague
Zona_Noroeste,11/07/2009,0.0,32.0,8.0,0.0,Olague
Zona_Noroeste,12/07/2009,0.0,30.0,12.0,0.0,Olague
Zona_Noroeste,13/07/2009,0.0,30.0,12.0,0.0,Olague
Zona_Noroeste,14/07/2009,0.0,26.0,13.0,0.0,Olague
Zona_Noroeste,15/07/2009,0.0,26.0,11.0,0.0,Olague
Zona_Noroeste,16/07/2009,0.0,34.0,15.0,0.0,Olague
Zona_Noroeste,17/07/2009,0.0,17.0,13.0,7.0,Olague
Zona_Noroeste,18/07/2009,0.0,22.0,10.0,0.0,Olague
Zona_Noroeste,19/07/2009,0.0,26.0,11.0,0.0,Olague
Zona_Noroeste,20/07/2009,0.0,33.0,13.0,0.6,Olague
Zona_Noroeste,21/07/2009,0.0,34.0,12.0,0.0,Olague
Zona_Noroeste,22/07/2009,0.0,34.0,14.0,0.0,Olague
Zona_Noroeste,23/07/2009,0.0,27.0,12.0,0.0,Olague
Zona_Noroeste,24/07/2009,0.0,26.0,9.0,0.0,Olague
Zona_Noroeste,25/07/2009,0.0,27.0,10.0,0.0,Olague
Zona_Noroeste,26/07/2009,0.0,35.0,9.0,0.0,Olague
Zona_Noroeste,27/07/2009,0.0,19.0,15.0,0.0,Olague
Zona_Noroeste,28/07/2009,0.0,32.0,12.0,0.0,Olague
Zona_Noroeste,29/07/2009,0.0,30.0,15.0,0.0,Olague
Zona_Noroeste,30/07/2009,0.0,22.0,14.0,0.0,Olague
Zona_Noroeste,31/07/2009,0.0,31.0,7.0,0.0,Olague
Zona_Noroeste,01/08/2009,0.0,30.0,12.0,0.0,Olague
Zona_Noroeste,02/08/2009,0.0,22.0,13.0,0.0,Olague
Zona_Noroeste,03/08/2009,0.0,26.0,12.0,0.0,Olague
Zona_Noroeste,04/08/2009,0.0,30.0,9.0,0.0,Olague
Zona_Noroeste,05/08/2009,0.0,32.0,13.0,7.0,Olague
Zona_Noroeste,06/08/2009,0.0,27.0,16.0,0.0,Olague
Zona_Noroeste,07/08/2009,0.0,18.0,15.0,0.0,Olague
Zona_Noroeste,08/08/2009,0.0,19.0,13.0,0.0,Olague
Zona_Noroeste,09/08/2009,0.0,18.0,14.0,0.0,Olague
Zona_Noroeste,10/08/2009,0.0,26.0,13.0,0.0,Olague
Zona_Noroeste,11/08/2009,0.0,27.0,14.0,0.0,Olague
Zona_Noroeste,12/08/2009,0.0,28.0,13.0,0.0,Olague
Zona_Noroeste,13/08/2009,0.0,26.0,13.0,0.0,Olague
Zona_Noroeste,14/08/2009,0.0,33.0,12.0,0.0,Olague
Zona_Noroeste,15/08/2009,0.0,35.0,13.0,0.0,Olague
Zona_Noroeste,16/08/2009,0.0,34.0,13.0,0.0,Olague
Zona_Noroeste,17/08/2009,0.0,31.0,18.0,0.0,Olague
Zona_Noroeste,18/08/2009,0.0,37.0,16.0,0.0,Olague
Zona_Noroeste,19/08/2009,0.0,36.0,12.0,0.0,Olague
Zona_Noroeste,20/08/2009,0.0,30.0,15.0,0.0,Olague
Zona_Noroeste,21/08/2009,0.0,26.0,16.0,0.0,Olague
Zona_Noroeste,22/08/2009,0.0,28.0,9.0,0.0,Olague
Zona_Noroeste,23/08/2009,0.0,35.0,11.0,0.0,Olague
Zona_Noroeste,24/08/2009,0.0,23.0,13.0,0.0,Olague
Zona_Noroeste,25/08/2009,0.0,22.0,16.0,1.5,Olague
Zona_Noroeste,26/08/2009,0.0,30.0,12.0,0.0,Olague
Zona_Noroeste,27/08/2009,0.0,32.0,11.0,0.0,Olague
Zona_Noroeste,28/08/2009,0.0,22.0,16.0,0.0,Olague
Zona_Noroeste,29/08/2009,0.0,20.0,12.0,0.0,Olague
Zona_Noroeste,30/08/2009,0.0,25.0,7.0,0.0,Olague
Zona_Noroeste,31/08/2009,0.0,33.0,7.0,0.0,Olague
Zona_Noroeste,01/09/2009,0.0,22.0,16.0,0.0,Olague
Zona_Noroeste,02/09/2009,0.0,28.0,15.0,0.0,Olague
Zona_Noroeste,03/09/2009,0.0,23.0,13.0,0.0,Olague
Zona_Noroeste,04/09/2009,0.0,18.0,9.0,0.0,Olague
Zona_Noroeste,05/09/2009,0.0,19.0,9.0,0.0,Olague
Zona_Noroeste,06/09/2009,0.0,30.0,3.0,0.0,Olague
Zona_Noroeste,07/09/2009,0.0,31.0,11.0,0.0,Olague
Zona_Noroeste,08/09/2009,0.0,31.0,12.0,0.0,Olague
Zona_Noroeste,09/09/2009,0.0,29.0,14.0,0.0,Olague
Zona_Noroeste,10/09/2009,0.0,27.0,12.0,0.0,Olague
Zona_Noroeste,11/09/2009,0.0,26.0,11.0,0.0,Olague
Zona_Noroeste,12/09/2009,0.0,23.0,12.0,0.0,Olague
Zona_Noroeste,13/09/2009,0.0,23.0,9.0,0.0,Olague
Zona_Noroeste,14/09/2009,0.0,18.0,10.0,0.0,Olague
Zona_Noroeste,15/09/2009,0.0,13.0,7.0,0.0,Olague
Zona_Noroeste,16/09/2009,0.0,15.0,9.0,1.0,Olague
Zona_Noroeste,17/09/2009,0.0,22.0,3.0,20.0,Olague
Zona_Noroeste,18/09/2009,0.0,14.0,10.0,20.0,Olague
Zona_Noroeste,19/09/2009,0.0,16.0,10.0,1.0,Olague
Zona_Noroeste,20/09/2009,0.0,15.0,9.0,31.5,Olague
Zona_Noroeste,21/09/2009,0.0,18.0,12.0,1.5,Olague
Zona_Noroeste,22/09/2009,0.0,18.0,12.0,0.0,Olague
Zona_Noroeste,23/09/2009,0.0,26.0,11.0,0.0,Olague
Zona_Noroeste,24/09/2009,0.0,22.0,9.0,0.0,Olague
Zona_Noroeste,25/09/2009,0.0,21.0,12.0,0.0,Olague
Zona_Noroeste,26/09/2009,0.0,22.0,7.0,0.0,Olague
Zona_Noroeste,27/09/2009,0.0,25.0,9.0,0.0,Olague
Zona_Noroeste,28/09/2009,0.0,22.0,8.0,0.0,Olague
Zona_Noroeste,29/09/2009,0.0,26.0,8.0,0.0,Olague
Zona_Noroeste,30/09/2009,0.0,23.0,9.0,0.0,Olague
Zona_Noroeste,01/10/2009,0.0,22.0,12.0,0.0,Olague
Zona_Noroeste,02/10/2009,0.0,18.0,12.0,0.0,Olague
Zona_Noroeste,03/10/2009,0.0,19.0,5.0,0.0,Olague
Zona_Noroeste,04/10/2009,0.0,26.0,5.0,0.0,Olague
Zona_Noroeste,05/10/2009,0.0,28.0,8.0,0.0,Olague
Zona_Noroeste,06/10/2009,0.0,27.0,13.0,0.0,Olague
Zona_Noroeste,07/10/2009,0.0,26.0,14.0,0.0,Olague
Zona_Noroeste,08/10/2009,0.0,22.0,12.0,17.5,Olague
Zona_Noroeste,09/10/2009,0.0,20.0,7.0,0.0,Olague
Zona_Noroeste,10/10/2009,0.0,19.0,10.0,2.0,Olague
Zona_Noroeste,11/10/2009,0.0,18.0,12.0,6.0,Olague
Zona_Noroeste,12/10/2009,0.0,16.0,12.0,0.0,Olague
Zona_Noroeste,13/10/2009,0.0,16.0,4.0,0.0,Olague
Zona_Noroeste,14/10/2009,0.0,15.0,7.0,0.0,Olague
Zona_Noroeste,15/10/2009,0.0,11.0,2.0,0.0,Olague
Zona_Noroeste,16/10/2009,0.0,12.0,-1.0,0.0,Olague
Zona_Noroeste,17/10/2009,0.0,13.0,0.0,0.0,Olague
Zona_Noroeste,18/10/2009,0.0,12.0,2.0,0.0,Olague
Zona_Noroeste,19/10/2009,0.0,16.0,-4.0,0.0,Olague
Zona_Noroeste,20/10/2009,0.0,17.0,8.0,24.0,Olague
Zona_Noroeste,21/10/2009,0.0,14.0,6.0,12.0,Olague
Zona_Noroeste,22/10/2009,0.0,14.0,8.0,16.0,Olague
Zona_Noroeste,23/10/2009,0.0,14.0,7.0,14.5,Olague
Zona_Noroeste,24/10/2009,0.0,19.0,8.0,0.0,Olague
Zona_Noroeste,25/10/2009,0.0,18.0,8.0,0.0,Olague
Zona_Noroeste,26/10/2009,0.0,18.0,6.0,0.0,Olague
Zona_Noroeste,27/10/2009,0.0,20.0,2.0,0.0,Olague
Zona_Noroeste,28/10/2009,0.0,22.0,8.0,0.0,Olague
Zona_Noroeste,29/10/2009,0.0,20.0,9.0,0.0,Olague
Zona_Noroeste,30/10/2009,0.0,22.0,4.0,0.0,Olague
Zona_Noroeste,31/10/2009,0.0,23.0,9.0,0.0,Olague
Zona_Noroeste,01/11/2009,0.0,19.0,7.0,20.0,Olague
Zona_Noroeste,02/11/2009,0.0,11.0,7.0,2.0,Olague
Zona_Noroeste,03/11/2009,0.0,15.0,7.0,2.0,Olague
Zona_Noroeste,04/11/2009,0.0,10.0,6.0,3.0,Olague
Zona_Noroeste,05/11/2009,0.0,6.0,4.0,26.0,Olague
Zona_Noroeste,06/11/2009,0.0,12.0,3.0,14.0,Olague
Zona_Noroeste,07/11/2009,0.0,9.0,3.0,35.0,Olague
Zona_Noroeste,08/11/2009,0.0,8.0,4.0,78.0,Olague
Zona_Noroeste,09/11/2009,0.0,7.0,4.0,1.0,Olague
Zona_Noroeste,10/11/2009,0.0,10.0,0.0,26.0,Olague
Zona_Noroeste,11/11/2009,0.0,12.0,2.0,2.0,Olague
Zona_Noroeste,12/11/2009,0.0,15.0,2.0,0.0,Olague
Zona_Noroeste,13/11/2009,0.0,17.0,7.0,0.0,Olague
Zona_Noroeste,14/11/2009,0.0,18.0,12.0,2.0,Olague
Zona_Noroeste,15/11/2009,0.0,17.0,6.0,0.0,Olague
Zona_Noroeste,16/11/2009,0.0,18.0,11.0,0.0,Olague
Zona_Noroeste,17/11/2009,0.0,18.0,14.0,0.0,Olague
Zona_Noroeste,18/11/2009,0.0,15.0,3.0,0.0,Olague
Zona_Noroeste,19/11/2009,0.0,18.0,2.0,0.0,Olague
Zona_Noroeste,20/11/2009,0.0,15.0,1.0,2.0,Olague
Zona_Noroeste,21/11/2009,0.0,17.0,4.0,0.0,Olague
Zona_Noroeste,22/11/2009,0.0,14.0,5.0,0.0,Olague
Zona_Noroeste,23/11/2009,0.0,15.0,1.0,0.0,Olague
Zona_Noroeste,24/11/2009,0.0,14.0,-1.0,0.0,Olague
Zona_Noroeste,25/11/2009,0.0,10.0,-2.0,2.0,Olague
Zona_Noroeste,26/11/2009,0.0,13.0,5.0,0.0,Olague
Zona_Noroeste,27/11/2009,0.0,11.0,-2.0,0.0,Olague
Zona_Noroeste,28/11/2009,0.0,11.0,-2.0,10.0,Olague
Zona_Noroeste,29/11/2009,0.0,7.0,3.0,2.0,Olague
Zona_Noroeste,30/11/2009,0.0,2.0,1.0,45.0,Olague
Zona_Noroeste,01/12/2009,0.0,8.0,1.0,12.0,Olague
Zona_Noroeste,02/12/2009,0.0,10.0,2.0,9.0,Olague
Zona_Noroeste,03/12/2009,0.0,10.0,5.0,11.0,Olague
Zona_Noroeste,04/12/2009,0.0,11.0,6.0,4.0,Olague
Zona_Noroeste,05/12/2009,0.0,10.0,2.0,0.0,Olague
Zona_Noroeste,06/12/2009,0.0,13.0,7.0,0.0,Olague
Zona_Noroeste,07/12/2009,0.0,12.0,8.0,0.0,Olague
Zona_Noroeste,08/12/2009,0.0,13.0,3.0,0.0,Olague
Zona_Noroeste,09/12/2009,0.0,15.0,1.0,0.0,Olague
Zona_Noroeste,10/12/2009,0.0,14.0,0.0,0.0,Olague
Zona_Noroeste,11/12/2009,0.0,14.0,-2.0,0.0,Olague
Zona_Noroeste,12/12/2009,0.0,6.0,-1.0,0.0,Olague
Zona_Noroeste,13/12/2009,0.0,3.0,0.0,0.0,Olague
Zona_Noroeste,14/12/2009,0.0,2.0,-3.0,0.0,Olague
Zona_Noroeste,15/12/2009,0.0,1.0,-3.0,0.0,Olague
Zona_Noroeste,16/12/2009,0.0,2.0,-5.0,0.0,Olague
Zona_Noroeste,17/12/2009,0.0,2.0,-2.0,8.0,Olague
Zona_Noroeste,18/12/2009,0.0,1.0,-9.0,2.0,Olague
Zona_Noroeste,19/12/2009,0.0,-2.0,-6.0,0.0,Olague
Zona_Noroeste,20/12/2009,0.0,4.0,-10.0,0.0,Olague
Zona_Noroeste,21/12/2009,0.0,10.0,-1.0,7.0,Olague
Zona_Noroeste,22/12/2009,0.0,11.0,0.0,8.5,Olague
Zona_Noroeste,23/12/2009,0.0,12.0,2.0,25.0,Olague
Zona_Noroeste,24/12/2009,0.0,14.0,3.0,5.5,Olague
Zona_Noroeste,25/12/2009,0.0,10.0,4.0,9.0,Olague
Zona_Noroeste,26/12/2009,0.0,8.0,-1.0,2.0,Olague
Zona_Noroeste,27/12/2009,0.0,11.0,-2.0,1.0,Olague
