Comarca,Fecha, Temperatura media, Temperatura maxima, Temperatura minima, Precipitacion acumulada,Localidad
Zona_Noroeste,01/01/2017,-0.2,0.6,-1.3,0.0,Oskotz
Zona_Noroeste,02/01/2017,-0.6,2.9,-3.3,0.0,Oskotz
Zona_Noroeste,03/01/2017,-1.1,10.0,-6.5,0.0,Oskotz
Zona_Noroeste,04/01/2017,-1.3,9.9,-7.6,0.2,Oskotz
Zona_Noroeste,05/01/2017,-1.6,5.3,-7.0,0.0,Oskotz
Zona_Noroeste,06/01/2017,1.2,8.5,-4.8,0.0,Oskotz
Zona_Noroeste,07/01/2017,-0.3,10.3,-6.9,0.0,Oskotz
Zona_Noroeste,08/01/2017,2.9,7.9,-4.2,0.0,Oskotz
Zona_Noroeste,09/01/2017,5.1,8.9,-0.7,0.0,Oskotz
Zona_Noroeste,10/01/2017,5.6,7.1,2.4,41.1,Oskotz
Zona_Noroeste,11/01/2017,8.5,11.6,5.4,8.3,Oskotz
Zona_Noroeste,12/01/2017,8.6,12.9,5.8,2.3,Oskotz
Zona_Noroeste,13/01/2017,2.5,6.1,0.2,25.9,Oskotz
Zona_Noroeste,14/01/2017,1.1,2.9,0.0,19.5,Oskotz
Zona_Noroeste,15/01/2017,2.8,5.5,0.2,53.5,Oskotz
Zona_Noroeste,16/01/2017,6.5,8.0,4.3,37.6,Oskotz
Zona_Noroeste,17/01/2017,-0.4,4.3,-4.1,0.6,Oskotz
Zona_Noroeste,18/01/2017,-3.7,-2.2,-6.2,0.4,Oskotz
Zona_Noroeste,19/01/2017,-1.7,2.1,-6.2,0.0,Oskotz
Zona_Noroeste,20/01/2017,-3.5,5.1,-8.6,0.0,Oskotz
Zona_Noroeste,21/01/2017,-1.2,10.7,-7.7,0.0,Oskotz
Zona_Noroeste,22/01/2017,1.5,6.6,-4.0,0.2,Oskotz
Zona_Noroeste,23/01/2017,1.0,8.3,-3.5,0.2,Oskotz
Zona_Noroeste,24/01/2017,0.9,8.5,-3.9,0.0,Oskotz
Zona_Noroeste,25/01/2017,-2.0,5.0,-6.5,0.2,Oskotz
Zona_Noroeste,26/01/2017,-0.2,5.5,-7.3,0.2,Oskotz
Zona_Noroeste,27/01/2017,5.8,7.4,4.0,6.4,Oskotz
Zona_Noroeste,28/01/2017,4.0,10.3,-2.6,4.1,Oskotz
Zona_Noroeste,29/01/2017,3.9,9.2,-3.0,0.6,Oskotz
Zona_Noroeste,30/01/2017,7.9,11.9,5.4,0.0,Oskotz
Zona_Noroeste,31/01/2017,9.3,15.5,3.5,0.0,Oskotz
Zona_Noroeste,01/02/2017,9.1,13.9,3.0,0.0,Oskotz
Zona_Noroeste,02/02/2017,8.5,10.6,3.1,5.6,Oskotz
Zona_Noroeste,03/02/2017,8.2,12.1,2.8,4.4,Oskotz
Zona_Noroeste,04/02/2017,8.8,13.7,5.0,11.0,Oskotz
Zona_Noroeste,05/02/2017,5.8,12.0,2.3,16.6,Oskotz
Zona_Noroeste,06/02/2017,5.8,9.4,3.5,18.1,Oskotz
Zona_Noroeste,07/02/2017,6.6,10.5,1.5,14.1,Oskotz
Zona_Noroeste,08/02/2017,2.8,6.3,0.8,23.2,Oskotz
Zona_Noroeste,09/02/2017,2.8,10.2,-1.2,0.4,Oskotz
Zona_Noroeste,10/02/2017,3.1,11.5,-1.3,0.0,Oskotz
Zona_Noroeste,11/02/2017,2.9,8.4,-2.0,4.4,Oskotz
Zona_Noroeste,12/02/2017,9.4,11.9,4.0,1.2,Oskotz
Zona_Noroeste,13/02/2017,9.3,12.5,3.0,11.4,Oskotz
Zona_Noroeste,14/02/2017,5.1,12.4,0.5,0.2,Oskotz
Zona_Noroeste,15/02/2017,6.4,14.3,1.6,0.2,Oskotz
Zona_Noroeste,16/02/2017,6.2,13.9,0.7,0.0,Oskotz
Zona_Noroeste,17/02/2017,4.8,15.4,-1.7,0.0,Oskotz
Zona_Noroeste,18/02/2017,5.0,15.9,-1.6,0.2,Oskotz
Zona_Noroeste,19/02/2017,5.8,12.1,-0.1,0.0,Oskotz
Zona_Noroeste,20/02/2017,8.0,11.2,2.9,0.0,Oskotz
Zona_Noroeste,21/02/2017,5.4,14.5,-1.3,0.0,Oskotz
Zona_Noroeste,22/02/2017,6.1,17.2,-1.2,0.2,Oskotz
Zona_Noroeste,23/02/2017,7.7,15.8,1.5,0.2,Oskotz
Zona_Noroeste,24/02/2017,5.7,8.0,0.6,1.2,Oskotz
Zona_Noroeste,25/02/2017,5.4,17.4,-1.9,0.0,Oskotz
Zona_Noroeste,26/02/2017,5.7,17.0,-2.7,0.0,Oskotz
Zona_Noroeste,27/02/2017,8.3,15.0,-0.4,0.2,Oskotz
Zona_Noroeste,28/02/2017,6.4,10.4,-1.0,7.0,Oskotz
Zona_Noroeste,01/03/2017,4.9,14.4,-2.1,0.0,Oskotz
Zona_Noroeste,02/03/2017,7.6,15.8,-0.3,0.0,Oskotz
Zona_Noroeste,03/03/2017,10.1,16.0,2.4,37.7,Oskotz
Zona_Noroeste,04/03/2017,3.0,8.2,-0.4,3.3,Oskotz
Zona_Noroeste,05/03/2017,5.4,9.4,0.4,3.1,Oskotz
Zona_Noroeste,06/03/2017,10.2,14.5,6.8,2.7,Oskotz
Zona_Noroeste,07/03/2017,8.4,11.2,5.0,5.8,Oskotz
Zona_Noroeste,08/03/2017,10.9,18.3,5.8,0.4,Oskotz
Zona_Noroeste,09/03/2017,10.4,24.0,-0.3,0.0,Oskotz
Zona_Noroeste,10/03/2017,10.4,26.0,-0.8,0.0,Oskotz
Zona_Noroeste,11/03/2017,10.1,22.3,0.4,0.0,Oskotz
Zona_Noroeste,12/03/2017,7.9,10.4,5.4,19.3,Oskotz
Zona_Noroeste,13/03/2017,7.5,9.1,5.7,13.7,Oskotz
Zona_Noroeste,14/03/2017,9.7,13.9,6.1,0.0,Oskotz
Zona_Noroeste,15/03/2017,9.9,18.2,3.0,0.0,Oskotz
Zona_Noroeste,16/03/2017,9.7,19.3,2.2,0.2,Oskotz
Zona_Noroeste,17/03/2017,8.7,19.7,-0.5,0.0,Oskotz
Zona_Noroeste,18/03/2017,8.7,14.1,5.0,0.0,Oskotz
Zona_Noroeste,19/03/2017,9.2,17.8,1.4,0.0,Oskotz
Zona_Noroeste,20/03/2017,9.0,15.9,6.2,0.0,Oskotz
Zona_Noroeste,21/03/2017,7.5,10.1,4.6,0.4,Oskotz
Zona_Noroeste,22/03/2017,4.8,11.8,-0.8,6.0,Oskotz
Zona_Noroeste,23/03/2017,3.5,8.8,-1.1,0.0,Oskotz
Zona_Noroeste,24/03/2017,4.9,10.6,-1.1,2.3,Oskotz
Zona_Noroeste,25/03/2017,3.5,6.1,0.5,21.0,Oskotz
Zona_Noroeste,26/03/2017,9.3,15.2,4.6,0.0,Oskotz
Zona_Noroeste,27/03/2017,8.4,11.4,5.0,3.5,Oskotz
Zona_Noroeste,28/03/2017,9.5,17.5,3.1,1.0,Oskotz
Zona_Noroeste,29/03/2017,9.8,20.0,-0.2,0.0,Oskotz
Zona_Noroeste,30/03/2017,12.4,20.2,3.0,0.0,Oskotz
Zona_Noroeste,31/03/2017,11.7,17.2,7.3,5.4,Oskotz
Zona_Noroeste,01/04/2017,7.0,10.3,3.4,12.0,Oskotz
Zona_Noroeste,02/04/2017,6.6,10.7,2.9,13.3,Oskotz
Zona_Noroeste,03/04/2017,8.9,17.0,0.1,0.2,Oskotz
Zona_Noroeste,04/04/2017,9.3,12.1,4.9,0.2,Oskotz
Zona_Noroeste,05/04/2017,8.7,12.3,5.1,0.8,Oskotz
Zona_Noroeste,06/04/2017,9.2,14.7,2.9,0.0,Oskotz
Zona_Noroeste,07/04/2017,9.9,20.7,-0.5,0.2,Oskotz
Zona_Noroeste,08/04/2017,12.2,22.6,1.9,0.0,Oskotz
Zona_Noroeste,09/04/2017,12.4,22.3,2.8,0.0,Oskotz
Zona_Noroeste,10/04/2017,12.6,23.3,2.0,0.0,Oskotz
Zona_Noroeste,11/04/2017,11.5,15.9,7.0,0.0,Oskotz
Zona_Noroeste,12/04/2017,12.4,22.2,5.9,0.0,Oskotz
Zona_Noroeste,13/04/2017,11.8,22.4,1.7,0.0,Oskotz
Zona_Noroeste,14/04/2017,9.0,16.7,1.2,0.0,Oskotz
Zona_Noroeste,15/04/2017,10.4,13.6,8.1,0.0,Oskotz
Zona_Noroeste,16/04/2017,10.2,17.0,3.4,0.0,Oskotz
Zona_Noroeste,17/04/2017,11.2,19.2,2.2,0.0,Oskotz
Zona_Noroeste,18/04/2017,10.8,15.5,4.7,0.0,Oskotz
Zona_Noroeste,19/04/2017,8.5,13.5,2.2,0.0,Oskotz
Zona_Noroeste,20/04/2017,7.2,16.1,-2.7,0.0,Oskotz
Zona_Noroeste,21/04/2017,8.9,19.0,-2.0,0.0,Oskotz
Zona_Noroeste,22/04/2017,11.5,22.6,1.0,0.0,Oskotz
Zona_Noroeste,23/04/2017,12.0,23.6,0.4,0.0,Oskotz
Zona_Noroeste,24/04/2017,13.8,24.9,1.4,0.0,Oskotz
Zona_Noroeste,25/04/2017,10.3,17.6,7.4,3.5,Oskotz
Zona_Noroeste,26/04/2017,5.3,8.6,1.5,1.7,Oskotz
Zona_Noroeste,27/04/2017,4.6,9.5,-1.1,0.0,Oskotz
Zona_Noroeste,28/04/2017,5.1,12.5,-2.3,0.2,Oskotz
Zona_Noroeste,29/04/2017,8.2,15.5,-2.4,0.2,Oskotz
Zona_Noroeste,30/04/2017,8.2,13.9,-0.8,14.7,Oskotz
Zona_Noroeste,01/05/2017,6.6,14.6,-1.9,0.4,Oskotz
Zona_Noroeste,02/05/2017,9.8,13.6,5.9,0.2,Oskotz
Zona_Noroeste,03/05/2017,12.3,19.9,6.4,0.2,Oskotz
Zona_Noroeste,04/05/2017,14.1,21.4,5.9,0.0,Oskotz
Zona_Noroeste,05/05/2017,15.2,22.4,10.5,12.2,Oskotz
Zona_Noroeste,06/05/2017,11.7,18.5,3.7,0.4,Oskotz
Zona_Noroeste,07/05/2017,10.9,19.1,2.4,0.0,Oskotz
Zona_Noroeste,08/05/2017,10.7,19.3,-0.3,0.0,Oskotz
Zona_Noroeste,09/05/2017,14.1,20.9,4.5,0.0,Oskotz
Zona_Noroeste,10/05/2017,15.0,21.5,10.2,5.6,Oskotz
Zona_Noroeste,11/05/2017,13.4,18.8,8.6,8.7,Oskotz
Zona_Noroeste,12/05/2017,12.6,18.9,7.5,4.1,Oskotz
Zona_Noroeste,13/05/2017,13.6,20.4,8.5,0.0,Oskotz
Zona_Noroeste,14/05/2017,15.2,22.9,7.3,0.0,Oskotz
Zona_Noroeste,15/05/2017,16.1,25.7,6.3,0.0,Oskotz
Zona_Noroeste,16/05/2017,18.6,26.7,10.3,0.0,Oskotz
Zona_Noroeste,17/05/2017,15.4,23.8,9.6,0.0,Oskotz
Zona_Noroeste,18/05/2017,9.5,12.6,6.1,21.4,Oskotz
Zona_Noroeste,19/05/2017,8.7,14.7,2.9,0.0,Oskotz
Zona_Noroeste,20/05/2017,10.1,18.6,2.4,0.0,Oskotz
Zona_Noroeste,21/05/2017,14.7,24.0,2.7,0.2,Oskotz
Zona_Noroeste,22/05/2017,16.9,24.5,10.8,0.0,Oskotz
Zona_Noroeste,23/05/2017,15.5,23.0,9.1,0.0,Oskotz
Zona_Noroeste,24/05/2017,18.8,29.0,9.4,0.0,Oskotz
Zona_Noroeste,25/05/2017,20.5,31.4,9.6,0.0,Oskotz
Zona_Noroeste,26/05/2017,20.5,31.3,11.7,2.9,Oskotz
Zona_Noroeste,27/05/2017,20.3,29.0,12.1,0.0,Oskotz
Zona_Noroeste,28/05/2017,21.4,26.9,16.5,0.0,Oskotz
Zona_Noroeste,29/05/2017,16.8,22.5,13.4,6.2,Oskotz
Zona_Noroeste,30/05/2017,15.8,18.9,13.8,0.0,Oskotz
Zona_Noroeste,31/05/2017,17.9,24.4,12.8,0.0,Oskotz
Zona_Noroeste,01/06/2017,19.6,28.1,12.6,0.2,Oskotz
Zona_Noroeste,02/06/2017,17.6,26.5,14.0,1.9,Oskotz
Zona_Noroeste,03/06/2017,13.8,16.1,10.1,10.8,Oskotz
Zona_Noroeste,04/06/2017,10.9,12.5,9.5,15.6,Oskotz
Zona_Noroeste,05/06/2017,14.0,22.1,9.7,1.7,Oskotz
Zona_Noroeste,06/06/2017,12.0,14.7,7.2,0.4,Oskotz
Zona_Noroeste,07/06/2017,14.3,23.5,5.4,0.0,Oskotz
Zona_Noroeste,08/06/2017,17.9,29.2,8.6,4.3,Oskotz
Zona_Noroeste,09/06/2017,17.4,24.9,13.3,0.0,Oskotz
Zona_Noroeste,10/06/2017,20.9,30.1,12.5,0.0,Oskotz
Zona_Noroeste,11/06/2017,20.2,29.9,15.8,0.0,Oskotz
Zona_Noroeste,12/06/2017,19.0,25.1,15.6,0.0,Oskotz
Zona_Noroeste,13/06/2017,21.5,32.2,14.5,0.0,Oskotz
Zona_Noroeste,14/06/2017,22.4,32.6,15.9,0.0,Oskotz
Zona_Noroeste,15/06/2017,17.6,19.8,15.7,0.0,Oskotz
Zona_Noroeste,16/06/2017,18.4,23.2,15.1,0.0,Oskotz
Zona_Noroeste,17/06/2017,21.4,27.7,15.3,0.0,Oskotz
Zona_Noroeste,18/06/2017,22.6,33.6,11.4,0.0,Oskotz
Zona_Noroeste,19/06/2017,24.3,33.8,15.4,0.0,Oskotz
Zona_Noroeste,20/06/2017,22.7,31.6,16.3,0.0,Oskotz
Zona_Noroeste,21/06/2017,23.5,33.6,13.4,0.0,Oskotz
Zona_Noroeste,22/06/2017,22.0,34.4,15.0,0.0,Oskotz
Zona_Noroeste,23/06/2017,18.7,24.4,16.6,0.0,Oskotz
Zona_Noroeste,24/06/2017,17.9,21.5,16.0,0.0,Oskotz
Zona_Noroeste,25/06/2017,18.9,26.0,14.6,3.5,Oskotz
Zona_Noroeste,26/06/2017,18.9,24.7,14.0,4.6,Oskotz
Zona_Noroeste,27/06/2017,16.6,24.5,13.0,4.6,Oskotz
Zona_Noroeste,28/06/2017,15.2,23.1,10.2,8.7,Oskotz
Zona_Noroeste,29/06/2017,11.8,17.6,7.3,1.0,Oskotz
Zona_Noroeste,30/06/2017,11.0,14.5,6.1,2.7,Oskotz
Zona_Noroeste,01/07/2017,11.1,13.3,9.4,3.9,Oskotz
Zona_Noroeste,02/07/2017,13.6,18.6,8.6,0.0,Oskotz
Zona_Noroeste,03/07/2017,17.0,22.8,8.5,0.0,Oskotz
Zona_Noroeste,04/07/2017,22.2,32.4,11.7,0.0,Oskotz
Zona_Noroeste,05/07/2017,23.2,33.3,14.2,0.0,Oskotz
Zona_Noroeste,06/07/2017,21.6,30.4,15.0,0.0,Oskotz
Zona_Noroeste,07/07/2017,22.2,30.9,12.9,0.0,Oskotz
Zona_Noroeste,08/07/2017,18.7,24.9,16.1,2.5,Oskotz
Zona_Noroeste,09/07/2017,19.2,26.2,14.3,6.0,Oskotz
Zona_Noroeste,10/07/2017,16.9,19.3,14.2,0.0,Oskotz
Zona_Noroeste,11/07/2017,19.4,28.9,13.2,0.0,Oskotz
Zona_Noroeste,12/07/2017,18.0,24.4,10.8,0.0,Oskotz
Zona_Noroeste,13/07/2017,18.2,23.2,15.4,0.0,Oskotz
Zona_Noroeste,14/07/2017,17.1,20.6,14.6,0.0,Oskotz
Zona_Noroeste,15/07/2017,18.4,23.1,14.9,0.0,Oskotz
Zona_Noroeste,16/07/2017,21.2,29.0,14.0,0.0,Oskotz
Zona_Noroeste,17/07/2017,25.8,33.6,15.8,0.2,Oskotz
Zona_Noroeste,18/07/2017,22.5,34.1,15.6,8.9,Oskotz
Zona_Noroeste,19/07/2017,20.5,29.0,14.3,8.7,Oskotz
Zona_Noroeste,20/07/2017,16.2,19.5,14.2,0.0,Oskotz
Zona_Noroeste,21/07/2017,15.7,21.6,12.0,0.4,Oskotz
Zona_Noroeste,22/07/2017,17.0,24.4,11.0,0.0,Oskotz
Zona_Noroeste,23/07/2017,17.6,21.8,14.2,0.0,Oskotz
Zona_Noroeste,24/07/2017,16.4,19.3,13.9,3.3,Oskotz
Zona_Noroeste,25/07/2017,14.7,17.7,12.9,1.7,Oskotz
Zona_Noroeste,26/07/2017,17.6,24.6,12.0,0.0,Oskotz
Zona_Noroeste,27/07/2017,18.8,27.8,9.0,0.0,Oskotz
Zona_Noroeste,28/07/2017,20.7,27.1,15.2,0.0,Oskotz
Zona_Noroeste,29/07/2017,21.6,32.2,14.3,0.0,Oskotz
Zona_Noroeste,30/07/2017,18.7,26.9,13.2,0.0,Oskotz
Zona_Noroeste,31/07/2017,18.0,24.7,13.6,0.0,Oskotz
Zona_Noroeste,01/08/2017,17.8,22.1,15.5,0.0,Oskotz
Zona_Noroeste,02/08/2017,21.7,33.3,12.4,0.0,Oskotz
Zona_Noroeste,03/08/2017,22.1,29.7,17.9,0.0,Oskotz
Zona_Noroeste,04/08/2017,21.9,28.6,14.6,0.0,Oskotz
Zona_Noroeste,05/08/2017,18.1,21.5,14.8,0.2,Oskotz
Zona_Noroeste,06/08/2017,16.5,20.8,13.6,0.0,Oskotz
Zona_Noroeste,07/08/2017,18.5,29.2,12.9,5.0,Oskotz
Zona_Noroeste,08/08/2017,13.9,18.7,9.1,0.2,Oskotz
Zona_Noroeste,09/08/2017,12.8,17.8,9.6,1.0,Oskotz
Zona_Noroeste,10/08/2017,11.9,15.2,7.9,7.1,Oskotz
Zona_Noroeste,11/08/2017,12.3,19.3,5.6,0.2,Oskotz
Zona_Noroeste,12/08/2017,14.9,23.8,5.3,0.0,Oskotz
Zona_Noroeste,13/08/2017,18.8,26.6,12.1,0.0,Oskotz
Zona_Noroeste,14/08/2017,23.0,33.5,11.7,0.0,Oskotz
Zona_Noroeste,15/08/2017,18.3,24.5,13.9,0.8,Oskotz
Zona_Noroeste,16/08/2017,17.9,22.0,12.1,0.0,Oskotz
Zona_Noroeste,17/08/2017,18.7,28.8,8.5,0.0,Oskotz
Zona_Noroeste,18/08/2017,17.6,22.1,13.6,0.0,Oskotz
Zona_Noroeste,19/08/2017,16.8,22.2,12.4,0.0,Oskotz
Zona_Noroeste,20/08/2017,17.1,23.0,11.2,0.0,Oskotz
Zona_Noroeste,21/08/2017,20.2,34.7,7.6,0.0,Oskotz
Zona_Noroeste,22/08/2017,22.0,33.6,13.3,0.8,Oskotz
Zona_Noroeste,23/08/2017,19.7,28.1,13.8,0.4,Oskotz
Zona_Noroeste,24/08/2017,22.0,33.4,14.7,0.0,Oskotz
Zona_Noroeste,25/08/2017,22.0,33.1,15.1,0.0,Oskotz
Zona_Noroeste,26/08/2017,22.6,31.7,14.6,0.8,Oskotz
Zona_Noroeste,27/08/2017,18.3,25.6,13.5,3.3,Oskotz
Zona_Noroeste,28/08/2017,19.6,30.6,13.4,23.8,Oskotz
Zona_Noroeste,29/08/2017,18.6,26.4,13.6,6.0,Oskotz
Zona_Noroeste,30/08/2017,17.7,25.9,13.2,10.8,Oskotz
Zona_Noroeste,31/08/2017,14.0,18.4,8.0,1.4,Oskotz
Zona_Noroeste,01/09/2017,11.9,18.4,5.9,2.1,Oskotz
Zona_Noroeste,02/09/2017,12.7,19.2,7.8,0.6,Oskotz
Zona_Noroeste,03/09/2017,15.2,24.0,7.1,1.4,Oskotz
Zona_Noroeste,04/09/2017,16.6,22.0,11.1,1.2,Oskotz
Zona_Noroeste,05/09/2017,16.6,27.2,8.8,0.0,Oskotz
Zona_Noroeste,06/09/2017,16.1,19.1,12.8,0.0,Oskotz
Zona_Noroeste,07/09/2017,14.4,18.8,7.7,0.0,Oskotz
Zona_Noroeste,08/09/2017,13.6,24.1,4.7,0.2,Oskotz
Zona_Noroeste,09/09/2017,13.0,17.0,10.1,11.0,Oskotz
Zona_Noroeste,10/09/2017,12.5,16.1,9.9,19.9,Oskotz
Zona_Noroeste,11/09/2017,14.0,16.8,11.9,9.7,Oskotz
Zona_Noroeste,12/09/2017,13.8,19.7,9.8,1.9,Oskotz
Zona_Noroeste,13/09/2017,16.6,25.8,8.3,0.0,Oskotz
Zona_Noroeste,14/09/2017,12.8,16.5,7.2,0.4,Oskotz
Zona_Noroeste,15/09/2017,10.8,16.2,5.1,0.6,Oskotz
Zona_Noroeste,16/09/2017,7.9,14.1,2.2,1.0,Oskotz
Zona_Noroeste,17/09/2017,10.1,16.7,3.7,0.0,Oskotz
Zona_Noroeste,18/09/2017,11.4,14.6,8.3,10.2,Oskotz
Zona_Noroeste,19/09/2017,10.6,17.1,4.5,0.0,Oskotz
Zona_Noroeste,20/09/2017,10.4,21.8,1.7,0.2,Oskotz
Zona_Noroeste,21/09/2017,12.3,23.9,3.5,0.0,Oskotz
Zona_Noroeste,22/09/2017,12.7,18.0,7.4,4.3,Oskotz
Zona_Noroeste,23/09/2017,14.0,23.7,6.3,0.0,Oskotz
Zona_Noroeste,24/09/2017,15.9,26.1,7.7,0.2,Oskotz
Zona_Noroeste,25/09/2017,14.4,18.0,10.5,1.2,Oskotz
Zona_Noroeste,26/09/2017,13.7,19.5,6.8,0.0,Oskotz
Zona_Noroeste,27/09/2017,13.0,23.7,5.1,0.2,Oskotz
Zona_Noroeste,28/09/2017,15.0,25.2,7.6,0.0,Oskotz
Zona_Noroeste,29/09/2017,16.3,25.8,10.0,0.0,Oskotz
Zona_Noroeste,30/09/2017,12.9,16.5,9.4,1.4,Oskotz
Zona_Noroeste,01/10/2017,13.4,16.3,9.0,1.4,Oskotz
Zona_Noroeste,02/10/2017,16.3,20.0,13.5,0.4,Oskotz
Zona_Noroeste,03/10/2017,15.9,21.5,10.7,0.4,Oskotz
Zona_Noroeste,04/10/2017,16.0,24.5,9.4,0.0,Oskotz
Zona_Noroeste,05/10/2017,14.2,18.9,8.2,0.2,Oskotz
Zona_Noroeste,06/10/2017,12.4,17.8,5.7,0.0,Oskotz
Zona_Noroeste,07/10/2017,10.0,19.6,2.8,0.2,Oskotz
Zona_Noroeste,08/10/2017,9.8,20.4,1.7,0.2,Oskotz
Zona_Noroeste,09/10/2017,11.1,21.0,3.4,0.0,Oskotz
Zona_Noroeste,10/10/2017,11.4,22.7,3.8,0.2,Oskotz
Zona_Noroeste,11/10/2017,12.2,23.6,3.8,0.2,Oskotz
Zona_Noroeste,12/10/2017,12.7,24.4,4.5,0.0,Oskotz
Zona_Noroeste,13/10/2017,14.3,25.6,7.8,0.0,Oskotz
Zona_Noroeste,14/10/2017,16.9,24.8,8.8,0.2,Oskotz
Zona_Noroeste,15/10/2017,16.6,22.8,12.8,0.0,Oskotz
Zona_Noroeste,16/10/2017,16.0,24.5,9.0,0.2,Oskotz
Zona_Noroeste,17/10/2017,16.4,22.8,9.0,0.0,Oskotz
Zona_Noroeste,18/10/2017,14.1,17.1,11.0,13.7,Oskotz
Zona_Noroeste,19/10/2017,11.8,18.6,6.2,0.4,Oskotz
Zona_Noroeste,20/10/2017,11.5,20.6,5.6,0.2,Oskotz
Zona_Noroeste,21/10/2017,11.9,15.3,9.1,2.5,Oskotz
Zona_Noroeste,22/10/2017,9.8,12.9,8.5,1.4,Oskotz
Zona_Noroeste,23/10/2017,9.4,19.7,3.7,0.0,Oskotz
Zona_Noroeste,24/10/2017,9.6,21.9,1.4,0.2,Oskotz
Zona_Noroeste,25/10/2017,11.7,23.9,4.8,0.0,Oskotz
Zona_Noroeste,26/10/2017,12.6,25.3,5.4,0.0,Oskotz
Zona_Noroeste,27/10/2017,10.9,16.3,4.0,0.4,Oskotz
Zona_Noroeste,28/10/2017,11.5,13.9,5.5,0.0,Oskotz
Zona_Noroeste,29/10/2017,9.4,14.1,3.4,1.0,Oskotz
Zona_Noroeste,30/10/2017,10.0,12.7,5.1,1.9,Oskotz
Zona_Noroeste,31/10/2017,6.8,16.4,-0.5,0.0,Oskotz
Zona_Noroeste,01/11/2017,9.0,16.5,3.3,0.2,Oskotz
Zona_Noroeste,02/11/2017,11.0,17.7,5.6,0.0,Oskotz
Zona_Noroeste,03/11/2017,11.8,17.9,7.1,0.0,Oskotz
Zona_Noroeste,04/11/2017,10.1,14.2,6.1,17.8,Oskotz
Zona_Noroeste,05/11/2017,7.8,10.4,6.2,32.0,Oskotz
Zona_Noroeste,06/11/2017,5.9,8.7,3.5,6.2,Oskotz
Zona_Noroeste,07/11/2017,4.1,10.8,-1.8,2.7,Oskotz
Zona_Noroeste,08/11/2017,4.2,7.4,0.6,37.7,Oskotz
Zona_Noroeste,09/11/2017,5.8,8.6,2.6,21.0,Oskotz
Zona_Noroeste,10/11/2017,8.2,11.9,3.4,5.8,Oskotz
Zona_Noroeste,11/11/2017,9.6,10.8,8.6,2.1,Oskotz
Zona_Noroeste,12/11/2017,9.9,11.6,8.2,4.6,Oskotz
Zona_Noroeste,13/11/2017,5.6,8.3,3.8,2.9,Oskotz
Zona_Noroeste,14/11/2017,4.4,8.1,2.0,0.0,Oskotz
Zona_Noroeste,15/11/2017,3.4,11.7,-2.0,0.2,Oskotz
Zona_Noroeste,16/11/2017,4.4,18.0,-2.8,0.0,Oskotz
Zona_Noroeste,17/11/2017,5.7,15.3,-0.5,0.0,Oskotz
Zona_Noroeste,18/11/2017,5.4,12.5,0.1,0.0,Oskotz
Zona_Noroeste,19/11/2017,4.7,13.5,-1.7,0.2,Oskotz
Zona_Noroeste,20/11/2017,3.9,16.4,-2.2,0.0,Oskotz
Zona_Noroeste,21/11/2017,3.2,15.1,-3.2,0.2,Oskotz
Zona_Noroeste,22/11/2017,4.9,14.3,-1.3,0.2,Oskotz
Zona_Noroeste,23/11/2017,8.7,15.8,2.7,0.0,Oskotz
Zona_Noroeste,24/11/2017,8.9,13.7,5.0,2.3,Oskotz
Zona_Noroeste,25/11/2017,6.7,11.2,1.1,12.9,Oskotz
Zona_Noroeste,26/11/2017,3.2,8.5,-1.2,4.6,Oskotz
Zona_Noroeste,27/11/2017,1.3,8.2,-2.8,0.0,Oskotz
Zona_Noroeste,28/11/2017,2.3,10.2,-4.8,0.8,Oskotz
Zona_Noroeste,29/11/2017,2.6,5.8,-0.5,6.2,Oskotz
Zona_Noroeste,30/11/2017,0.7,4.4,-1.7,14.3,Oskotz
Zona_Noroeste,01/12/2017,-0.4,0.6,-1.6,36.7,Oskotz
Zona_Noroeste,02/12/2017,-1.0,2.0,-5.4,7.1,Oskotz
Zona_Noroeste,03/12/2017,-2.7,3.2,-8.9,0.0,Oskotz
Zona_Noroeste,04/12/2017,1.6,7.5,-1.2,0.2,Oskotz
Zona_Noroeste,05/12/2017,0.4,8.5,-3.6,0.2,Oskotz
Zona_Noroeste,06/12/2017,-0.9,6.9,-4.4,0.2,Oskotz
Zona_Noroeste,07/12/2017,1.5,6.7,-2.9,0.2,Oskotz
Zona_Noroeste,08/12/2017,4.2,7.5,2.0,9.7,Oskotz
Zona_Noroeste,09/12/2017,4.0,6.5,1.3,17.2,Oskotz
Zona_Noroeste,10/12/2017,7.9,12.0,4.9,8.5,Oskotz
Zona_Noroeste,11/12/2017,6.1,12.3,2.4,7.1,Oskotz
Zona_Noroeste,12/12/2017,1.5,6.8,-1.2,4.4,Oskotz
Zona_Noroeste,13/12/2017,2.5,6.5,-2.2,0.2,Oskotz
Zona_Noroeste,14/12/2017,7.4,9.4,5.8,8.5,Oskotz
Zona_Noroeste,15/12/2017,3.6,6.6,0.8,23.4,Oskotz
Zona_Noroeste,16/12/2017,2.3,3.7,0.6,22.2,Oskotz
Zona_Noroeste,17/12/2017,3.3,6.3,0.4,6.0,Oskotz
Zona_Noroeste,18/12/2017,6.0,10.1,3.4,3.9,Oskotz
Zona_Noroeste,19/12/2017,3.3,7.1,-0.1,0.2,Oskotz
Zona_Noroeste,20/12/2017,3.4,8.8,-1.0,0.0,Oskotz
Zona_Noroeste,21/12/2017,4.3,11.3,-1.2,0.0,Oskotz
Zona_Noroeste,22/12/2017,4.7,6.8,-1.0,0.6,Oskotz
Zona_Noroeste,23/12/2017,5.9,8.9,2.8,0.6,Oskotz
Zona_Noroeste,24/12/2017,2.9,10.0,-1.8,0.0,Oskotz
Zona_Noroeste,25/12/2017,1.5,5.8,-2.9,1.4,Oskotz
Zona_Noroeste,26/12/2017,3.9,6.0,0.8,10.2,Oskotz
Zona_Noroeste,27/12/2017,3.2,5.2,0.8,40.9,Oskotz
Zona_Noroeste,28/12/2017,3.6,7.6,0.6,19.3,Oskotz
Zona_Noroeste,29/12/2017,7.3,13.0,4.5,7.1,Oskotz
Zona_Noroeste,30/12/2017,7.5,15.7,2.3,0.2,Oskotz
Zona_Noroeste,31/12/2017,6.4,12.9,0.9,8.9,Oskotz
