Comarca,Fecha, Temperatura media, Temperatura maxima, Temperatura minima, Precipitacion acumulada,Localidad
Zona_Noroeste,01/01/2009,5.5,8.6,3.4,0.0,Urbasa
Zona_Noroeste,02/01/2009,4.5,8.9,0.2,0.0,Urbasa
Zona_Noroeste,03/01/2009,1.1,5.1,-2.3,0.0,Urbasa
Zona_Noroeste,04/01/2009,0.1,2.2,-1.5,0.0,Urbasa
Zona_Noroeste,05/01/2009,-0.6,0.5,-1.5,0.4,Urbasa
Zona_Noroeste,06/01/2009,-2.6,-0.5,-4.4,8.1,Urbasa
Zona_Noroeste,07/01/2009,-5.9,-4.4,-6.8,1.2,Urbasa
Zona_Noroeste,08/01/2009,-6.2,-5.0,-7.3,1.7,Urbasa
Zona_Noroeste,09/01/2009,-3.5,0.5,-6.8,0.0,Urbasa
Zona_Noroeste,10/01/2009,-1.7,1.7,-4.5,1.0,Urbasa
Zona_Noroeste,11/01/2009,-5.7,3.9,-12.5,0.0,Urbasa
Zona_Noroeste,12/01/2009,-6.1,5.7,-16.5,0.0,Urbasa
Zona_Noroeste,13/01/2009,-0.6,2.1,-4.6,3.4,Urbasa
Zona_Noroeste,14/01/2009,-0.0,3.4,-5.7,3.4,Urbasa
Zona_Noroeste,15/01/2009,-1.6,6.8,-8.2,0.0,Urbasa
Zona_Noroeste,16/01/2009,-1.8,3.8,-6.9,0.0,Urbasa
Zona_Noroeste,17/01/2009,1.9,8.5,-3.4,0.0,Urbasa
Zona_Noroeste,18/01/2009,4.2,7.9,-1.7,0.0,Urbasa
Zona_Noroeste,19/01/2009,5.1,10.4,-0.9,8.8,Urbasa
Zona_Noroeste,20/01/2009,-1.2,1.6,-3.4,0.1,Urbasa
Zona_Noroeste,21/01/2009,-2.4,-0.2,-5.6,1.0,Urbasa
Zona_Noroeste,22/01/2009,4.3,9.5,-3.6,11.7,Urbasa
Zona_Noroeste,23/01/2009,9.8,11.5,7.3,26.4,Urbasa
Zona_Noroeste,24/01/2009,2.1,10.5,-2.0,16.2,Urbasa
Zona_Noroeste,25/01/2009,1.3,4.4,-1.6,4.3,Urbasa
Zona_Noroeste,26/01/2009,-0.8,1.2,-2.7,19.8,Urbasa
Zona_Noroeste,27/01/2009,1.0,3.2,-0.9,38.9,Urbasa
Zona_Noroeste,28/01/2009,3.3,6.0,-1.5,4.7,Urbasa
Zona_Noroeste,29/01/2009,2.4,9.1,-0.7,1.0,Urbasa
Zona_Noroeste,30/01/2009,5.1,9.1,-1.0,0.0,Urbasa
Zona_Noroeste,31/01/2009,4.8,6.1,2.4,2.0,Urbasa
Zona_Noroeste,01/02/2009,0.9,2.3,-1.4,8.5,Urbasa
Zona_Noroeste,02/02/2009,0.6,2.3,-1.5,1.3,Urbasa
Zona_Noroeste,03/02/2009,0.7,4.5,-3.3,0.0,Urbasa
Zona_Noroeste,04/02/2009,3.4,6.7,1.3,1.4,Urbasa
Zona_Noroeste,05/02/2009,2.5,3.8,1.3,1.6,Urbasa
Zona_Noroeste,06/02/2009,-0.3,1.4,-1.8,8.8,Urbasa
Zona_Noroeste,07/02/2009,-2.0,-1.2,-2.7,17.2,Urbasa
Zona_Noroeste,08/02/2009,-0.0,3.4,-1.9,4.6,Urbasa
Zona_Noroeste,09/02/2009,6.6,9.5,0.4,0.3,Urbasa
Zona_Noroeste,10/02/2009,2.4,7.4,-0.4,10.7,Urbasa
Zona_Noroeste,11/02/2009,3.0,5.0,0.1,13.9,Urbasa
Zona_Noroeste,12/02/2009,3.2,5.4,0.7,13.4,Urbasa
Zona_Noroeste,13/02/2009,1.5,4.9,-1.4,0.0,Urbasa
Zona_Noroeste,14/02/2009,0.5,3.4,-3.9,0.0,Urbasa
Zona_Noroeste,15/02/2009,0.6,7.6,-7.1,0.0,Urbasa
Zona_Noroeste,16/02/2009,-0.7,5.2,-8.2,0.0,Urbasa
Zona_Noroeste,17/02/2009,1.4,6.3,-3.0,0.0,Urbasa
Zona_Noroeste,18/02/2009,1.7,5.1,-0.0,0.0,Urbasa
Zona_Noroeste,19/02/2009,2.7,6.4,1.0,0.0,Urbasa
Zona_Noroeste,20/02/2009,1.7,6.3,-4.4,0.0,Urbasa
Zona_Noroeste,21/02/2009,0.8,4.9,-5.3,0.0,Urbasa
Zona_Noroeste,22/02/2009,2.3,3.7,1.4,0.0,Urbasa
Zona_Noroeste,23/02/2009,2.0,3.2,1.2,0.3,Urbasa
Zona_Noroeste,24/02/2009,1.8,2.9,0.9,0.0,Urbasa
Zona_Noroeste,25/02/2009,3.8,10.4,-1.1,0.0,Urbasa
Zona_Noroeste,26/02/2009,3.9,13.6,-4.5,0.0,Urbasa
Zona_Noroeste,27/02/2009,3.1,16.7,-6.9,0.0,Urbasa
Zona_Noroeste,28/02/2009,3.9,8.6,-3.8,0.0,Urbasa
Zona_Noroeste,01/03/2009,4.6,7.3,2.3,2.3,Urbasa
Zona_Noroeste,02/03/2009,2.8,3.9,1.0,2.0,Urbasa
Zona_Noroeste,03/03/2009,2.6,7.5,-1.9,0.0,Urbasa
Zona_Noroeste,04/03/2009,0.4,2.8,-1.9,13.3,Urbasa
Zona_Noroeste,05/03/2009,-1.2,0.6,-2.8,14.8,Urbasa
Zona_Noroeste,06/03/2009,0.2,3.2,-1.1,15.1,Urbasa
Zona_Noroeste,07/03/2009,4.5,5.3,3.2,8.6,Urbasa
Zona_Noroeste,08/03/2009,5.2,6.0,4.3,0.7,Urbasa
Zona_Noroeste,09/03/2009,2.6,5.4,-3.2,2.3,Urbasa
Zona_Noroeste,10/03/2009,3.3,13.2,-7.1,0.0,Urbasa
Zona_Noroeste,11/03/2009,3.8,9.4,-2.2,0.0,Urbasa
Zona_Noroeste,12/03/2009,6.5,15.2,-1.7,0.0,Urbasa
Zona_Noroeste,13/03/2009,8.4,19.8,-2.8,0.0,Urbasa
Zona_Noroeste,14/03/2009,6.2,13.9,-2.5,0.0,Urbasa
Zona_Noroeste,15/03/2009,6.2,9.8,4.5,0.0,Urbasa
Zona_Noroeste,16/03/2009,8.2,16.8,-2.6,0.0,Urbasa
Zona_Noroeste,17/03/2009,8.1,14.4,-0.5,0.0,Urbasa
Zona_Noroeste,18/03/2009,6.1,17.0,-3.3,0.0,Urbasa
Zona_Noroeste,19/03/2009,8.1,19.1,-5.1,0.0,Urbasa
Zona_Noroeste,20/03/2009,7.1,16.3,-2.0,0.0,Urbasa
Zona_Noroeste,21/03/2009,3.4,10.9,-5.2,0.0,Urbasa
Zona_Noroeste,22/03/2009,3.8,9.7,-0.7,0.0,Urbasa
Zona_Noroeste,23/03/2009,5.1,11.3,-1.3,0.0,Urbasa
Zona_Noroeste,24/03/2009,1.9,4.2,0.2,1.0,Urbasa
Zona_Noroeste,25/03/2009,3.5,9.7,-0.9,0.0,Urbasa
Zona_Noroeste,26/03/2009,6.7,15.8,0.0,0.0,Urbasa
Zona_Noroeste,27/03/2009,5.5,14.6,-4.4,0.0,Urbasa
Zona_Noroeste,28/03/2009,1.9,5.4,-0.2,3.5,Urbasa
Zona_Noroeste,29/03/2009,1.7,4.2,0.1,1.6,Urbasa
Zona_Noroeste,30/03/2009,2.2,5.7,-0.3,2.9,Urbasa
Zona_Noroeste,31/03/2009,3.3,6.3,1.2,0.0,Urbasa
Zona_Noroeste,01/04/2009,3.6,5.7,2.2,0.0,Urbasa
Zona_Noroeste,02/04/2009,4.3,8.2,1.3,0.0,Urbasa
Zona_Noroeste,03/04/2009,6.3,11.1,3.0,0.0,Urbasa
Zona_Noroeste,04/04/2009,5.5,10.4,0.0,0.0,Urbasa
Zona_Noroeste,05/04/2009,7.4,14.8,1.5,0.0,Urbasa
Zona_Noroeste,06/04/2009,8.6,14.2,1.5,7.7,Urbasa
Zona_Noroeste,07/04/2009,3.1,4.7,1.8,6.1,Urbasa
Zona_Noroeste,08/04/2009,4.2,8.7,-0.9,0.0,Urbasa
Zona_Noroeste,09/04/2009,7.5,14.4,-2.4,0.0,Urbasa
Zona_Noroeste,10/04/2009,3.5,7.9,0.4,21.4,Urbasa
Zona_Noroeste,11/04/2009,1.8,3.8,-0.1,7.2,Urbasa
Zona_Noroeste,12/04/2009,2.8,5.2,1.2,1.8,Urbasa
Zona_Noroeste,13/04/2009,6.2,13.7,0.2,0.0,Urbasa
Zona_Noroeste,14/04/2009,6.2,11.6,-0.4,5.6,Urbasa
Zona_Noroeste,15/04/2009,5.0,9.4,-1.1,7.0,Urbasa
Zona_Noroeste,16/04/2009,4.2,9.2,-1.8,0.4,Urbasa
Zona_Noroeste,17/04/2009,5.6,11.4,-0.5,1.2,Urbasa
Zona_Noroeste,18/04/2009,4.6,10.9,-2.7,0.0,Urbasa
Zona_Noroeste,19/04/2009,5.6,9.0,4.2,4.8,Urbasa
Zona_Noroeste,20/04/2009,4.7,5.4,4.1,0.1,Urbasa
Zona_Noroeste,21/04/2009,6.2,8.8,4.8,0.0,Urbasa
Zona_Noroeste,22/04/2009,7.4,12.3,2.8,0.0,Urbasa
Zona_Noroeste,23/04/2009,9.7,20.8,-1.4,0.0,Urbasa
Zona_Noroeste,24/04/2009,9.1,22.0,-1.5,0.0,Urbasa
Zona_Noroeste,25/04/2009,3.5,4.5,2.2,2.6,Urbasa
Zona_Noroeste,26/04/2009,2.9,4.3,1.7,11.2,Urbasa
Zona_Noroeste,27/04/2009,6.3,12.1,2.4,7.8,Urbasa
Zona_Noroeste,28/04/2009,6.1,10.5,3.4,2.3,Urbasa
Zona_Noroeste,29/04/2009,6.5,10.9,1.6,0.7,Urbasa
Zona_Noroeste,30/04/2009,6.6,11.1,1.0,3.1,Urbasa
Zona_Noroeste,01/05/2009,4.6,7.8,2.4,3.6,Urbasa
Zona_Noroeste,02/05/2009,6.7,11.0,3.9,0.0,Urbasa
Zona_Noroeste,03/05/2009,8.9,13.8,5.6,0.0,Urbasa
Zona_Noroeste,04/05/2009,6.3,7.8,4.0,0.9,Urbasa
Zona_Noroeste,05/05/2009,6.9,11.9,3.3,0.0,Urbasa
Zona_Noroeste,06/05/2009,13.5,25.0,-0.1,0.0,Urbasa
Zona_Noroeste,07/05/2009,13.3,23.1,5.7,4.0,Urbasa
Zona_Noroeste,08/05/2009,10.2,17.1,7.2,0.4,Urbasa
Zona_Noroeste,09/05/2009,13.2,20.3,6.5,0.8,Urbasa
Zona_Noroeste,10/05/2009,13.4,17.8,10.5,17.7,Urbasa
Zona_Noroeste,11/05/2009,13.8,20.2,7.3,0.8,Urbasa
Zona_Noroeste,12/05/2009,12.3,19.0,3.2,0.0,Urbasa
Zona_Noroeste,13/05/2009,12.9,19.8,8.9,14.2,Urbasa
Zona_Noroeste,14/05/2009,7.5,10.5,5.1,4.9,Urbasa
Zona_Noroeste,15/05/2009,6.2,13.3,1.3,2.2,Urbasa
Zona_Noroeste,16/05/2009,11.0,19.9,-1.2,0.0,Urbasa
Zona_Noroeste,17/05/2009,10.7,16.4,4.4,0.0,Urbasa
Zona_Noroeste,18/05/2009,8.6,12.2,6.3,0.0,Urbasa
Zona_Noroeste,19/05/2009,10.2,15.4,7.0,0.0,Urbasa
Zona_Noroeste,20/05/2009,13.9,23.1,5.2,4.7,Urbasa
Zona_Noroeste,21/05/2009,12.9,19.6,8.1,0.0,Urbasa
Zona_Noroeste,22/05/2009,16.1,23.8,9.1,0.0,Urbasa
Zona_Noroeste,23/05/2009,15.8,21.2,8.3,0.1,Urbasa
Zona_Noroeste,24/05/2009,11.3,13.8,8.8,45.6,Urbasa
Zona_Noroeste,25/05/2009,10.7,15.5,8.3,18.3,Urbasa
Zona_Noroeste,26/05/2009,7.7,10.5,5.5,0.0,Urbasa
Zona_Noroeste,27/05/2009,7.7,11.8,4.8,0.0,Urbasa
Zona_Noroeste,28/05/2009,12.5,18.5,6.6,0.0,Urbasa
Zona_Noroeste,29/05/2009,15.5,25.9,2.9,0.0,Urbasa
Zona_Noroeste,30/05/2009,15.1,23.3,5.1,0.0,Urbasa
Zona_Noroeste,31/05/2009,12.6,20.1,3.4,0.0,Urbasa
Zona_Noroeste,01/06/2009,12.1,18.8,2.1,0.0,Urbasa
Zona_Noroeste,02/06/2009,13.8,20.3,4.8,0.0,Urbasa
Zona_Noroeste,03/06/2009,15.3,22.8,4.5,0.0,Urbasa
Zona_Noroeste,04/06/2009,14.0,19.8,7.7,3.3,Urbasa
Zona_Noroeste,05/06/2009,12.1,18.7,8.0,2.7,Urbasa
Zona_Noroeste,06/06/2009,10.6,16.8,7.3,6.0,Urbasa
Zona_Noroeste,07/06/2009,11.3,16.5,7.7,0.0,Urbasa
Zona_Noroeste,08/06/2009,11.9,16.9,7.5,0.8,Urbasa
Zona_Noroeste,09/06/2009,11.4,16.2,5.5,1.6,Urbasa
Zona_Noroeste,10/06/2009,15.3,21.4,9.8,0.0,Urbasa
Zona_Noroeste,11/06/2009,14.2,18.0,9.7,0.0,Urbasa
Zona_Noroeste,12/06/2009,17.7,26.7,6.0,0.0,Urbasa
Zona_Noroeste,13/06/2009,20.2,29.8,11.1,0.0,Urbasa
Zona_Noroeste,14/06/2009,19.9,25.7,13.7,1.7,Urbasa
Zona_Noroeste,15/06/2009,14.4,17.4,10.7,3.3,Urbasa
Zona_Noroeste,16/06/2009,13.0,18.0,9.4,0.3,Urbasa
Zona_Noroeste,17/06/2009,18.7,25.8,14.6,10.0,Urbasa
Zona_Noroeste,18/06/2009,19.1,27.1,13.6,0.0,Urbasa
Zona_Noroeste,19/06/2009,12.6,14.4,10.0,1.1,Urbasa
Zona_Noroeste,20/06/2009,10.4,14.3,8.3,0.0,Urbasa
Zona_Noroeste,21/06/2009,10.1,13.4,7.7,0.0,Urbasa
Zona_Noroeste,22/06/2009,13.4,18.9,9.2,0.0,Urbasa
Zona_Noroeste,23/06/2009,15.0,20.5,9.4,0.0,Urbasa
Zona_Noroeste,24/06/2009,13.9,21.7,4.0,0.0,Urbasa
Zona_Noroeste,25/06/2009,14.8,21.5,10.1,0.3,Urbasa
Zona_Noroeste,26/06/2009,14.0,18.9,10.6,0.0,Urbasa
Zona_Noroeste,27/06/2009,16.2,24.4,7.3,0.0,Urbasa
Zona_Noroeste,28/06/2009,16.5,26.4,6.2,4.7,Urbasa
Zona_Noroeste,29/06/2009,19.2,27.8,9.1,0.1,Urbasa
Zona_Noroeste,30/06/2009,19.8,27.7,11.3,5.9,Urbasa
Zona_Noroeste,01/07/2009,20.2,28.6,11.9,0.0,Urbasa
Zona_Noroeste,02/07/2009,15.7,17.5,14.8,0.1,Urbasa
Zona_Noroeste,03/07/2009,17.4,23.1,14.2,0.0,Urbasa
Zona_Noroeste,04/07/2009,15.3,18.3,14.1,0.0,Urbasa
Zona_Noroeste,05/07/2009,16.1,20.3,13.6,0.0,Urbasa
Zona_Noroeste,06/07/2009,12.4,13.9,9.7,0.9,Urbasa
Zona_Noroeste,07/07/2009,11.3,14.7,8.7,0.0,Urbasa
Zona_Noroeste,08/07/2009,12.0,15.9,9.0,0.0,Urbasa
Zona_Noroeste,09/07/2009,12.3,15.8,10.0,0.0,Urbasa
Zona_Noroeste,10/07/2009,13.4,18.6,10.0,0.0,Urbasa
Zona_Noroeste,11/07/2009,17.5,27.5,6.3,0.0,Urbasa
Zona_Noroeste,12/07/2009,17.4,27.3,6.7,0.0,Urbasa
Zona_Noroeste,13/07/2009,17.3,28.0,10.8,0.1,Urbasa
Zona_Noroeste,14/07/2009,14.9,21.1,11.1,0.0,Urbasa
Zona_Noroeste,15/07/2009,16.5,23.1,11.3,0.0,Urbasa
Zona_Noroeste,16/07/2009,18.9,31.0,10.6,0.0,Urbasa
Zona_Noroeste,17/07/2009,11.3,14.0,9.8,0.6,Urbasa
Zona_Noroeste,18/07/2009,13.2,19.5,8.9,0.0,Urbasa
Zona_Noroeste,19/07/2009,16.3,22.0,11.7,0.0,Urbasa
Zona_Noroeste,20/07/2009,18.8,28.1,7.8,0.0,Urbasa
Zona_Noroeste,21/07/2009,21.2,29.7,14.5,0.0,Urbasa
Zona_Noroeste,22/07/2009,20.2,30.5,11.0,0.0,Urbasa
Zona_Noroeste,23/07/2009,16.6,23.6,10.8,0.0,Urbasa
Zona_Noroeste,24/07/2009,14.4,21.6,6.2,0.0,Urbasa
Zona_Noroeste,25/07/2009,15.4,22.2,9.8,0.0,Urbasa
Zona_Noroeste,26/07/2009,19.3,30.9,6.0,0.0,Urbasa
Zona_Noroeste,27/07/2009,14.3,18.0,12.0,0.1,Urbasa
Zona_Noroeste,28/07/2009,18.3,27.9,11.4,0.0,Urbasa
Zona_Noroeste,29/07/2009,17.2,25.6,11.2,0.0,Urbasa
Zona_Noroeste,30/07/2009,13.8,18.5,10.0,0.0,Urbasa
Zona_Noroeste,31/07/2009,16.6,27.9,3.7,0.0,Urbasa
Zona_Noroeste,01/08/2009,13.8,24.0,6.8,7.3,Urbasa
Zona_Noroeste,02/08/2009,12.7,16.6,9.9,0.9,Urbasa
Zona_Noroeste,03/08/2009,15.1,21.4,10.2,0.0,Urbasa
Zona_Noroeste,04/08/2009,18.4,29.2,6.1,0.0,Urbasa
Zona_Noroeste,05/08/2009,20.0,29.4,11.3,1.7,Urbasa
Zona_Noroeste,06/08/2009,16.0,21.0,13.9,0.0,Urbasa
Zona_Noroeste,07/08/2009,12.5,14.1,11.0,1.3,Urbasa
Zona_Noroeste,08/08/2009,11.8,12.6,11.1,0.3,Urbasa
Zona_Noroeste,09/08/2009,12.7,16.2,10.9,1.0,Urbasa
Zona_Noroeste,10/08/2009,13.4,16.5,11.5,0.0,Urbasa
Zona_Noroeste,11/08/2009,14.7,18.1,12.8,0.0,Urbasa
Zona_Noroeste,12/08/2009,16.3,21.9,13.0,0.0,Urbasa
Zona_Noroeste,13/08/2009,17.1,21.1,14.2,0.0,Urbasa
Zona_Noroeste,14/08/2009,20.3,29.8,10.7,0.0,Urbasa
Zona_Noroeste,15/08/2009,22.6,32.5,12.0,0.0,Urbasa
Zona_Noroeste,16/08/2009,20.7,30.8,11.8,0.6,Urbasa
Zona_Noroeste,17/08/2009,17.6,24.1,10.8,0.2,Urbasa
Zona_Noroeste,18/08/2009,22.2,32.6,14.6,0.0,Urbasa
Zona_Noroeste,19/08/2009,24.4,32.0,11.7,0.0,Urbasa
Zona_Noroeste,20/08/2009,19.9,27.4,14.6,0.3,Urbasa
Zona_Noroeste,21/08/2009,14.7,18.1,13.4,0.2,Urbasa
Zona_Noroeste,22/08/2009,16.5,22.8,12.6,0.0,Urbasa
Zona_Noroeste,23/08/2009,20.4,31.1,8.1,0.0,Urbasa
Zona_Noroeste,24/08/2009,15.9,19.2,14.0,0.0,Urbasa
Zona_Noroeste,25/08/2009,13.9,16.2,11.8,0.0,Urbasa
Zona_Noroeste,26/08/2009,17.1,27.3,7.7,0.0,Urbasa
Zona_Noroeste,27/08/2009,18.3,30.3,6.9,0.0,Urbasa
Zona_Noroeste,28/08/2009,14.3,15.3,10.8,3.1,Urbasa
Zona_Noroeste,29/08/2009,12.1,15.8,10.1,0.0,Urbasa
Zona_Noroeste,30/08/2009,14.0,21.5,6.9,0.0,Urbasa
Zona_Noroeste,31/08/2009,18.7,27.4,6.0,1.5,Urbasa
Zona_Noroeste,01/09/2009,16.1,21.2,12.2,0.3,Urbasa
Zona_Noroeste,02/09/2009,16.6,26.2,10.7,0.0,Urbasa
Zona_Noroeste,03/09/2009,13.9,18.3,8.6,0.0,Urbasa
Zona_Noroeste,04/09/2009,11.2,14.2,6.5,0.9,Urbasa
Zona_Noroeste,05/09/2009,11.4,16.1,8.6,0.0,Urbasa
Zona_Noroeste,06/09/2009,14.4,26.1,1.3,0.0,Urbasa
Zona_Noroeste,07/09/2009,17.9,25.8,8.9,0.0,Urbasa
Zona_Noroeste,08/09/2009,18.8,27.6,8.9,0.0,Urbasa
Zona_Noroeste,09/09/2009,15.4,23.4,6.1,0.0,Urbasa
Zona_Noroeste,10/09/2009,17.3,24.2,9.4,0.0,Urbasa
Zona_Noroeste,11/09/2009,15.2,21.2,8.3,0.0,Urbasa
Zona_Noroeste,12/09/2009,14.3,20.0,10.2,0.0,Urbasa
Zona_Noroeste,13/09/2009,13.2,18.1,8.9,0.0,Urbasa
Zona_Noroeste,14/09/2009,11.6,14.5,9.6,0.0,Urbasa
Zona_Noroeste,15/09/2009,10.2,14.3,8.2,0.0,Urbasa
Zona_Noroeste,16/09/2009,8.9,12.3,7.3,0.6,Urbasa
Zona_Noroeste,17/09/2009,10.7,17.7,5.4,5.2,Urbasa
Zona_Noroeste,18/09/2009,9.3,10.6,8.3,66.9,Urbasa
Zona_Noroeste,19/09/2009,10.7,14.0,8.6,1.8,Urbasa
Zona_Noroeste,20/09/2009,10.9,14.6,9.8,7.2,Urbasa
Zona_Noroeste,21/09/2009,11.4,12.6,10.2,10.5,Urbasa
Zona_Noroeste,22/09/2009,12.3,13.4,11.2,0.0,Urbasa
Zona_Noroeste,23/09/2009,14.4,22.5,7.5,0.0,Urbasa
Zona_Noroeste,24/09/2009,13.7,19.0,7.5,0.0,Urbasa
Zona_Noroeste,25/09/2009,12.1,16.1,10.3,0.0,Urbasa
Zona_Noroeste,26/09/2009,13.3,17.4,10.5,0.0,Urbasa
Zona_Noroeste,27/09/2009,13.4,20.7,5.6,0.0,Urbasa
Zona_Noroeste,28/09/2009,13.8,19.1,8.1,0.7,Urbasa
Zona_Noroeste,29/09/2009,14.1,21.5,7.3,0.0,Urbasa
Zona_Noroeste,30/09/2009,14.4,19.8,9.5,0.0,Urbasa
Zona_Noroeste,01/10/2009,13.6,16.4,10.9,0.0,Urbasa
Zona_Noroeste,02/10/2009,11.6,14.0,9.2,0.0,Urbasa
Zona_Noroeste,03/10/2009,10.6,17.6,4.2,0.0,Urbasa
Zona_Noroeste,04/10/2009,12.2,22.7,2.1,0.0,Urbasa
Zona_Noroeste,05/10/2009,17.1,23.5,8.0,0.0,Urbasa
Zona_Noroeste,06/10/2009,18.3,23.3,13.2,0.0,Urbasa
Zona_Noroeste,07/10/2009,16.8,20.0,12.6,0.0,Urbasa
Zona_Noroeste,08/10/2009,12.4,18.5,8.5,8.5,Urbasa
Zona_Noroeste,09/10/2009,11.9,17.1,6.0,0.0,Urbasa
Zona_Noroeste,10/10/2009,13.0,17.4,11.3,0.7,Urbasa
Zona_Noroeste,11/10/2009,13.1,14.0,12.2,8.0,Urbasa
Zona_Noroeste,12/10/2009,10.9,13.1,8.1,5.3,Urbasa
Zona_Noroeste,13/10/2009,8.5,13.0,4.6,0.0,Urbasa
Zona_Noroeste,14/10/2009,8.5,12.8,6.2,0.0,Urbasa
Zona_Noroeste,15/10/2009,5.7,9.1,1.3,0.0,Urbasa
Zona_Noroeste,16/10/2009,2.7,7.4,-0.6,0.0,Urbasa
Zona_Noroeste,17/10/2009,5.1,8.8,2.9,0.0,Urbasa
Zona_Noroeste,18/10/2009,4.5,9.3,-2.3,0.0,Urbasa
Zona_Noroeste,19/10/2009,4.1,10.5,-5.9,0.0,Urbasa
Zona_Noroeste,20/10/2009,9.1,10.2,6.9,11.0,Urbasa
Zona_Noroeste,21/10/2009,7.6,12.3,1.9,0.0,Urbasa
Zona_Noroeste,22/10/2009,7.4,9.1,5.8,36.5,Urbasa
Zona_Noroeste,23/10/2009,8.3,10.9,2.9,3.5,Urbasa
Zona_Noroeste,24/10/2009,13.4,17.7,9.3,0.0,Urbasa
Zona_Noroeste,25/10/2009,12.6,13.7,8.3,0.5,Urbasa
Zona_Noroeste,26/10/2009,10.3,16.9,0.4,0.0,Urbasa
Zona_Noroeste,27/10/2009,8.3,20.0,-0.7,0.0,Urbasa
Zona_Noroeste,28/10/2009,9.5,17.3,2.2,0.0,Urbasa
Zona_Noroeste,29/10/2009,12.7,21.0,4.5,0.0,Urbasa
Zona_Noroeste,30/10/2009,11.1,21.1,1.6,0.0,Urbasa
Zona_Noroeste,31/10/2009,12.7,18.0,6.4,0.0,Urbasa
Zona_Noroeste,01/11/2009,11.7,19.1,5.7,23.0,Urbasa
Zona_Noroeste,02/11/2009,7.2,8.6,5.9,0.2,Urbasa
Zona_Noroeste,03/11/2009,9.2,12.2,6.7,0.0,Urbasa
Zona_Noroeste,04/11/2009,6.9,10.0,0.3,12.2,Urbasa
Zona_Noroeste,05/11/2009,2.8,5.3,0.6,16.0,Urbasa
Zona_Noroeste,06/11/2009,5.4,9.5,1.8,11.7,Urbasa
Zona_Noroeste,07/11/2009,4.8,9.5,2.1,12.2,Urbasa
Zona_Noroeste,08/11/2009,3.6,5.4,2.1,61.3,Urbasa
Zona_Noroeste,09/11/2009,3.1,4.3,2.1,54.2,Urbasa
Zona_Noroeste,10/11/2009,5.7,8.7,2.4,3.7,Urbasa
Zona_Noroeste,11/11/2009,7.3,11.2,0.9,0.3,Urbasa
Zona_Noroeste,12/11/2009,9.3,15.3,0.6,0.0,Urbasa
Zona_Noroeste,13/11/2009,9.0,10.6,5.8,0.0,Urbasa
Zona_Noroeste,14/11/2009,9.4,13.6,4.1,0.2,Urbasa
Zona_Noroeste,15/11/2009,10.2,13.0,4.4,0.0,Urbasa
Zona_Noroeste,16/11/2009,12.6,15.0,10.6,0.0,Urbasa
Zona_Noroeste,17/11/2009,10.1,13.3,6.3,0.0,Urbasa
Zona_Noroeste,18/11/2009,5.6,14.0,-0.9,0.0,Urbasa
Zona_Noroeste,19/11/2009,8.6,14.1,1.3,0.0,Urbasa
Zona_Noroeste,20/11/2009,9.1,11.3,7.9,0.0,Urbasa
Zona_Noroeste,21/11/2009,9.3,11.2,7.9,0.0,Urbasa
Zona_Noroeste,22/11/2009,7.7,10.2,4.2,1.2,Urbasa
Zona_Noroeste,23/11/2009,4.9,10.3,-1.6,0.0,Urbasa
Zona_Noroeste,24/11/2009,3.5,11.2,-4.5,0.0,Urbasa
Zona_Noroeste,25/11/2009,6.4,9.6,-0.0,1.7,Urbasa
Zona_Noroeste,26/11/2009,5.3,9.4,-1.7,1.0,Urbasa
Zona_Noroeste,27/11/2009,1.2,6.8,-2.7,0.0,Urbasa
Zona_Noroeste,28/11/2009,4.7,6.0,0.0,0.0,Urbasa
Zona_Noroeste,29/11/2009,2.8,5.9,-2.4,7.2,Urbasa
Zona_Noroeste,30/11/2009,0.1,1.4,-1.2,19.7,Urbasa
Zona_Noroeste,01/12/2009,1.5,4.2,-0.0,4.2,Urbasa
Zona_Noroeste,02/12/2009,4.3,7.7,1.0,2.8,Urbasa
Zona_Noroeste,03/12/2009,4.3,5.7,3.6,7.0,Urbasa
Zona_Noroeste,04/12/2009,4.4,6.5,-0.0,0.8,Urbasa
Zona_Noroeste,05/12/2009,5.6,10.8,-0.6,0.0,Urbasa
Zona_Noroeste,06/12/2009,6.3,8.0,4.9,1.0,Urbasa
Zona_Noroeste,07/12/2009,7.7,11.6,3.5,0.8,Urbasa
Zona_Noroeste,08/12/2009,3.2,9.4,-2.1,0.0,Urbasa
Zona_Noroeste,09/12/2009,2.0,10.8,-3.2,0.0,Urbasa
Zona_Noroeste,10/12/2009,2.7,10.9,-2.7,0.0,Urbasa
Zona_Noroeste,11/12/2009,3.9,15.2,-4.8,0.0,Urbasa
Zona_Noroeste,12/12/2009,2.3,7.0,-0.0,0.0,Urbasa
Zona_Noroeste,13/12/2009,-2.3,-0.1,-3.7,0.0,Urbasa
Zona_Noroeste,14/12/2009,-3.8,-2.5,-4.5,2.5,Urbasa
Zona_Noroeste,15/12/2009,-2.9,-2.2,-4.4,4.7,Urbasa
Zona_Noroeste,16/12/2009,-2.9,-1.0,-6.5,2.8,Urbasa
Zona_Noroeste,17/12/2009,-4.2,-2.7,-11.0,0.2,Urbasa
Zona_Noroeste,18/12/2009,-4.3,-1.4,-11.8,7.7,Urbasa
Zona_Noroeste,19/12/2009,-6.4,-3.5,-12.4,0.8,Urbasa
Zona_Noroeste,20/12/2009,-3.4,0.8,-7.1,0.3,Urbasa
Zona_Noroeste,21/12/2009,-1.9,1.9,-4.5,0.2,Urbasa
Zona_Noroeste,22/12/2009,3.3,4.6,1.7,5.0,Urbasa
Zona_Noroeste,23/12/2009,0.9,3.0,-0.8,11.8,Urbasa
Zona_Noroeste,24/12/2009,5.4,10.1,1.4,3.0,Urbasa
Zona_Noroeste,25/12/2009,1.4,5.6,-2.0,5.8,Urbasa
Zona_Noroeste,26/12/2009,2.0,2.9,0.1,14.0,Urbasa
Zona_Noroeste,27/12/2009,2.1,6.6,-2.6,0.2,Urbasa
Zona_Noroeste,28/12/2009,4.5,7.5,1.6,10.3,Urbasa
Zona_Noroeste,29/12/2009,9.2,11.6,4.2,1.5,Urbasa
Zona_Noroeste,30/12/2009,6.7,10.9,1.2,10.2,Urbasa
Zona_Noroeste,31/12/2009,4.0,5.6,1.0,1.0,Urbasa
