Comarca,Fecha, Temperatura media, Temperatura maxima, Temperatura minima, Precipitacion acumulada,Localidad
Zona_Noroeste,01/01/2018,0.0,14.4,8.0,14.4,Zugarramurdi
Zona_Noroeste,02/01/2018,0.0,17.8,7.6,1.6,Zugarramurdi
Zona_Noroeste,03/01/2018,0.0,18.0,12.0,10.2,Zugarramurdi
Zona_Noroeste,04/01/2018,0.0,20.2,13.5,0.0,Zugarramurdi
Zona_Noroeste,05/01/2018,0.0,15.7,8.5,33.6,Zugarramurdi
Zona_Noroeste,06/01/2018,0.0,4.6,3.6,53.4,Zugarramurdi
Zona_Noroeste,07/01/2018,0.0,7.5,0.5,0.0,Zugarramurdi
Zona_Noroeste,08/01/2018,0.0,13.2,3.0,0.0,Zugarramurdi
Zona_Noroeste,09/01/2018,0.0,10.5,4.5,0.8,Zugarramurdi
Zona_Noroeste,10/01/2018,0.0,13.0,5.6,9.1,Zugarramurdi
Zona_Noroeste,11/01/2018,0.0,7.5,5.0,19.8,Zugarramurdi
Zona_Noroeste,12/01/2018,0.0,12.6,4.3,3.5,Zugarramurdi
Zona_Noroeste,13/01/2018,0.0,12.2,3.0,3.0,Zugarramurdi
Zona_Noroeste,14/01/2018,0.0,8.5,5.2,14.9,Zugarramurdi
Zona_Noroeste,15/01/2018,0.0,13.0,6.0,1.2,Zugarramurdi
Zona_Noroeste,16/01/2018,0.0,14.2,7.5,7.8,Zugarramurdi
Zona_Noroeste,17/01/2018,0.0,11.5,9.7,3.1,Zugarramurdi
Zona_Noroeste,18/01/2018,0.0,13.7,4.8,0.5,Zugarramurdi
Zona_Noroeste,19/01/2018,0.0,11.8,5.6,3.2,Zugarramurdi
Zona_Noroeste,20/01/2018,0.0,14.2,8.3,19.6,Zugarramurdi
Zona_Noroeste,21/01/2018,0.0,14.4,9.0,5.1,Zugarramurdi
Zona_Noroeste,22/01/2018,0.0,15.0,9.2,7.1,Zugarramurdi
Zona_Noroeste,23/01/2018,0.0,14.7,11.0,1.8,Zugarramurdi
Zona_Noroeste,24/01/2018,0.0,19.4,6.0,0.0,Zugarramurdi
Zona_Noroeste,25/01/2018,0.0,14.4,7.6,23.7,Zugarramurdi
Zona_Noroeste,26/01/2018,0.0,10.8,5.8,17.1,Zugarramurdi
Zona_Noroeste,27/01/2018,0.0,10.2,5.4,0.0,Zugarramurdi
Zona_Noroeste,28/01/2018,0.0,12.6,1.5,0.0,Zugarramurdi
Zona_Noroeste,29/01/2018,0.0,14.6,1.7,0.0,Zugarramurdi
Zona_Noroeste,30/01/2018,0.0,10.4,4.2,0.0,Zugarramurdi
Zona_Noroeste,31/01/2018,0.0,10.9,0.7,7.8,Zugarramurdi
Zona_Noroeste,01/02/2018,0.0,8.0,4.0,18.6,Zugarramurdi
Zona_Noroeste,02/02/2018,0.0,8.8,1.2,14.6,Zugarramurdi
Zona_Noroeste,03/02/2018,0.0,9.5,2.0,24.2,Zugarramurdi
Zona_Noroeste,04/02/2018,0.0,9.6,4.1,1.1,Zugarramurdi
Zona_Noroeste,05/02/2018,0.0,4.2,3.6,5.9,Zugarramurdi
Zona_Noroeste,06/02/2018,0.0,7.5,1.6,0.4,Zugarramurdi
Zona_Noroeste,07/02/2018,0.0,5.9,2.4,3.6,Zugarramurdi
Zona_Noroeste,08/02/2018,0.0,4.5,0.0,0.0,Zugarramurdi
Zona_Noroeste,09/02/2018,0.0,8.2,-1.3,6.1,Zugarramurdi
Zona_Noroeste,10/02/2018,0.0,9.8,1.0,3.9,Zugarramurdi
Zona_Noroeste,11/02/2018,0.0,12.0,1.7,48.6,Zugarramurdi
Zona_Noroeste,12/02/2018,0.0,9.3,2.1,3.4,Zugarramurdi
Zona_Noroeste,13/02/2018,0.0,8.6,1.0,7.4,Zugarramurdi
Zona_Noroeste,14/02/2018,0.0,13.7,4.5,3.9,Zugarramurdi
Zona_Noroeste,15/02/2018,0.0,20.0,7.7,0.3,Zugarramurdi
Zona_Noroeste,16/02/2018,0.0,21.3,10.5,7.2,Zugarramurdi
Zona_Noroeste,17/02/2018,0.0,12.4,8.2,2.2,Zugarramurdi
Zona_Noroeste,18/02/2018,0.0,10.2,7.0,15.1,Zugarramurdi
Zona_Noroeste,19/02/2018,0.0,11.6,4.2,39.4,Zugarramurdi
Zona_Noroeste,20/02/2018,0.0,10.7,9.6,19.1,Zugarramurdi
Zona_Noroeste,21/02/2018,0.0,9.3,6.3,0.0,Zugarramurdi
Zona_Noroeste,22/02/2018,0.0,7.7,1.4,0.0,Zugarramurdi
Zona_Noroeste,23/02/2018,0.0,4.2,-2.4,0.0,Zugarramurdi
Zona_Noroeste,24/02/2018,0.0,10.1,-2.4,0.0,Zugarramurdi
Zona_Noroeste,25/02/2018,0.0,11.4,-2.0,0.0,Zugarramurdi
Zona_Noroeste,26/02/2018,0.0,8.0,0.2,0.0,Zugarramurdi
Zona_Noroeste,27/02/2018,0.0,3.1,-6.5,0.0,Zugarramurdi
Zona_Noroeste,28/02/2018,0.0,14.8,-6.8,6.9,Zugarramurdi
Zona_Noroeste,01/03/2018,0.0,19.6,5.0,3.8,Zugarramurdi
Zona_Noroeste,02/03/2018,0.0,15.1,0.0,0.3,Zugarramurdi
Zona_Noroeste,03/03/2018,0.0,18.8,3.8,1.9,Zugarramurdi
Zona_Noroeste,04/03/2018,0.0,15.6,10.0,0.0,Zugarramurdi
Zona_Noroeste,05/03/2018,0.0,16.2,8.0,3.8,Zugarramurdi
Zona_Noroeste,06/03/2018,0.0,15.0,6.9,9.2,Zugarramurdi
Zona_Noroeste,07/03/2018,0.0,13.6,5.0,0.3,Zugarramurdi
Zona_Noroeste,08/03/2018,0.0,16.7,3.6,0.0,Zugarramurdi
Zona_Noroeste,09/03/2018,0.0,19.2,11.0,1.9,Zugarramurdi
Zona_Noroeste,10/03/2018,0.0,20.6,17.0,0.0,Zugarramurdi
Zona_Noroeste,11/03/2018,0.0,18.0,13.8,0.0,Zugarramurdi
Zona_Noroeste,12/03/2018,0.0,14.6,9.0,1.1,Zugarramurdi
Zona_Noroeste,13/03/2018,0.0,17.2,7.4,0.4,Zugarramurdi
Zona_Noroeste,14/03/2018,0.0,17.4,7.7,2.1,Zugarramurdi
Zona_Noroeste,15/03/2018,0.0,18.6,10.3,2.2,Zugarramurdi
Zona_Noroeste,16/03/2018,0.0,16.2,5.5,0.0,Zugarramurdi
Zona_Noroeste,17/03/2018,0.0,12.8,4.8,22.2,Zugarramurdi
Zona_Noroeste,18/03/2018,0.0,9.7,4.0,8.1,Zugarramurdi
Zona_Noroeste,19/03/2018,0.0,9.1,4.4,22.6,Zugarramurdi
Zona_Noroeste,20/03/2018,0.0,6.4,0.0,1.9,Zugarramurdi
Zona_Noroeste,21/03/2018,0.0,9.7,0.2,0.0,Zugarramurdi
Zona_Noroeste,22/03/2018,0.0,10.2,-0.2,0.0,Zugarramurdi
Zona_Noroeste,23/03/2018,0.0,15.5,1.0,14.2,Zugarramurdi
Zona_Noroeste,24/03/2018,0.0,12.6,5.5,13.1,Zugarramurdi
Zona_Noroeste,25/03/2018,0.0,11.2,6.7,18.1,Zugarramurdi
Zona_Noroeste,26/03/2018,0.0,12.5,6.1,13.1,Zugarramurdi
Zona_Noroeste,27/03/2018,0.0,13.2,7.3,2.7,Zugarramurdi
Zona_Noroeste,28/03/2018,0.0,17.6,10.2,8.6,Zugarramurdi
Zona_Noroeste,29/03/2018,0.0,16.8,7.0,1.2,Zugarramurdi
Zona_Noroeste,30/03/2018,0.0,16.7,5.7,6.6,Zugarramurdi
Zona_Noroeste,31/03/2018,0.0,11.6,5.5,17.1,Zugarramurdi
Zona_Noroeste,01/04/2018,0.0,19.6,2.5,0.0,Zugarramurdi
Zona_Noroeste,02/04/2018,0.0,22.6,11.5,0.0,Zugarramurdi
Zona_Noroeste,03/04/2018,0.0,21.5,10.5,0.0,Zugarramurdi
Zona_Noroeste,04/04/2018,0.0,20.1,13.4,6.0,Zugarramurdi
Zona_Noroeste,05/04/2018,0.0,20.0,9.2,0.0,Zugarramurdi
Zona_Noroeste,06/04/2018,0.0,27.1,9.4,0.0,Zugarramurdi
Zona_Noroeste,07/04/2018,0.0,17.0,15.5,48.1,Zugarramurdi
Zona_Noroeste,08/04/2018,0.0,13.5,9.6,3.8,Zugarramurdi
Zona_Noroeste,09/04/2018,0.0,14.8,7.5,8.9,Zugarramurdi
Zona_Noroeste,10/04/2018,0.0,11.6,7.2,16.8,Zugarramurdi
Zona_Noroeste,11/04/2018,0.0,11.2,6.5,53.7,Zugarramurdi
Zona_Noroeste,12/04/2018,0.0,14.8,7.0,1.6,Zugarramurdi
Zona_Noroeste,13/04/2018,0.0,16.9,5.5,0.0,Zugarramurdi
Zona_Noroeste,14/04/2018,0.0,17.9,7.2,0.0,Zugarramurdi
Zona_Noroeste,15/04/2018,0.0,18.7,7.5,7.6,Zugarramurdi
Zona_Noroeste,16/04/2018,0.0,14.0,9.7,6.6,Zugarramurdi
Zona_Noroeste,17/04/2018,0.0,25.0,7.5,0.0,Zugarramurdi
Zona_Noroeste,18/04/2018,0.0,28.9,12.0,0.0,Zugarramurdi
Zona_Noroeste,19/04/2018,0.0,29.0,14.0,0.0,Zugarramurdi
Zona_Noroeste,20/04/2018,0.0,25.5,16.6,0.0,Zugarramurdi
Zona_Noroeste,21/04/2018,0.0,27.5,10.0,0.0,Zugarramurdi
Zona_Noroeste,22/04/2018,0.0,24.2,13.2,2.2,Zugarramurdi
Zona_Noroeste,23/04/2018,0.0,18.4,12.5,0.8,Zugarramurdi
Zona_Noroeste,24/04/2018,0.0,24.8,13.2,0.0,Zugarramurdi
Zona_Noroeste,25/04/2018,0.0,15.4,13.1,5.8,Zugarramurdi
Zona_Noroeste,26/04/2018,0.0,17.3,9.0,0.0,Zugarramurdi
Zona_Noroeste,27/04/2018,0.0,16.3,9.0,6.7,Zugarramurdi
Zona_Noroeste,28/04/2018,0.0,13.5,8.7,7.2,Zugarramurdi
Zona_Noroeste,29/04/2018,0.0,14.5,9.8,0.3,Zugarramurdi
Zona_Noroeste,30/04/2018,0.0,13.2,7.7,6.1,Zugarramurdi
Zona_Noroeste,01/05/2018,0.0,15.0,5.0,0.8,Zugarramurdi
Zona_Noroeste,02/05/2018,0.0,17.0,1.8,11.7,Zugarramurdi
Zona_Noroeste,03/05/2018,0.0,13.0,9.4,2.3,Zugarramurdi
Zona_Noroeste,04/05/2018,0.0,17.0,10.7,0.0,Zugarramurdi
Zona_Noroeste,05/05/2018,0.0,17.0,9.4,0.0,Zugarramurdi
Zona_Noroeste,06/05/2018,0.0,25.0,8.2,0.0,Zugarramurdi
Zona_Noroeste,07/05/2018,0.0,24.0,12.8,0.0,Zugarramurdi
Zona_Noroeste,08/05/2018,0.0,16.0,11.0,0.8,Zugarramurdi
Zona_Noroeste,09/05/2018,0.0,16.0,10.5,0.9,Zugarramurdi
Zona_Noroeste,10/05/2018,0.0,14.0,6.4,2.7,Zugarramurdi
Zona_Noroeste,11/05/2018,0.0,26.0,5.0,4.1,Zugarramurdi
Zona_Noroeste,12/05/2018,0.0,12.0,5.3,8.6,Zugarramurdi
Zona_Noroeste,13/05/2018,0.0,14.0,6.0,3.9,Zugarramurdi
Zona_Noroeste,14/05/2018,0.0,15.0,8.4,0.0,Zugarramurdi
Zona_Noroeste,15/05/2018,0.0,15.0,9.1,0.0,Zugarramurdi
Zona_Noroeste,16/05/2018,0.0,16.0,11.0,0.0,Zugarramurdi
Zona_Noroeste,17/05/2018,0.0,16.0,11.8,0.0,Zugarramurdi
Zona_Noroeste,18/05/2018,0.0,20.0,12.5,0.0,Zugarramurdi
Zona_Noroeste,19/05/2018,0.0,21.0,10.4,0.0,Zugarramurdi
Zona_Noroeste,20/05/2018,0.0,20.0,8.9,0.0,Zugarramurdi
Zona_Noroeste,21/05/2018,0.0,26.0,10.8,0.0,Zugarramurdi
Zona_Noroeste,22/05/2018,0.0,23.0,11.5,0.0,Zugarramurdi
Zona_Noroeste,23/05/2018,0.0,22.0,11.0,0.0,Zugarramurdi
Zona_Noroeste,24/05/2018,0.0,26.0,14.7,0.0,Zugarramurdi
Zona_Noroeste,25/05/2018,0.0,22.0,14.3,2.4,Zugarramurdi
Zona_Noroeste,26/05/2018,0.0,24.0,14.5,25.4,Zugarramurdi
Zona_Noroeste,27/05/2018,0.0,18.0,14.1,1.1,Zugarramurdi
Zona_Noroeste,28/05/2018,0.0,17.0,13.8,7.8,Zugarramurdi
Zona_Noroeste,29/05/2018,0.0,20.0,13.2,11.6,Zugarramurdi
Zona_Noroeste,30/05/2018,0.0,19.0,13.6,1.4,Zugarramurdi
Zona_Noroeste,31/05/2018,0.0,18.0,0.0,0.6,Zugarramurdi
Zona_Noroeste,01/06/2018,0.0,24.5,14.6,2.4,Zugarramurdi
Zona_Noroeste,02/06/2018,0.0,25.8,15.0,0.6,Zugarramurdi
Zona_Noroeste,03/06/2018,0.0,25.0,14.0,11.1,Zugarramurdi
Zona_Noroeste,04/06/2018,0.0,17.8,14.0,10.6,Zugarramurdi
Zona_Noroeste,05/06/2018,0.0,17.2,13.6,24.8,Zugarramurdi
Zona_Noroeste,06/06/2018,0.0,20.0,13.6,0.0,Zugarramurdi
Zona_Noroeste,07/06/2018,0.0,25.0,14.0,0.3,Zugarramurdi
Zona_Noroeste,08/06/2018,0.0,27.2,13.8,0.0,Zugarramurdi
Zona_Noroeste,09/06/2018,0.0,20.8,14.2,5.6,Zugarramurdi
Zona_Noroeste,10/06/2018,0.0,23.2,14.1,13.6,Zugarramurdi
Zona_Noroeste,11/06/2018,0.0,20.3,13.0,8.4,Zugarramurdi
Zona_Noroeste,12/06/2018,0.0,17.0,13.2,50.4,Zugarramurdi
Zona_Noroeste,13/06/2018,0.0,16.2,14.0,6.9,Zugarramurdi
Zona_Noroeste,14/06/2018,0.0,20.0,13.6,0.0,Zugarramurdi
Zona_Noroeste,15/06/2018,0.0,20.1,10.6,3.9,Zugarramurdi
Zona_Noroeste,16/06/2018,0.0,20.6,15.0,0.7,Zugarramurdi
Zona_Noroeste,17/06/2018,0.0,21.5,12.0,1.3,Zugarramurdi
Zona_Noroeste,18/06/2018,0.0,20.7,12.0,1.9,Zugarramurdi
Zona_Noroeste,19/06/2018,0.0,23.2,15.0,0.0,Zugarramurdi
Zona_Noroeste,20/06/2018,0.0,28.0,13.5,0.0,Zugarramurdi
Zona_Noroeste,21/06/2018,0.0,23.0,17.0,0.0,Zugarramurdi
Zona_Noroeste,22/06/2018,0.0,24.8,18.3,0.0,Zugarramurdi
Zona_Noroeste,23/06/2018,0.0,24.8,12.1,0.0,Zugarramurdi
Zona_Noroeste,24/06/2018,0.0,28.7,12.2,0.0,Zugarramurdi
Zona_Noroeste,25/06/2018,0.0,27.3,14.4,0.0,Zugarramurdi
Zona_Noroeste,26/06/2018,0.0,28.4,14.5,0.0,Zugarramurdi
Zona_Noroeste,27/06/2018,0.0,23.2,15.7,0.9,Zugarramurdi
Zona_Noroeste,28/06/2018,0.0,20.7,17.4,0.5,Zugarramurdi
Zona_Noroeste,29/06/2018,0.0,29.4,17.0,0.9,Zugarramurdi
Zona_Noroeste,30/06/2018,0.0,32.7,16.8,5.8,Zugarramurdi
Zona_Noroeste,01/07/2018,0.0,28.2,19.0,19.6,Zugarramurdi
Zona_Noroeste,02/07/2018,0.0,27.8,17.0,0.0,Zugarramurdi
Zona_Noroeste,03/07/2018,0.0,25.8,17.0,0.0,Zugarramurdi
Zona_Noroeste,04/07/2018,0.0,26.0,20.0,22.2,Zugarramurdi
Zona_Noroeste,05/07/2018,0.0,22.0,16.8,6.6,Zugarramurdi
Zona_Noroeste,06/07/2018,0.0,23.4,16.2,0.0,Zugarramurdi
Zona_Noroeste,07/07/2018,0.0,27.2,16.0,0.0,Zugarramurdi
Zona_Noroeste,08/07/2018,0.0,28.0,15.5,0.0,Zugarramurdi
Zona_Noroeste,09/07/2018,0.0,27.5,19.0,0.0,Zugarramurdi
Zona_Noroeste,10/07/2018,0.0,27.0,18.0,0.0,Zugarramurdi
Zona_Noroeste,11/07/2018,0.0,26.3,17.0,0.0,Zugarramurdi
Zona_Noroeste,12/07/2018,0.0,25.2,17.2,0.0,Zugarramurdi
Zona_Noroeste,13/07/2018,0.0,26.8,15.4,37.7,Zugarramurdi
Zona_Noroeste,14/07/2018,0.0,28.6,18.8,3.0,Zugarramurdi
Zona_Noroeste,15/07/2018,0.0,26.8,17.7,19.6,Zugarramurdi
Zona_Noroeste,16/07/2018,0.0,22.5,15.6,12.6,Zugarramurdi
Zona_Noroeste,17/07/2018,0.0,26.0,15.8,0.0,Zugarramurdi
Zona_Noroeste,18/07/2018,0.0,27.8,16.4,0.0,Zugarramurdi
Zona_Noroeste,19/07/2018,0.0,26.8,18.5,27.4,Zugarramurdi
Zona_Noroeste,20/07/2018,0.0,22.2,17.8,16.9,Zugarramurdi
Zona_Noroeste,21/07/2018,0.0,23.2,15.5,1.6,Zugarramurdi
Zona_Noroeste,22/07/2018,0.0,24.2,15.0,0.0,Zugarramurdi
Zona_Noroeste,23/07/2018,0.0,29.2,14.5,0.0,Zugarramurdi
Zona_Noroeste,24/07/2018,0.0,27.8,16.0,0.0,Zugarramurdi
Zona_Noroeste,25/07/2018,0.0,27.7,19.2,0.0,Zugarramurdi
Zona_Noroeste,26/07/2018,0.0,27.6,17.6,0.0,Zugarramurdi
Zona_Noroeste,27/07/2018,0.0,26.6,17.2,6.6,Zugarramurdi
Zona_Noroeste,28/07/2018,0.0,23.8,18.1,0.6,Zugarramurdi
Zona_Noroeste,29/07/2018,0.0,24.4,16.6,0.0,Zugarramurdi
Zona_Noroeste,30/07/2018,0.0,28.5,19.2,0.0,Zugarramurdi
Zona_Noroeste,31/07/2018,0.0,26.8,19.5,0.0,Zugarramurdi
Zona_Noroeste,01/08/2018,0.0,25.2,19.3,0.0,Zugarramurdi
Zona_Noroeste,02/08/2018,0.0,29.8,19.2,0.0,Zugarramurdi
Zona_Noroeste,03/08/2018,0.0,30.2,19.0,0.0,Zugarramurdi
Zona_Noroeste,04/08/2018,0.0,28.4,18.6,0.0,Zugarramurdi
Zona_Noroeste,05/08/2018,0.0,28.6,18.0,0.0,Zugarramurdi
Zona_Noroeste,06/08/2018,0.0,34.5,19.4,0.0,Zugarramurdi
Zona_Noroeste,07/08/2018,0.0,23.0,22.0,4.8,Zugarramurdi
Zona_Noroeste,08/08/2018,0.0,25.3,17.2,8.6,Zugarramurdi
Zona_Noroeste,09/08/2018,0.0,20.5,16.5,2.6,Zugarramurdi
Zona_Noroeste,10/08/2018,0.0,24.3,13.3,0.0,Zugarramurdi
Zona_Noroeste,11/08/2018,0.0,28.8,13.4,0.0,Zugarramurdi
Zona_Noroeste,12/08/2018,0.0,28.0,17.1,0.0,Zugarramurdi
Zona_Noroeste,13/08/2018,0.0,22.2,17.7,6.2,Zugarramurdi
Zona_Noroeste,14/08/2018,0.0,24.3,17.2,0.0,Zugarramurdi
Zona_Noroeste,15/08/2018,0.0,27.0,14.6,0.0,Zugarramurdi
Zona_Noroeste,16/08/2018,0.0,24.4,16.0,8.7,Zugarramurdi
Zona_Noroeste,17/08/2018,0.0,22.0,16.7,5.2,Zugarramurdi
Zona_Noroeste,18/08/2018,0.0,24.2,12.6,0.0,Zugarramurdi
Zona_Noroeste,19/08/2018,0.0,25.6,14.0,0.0,Zugarramurdi
Zona_Noroeste,20/08/2018,0.0,25.2,14.6,0.0,Zugarramurdi
Zona_Noroeste,21/08/2018,0.0,27.0,16.0,0.0,Zugarramurdi
Zona_Noroeste,22/08/2018,0.0,28.6,17.0,0.0,Zugarramurdi
Zona_Noroeste,23/08/2018,0.0,25.2,19.2,0.0,Zugarramurdi
Zona_Noroeste,24/08/2018,0.0,22.2,18.6,12.7,Zugarramurdi
Zona_Noroeste,25/08/2018,0.0,22.4,14.2,0.0,Zugarramurdi
Zona_Noroeste,26/08/2018,0.0,25.8,14.4,0.0,Zugarramurdi
Zona_Noroeste,27/08/2018,0.0,29.0,15.0,0.0,Zugarramurdi
Zona_Noroeste,28/08/2018,0.0,32.4,16.2,0.8,Zugarramurdi
Zona_Noroeste,29/08/2018,0.0,23.8,18.0,0.3,Zugarramurdi
Zona_Noroeste,30/08/2018,0.0,25.0,16.6,0.0,Zugarramurdi
Zona_Noroeste,31/08/2018,0.0,24.5,15.5,0.0,Zugarramurdi
Zona_Noroeste,01/09/2018,0.0,26.2,15.2,0.0,Zugarramurdi
Zona_Noroeste,02/09/2018,0.0,28.6,12.5,0.0,Zugarramurdi
Zona_Noroeste,03/09/2018,0.0,26.2,13.6,0.0,Zugarramurdi
Zona_Noroeste,04/09/2018,0.0,25.4,15.4,2.0,Zugarramurdi
Zona_Noroeste,05/09/2018,0.0,22.0,16.6,3.6,Zugarramurdi
Zona_Noroeste,06/09/2018,0.0,21.5,17.0,12.6,Zugarramurdi
Zona_Noroeste,07/09/2018,0.0,22.2,15.2,0.0,Zugarramurdi
Zona_Noroeste,08/09/2018,0.0,29.6,13.2,0.0,Zugarramurdi
Zona_Noroeste,09/09/2018,0.0,26.4,16.8,0.0,Zugarramurdi
Zona_Noroeste,10/09/2018,0.0,23.6,17.4,0.0,Zugarramurdi
Zona_Noroeste,11/09/2018,0.0,30.2,14.2,0.0,Zugarramurdi
Zona_Noroeste,12/09/2018,0.0,28.9,14.9,0.0,Zugarramurdi
Zona_Noroeste,13/09/2018,0.0,22.8,18.2,0.0,Zugarramurdi
Zona_Noroeste,14/09/2018,0.0,24.9,15.0,0.0,Zugarramurdi
Zona_Noroeste,15/09/2018,0.0,27.3,12.5,0.0,Zugarramurdi
Zona_Noroeste,16/09/2018,0.0,25.0,12.8,0.0,Zugarramurdi
Zona_Noroeste,17/09/2018,0.0,34.0,14.2,0.0,Zugarramurdi
Zona_Noroeste,18/09/2018,0.0,25.7,16.2,0.0,Zugarramurdi
Zona_Noroeste,19/09/2018,0.0,27.2,15.4,0.0,Zugarramurdi
Zona_Noroeste,20/09/2018,0.0,29.2,15.6,0.0,Zugarramurdi
Zona_Noroeste,21/09/2018,0.0,26.8,15.5,2.1,Zugarramurdi
Zona_Noroeste,22/09/2018,0.0,28.5,15.5,0.0,Zugarramurdi
Zona_Noroeste,23/09/2018,0.0,27.2,16.5,7.6,Zugarramurdi
Zona_Noroeste,24/09/2018,0.0,19.0,14.2,0.0,Zugarramurdi
Zona_Noroeste,25/09/2018,0.0,18.4,6.5,0.0,Zugarramurdi
Zona_Noroeste,26/09/2018,0.0,29.6,7.0,0.0,Zugarramurdi
Zona_Noroeste,27/09/2018,0.0,31.6,9.2,0.0,Zugarramurdi
Zona_Noroeste,28/09/2018,0.0,24.2,14.2,0.0,Zugarramurdi
Zona_Noroeste,29/09/2018,0.0,23.1,13.8,0.0,Zugarramurdi
Zona_Noroeste,30/09/2018,0.0,21.5,11.2,0.0,Zugarramurdi
Zona_Noroeste,01/10/2018,0.0,17.6,11.2,0.0,Zugarramurdi
Zona_Noroeste,02/10/2018,0.0,19.0,6.5,0.0,Zugarramurdi
Zona_Noroeste,03/10/2018,0.0,22.0,7.2,0.0,Zugarramurdi
Zona_Noroeste,04/10/2018,0.0,24.0,8.0,0.0,Zugarramurdi
Zona_Noroeste,05/10/2018,0.0,29.5,9.5,0.0,Zugarramurdi
Zona_Noroeste,06/10/2018,0.0,21.4,10.6,6.6,Zugarramurdi
Zona_Noroeste,07/10/2018,0.0,15.0,10.8,32.2,Zugarramurdi
Zona_Noroeste,08/10/2018,0.0,16.8,11.2,0.0,Zugarramurdi
Zona_Noroeste,09/10/2018,0.0,21.0,8.5,0.0,Zugarramurdi
Zona_Noroeste,10/10/2018,0.0,21.0,11.0,0.0,Zugarramurdi
Zona_Noroeste,11/10/2018,0.0,24.6,10.6,0.0,Zugarramurdi
Zona_Noroeste,12/10/2018,0.0,27.6,15.0,0.0,Zugarramurdi
Zona_Noroeste,13/10/2018,0.0,28.6,20.0,0.0,Zugarramurdi
Zona_Noroeste,14/10/2018,0.0,24.0,21.0,19.2,Zugarramurdi
Zona_Noroeste,15/10/2018,0.0,24.0,11.0,0.0,Zugarramurdi
Zona_Noroeste,16/10/2018,0.0,20.0,9.0,0.0,Zugarramurdi
Zona_Noroeste,17/10/2018,0.0,21.0,10.1,0.0,Zugarramurdi
Zona_Noroeste,18/10/2018,0.0,19.2,10.5,0.0,Zugarramurdi
Zona_Noroeste,19/10/2018,0.0,20.4,14.1,0.0,Zugarramurdi
Zona_Noroeste,20/10/2018,0.0,19.0,13.1,0.0,Zugarramurdi
Zona_Noroeste,21/10/2018,0.0,23.0,13.0,0.0,Zugarramurdi
Zona_Noroeste,22/10/2018,0.0,16.8,15.0,0.0,Zugarramurdi
Zona_Noroeste,23/10/2018,0.0,18.0,8.6,0.0,Zugarramurdi
Zona_Noroeste,24/10/2018,0.0,18.0,8.0,0.0,Zugarramurdi
Zona_Noroeste,25/10/2018,0.0,17.0,8.1,0.0,Zugarramurdi
Zona_Noroeste,26/10/2018,0.0,15.8,9.0,13.6,Zugarramurdi
Zona_Noroeste,27/10/2018,0.0,12.2,8.7,1.0,Zugarramurdi
Zona_Noroeste,28/10/2018,0.0,9.8,3.1,12.8,Zugarramurdi
Zona_Noroeste,29/10/2018,0.0,11.6,3.4,15.8,Zugarramurdi
Zona_Noroeste,30/10/2018,0.0,15.4,3.8,1.0,Zugarramurdi
Zona_Noroeste,31/10/2018,0.0,12.0,8.2,9.4,Zugarramurdi
Zona_Noroeste,01/11/2018,0.0,14.4,8.5,6.4,Zugarramurdi
Zona_Noroeste,02/11/2018,0.0,15.2,10.0,3.1,Zugarramurdi
Zona_Noroeste,03/11/2018,0.0,14.1,5.0,0.0,Zugarramurdi
Zona_Noroeste,04/11/2018,0.0,20.0,3.0,0.0,Zugarramurdi
Zona_Noroeste,05/11/2018,0.0,19.1,3.0,0.0,Zugarramurdi
Zona_Noroeste,06/11/2018,0.0,16.1,9.0,0.0,Zugarramurdi
Zona_Noroeste,07/11/2018,0.0,18.2,8.0,5.6,Zugarramurdi
Zona_Noroeste,08/11/2018,0.0,18.0,7.0,6.2,Zugarramurdi
Zona_Noroeste,09/11/2018,0.0,16.0,10.1,0.0,Zugarramurdi
Zona_Noroeste,10/11/2018,0.0,20.1,10.0,0.0,Zugarramurdi
Zona_Noroeste,11/11/2018,0.0,21.0,11.0,0.0,Zugarramurdi
Zona_Noroeste,12/11/2018,0.0,15.0,12.1,12.2,Zugarramurdi
Zona_Noroeste,13/11/2018,0.0,18.5,11.0,0.0,Zugarramurdi
Zona_Noroeste,14/11/2018,0.0,23.1,7.0,0.0,Zugarramurdi
Zona_Noroeste,15/11/2018,0.0,23.3,14.0,0.0,Zugarramurdi
Zona_Noroeste,16/11/2018,0.0,22.1,8.2,0.0,Zugarramurdi
Zona_Noroeste,17/11/2018,0.0,21.6,9.1,0.0,Zugarramurdi
Zona_Noroeste,18/11/2018,0.0,14.6,6.2,0.4,Zugarramurdi
Zona_Noroeste,19/11/2018,0.0,12.8,4.6,0.0,Zugarramurdi
Zona_Noroeste,20/11/2018,0.0,6.1,4.8,2.4,Zugarramurdi
Zona_Noroeste,21/11/2018,0.0,17.0,3.2,0.5,Zugarramurdi
Zona_Noroeste,22/11/2018,0.0,16.4,4.8,0.0,Zugarramurdi
Zona_Noroeste,23/11/2018,0.0,15.3,9.5,1.6,Zugarramurdi
Zona_Noroeste,24/11/2018,0.0,16.5,8.5,7.1,Zugarramurdi
Zona_Noroeste,25/11/2018,0.0,12.2,7.1,5.6,Zugarramurdi
Zona_Noroeste,26/11/2018,0.0,10.4,6.0,25.8,Zugarramurdi
Zona_Noroeste,27/11/2018,0.0,16.0,6.8,0.0,Zugarramurdi
Zona_Noroeste,28/11/2018,0.0,20.1,7.0,0.0,Zugarramurdi
Zona_Noroeste,29/11/2018,0.0,20.0,11.7,6.3,Zugarramurdi
Zona_Noroeste,30/11/2018,0.0,15.2,8.6,3.1,Zugarramurdi
Zona_Noroeste,01/12/2018,0.0,14.5,7.9,1.0,Zugarramurdi
Zona_Noroeste,02/12/2018,0.0,17.6,9.0,0.4,Zugarramurdi
Zona_Noroeste,03/12/2018,0.0,19.0,9.5,0.9,Zugarramurdi
Zona_Noroeste,04/12/2018,0.0,19.7,10.2,0.0,Zugarramurdi
Zona_Noroeste,05/12/2018,0.0,17.5,10.7,0.2,Zugarramurdi
Zona_Noroeste,06/12/2018,0.0,16.0,6.3,0.0,Zugarramurdi
Zona_Noroeste,07/12/2018,0.0,17.2,7.8,9.4,Zugarramurdi
Zona_Noroeste,08/12/2018,0.0,15.6,4.4,0.0,Zugarramurdi
Zona_Noroeste,09/12/2018,0.0,14.3,9.5,1.1,Zugarramurdi
Zona_Noroeste,10/12/2018,0.0,14.0,7.8,0.3,Zugarramurdi
Zona_Noroeste,11/12/2018,0.0,14.3,3.0,1.4,Zugarramurdi
Zona_Noroeste,12/12/2018,0.0,14.1,6.8,3.7,Zugarramurdi
Zona_Noroeste,13/12/2018,0.0,11.3,9.0,53.1,Zugarramurdi
Zona_Noroeste,14/12/2018,0.0,11.7,9.2,8.5,Zugarramurdi
Zona_Noroeste,15/12/2018,0.0,17.2,7.1,7.5,Zugarramurdi
Zona_Noroeste,16/12/2018,0.0,12.2,9.3,7.6,Zugarramurdi
Zona_Noroeste,17/12/2018,0.0,14.6,7.5,0.0,Zugarramurdi
Zona_Noroeste,18/12/2018,0.0,15.8,6.5,0.0,Zugarramurdi
Zona_Noroeste,19/12/2018,0.0,16.0,9.6,0.4,Zugarramurdi
Zona_Noroeste,20/12/2018,0.0,16.4,3.0,0.0,Zugarramurdi
Zona_Noroeste,21/12/2018,0.0,17.4,11.2,0.0,Zugarramurdi
Zona_Noroeste,22/12/2018,0.0,17.5,11.5,0.0,Zugarramurdi
Zona_Noroeste,23/12/2018,0.0,17.0,5.0,0.0,Zugarramurdi
Zona_Noroeste,24/12/2018,0.0,10.1,6.2,0.0,Zugarramurdi
Zona_Noroeste,25/12/2018,0.0,14.2,7.0,0.0,Zugarramurdi
Zona_Noroeste,26/12/2018,0.0,18.4,4.6,0.0,Zugarramurdi
Zona_Noroeste,27/12/2018,0.0,14.7,4.4,0.0,Zugarramurdi
