Fecha, Temperatura media, Temperatura maxima, Temperatura minima, Precipitacion acumulada
01/01/2013,5.0,8.1,2.5,4.4
02/01/2013,4.7,6.2,3.5,2.9
03/01/2013,5.9,11.7,3.1,0.0
04/01/2013,9.1,14.9,4.7,0.0
05/01/2013,9.6,14.6,6.0,0.0
06/01/2013,8.8,14.8,5.5,0.0
07/01/2013,8.4,13.6,5.0,0.0
08/01/2013,3.9,8.3,-0.3,0.0
09/01/2013,2.8,7.0,-1.3,0.4
10/01/2013,6.1,10.4,4.0,0.6
11/01/2013,5.4,10.4,0.6,0.0
12/01/2013,6.0,9.5,0.4,5.5
13/01/2013,1.2,3.3,-0.2,2.4
14/01/2013,0.9,2.6,-0.0,29.4
15/01/2013,3.5,4.7,2.2,16.8
16/01/2013,5.9,8.1,3.4,11.3
17/01/2013,4.2,7.2,1.5,4.4
18/01/2013,9.3,12.6,4.6,10.4
19/01/2013,6.7,11.4,1.2,16.2
20/01/2013,3.2,6.8,0.2,8.1
21/01/2013,3.2,5.2,1.1,3.4
22/01/2013,0.6,3.6,-2.1,1.2
23/01/2013,1.3,4.5,-1.0,7.9
24/01/2013,2.4,4.6,0.5,14.8
25/01/2013,3.2,6.4,-0.8,2.3
26/01/2013,6.1,8.4,3.9,3.2
27/01/2013,5.1,9.8,0.4,16.1
28/01/2013,4.1,8.2,1.0,0.0
29/01/2013,7.1,11.6,2.8,0.0
30/01/2013,8.7,14.5,3.5,0.0
31/01/2013,11.4,15.0,9.1,0.0
01/02/2013,10.2,12.4,5.3,5.8
02/02/2013,1.6,4.9,-0.2,20.0
03/02/2013,2.4,4.7,-0.1,0.2
04/02/2013,6.2,8.8,3.4,0.0
05/02/2013,7.0,11.3,1.0,0.6
06/02/2013,0.6,2.2,-0.5,26.7
07/02/2013,0.2,1.5,-0.8,13.8
08/02/2013,0.5,1.9,-0.5,22.4
09/02/2013,1.5,3.1,-0.3,2.8
10/02/2013,3.0,6.8,0.1,5.3
11/02/2013,1.1,3.1,-0.9,4.5
12/02/2013,1.1,3.5,-0.5,32.9
13/02/2013,3.8,5.6,1.4,2.2
14/02/2013,5.7,7.7,3.8,0.0
15/02/2013,5.3,8.6,2.4,0.1
16/02/2013,4.6,10.0,0.4,0.0
17/02/2013,3.9,6.8,1.3,0.0
18/02/2013,6.6,11.5,4.0,1.8
19/02/2013,5.7,6.7,4.7,0.1
20/02/2013,8.1,14.1,5.0,0.0
21/02/2013,7.8,10.6,5.6,0.5
22/02/2013,3.1,6.7,-2.0,4.1
23/02/2013,-3.0,-1.8,-4.4,0.0
24/02/2013,-1.6,-0.2,-2.9,2.9
25/02/2013,-1.2,0.3,-2.7,2.7
26/02/2013,-0.5,1.1,-1.4,14.6
27/02/2013,0.7,5.6,-2.8,1.0
28/02/2013,1.3,5.4,-1.4,0.0
01/03/2013,3.3,6.7,0.8,0.0
02/03/2013,4.2,10.8,-0.4,0.0
03/03/2013,6.1,11.3,1.9,0.0
04/03/2013,4.8,7.0,1.9,3.6
05/03/2013,7.6,8.6,6.5,11.0
06/03/2013,11.0,17.5,7.0,0.4
07/03/2013,10.6,14.0,7.0,13.0
08/03/2013,9.6,13.3,6.2,2.3
09/03/2013,7.8,12.0,3.1,0.0
10/03/2013,7.9,10.6,5.3,0.1
11/03/2013,7.0,10.4,4.9,1.8
12/03/2013,4.2,10.8,-0.7,5.8
13/03/2013,-1.7,-0.6,-3.0,2.2
14/03/2013,-0.1,1.9,-1.4,15.6
15/03/2013,2.3,6.9,-0.0,0.7
16/03/2013,3.6,7.2,1.0,0.1
17/03/2013,3.7,5.8,1.5,7.9
18/03/2013,4.6,9.1,0.4,0.1
19/03/2013,4.7,8.9,-0.1,2.7
20/03/2013,6.3,11.0,2.7,0.0
21/03/2013,6.9,12.2,1.7,0.0
22/03/2013,8.3,15.9,4.3,0.4
23/03/2013,7.9,14.9,3.1,0.0
24/03/2013,8.2,12.4,4.9,0.0
25/03/2013,6.1,8.4,4.4,25.5
26/03/2013,8.9,13.6,6.4,10.7
27/03/2013,9.4,13.7,6.7,19.0
28/03/2013,11.3,15.0,8.3,0.1
29/03/2013,11.3,14.1,8.9,18.8
30/03/2013,8.2,10.8,6.4,6.9
31/03/2013,9.7,15.3,4.7,1.1
01/04/2013,7.5,12.7,5.2,18.3
02/04/2013,7.1,11.4,4.0,0.0
03/04/2013,8.0,14.0,2.8,0.6
04/04/2013,5.0,11.1,0.4,6.3
05/04/2013,1.6,5.3,-0.5,0.2
06/04/2013,0.4,1.8,-0.8,14.2
07/04/2013,5.7,9.1,1.2,0.1
08/04/2013,8.7,12.5,5.7,0.2
09/04/2013,9.9,14.6,5.8,0.1
10/04/2013,12.0,16.5,7.2,0.0
11/04/2013,12.1,16.5,9.4,3.6
12/04/2013,11.0,14.6,6.5,0.0
13/04/2013,13.8,19.5,8.0,0.0
14/04/2013,14.9,21.4,8.7,0.9
15/04/2013,14.4,21.4,9.5,1.8
16/04/2013,16.2,22.9,9.3,0.0
17/04/2013,17.7,25.1,11.7,0.0
18/04/2013,9.1,12.7,6.5,0.0
19/04/2013,6.3,10.4,3.1,0.0
20/04/2013,6.1,11.9,2.1,0.1
21/04/2013,6.9,13.7,0.6,0.0
22/04/2013,7.0,11.6,4.2,0.0
23/04/2013,9.9,18.7,2.8,0.0
24/04/2013,12.7,19.4,6.1,0.0
25/04/2013,13.7,21.3,6.8,0.0
26/04/2013,9.2,12.4,3.4,5.3
27/04/2013,2.8,5.7,0.8,1.0
28/04/2013,3.3,7.6,-0.2,4.2
29/04/2013,4.4,6.9,2.6,9.2
30/04/2013,5.6,9.1,2.8,17.9
01/05/2013,7.6,13.0,4.8,0.1
02/05/2013,6.3,9.0,4.4,4.8
03/05/2013,7.5,12.2,4.1,0.0
04/05/2013,10.6,18.2,4.5,0.0
05/05/2013,13.0,20.2,5.6,0.0
06/05/2013,15.6,23.3,8.8,0.1
07/05/2013,16.0,20.6,12.7,0.2
08/05/2013,14.6,18.1,11.2,0.7
09/05/2013,10.8,14.6,7.7,7.9
10/05/2013,9.1,14.5,5.0,0.0
11/05/2013,8.7,13.6,4.9,0.0
12/05/2013,8.2,11.9,5.3,0.0
13/05/2013,11.5,20.5,3.3,0.0
14/05/2013,11.9,19.3,6.3,5.1
15/05/2013,6.2,9.3,3.5,1.3
16/05/2013,5.5,11.6,1.1,3.5
17/05/2013,6.1,11.9,3.8,7.3
18/05/2013,6.5,10.4,3.0,16.0
19/05/2013,7.3,12.0,4.0,0.1
20/05/2013,7.1,12.2,2.6,0.0
21/05/2013,5.9,7.9,2.3,1.1
22/05/2013,8.7,12.1,6.8,1.1
23/05/2013,7.1,8.4,6.1,0.2
24/05/2013,6.7,10.9,4.2,0.1
25/05/2013,7.2,12.4,3.8,0.1
26/05/2013,9.2,16.8,0.7,4.4
27/05/2013,10.5,17.0,7.1,20.7
28/05/2013,7.5,11.5,3.3,7.5
29/05/2013,6.6,11.9,2.2,1.0
30/05/2013,7.4,9.1,5.0,2.3
31/05/2013,7.8,9.5,7.0,1.8
01/06/2013,8.5,10.4,7.6,0.4
02/06/2013,9.3,11.9,7.3,0.0
03/06/2013,10.4,16.6,5.2,0.0
04/06/2013,14.2,23.2,5.7,0.0
05/06/2013,17.0,24.5,7.4,0.0
06/06/2013,17.0,23.4,11.9,3.3
07/06/2013,13.5,19.0,10.2,10.9
08/06/2013,10.5,13.4,8.8,14.4
09/06/2013,11.5,13.4,10.0,15.6
10/06/2013,15.7,21.9,10.3,0.0
11/06/2013,19.0,23.4,14.6,0.0
12/06/2013,22.1,28.6,13.5,0.0
13/06/2013,14.5,17.5,12.2,0.0
14/06/2013,17.2,25.9,9.4,0.0
15/06/2013,17.2,25.5,10.6,0.0
16/06/2013,21.2,29.6,12.6,0.0
17/06/2013,17.1,23.9,11.0,0.0
18/06/2013,10.7,16.6,7.7,26.9
19/06/2013,9.5,12.3,7.5,6.9
20/06/2013,12.8,17.9,8.6,3.9
21/06/2013,12.1,15.1,10.4,7.1
22/06/2013,16.1,23.7,8.3,0.0
23/06/2013,11.8,15.0,8.0,0.0
24/06/2013,11.5,17.2,7.0,0.0
25/06/2013,12.2,19.0,5.7,0.0
26/06/2013,13.6,20.7,8.0,0.0
27/06/2013,13.6,19.5,8.5,0.0
28/06/2013,14.1,20.7,8.0,0.0
29/06/2013,16.0,22.8,8.5,0.0
30/06/2013,17.6,25.9,10.1,0.0
01/07/2013,18.7,28.3,12.9,0.0
02/07/2013,20.1,28.4,14.3,0.0
03/07/2013,19.0,24.0,15.0,0.0
04/07/2013,19.8,27.3,14.8,0.0
05/07/2013,22.1,30.3,13.8,0.0
06/07/2013,23.1,31.3,16.2,0.0
07/07/2013,21.0,29.0,13.7,0.0
08/07/2013,22.9,31.6,14.9,0.0
09/07/2013,24.2,31.3,17.4,0.0
10/07/2013,23.6,31.3,18.1,0.0
11/07/2013,22.9,30.3,14.3,0.0
12/07/2013,22.8,31.8,16.6,1.0
13/07/2013,22.4,30.0,15.8,1.1
14/07/2013,21.0,28.8,15.9,0.1
15/07/2013,21.2,30.4,14.9,0.0
16/07/2013,19.7,28.0,14.4,4.8
17/07/2013,19.6,26.9,14.3,0.0
18/07/2013,20.3,27.8,13.5,0.0
19/07/2013,21.8,30.0,13.5,0.2
20/07/2013,22.2,31.0,17.0,0.0
21/07/2013,23.1,31.1,18.2,0.0
22/07/2013,23.2,32.3,15.8,5.3
23/07/2013,21.5,31.2,16.8,0.1
24/07/2013,23.4,31.2,16.7,0.0
25/07/2013,24.4,33.7,17.3,0.0
26/07/2013,24.3,33.2,17.1,0.0
27/07/2013,19.2,23.9,15.4,0.1
28/07/2013,19.1,26.7,13.0,0.0
29/07/2013,18.1,25.5,10.6,0.0
30/07/2013,22.2,30.7,13.7,0.0
31/07/2013,25.9,34.1,17.3,0.0
01/08/2013,26.6,34.8,19.5,0.0
02/08/2013,23.9,34.8,17.1,0.0
03/08/2013,19.9,28.7,14.7,0.0
04/08/2013,22.5,30.9,15.6,0.0
05/08/2013,21.3,26.3,16.3,0.0
06/08/2013,19.1,26.4,15.6,0.0
07/08/2013,15.7,22.8,11.7,2.8
08/08/2013,14.7,20.8,10.6,0.9
09/08/2013,16.8,25.0,9.9,0.0
10/08/2013,18.1,25.2,11.3,0.0
11/08/2013,23.3,33.4,12.4,0.0
12/08/2013,21.2,29.2,16.6,1.7
13/08/2013,18.2,24.0,13.6,0.0
14/08/2013,18.3,26.6,11.7,0.0
15/08/2013,22.0,31.0,13.6,0.0
16/08/2013,20.0,26.6,15.6,0.0
17/08/2013,20.6,29.3,14.1,0.0
18/08/2013,22.3,32.0,15.2,0.0
19/08/2013,16.9,20.6,12.9,0.0
20/08/2013,18.2,26.7,10.7,0.0
21/08/2013,22.5,32.3,13.0,0.0
22/08/2013,22.5,31.2,17.2,0.0
23/08/2013,19.6,28.8,15.1,0.0
24/08/2013,16.0,20.1,12.6,0.0
25/08/2013,15.9,22.7,12.0,0.0
26/08/2013,15.4,20.1,12.6,0.0
27/08/2013,15.6,19.9,12.0,0.0
28/08/2013,16.0,21.5,12.2,0.0
29/08/2013,16.4,22.7,11.8,0.0
30/08/2013,16.0,22.8,11.1,0.0
31/08/2013,15.4,22.3,10.6,0.0
01/09/2013,17.1,23.2,12.6,0.0
02/09/2013,17.7,25.7,12.0,0.0
03/09/2013,20.4,28.9,11.8,0.0
04/09/2013,22.0,28.8,16.2,0.0
05/09/2013,18.6,27.8,13.7,19.4
06/09/2013,16.5,23.8,13.1,5.2
07/09/2013,14.2,17.0,12.1,4.4
08/09/2013,12.4,16.1,9.5,0.1
09/09/2013,15.0,21.4,8.9,0.0
10/09/2013,14.4,20.4,10.8,1.0
11/09/2013,12.1,17.1,9.8,0.0
12/09/2013,13.6,19.3,9.1,0.0
13/09/2013,16.0,21.3,12.2,0.0
14/09/2013,17.5,25.7,11.1,0.0
15/09/2013,13.4,18.1,9.4,0.0
16/09/2013,14.4,21.8,8.8,0.0
17/09/2013,12.9,16.1,10.6,0.0
18/09/2013,15.7,20.4,11.3,0.0
19/09/2013,14.9,17.9,12.8,0.0
20/09/2013,15.9,20.4,13.1,0.0
21/09/2013,16.7,24.0,11.5,0.0
22/09/2013,18.9,27.4,10.5,0.0
23/09/2013,19.1,26.1,14.2,0.0
24/09/2013,20.1,27.3,15.0,0.0
25/09/2013,21.3,28.5,16.5,0.0
26/09/2013,22.0,29.1,16.8,0.0
27/09/2013,21.4,28.0,16.2,0.0
28/09/2013,16.2,21.9,11.3,0.4
29/09/2013,16.8,22.3,11.9,0.0
30/09/2013,18.9,23.7,13.6,0.0
01/10/2013,17.1,20.8,15.1,4.4
02/10/2013,20.0,25.7,16.0,0.6
03/10/2013,19.8,25.4,16.3,0.4
04/10/2013,15.7,22.3,10.8,33.1
05/10/2013,13.3,17.9,10.0,0.0
06/10/2013,13.3,18.0,9.7,0.1
07/10/2013,12.3,18.3,8.3,0.0
08/10/2013,11.6,17.1,7.8,0.0
09/10/2013,11.9,16.3,7.0,0.0
10/10/2013,10.0,15.0,6.5,0.0
11/10/2013,7.6,12.5,3.5,0.2
12/10/2013,8.9,16.5,2.6,0.0
13/10/2013,11.7,16.9,7.0,0.0
14/10/2013,14.2,18.7,9.4,0.4
15/10/2013,15.4,18.3,12.5,0.5
16/10/2013,17.8,22.3,14.3,0.0
17/10/2013,17.1,22.8,11.2,0.0
18/10/2013,18.1,24.8,13.3,0.0
19/10/2013,16.6,23.0,13.4,0.0
20/10/2013,15.2,21.2,9.9,0.0
21/10/2013,14.4,19.1,9.7,0.0
22/10/2013,13.8,16.4,11.6,0.7
23/10/2013,14.0,19.1,10.6,0.0
24/10/2013,14.1,17.8,9.9,0.0
25/10/2013,15.0,18.0,13.3,11.0
26/10/2013,14.5,19.1,10.8,0.2
27/10/2013,14.0,18.2,10.6,0.0
28/10/2013,10.4,14.3,7.4,1.5
29/10/2013,7.1,9.1,4.8,2.8
30/10/2013,6.7,9.3,4.3,1.0
31/10/2013,8.4,13.1,4.4,0.0
01/11/2013,9.7,13.9,5.9,0.0
02/11/2013,14.3,20.1,9.6,1.8
03/11/2013,10.6,12.9,8.2,0.4
04/11/2013,10.0,11.4,7.9,13.7
05/11/2013,14.0,17.6,11.0,5.4
06/11/2013,14.2,19.5,11.8,0.0
07/11/2013,12.7,17.8,10.3,0.0
08/11/2013,10.4,17.7,6.2,0.6
09/11/2013,8.0,11.6,3.5,0.4
10/11/2013,9.9,12.3,8.2,0.0
11/11/2013,9.6,10.7,9.0,2.0
12/11/2013,9.9,11.6,8.8,0.0
13/11/2013,10.2,12.5,8.6,2.5
14/11/2013,7.4,8.8,5.6,0.2
15/11/2013,1.9,6.1,-0.2,15.6
16/11/2013,1.9,5.9,-1.5,0.6
17/11/2013,5.2,6.1,4.7,2.2
18/11/2013,6.1,7.3,4.9,4.2
19/11/2013,4.4,6.9,0.4,7.3
20/11/2013,1.5,4.1,-0.2,7.5
21/11/2013,2.8,4.6,0.8,13.3
22/11/2013,1.6,3.4,0.3,7.2
23/11/2013,2.3,4.0,0.6,2.1
24/11/2013,3.0,4.7,1.7,0.2
25/11/2013,2.7,4.3,1.8,0.0
26/11/2013,1.0,2.5,-0.4,0.0
27/11/2013,0.0,2.5,-2.1,0.0
28/11/2013,0.3,6.4,-4.1,0.0
29/11/2013,2.2,3.8,-0.6,0.0
30/11/2013,3.8,5.8,1.5,1.9
01/12/2013,2.1,4.3,0.9,0.0
02/12/2013,2.6,4.6,-0.2,0.0
03/12/2013,4.5,10.8,-0.9,0.0
04/12/2013,7.2,12.7,3.3,0.0
05/12/2013,5.0,6.3,3.4,0.0
06/12/2013,3.5,7.8,0.7,0.0
07/12/2013,3.6,10.1,0.2,0.0
08/12/2013,3.6,8.6,0.6,0.0
09/12/2013,1.0,2.6,0.1,0.0
10/12/2013,-0.1,3.5,-2.1,0.0
11/12/2013,0.8,2.1,-1.7,0.2
12/12/2013,0.6,2.1,-2.6,0.0
13/12/2013,2.2,7.1,-3.4,3.9
14/12/2013,5.9,10.7,2.6,0.1
15/12/2013,3.7,8.5,-0.3,0.0
16/12/2013,2.6,5.7,-0.9,0.0
17/12/2013,3.5,4.2,2.1,0.0
18/12/2013,4.7,6.7,2.9,2.0
19/12/2013,4.4,7.7,1.2,14.5
20/12/2013,2.4,5.1,0.1,2.1
21/12/2013,1.1,3.8,-1.4,0.0
22/12/2013,3.1,9.3,-0.8,0.0
23/12/2013,3.0,6.1,0.3,0.0
24/12/2013,6.8,11.9,3.1,10.9
25/12/2013,4.9,7.7,1.7,2.5
26/12/2013,4.0,7.5,1.2,0.0
27/12/2013,6.5,9.6,2.2,0.0
28/12/2013,5.7,8.6,1.3,4.8
29/12/2013,1.8,5.7,-1.3,0.0
30/12/2013,3.5,7.9,-0.7,0.0
31/12/2013,2.2,5.7,-0.3,0.0
