Fecha, Temperatura media, Temperatura maxima, Temperatura minima, Precipitacion acumulada
01/01/2018,-,8.5,0.0,19.5
02/01/2018,-,11.5,5.0,3.1
03/01/2018,-,14.5,7.5,0.0
04/01/2018,-,13.0,10.5,0.0
05/01/2018,-,9.5,8.0,26.8
06/01/2018,-,3.5,1.0,30.9
07/01/2018,-,3.5,0.0,8.2
08/01/2018,-,4.5,-0.5,0.0
09/01/2018,-,1.0,-3.0,3.6
10/01/2018,-,3.5,-0.5,2.3
11/01/2018,-,3.5,-0.5,6.0
12/01/2018,-,6.5,0.5,0.2
13/01/2018,-,3.5,0.5,8.9
14/01/2018,-,4.5,0.5,2.4
15/01/2018,-,7.5,1.0,0.2
16/01/2018,-,11.0,3.5,1.0
17/01/2018,-,5.5,5.0,2.6
18/01/2018,-,10.5,0.0,0.4
19/01/2018,-,7.5,2.0,6.3
20/01/2018,-,10.0,3.0,9.5
21/01/2018,-,10.5,5.5,0.3
22/01/2018,-,11.0,7.5,0.3
23/01/2018,-,12.0,8.5,0.0
24/01/2018,-,8.0,2.0,0.0
25/01/2018,-,5.5,5.0,23.2
26/01/2018,-,4.5,1.5,31.7
27/01/2018,-,5.0,1.5,0.9
28/01/2018,-,11.5,0.5,0.0
29/01/2018,-,12.0,0.5,0.0
30/01/2018,-,10.0,0.0,0.0
31/01/2018,-,9.0,-2.0,1.1
01/02/2018,-,3.5,1.5,8.2
02/02/2018,-,1.5,-1.0,5.0
03/02/2018,-,3.0,0.0,15.4
04/02/2018,-,3.0,0.0,1.4
05/02/2018,-,1.0,0.5,1.7
06/02/2018,-,1.0,-2.5,1.8
07/02/2018,-,1.0,-2.5,2.4
08/02/2018,-,1.5,-1.5,0.0
09/02/2018,-,4.0,-4.5,15.3
10/02/2018,-,7.0,-0.5,6.5
11/02/2018,-,9.0,1.5,3.9
12/02/2018,-,2.5,0.0,1.2
13/02/2018,-,3.0,-4.5,4.6
14/02/2018,-,11.5,-1.5,9.5
15/02/2018,-,11.5,2.5,0.2
16/02/2018,-,14.0,8.0,0.0
17/02/2018,-,8.0,4.5,3.2
18/02/2018,-,7.0,2.5,1.4
19/02/2018,-,7.5,4.5,9.8
20/02/2018,-,6.5,5.0,8.8
21/02/2018,-,4.0,1.0,0.3
22/02/2018,-,4.0,-1.0,0.0
23/02/2018,-,1.5,-2.5,0.0
24/02/2018,-,6.5,-5.0,0.0
25/02/2018,-,9.5,-0.5,0.0
26/02/2018,-,5.5,-1.5,0.0
27/02/2018,-,1.5,-7.0,16.3
28/02/2018,-,2.0,-5.0,24.1
01/03/2018,-,6.5,2.0,7.2
02/03/2018,-,7.0,1.0,9.2
03/03/2018,-,11.5,2.5,4.4
04/03/2018,-,11.5,5.0,4.6
05/03/2018,-,8.0,3.5,0.6
06/03/2018,-,9.5,2.5,4.8
07/03/2018,-,9.5,-0.5,0.0
08/03/2018,-,9.5,2.5,0.0
09/03/2018,-,12.0,3.0,6.9
10/03/2018,-,10.5,7.0,1.6
11/03/2018,-,11.5,4.5,0.5
12/03/2018,-,10.0,5.0,3.7
13/03/2018,-,9.0,3.0,0.3
14/03/2018,-,8.5,3.5,12.3
15/03/2018,-,11.5,3.0,3.2
16/03/2018,-,8.5,2.0,0.7
17/03/2018,-,8.0,1.5,3.2
18/03/2018,-,5.5,1.0,1.1
19/03/2018,-,3.5,0.0,13.4
20/03/2018,-,2.0,-1.5,4.0
21/03/2018,-,3.5,-2.0,0.0
22/03/2018,-,6.0,-1.5,0.0
23/03/2018,-,11.0,0.5,19.8
24/03/2018,-,7.5,0.0,1.9
25/03/2018,-,7.0,1.5,8.9
26/03/2018,-,7.5,3.5,3.8
27/03/2018,-,13.0,4.0,0.5
28/03/2018,-,17.0,3.0,1.5
29/03/2018,-,12.0,3.0,1.3
30/03/2018,-,10.5,2.0,3.1
31/03/2018,-,8.5,1.0,1.6
01/04/2018,-,12.5,-0.5,0.0
02/04/2018,-,16.5,5.5,0.8
03/04/2018,-,14.0,4.5,0.0
04/04/2018,-,13.5,5.0,3.7
05/04/2018,-,14.0,5.0,0.0
06/04/2018,-,16.5,5.5,21.5
07/04/2018,-,9.0,6.5,27.1
08/04/2018,-,11.0,5.0,2.3
09/04/2018,-,7.5,3.0,10.7
10/04/2018,-,5.0,1.5,36.8
11/04/2018,-,7.5,2.0,35.9
12/04/2018,-,12.0,4.0,0.9
13/04/2018,-,12.5,5.5,8.6
14/04/2018,-,14.0,5.0,0.5
15/04/2018,-,15.0,5.0,14.7
16/04/2018,-,12.5,5.0,0.0
17/04/2018,-,20.0,3.5,0.0
18/04/2018,-,21.5,8.0,0.0
19/04/2018,-,20.0,11.0,0.0
20/04/2018,-,19.0,9.5,0.0
21/04/2018,-,19.5,9.0,0.0
22/04/2018,-,20.0,10.0,0.0
23/04/2018,-,20.0,9.0,0.0
24/04/2018,-,22.0,7.0,0.0
25/04/2018,-,17.0,11.0,0.0
26/04/2018,-,17.5,7.0,0.0
27/04/2018,-,16.0,7.0,0.6
28/04/2018,-,17.5,6.0,0.0
29/04/2018,-,12.0,5.5,5.8
30/04/2018,-,12.0,3.0,0.5
01/05/2018,-,11.0,3.0,0.0
02/05/2018,-,13.5,2.0,2.7
03/05/2018,-,8.0,5.0,0.2
04/05/2018,-,11.5,4.5,0.0
05/05/2018,-,17.0,6.5,0.0
06/05/2018,-,23.0,7.5,0.0
07/05/2018,-,24.0,7.5,1.0
08/05/2018,-,17.5,12.0,0.0
09/05/2018,-,16.0,7.5,0.0
10/05/2018,-,12.5,6.5,0.0
11/05/2018,-,20.0,1.0,0.0
12/05/2018,-,10.5,6.0,0.0
13/05/2018,-,10.0,2.5,3.8
14/05/2018,-,11.5,4.5,0.2
15/05/2018,-,12.5,5.5,0.0
16/05/2018,-,18.0,6.5,0.0
17/05/2018,-,18.0,6.0,0.0
18/05/2018,-,19.0,9.5,0.0
19/05/2018,-,20.0,10.0,0.0
20/05/2018,-,21.5,9.0,0.4
21/05/2018,-,22.0,9.5,1.0
22/05/2018,-,20.0,9.0,0.0
23/05/2018,-,18.5,9.0,2.4
24/05/2018,-,22.0,13.0,0.8
25/05/2018,-,20.0,13.0,9.9
26/05/2018,-,21.0,11.5,25.0
27/05/2018,-,22.5,11.5,4.9
28/05/2018,-,19.5,11.5,0.0
29/05/2018,-,19.5,11.0,5.3
30/05/2018,-,19.5,11.0,3.5
31/05/2018,-,19.0,10.5,0.6
01/06/2018,-,22.0,12.0,4.4
02/06/2018,-,23.0,11.5,0.0
03/06/2018,-,23.0,12.5,2.2
04/06/2018,-,18.0,12.0,0.0
05/06/2018,-,18.5,11.5,5.6
06/06/2018,-,17.5,8.5,0.0
07/06/2018,-,21.0,11.0,0.0
08/06/2018,-,22.0,12.0,0.1
09/06/2018,-,19.5,13.0,3.7
10/06/2018,-,21.0,11.0,5.2
11/06/2018,-,17.0,8.5,2.8
12/06/2018,-,17.0,9.5,1.0
13/06/2018,-,14.5,11.0,0.1
14/06/2018,-,17.0,9.5,0.0
15/06/2018,-,18.0,10.0,0.0
16/06/2018,-,18.0,11.5,0.0
17/06/2018,-,19.5,10.5,0.0
18/06/2018,-,19.0,11.5,0.0
19/06/2018,-,24.5,12.0,0.0
20/06/2018,-,29.5,14.0,0.0
21/06/2018,-,28.5,15.5,0.0
22/06/2018,-,23.5,16.0,0.0
23/06/2018,-,25.5,13.0,0.0
24/06/2018,-,29.5,12.0,0.0
25/06/2018,-,29.0,15.5,0.0
26/06/2018,-,31.0,12.5,0.0
27/06/2018,-,28.5,16.0,0.0
28/06/2018,-,27.5,14.5,1.5
29/06/2018,-,28.0,14.5,0.6
30/06/2018,-,29.0,14.5,12.8
01/07/2018,-,28.5,15.0,0.0
02/07/2018,-,27.0,14.0,0.0
03/07/2018,-,28.5,15.5,0.0
04/07/2018,-,28.5,16.0,16.9
05/07/2018,-,20.0,13.5,0.0
06/07/2018,-,23.0,12.0,0.0
07/07/2018,-,28.0,14.0,6.5
08/07/2018,-,27.0,15.0,1.6
09/07/2018,-,25.5,17.0,0.0
10/07/2018,-,24.0,17.5,0.0
11/07/2018,-,24.5,15.0,0.0
12/07/2018,-,24.0,15.0,0.0
13/07/2018,-,28.5,15.5,7.2
14/07/2018,-,30.0,14.0,3.3
15/07/2018,-,28.0,15.0,0.0
16/07/2018,-,19.5,15.5,0.0
17/07/2018,-,27.5,13.0,0.0
18/07/2018,-,28.0,15.5,3.4
19/07/2018,-,29.0,15.5,0.0
20/07/2018,-,20.0,15.5,0.0
21/07/2018,-,19.0,12.0,0.0
22/07/2018,-,23.0,12.5,0.0
23/07/2018,-,29.5,12.5,0.0
24/07/2018,-,28.0,18.5,0.0
25/07/2018,-,30.0,16.5,0.0
26/07/2018,-,32.0,17.0,0.0
27/07/2018,-,29.0,15.5,0.0
28/07/2018,-,23.5,16.0,0.0
29/07/2018,-,29.5,14.0,0.0
30/07/2018,-,31.0,14.5,0.0
31/07/2018,-,25.0,17.0,0.0
01/08/2018,-,30.5,16.5,0.0
02/08/2018,-,33.0,15.5,0.0
03/08/2018,-,33.0,18.5,0.0
04/08/2018,-,30.0,20.0,0.0
05/08/2018,-,31.0,20.0,0.0
06/08/2018,-,34.0,17.0,0.0
07/08/2018,-,30.0,21.0,0.0
08/08/2018,-,29.5,16.5,3.7
09/08/2018,-,19.0,12.5,0.0
10/08/2018,-,26.5,11.5,0.0
11/08/2018,-,30.0,12.5,0.0
12/08/2018,-,31.5,19.0,2.6
13/08/2018,-,22.5,15.5,3.0
14/08/2018,-,20.5,14.0,0.0
15/08/2018,-,28.5,12.5,0.0
16/08/2018,-,25.0,14.0,0.0
17/08/2018,-,18.5,14.0,0.0
18/08/2018,-,23.0,10.5,0.0
19/08/2018,-,25.5,13.5,0.0
20/08/2018,-,27.0,13.5,0.0
21/08/2018,-,30.5,15.0,0.0
22/08/2018,-,31.5,15.0,0.0
23/08/2018,-,24.0,16.5,0.0
24/08/2018,-,21.5,14.0,0.0
25/08/2018,-,18.0,12.0,0.0
26/08/2018,-,27.5,10.0,0.0
27/08/2018,-,31.0,14.0,0.0
28/08/2018,-,30.0,17.5,0.0
29/08/2018,-,24.0,16.0,0.0
30/08/2018,-,24.5,13.0,0.0
31/08/2018,-,22.5,13.0,0.0
01/09/2018,-,26.0,14.0,0.0
02/09/2018,-,30.0,11.5,0.0
03/09/2018,-,27.5,13.0,0.0
04/09/2018,-,25.5,14.5,0.0
05/09/2018,-,23.0,14.0,3.0
06/09/2018,-,23.5,13.5,0.0
07/09/2018,-,20.5,12.5,0.0
08/09/2018,-,26.0,12.5,2.3
09/09/2018,-,24.5,13.5,0.0
10/09/2018,-,25.5,14.5,0.0
11/09/2018,-,26.5,11.5,0.0
12/09/2018,-,26.0,15.5,0.0
13/09/2018,-,21.5,13.5,0.0
14/09/2018,-,25.0,13.5,0.0
15/09/2018,-,28.5,12.0,0.0
16/09/2018,-,28.0,12.0,0.0
17/09/2018,-,27.5,15.5,0.0
18/09/2018,-,26.5,17.0,0.0
19/09/2018,-,29.0,14.0,0.0
20/09/2018,-,28.5,13.5,0.0
21/09/2018,-,24.0,16.0,0.0
22/09/2018,-,27.5,13.0,0.0
23/09/2018,-,31.0,15.0,0.0
24/09/2018,-,17.5,13.5,0.0
25/09/2018,-,21.5,8.0,0.0
26/09/2018,-,22.0,10.5,0.0
27/09/2018,-,25.5,13.5,0.0
28/09/2018,-,26.0,14.0,0.0
29/09/2018,-,23.0,13.5,0.0
30/09/2018,-,21.0,8.0,0.0
01/10/2018,-,15.0,10.0,0.0
02/10/2018,-,17.0,6.5,0.0
03/10/2018,-,22.0,8.0,0.0
04/10/2018,-,22.5,9.0,0.0
05/10/2018,-,22.0,11.5,0.0
06/10/2018,-,21.0,10.5,0.0
07/10/2018,-,11.0,7.5,6.3
08/10/2018,-,15.0,8.0,0.0
09/10/2018,-,15.5,5.5,0.0
10/10/2018,-,15.0,10.5,1.7
11/10/2018,-,18.0,11.5,1.9
12/10/2018,-,22.5,13.5,0.0
13/10/2018,-,21.5,13.0,0.0
14/10/2018,-,16.0,15.0,33.4
15/10/2018,-,17.0,10.0,0.0
16/10/2018,-,18.5,10.5,0.0
17/10/2018,-,19.0,8.0,0.0
18/10/2018,-,18.0,8.0,0.0
19/10/2018,-,19.0,13.0,0.0
20/10/2018,-,20.0,11.5,0.0
21/10/2018,-,21.0,9.5,0.0
22/10/2018,-,16.0,9.5,0.0
23/10/2018,-,18.0,9.0,0.0
24/10/2018,-,20.5,8.0,0.0
25/10/2018,-,22.5,12.0,0.0
26/10/2018,-,18.0,9.0,1.1
27/10/2018,-,7.0,4.5,2.2
28/10/2018,-,3.0,1.0,11.9
29/10/2018,-,4.0,0.0,12.7
30/10/2018,-,6.5,-1.0,9.4
31/10/2018,-,8.0,4.0,24.0
01/11/2018,-,9.5,4.5,9.5
02/11/2018,-,10.0,5.5,0.6
03/11/2018,-,10.5,4.0,0.0
04/11/2018,-,11.5,0.0,3.8
05/11/2018,-,7.5,6.5,20.7
06/11/2018,-,9.5,3.5,0.5
07/11/2018,-,12.0,5.5,2.4
08/11/2018,-,9.0,1.5,10.2
09/11/2018,-,11.0,5.0,1.6
10/11/2018,-,11.0,6.0,2.3
11/11/2018,-,12.5,7.0,0.9
12/11/2018,-,12.0,10.0,4.3
13/11/2018,-,14.5,8.5,0.0
14/11/2018,-,13.0,9.5,1.8
15/11/2018,-,13.0,10.5,0.0
16/11/2018,-,12.0,10.0,0.0
17/11/2018,-,11.0,9.5,23.1
18/11/2018,-,10.0,6.0,5.2
19/11/2018,-,12.5,5.0,2.2
20/11/2018,-,5.0,3.5,7.1
21/11/2018,-,8.5,2.5,0.3
22/11/2018,-,8.0,4.0,11.4
23/11/2018,-,7.5,4.0,0.5
24/11/2018,-,8.0,2.0,9.2
25/11/2018,-,8.5,4.5,8.8
26/11/2018,-,8.0,2.5,7.8
27/11/2018,-,10.0,3.5,0.0
28/11/2018,-,10.0,4.5,0.0
29/11/2018,-,8.0,0.0,4.3
30/11/2018,-,9.5,4.5,0.6
01/12/2018,-,9.0,3.0,1.4
02/12/2018,-,12.0,6.0,0.2
03/12/2018,-,11.5,6.5,0.0
04/12/2018,-,15.0,7.5,0.0
05/12/2018,-,12.5,7.0,0.0
06/12/2018,-,11.0,7.0,0.0
07/12/2018,-,11.0,0.5,0.3
08/12/2018,-,10.5,3.5,0.0
09/12/2018,-,11.0,5.0,0.0
10/12/2018,-,9.0,5.0,0.0
11/12/2018,-,10.5,2.0,0.0
12/12/2018,-,9.0,4.0,4.6
13/12/2018,-,6.0,4.5,21.9
14/12/2018,-,8.5,4.5,2.6
15/12/2018,-,11.0,2.0,19.3
16/12/2018,-,10.5,7.0,4.0
17/12/2018,-,7.0,0.0,0.0
18/12/2018,-,5.5,1.5,1.2
19/12/2018,-,9.0,2.5,0.0
20/12/2018,-,11.0,3.5,0.0
21/12/2018,-,8.5,4.0,0.0
22/12/2018,-,13.5,5.5,0.0
23/12/2018,-,12.0,2.0,0.0
24/12/2018,-,13.5,5.0,0.0
25/12/2018,-,13.5,6.0,0.0
26/12/2018,-,5.0,3.5,0.0
27/12/2018,-,8.0,-2.0,0.0
