Fecha, Temperatura media, Temperatura maxima, Temperatura minima, Precipitacion acumulada
01/01/2015,4.6,16.8,-2.5,0.0
02/01/2015,4.7,15.8,-0.3,0.0
03/01/2015,5.4,16.7,-1.1,0.0
04/01/2015,7.7,15.5,0.4,0.0
05/01/2015,2.1,11.3,-2.2,0.0
06/01/2015,3.5,12.7,-3.0,0.1
07/01/2015,3.3,12.5,-1.8,0.0
08/01/2015,2.2,8.4,-1.0,0.1
09/01/2015,6.2,18.2,-0.5,0.0
10/01/2015,7.1,19.0,0.8,0.0
11/01/2015,6.7,13.5,-1.9,0.0
12/01/2015,1.5,11.0,-4.6,0.1
13/01/2015,2.8,11.0,-2.5,0.0
14/01/2015,5.0,11.6,-1.0,0.0
15/01/2015,7.1,9.2,5.1,0.0
16/01/2015,4.5,8.2,1.6,7.4
17/01/2015,2.5,9.3,-1.9,1.9
18/01/2015,0.8,2.9,-2.6,2.7
19/01/2015,1.5,6.0,-0.9,11.8
20/01/2015,0.2,3.2,-1.8,0.7
21/01/2015,1.7,5.6,-0.6,2.8
22/01/2015,2.1,6.0,-0.9,5.1
23/01/2015,3.6,7.1,0.9,0.0
24/01/2015,4.8,9.6,-0.0,0.1
25/01/2015,3.8,8.3,0.1,0.0
26/01/2015,4.4,9.4,-0.3,0.0
27/01/2015,6.0,9.8,3.4,1.1
28/01/2015,6.1,8.9,3.9,0.0
29/01/2015,7.3,13.4,0.8,2.9
30/01/2015,5.1,10.1,3.4,53.6
31/01/2015,2.2,4.7,-0.1,29.8
01/02/2015,1.4,4.9,0.1,17.2
02/02/2015,2.8,7.0,0.3,2.0
03/02/2015,2.0,5.5,-0.7,4.9
04/02/2015,-0.2,2.7,-2.5,1.0
05/02/2015,0.4,4.1,-2.1,0.0
06/02/2015,-1.5,0.7,-3.8,0.2
07/02/2015,-0.4,5.5,-3.6,0.1
08/02/2015,1.4,7.3,-4.2,0.0
09/02/2015,2.5,9.2,-3.3,0.0
10/02/2015,0.7,9.7,-5.3,0.0
11/02/2015,2.0,8.4,-4.4,0.1
12/02/2015,5.7,10.2,1.5,0.0
13/02/2015,5.9,10.9,0.8,0.0
14/02/2015,5.3,7.4,1.2,4.4
15/02/2015,6.9,10.6,3.2,9.0
16/02/2015,6.0,10.1,2.5,2.9
17/02/2015,6.0,10.7,2.8,1.8
18/02/2015,3.6,9.6,-2.0,0.0
19/02/2015,2.8,11.7,-3.3,0.0
20/02/2015,3.8,8.3,-1.9,2.9
21/02/2015,4.1,6.2,2.3,20.5
22/02/2015,4.5,7.7,2.3,4.0
23/02/2015,7.3,15.5,3.0,6.0
24/02/2015,3.2,5.9,1.4,22.9
25/02/2015,6.6,9.1,3.3,24.1
26/02/2015,9.3,12.2,8.2,6.6
27/02/2015,4.8,8.6,2.4,6.6
28/02/2015,7.1,14.1,1.5,0.9
01/03/2015,12.0,16.9,7.6,0.0
02/03/2015,12.7,16.8,8.7,0.7
03/03/2015,11.2,17.6,8.2,0.2
04/03/2015,6.0,9.1,2.5,6.2
05/03/2015,5.3,10.7,1.6,0.2
06/03/2015,9.0,18.2,1.6,0.0
07/03/2015,9.3,22.6,-0.9,0.0
08/03/2015,10.2,21.4,2.4,0.0
09/03/2015,9.3,23.0,-1.4,0.0
10/03/2015,10.2,22.7,0.6,0.0
11/03/2015,11.0,23.0,2.7,0.0
12/03/2015,10.2,22.4,1.4,0.0
13/03/2015,7.9,13.5,2.4,0.2
14/03/2015,3.8,7.6,1.7,7.0
15/03/2015,4.4,9.2,1.8,0.9
16/03/2015,5.2,11.1,0.4,0.0
17/03/2015,5.8,14.0,-1.1,0.0
18/03/2015,8.2,14.8,2.8,1.8
19/03/2015,9.7,16.6,6.1,7.4
20/03/2015,8.3,13.0,5.1,1.0
21/03/2015,7.1,10.7,4.4,6.8
22/03/2015,6.6,10.5,3.1,2.9
23/03/2015,4.7,8.1,0.4,32.4
24/03/2015,6.4,9.9,1.8,1.9
25/03/2015,3.4,8.5,0.3,10.1
26/03/2015,6.7,10.6,1.3,2.3
27/03/2015,10.8,15.3,7.2,0.0
28/03/2015,12.4,19.1,6.6,0.0
29/03/2015,11.9,19.8,5.9,0.0
30/03/2015,11.3,16.6,5.9,0.0
31/03/2015,11.9,18.0,5.3,0.0
01/04/2015,9.1,14.4,1.2,0.0
02/04/2015,9.1,21.0,-0.8,0.0
03/04/2015,10.5,22.6,1.2,0.0
04/04/2015,9.2,14.7,6.2,0.0
05/04/2015,10.3,17.0,4.6,0.0
06/04/2015,9.6,18.7,1.2,0.0
07/04/2015,10.2,17.4,1.2,0.0
08/04/2015,9.6,16.5,1.7,0.0
09/04/2015,9.8,15.9,3.0,0.0
10/04/2015,11.5,17.6,7.1,0.2
11/04/2015,12.1,20.3,5.3,0.3
12/04/2015,12.0,21.2,3.6,0.0
13/04/2015,12.4,22.4,3.0,0.0
14/04/2015,14.7,24.4,3.7,0.0
15/04/2015,11.7,16.7,6.0,0.0
16/04/2015,10.8,16.1,5.3,0.7
17/04/2015,11.9,18.9,6.2,0.0
18/04/2015,11.0,19.8,6.8,2.7
19/04/2015,9.8,16.2,3.9,0.3
20/04/2015,10.6,21.1,0.7,0.0
21/04/2015,13.2,21.8,4.0,0.0
22/04/2015,12.2,19.6,6.8,1.8
23/04/2015,12.1,20.8,5.0,0.0
24/04/2015,13.3,21.8,4.4,0.1
25/04/2015,14.7,19.9,9.5,0.2
26/04/2015,11.1,15.5,7.9,19.1
27/04/2015,10.9,17.3,7.5,0.2
28/04/2015,9.4,16.2,3.9,0.0
29/04/2015,10.2,17.5,4.6,0.0
30/04/2015,12.4,22.3,3.2,0.0
01/05/2015,14.6,19.0,10.9,2.1
02/05/2015,16.3,22.5,10.7,0.0
03/05/2015,16.3,20.6,13.3,0.8
04/05/2015,17.8,22.9,13.2,0.6
05/05/2015,15.4,22.4,6.7,0.0
06/05/2015,11.8,21.2,3.9,0.0
07/05/2015,15.3,25.1,5.3,0.0
08/05/2015,16.3,23.5,9.6,0.0
09/05/2015,15.0,26.2,6.8,0.0
10/05/2015,17.4,28.5,7.0,0.0
11/05/2015,18.8,30.0,9.0,0.0
12/05/2015,19.2,31.0,8.5,0.0
13/05/2015,19.8,29.4,12.4,0.0
14/05/2015,14.5,22.8,7.5,0.0
15/05/2015,9.7,11.3,8.0,1.2
16/05/2015,13.1,19.2,9.4,0.0
17/05/2015,14.7,22.8,5.7,0.0
18/05/2015,13.6,26.7,2.8,0.0
19/05/2015,11.8,17.7,7.6,0.0
20/05/2015,10.4,16.6,6.7,0.0
21/05/2015,10.2,17.2,4.2,0.1
22/05/2015,10.9,18.1,4.9,0.0
23/05/2015,12.7,18.5,8.4,0.0
24/05/2015,15.1,21.2,8.1,0.0
25/05/2015,14.6,21.6,8.8,0.0
26/05/2015,12.4,17.1,7.0,0.0
27/05/2015,15.7,23.2,9.6,0.0
28/05/2015,15.1,27.6,5.3,0.0
29/05/2015,13.5,23.1,5.4,0.0
30/05/2015,14.4,26.3,3.5,0.0
31/05/2015,16.8,27.9,6.9,0.0
01/06/2015,18.2,27.7,10.1,0.0
02/06/2015,20.1,30.0,9.9,0.0
03/06/2015,21.8,31.3,13.0,0.0
04/06/2015,22.2,32.1,12.2,0.0
05/06/2015,20.9,31.6,9.6,0.0
06/06/2015,18.9,30.3,10.4,0.0
07/06/2015,20.4,32.1,9.6,0.0
08/06/2015,21.6,30.9,12.2,0.0
09/06/2015,18.3,25.7,11.0,0.7
10/06/2015,14.0,17.3,12.0,59.6
11/06/2015,14.8,17.5,11.0,31.7
12/06/2015,16.2,24.5,9.5,0.1
13/06/2015,15.5,22.3,11.1,3.8
14/06/2015,14.5,22.8,8.4,4.1
15/06/2015,14.5,22.1,7.6,0.1
16/06/2015,14.0,18.6,11.1,0.0
17/06/2015,15.5,21.7,9.7,0.0
18/06/2015,17.4,23.5,9.0,0.0
19/06/2015,16.2,24.2,9.3,0.0
20/06/2015,18.0,27.5,8.2,0.0
21/06/2015,19.5,30.5,9.7,0.0
22/06/2015,20.2,32.7,10.0,4.3
23/06/2015,18.4,25.7,10.2,0.0
24/06/2015,17.9,27.9,8.5,0.0
25/06/2015,19.9,31.3,8.0,0.0
26/06/2015,22.5,34.6,12.1,0.0
27/06/2015,21.4,31.9,12.3,0.0
28/06/2015,22.3,33.8,11.4,0.0
29/06/2015,23.9,35.0,12.2,0.0
30/06/2015,26.0,36.7,16.0,0.0
01/07/2015,27.2,35.7,17.5,0.0
02/07/2015,24.4,32.4,19.3,0.0
03/07/2015,26.4,34.5,16.7,0.0
04/07/2015,26.1,35.5,15.8,0.0
05/07/2015,22.9,32.6,15.4,0.0
06/07/2015,24.6,35.7,13.8,0.0
07/07/2015,24.5,35.5,14.4,0.0
08/07/2015,18.0,23.7,10.0,0.0
09/07/2015,18.9,29.0,9.4,0.0
10/07/2015,22.5,35.7,11.1,0.0
11/07/2015,20.0,27.9,13.9,0.0
12/07/2015,20.4,30.7,12.0,0.0
13/07/2015,21.1,33.0,10.1,0.0
14/07/2015,23.0,34.2,10.5,0.0
15/07/2015,25.6,35.8,13.4,0.0
16/07/2015,24.6,32.7,18.2,0.2
17/07/2015,24.1,34.9,15.4,0.4
18/07/2015,22.2,33.3,16.2,24.0
19/07/2015,23.0,31.8,16.2,0.1
20/07/2015,25.0,34.0,15.9,0.0
21/07/2015,23.8,32.6,17.2,10.2
22/07/2015,20.6,26.5,15.3,0.0
23/07/2015,22.3,31.4,13.8,0.0
24/07/2015,22.0,32.2,15.1,0.0
25/07/2015,17.6,22.4,10.7,0.0
26/07/2015,19.4,30.8,8.6,0.0
27/07/2015,19.8,26.2,14.9,0.0
28/07/2015,21.1,30.4,13.1,0.0
29/07/2015,20.2,28.3,13.4,0.0
30/07/2015,14.9,18.8,11.7,14.3
31/07/2015,16.1,21.2,13.2,6.6
01/08/2015,16.4,22.5,10.5,0.0
02/08/2015,20.9,30.8,10.3,0.0
03/08/2015,23.3,31.6,16.5,4.3
04/08/2015,20.8,26.2,16.2,0.7
05/08/2015,23.5,34.0,15.6,0.0
06/08/2015,24.1,34.3,14.2,0.0
07/08/2015,21.3,27.4,16.1,0.0
08/08/2015,16.8,21.5,13.2,0.7
09/08/2015,17.6,23.9,12.6,0.0
10/08/2015,21.0,32.6,10.3,0.0
11/08/2015,22.9,34.3,13.2,0.2
12/08/2015,24.9,33.4,16.8,0.0
13/08/2015,19.9,27.0,15.9,2.1
14/08/2015,17.1,23.0,15.0,0.0
15/08/2015,16.6,22.6,9.1,0.0
16/08/2015,17.4,26.5,6.6,0.0
17/08/2015,18.6,25.4,13.4,0.0
18/08/2015,17.5,26.3,10.6,0.0
19/08/2015,18.0,28.1,8.1,0.0
20/08/2015,20.2,32.6,8.5,0.0
21/08/2015,23.4,33.6,12.1,0.0
22/08/2015,22.8,29.8,16.1,10.0
23/08/2015,20.4,25.9,14.7,0.0
24/08/2015,16.9,23.8,10.3,0.1
25/08/2015,17.8,28.0,8.4,0.0
26/08/2015,22.3,31.7,12.4,0.0
27/08/2015,24.0,32.3,17.4,0.0
28/08/2015,24.0,33.8,14.3,0.0
29/08/2015,25.7,34.1,16.3,0.0
30/08/2015,24.0,32.3,14.4,2.1
31/08/2015,19.1,29.3,15.6,29.9
01/09/2015,16.8,21.7,12.0,0.1
02/09/2015,16.2,23.6,9.6,2.2
03/09/2015,15.5,21.2,10.5,0.6
04/09/2015,13.8,20.6,8.9,0.0
05/09/2015,14.4,21.5,9.3,0.0
06/09/2015,15.1,23.6,7.3,0.0
07/09/2015,16.2,23.1,10.8,0.0
08/09/2015,15.2,24.7,7.3,0.0
09/09/2015,17.5,25.6,8.8,0.0
10/09/2015,18.0,23.7,12.1,0.1
11/09/2015,19.2,26.6,11.8,0.0
12/09/2015,19.9,25.0,14.6,1.2
13/09/2015,16.1,20.3,10.6,0.2
14/09/2015,16.1,23.2,10.9,0.0
15/09/2015,14.7,17.8,11.4,0.8
16/09/2015,17.8,22.1,14.8,1.9
17/09/2015,13.5,21.1,6.9,1.1
18/09/2015,12.4,20.8,4.3,0.0
19/09/2015,13.9,23.8,5.5,0.0
20/09/2015,14.5,26.9,5.4,0.0
21/09/2015,15.6,26.8,5.2,0.0
22/09/2015,14.7,22.0,8.9,0.0
23/09/2015,13.4,18.5,8.9,1.2
24/09/2015,14.8,26.2,6.3,0.0
25/09/2015,16.2,27.3,6.9,0.0
26/09/2015,16.2,27.5,8.7,0.0
27/09/2015,14.3,24.7,5.9,0.0
28/09/2015,14.3,23.5,6.2,0.0
29/09/2015,14.5,22.4,7.5,13.2
30/09/2015,14.6,22.1,10.0,1.7
01/10/2015,14.8,24.7,7.5,0.0
02/10/2015,11.9,18.0,7.3,0.8
03/10/2015,11.7,21.0,4.3,0.0
04/10/2015,12.0,15.5,6.4,1.8
05/10/2015,19.5,24.4,14.4,0.0
06/10/2015,16.3,21.4,12.2,2.3
07/10/2015,13.0,18.2,9.1,0.0
08/10/2015,12.7,20.5,6.6,0.0
09/10/2015,11.8,21.9,3.9,0.0
10/10/2015,12.8,23.1,5.1,0.0
11/10/2015,14.0,17.3,10.7,0.2
12/10/2015,14.7,21.3,10.0,2.8
13/10/2015,11.5,16.7,8.6,0.0
14/10/2015,9.1,14.6,2.8,0.0
15/10/2015,8.0,17.5,0.4,0.0
16/10/2015,7.4,16.4,-0.2,0.0
17/10/2015,10.7,18.9,1.9,2.0
18/10/2015,14.4,19.7,12.5,0.6
19/10/2015,14.8,16.9,13.4,4.0
20/10/2015,11.8,15.4,9.5,1.8
21/10/2015,9.9,14.8,5.0,0.0
22/10/2015,10.7,16.2,6.6,0.0
23/10/2015,11.4,20.5,3.4,0.0
24/10/2015,13.9,18.5,8.8,0.0
25/10/2015,15.0,21.0,9.6,0.0
26/10/2015,14.8,20.6,9.1,0.0
27/10/2015,12.2,16.7,5.5,6.4
28/10/2015,10.4,18.1,5.5,0.6
29/10/2015,12.9,19.7,8.5,0.0
30/10/2015,13.9,21.3,7.1,0.0
31/10/2015,13.0,18.5,8.7,0.0
01/11/2015,12.8,17.9,7.7,0.0
02/11/2015,11.7,14.2,10.4,19.4
03/11/2015,11.1,13.1,9.5,6.0
04/11/2015,12.0,16.6,6.9,0.2
05/11/2015,13.0,15.6,10.5,0.0
06/11/2015,13.2,20.3,8.3,0.0
07/11/2015,13.4,22.3,8.4,0.0
08/11/2015,13.7,21.1,9.2,0.0
09/11/2015,12.2,20.8,7.7,0.0
10/11/2015,10.8,12.8,7.9,0.2
11/11/2015,8.7,13.0,5.7,0.1
12/11/2015,8.6,10.6,7.3,0.3
13/11/2015,11.2,17.6,4.0,0.0
14/11/2015,11.2,18.3,4.7,0.0
15/11/2015,7.7,13.7,3.2,0.0
16/11/2015,6.6,17.3,-0.3,0.1
17/11/2015,8.0,18.0,1.0,0.0
18/11/2015,10.8,20.5,5.2,0.0
19/11/2015,11.7,20.3,6.2,0.0
20/11/2015,10.2,15.4,4.9,0.0
21/11/2015,6.8,12.9,2.7,20.3
22/11/2015,2.7,5.2,-0.6,12.1
23/11/2015,2.2,5.2,-2.4,0.4
24/11/2015,5.2,8.2,0.2,1.4
25/11/2015,9.5,11.2,7.3,19.1
26/11/2015,10.0,12.8,8.2,0.1
27/11/2015,9.4,11.9,8.0,0.1
28/11/2015,7.7,10.6,3.0,0.2
29/11/2015,5.8,13.4,0.7,0.0
30/11/2015,3.8,13.8,-1.4,0.0
01/12/2015,2.4,12.1,-2.7,0.1
02/12/2015,3.9,14.1,-1.5,0.0
03/12/2015,4.1,12.0,-0.9,0.0
04/12/2015,7.6,16.1,1.3,0.0
05/12/2015,6.9,13.6,2.7,0.0
06/12/2015,8.2,10.6,3.4,0.0
07/12/2015,9.6,12.1,8.6,0.0
08/12/2015,9.5,11.1,8.3,0.3
09/12/2015,8.4,15.5,2.1,0.0
10/12/2015,5.7,8.6,1.5,0.0
11/12/2015,5.6,6.3,4.5,0.0
12/12/2015,4.3,5.2,3.7,0.2
13/12/2015,3.9,4.5,3.3,0.1
14/12/2015,3.9,6.9,2.2,0.4
15/12/2015,6.2,11.1,2.2,0.0
16/12/2015,6.1,14.0,1.9,0.0
17/12/2015,6.0,13.7,1.5,0.0
18/12/2015,6.8,14.5,1.6,0.0
19/12/2015,7.0,14.6,1.7,0.0
20/12/2015,7.3,13.8,3.7,0.0
21/12/2015,6.4,12.1,-0.1,0.1
22/12/2015,4.5,9.5,0.3,0.1
23/12/2015,2.3,5.1,-1.3,0.2
24/12/2015,5.8,7.5,4.1,0.2
25/12/2015,6.0,8.5,3.8,0.0
26/12/2015,3.3,6.2,0.4,0.0
27/12/2015,3.0,7.7,0.4,0.0
28/12/2015,8.8,12.0,4.4,0.0
29/12/2015,6.7,13.6,2.0,1.8
30/12/2015,4.8,10.3,-0.1,0.0
31/12/2015,6.6,10.8,0.1,2.1
