Fecha, Temperatura media, Temperatura maxima, Temperatura minima, Precipitacion acumulada
01/01/2014,-,13.5,5.0,1.2
02/01/2014,-,13.5,7.5,3.4
03/01/2014,-,15.5,8.0,4.2
04/01/2014,-,13.0,8.5,7.2
05/01/2014,-,13.5,1.0,2.2
06/01/2014,-,12.0,7.5,0.0
07/01/2014,-,14.0,8.5,0.0
08/01/2014,-,15.5,10.5,0.0
09/01/2014,-,15.0,11.5,0.0
10/01/2014,-,15.5,2.5,0.0
11/01/2014,-,13.5,4.0,0.0
12/01/2014,-,13.5,5.0,5.6
13/01/2014,-,10.5,5.0,4.4
14/01/2014,-,8.0,4.0,7.4
15/01/2014,-,11.5,4.0,3.1
16/01/2014,-,11.0,6.0,0.0
17/01/2014,-,9.0,3.5,0.6
18/01/2014,-,7.5,4.0,7.4
19/01/2014,-,6.0,-1.5,6.2
20/01/2014,-,4.5,-1.0,27.0
21/01/2014,-,10.0,0.5,9.0
22/01/2014,-,8.0,3.0,38.5
23/01/2014,-,8.5,3.5,15.0
24/01/2014,-,10.5,3.5,80.2
25/01/2014,-,11.0,5.5,36.0
26/01/2014,-,14.0,7.5,21.3
27/01/2014,-,5.5,2.5,23.9
28/01/2014,-,7.5,0.0,4.5
29/01/2014,-,7.5,-0.5,21.5
30/01/2014,-,5.0,-1.0,28.7
31/01/2014,-,10.5,1.0,12.3
01/02/2014,-,7.0,4.0,30.6
02/02/2014,-,8.0,3.0,1.2
03/02/2014,-,5.0,0.0,0.0
04/02/2014,-,9.5,-1.0,4.7
05/02/2014,-,11.5,3.0,0.5
06/02/2014,-,16.0,3.5,7.8
07/02/2014,-,11.0,2.0,3.5
08/02/2014,-,11.0,5.0,5.7
09/02/2014,-,8.0,-1.0,17.7
10/02/2014,-,5.5,2.0,25.7
11/02/2014,-,6.5,-1.5,7.0
12/02/2014,-,12.5,-0.5,0.0
13/02/2014,-,15.0,6.0,0.0
14/02/2014,-,19.0,5.0,2.6
15/02/2014,-,10.0,7.0,0.0
16/02/2014,-,10.5,2.0,0.5
17/02/2014,-,11.5,0.0,0.0
18/02/2014,-,9.0,3.0,9.0
19/02/2014,-,8.5,1.5,2.6
20/02/2014,-,15.5,1.5,22.6
21/02/2014,-,9.0,2.0,0.0
22/02/2014,-,11.0,-0.5,0.7
23/02/2014,-,14.0,1.0,0.0
24/02/2014,-,13.0,6.0,0.0
25/02/2014,-,12.5,6.5,10.0
26/02/2014,-,5.5,-1.0,9.0
27/02/2014,-,10.0,0.0,9.8
28/02/2014,-,5.5,2.5,35.8
01/03/2014,-,7.5,0.5,33.4
02/03/2014,-,12.0,2.5,33.5
03/03/2014,-,9.5,1.5,41.3
04/03/2014,-,9.0,2.0,29.7
05/03/2014,-,9.0,4.0,19.3
06/03/2014,-,12.5,4.0,0.0
07/03/2014,-,18.0,5.0,0.0
08/03/2014,-,18.5,8.5,0.0
09/03/2014,-,17.5,13.0,0.0
10/03/2014,-,17.5,7.0,0.0
11/03/2014,-,16.0,6.0,0.0
12/03/2014,-,17.5,3.0,0.0
13/03/2014,-,15.0,6.5,0.0
14/03/2014,-,17.5,8.0,0.0
15/03/2014,-,10.0,2.0,0.0
16/03/2014,-,16.0,5.0,0.0
17/03/2014,-,24.5,6.5,0.0
18/03/2014,-,14.0,5.0,0.0
19/03/2014,-,14.5,5.0,0.0
20/03/2014,-,21.5,4.0,0.0
21/03/2014,-,19.5,8.5,3.4
22/03/2014,-,8.5,5.5,28.3
23/03/2014,-,7.0,-1.0,5.5
24/03/2014,-,9.5,-2.0,25.6
25/03/2014,-,7.5,1.5,57.0
26/03/2014,-,5.5,-0.5,34.5
27/03/2014,-,11.5,0.5,1.3
28/03/2014,-,13.0,2.5,0.0
29/03/2014,-,16.0,7.0,0.0
30/03/2014,-,13.5,8.5,0.0
31/03/2014,-,17.0,9.0,0.0
01/04/2014,-,18.0,10.0,0.0
02/04/2014,-,17.0,11.0,0.5
03/04/2014,-,10.0,6.5,15.8
04/04/2014,-,15.5,6.5,1.7
05/04/2014,-,18.0,7.0,0.0
06/04/2014,-,24.5,7.5,0.0
07/04/2014,-,23.5,12.5,1.1
08/04/2014,-,12.5,7.5,0.0
09/04/2014,-,20.0,3.0,0.0
10/04/2014,-,25.0,7.0,2.3
11/04/2014,-,16.0,8.0,0.0
12/04/2014,-,11.5,7.0,0.2
13/04/2014,-,18.5,8.0,0.0
14/04/2014,-,20.5,4.5,0.0
15/04/2014,-,23.5,6.0,0.0
16/04/2014,-,24.5,6.5,0.0
17/04/2014,-,20.5,10.5,0.0
18/04/2014,-,21.5,7.5,0.0
19/04/2014,-,16.0,7.0,6.0
20/04/2014,-,11.5,10.5,1.1
21/04/2014,-,16.5,2.5,8.0
22/04/2014,-,14.0,6.5,1.2
23/04/2014,-,21.0,9.5,1.6
24/04/2014,-,15.0,5.5,8.9
25/04/2014,-,14.0,5.5,1.4
26/04/2014,-,13.5,6.0,15.0
27/04/2014,-,14.5,5.0,4.0
28/04/2014,-,12.5,6.5,8.6
29/04/2014,-,15.5,7.5,6.4
30/04/2014,-,15.5,8.5,4.2
01/05/2014,-,11.0,9.0,9.2
02/05/2014,-,10.5,6.5,19.2
03/05/2014,-,12.5,6.5,3.9
04/05/2014,-,16.0,3.5,0.0
05/05/2014,-,23.5,4.0,0.0
06/05/2014,-,22.5,9.0,0.0
07/05/2014,-,20.0,9.0,0.0
08/05/2014,-,21.0,5.5,0.0
09/05/2014,-,17.5,7.5,0.0
10/05/2014,-,21.5,7.5,4.5
11/05/2014,-,14.0,7.5,0.9
12/05/2014,-,14.5,3.0,7.7
13/05/2014,-,12.5,5.0,1.6
14/05/2014,-,17.5,5.0,0.0
15/05/2014,-,20.0,5.0,0.0
16/05/2014,-,18.0,4.0,0.0
17/05/2014,-,18.5,5.5,0.0
18/05/2014,-,23.5,4.0,0.0
19/05/2014,-,23.5,13.5,29.7
20/05/2014,-,19.0,9.0,2.8
21/05/2014,-,19.0,10.5,2.2
22/05/2014,-,15.5,8.0,7.5
23/05/2014,-,14.5,3.5,3.7
24/05/2014,-,16.5,3.5,18.7
25/05/2014,-,12.5,7.0,18.5
26/05/2014,-,15.0,6.0,1.4
27/05/2014,-,18.0,5.0,1.9
28/05/2014,-,11.0,7.5,5.4
29/05/2014,-,17.5,7.5,5.0
30/05/2014,-,15.0,8.5,12.0
31/05/2014,-,15.0,8.5,6.6
01/06/2014,-,14.0,9.0,6.5
02/06/2014,-,16.0,7.5,3.7
03/06/2014,-,20.5,5.0,3.3
04/06/2014,-,15.5,5.0,4.0
05/06/2014,-,25.0,4.0,0.0
06/06/2014,-,28.0,14.0,4.9
07/06/2014,-,27.5,10.0,0.0
08/06/2014,-,27.5,10.5,0.0
09/06/2014,-,27.5,9.0,40.5
10/06/2014,-,17.0,11.5,0.0
11/06/2014,-,23.5,12.0,0.0
12/06/2014,-,28.5,15.0,0.0
13/06/2014,-,26.5,15.5,0.0
14/06/2014,-,19.5,10.0,4.2
15/06/2014,-,20.0,13.0,0.0
16/06/2014,-,19.0,11.5,0.0
17/06/2014,-,21.0,11.0,0.0
18/06/2014,-,21.0,11.0,0.0
19/06/2014,-,26.0,7.5,0.0
20/06/2014,-,30.5,12.0,7.4
21/06/2014,-,29.0,14.5,12.0
22/06/2014,-,25.5,13.0,18.8
23/06/2014,-,25.5,12.0,4.0
24/06/2014,-,20.5,13.5,5.8
25/06/2014,-,20.0,14.0,4.0
26/06/2014,-,18.0,13.0,0.3
27/06/2014,-,24.5,8.0,0.0
28/06/2014,-,24.5,12.5,2.5
29/06/2014,-,17.5,11.0,0.6
30/06/2014,-,25.0,6.5,0.0
01/07/2014,-,23.0,12.5,5.6
02/07/2014,-,17.5,11.5,4.5
03/07/2014,-,21.0,13.5,72.5
04/07/2014,-,21.0,14.0,1.9
05/07/2014,-,28.0,12.0,0.0
06/07/2014,-,23.0,15.0,20.6
07/07/2014,-,16.0,11.0,3.6
08/07/2014,-,16.5,9.0,10.2
09/07/2014,-,17.0,11.0,3.5
10/07/2014,-,18.0,10.5,8.5
11/07/2014,-,16.0,11.5,13.1
12/07/2014,-,18.5,12.0,2.8
13/07/2014,-,23.0,9.0,3.6
14/07/2014,-,20.5,14.0,0.4
15/07/2014,-,26.0,12.0,0.0
16/07/2014,-,32.5,13.5,0.0
17/07/2014,-,32.5,17.5,0.0
18/07/2014,-,32.0,14.5,0.0
19/07/2014,-,25.5,15.0,1.0
20/07/2014,-,20.5,11.0,11.0
21/07/2014,-,18.5,12.5,2.5
22/07/2014,-,23.0,13.0,0.0
23/07/2014,-,25.5,14.0,0.0
24/07/2014,-,24.0,13.5,4.9
25/07/2014,-,25.0,16.0,0.0
26/07/2014,-,25.5,15.0,0.0
27/07/2014,-,25.5,12.0,0.0
28/07/2014,-,22.0,14.5,30.5
29/07/2014,-,20.5,12.5,3.7
30/07/2014,-,18.0,12.5,0.7
31/07/2014,-,25.0,12.5,0.0
01/08/2014,-,22.0,15.0,1.5
02/08/2014,-,24.0,14.5,2.4
03/08/2014,-,25.0,13.0,5.7
04/08/2014,-,20.0,14.5,0.0
05/08/2014,-,25.0,12.5,0.0
06/08/2014,-,25.0,12.0,0.0
07/08/2014,-,26.5,12.5,0.0
08/08/2014,-,28.0,15.0,17.5
09/08/2014,-,28.0,14.0,0.0
10/08/2014,-,28.5,17.0,2.5
11/08/2014,-,19.0,13.5,1.5
12/08/2014,-,23.5,11.0,15.5
13/08/2014,-,16.0,11.5,8.5
14/08/2014,-,19.5,10.5,1.7
15/08/2014,-,19.5,10.5,1.2
16/08/2014,-,18.5,10.0,0.2
17/08/2014,-,25.0,7.0,0.0
18/08/2014,-,20.0,12.0,2.0
19/08/2014,-,21.5,12.5,1.0
20/08/2014,-,17.5,12.0,0.0
21/08/2014,-,21.0,8.5,0.0
22/08/2014,-,15.5,9.0,3.2
23/08/2014,-,21.0,8.0,0.0
24/08/2014,-,26.0,7.5,0.0
25/08/2014,-,30.0,9.0,0.0
26/08/2014,-,30.0,11.5,1.5
27/08/2014,-,28.0,16.0,0.0
28/08/2014,-,25.0,16.0,3.4
29/08/2014,-,18.5,13.5,1.6
30/08/2014,-,17.5,13.5,0.3
31/08/2014,-,23.0,13.5,0.0
01/09/2014,-,25.0,13.5,0.0
02/09/2014,-,25.0,10.0,0.0
03/09/2014,-,27.0,12.0,0.0
04/09/2014,-,24.5,11.0,0.0
05/09/2014,-,24.0,10.5,0.0
06/09/2014,-,30.0,11.5,0.0
07/09/2014,-,30.0,15.0,26.0
08/09/2014,-,24.0,14.5,0.0
09/09/2014,-,27.5,14.0,0.0
10/09/2014,-,29.5,14.5,0.0
11/09/2014,-,26.0,14.5,0.0
12/09/2014,-,25.0,14.5,0.0
13/09/2014,-,26.0,8.0,0.0
14/09/2014,-,26.0,11.0,22.9
15/09/2014,-,24.5,10.5,0.0
16/09/2014,-,26.0,12.5,5.7
17/09/2014,-,26.0,16.0,3.5
18/09/2014,-,24.5,12.0,0.0
19/09/2014,-,24.5,13.0,0.0
20/09/2014,-,26.0,13.5,3.0
21/09/2014,-,24.0,11.0,10.2
22/09/2014,-,18.0,14.5,3.0
23/09/2014,-,16.5,11.0,0.0
24/09/2014,-,16.0,7.0,0.0
25/09/2014,-,18.5,8.5,0.0
26/09/2014,-,21.5,6.0,0.0
27/09/2014,-,23.0,8.0,0.5
28/09/2014,-,19.0,14.5,0.0
29/09/2014,-,20.0,13.5,11.2
30/09/2014,-,18.5,13.5,0.0
01/10/2014,-,20.5,11.5,0.0
02/10/2014,-,23.5,10.0,0.0
03/10/2014,-,23.5,9.0,0.0
04/10/2014,-,21.5,10.5,12.0
05/10/2014,-,15.5,10.5,1.4
06/10/2014,-,21.0,6.5,0.0
07/10/2014,-,21.5,14.5,0.0
08/10/2014,-,23.0,14.0,3.5
09/10/2014,-,18.5,15.0,0.6
10/10/2014,-,20.0,11.0,0.5
11/10/2014,-,21.0,10.0,4.0
12/10/2014,-,21.0,13.5,0.4
13/10/2014,-,18.5,11.5,0.0
14/10/2014,-,20.0,11.0,0.0
15/10/2014,-,18.5,8.0,4.0
16/10/2014,-,24.0,12.0,0.0
17/10/2014,-,23.5,15.5,0.0
18/10/2014,-,25.0,15.5,0.0
19/10/2014,-,26.5,18.0,0.0
20/10/2014,-,25.0,16.5,0.0
21/10/2014,-,23.5,14.0,3.7
22/10/2014,-,15.5,9.5,0.0
23/10/2014,-,22.0,4.0,0.0
24/10/2014,-,25.5,7.5,0.0
25/10/2014,-,25.0,11.0,0.0
26/10/2014,-,25.5,11.0,0.0
27/10/2014,-,20.5,10.0,0.0
28/10/2014,-,19.5,11.5,0.0
29/10/2014,-,22.0,13.5,0.0
30/10/2014,-,24.5,12.0,0.0
31/10/2014,-,19.0,12.5,0.0
01/11/2014,-,20.0,12.5,0.0
02/11/2014,-,15.5,11.5,0.0
03/11/2014,-,15.5,8.5,22.6
04/11/2014,-,9.5,5.5,59.3
05/11/2014,-,7.5,3.5,41.6
06/11/2014,-,14.0,3.5,3.0
07/11/2014,-,13.0,5.5,7.9
08/11/2014,-,14.0,3.5,2.7
09/11/2014,-,11.0,4.0,0.6
10/11/2014,-,12.5,1.5,0.0
11/11/2014,-,11.0,3.0,0.0
12/11/2014,-,15.5,4.5,0.0
13/11/2014,-,16.0,5.5,5.2
14/11/2014,-,14.5,10.5,0.9
15/11/2014,-,13.0,5.0,0.0
16/11/2014,-,11.5,5.0,28.7
17/11/2014,-,12.5,5.0,1.6
18/11/2014,-,13.5,3.0,0.0
19/11/2014,-,17.0,8.0,0.0
20/11/2014,-,17.5,8.0,0.0
21/11/2014,-,16.5,8.0,0.0
22/11/2014,-,17.0,11.5,0.0
23/11/2014,-,20.5,11.5,0.0
24/11/2014,-,17.0,10.5,2.2
25/11/2014,-,14.5,10.0,5.1
26/11/2014,-,11.5,8.5,3.2
27/11/2014,-,14.0,6.0,0.8
28/11/2014,-,14.5,9.5,9.1
29/11/2014,-,12.0,9.0,12.7
30/11/2014,-,12.5,9.0,18.5
01/12/2014,-,10.0,7.5,36.0
02/12/2014,-,7.5,4.5,1.9
03/12/2014,-,6.5,2.5,0.0
04/12/2014,-,7.5,0.5,6.5
05/12/2014,-,6.5,2.5,33.0
06/12/2014,-,3.0,1.0,17.6
07/12/2014,-,8.0,-1.5,19.5
08/12/2014,-,8.5,4.0,59.0
09/12/2014,-,5.0,1.5,0.6
10/12/2014,-,9.0,0.0,18.0
11/12/2014,-,9.0,3.0,0.9
12/12/2014,-,10.5,1.0,0.0
13/12/2014,-,11.0,6.0,1.1
14/12/2014,-,10.5,6.5,9.0
15/12/2014,-,9.5,4.0,13.4
16/12/2014,-,10.0,3.5,32.6
17/12/2014,-,10.5,5.5,15.8
18/12/2014,-,9.5,6.5,0.5
19/12/2014,-,9.0,5.5,2.0
20/12/2014,-,10.5,5.5,8.0
21/12/2014,-,11.0,5.5,0.0
22/12/2014,-,15.0,-1.0,0.0
23/12/2014,-,15.0,5.5,0.0
24/12/2014,-,13.0,-0.5,0.9
25/12/2014,-,9.0,7.0,8.0
26/12/2014,-,9.5,3.0,8.4
27/12/2014,-,10.0,3.5,49.7
