Fecha, Temperatura media, Temperatura maxima, Temperatura minima, Precipitacion acumulada
01/01/2015,-,8.0,-7.0,0.0
02/01/2015,-,8.0,-5.0,0.0
03/01/2015,-,12.0,-5.0,6.0
04/01/2015,-,11.0,0.0,0.0
05/01/2015,-,13.0,3.0,0.0
06/01/2015,-,8.0,-1.0,0.2
07/01/2015,-,13.0,1.0,0.0
08/01/2015,-,12.0,-2.0,0.0
09/01/2015,-,15.0,2.0,0.0
10/01/2015,-,12.0,2.0,10.0
11/01/2015,-,11.0,8.0,0.0
12/01/2015,-,15.0,-3.0,0.0
13/01/2015,-,13.0,5.0,1.0
14/01/2015,-,15.0,2.0,0.0
15/01/2015,-,10.0,4.0,5.0
16/01/2015,-,7.0,0.0,30.0
17/01/2015,-,7.0,-1.0,4.0
18/01/2015,-,6.0,2.0,21.0
19/01/2015,-,8.0,2.0,7.0
20/01/2015,-,7.0,1.0,5.0
21/01/2015,-,5.0,0.0,33.0
22/01/2015,-,8.0,0.0,10.0
23/01/2015,-,4.0,0.0,0.0
24/01/2015,-,5.0,1.0,4.0
25/01/2015,-,9.0,-1.0,0.0
26/01/2015,-,7.0,2.0,23.0
27/01/2015,-,8.0,4.0,5.0
28/01/2015,-,9.0,5.0,8.8
29/01/2015,-,11.0,6.0,55.7
30/01/2015,-,7.5,7.0,78.8
31/01/2015,-,5.0,3.5,60.9
01/02/2015,-,-,-,-
02/02/2015,-,-,-,-
03/02/2015,-,-,-,-
04/02/2015,-,-,-,-
05/02/2015,-,-,-,-
06/02/2015,-,-,-,-
07/02/2015,-,-,-,-
08/02/2015,-,-,-,-
09/02/2015,-,-,-,-
10/02/2015,-,-,-,-
11/02/2015,-,-,-,-
12/02/2015,-,-,-,-
13/02/2015,-,-,-,-
14/02/2015,-,-,-,-
15/02/2015,-,-,-,-
16/02/2015,-,-,-,-
17/02/2015,-,-,-,-
18/02/2015,-,-,-,-
19/02/2015,-,-,-,-
20/02/2015,-,-,-,-
21/02/2015,-,-,-,-
22/02/2015,-,-,-,-
23/02/2015,-,-,-,-
24/02/2015,-,-,-,-
25/02/2015,-,-,-,-
26/02/2015,-,-,-,-
27/02/2015,-,-,-,-
28/02/2015,-,-,-,-
01/03/2015,-,14.0,5.0,2.8
02/03/2015,-,12.0,10.0,4.3
03/03/2015,-,14.0,9.0,16.4
04/03/2015,-,8.0,6.0,3.1
05/03/2015,-,10.0,4.0,0.0
06/03/2015,-,18.0,1.0,0.0
07/03/2015,-,21.0,0.0,0.0
08/03/2015,-,18.0,0.0,0.0
09/03/2015,-,19.0,-1.0,0.0
10/03/2015,-,17.0,1.0,0.0
11/03/2015,-,12.0,3.0,0.0
12/03/2015,-,18.0,4.0,6.3
13/03/2015,-,10.0,8.0,26.3
14/03/2015,-,5.0,1.0,13.0
15/03/2015,-,9.0,1.0,2.3
16/03/2015,-,12.0,4.0,0.0
17/03/2015,-,17.0,2.0,0.0
18/03/2015,-,15.0,4.0,0.1
19/03/2015,-,14.0,5.0,0.0
20/03/2015,-,8.0,6.0,3.0
21/03/2015,-,8.0,6.0,8.0
22/03/2015,-,7.0,6.0,14.0
23/03/2015,-,8.0,3.0,7.0
24/03/2015,-,8.0,3.5,26.7
25/03/2015,-,9.0,2.0,4.2
26/03/2015,-,11.0,3.0,11.0
27/03/2015,-,12.0,5.0,32.0
28/03/2015,-,15.0,8.0,1.0
29/03/2015,-,17.0,9.0,0.0
30/03/2015,-,12.0,9.0,6.7
31/03/2015,-,12.0,9.0,5.3
01/04/2015,-,13.0,8.0,0.0
02/04/2015,-,17.0,0.0,0.0
03/04/2015,-,17.0,2.0,3.0
04/04/2015,-,12.0,5.0,2.2
05/04/2015,-,15.0,7.0,0.0
06/04/2015,-,14.0,1.0,0.0
07/04/2015,-,20.0,0.0,0.0
08/04/2015,-,21.0,6.0,0.0
09/04/2015,-,18.0,9.0,0.0
10/04/2015,-,20.0,10.0,1.5
11/04/2015,-,16.0,10.0,0.0
12/04/2015,-,23.0,4.0,0.0
13/04/2015,-,27.0,5.0,0.0
14/04/2015,-,28.0,6.0,0.0
15/04/2015,-,22.0,11.5,0.0
16/04/2015,-,18.0,10.0,1.2
17/04/2015,-,18.0,9.0,5.3
18/04/2015,-,22.0,10.0,4.3
19/04/2015,-,15.0,9.0,2.0
20/04/2015,-,20.0,7.0,0.0
21/04/2015,-,23.0,4.0,0.0
22/04/2015,-,21.0,11.0,1.5
23/04/2015,-,20.0,11.0,0.0
24/04/2015,-,23.0,5.0,1.6
25/04/2015,-,21.0,11.0,0.0
26/04/2015,-,17.0,11.0,69.0
27/04/2015,-,15.0,10.0,14.6
28/04/2015,-,15.0,7.0,0.0
29/04/2015,-,15.0,6.0,0.0
30/04/2015,-,22.0,5.0,1.0
01/05/2015,-,18.0,12.0,2.0
02/05/2015,-,24.0,11.0,0.0
03/05/2015,-,24.0,16.0,0.6
04/05/2015,-,27.0,15.0,2.1
05/05/2015,-,19.0,11.0,0.0
06/05/2015,-,18.0,8.0,0.0
07/05/2015,-,27.0,6.0,0.0
08/05/2015,-,23.0,11.0,0.0
09/05/2015,-,19.0,9.0,0.0
10/05/2015,-,31.0,10.0,0.0
11/05/2015,-,31.0,11.0,0.0
12/05/2015,-,28.0,11.0,0.0
13/05/2015,-,26.0,13.0,0.0
14/05/2015,-,18.0,12.0,18.8
15/05/2015,-,13.0,9.0,15.7
16/05/2015,-,15.0,10.0,3.8
17/05/2015,-,18.0,11.0,0.0
18/05/2015,-,20.0,9.0,9.5
19/05/2015,-,13.0,10.0,15.2
20/05/2015,-,13.0,9.0,25.2
21/05/2015,-,11.0,8.0,1.2
22/05/2015,-,15.0,5.0,0.4
23/05/2015,-,13.0,6.0,0.0
24/05/2015,-,19.0,9.0,0.3
25/05/2015,-,15.0,13.0,5.0
26/05/2015,-,16.0,10.0,5.2
27/05/2015,-,21.0,9.0,0.0
28/05/2015,-,22.0,9.0,0.0
29/05/2015,-,15.0,12.0,0.0
30/05/2015,-,21.0,7.0,0.0
31/05/2015,-,24.0,8.0,0.0
01/06/2015,-,23.0,13.0,0.0
02/06/2015,-,26.0,14.0,0.0
03/06/2015,-,24.0,16.0,0.0
04/06/2015,-,32.0,13.0,0.0
05/06/2015,-,30.0,14.0,0.0
06/06/2015,-,19.0,13.0,0.0
07/06/2015,-,27.0,15.0,0.0
08/06/2015,-,26.0,12.0,0.0
09/06/2015,-,22.0,12.0,27.0
10/06/2015,-,16.0,13.0,19.8
11/06/2015,-,21.0,13.0,2.0
12/06/2015,-,22.0,12.0,0.0
13/06/2015,-,23.0,14.0,24.5
14/06/2015,-,21.0,14.0,2.0
15/06/2015,-,21.0,11.0,15.8
16/06/2015,-,14.0,13.0,33.8
17/06/2015,-,20.0,12.0,0.0
18/06/2015,-,21.0,11.0,1.0
19/06/2015,-,17.0,12.0,0.0
20/06/2015,-,24.0,14.0,0.0
21/06/2015,-,25.0,9.0,0.0
22/06/2015,-,29.0,14.0,0.0
23/06/2015,-,24.0,14.0,0.0
24/06/2015,-,26.0,12.0,0.0
25/06/2015,-,30.0,12.0,0.0
26/06/2015,-,31.0,13.0,0.0
27/06/2015,-,27.0,18.0,0.0
28/06/2015,-,27.0,14.0,0.0
29/06/2015,-,31.0,17.0,0.0
30/06/2015,-,32.0,17.0,0.0
01/07/2015,-,34.0,20.0,0.0
02/07/2015,-,23.0,17.0,0.0
03/07/2015,-,35.0,18.0,0.0
04/07/2015,-,29.0,16.0,0.0
05/07/2015,-,24.0,18.0,0.0
06/07/2015,-,34.0,14.0,0.0
07/07/2015,-,26.0,18.0,4.2
08/07/2015,-,20.0,17.0,0.0
09/07/2015,-,25.0,12.0,0.0
10/07/2015,-,35.0,11.0,1.0
11/07/2015,-,24.0,17.0,0.0
12/07/2015,-,25.0,16.0,0.0
13/07/2015,-,26.0,14.0,0.0
14/07/2015,-,28.0,15.0,0.0
15/07/2015,-,29.0,16.0,0.0
16/07/2015,-,28.0,17.0,0.0
17/07/2015,-,31.0,16.0,3.3
18/07/2015,-,34.0,19.0,14.3
19/07/2015,-,29.0,19.0,0.0
20/07/2015,-,31.0,16.0,0.0
21/07/2015,-,28.0,16.0,13.0
22/07/2015,-,25.0,18.0,5.3
23/07/2015,-,27.0,17.0,0.0
24/07/2015,-,25.0,16.0,2.0
25/07/2015,-,21.0,16.0,0.0
26/07/2015,-,27.0,11.0,3.3
27/07/2015,-,23.0,17.0,3.2
28/07/2015,-,27.0,16.0,0.0
29/07/2015,-,19.0,15.0,9.7
30/07/2015,-,17.0,14.0,8.0
31/07/2015,-,21.0,14.0,3.3
01/08/2015,-,22.0,14.0,0.0
02/08/2015,-,32.0,9.0,0.0
03/08/2015,-,30.0,16.0,3.3
04/08/2015,-,20.0,16.0,1.0
05/08/2015,-,32.0,16.0,0.0
06/08/2015,-,29.0,15.0,0.0
07/08/2015,-,23.0,18.0,7.0
08/08/2015,-,17.0,15.0,5.3
09/08/2015,-,18.0,13.0,1.1
10/08/2015,-,27.0,12.0,0.0
11/08/2015,-,31.0,12.0,1.0
12/08/2015,-,32.0,15.0,1.0
13/08/2015,-,26.0,19.0,3.5
14/08/2015,-,19.0,15.0,6.0
15/08/2015,-,20.0,14.0,4.3
16/08/2015,-,25.0,10.0,0.0
17/08/2015,-,24.0,13.0,0.0
18/08/2015,-,23.0,12.0,0.0
19/08/2015,-,25.0,9.0,0.0
20/08/2015,-,29.0,11.0,0.0
21/08/2015,-,34.0,11.0,0.0
22/08/2015,-,29.0,17.0,23.8
23/08/2015,-,26.0,15.0,0.0
24/08/2015,-,22.0,12.0,0.0
25/08/2015,-,28.0,9.0,0.0
26/08/2015,-,32.0,11.0,0.0
27/08/2015,-,29.0,15.0,0.0
28/08/2015,-,31.0,14.0,0.0
29/08/2015,-,35.0,17.0,0.0
30/08/2015,-,34.0,18.0,0.0
31/08/2015,-,31.0,19.0,92.6
01/09/2015,-,19.0,16.0,2.0
02/09/2015,-,19.0,11.0,7.2
03/09/2015,-,20.0,15.0,0.0
04/09/2015,-,19.0,9.0,0.0
05/09/2015,-,19.0,11.0,0.0
06/09/2015,-,21.0,9.0,0.0
07/09/2015,-,21.0,7.0,0.0
08/09/2015,-,23.0,6.0,0.0
09/09/2015,-,27.0,8.0,0.7
10/09/2015,-,21.0,16.0,2.3
11/09/2015,-,27.0,11.0,3.0
12/09/2015,-,22.0,17.0,9.0
13/09/2015,-,20.0,14.0,5.0
14/09/2015,-,19.0,12.0,0.0
15/09/2015,-,22.0,10.0,0.0
16/09/2015,-,24.0,12.0,0.0
17/09/2015,-,17.0,13.0,0.0
18/09/2015,-,19.0,8.0,0.0
19/09/2015,-,21.0,6.0,0.0
20/09/2015,-,22.0,6.0,0.0
21/09/2015,-,23.0,7.0,2.0
22/09/2015,-,18.0,8.0,25.5
23/09/2015,-,17.0,12.0,0.0
24/09/2015,-,21.0,7.0,0.0
25/09/2015,-,22.0,9.0,0.0
26/09/2015,-,22.0,9.0,0.0
27/09/2015,-,20.0,9.0,0.0
28/09/2015,-,23.0,9.0,0.0
29/09/2015,-,21.0,9.0,5.2
30/09/2015,-,23.0,11.0,0.0
01/10/2015,-,21.0,10.0,46.7
02/10/2015,-,16.0,9.0,9.7
03/10/2015,-,19.0,9.0,0.0
04/10/2015,-,22.0,5.0,2.0
05/10/2015,-,27.0,15.0,0.0
06/10/2015,-,20.0,19.0,13.2
07/10/2015,-,15.0,12.0,4.1
08/10/2015,-,19.0,9.0,0.0
09/10/2015,-,20.0,9.0,0.0
10/10/2015,-,23.0,5.0,0.0
11/10/2015,-,20.0,8.0,0.0
12/10/2015,-,19.0,10.0,30.6
13/10/2015,-,15.0,11.0,0.0
14/10/2015,-,13.0,7.0,0.0
15/10/2015,-,15.0,0.0,0.0
16/10/2015,-,15.0,2.0,0.0
17/10/2015,-,21.0,1.0,3.5
18/10/2015,-,21.0,12.0,0.0
19/10/2015,-,18.0,12.0,0.0
20/10/2015,-,13.0,10.0,0.0
21/10/2015,-,13.0,8.0,0.0
22/10/2015,-,12.0,7.0,0.5
23/10/2015,-,22.0,10.0,0.0
24/10/2015,-,19.0,9.0,0.0
25/10/2015,-,19.0,13.0,0.0
26/10/2015,-,23.0,9.0,0.0
27/10/2015,-,20.0,14.0,8.1
28/10/2015,-,19.0,9.0,0.0
29/10/2015,-,18.0,8.0,0.4
30/10/2015,-,24.0,10.0,0.0
31/10/2015,-,23.0,13.0,0.0
01/11/2015,-,22.0,8.0,0.0
02/11/2015,-,17.0,8.0,3.5
03/11/2015,-,16.0,11.0,0.2
04/11/2015,-,20.0,7.0,0.0
05/11/2015,-,19.0,7.0,0.0
06/11/2015,-,23.0,9.0,0.0
07/11/2015,-,24.0,7.0,0.0
08/11/2015,-,25.0,7.0,0.0
09/11/2015,-,22.0,8.0,0.0
10/11/2015,-,22.0,8.0,0.0
11/11/2015,-,19.0,7.0,0.0
12/11/2015,-,20.0,8.0,0.0
13/11/2015,-,13.0,5.0,0.0
14/11/2015,-,17.0,11.0,0.0
15/11/2015,-,19.0,5.0,0.0
16/11/2015,-,17.0,2.0,0.0
17/11/2015,-,18.0,3.0,0.0
18/11/2015,-,22.0,4.0,0.0
19/11/2015,-,18.0,9.0,0.0
20/11/2015,-,20.0,8.0,23.5
21/11/2015,-,11.0,8.0,47.0
22/11/2015,-,6.0,3.0,0.0
23/11/2015,-,3.0,-2.0,0.0
24/11/2015,-,11.0,-1.0,57.3
25/11/2015,-,12.0,8.0,87.3
26/11/2015,-,11.5,11.0,7.8
27/11/2015,-,10.0,6.0,27.0
28/11/2015,-,10.0,8.0,0.0
29/11/2015,-,13.0,4.0,1.0
30/11/2015,-,15.0,0.0,0.0
01/12/2015,-,13.0,0.0,0.0
02/12/2015,-,16.0,-1.0,0.0
03/12/2015,-,17.0,0.0,0.0
04/12/2015,-,15.0,2.0,0.6
05/12/2015,-,17.0,6.0,0.0
06/12/2015,-,15.0,2.0,0.0
07/12/2015,-,16.0,8.0,0.0
08/12/2015,-,14.0,11.0,2.8
09/12/2015,-,15.0,8.0,0.0
10/12/2015,-,15.0,1.0,0.0
11/12/2015,-,15.0,1.0,0.0
12/12/2015,-,12.0,0.0,0.0
13/12/2015,-,12.0,-1.0,0.0
14/12/2015,-,16.0,0.0,0.0
15/12/2015,-,17.0,10.0,0.0
16/12/2015,-,18.0,3.0,0.0
17/12/2015,-,19.0,3.0,0.0
18/12/2015,-,20.0,3.0,0.0
19/12/2015,-,20.0,3.0,0.0
20/12/2015,-,19.0,9.0,0.0
21/12/2015,-,15.0,2.0,0.0
22/12/2015,-,16.0,0.0,0.0
23/12/2015,-,11.0,1.0,0.1
24/12/2015,-,14.0,7.0,0.0
25/12/2015,-,13.0,1.0,0.0
26/12/2015,-,18.0,8.0,0.0
27/12/2015,-,17.0,7.0,0.0
