Fecha, Temperatura media, Temperatura maxima, Temperatura minima, Precipitacion acumulada
01/01/2019,-,4.5,-2.6,1.0
02/01/2019,-,6.0,2.5,0.0
03/01/2019,-,6.5,-4.5,0.0
04/01/2019,-,3.0,-5.0,0.0
05/01/2019,-,9.5,-6.7,0.0
06/01/2019,-,6.0,-1.2,0.0
07/01/2019,-,5.5,0.0,0.0
08/01/2019,-,9.0,1.7,10.5
09/01/2019,-,10.0,5.0,0.8
10/01/2019,-,6.0,-0.5,0.0
11/01/2019,-,7.5,-3.0,0.0
12/01/2019,-,9.0,2.5,2.2
13/01/2019,-,9.5,5.0,11.0
14/01/2019,-,11.0,5.5,6.0
15/01/2019,-,14.5,6.5,0.0
16/01/2019,-,16.0,-1.5,5.0
17/01/2019,-,10.0,6.0,12.0
18/01/2019,-,7.5,3.5,2.5
19/01/2019,-,11.0,2.5,4.0
20/01/2019,-,10.0,4.5,43.0
21/01/2019,-,6.5,4.5,1.0
22/01/2019,-,12.0,2.5,93.0
23/01/2019,-,8.0,3.5,63.0
24/01/2019,-,11.0,2.5,14.5
25/01/2019,-,12.0,3.0,32.0
26/01/2019,-,12.0,8.0,14.0
27/01/2019,-,10.5,2.0,54.0
28/01/2019,-,11.0,5.0,23.0
29/01/2019,-,10.0,4.5,22.0
30/01/2019,-,9.0,3.5,24.2
31/01/2019,-,13.5,2.5,27.0
01/02/2019,-,12.5,4.5,63.0
02/02/2019,-,7.5,3.5,32.0
03/02/2019,-,7.5,1.0,1.0
04/02/2019,-,9.0,-1.5,16.5
05/02/2019,-,10.0,6.0,11.3
06/02/2019,-,18.5,7.5,0.0
07/02/2019,-,11.0,4.5,1.5
08/02/2019,-,18.0,-0.5,0.0
09/02/2019,-,17.0,0.5,0.0
10/02/2019,-,11.5,9.0,15.0
11/02/2019,-,11.0,5.0,4.0
12/02/2019,-,14.0,0.0,0.0
13/02/2019,-,18.5,-2.5,0.0
14/02/2019,-,20.0,0.0,0.0
15/02/2019,-,20.0,-1.5,0.0
16/02/2019,-,20.0,-2.5,0.0
17/02/2019,-,20.5,10.0,0.0
18/02/2019,-,19.5,2.0,0.0
19/02/2019,-,14.5,2.0,0.0
20/02/2019,-,18.5,-0.5,0.0
21/02/2019,-,20.5,0.5,0.0
22/02/2019,-,22.5,0.0,0.0
23/02/2019,-,19.5,-1.0,0.0
24/02/2019,-,21.5,-0.5,0.0
25/02/2019,-,22.5,-1.0,0.0
26/02/2019,-,24.0,0.5,0.0
27/02/2019,-,27.0,0.0,0.0
28/02/2019,-,15.5,2.0,0.0
01/03/2019,-,15.5,0.5,0.5
02/03/2019,-,16.0,3.0,0.0
03/03/2019,-,22.5,1.0,0.0
04/03/2019,-,12.5,7.0,0.0
05/03/2019,-,19.0,1.0,0.0
06/03/2019,-,20.0,16.0,6.0
07/03/2019,-,15.5,4.0,6.0
08/03/2019,-,13.0,4.5,2.5
09/03/2019,-,16.0,3.5,1.5
10/03/2019,-,14.5,4.0,6.5
11/03/2019,-,14.0,6.0,0.0
12/03/2019,-,20.0,-1.5,14.0
13/03/2019,-,10.5,4.5,26.0
14/03/2019,-,10.0,6.0,4.0
15/03/2019,-,13.0,7.0,0.0
16/03/2019,-,25.5,0.0,0.0
17/03/2019,-,11.5,5.0,16.0
18/03/2019,-,12.5,4.5,22.0
19/03/2019,-,11.0,6.0,2.0
20/03/2019,-,13.0,7.0,0.0
21/03/2019,-,15.5,-1.5,0.0
22/03/2019,-,21.5,-1.0,0.0
23/03/2019,-,22.5,0.5,0.0
24/03/2019,-,20.0,1.5,0.0
25/03/2019,-,13.5,2.0,0.0
26/03/2019,-,14.0,3.5,0.0
27/03/2019,-,15.0,-1.5,0.0
28/03/2019,-,15.0,-1.0,0.0
29/03/2019,-,21.0,-1.0,0.0
30/03/2019,-,21.5,9.5,0.0
31/03/2019,-,20.5,3.5,3.2
01/04/2019,-,17.0,8.0,0.0
02/04/2019,-,15.5,8.0,6.5
03/04/2019,-,9.0,6.5,15.5
04/04/2019,-,14.0,1.5,0.0
05/04/2019,-,14.5,9.5,6.0
06/04/2019,-,15.5,5.0,7.5
07/04/2019,-,13.5,6.0,3.5
08/04/2019,-,12.0,4.5,4.0
09/04/2019,-,16.0,1.5,3.0
10/04/2019,-,13.0,7.0,13.0
11/04/2019,-,10.0,6.5,4.5
12/04/2019,-,13.0,7.0,0.0
13/04/2019,-,19.0,-1.0,0.0
14/04/2019,-,17.0,7.0,0.0
15/04/2019,-,22.0,5.0,17.5
16/04/2019,-,19.0,10.0,0.0
17/04/2019,-,23.0,9.0,0.0
18/04/2019,-,18.0,14.5,0.0
19/04/2019,-,20.0,9.5,0.0
20/04/2019,-,20.0,6.5,0.0
21/04/2019,-,16.0,5.0,0.0
22/04/2019,-,21.0,8.0,0.0
23/04/2019,-,18.0,10.5,4.0
24/04/2019,-,14.0,4.5,10.0
25/04/2019,-,17.0,9.0,6.0
26/04/2019,-,14.0,6.5,2.5
27/04/2019,-,13.0,7.5,1.7
28/04/2019,-,16.0,7.0,0.0
29/04/2019,-,20.0,3.5,0.0
30/04/2019,-,19.0,4.0,0.0
01/05/2019,-,19.0,15.0,1.5
02/05/2019,-,14.0,9.0,12.0
03/05/2019,-,13.0,8.0,5.0
04/05/2019,-,14.0,7.0,10.0
05/05/2019,-,13.0,2.0,0.0
06/05/2019,-,20.0,1.5,0.0
07/05/2019,-,23.0,3.5,0.0
08/05/2019,-,19.0,15.0,0.0
09/05/2019,-,20.0,5.0,26.0
10/05/2019,-,23.0,10.5,6.0
11/05/2019,-,16.0,11.0,1.0
12/05/2019,-,19.0,7.0,0.0
13/05/2019,-,19.0,7.5,0.0
14/05/2019,-,20.5,4.0,0.0
15/05/2019,-,21.5,4.0,0.0
16/05/2019,-,23.0,9.0,60.0
17/05/2019,-,12.0,10.0,22.0
18/05/2019,-,11.0,7.0,58.0
19/05/2019,-,12.0,8.0,43.0
20/05/2019,-,15.0,8.0,0.0
21/05/2019,-,16.0,6.0,0.0
22/05/2019,-,24.0,9.0,0.0
23/05/2019,-,21.0,7.0,8.0
24/05/2019,-,13.0,12.0,4.5
25/05/2019,-,14.0,12.0,10.0
26/05/2019,-,14.0,11.0,9.0
27/05/2019,-,15.0,11.0,6.0
28/05/2019,-,14.0,10.5,9.0
29/05/2019,-,16.0,11.0,0.0
30/05/2019,-,24.0,5.5,0.0
31/05/2019,-,28.0,9.5,0.0
01/06/2019,-,31.5,10.0,0.0
02/06/2019,-,31.0,10.5,0.0
03/06/2019,-,25.0,11.5,0.0
04/06/2019,-,28.0,12.5,25.0
05/06/2019,-,14.0,11.0,23.0
06/06/2019,-,25.0,8.5,0.0
07/06/2019,-,18.0,10.0,2.0
08/06/2019,-,21.0,4.0,0.0
09/06/2019,-,21.0,13.0,5.2
10/06/2019,-,14.0,11.0,2.0
11/06/2019,-,14.0,10.0,8.0
12/06/2019,-,18.0,5.5,0.0
13/06/2019,-,20.0,6.0,1.5
14/06/2019,-,16.0,11.0,6.0
15/06/2019,-,20.0,12.0,0.0
16/06/2019,-,26.0,8.5,0.0
17/06/2019,-,30.0,9.5,0.0
18/06/2019,-,32.0,13.0,0.0
19/06/2019,-,24.0,12.0,0.5
20/06/2019,-,17.0,15.0,11.0
21/06/2019,-,18.0,13.0,0.0
22/06/2019,-,28.0,9.0,0.0
23/06/2019,-,32.0,12.5,0.0
24/06/2019,-,24.0,13.0,0.0
25/06/2019,-,29.0,15.0,0.0
26/06/2019,-,35.0,17.0,0.0
27/06/2019,-,36.0,15.5,0.0
28/06/2019,-,28.5,15.5,0.0
29/06/2019,-,28.0,16.5,0.0
30/06/2019,-,24.0,17.0,0.0
01/07/2019,-,19.0,15.0,2.2
02/07/2019,-,23.0,16.5,0.0
03/07/2019,-,28.0,16.0,0.0
04/07/2019,-,33.5,19.0,0.0
05/07/2019,-,29.0,15.5,0.0
06/07/2019,-,27.0,19.0,0.8
07/07/2019,-,22.0,18.0,6.5
08/07/2019,-,20.5,17.5,38.5
09/07/2019,-,22.0,17.0,8.2
10/07/2019,-,24.0,14.0,0.0
11/07/2019,-,26.0,15.0,0.0
12/07/2019,-,28.0,12.0,0.0
13/07/2019,-,25.0,13.0,0.0
14/07/2019,-,25.0,15.5,0.0
15/07/2019,-,24.0,12.5,0.0
16/07/2019,-,25.0,12.5,0.0
17/07/2019,-,25.5,15.5,0.0
18/07/2019,-,24.0,16.0,0.0
19/07/2019,-,30.5,14.0,0.0
20/07/2019,-,21.5,19.0,0.0
21/07/2019,-,25.0,18.5,0.0
22/07/2019,-,33.0,19.0,0.0
23/07/2019,-,37.5,17.0,0.3
24/07/2019,-,37.0,15.5,0.0
25/07/2019,-,35.0,17.5,19.0
26/07/2019,-,21.0,19.0,10.0
27/07/2019,-,17.0,15.5,32.0
28/07/2019,-,23.0,14.5,0.0
29/07/2019,-,28.5,9.0,1.0
30/07/2019,-,19.5,11.5,0.0
31/07/2019,-,23.0,10.5,17.0
01/08/2019,-,25.0,12.5,1.0
02/08/2019,-,25.0,15.5,0.0
03/08/2019,-,29.5,13.0,0.0
04/08/2019,-,23.5,15.5,0.0
05/08/2019,-,23.0,18.5,0.0
06/08/2019,-,27.0,18.5,2.0
07/08/2019,-,26.5,18.0,0.0
08/08/2019,-,34.0,16.0,0.0
09/08/2019,-,32.0,19.0,2.6
10/08/2019,-,23.0,16.5,8.5
11/08/2019,-,20.5,16.0,1.3
12/08/2019,-,20.0,15.0,4.2
13/08/2019,-,22.0,13.0,0.0
14/08/2019,-,26.0,10.5,3.6
15/08/2019,-,21.5,17.0,0.0
16/08/2019,-,28.0,10.0,0.0
17/08/2019,-,28.5,11.5,0.0
18/08/2019,-,24.5,14.5,3.5
19/08/2019,-,22.0,15.0,6.0
20/08/2019,-,20.0,14.5,0.0
21/08/2019,-,25.5,10.5,0.0
22/08/2019,-,25.0,8.5,0.0
23/08/2019,-,32.5,9.0,0.0
24/08/2019,-,31.5,11.5,0.0
25/08/2019,-,26.0,17.0,0.0
26/08/2019,-,30.0,19.0,0.0
27/08/2019,-,24.5,17.5,0.0
28/08/2019,-,28.0,17.0,0.0
29/08/2019,-,27.5,15.5,0.0
30/08/2019,-,28.0,15.0,0.0
31/08/2019,-,25.0,17.0,0.0
01/09/2019,-,24.5,14.5,0.4
02/09/2019,-,21.5,12.0,0.0
03/09/2019,-,24.5,7.0,0.0
04/09/2019,-,23.5,6.5,5.2
05/09/2019,-,19.5,11.5,0.0
06/09/2019,-,20.0,8.0,0.0
07/09/2019,-,21.0,5.0,0.5
08/09/2019,-,21.5,10.0,0.1
09/09/2019,-,20.0,4.5,8.7
10/09/2019,-,18.5,10.0,16.7
11/09/2019,-,21.0,11.0,0.0
12/09/2019,-,24.5,7.5,0.0
13/09/2019,-,25.0,9.5,0.0
14/09/2019,-,27.5,12.0,0.0
15/09/2019,-,27.0,13.5,1.0
16/09/2019,-,27.0,15.0,0.0
17/09/2019,-,26.0,13.5,0.0
18/09/2019,-,25.5,15.5,0.0
19/09/2019,-,24.5,13.5,0.0
20/09/2019,-,29.5,13.0,0.0
21/09/2019,-,25.0,18.5,17.1
22/09/2019,-,21.0,15.0,0.5
23/09/2019,-,23.0,9.5,0.0
24/09/2019,-,25.0,11.0,0.3
25/09/2019,-,19.5,14.5,0.0
26/09/2019,-,22.5,10.5,0.0
27/09/2019,-,23.5,12.0,0.0
28/09/2019,-,23.0,14.0,0.0
29/09/2019,-,28.5,8.5,0.0
30/09/2019,-,26.0,12.0,0.0
01/10/2019,-,-,-,-
02/10/2019,-,16.5,-,12.0
03/10/2019,-,-,9.5,-
04/10/2019,-,16.5,-,2.7
05/10/2019,-,-,13.0,-
06/10/2019,-,-,-,-
07/10/2019,-,-,-,-
08/10/2019,-,-,-,-
09/10/2019,-,-,-,-
10/10/2019,-,-,-,-
11/10/2019,-,-,-,-
12/10/2019,-,25.5,-,0.0
13/10/2019,-,27.5,-,0.0
14/10/2019,-,-,15.5,-
15/10/2019,-,18.0,-,0.0
16/10/2019,-,20.5,6.5,3.0
17/10/2019,-,21.5,12.0,1.5
18/10/2019,-,17.0,11.5,0.3
19/10/2019,-,20.5,12.0,8.5
20/10/2019,-,-,12.5,-
21/10/2019,-,16.0,-,0.2
22/10/2019,-,-,6.5,-
23/10/2019,-,-,-,-
24/10/2019,-,-,-,-
25/10/2019,-,-,-,-
26/10/2019,-,23.5,-,0.0
27/10/2019,-,-,6.0,-
28/10/2019,-,19.0,-,0.0
29/10/2019,-,23.0,8.5,0.0
30/10/2019,-,-,7.0,-
31/10/2019,-,-,-,-
01/11/2019,-,-,-,-
02/11/2019,-,-,-,-
03/11/2019,-,-,-,-
04/11/2019,-,-,-,-
05/11/2019,-,-,-,-
06/11/2019,-,-,-,-
07/11/2019,-,11.0,-,15.0
08/11/2019,-,8.0,3.5,56.0
09/11/2019,-,11.0,5.5,58.0
10/11/2019,-,-,4.0,-
11/11/2019,-,-,-,-
12/11/2019,-,9.0,-,9.5
13/11/2019,-,12.0,7.0,21.0
14/11/2019,-,11.0,4.0,11.0
15/11/2019,-,7.0,3.5,10.0
16/11/2019,-,-,2.0,-
17/11/2019,-,8.0,-,19.0
18/11/2019,-,-,4.0,-
19/11/2019,-,-,-,-
20/11/2019,-,-,-,-
21/11/2019,-,-,-,-
22/11/2019,-,-,-,-
23/11/2019,-,11.0,-,75.0
24/11/2019,-,-,7.5,-
25/11/2019,-,17.0,-,0.0
26/11/2019,-,17.0,-,2.5
27/11/2019,-,-,6.0,-
28/11/2019,-,-,-,-
29/11/2019,-,-,-,-
30/11/2019,-,15.5,-,2.7
01/12/2019,-,-,3.0,-
02/12/2019,-,-,-,-
03/12/2019,-,-,-,-
04/12/2019,-,-,-,-
05/12/2019,-,-,-,-
06/12/2019,-,-,-,-
07/12/2019,-,-,-,-
08/12/2019,-,-,-,-
09/12/2019,-,-,-,-
10/12/2019,-,-,-,-
11/12/2019,-,-,-,-
12/12/2019,-,-,-,-
13/12/2019,-,-,-,-
14/12/2019,-,-,-,-
15/12/2019,-,-,-,-
16/12/2019,-,-,-,-
17/12/2019,-,-,-,-
18/12/2019,-,-,-,-
19/12/2019,-,-,-,-
20/12/2019,-,-,-,-
21/12/2019,-,-,-,-
22/12/2019,-,-,-,-
23/12/2019,-,-,-,-
24/12/2019,-,-,-,-
25/12/2019,-,-,-,-
26/12/2019,-,-,-,-
27/12/2019,-,-,-,-
