Fecha, Temperatura media, Temperatura maxima, Temperatura minima, Precipitacion acumulada
01/01/2012,-,15.5,7.5,8.2
02/01/2012,-,10.5,6.0,14.3
03/01/2012,-,9.5,2.5,13.7
04/01/2012,-,10.5,2.0,4.0
05/01/2012,-,13.5,5.0,77.0
06/01/2012,-,11.0,8.5,3.1
07/01/2012,-,11.0,7.5,3.9
08/01/2012,-,10.0,7.0,5.0
09/01/2012,-,7.5,6.0,0.0
10/01/2012,-,7.0,0.0,0.0
11/01/2012,-,6.5,-0.5,0.0
12/01/2012,-,8.0,-0.5,0.0
13/01/2012,-,8.5,0.0,0.0
14/01/2012,-,5.0,1.5,0.0
15/01/2012,-,12.0,-1.5,0.0
16/01/2012,-,8.5,-1.0,0.0
17/01/2012,-,9.5,1.5,0.0
18/01/2012,-,11.0,0.0,2.4
19/01/2012,-,12.0,2.0,17.8
20/01/2012,-,11.5,7.0,43.8
21/01/2012,-,11.0,9.0,27.9
22/01/2012,-,10.5,9.0,15.3
23/01/2012,-,10.0,8.0,3.8
24/01/2012,-,9.0,7.0,0.1
25/01/2012,-,7.0,0.5,0.0
26/01/2012,-,10.5,0.5,14.4
27/01/2012,-,8.0,4.0,4.1
28/01/2012,-,7.0,1.5,16.7
29/01/2012,-,3.0,0.5,0.9
30/01/2012,-,7.0,-0.5,0.0
31/01/2012,-,7.5,-0.5,36.9
01/02/2012,-,8.0,1.0,10.5
02/02/2012,-,-2.0,-2.5,1.4
03/02/2012,-,0.5,-5.5,0.0
04/02/2012,-,2.0,-5.5,8.4
05/02/2012,-,8.0,-4.0,15.0
06/02/2012,-,7.0,0.5,3.0
07/02/2012,-,1.5,0.0,0.5
08/02/2012,-,-2.0,-5.5,0.0
09/02/2012,-,0.0,-4.5,0.0
10/02/2012,-,2.5,-2.5,0.0
11/02/2012,-,0.5,-7.5,0.0
12/02/2012,-,0.5,-8.0,0.0
13/02/2012,-,5.0,-8.5,6.3
14/02/2012,-,6.0,-2.5,14.9
15/02/2012,-,7.0,0.5,15.1
16/02/2012,-,7.5,1.0,0.0
17/02/2012,-,7.5,2.0,0.0
18/02/2012,-,9.0,-2.0,1.7
19/02/2012,-,7.5,-2.0,9.1
20/02/2012,-,6.5,-2.0,0.0
21/02/2012,-,7.5,-3.0,0.0
22/02/2012,-,9.5,-4.5,0.0
23/02/2012,-,11.5,-4.5,0.0
24/02/2012,-,13.5,-3.0,0.0
25/02/2012,-,10.0,2.5,0.3
26/02/2012,-,10.5,6.5,0.0
27/02/2012,-,10.5,4.5,0.0
28/02/2012,-,16.0,-1.5,0.0
29/02/2012,-,18.5,-1.0,0.0
01/03/2012,-,15.5,0.5,0.0
02/03/2012,-,18.5,1.5,0.0
03/03/2012,-,16.5,2.5,0.0
04/03/2012,-,14.0,3.5,14.1
05/03/2012,-,9.0,3.5,5.1
06/03/2012,-,7.5,3.0,12.5
07/03/2012,-,11.0,0.0,7.0
08/03/2012,-,10.0,0.0,1.6
09/03/2012,-,11.5,-0.5,0.0
10/03/2012,-,12.0,-1.0,0.0
11/03/2012,-,10.5,-0.5,0.0
12/03/2012,-,13.0,6.5,0.0
13/03/2012,-,20.0,2.0,0.0
14/03/2012,-,23.5,3.0,0.0
15/03/2012,-,26.5,2.5,0.0
16/03/2012,-,21.0,4.5,0.0
17/03/2012,-,18.5,5.5,4.5
18/03/2012,-,10.0,2.5,13.1
19/03/2012,-,10.0,4.5,2.3
20/03/2012,-,9.5,3.0,2.1
21/03/2012,-,7.5,3.5,10.5
22/03/2012,-,16.0,1.0,0.0
23/03/2012,-,20.0,0.5,0.0
24/03/2012,-,22.0,2.0,0.0
25/03/2012,-,22.5,4.0,0.0
26/03/2012,-,23.5,4.0,0.0
27/03/2012,-,22.5,9.0,0.0
28/03/2012,-,22.5,4.0,0.0
29/03/2012,-,22.0,3.5,0.0
30/03/2012,-,21.0,3.0,0.0
31/03/2012,-,17.5,4.0,0.0
01/04/2012,-,15.0,6.0,0.0
02/04/2012,-,17.0,6.5,0.6
03/04/2012,-,11.0,7.0,3.8
04/04/2012,-,12.0,7.5,1.2
05/04/2012,-,9.5,7.5,4.5
06/04/2012,-,12.0,7.5,7.2
07/04/2012,-,12.5,4.0,15.0
08/04/2012,-,12.5,5.5,18.9
09/04/2012,-,21.0,7.5,0.7
10/04/2012,-,17.0,7.5,10.2
11/04/2012,-,14.5,6.0,0.9
12/04/2012,-,12.0,6.5,26.8
13/04/2012,-,9.5,5.0,23.9
14/04/2012,-,9.0,5.0,34.2
15/04/2012,-,9.5,4.5,10.2
16/04/2012,-,9.5,4.5,1.0
17/04/2012,-,14.5,0.5,12.0
18/04/2012,-,11.5,5.0,10.6
19/04/2012,-,9.0,6.0,30.3
20/04/2012,-,12.5,6.5,3.8
21/04/2012,-,14.0,7.5,7.9
22/04/2012,-,10.5,6.0,1.2
23/04/2012,-,14.0,4.5,27.0
24/04/2012,-,13.0,4.5,5.8
25/04/2012,-,20.5,5.5,4.1
26/04/2012,-,15.0,8.5,0.2
27/04/2012,-,15.5,7.0,21.8
28/04/2012,-,10.0,8.0,29.5
29/04/2012,-,16.5,6.0,1.2
30/04/2012,-,15.0,6.0,5.1
01/05/2012,-,18.0,5.0,0.1
02/05/2012,-,22.5,6.0,0.0
03/05/2012,-,23.0,8.5,0.2
04/05/2012,-,19.5,10.5,0.0
05/05/2012,-,17.5,8.5,2.2
06/05/2012,-,15.5,7.0,0.1
07/05/2012,-,23.5,4.5,3.6
08/05/2012,-,25.0,7.5,3.6
09/05/2012,-,27.5,11.5,0.0
10/05/2012,-,31.0,13.5,0.0
11/05/2012,-,29.0,13.5,0.1
12/05/2012,-,14.0,13.5,0.0
13/05/2012,-,17.0,10.5,0.0
14/05/2012,-,19.5,5.5,0.0
15/05/2012,-,15.0,7.5,0.0
16/05/2012,-,19.5,6.5,0.0
17/05/2012,-,24.5,7.0,0.0
18/05/2012,-,14.5,12.0,10.4
19/05/2012,-,12.0,10.0,22.1
20/05/2012,-,10.5,9.0,66.2
21/05/2012,-,12.5,8.5,68.7
22/05/2012,-,13.5,9.0,12.9
23/05/2012,-,20.5,7.5,0.0
24/05/2012,-,24.5,8.0,0.0
25/05/2012,-,30.0,12.0,1.0
26/05/2012,-,19.5,13.5,0.0
27/05/2012,-,21.0,8.5,0.0
28/05/2012,-,23.0,9.0,0.0
29/05/2012,-,27.5,9.0,0.0
30/05/2012,-,21.5,11.0,0.0
31/05/2012,-,24.0,13.0,0.0
01/06/2012,-,31.5,11.5,0.2
02/06/2012,-,26.0,14.0,12.9
03/06/2012,-,18.5,13.5,4.3
04/06/2012,-,19.5,11.5,0.0
05/06/2012,-,27.0,7.5,0.0
06/06/2012,-,23.0,10.0,0.0
07/06/2012,-,25.5,14.0,0.0
08/06/2012,-,17.0,12.5,0.2
09/06/2012,-,20.5,6.5,0.6
10/06/2012,-,22.0,10.0,12.3
11/06/2012,-,19.5,13.5,23.3
12/06/2012,-,16.5,11.0,2.4
13/06/2012,-,17.5,11.0,0.0
14/06/2012,-,29.5,8.5,0.0
15/06/2012,-,29.5,11.0,0.0
16/06/2012,-,26.5,12.0,0.0
17/06/2012,-,26.5,13.0,0.9
18/06/2012,-,17.5,14.5,7.3
19/06/2012,-,24.0,14.5,1.0
20/06/2012,-,29.0,16.0,4.1
21/06/2012,-,22.0,12.5,0.0
22/06/2012,-,18.5,8.0,0.0
23/06/2012,-,21.5,10.0,0.0
24/06/2012,-,25.0,13.5,0.0
25/06/2012,-,27.0,12.5,0.0
26/06/2012,-,29.0,11.5,0.0
27/06/2012,-,32.5,14.0,0.3
28/06/2012,-,25.0,15.5,0.1
29/06/2012,-,20.5,15.5,0.6
30/06/2012,-,22.0,12.5,9.1
01/07/2012,-,17.0,11.5,2.5
02/07/2012,-,22.0,7.5,0.0
03/07/2012,-,25.0,9.5,0.0
04/07/2012,-,22.5,12.0,6.6
05/07/2012,-,18.5,13.5,0.9
06/07/2012,-,21.5,13.0,0.0
07/07/2012,-,28.5,10.5,0.7
08/07/2012,-,20.5,13.5,0.0
09/07/2012,-,18.0,11.0,2.7
10/07/2012,-,17.0,14.5,1.7
11/07/2012,-,15.5,13.5,0.8
12/07/2012,-,21.5,11.0,0.0
13/07/2012,-,30.0,9.5,3.8
14/07/2012,-,18.0,12.0,0.2
15/07/2012,-,19.5,11.5,0.2
16/07/2012,-,23.5,10.0,0.0
17/07/2012,-,29.0,9.5,0.0
18/07/2012,-,29.5,11.0,0.0
19/07/2012,-,21.0,11.0,0.0
20/07/2012,-,20.5,15.0,0.2
21/07/2012,-,21.5,13.0,0.0
22/07/2012,-,22.5,13.0,0.0
23/07/2012,-,25.5,12.0,0.0
24/07/2012,-,30.0,10.0,0.0
25/07/2012,-,30.5,12.0,0.0
26/07/2012,-,33.0,17.0,1.9
27/07/2012,-,27.0,16.5,1.0
28/07/2012,-,19.0,16.5,2.3
29/07/2012,-,20.0,13.5,0.0
30/07/2012,-,24.0,12.0,0.0
31/07/2012,-,30.0,11.0,0.0
01/08/2012,-,26.0,12.5,0.0
02/08/2012,-,22.5,13.5,0.0
03/08/2012,-,22.0,14.5,0.0
04/08/2012,-,22.0,13.5,0.7
05/08/2012,-,17.5,15.5,15.3
06/08/2012,-,22.0,12.5,0.0
07/08/2012,-,27.5,10.0,0.0
08/08/2012,-,31.0,13.0,0.0
09/08/2012,-,34.0,15.0,0.0
10/08/2012,-,35.0,15.5,0.0
11/08/2012,-,25.0,17.0,0.0
12/08/2012,-,23.5,15.5,0.0
13/08/2012,-,26.0,13.5,0.0
14/08/2012,-,29.5,14.0,0.0
15/08/2012,-,25.0,16.5,0.0
16/08/2012,-,32.0,12.0,0.0
17/08/2012,-,36.5,13.5,0.0
18/08/2012,-,31.0,16.5,0.0
19/08/2012,-,29.5,17.5,0.0
20/08/2012,-,28.5,19.5,0.0
21/08/2012,-,26.0,19.5,0.2
22/08/2012,-,24.5,17.5,0.0
23/08/2012,-,23.0,15.5,0.0
24/08/2012,-,25.5,13.5,5.5
25/08/2012,-,23.5,14.5,9.9
26/08/2012,-,23.0,13.5,0.0
27/08/2012,-,31.0,10.5,2.9
28/08/2012,-,26.5,13.0,0.3
29/08/2012,-,22.0,15.5,3.3
30/08/2012,-,18.0,15.0,19.8
31/08/2012,-,18.5,12.5,1.4
01/09/2012,-,17.5,10.0,0.0
02/09/2012,-,20.0,7.0,0.3
03/09/2012,-,19.0,13.0,0.3
04/09/2012,-,20.5,13.5,0.1
05/09/2012,-,21.5,14.0,0.0
06/09/2012,-,24.5,13.5,0.0
07/09/2012,-,28.5,12.0,0.0
08/09/2012,-,28.0,13.0,0.0
09/09/2012,-,26.0,10.5,0.2
10/09/2012,-,26.0,12.0,1.7
11/09/2012,-,25.0,16.5,7.4
12/09/2012,-,17.5,17.0,20.6
13/09/2012,-,17.5,12.5,2.0
14/09/2012,-,19.5,11.0,0.0
15/09/2012,-,21.5,10.0,0.0
16/09/2012,-,24.0,8.5,0.0
17/09/2012,-,22.0,9.5,0.3
18/09/2012,-,22.0,15.5,4.2
19/09/2012,-,19.0,13.0,0.0
20/09/2012,-,22.0,7.5,0.0
21/09/2012,-,26.0,16.0,0.8
22/09/2012,-,26.5,13.0,0.0
23/09/2012,-,28.0,12.5,5.0
24/09/2012,-,20.5,14.5,0.0
25/09/2012,-,19.5,11.0,16.7
26/09/2012,-,18.5,10.0,0.0
27/09/2012,-,18.0,9.0,0.0
28/09/2012,-,18.5,10.0,11.2
29/09/2012,-,15.5,11.5,9.0
30/09/2012,-,16.0,8.5,0.0
01/10/2012,-,16.5,5.0,0.0
02/10/2012,-,19.5,5.5,0.0
03/10/2012,-,20.0,6.0,0.0
04/10/2012,-,19.5,7.0,0.0
05/10/2012,-,23.5,10.0,0.0
06/10/2012,-,23.5,11.0,0.2
07/10/2012,-,21.5,12.5,0.0
08/10/2012,-,25.5,13.0,0.0
09/10/2012,-,21.5,12.5,0.0
10/10/2012,-,21.0,12.5,0.2
11/10/2012,-,20.0,12.0,42.0
12/10/2012,-,14.5,12.5,4.8
13/10/2012,-,15.0,5.5,1.0
14/10/2012,-,14.0,6.5,55.6
15/10/2012,-,13.5,8.0,4.5
16/10/2012,-,17.0,5.5,0.8
17/10/2012,-,20.0,9.5,0.0
18/10/2012,-,19.5,12.5,14.4
19/10/2012,-,15.0,12.5,24.0
20/10/2012,-,14.0,11.5,62.0
21/10/2012,-,16.0,12.0,13.3
22/10/2012,-,17.0,12.5,0.2
23/10/2012,-,16.0,8.5,0.0
24/10/2012,-,17.5,8.5,0.5
25/10/2012,-,17.5,14.5,10.7
26/10/2012,-,16.5,12.5,92.5
27/10/2012,-,11.5,11.0,20.2
28/10/2012,-,7.5,1.5,0.2
29/10/2012,-,9.0,-0.5,0.0
30/10/2012,-,10.0,-1.0,0.0
31/10/2012,-,12.0,4.5,0.0
01/11/2012,-,15.5,3.0,22.4
02/11/2012,-,16.0,6.0,0.0
03/11/2012,-,15.5,6.0,0.6
04/11/2012,-,12.5,9.5,13.9
05/11/2012,-,11.5,9.0,11.7
06/11/2012,-,11.0,5.0,0.3
07/11/2012,-,13.0,-0.5,0.0
08/11/2012,-,17.0,0.0,0.2
09/11/2012,-,17.5,10.0,4.8
10/11/2012,-,14.5,8.5,7.1
11/11/2012,-,9.0,6.5,13.9
12/11/2012,-,10.0,2.0,0.0
13/11/2012,-,9.5,0.5,0.0
14/11/2012,-,13.5,0.5,0.4
15/11/2012,-,15.5,6.0,0.0
16/11/2012,-,16.5,7.0,0.0
17/11/2012,-,16.0,8.0,10.1
18/11/2012,-,15.5,9.5,21.4
19/11/2012,-,10.0,6.0,0.0
20/11/2012,-,14.5,7.0,2.7
21/11/2012,-,12.0,2.0,4.9
22/11/2012,-,12.5,2.0,0.0
23/11/2012,-,15.5,2.0,0.0
24/11/2012,-,16.5,8.5,1.7
25/11/2012,-,14.5,9.5,18.9
26/11/2012,-,10.5,8.5,9.6
27/11/2012,-,7.0,4.5,70.7
28/11/2012,-,7.0,3.0,40.9
29/11/2012,-,5.5,3.0,15.1
30/11/2012,-,4.5,1.0,0.0
01/12/2012,-,4.0,-2.0,0.0
02/12/2012,-,10.0,-2.5,34.0
03/12/2012,-,11.0,0.5,19.9
04/12/2012,-,9.5,6.5,52.6
05/12/2012,-,8.5,5.0,45.4
06/12/2012,-,6.5,4.0,0.7
07/12/2012,-,10.0,1.5,25.7
08/12/2012,-,8.0,5.5,5.9
09/12/2012,-,5.0,-0.5,0.0
10/12/2012,-,7.0,-2.0,1.8
11/12/2012,-,8.5,-2.0,0.0
12/12/2012,-,9.0,-2.0,0.1
13/12/2012,-,12.5,-1.0,3.0
14/12/2012,-,13.0,7.0,26.5
15/12/2012,-,15.0,6.5,0.0
16/12/2012,-,14.5,4.0,7.7
17/12/2012,-,11.5,6.5,2.2
18/12/2012,-,12.0,5.5,1.7
19/12/2012,-,13.5,4.5,0.0
20/12/2012,-,12.5,8.5,9.3
21/12/2012,-,15.0,7.5,0.4
22/12/2012,-,14.0,5.5,0.0
23/12/2012,-,17.5,5.5,0.0
24/12/2012,-,19.0,8.0,0.0
25/12/2012,-,11.5,7.5,7.5
26/12/2012,-,11.0,7.5,0.7
27/12/2012,-,12.5,1.0,1.1
