Fecha, Temperatura media, Temperatura maxima, Temperatura minima, Precipitacion acumulada
01/01/2012,-,-,-,5.0
02/01/2012,-,-,-,17.2
03/01/2012,-,-,-,4.0
04/01/2012,-,-,-,2.0
05/01/2012,-,-,-,25.5
06/01/2012,-,-,-,3.0
07/01/2012,-,-,-,0.0
08/01/2012,-,-,-,9.4
09/01/2012,-,-,-,2.0
10/01/2012,-,-,-,0.0
11/01/2012,-,-,-,0.0
12/01/2012,-,-,-,0.0
13/01/2012,-,-,-,0.0
14/01/2012,-,-,-,0.0
15/01/2012,-,-,-,0.0
16/01/2012,-,-,-,0.0
17/01/2012,-,-,-,0.0
18/01/2012,-,-,-,0.0
19/01/2012,-,-,-,8.0
20/01/2012,-,-,-,14.7
21/01/2012,-,-,-,25.0
22/01/2012,-,-,-,16.4
23/01/2012,-,-,-,7.0
24/01/2012,-,-,-,0.0
25/01/2012,-,-,-,0.0
26/01/2012,-,-,-,14.1
27/01/2012,-,-,-,2.0
28/01/2012,-,-,-,16.2
29/01/2012,-,-,-,1.5
30/01/2012,-,-,-,0.0
31/01/2012,-,-,-,24.0
01/02/2012,-,-,-,12.4
02/02/2012,-,-,-,8.0
03/02/2012,-,-,-,0.0
04/02/2012,-,-,-,10.6
05/02/2012,-,-,-,11.0
06/02/2012,-,-,-,14.4
07/02/2012,-,-,-,8.2
08/02/2012,-,-,-,4.8
09/02/2012,-,-,-,7.0
10/02/2012,-,-,-,0.0
11/02/2012,-,-,-,0.0
12/02/2012,-,-,-,0.0
13/02/2012,-,-,-,9.6
14/02/2012,-,-,-,2.0
15/02/2012,-,-,-,8.0
16/02/2012,-,-,-,0.0
17/02/2012,-,-,-,0.0
18/02/2012,-,-,-,1.6
19/02/2012,-,-,-,11.0
20/02/2012,-,-,-,0.0
21/02/2012,-,-,-,0.0
22/02/2012,-,-,-,0.0
23/02/2012,-,-,-,0.0
24/02/2012,-,-,-,0.0
25/02/2012,-,-,-,0.0
26/02/2012,-,-,-,1.4
27/02/2012,-,-,-,0.0
28/02/2012,-,-,-,0.0
29/02/2012,-,-,-,0.0
01/03/2012,-,-,-,0.0
02/03/2012,-,-,-,0.0
03/03/2012,-,-,-,0.0
04/03/2012,-,-,-,15.4
05/03/2012,-,-,-,10.0
06/03/2012,-,-,-,8.0
07/03/2012,-,-,-,4.0
08/03/2012,-,-,-,2.2
09/03/2012,-,-,-,0.0
10/03/2012,-,-,-,0.0
11/03/2012,-,-,-,0.0
12/03/2012,-,-,-,0.0
13/03/2012,-,-,-,0.0
14/03/2012,-,-,-,0.0
15/03/2012,-,-,-,0.0
16/03/2012,-,-,-,0.0
17/03/2012,-,-,-,0.8
18/03/2012,-,-,-,8.0
19/03/2012,-,-,-,0.0
20/03/2012,-,-,-,4.3
21/03/2012,-,-,-,10.0
22/03/2012,-,-,-,0.0
23/03/2012,-,-,-,0.0
24/03/2012,-,-,-,0.0
25/03/2012,-,-,-,0.0
26/03/2012,-,-,-,0.0
27/03/2012,-,-,-,0.0
28/03/2012,-,-,-,0.0
29/03/2012,-,-,-,0.0
30/03/2012,-,-,-,0.0
31/03/2012,-,-,-,0.0
01/04/2012,-,-,-,0.0
02/04/2012,-,-,-,1.8
03/04/2012,-,-,-,6.0
04/04/2012,-,-,-,3.2
05/04/2012,-,-,-,5.0
06/04/2012,-,-,-,8.1
07/04/2012,-,-,-,8.7
08/04/2012,-,-,-,10.0
09/04/2012,-,-,-,0.0
10/04/2012,-,-,-,10.2
11/04/2012,-,-,-,0.0
12/04/2012,-,-,-,12.4
13/04/2012,-,-,-,9.6
14/04/2012,-,-,-,16.0
15/04/2012,-,-,-,24.6
16/04/2012,-,-,-,0.0
17/04/2012,-,-,-,5.7
18/04/2012,-,-,-,14.8
19/04/2012,-,-,-,11.0
20/04/2012,-,-,-,15.5
21/04/2012,-,-,-,10.0
22/04/2012,-,-,-,4.2
23/04/2012,-,-,-,5.0
24/04/2012,-,-,-,3.4
25/04/2012,-,-,-,4.4
26/04/2012,-,-,-,6.0
27/04/2012,-,-,-,16.5
28/04/2012,-,-,-,45.0
29/04/2012,-,-,-,6.7
30/04/2012,-,-,-,2.0
01/05/2012,-,-,-,0.0
02/05/2012,-,-,-,0.0
03/05/2012,-,-,-,0.6
04/05/2012,-,-,-,2.0
05/05/2012,-,-,-,10.1
06/05/2012,-,-,-,1.8
07/05/2012,-,-,-,4.0
08/05/2012,-,-,-,5.3
09/05/2012,-,-,-,0.0
10/05/2012,-,-,-,0.0
11/05/2012,-,-,-,0.0
12/05/2012,-,-,-,1.0
13/05/2012,-,-,-,0.0
14/05/2012,-,-,-,0.0
15/05/2012,-,-,-,0.0
16/05/2012,-,-,-,0.0
17/05/2012,-,-,-,0.0
18/05/2012,-,-,-,3.3
19/05/2012,-,-,-,39.0
20/05/2012,-,-,-,28.4
21/05/2012,-,-,-,35.2
22/05/2012,-,-,-,22.0
23/05/2012,-,-,-,0.0
24/05/2012,-,-,-,0.0
25/05/2012,-,-,-,0.0
26/05/2012,-,-,-,0.0
27/05/2012,-,-,-,0.0
28/05/2012,-,-,-,0.0
29/05/2012,-,-,-,0.0
30/05/2012,-,-,-,0.7
31/05/2012,-,-,-,0.0
01/06/2012,-,-,-,0.0
02/06/2012,-,-,-,12.3
03/06/2012,-,-,-,2.0
04/06/2012,-,-,-,0.0
05/06/2012,-,-,-,0.0
06/06/2012,-,-,-,0.0
07/06/2012,-,-,-,0.0
08/06/2012,-,-,-,0.0
09/06/2012,-,-,-,0.0
10/06/2012,-,-,-,6.2
11/06/2012,-,-,-,10.0
12/06/2012,-,-,-,8.0
13/06/2012,-,-,-,0.0
14/06/2012,-,-,-,0.0
15/06/2012,-,-,-,0.0
16/06/2012,-,-,-,5.0
17/06/2012,-,-,-,1.3
18/06/2012,-,-,-,1.0
19/06/2012,-,-,-,3.0
20/06/2012,-,-,-,10.0
21/06/2012,-,-,-,0.0
22/06/2012,-,-,-,0.0
23/06/2012,-,-,-,0.0
24/06/2012,-,-,-,0.0
25/06/2012,-,-,-,0.0
26/06/2012,-,-,-,0.0
27/06/2012,-,-,-,0.0
28/06/2012,-,-,-,5.0
29/06/2012,-,-,-,0.0
30/06/2012,-,-,-,9.5
01/07/2012,-,-,-,1.4
02/07/2012,-,-,-,0.0
03/07/2012,-,-,-,0.0
04/07/2012,-,-,-,0.7
05/07/2012,-,-,-,0.9
06/07/2012,-,-,-,0.0
07/07/2012,-,-,-,1.8
08/07/2012,-,-,-,0.0
09/07/2012,-,-,-,4.0
10/07/2012,-,-,-,4.4
11/07/2012,-,-,-,5.0
12/07/2012,-,-,-,0.0
13/07/2012,-,-,-,0.0
14/07/2012,-,-,-,1.3
15/07/2012,-,-,-,0.0
16/07/2012,-,-,-,0.5
17/07/2012,-,-,-,0.0
18/07/2012,-,-,-,0.6
19/07/2012,-,-,-,0.0
20/07/2012,-,-,-,0.4
21/07/2012,-,-,-,0.0
22/07/2012,-,-,-,0.0
23/07/2012,-,-,-,0.0
24/07/2012,-,-,-,0.0
25/07/2012,-,-,-,0.0
26/07/2012,-,-,-,1.0
27/07/2012,-,-,-,2.3
28/07/2012,-,-,-,3.0
29/07/2012,-,-,-,0.0
30/07/2012,-,-,-,0.0
31/07/2012,-,-,-,0.0
01/08/2012,-,-,-,0.0
02/08/2012,-,-,-,0.0
03/08/2012,-,-,-,0.0
04/08/2012,-,-,-,1.2
05/08/2012,-,-,-,2.0
06/08/2012,-,-,-,0.0
07/08/2012,-,-,-,0.0
08/08/2012,-,-,-,0.0
09/08/2012,-,-,-,0.0
10/08/2012,-,-,-,0.0
11/08/2012,-,-,-,0.0
12/08/2012,-,-,-,0.0
13/08/2012,-,-,-,0.0
14/08/2012,-,-,-,0.0
15/08/2012,-,-,-,0.8
16/08/2012,-,-,-,0.0
17/08/2012,-,-,-,0.0
18/08/2012,-,-,-,0.0
19/08/2012,-,-,-,1.9
20/08/2012,-,-,-,0.0
21/08/2012,-,-,-,0.0
22/08/2012,-,-,-,0.0
23/08/2012,-,-,-,0.0
24/08/2012,-,-,-,1.8
25/08/2012,-,-,-,6.0
26/08/2012,-,-,-,0.0
27/08/2012,-,-,-,25.4
28/08/2012,-,-,-,12.0
29/08/2012,-,-,-,16.5
30/08/2012,-,-,-,8.2
31/08/2012,-,-,-,2.0
01/09/2012,-,-,-,0.0
02/09/2012,-,-,-,0.0
03/09/2012,-,-,-,2.4
04/09/2012,-,-,-,1.1
05/09/2012,-,-,-,0.0
06/09/2012,-,-,-,0.0
07/09/2012,-,-,-,0.0
08/09/2012,-,-,-,0.0
09/09/2012,-,-,-,0.0
10/09/2012,-,-,-,0.0
11/09/2012,-,-,-,3.0
12/09/2012,-,-,-,6.4
13/09/2012,-,-,-,8.0
14/09/2012,-,-,-,0.0
15/09/2012,-,-,-,0.0
16/09/2012,-,-,-,0.0
17/09/2012,-,-,-,1.0
18/09/2012,-,-,-,3.2
19/09/2012,-,-,-,0.0
20/09/2012,-,-,-,0.0
21/09/2012,-,-,-,17.0
22/09/2012,-,-,-,0.0
23/09/2012,-,-,-,14.2
24/09/2012,-,-,-,0.0
25/09/2012,-,-,-,8.8
26/09/2012,-,-,-,0.0
27/09/2012,-,-,-,0.0
28/09/2012,-,-,-,16.8
29/09/2012,-,-,-,10.0
30/09/2012,-,-,-,0.0
01/10/2012,-,-,-,0.0
02/10/2012,-,-,-,0.0
03/10/2012,-,-,-,0.0
04/10/2012,-,-,-,0.0
05/10/2012,-,-,-,0.0
06/10/2012,-,-,-,1.4
07/10/2012,-,-,-,0.0
08/10/2012,-,-,-,0.0
09/10/2012,-,-,-,0.9
10/10/2012,-,-,-,20.2
11/10/2012,-,-,-,1.2
12/10/2012,-,-,-,1.6
13/10/2012,-,-,-,14.2
14/10/2012,-,-,-,13.4
15/10/2012,-,-,-,12.0
16/10/2012,-,-,-,1.2
17/10/2012,-,-,-,2.0
18/10/2012,-,-,-,14.6
19/10/2012,-,-,-,16.0
20/10/2012,-,-,-,64.4
21/10/2012,-,-,-,10.0
22/10/2012,-,-,-,3.0
23/10/2012,-,-,-,0.0
24/10/2012,-,-,-,5.0
25/10/2012,-,-,-,3.4
26/10/2012,-,-,-,30.0
27/10/2012,-,-,-,42.4
28/10/2012,-,-,-,2.6
29/10/2012,-,-,-,0.0
30/10/2012,-,-,-,0.0
31/10/2012,-,-,-,0.0
01/11/2012,-,-,-,6.2
02/11/2012,-,-,-,0.0
03/11/2012,-,-,-,4.4
04/11/2012,-,-,-,10.0
05/11/2012,-,-,-,2.2
06/11/2012,-,-,-,7.0
07/11/2012,-,-,-,0.0
08/11/2012,-,-,-,0.0
09/11/2012,-,-,-,0.0
10/11/2012,-,-,-,3.8
11/11/2012,-,-,-,2.4
12/11/2012,-,-,-,0.0
13/11/2012,-,-,-,0.0
14/11/2012,-,-,-,0.0
15/11/2012,-,-,-,0.0
16/11/2012,-,-,-,0.0
17/11/2012,-,-,-,1.6
18/11/2012,-,-,-,2.8
19/11/2012,-,-,-,0.0
20/11/2012,-,-,-,2.0
21/11/2012,-,-,-,3.7
22/11/2012,-,-,-,0.0
23/11/2012,-,-,-,0.0
24/11/2012,-,-,-,4.6
25/11/2012,-,-,-,12.0
26/11/2012,-,-,-,16.4
27/11/2012,-,-,-,49.6
28/11/2012,-,-,-,36.0
29/11/2012,-,-,-,25.4
30/11/2012,-,-,-,0.0
01/12/2012,-,-,-,0.0
02/12/2012,-,-,-,20.4
03/12/2012,-,-,-,10.0
04/12/2012,-,-,-,35.0
05/12/2012,-,-,-,22.6
06/12/2012,-,-,-,8.0
07/12/2012,-,-,-,11.4
08/12/2012,-,-,-,4.0
09/12/2012,-,-,-,0.0
10/12/2012,-,-,-,0.0
11/12/2012,-,-,-,0.0
12/12/2012,-,-,-,6.2
13/12/2012,-,-,-,30.5
14/12/2012,-,-,-,22.0
15/12/2012,-,-,-,0.0
16/12/2012,-,-,-,10.2
17/12/2012,-,-,-,1.3
18/12/2012,-,-,-,0.0
19/12/2012,-,-,-,1.4
20/12/2012,-,-,-,1.3
21/12/2012,-,-,-,5.0
22/12/2012,-,-,-,0.0
23/12/2012,-,-,-,0.0
24/12/2012,-,-,-,0.0
25/12/2012,-,-,-,0.0
26/12/2012,-,-,-,1.5
27/12/2012,-,-,-,0.0
