Fecha, Temperatura media, Temperatura maxima, Temperatura minima, Precipitacion acumulada
01/01/2009,-,17.1,7.0,0.0
02/01/2009,-,16.3,5.4,0.0
03/01/2009,-,10.4,4.6,0.0
04/01/2009,-,11.0,3.0,0.0
05/01/2009,-,7.0,3.5,8.8
06/01/2009,-,4.9,2.6,2.4
07/01/2009,-,0.8,-1.0,3.6
08/01/2009,-,1.0,-1.6,2.8
09/01/2009,-,6.5,-5.5,0.0
10/01/2009,-,5.7,-1.4,0.0
11/01/2009,-,13.9,-5.5,0.0
12/01/2009,-,13.2,-5.1,0.0
13/01/2009,-,10.8,4.1,26.9
14/01/2009,-,13.8,3.8,0.0
15/01/2009,-,13.2,4.1,0.0
16/01/2009,-,14.8,0.2,0.0
17/01/2009,-,16.4,6.0,0.0
18/01/2009,-,16.0,2.8,0.0
19/01/2009,-,15.8,9.8,30.9
20/01/2009,-,10.7,1.1,18.6
21/01/2009,-,8.9,1.5,12.9
22/01/2009,-,12.6,2.2,8.8
23/01/2009,-,18.2,8.8,34.6
24/01/2009,-,11.6,7.0,17.2
25/01/2009,-,12.0,3.8,14.3
26/01/2009,-,10.5,5.1,36.1
27/01/2009,-,9.5,6.0,37.2
28/01/2009,-,13.5,6.2,4.8
29/01/2009,-,16.6,6.2,0.0
30/01/2009,-,19.0,4.6,0.0
31/01/2009,-,15.6,5.2,0.5
01/02/2009,-,14.6,4.6,0.0
02/02/2009,-,13.2,3.6,9.6
03/02/2009,-,12.2,3.0,0.0
04/02/2009,-,15.8,3.8,0.3
05/02/2009,-,14.4,10.2,3.7
06/02/2009,-,8.6,5.0,26.7
07/02/2009,-,7.3,1.2,22.8
08/02/2009,-,11.8,4.6,11.6
09/02/2009,-,17.0,5.6,3.5
10/02/2009,-,12.6,8.2,55.6
11/02/2009,-,12.0,6.0,101.6
12/02/2009,-,11.0,8.0,1.0
13/02/2009,-,12.0,0.2,0.0
14/02/2009,-,10.5,0.0,0.0
15/02/2009,-,11.3,-0.5,0.0
16/02/2009,-,11.2,-3.3,0.0
17/02/2009,-,12.0,-4.0,0.0
18/02/2009,-,11.0,-1.8,0.0
19/02/2009,-,14.1,3.8,0.0
20/02/2009,-,14.4,1.6,0.0
21/02/2009,-,13.0,-0.6,0.0
22/02/2009,-,12.4,1.0,0.0
23/02/2009,-,11.6,4.4,0.0
24/02/2009,-,11.0,6.1,0.0
25/02/2009,-,15.6,0.0,0.0
26/02/2009,-,17.6,1.3,0.0
27/02/2009,-,19.5,0.3,0.0
28/02/2009,-,20.4,0.5,0.0
01/03/2009,-,14.0,3.6,7.8
02/03/2009,-,14.0,8.0,3.6
03/03/2009,-,13.0,3.5,2.6
04/03/2009,-,10.4,2.2,25.4
05/03/2009,-,10.0,2.3,17.8
06/03/2009,-,12.3,3.2,14.6
07/03/2009,-,13.8,6.2,8.3
08/03/2009,-,14.2,9.3,6.6
09/03/2009,-,14.0,4.7,0.8
10/03/2009,-,15.6,0.6,0.0
11/03/2009,-,14.5,0.7,0.0
12/03/2009,-,20.4,5.6,0.0
13/03/2009,-,26.7,4.6,0.0
14/03/2009,-,17.8,2.2,0.9
15/03/2009,-,16.7,6.2,0.0
16/03/2009,-,19.3,3.4,0.0
17/03/2009,-,23.3,3.2,0.0
18/03/2009,-,25.4,4.2,0.0
19/03/2009,-,23.5,2.2,0.0
20/03/2009,-,19.2,3.6,0.0
21/03/2009,-,14.2,-0.5,0.0
22/03/2009,-,14.7,-1.7,0.0
23/03/2009,-,15.5,-2.2,0.0
24/03/2009,-,12.4,2.0,2.7
25/03/2009,-,14.1,0.5,0.0
26/03/2009,-,17.1,1.2,0.0
27/03/2009,-,16.8,3.0,3.5
28/03/2009,-,12.0,5.0,3.6
29/03/2009,-,12.6,2.8,0.0
30/03/2009,-,12.8,1.5,0.0
31/03/2009,-,13.6,3.6,0.0
01/04/2009,-,15.6,4.8,0.0
02/04/2009,-,14.0,3.2,0.0
03/04/2009,-,16.0,3.5,0.0
04/04/2009,-,17.1,4.3,1.0
05/04/2009,-,16.2,6.0,0.0
06/04/2009,-,23.4,5.2,21.8
07/04/2009,-,14.0,5.7,5.6
08/04/2009,-,16.6,5.6,0.0
09/04/2009,-,23.3,4.2,0.0
10/04/2009,-,15.6,8.4,76.6
11/04/2009,-,12.0,6.1,16.6
12/04/2009,-,14.2,5.6,0.8
13/04/2009,-,19.0,5.6,0.0
14/04/2009,-,17.7,4.6,23.1
15/04/2009,-,18.0,5.0,0.0
16/04/2009,-,19.0,5.6,1.6
17/04/2009,-,17.4,5.6,0.0
18/04/2009,-,19.2,1.8,0.0
19/04/2009,-,16.5,5.1,17.6
20/04/2009,-,14.8,7.5,2.3
21/04/2009,-,15.2,9.2,0.0
22/04/2009,-,18.5,7.5,0.0
23/04/2009,-,25.5,5.0,0.0
24/04/2009,-,20.6,3.8,5.1
25/04/2009,-,11.5,4.0,13.4
26/04/2009,-,13.5,7.6,26.1
27/04/2009,-,17.1,7.6,15.6
28/04/2009,-,15.4,8.5,4.0
29/04/2009,-,17.1,8.7,10.6
30/04/2009,-,18.0,8.1,15.7
01/05/2009,-,18.9,8.8,2.6
02/05/2009,-,17.4,8.8,0.0
03/05/2009,-,19.6,8.5,0.9
04/05/2009,-,16.8,10.6,2.0
05/05/2009,-,18.2,7.2,0.0
06/05/2009,-,26.4,7.1,0.0
07/05/2009,-,16.4,8.0,0.0
08/05/2009,-,14.5,2.5,2.8
09/05/2009,-,26.0,11.0,7.0
10/05/2009,-,26.0,11.6,1.6
11/05/2009,-,28.0,14.0,21.9
12/05/2009,-,25.0,11.5,0.0
13/05/2009,-,21.3,11.8,23.9
14/05/2009,-,17.0,13.8,27.0
15/05/2009,-,16.5,10.0,2.2
16/05/2009,-,25.5,6.5,0.0
17/05/2009,-,20.1,8.2,0.0
18/05/2009,-,17.0,11.6,0.0
19/05/2009,-,18.3,10.0,0.0
20/05/2009,-,22.8,10.1,0.0
21/05/2009,-,19.2,10.6,0.0
22/05/2009,-,24.5,14.6,0.0
23/05/2009,-,27.0,14.6,17.4
24/05/2009,-,17.6,16.0,3.7
25/05/2009,-,20.1,14.3,16.9
26/05/2009,-,17.4,12.1,3.3
27/05/2009,-,18.0,9.8,0.0
28/05/2009,-,23.5,7.4,0.0
29/05/2009,-,29.8,8.5,0.0
30/05/2009,-,27.6,12.2,0.0
31/05/2009,-,24.0,14.0,0.0
01/06/2009,-,24.3,10.6,0.0
02/06/2009,-,24.0,10.7,0.0
03/06/2009,-,27.1,12.0,0.0
04/06/2009,-,22.0,12.3,0.0
05/06/2009,-,18.5,17.5,1.8
06/06/2009,-,20.3,12.0,11.4
07/06/2009,-,21.0,13.1,3.2
08/06/2009,-,25.0,13.0,0.4
09/06/2009,-,22.0,8.0,0.0
10/06/2009,-,29.0,10.5,0.0
11/06/2009,-,23.1,17.2,0.0
12/06/2009,-,28.4,14.0,0.0
13/06/2009,-,27.5,15.2,0.0
14/06/2009,-,28.5,16.0,4.5
15/06/2009,-,21.0,17.0,2.0
16/06/2009,-,21.8,16.0,2.2
17/06/2009,-,31.8,16.6,4.6
18/06/2009,-,22.5,18.0,0.8
19/06/2009,-,20.2,17.7,1.4
20/06/2009,-,21.5,14.6,0.0
21/06/2009,-,22.0,10.5,0.0
22/06/2009,-,24.1,11.2,0.0
23/06/2009,-,26.6,12.0,0.0
24/06/2009,-,25.0,9.6,0.9
25/06/2009,-,24.5,13.5,0.5
26/06/2009,-,23.7,14.7,0.0
27/06/2009,-,28.2,12.6,0.0
28/06/2009,-,32.1,14.5,0.0
29/06/2009,-,32.5,14.5,0.0
30/06/2009,-,30.0,16.2,0.0
01/07/2009,-,31.3,17.2,0.0
02/07/2009,-,23.0,18.2,0.0
03/07/2009,-,26.9,19.5,3.2
04/07/2009,-,22.2,18.3,4.9
05/07/2009,-,24.8,19.0,0.0
06/07/2009,-,21.5,17.5,5.1
07/07/2009,-,21.5,15.6,1.8
08/07/2009,-,22.0,14.3,0.0
09/07/2009,-,23.0,14.0,0.0
10/07/2009,-,24.0,12.2,0.0
11/07/2009,-,31.7,13.0,0.0
12/07/2009,-,28.0,13.4,0.0
13/07/2009,-,24.8,16.0,2.3
14/07/2009,-,26.0,17.0,0.0
15/07/2009,-,26.8,17.0,0.0
16/07/2009,-,34.2,16.1,8.0
17/07/2009,-,20.0,16.0,22.6
18/07/2009,-,23.4,14.0,0.0
19/07/2009,-,25.1,14.4,0.0
20/07/2009,-,32.1,14.8,0.0
21/07/2009,-,39.0,15.0,0.0
22/07/2009,-,34.1,16.8,0.8
23/07/2009,-,28.5,17.0,0.0
24/07/2009,-,25.0,14.0,0.0
25/07/2009,-,25.5,13.5,0.0
26/07/2009,-,30.4,14.2,0.0
27/07/2009,-,24.5,14.6,3.8
28/07/2009,-,29.5,17.4,0.0
29/07/2009,-,23.8,16.3,3.6
30/07/2009,-,24.3,16.6,0.6
31/07/2009,-,28.0,12.0,0.0
01/08/2009,-,29.0,12.5,10.3
02/08/2009,-,22.4,15.5,0.0
03/08/2009,-,25.5,16.0,0.0
04/08/2009,-,31.2,14.6,0.0
05/08/2009,-,29.5,14.7,6.2
06/08/2009,-,25.0,18.0,2.3
07/08/2009,-,21.0,18.0,0.0
08/08/2009,-,22.2,17.0,10.3
09/08/2009,-,22.4,16.1,4.3
10/08/2009,-,21.8,16.0,0.9
11/08/2009,-,26.0,17.0,0.0
12/08/2009,-,26.2,17.0,0.0
13/08/2009,-,26.0,17.5,0.0
14/08/2009,-,28.8,17.4,0.0
15/08/2009,-,37.2,17.5,0.0
16/08/2009,-,28.3,17.0,0.0
17/08/2009,-,25.4,17.2,1.0
18/08/2009,-,30.7,19.6,0.0
19/08/2009,-,28.6,19.6,0.0
20/08/2009,-,24.7,19.4,3.3
21/08/2009,-,25.5,18.5,0.0
22/08/2009,-,26.4,15.0,0.0
23/08/2009,-,37.1,14.2,0.0
24/08/2009,-,23.8,18.7,0.0
25/08/2009,-,23.6,19.0,6.5
26/08/2009,-,27.7,15.8,0.0
27/08/2009,-,30.6,16.8,1.3
28/08/2009,-,22.0,17.1,5.2
29/08/2009,-,22.3,15.5,0.0
30/08/2009,-,24.9,11.5,0.0
31/08/2009,-,36.5,11.0,0.0
01/09/2009,-,22.2,20.0,0.7
02/09/2009,-,25.0,17.3,0.0
03/09/2009,-,22.4,15.5,6.4
04/09/2009,-,21.0,14.2,8.7
05/09/2009,-,22.6,12.5,0.0
06/09/2009,-,29.6,11.1,0.0
07/09/2009,-,28.3,11.2,0.0
08/09/2009,-,34.0,14.0,0.0
09/09/2009,-,27.1,16.1,0.0
10/09/2009,-,26.5,15.6,0.0
11/09/2009,-,25.8,16.1,0.0
12/09/2009,-,24.6,14.6,0.0
13/09/2009,-,23.8,14.0,0.0
14/09/2009,-,20.0,12.0,0.0
15/09/2009,-,21.2,8.5,29.8
16/09/2009,-,20.0,9.2,0.0
17/09/2009,-,23.6,11.3,26.6
18/09/2009,-,16.8,11.6,56.1
19/09/2009,-,19.0,13.5,7.9
20/09/2009,-,20.0,13.2,24.4
21/09/2009,-,20.4,13.6,2.0
22/09/2009,-,21.5,15.5,0.0
23/09/2009,-,26.0,15.6,0.0
24/09/2009,-,24.2,16.0,0.0
25/09/2009,-,23.0,15.4,0.0
26/09/2009,-,23.0,14.0,0.0
27/09/2009,-,23.1,13.1,0.0
28/09/2009,-,23.7,12.7,0.0
29/09/2009,-,25.3,15.5,0.0
30/09/2009,-,27.0,15.6,0.0
01/10/2009,-,22.8,16.5,0.0
02/10/2009,-,21.6,14.0,0.0
03/10/2009,-,22.6,10.5,0.0
04/10/2009,-,27.5,8.5,0.0
05/10/2009,-,27.6,12.0,0.0
06/10/2009,-,31.4,17.7,0.0
07/10/2009,-,29.0,15.5,0.0
08/10/2009,-,21.8,17.0,7.1
09/10/2009,-,21.8,17.0,0.0
10/10/2009,-,22.0,14.5,4.1
11/10/2009,-,20.8,14.5,12.4
12/10/2009,-,19.0,15.0,7.4
13/10/2009,-,18.8,7.8,0.0
14/10/2009,-,18.4,6.5,0.0
15/10/2009,-,14.0,5.6,0.0
16/10/2009,-,13.6,-1.0,0.0
17/10/2009,-,16.0,0.0,0.0
18/10/2009,-,16.5,1.0,0.0
19/10/2009,-,20.2,1.3,0.0
20/10/2009,-,21.8,2.0,24.3
21/10/2009,-,20.4,11.0,4.5
22/10/2009,-,15.2,9.0,41.1
23/10/2009,-,17.2,10.0,13.4
24/10/2009,-,26.0,10.0,3.2
25/10/2009,-,21.4,13.5,0.0
26/10/2009,-,21.0,14.2,0.0
27/10/2009,-,27.2,11.5,0.0
28/10/2009,-,27.3,9.0,0.0
29/10/2009,-,26.2,11.0,0.0
30/10/2009,-,26.5,9.5,0.0
31/10/2009,-,24.4,12.6,0.0
01/11/2009,-,25.2,12.0,27.8
02/11/2009,-,16.4,10.9,11.4
03/11/2009,-,17.8,9.8,10.2
04/11/2009,-,13.0,10.0,30.0
05/11/2009,-,10.1,7.9,43.6
06/11/2009,-,15.8,8.0,15.2
07/11/2009,-,15.4,8.3,53.2
08/11/2009,-,13.1,9.0,40.0
09/11/2009,-,11.7,8.6,2.4
10/11/2009,-,14.3,4.5,71.6
11/11/2009,-,18.6,8.9,1.0
12/11/2009,-,19.9,8.6,0.0
13/11/2009,-,21.0,12.2,0.2
14/11/2009,-,22.5,14.0,0.2
15/11/2009,-,22.7,9.4,0.0
16/11/2009,-,22.6,13.0,0.0
17/11/2009,-,20.5,12.0,0.3
18/11/2009,-,18.6,8.9,0.0
19/11/2009,-,23.1,6.6,0.0
20/11/2009,-,22.2,7.0,0.0
21/11/2009,-,22.5,10.0,4.0
22/11/2009,-,20.2,11.0,0.6
23/11/2009,-,19.0,6.7,0.0
24/11/2009,-,21.0,3.0,0.0
25/11/2009,-,18.5,3.5,5.9
26/11/2009,-,17.0,9.2,0.0
27/11/2009,-,14.5,2.5,0.0
28/11/2009,-,15.0,1.4,1.3
29/11/2009,-,13.0,6.1,7.8
30/11/2009,-,13.0,6.0,42.2
01/12/2009,-,13.2,5.2,7.5
02/12/2009,-,17.4,7.0,11.4
03/12/2009,-,13.1,6.0,26.4
04/12/2009,-,13.6,9.8,33.7
05/12/2009,-,17.0,6.5,0.0
06/12/2009,-,17.0,9.0,0.4
07/12/2009,-,18.0,11.5,0.3
08/12/2009,-,18.0,8.5,0.0
09/12/2009,-,16.5,4.0,0.0
10/12/2009,-,15.0,4.5,0.0
11/12/2009,-,16.0,3.0,0.0
12/12/2009,-,10.0,3.2,0.0
13/12/2009,-,5.5,4.0,0.0
14/12/2009,-,4.0,1.8,0.0
15/12/2009,-,4.4,0.0,0.0
16/12/2009,-,3.3,-2.0,0.0
17/12/2009,-,4.2,-1.8,2.7
18/12/2009,-,5.5,-4.2,8.7
19/12/2009,-,7.0,0.0,0.2
20/12/2009,-,10.0,-3.0,0.0
21/12/2009,-,14.5,-3.0,0.0
22/12/2009,-,16.5,5.8,5.4
23/12/2009,-,15.0,4.3,9.8
24/12/2009,-,19.8,4.0,15.0
25/12/2009,-,13.0,5.0,0.7
26/12/2009,-,9.8,2.0,11.1
27/12/2009,-,14.4,1.4,2.1
