Fecha, Temperatura media, Temperatura maxima, Temperatura minima, Precipitacion acumulada
01/01/2016,6.7,12.4,-0.9,0.7
02/01/2016,5.9,10.5,-0.7,1.9
03/01/2016,4.3,7.1,-0.9,22.8
04/01/2016,6.5,7.3,5.5,16.3
05/01/2016,3.0,7.8,-1.2,0.4
06/01/2016,3.8,7.6,-1.2,9.1
07/01/2016,10.7,15.1,4.7,1.7
08/01/2016,11.7,14.4,8.9,9.4
09/01/2016,9.5,12.7,8.2,0.8
10/01/2016,8.5,10.8,7.0,15.1
11/01/2016,8.8,11.5,6.0,6.7
12/01/2016,4.4,9.1,1.6,1.1
13/01/2016,2.0,6.0,-3.2,3.7
14/01/2016,5.2,7.4,3.7,13.1
15/01/2016,2.7,4.3,0.2,26.3
16/01/2016,0.8,2.9,-0.6,15.4
17/01/2016,1.6,8.2,-1.2,1.2
18/01/2016,3.2,5.9,2.1,13.4
19/01/2016,3.9,7.2,-0.4,0.4
20/01/2016,2.5,9.7,-0.9,0.1
21/01/2016,2.1,11.3,-3.4,0.1
22/01/2016,6.0,10.5,-0.1,2.8
23/01/2016,8.2,15.1,5.1,0.1
24/01/2016,8.0,15.8,3.8,0.1
25/01/2016,7.7,11.2,5.4,0.0
26/01/2016,7.0,8.1,6.0,0.3
27/01/2016,6.9,8.8,5.9,0.0
28/01/2016,6.7,9.1,5.3,3.0
29/01/2016,5.6,7.1,1.5,2.4
30/01/2016,4.4,8.7,-0.3,0.0
31/01/2016,7.9,12.1,3.6,3.2
01/02/2016,9.6,10.8,8.6,0.1
02/02/2016,8.5,9.6,7.6,0.1
03/02/2016,6.0,8.5,3.6,14.8
04/02/2016,4.3,8.3,-0.8,0.1
05/02/2016,3.3,13.6,-4.5,0.1
06/02/2016,5.7,11.7,-2.8,4.6
07/02/2016,5.3,8.0,2.8,2.7
08/02/2016,8.6,14.2,2.8,0.0
09/02/2016,9.4,13.0,4.2,13.0
10/02/2016,4.3,6.3,3.4,9.8
11/02/2016,5.4,7.5,3.7,4.5
12/02/2016,8.0,11.3,5.2,35.0
13/02/2016,9.9,17.1,6.8,34.3
14/02/2016,4.3,8.7,0.2,13.5
15/02/2016,1.2,3.2,0.0,13.2
16/02/2016,0.5,2.9,-0.9,1.4
17/02/2016,1.2,6.8,-4.5,0.0
18/02/2016,1.5,5.4,-0.7,8.5
19/02/2016,1.5,8.3,-2.7,0.1
20/02/2016,4.0,14.5,-4.8,0.0
21/02/2016,6.3,16.3,-2.2,0.0
22/02/2016,6.0,13.1,-1.3,0.0
23/02/2016,7.5,9.9,5.4,0.4
24/02/2016,7.5,13.7,2.1,0.1
25/02/2016,6.3,8.7,4.2,1.6
26/02/2016,5.8,10.4,2.5,10.5
27/02/2016,1.6,4.5,-0.1,67.9
28/02/2016,4.8,6.6,2.8,15.9
29/02/2016,3.8,4.8,2.2,8.8
01/03/2016,6.1,10.1,4.0,0.0
02/03/2016,6.3,8.9,3.2,17.7
03/03/2016,5.0,6.2,3.5,19.8
04/03/2016,5.4,11.4,1.2,14.0
05/03/2016,1.3,4.2,0.1,23.2
06/03/2016,1.0,3.4,0.1,34.4
07/03/2016,2.2,5.5,-0.1,14.9
08/03/2016,2.8,5.7,0.1,5.1
09/03/2016,3.7,7.4,1.2,31.3
10/03/2016,2.8,5.7,-0.1,42.1
11/03/2016,3.8,5.6,2.3,4.2
12/03/2016,4.2,6.5,2.9,0.0
13/03/2016,4.9,8.5,0.3,2.1
14/03/2016,0.8,2.6,0.0,13.6
15/03/2016,4.4,12.1,-0.1,5.4
16/03/2016,4.2,6.8,1.1,7.1
17/03/2016,3.1,9.4,-1.6,0.0
18/03/2016,4.5,11.9,-3.4,0.0
19/03/2016,6.8,9.0,5.5,11.3
20/03/2016,7.7,12.8,2.7,0.5
21/03/2016,6.2,11.8,-1.3,0.1
22/03/2016,6.5,9.4,3.9,0.0
23/03/2016,6.6,9.3,4.2,0.0
24/03/2016,6.9,11.1,1.0,0.0
25/03/2016,6.5,11.3,-0.6,0.1
26/03/2016,12.1,19.4,5.5,5.1
27/03/2016,8.0,14.3,1.4,3.9
28/03/2016,9.7,12.9,5.8,5.1
29/03/2016,10.9,15.0,8.3,2.6
30/03/2016,13.3,20.3,7.2,0.0
31/03/2016,6.4,12.3,3.2,37.7
01/04/2016,4.8,8.4,1.4,13.8
02/04/2016,7.6,15.4,-1.2,0.0
03/04/2016,11.1,15.9,6.3,0.0
04/04/2016,7.1,9.1,5.2,10.0
05/04/2016,7.6,9.8,6.2,7.0
06/04/2016,7.8,11.1,6.1,0.1
07/04/2016,6.1,8.9,1.8,14.4
08/04/2016,3.9,6.9,1.4,19.8
09/04/2016,6.0,9.7,2.8,2.3
10/04/2016,10.4,17.1,1.0,1.5
11/04/2016,7.4,13.1,3.0,5.3
12/04/2016,9.4,14.5,4.7,0.9
13/04/2016,10.3,16.9,5.1,0.0
14/04/2016,11.6,17.9,5.7,4.1
15/04/2016,13.7,20.7,9.3,1.8
16/04/2016,11.3,16.6,8.6,6.9
17/04/2016,8.9,15.0,4.2,0.0
18/04/2016,8.5,14.9,2.4,0.0
19/04/2016,10.4,17.1,1.6,0.0
20/04/2016,10.8,14.0,8.8,2.4
21/04/2016,11.1,16.6,5.2,0.5
22/04/2016,9.2,15.3,3.2,0.1
23/04/2016,8.4,12.8,3.9,3.0
24/04/2016,6.8,9.8,4.5,7.3
25/04/2016,6.2,9.5,4.1,0.0
26/04/2016,8.0,12.7,2.3,0.0
27/04/2016,7.5,11.5,4.8,0.0
28/04/2016,7.0,11.2,3.1,0.0
29/04/2016,9.6,16.7,1.8,0.0
30/04/2016,5.8,8.9,3.4,9.8
01/05/2016,6.4,10.1,2.7,0.5
02/05/2016,7.7,13.2,3.6,0.0
03/05/2016,9.4,14.2,5.6,0.0
04/05/2016,13.7,24.5,1.8,0.0
05/05/2016,15.7,23.3,5.9,0.0
06/05/2016,14.4,18.5,11.4,0.0
07/05/2016,13.0,17.9,10.7,3.8
08/05/2016,12.8,17.1,10.4,18.5
09/05/2016,12.7,18.8,9.1,15.5
10/05/2016,12.5,18.0,7.7,2.5
11/05/2016,11.6,17.6,5.4,1.2
12/05/2016,9.1,15.1,2.8,3.1
13/05/2016,9.4,12.6,4.6,0.9
14/05/2016,10.9,12.8,9.8,3.4
15/05/2016,10.8,13.7,9.2,2.6
16/05/2016,11.0,14.2,9.2,0.0
17/05/2016,12.5,18.6,7.3,0.0
18/05/2016,11.7,19.0,7.5,0.1
19/05/2016,10.5,12.0,8.7,3.1
20/05/2016,15.4,23.4,9.2,0.0
21/05/2016,17.3,27.4,6.6,0.0
22/05/2016,11.1,16.6,6.9,5.4
23/05/2016,9.5,14.5,5.0,1.4
24/05/2016,13.4,22.4,3.9,0.0
25/05/2016,15.4,23.3,11.2,0.0
26/05/2016,15.2,23.6,10.7,0.0
27/05/2016,17.5,25.6,11.1,0.0
28/05/2016,15.6,22.7,10.1,1.9
29/05/2016,12.4,18.1,9.1,0.7
30/05/2016,11.7,16.6,8.4,5.4
31/05/2016,11.8,14.8,8.6,7.8
01/06/2016,12.3,16.8,7.1,0.0
02/06/2016,13.9,18.7,9.9,0.0
03/06/2016,17.1,25.3,10.7,0.0
04/06/2016,15.3,18.6,12.9,0.0
05/06/2016,17.4,23.7,10.5,0.0
06/06/2016,16.7,24.5,11.2,2.7
07/06/2016,17.5,24.3,8.6,0.0
08/06/2016,19.2,26.6,10.9,0.0
09/06/2016,19.1,25.1,12.2,0.0
10/06/2016,15.0,17.0,11.8,0.0
11/06/2016,12.7,16.1,7.3,0.0
12/06/2016,14.2,21.0,6.2,0.0
13/06/2016,15.4,19.7,12.8,1.5
14/06/2016,14.3,20.1,10.1,9.5
15/06/2016,12.3,19.4,6.5,3.8
16/06/2016,9.8,16.4,6.4,8.6
17/06/2016,9.9,16.6,5.0,11.1
18/06/2016,10.6,13.4,7.8,1.3
19/06/2016,12.3,16.3,8.5,0.0
20/06/2016,16.4,23.0,9.1,0.0
21/06/2016,20.3,31.2,8.9,0.0
22/06/2016,23.7,32.2,13.2,0.0
23/06/2016,22.5,31.6,16.7,0.0
24/06/2016,16.5,19.7,14.5,4.1
25/06/2016,13.4,15.1,12.0,0.7
26/06/2016,13.1,15.4,11.2,0.0
27/06/2016,14.9,19.3,11.3,0.0
28/06/2016,16.6,25.4,10.0,0.1
29/06/2016,14.7,19.3,11.3,0.1
30/06/2016,16.5,22.4,10.4,0.0
01/07/2016,16.2,20.6,13.7,0.0
02/07/2016,14.7,16.8,12.8,0.0
03/07/2016,15.7,20.9,10.0,0.0
04/07/2016,18.0,28.7,11.9,3.1
05/07/2016,16.5,18.5,15.1,0.1
06/07/2016,18.5,24.1,14.3,0.1
07/07/2016,22.2,29.4,16.0,3.8
08/07/2016,18.7,25.6,15.9,0.0
09/07/2016,21.0,30.9,12.1,0.0
10/07/2016,19.9,29.0,14.7,11.8
11/07/2016,16.3,21.5,13.9,0.1
12/07/2016,14.0,17.1,11.5,1.3
13/07/2016,13.0,16.2,11.0,1.2
14/07/2016,12.5,16.1,10.1,0.2
15/07/2016,15.0,20.4,8.5,0.0
16/07/2016,18.1,24.5,11.1,0.0
17/07/2016,20.7,32.2,9.0,0.0
18/07/2016,23.0,34.3,12.2,0.0
19/07/2016,24.0,35.6,13.5,0.0
20/07/2016,18.2,24.6,13.9,0.2
21/07/2016,16.9,21.7,14.2,0.9
22/07/2016,15.8,19.4,14.5,0.9
23/07/2016,16.0,18.4,14.0,2.2
24/07/2016,16.1,19.1,14.3,0.0
25/07/2016,17.5,20.8,14.3,0.0
26/07/2016,18.7,23.4,15.6,0.0
27/07/2016,17.0,20.1,14.7,0.0
28/07/2016,17.6,22.5,14.4,0.0
29/07/2016,19.2,27.8,12.5,0.0
30/07/2016,19.4,29.5,16.0,0.0
31/07/2016,16.0,18.7,14.0,1.6
01/08/2016,15.8,19.7,11.4,0.0
02/08/2016,18.0,24.4,10.3,0.0
03/08/2016,18.8,29.7,11.1,0.0
04/08/2016,19.1,25.7,15.9,0.1
05/08/2016,16.7,20.8,13.7,1.3
06/08/2016,16.4,20.9,13.2,0.0
07/08/2016,18.8,24.5,14.3,0.0
08/08/2016,18.5,22.7,16.0,0.0
09/08/2016,15.8,19.9,12.1,1.3
10/08/2016,14.4,18.8,10.9,0.0
11/08/2016,14.1,18.8,9.8,0.0
12/08/2016,18.4,28.8,8.8,0.0
13/08/2016,21.1,32.4,9.8,0.0
14/08/2016,22.7,34.2,12.2,0.0
15/08/2016,22.0,34.1,13.2,0.7
16/08/2016,20.9,32.0,11.8,0.0
17/08/2016,19.2,26.8,16.1,0.2
18/08/2016,16.4,19.6,11.3,0.0
19/08/2016,17.6,29.8,8.3,0.9
20/08/2016,15.4,17.9,13.3,1.8
21/08/2016,15.6,20.2,12.3,0.0
22/08/2016,19.8,32.5,8.8,0.0
23/08/2016,22.8,36.2,11.7,0.0
24/08/2016,23.4,35.8,13.1,0.0
25/08/2016,22.4,35.1,11.6,0.0
26/08/2016,22.0,34.2,14.2,0.0
27/08/2016,22.9,34.6,13.4,0.0
28/08/2016,18.4,22.8,15.8,0.1
29/08/2016,15.9,18.9,14.5,1.8
30/08/2016,17.2,22.8,13.1,0.0
31/08/2016,16.9,24.0,9.7,0.0
01/09/2016,19.4,27.8,13.1,0.0
02/09/2016,20.4,32.9,11.5,0.0
03/09/2016,22.1,35.1,12.0,0.0
04/09/2016,21.5,32.2,12.4,0.0
05/09/2016,19.5,25.9,12.7,0.0
06/09/2016,22.1,29.2,16.7,0.0
07/09/2016,22.2,34.4,11.6,0.0
08/09/2016,17.3,18.9,15.0,0.5
09/09/2016,16.0,23.2,13.4,0.0
10/09/2016,17.9,24.5,11.5,0.0
11/09/2016,21.2,32.6,12.4,0.0
12/09/2016,23.3,34.6,11.8,0.0
13/09/2016,18.7,28.2,11.3,24.3
14/09/2016,11.1,17.6,6.3,1.5
15/09/2016,12.3,17.7,7.5,17.9
16/09/2016,13.0,17.2,9.8,24.9
17/09/2016,12.0,14.7,9.8,15.0
18/09/2016,12.2,16.2,9.8,5.6
19/09/2016,12.8,15.8,9.2,1.2
20/09/2016,14.1,16.7,11.3,0.0
21/09/2016,15.2,23.7,8.5,0.0
22/09/2016,15.6,25.2,8.8,0.0
23/09/2016,16.4,23.3,11.5,0.0
24/09/2016,16.1,26.1,7.8,0.1
25/09/2016,14.2,18.9,11.5,0.0
26/09/2016,14.9,23.2,9.6,0.0
27/09/2016,13.0,17.8,6.6,1.7
28/09/2016,17.1,24.9,9.9,0.1
29/09/2016,15.9,26.4,7.9,0.0
30/09/2016,15.9,26.3,6.7,1.0
01/10/2016,13.6,17.8,10.9,2.3
02/10/2016,14.1,22.4,9.9,0.0
03/10/2016,15.9,26.4,9.1,0.0
04/10/2016,15.6,25.3,9.0,0.0
05/10/2016,13.6,18.4,9.2,0.0
06/10/2016,13.4,18.3,6.4,0.0
07/10/2016,11.0,21.1,3.5,0.0
08/10/2016,11.2,15.2,7.1,0.0
09/10/2016,10.5,14.2,6.8,0.0
10/10/2016,8.8,14.3,3.7,0.0
11/10/2016,7.4,15.1,0.2,0.0
12/10/2016,11.8,15.6,6.0,4.6
13/10/2016,11.9,15.4,9.5,40.4
14/10/2016,9.8,12.7,4.7,5.9
15/10/2016,10.1,19.5,1.0,0.0
16/10/2016,13.7,18.2,10.5,0.0
17/10/2016,13.3,17.6,10.3,0.2
18/10/2016,13.0,17.3,8.4,0.0
19/10/2016,9.6,15.2,4.5,0.0
20/10/2016,8.8,12.2,6.2,0.0
21/10/2016,7.5,13.6,3.0,0.0
22/10/2016,9.5,16.0,2.3,0.0
23/10/2016,14.8,17.1,12.1,5.3
24/10/2016,12.4,16.1,9.6,0.2
25/10/2016,14.4,22.3,8.6,0.8
26/10/2016,14.3,19.4,10.5,0.0
27/10/2016,13.0,18.1,5.3,0.0
28/10/2016,9.9,22.5,1.3,0.1
29/10/2016,10.4,23.8,2.3,0.1
30/10/2016,9.6,24.7,0.0,0.1
31/10/2016,9.3,19.6,0.7,0.0
01/11/2016,10.9,16.7,5.1,0.0
02/11/2016,9.4,21.5,4.1,0.2
03/11/2016,9.3,21.7,1.6,0.0
04/11/2016,8.0,11.5,3.1,3.6
05/11/2016,8.7,11.6,4.7,24.9
06/11/2016,4.6,8.5,3.2,4.0
07/11/2016,2.7,5.8,0.4,7.8
08/11/2016,3.1,6.4,0.2,15.8
09/11/2016,6.9,8.6,3.7,20.0
10/11/2016,8.1,11.5,5.4,0.6
11/11/2016,8.6,10.5,6.5,5.3
12/11/2016,8.2,12.7,4.2,6.8
13/11/2016,9.6,11.4,7.9,4.9
14/11/2016,7.2,8.7,5.5,0.8
15/11/2016,6.0,9.0,4.3,0.0
16/11/2016,7.6,12.3,3.9,0.0
17/11/2016,7.7,19.7,-0.3,0.0
18/11/2016,7.6,11.7,4.5,0.0
19/11/2016,8.2,11.7,4.7,1.1
20/11/2016,9.2,11.6,8.4,3.0
21/11/2016,9.9,15.2,4.5,4.2
22/11/2016,6.0,7.8,4.6,16.9
23/11/2016,2.7,5.0,1.0,48.7
24/11/2016,4.1,9.1,-1.1,3.7
25/11/2016,1.5,8.5,-2.9,0.2
26/11/2016,4.6,8.5,-1.1,0.8
27/11/2016,7.9,16.6,1.7,0.2
28/11/2016,4.9,10.3,-1.6,0.0
29/11/2016,6.9,12.4,3.0,0.0
30/11/2016,8.2,12.8,4.6,0.0
01/12/2016,4.5,13.7,-2.1,0.0
02/12/2016,3.5,13.5,-1.6,0.1
03/12/2016,1.9,8.6,-1.4,0.2
04/12/2016,8.8,10.5,4.7,0.1
05/12/2016,9.2,15.6,2.9,0.0
06/12/2016,5.9,16.9,-0.5,0.1
07/12/2016,4.2,10.6,-2.4,0.0
08/12/2016,6.6,11.1,3.1,0.0
09/12/2016,5.4,12.6,0.4,0.1
10/12/2016,3.0,10.3,0.2,0.2
11/12/2016,5.5,12.6,-2.2,0.2
12/12/2016,9.1,13.3,2.9,0.0
13/12/2016,3.2,11.4,-1.0,0.1
14/12/2016,4.2,10.6,0.4,0.0
15/12/2016,3.1,8.7,-2.3,0.2
16/12/2016,7.1,9.7,2.2,0.8
17/12/2016,5.0,11.7,0.1,0.1
18/12/2016,2.5,11.4,-2.1,0.2
19/12/2016,2.7,7.5,-4.5,0.5
20/12/2016,4.4,5.4,3.4,1.6
21/12/2016,6.1,8.4,3.3,0.4
22/12/2016,6.5,8.6,4.3,6.8
23/12/2016,8.6,12.9,6.7,0.4
24/12/2016,9.2,10.4,6.9,2.1
25/12/2016,7.1,10.0,0.9,0.0
26/12/2016,4.7,7.4,0.5,0.2
27/12/2016,4.0,13.5,-1.8,0.0
28/12/2016,1.8,13.5,-3.3,0.2
29/12/2016,0.9,14.5,-7.9,0.1
30/12/2016,0.4,10.7,-6.0,0.0
31/12/2016,-0.1,8.1,-6.7,0.0
