Fecha, Temperatura media, Temperatura maxima, Temperatura minima, Precipitacion acumulada
01/01/2012,-,15.0,8.0,8.6
02/01/2012,-,11.0,9.0,9.8
03/01/2012,-,13.0,4.0,2.1
04/01/2012,-,12.0,7.0,0.7
05/01/2012,-,13.0,7.0,33.7
06/01/2012,-,12.0,9.0,1.8
07/01/2012,-,13.0,8.0,2.4
08/01/2012,-,11.0,8.0,3.2
09/01/2012,-,8.0,7.0,0.0
10/01/2012,-,9.0,1.0,0.0
11/01/2012,-,9.0,0.0,0.0
12/01/2012,-,9.0,3.0,0.0
13/01/2012,-,9.0,5.0,0.0
14/01/2012,-,6.0,3.0,0.0
15/01/2012,-,12.0,-2.0,0.1
16/01/2012,-,14.0,4.0,0.0
17/01/2012,-,11.0,2.0,0.0
18/01/2012,-,11.0,1.0,0.2
19/01/2012,-,12.0,4.0,14.7
20/01/2012,-,12.0,9.0,18.4
21/01/2012,-,12.0,9.0,12.1
22/01/2012,-,11.0,9.0,6.9
23/01/2012,-,11.0,9.0,0.9
24/01/2012,-,10.0,8.0,0.0
25/01/2012,-,13.0,1.0,0.0
26/01/2012,-,11.0,3.0,15.8
27/01/2012,-,9.0,5.0,1.8
28/01/2012,-,7.0,2.0,17.4
29/01/2012,-,5.0,2.0,0.0
30/01/2012,-,9.0,-1.0,0.0
31/01/2012,-,9.0,1.0,35.4
01/02/2012,-,6.0,0.0,3.0
02/02/2012,-,-1.0,-3.0,0.2
03/02/2012,-,1.0,-4.0,0.0
04/02/2012,-,4.0,-4.0,4.7
05/02/2012,-,8.0,-2.0,16.8
06/02/2012,-,6.0,2.0,0.6
07/02/2012,-,5.0,0.0,0.3
08/02/2012,-,-1.0,-6.0,0.0
09/02/2012,-,0.0,-3.0,0.0
10/02/2012,-,3.0,-2.0,0.0
11/02/2012,-,2.0,-8.0,0.0
12/02/2012,-,2.0,-8.0,0.0
13/02/2012,-,6.0,-7.0,8.2
14/02/2012,-,6.0,0.0,7.1
15/02/2012,-,8.0,2.0,6.2
16/02/2012,-,8.0,3.0,0.0
17/02/2012,-,8.0,1.0,0.0
18/02/2012,-,11.0,-2.0,0.4
19/02/2012,-,8.0,4.0,4.7
20/02/2012,-,9.0,-1.0,0.0
21/02/2012,-,8.0,-2.0,0.0
22/02/2012,-,10.0,-4.0,0.0
23/02/2012,-,15.0,-1.0,0.0
24/02/2012,-,14.0,-2.0,0.0
25/02/2012,-,12.0,5.0,0.0
26/02/2012,-,12.0,8.0,0.0
27/02/2012,-,13.0,8.0,0.0
28/02/2012,-,16.0,0.0,0.0
29/02/2012,-,19.0,1.0,0.0
01/03/2012,-,16.0,5.0,0.0
02/03/2012,-,21.0,3.0,0.0
03/03/2012,-,17.0,5.0,0.0
04/03/2012,-,14.0,7.0,12.8
05/03/2012,-,10.0,5.0,10.6
06/03/2012,-,8.0,4.0,4.9
07/03/2012,-,11.0,0.0,2.2
08/03/2012,-,11.0,4.0,0.0
09/03/2012,-,12.0,0.0,0.0
10/03/2012,-,12.0,0.0,0.0
11/03/2012,-,12.0,3.0,0.0
12/03/2012,-,14.0,7.0,0.0
13/03/2012,-,18.0,4.0,0.0
14/03/2012,-,23.0,5.0,0.0
15/03/2012,-,26.0,6.0,0.0
16/03/2012,-,19.0,7.0,0.0
17/03/2012,-,19.0,6.0,2.5
18/03/2012,-,11.0,5.0,9.7
19/03/2012,-,11.0,5.0,3.7
20/03/2012,-,10.0,3.0,1.9
21/03/2012,-,9.0,5.0,15.3
22/03/2012,-,17.0,4.0,0.0
23/03/2012,-,20.0,3.0,0.0
24/03/2012,-,22.0,7.0,0.0
25/03/2012,-,22.0,8.0,0.0
26/03/2012,-,24.0,6.0,0.0
27/03/2012,-,22.0,11.0,0.0
28/03/2012,-,22.0,6.0,0.0
29/03/2012,-,21.0,5.0,0.0
30/03/2012,-,19.0,5.0,0.0
31/03/2012,-,18.0,5.0,0.0
01/04/2012,-,17.0,6.0,0.0
02/04/2012,-,16.0,7.0,0.0
03/04/2012,-,11.0,7.0,0.1
04/04/2012,-,14.0,8.0,3.9
05/04/2012,-,13.0,8.0,3.4
06/04/2012,-,13.0,9.0,10.7
07/04/2012,-,13.0,8.0,5.9
08/04/2012,-,11.0,7.0,9.4
09/04/2012,-,20.0,8.0,0.1
10/04/2012,-,16.0,10.0,4.3
11/04/2012,-,13.0,7.0,0.3
12/04/2012,-,13.0,8.0,18.3
13/04/2012,-,12.0,6.0,5.9
14/04/2012,-,12.0,7.0,18.2
15/04/2012,-,10.0,5.0,12.8
16/04/2012,-,9.0,6.0,1.1
17/04/2012,-,15.0,1.0,7.2
18/04/2012,-,13.0,4.0,7.9
19/04/2012,-,11.0,8.0,19.0
20/04/2012,-,13.0,8.0,1.9
21/04/2012,-,15.0,9.0,9.1
22/04/2012,-,13.0,7.0,0.6
23/04/2012,-,13.0,8.0,17.4
24/04/2012,-,15.0,6.0,6.4
25/04/2012,-,21.0,9.0,4.2
26/04/2012,-,16.0,10.0,0.4
27/04/2012,-,16.0,10.0,32.7
28/04/2012,-,10.0,8.0,25.1
29/04/2012,-,16.0,7.0,6.9
30/04/2012,-,13.0,9.0,5.0
01/05/2012,-,19.0,8.0,0.0
02/05/2012,-,23.0,8.0,0.3
03/05/2012,-,24.0,12.0,0.0
04/05/2012,-,19.0,13.0,0.0
05/05/2012,-,18.0,13.0,1.6
06/05/2012,-,16.0,6.0,0.0
07/05/2012,-,23.0,7.0,4.1
08/05/2012,-,25.0,9.0,2.9
09/05/2012,-,28.0,16.0,0.0
10/05/2012,-,32.0,19.0,0.0
11/05/2012,-,26.0,16.0,0.0
12/05/2012,-,16.0,15.0,0.0
13/05/2012,-,17.0,13.0,0.0
14/05/2012,-,19.0,7.0,0.0
15/05/2012,-,15.0,8.0,0.0
16/05/2012,-,18.0,8.0,0.0
17/05/2012,-,24.0,11.0,0.0
18/05/2012,-,15.0,15.0,8.3
19/05/2012,-,13.0,12.0,30.9
20/05/2012,-,11.0,10.0,37.8
21/05/2012,-,14.0,10.0,35.1
22/05/2012,-,13.0,11.0,9.4
23/05/2012,-,18.0,10.0,0.0
24/05/2012,-,23.0,11.0,0.0
25/05/2012,-,31.0,12.0,0.0
26/05/2012,-,19.0,15.0,0.0
27/05/2012,-,21.0,9.0,0.0
28/05/2012,-,22.0,10.0,0.0
29/05/2012,-,26.0,12.0,0.0
30/05/2012,-,23.0,14.0,0.0
31/05/2012,-,23.0,14.0,0.0
01/06/2012,-,30.0,15.0,0.0
02/06/2012,-,29.0,18.0,16.4
03/06/2012,-,19.0,14.0,1.1
04/06/2012,-,20.0,13.0,0.0
05/06/2012,-,26.0,10.0,0.0
06/06/2012,-,24.0,12.0,0.0
07/06/2012,-,26.0,18.0,0.1
08/06/2012,-,18.0,14.0,0.0
09/06/2012,-,20.0,9.0,1.8
10/06/2012,-,21.0,11.0,0.7
11/06/2012,-,17.0,15.0,21.1
12/06/2012,-,17.0,13.0,2.6
13/06/2012,-,20.0,12.0,0.0
14/06/2012,-,30.0,11.0,0.0
15/06/2012,-,30.0,12.0,0.0
16/06/2012,-,27.0,14.0,1.9
17/06/2012,-,25.0,13.0,0.2
18/06/2012,-,18.0,15.0,7.6
19/06/2012,-,24.0,15.0,4.3
20/06/2012,-,29.0,17.0,4.7
21/06/2012,-,25.0,16.0,0.0
22/06/2012,-,19.0,10.0,0.0
23/06/2012,-,22.0,14.0,0.0
24/06/2012,-,25.0,14.0,0.0
25/06/2012,-,25.0,12.0,0.0
26/06/2012,-,28.0,14.0,0.0
27/06/2012,-,36.0,16.0,0.1
28/06/2012,-,23.0,19.0,0.0
29/06/2012,-,21.0,17.0,0.0
30/06/2012,-,23.0,14.0,7.9
01/07/2012,-,18.0,13.0,1.3
02/07/2012,-,21.0,10.0,0.0
03/07/2012,-,25.0,13.0,0.0
04/07/2012,-,22.0,14.0,7.3
05/07/2012,-,19.0,14.0,1.3
06/07/2012,-,21.0,14.0,0.0
07/07/2012,-,30.0,12.0,0.0
08/07/2012,-,21.0,13.0,0.0
09/07/2012,-,18.0,14.0,2.1
10/07/2012,-,17.0,14.0,7.8
11/07/2012,-,18.0,13.0,0.8
12/07/2012,-,21.0,12.0,0.0
13/07/2012,-,31.0,13.0,0.5
14/07/2012,-,20.0,14.0,0.0
15/07/2012,-,20.0,13.0,0.1
16/07/2012,-,23.0,12.0,0.0
17/07/2012,-,28.0,12.0,0.0
18/07/2012,-,28.0,14.0,0.0
19/07/2012,-,21.0,13.0,0.0
20/07/2012,-,21.0,14.0,0.0
21/07/2012,-,22.0,14.0,0.0
22/07/2012,-,22.0,14.0,0.0
23/07/2012,-,25.0,12.0,0.0
24/07/2012,-,29.0,12.0,0.0
25/07/2012,-,31.0,15.0,0.0
26/07/2012,-,34.0,18.0,0.6
27/07/2012,-,28.0,19.0,2.0
28/07/2012,-,20.0,17.0,0.0
29/07/2012,-,22.0,16.0,0.0
30/07/2012,-,23.0,14.0,0.0
31/07/2012,-,29.0,12.0,0.0
01/08/2012,-,29.0,16.0,0.0
02/08/2012,-,23.0,17.0,0.0
03/08/2012,-,23.0,16.0,0.0
04/08/2012,-,23.0,15.0,1.6
05/08/2012,-,18.0,16.0,4.7
06/08/2012,-,22.0,13.0,0.0
07/08/2012,-,27.0,15.0,0.0
08/08/2012,-,34.0,15.0,0.0
09/08/2012,-,35.0,17.0,0.0
10/08/2012,-,36.0,16.0,0.0
11/08/2012,-,30.0,18.0,0.0
12/08/2012,-,24.0,15.0,0.0
13/08/2012,-,26.0,15.0,0.0
14/08/2012,-,30.0,16.0,0.0
15/08/2012,-,24.0,19.0,0.0
16/08/2012,-,34.0,15.0,0.0
17/08/2012,-,38.0,16.0,0.0
18/08/2012,-,34.0,17.0,0.0
19/08/2012,-,29.0,16.0,0.0
20/08/2012,-,27.0,20.0,0.0
21/08/2012,-,27.0,19.0,0.0
22/08/2012,-,25.0,18.0,0.0
23/08/2012,-,25.0,16.0,0.0
24/08/2012,-,25.0,15.0,1.6
25/08/2012,-,20.0,15.0,3.0
26/08/2012,-,23.0,14.0,0.0
27/08/2012,-,35.0,11.0,2.9
28/08/2012,-,26.0,15.0,0.0
29/08/2012,-,24.0,18.0,4.8
30/08/2012,-,19.0,16.0,19.8
31/08/2012,-,18.0,13.0,3.4
01/09/2012,-,18.0,12.0,0.0
02/09/2012,-,20.0,8.0,0.0
03/09/2012,-,20.0,9.0,0.6
04/09/2012,-,21.0,15.0,0.0
05/09/2012,-,23.0,15.0,0.0
06/09/2012,-,25.0,14.0,0.0
07/09/2012,-,33.0,14.0,0.0
08/09/2012,-,31.0,15.0,0.0
09/09/2012,-,25.0,13.0,0.0
10/09/2012,-,26.0,14.0,0.0
11/09/2012,-,27.0,18.0,1.9
12/09/2012,-,18.0,17.0,15.3
13/09/2012,-,18.0,13.0,5.0
14/09/2012,-,20.0,12.0,0.0
15/09/2012,-,21.0,13.0,0.0
16/09/2012,-,28.0,11.0,0.0
17/09/2012,-,23.0,13.0,0.1
18/09/2012,-,18.0,17.0,2.3
19/09/2012,-,20.0,14.0,0.0
20/09/2012,-,29.0,8.0,0.0
21/09/2012,-,31.0,13.0,2.3
22/09/2012,-,30.0,13.0,0.0
23/09/2012,-,32.0,16.0,4.9
24/09/2012,-,22.0,17.0,0.0
25/09/2012,-,21.0,13.0,15.8
26/09/2012,-,19.0,11.0,0.0
27/09/2012,-,19.0,13.0,0.0
28/09/2012,-,19.0,11.0,7.8
29/09/2012,-,16.0,13.0,8.6
30/09/2012,-,17.0,11.0,0.0
01/10/2012,-,19.0,7.0,0.0
02/10/2012,-,22.0,7.0,0.0
03/10/2012,-,23.0,9.0,0.0
04/10/2012,-,22.0,13.0,0.0
05/10/2012,-,27.0,11.0,0.0
06/10/2012,-,26.0,16.0,0.0
07/10/2012,-,23.0,15.0,0.0
08/10/2012,-,29.0,14.0,0.0
09/10/2012,-,24.0,15.0,0.0
10/10/2012,-,21.0,14.0,0.0
11/10/2012,-,22.0,15.0,33.2
12/10/2012,-,16.0,13.0,14.3
13/10/2012,-,19.0,7.0,0.1
14/10/2012,-,17.0,11.0,25.6
15/10/2012,-,16.0,10.0,1.8
16/10/2012,-,21.0,7.0,0.2
17/10/2012,-,23.0,14.0,0.0
18/10/2012,-,21.0,17.0,14.9
19/10/2012,-,17.0,14.0,18.4
20/10/2012,-,15.0,12.0,81.7
21/10/2012,-,16.0,13.0,12.4
22/10/2012,-,19.0,13.0,2.3
23/10/2012,-,20.0,11.0,0.0
24/10/2012,-,23.0,10.0,0.6
25/10/2012,-,21.0,14.0,8.7
26/10/2012,-,18.0,15.0,70.9
27/10/2012,-,16.0,13.0,12.3
28/10/2012,-,9.0,3.0,0.0
29/10/2012,-,13.0,1.0,0.0
30/10/2012,-,15.0,1.0,0.0
31/10/2012,-,16.0,3.0,0.0
01/11/2012,-,17.0,8.0,11.1
02/11/2012,-,19.0,9.0,0.0
03/11/2012,-,19.0,13.0,0.6
04/11/2012,-,14.0,10.0,7.6
05/11/2012,-,13.0,6.0,3.7
06/11/2012,-,12.0,7.0,0.6
07/11/2012,-,15.0,0.0,0.0
08/11/2012,-,18.0,5.0,0.0
09/11/2012,-,18.0,14.0,6.9
10/11/2012,-,16.0,12.0,1.8
11/11/2012,-,12.0,7.0,10.8
12/11/2012,-,12.0,4.0,0.0
13/11/2012,-,13.0,0.0,0.0
14/11/2012,-,21.0,4.0,0.0
15/11/2012,-,20.0,6.0,0.0
16/11/2012,-,19.0,10.0,0.0
17/11/2012,-,18.0,10.0,9.3
18/11/2012,-,13.0,12.0,23.6
19/11/2012,-,15.0,6.0,0.0
20/11/2012,-,17.0,5.0,0.3
21/11/2012,-,12.0,7.0,3.8
22/11/2012,-,16.0,4.0,0.0
23/11/2012,-,18.0,6.0,0.0
24/11/2012,-,18.0,11.0,0.1
25/11/2012,-,16.0,11.0,16.9
26/11/2012,-,11.0,9.0,5.4
27/11/2012,-,9.0,6.0,53.8
28/11/2012,-,8.0,4.0,31.3
29/11/2012,-,6.0,4.0,18.3
30/11/2012,-,6.0,2.0,0.0
01/12/2012,-,5.0,-2.0,0.0
02/12/2012,-,12.0,-1.0,14.2
03/12/2012,-,12.0,4.0,17.6
04/12/2012,-,11.0,8.0,31.3
05/12/2012,-,9.0,6.0,26.2
06/12/2012,-,11.0,5.0,0.0
07/12/2012,-,13.0,6.0,12.6
08/12/2012,-,9.0,7.0,3.0
09/12/2012,-,7.0,0.0,0.0
10/12/2012,-,6.0,-1.0,1.2
11/12/2012,-,6.0,0.0,0.0
12/12/2012,-,10.0,-3.0,0.1
13/12/2012,-,15.0,1.0,1.8
14/12/2012,-,14.0,8.0,27.9
15/12/2012,-,17.0,10.0,0.0
16/12/2012,-,16.0,4.0,7.3
17/12/2012,-,13.0,4.0,0.9
18/12/2012,-,14.0,6.0,0.3
19/12/2012,-,15.0,6.0,0.0
20/12/2012,-,14.0,13.0,7.1
21/12/2012,-,14.0,9.0,0.5
22/12/2012,-,17.0,6.0,0.0
23/12/2012,-,20.0,4.0,0.0
24/12/2012,-,20.0,8.0,0.0
25/12/2012,-,13.0,9.0,3.8
26/12/2012,-,13.0,7.0,0.3
27/12/2012,-,14.0,4.0,0.0
