Fecha, Temperatura media, Temperatura maxima, Temperatura minima, Precipitacion acumulada
01/01/2010,-,11.0,6.0,13.0
02/01/2010,-,10.0,5.0,2.5
03/01/2010,-,11.0,6.0,1.0
04/01/2010,-,12.0,6.0,5.0
05/01/2010,-,6.0,5.0,4.2
06/01/2010,-,7.0,1.0,0.0
07/01/2010,-,3.5,1.0,3.5
08/01/2010,-,2.0,-1.0,6.5
09/01/2010,-,1.0,-2.0,12.5
10/01/2010,-,5.0,-1.0,0.0
11/01/2010,-,7.0,0.0,0.0
12/01/2010,-,8.0,-1.0,10.0
13/01/2010,-,10.0,-1.0,5.0
14/01/2010,-,10.0,5.0,51.0
15/01/2010,-,13.0,5.0,0.0
16/01/2010,-,16.5,7.0,5.2
17/01/2010,-,11.0,8.0,0.0
18/01/2010,-,14.0,6.0,0.0
19/01/2010,-,17.0,6.0,12.0
20/01/2010,-,12.0,7.0,4.0
21/01/2010,-,12.5,5.0,0.0
22/01/2010,-,13.0,5.0,1.2
23/01/2010,-,12.0,8.0,2.8
24/01/2010,-,8.0,7.0,6.8
25/01/2010,-,8.0,3.0,0.0
26/01/2010,-,8.0,-2.0,0.0
27/01/2010,-,4.5,-1.0,0.0
28/01/2010,-,7.5,0.0,17.0
29/01/2010,-,8.5,3.0,45.6
30/01/2010,-,6.5,4.0,39.5
31/01/2010,-,5.5,1.0,2.5
01/02/2010,-,8.0,0.0,4.0
02/02/2010,-,13.0,1.0,0.0
03/02/2010,-,13.0,1.0,0.0
04/02/2010,-,13.0,4.0,6.2
05/02/2010,-,15.0,5.0,4.0
06/02/2010,-,11.5,7.5,5.5
07/02/2010,-,12.0,6.0,0.0
08/02/2010,-,11.0,5.0,13.7
09/02/2010,-,5.0,4.0,10.5
10/02/2010,-,5.0,2.0,12.0
11/02/2010,-,1.0,-2.5,2.0
12/02/2010,-,1.0,-4.0,0.0
13/02/2010,-,0.0,-2.5,0.0
14/02/2010,-,2.0,-2.0,0.0
15/02/2010,-,3.0,-4.0,0.0
16/02/2010,-,9.0,1.0,4.0
17/02/2010,-,9.0,4.0,6.5
18/02/2010,-,13.0,4.0,9.8
19/02/2010,-,9.0,3.5,10.6
20/02/2010,-,12.0,1.0,1.8
21/02/2010,-,10.0,4.0,0.0
22/02/2010,-,16.0,4.0,0.2
23/02/2010,-,17.0,10.0,0.0
24/02/2010,-,16.0,10.0,3.5
25/02/2010,-,17.0,10.0,1.1
26/02/2010,-,13.0,6.0,0.0
27/02/2010,-,19.0,7.5,0.0
28/02/2010,-,15.0,9.0,0.5
01/03/2010,-,16.5,7.0,0.0
02/03/2010,-,19.0,6.0,2.0
03/03/2010,-,11.0,7.0,0.5
04/03/2010,-,10.0,7.0,6.5
05/03/2010,-,11.0,4.0,0.0
06/03/2010,-,16.0,5.0,0.0
07/03/2010,-,8.0,-0.5,1.0
08/03/2010,-,4.0,-3.0,0.0
09/03/2010,-,6.0,-3.0,0.0
10/03/2010,-,1.0,0.0,10.0
11/03/2010,-,4.0,-2.0,0.0
12/03/2010,-,7.0,0.0,0.0
13/03/2010,-,11.0,2.0,0.0
14/03/2010,-,9.0,3.0,0.0
15/03/2010,-,14.0,3.5,0.0
16/03/2010,-,19.0,1.0,0.0
17/03/2010,-,22.0,5.0,0.0
18/03/2010,-,18.0,13.0,0.0
19/03/2010,-,20.0,14.0,0.0
20/03/2010,-,21.0,15.0,5.7
21/03/2010,-,12.0,9.0,0.5
22/03/2010,-,16.0,8.0,0.0
23/03/2010,-,22.0,4.0,0.0
24/03/2010,-,19.0,14.0,4.0
25/03/2010,-,18.0,11.0,4.0
26/03/2010,-,17.0,8.0,0.0
27/03/2010,-,16.0,9.0,0.0
28/03/2010,-,21.0,7.0,0.0
29/03/2010,-,19.0,11.0,12.5
30/03/2010,-,11.5,7.0,12.5
31/03/2010,-,14.5,5.5,13.8
01/04/2010,-,12.0,5.0,0.7
02/04/2010,-,16.5,4.0,0.5
03/04/2010,-,15.0,7.5,8.8
04/04/2010,-,11.0,6.0,1.0
05/04/2010,-,19.0,3.0,0.0
06/04/2010,-,22.0,5.0,9.7
07/04/2010,-,12.0,7.0,18.2
08/04/2010,-,13.5,7.0,0.0
09/04/2010,-,18.0,7.0,0.0
10/04/2010,-,23.5,7.5,0.0
11/04/2010,-,17.0,7.0,0.0
12/04/2010,-,13.0,7.0,0.0
13/04/2010,-,15.0,2.5,0.0
14/04/2010,-,17.0,4.0,0.0
15/04/2010,-,15.0,5.0,0.0
16/04/2010,-,20.0,6.0,0.0
17/04/2010,-,22.0,7.0,0.0
18/04/2010,-,22.0,12.0,0.0
19/04/2010,-,22.0,12.0,0.0
20/04/2010,-,22.0,8.0,0.0
21/04/2010,-,26.0,11.0,3.5
22/04/2010,-,15.0,13.0,8.0
23/04/2010,-,14.0,11.0,0.4
24/04/2010,-,24.5,7.0,0.0
25/04/2010,-,18.5,10.0,0.0
26/04/2010,-,23.0,8.0,0.0
27/04/2010,-,26.0,9.0,0.0
28/04/2010,-,30.0,13.0,0.0
29/04/2010,-,26.0,15.0,2.5
30/04/2010,-,15.0,11.1,13.2
01/05/2010,-,14.0,10.0,3.7
02/05/2010,-,13.0,8.0,9.0
03/05/2010,-,10.0,7.0,22.0
04/05/2010,-,7.0,5.0,35.7
05/05/2010,-,9.0,5.0,31.5
06/05/2010,-,12.0,5.0,0.3
07/05/2010,-,16.0,5.0,6.2
08/05/2010,-,17.5,7.0,1.5
09/05/2010,-,19.5,10.0,5.8
10/05/2010,-,22.0,8.0,0.0
11/05/2010,-,14.0,8.0,0.8
12/05/2010,-,12.0,8.0,6.2
13/05/2010,-,12.0,7.0,6.5
14/05/2010,-,16.0,3.0,11.0
15/05/2010,-,10.0,4.0,26.0
16/05/2010,-,15.0,6.5,0.0
17/05/2010,-,18.5,7.0,0.0
18/05/2010,-,20.0,6.0,0.0
19/05/2010,-,18.0,8.0,0.0
20/05/2010,-,22.5,10.0,0.0
21/05/2010,-,26.0,7.5,0.0
22/05/2010,-,28.0,9.0,0.0
23/05/2010,-,30.0,12.0,0.0
24/05/2010,-,30.0,17.0,0.0
25/05/2010,-,30.0,14.0,0.0
26/05/2010,-,23.0,14.0,1.7
27/05/2010,-,21.0,11.0,3.5
28/05/2010,-,16.0,12.0,2.1
29/05/2010,-,22.0,7.0,0.0
30/05/2010,-,18.0,12.0,7.2
31/05/2010,-,23.0,14.0,0.2
01/06/2010,-,24.0,11.0,0.0
02/06/2010,-,22.0,13.0,0.0
03/06/2010,-,26.0,8.0,0.0
04/06/2010,-,25.0,10.0,0.0
05/06/2010,-,26.0,13.0,6.0
06/06/2010,-,17.0,14.0,0.2
07/06/2010,-,27.0,11.0,0.0
08/06/2010,-,21.0,12.0,9.0
09/06/2010,-,22.0,12.0,0.0
10/06/2010,-,22.5,15.0,0.0
11/06/2010,-,22.0,16.0,2.5
12/06/2010,-,19.0,13.0,1.8
13/06/2010,-,17.0,13.0,5.0
14/06/2010,-,14.0,11.0,10.5
15/06/2010,-,15.0,9.0,11.0
16/06/2010,-,13.0,9.0,77.0
17/06/2010,-,12.0,10.0,5.0
18/06/2010,-,14.0,10.0,3.2
19/06/2010,-,17.0,10.0,19.5
20/06/2010,-,16.0,10.0,0.0
21/06/2010,-,20.0,9.0,0.0
22/06/2010,-,22.5,10.0,0.0
23/06/2010,-,25.0,9.0,0.0
24/06/2010,-,27.5,10.0,0.0
25/06/2010,-,29.0,13.0,0.0
26/06/2010,-,27.5,16.0,0.0
27/06/2010,-,23.0,15.0,0.3
28/06/2010,-,26.0,15.0,0.0
29/06/2010,-,27.0,13.0,0.0
30/06/2010,-,27.5,13.0,0.0
01/07/2010,-,27.5,16.0,0.0
02/07/2010,-,27.0,18.0,0.5
03/07/2010,-,24.0,16.0,2.7
04/07/2010,-,19.5,17.0,0.0
05/07/2010,-,24.5,15.0,2.5
06/07/2010,-,25.0,15.0,0.0
07/07/2010,-,31.0,12.0,0.0
08/07/2010,-,35.5,15.5,1.0
09/07/2010,-,23.5,19.0,0.0
10/07/2010,-,30.0,14.0,0.0
11/07/2010,-,24.0,15.0,0.7
12/07/2010,-,22.0,18.0,0.5
13/07/2010,-,27.5,17.0,1.0
14/07/2010,-,22.0,17.5,0.6
15/07/2010,-,27.0,14.0,0.0
16/07/2010,-,22.5,15.0,3.0
17/07/2010,-,17.5,14.0,1.5
18/07/2010,-,27.0,13.0,0.0
19/07/2010,-,28.0,13.0,0.0
20/07/2010,-,25.0,14.0,0.4
21/07/2010,-,18.0,14.0,6.0
22/07/2010,-,17.0,14.0,7.5
23/07/2010,-,19.5,12.5,0.7
24/07/2010,-,22.5,13.0,0.0
25/07/2010,-,17.0,13.0,2.0
26/07/2010,-,22.0,15.0,0.0
27/07/2010,-,28.0,13.0,0.0
28/07/2010,-,28.0,14.0,0.0
29/07/2010,-,20.0,17.0,5.0
30/07/2010,-,23.5,14.0,0.0
31/07/2010,-,26.0,13.0,1.4
01/08/2010,-,19.0,13.0,3.8
02/08/2010,-,21.0,15.0,4.1
03/08/2010,-,21.5,14.0,3.2
04/08/2010,-,19.0,14.0,9.5
05/08/2010,-,21.5,15.0,0.0
06/08/2010,-,25.0,11.0,0.0
07/08/2010,-,27.5,11.5,0.0
08/08/2010,-,24.0,15.0,1.0
09/08/2010,-,20.0,17.0,1.0
10/08/2010,-,27.0,12.0,0.0
11/08/2010,-,26.0,12.0,16.0
12/08/2010,-,19.0,15.0,2.8
13/08/2010,-,20.5,14.0,4.5
14/08/2010,-,20.0,13.0,9.2
15/08/2010,-,21.0,12.0,0.5
16/08/2010,-,23.5,12.0,0.0
17/08/2010,-,27.0,11.0,0.0
18/08/2010,-,27.0,12.0,0.0
19/08/2010,-,26.5,15.0,0.0
20/08/2010,-,30.0,16.0,0.0
21/08/2010,-,37.0,18.0,0.0
22/08/2010,-,29.0,19.0,0.0
23/08/2010,-,30.5,16.0,16.5
24/08/2010,-,21.5,16.0,0.0
25/08/2010,-,33.0,13.0,0.0
26/08/2010,-,36.0,19.0,0.0
27/08/2010,-,23.0,18.0,3.3
28/08/2010,-,21.5,14.0,0.0
29/08/2010,-,23.0,13.0,0.0
30/08/2010,-,24.0,11.0,0.0
31/08/2010,-,27.5,9.0,0.0
01/09/2010,-,30.0,13.0,0.0
02/09/2010,-,24.0,16.0,0.0
03/09/2010,-,28.0,11.5,0.0
04/09/2010,-,27.0,11.0,0.0
05/09/2010,-,33.0,11.5,0.0
06/09/2010,-,28.0,16.5,9.2
07/09/2010,-,26.0,15.0,3.5
08/09/2010,-,24.0,13.0,5.2
09/09/2010,-,21.0,13.5,2.0
10/09/2010,-,25.0,11.0,0.0
11/09/2010,-,30.0,12.0,0.1
12/09/2010,-,23.0,16.0,0.0
13/09/2010,-,22.0,11.0,0.0
14/09/2010,-,27.0,11.0,0.0
15/09/2010,-,28.0,12.0,0.7
16/09/2010,-,18.0,14.0,4.0
17/09/2010,-,16.0,15.0,2.0
18/09/2010,-,21.0,12.0,0.0
19/09/2010,-,24.0,8.0,0.0
20/09/2010,-,28.0,10.0,0.0
21/09/2010,-,29.0,13.0,0.0
22/09/2010,-,30.0,13.0,0.0
23/09/2010,-,22.0,15.0,9.5
24/09/2010,-,16.0,13.0,21.2
25/09/2010,-,15.0,11.0,6.7
26/09/2010,-,16.0,10.0,0.0
27/09/2010,-,19.0,7.0,0.0
28/09/2010,-,20.0,8.5,0.0
29/09/2010,-,25.0,7.0,1.6
30/09/2010,-,17.0,11.0,0.0
01/10/2010,-,26.0,10.0,0.0
02/10/2010,-,29.0,13.0,0.0
03/10/2010,-,22.0,19.0,18.6
04/10/2010,-,16.0,12.5,3.5
05/10/2010,-,25.0,9.5,0.0
06/10/2010,-,25.0,14.0,0.0
07/10/2010,-,26.0,14.0,0.0
08/10/2010,-,25.0,18.5,0.0
09/10/2010,-,23.0,20.0,4.0
10/10/2010,-,14.0,12.5,26.5
11/10/2010,-,17.0,12.0,0.5
12/10/2010,-,16.0,12.0,0.0
13/10/2010,-,16.0,12.0,0.0
14/10/2010,-,16.0,9.0,0.0
15/10/2010,-,16.0,9.0,0.0
16/10/2010,-,14.0,8.0,1.2
17/10/2010,-,12.0,6.5,0.0
18/10/2010,-,14.5,4.0,0.0
19/10/2010,-,16.5,4.0,0.0
20/10/2010,-,14.0,6.0,1.7
21/10/2010,-,16.0,5.0,0.0
22/10/2010,-,20.0,7.0,0.0
23/10/2010,-,16.0,9.0,1.0
24/10/2010,-,16.0,10.0,20.0
25/10/2010,-,14.0,7.0,0.0
26/10/2010,-,11.0,1.0,0.0
27/10/2010,-,21.0,2.0,0.0
28/10/2010,-,20.0,3.0,0.0
29/10/2010,-,20.0,5.0,12.0
30/10/2010,-,15.0,8.0,0.0
31/10/2010,-,17.0,10.0,67.2
01/11/2010,-,14.0,10.0,8.0
02/11/2010,-,13.0,10.0,3.0
03/11/2010,-,18.0,10.0,1.1
04/11/2010,-,18.0,12.0,0.0
05/11/2010,-,22.0,13.0,0.0
06/11/2010,-,16.0,9.0,16.0
07/11/2010,-,14.0,9.0,25.6
08/11/2010,-,11.0,5.5,21.7
09/11/2010,-,14.0,7.0,26.5
10/11/2010,-,11.0,7.0,24.0
11/11/2010,-,14.0,5.5,0.0
12/11/2010,-,20.0,7.5,0.0
13/11/2010,-,19.0,11.0,1.2
14/11/2010,-,12.5,10.0,11.0
15/11/2010,-,14.0,4.0,14.0
16/11/2010,-,13.0,6.5,2.1
17/11/2010,-,11.0,5.5,7.5
18/11/2010,-,13.0,6.0,0.5
19/11/2010,-,11.0,6.0,4.2
20/11/2010,-,15.0,7.0,21.5
21/11/2010,-,9.0,7.0,49.0
22/11/2010,-,10.0,5.0,21.5
23/11/2010,-,11.0,4.5,13.0
24/11/2010,-,8.0,4.0,6.6
25/11/2010,-,10.0,4.0,38.5
26/11/2010,-,7.5,1.0,1.2
27/11/2010,-,7.0,2.0,0.2
28/11/2010,-,8.0,0.0,3.0
29/11/2010,-,8.0,0.0,0.0
30/11/2010,-,10.0,3.5,0.1
01/12/2010,-,4.5,2.0,16.0
02/12/2010,-,4.0,0.0,6.5
03/12/2010,-,2.0,0.0,21.6
04/12/2010,-,10.0,0.0,1.2
05/12/2010,-,15.0,6.0,1.7
06/12/2010,-,18.0,7.5,0.7
07/12/2010,-,19.0,12.0,0.0
08/12/2010,-,19.0,14.0,7.4
09/12/2010,-,6.5,5.0,0.0
10/12/2010,-,10.5,-1.5,0.0
11/12/2010,-,12.0,0.0,0.0
12/12/2010,-,14.0,1.0,0.0
13/12/2010,-,9.0,2.0,0.0
14/12/2010,-,8.0,1.5,0.0
15/12/2010,-,2.0,-1.5,0.0
16/12/2010,-,5.0,-5.0,0.0
17/12/2010,-,8.0,-1.0,21.5
18/12/2010,-,10.0,0.0,0.0
19/12/2010,-,13.5,3.0,0.0
20/12/2010,-,13.0,5.0,3.5
21/12/2010,-,13.0,6.0,3.5
22/12/2010,-,15.0,8.0,40.0
23/12/2010,-,7.0,6.0,40.6
24/12/2010,-,5.5,2.0,4.1
25/12/2010,-,3.0,-1.0,0.0
26/12/2010,-,5.0,-6.0,0.0
27/12/2010,-,8.5,-4.0,0.0
