Fecha, Temperatura media, Temperatura maxima, Temperatura minima, Precipitacion acumulada
01/01/2013,2.6,3.6,1.3,25.1
02/01/2013,0.9,2.3,-0.3,4.7
03/01/2013,2.4,6.1,-0.4,0.0
04/01/2013,7.8,9.5,5.7,0.0
05/01/2013,8.5,10.2,7.3,0.0
06/01/2013,9.1,12.1,7.1,0.0
07/01/2013,9.4,11.9,6.1,0.0
08/01/2013,3.9,7.3,2.5,0.0
09/01/2013,4.2,5.6,2.9,0.0
10/01/2013,4.5,5.7,2.1,8.1
11/01/2013,2.9,5.6,0.9,3.1
12/01/2013,2.0,3.4,-1.4,5.0
13/01/2013,-1.0,-0.4,-1.7,14.9
14/01/2013,-0.7,-0.3,-1.5,47.7
15/01/2013,0.9,2.0,-0.3,100.6
16/01/2013,3.3,5.5,1.2,51.6
17/01/2013,-1.8,2.0,-5.1,8.5
18/01/2013,5.6,7.9,1.2,37.0
19/01/2013,5.0,7.3,-0.3,17.8
20/01/2013,-0.3,1.1,-1.1,26.6
21/01/2013,-1.2,1.1,-2.9,10.3
22/01/2013,-1.3,-0.1,-2.9,0.7
23/01/2013,-1.5,-0.5,-2.8,51.8
24/01/2013,-0.9,0.6,-3.2,63.8
25/01/2013,0.3,4.3,-3.8,15.9
26/01/2013,3.3,7.0,0.7,34.2
27/01/2013,5.1,8.1,-0.3,22.5
28/01/2013,2.7,4.8,0.1,5.4
29/01/2013,7.2,11.9,3.0,0.0
30/01/2013,8.4,11.3,6.4,0.0
31/01/2013,9.7,12.0,6.7,0.0
01/02/2013,6.9,9.4,2.4,18.6
02/02/2013,-0.7,1.9,-3.7,54.3
03/02/2013,-2.4,1.1,-4.8,0.4
04/02/2013,4.1,5.2,0.9,21.0
05/02/2013,2.6,4.9,-2.0,25.4
06/02/2013,-1.0,-0.3,-2.1,39.0
07/02/2013,-2.5,-0.9,-3.7,29.0
08/02/2013,-1.5,-0.3,-4.0,45.5
09/02/2013,-1.7,1.0,-5.1,19.5
10/02/2013,0.4,2.7,-2.0,19.6
11/02/2013,-2.1,-1.2,-2.8,20.5
12/02/2013,-0.6,0.5,-2.0,26.0
13/02/2013,1.2,4.7,-0.6,27.3
14/02/2013,3.5,4.5,2.5,16.4
15/02/2013,2.3,3.8,0.8,3.4
16/02/2013,3.4,6.3,0.8,0.0
17/02/2013,4.4,6.3,3.1,0.0
18/02/2013,4.3,6.3,2.9,0.3
19/02/2013,5.4,6.8,4.3,0.0
20/02/2013,5.8,8.2,3.9,0.0
21/02/2013,5.0,6.4,1.8,1.0
22/02/2013,-2.2,2.0,-7.0,0.0
23/02/2013,-8.4,-5.9,-11.2,0.0
24/02/2013,-6.0,-5.2,-6.9,7.5
25/02/2013,-5.1,-3.9,-6.5,11.0
26/02/2013,-4.1,-0.9,-5.7,2.9
27/02/2013,-1.4,0.6,-4.5,0.0
28/02/2013,-1.0,0.3,-2.1,0.0
01/03/2013,0.0,1.6,-1.0,0.0
02/03/2013,1.4,4.2,-0.6,0.0
03/03/2013,6.5,9.8,4.1,0.0
04/03/2013,7.1,9.4,5.3,0.0
05/03/2013,7.4,8.8,6.3,0.1
06/03/2013,8.8,12.9,5.6,0.0
07/03/2013,8.6,11.3,4.4,6.3
08/03/2013,6.8,10.7,4.2,4.2
09/03/2013,6.2,8.9,3.8,0.0
10/03/2013,5.9,8.5,4.2,0.0
11/03/2013,3.7,8.1,2.0,13.3
12/03/2013,0.1,3.5,-4.0,23.1
13/03/2013,-4.9,-3.9,-5.8,17.2
14/03/2013,-3.1,-1.5,-5.3,7.5
15/03/2013,-2.0,1.4,-4.5,0.0
16/03/2013,1.9,3.0,0.5,0.0
17/03/2013,1.3,3.0,-0.6,9.4
18/03/2013,-0.2,1.6,-1.4,2.1
19/03/2013,2.5,6.3,-0.2,5.1
20/03/2013,2.2,5.3,-0.2,4.4
21/03/2013,7.7,12.2,3.6,0.0
22/03/2013,8.6,11.9,4.1,4.0
23/03/2013,6.8,10.6,4.1,0.0
24/03/2013,6.4,10.4,3.4,3.7
25/03/2013,3.7,5.8,2.5,14.2
26/03/2013,4.7,6.2,3.4,1.7
27/03/2013,6.3,8.3,4.7,12.4
28/03/2013,5.7,8.9,2.9,7.0
29/03/2013,8.2,11.2,4.8,22.6
30/03/2013,4.2,5.4,3.1,8.0
31/03/2013,6.1,10.3,2.5,0.0
01/04/2013,4.2,8.3,2.4,21.8
02/04/2013,3.2,5.0,1.8,4.8
03/04/2013,6.1,11.4,2.6,4.5
04/04/2013,1.9,4.5,-1.9,3.8
05/04/2013,-1.9,-1.1,-2.8,15.8
06/04/2013,-1.5,-0.6,-2.9,11.5
07/04/2013,1.4,4.7,-1.5,1.5
08/04/2013,3.8,6.4,0.3,8.1
09/04/2013,4.2,6.0,2.4,0.7
10/04/2013,8.9,14.1,3.8,0.0
11/04/2013,8.6,11.4,5.1,8.8
12/04/2013,6.4,9.9,4.1,1.5
13/04/2013,11.8,16.5,7.3,0.0
14/04/2013,16.3,20.4,8.7,0.0
15/04/2013,12.2,18.0,6.9,0.0
16/04/2013,12.1,15.3,8.1,0.0
17/04/2013,15.7,22.9,8.7,0.0
18/04/2013,5.6,9.4,2.7,5.4
19/04/2013,2.2,3.6,0.7,4.6
20/04/2013,2.3,4.7,1.1,0.0
21/04/2013,2.8,5.4,1.2,0.0
22/04/2013,2.9,4.9,1.5,0.0
23/04/2013,5.4,8.7,2.3,0.0
24/04/2013,11.9,17.1,7.0,0.0
25/04/2013,12.7,17.1,8.5,0.0
26/04/2013,6.7,12.1,2.2,20.3
27/04/2013,-0.4,2.2,-1.8,9.0
28/04/2013,0.2,2.2,-1.9,2.2
29/04/2013,2.2,3.9,1.1,6.7
30/04/2013,4.2,8.3,2.3,10.4
01/05/2013,5.0,10.2,2.7,8.7
02/05/2013,3.8,4.5,2.7,21.3
03/05/2013,4.3,5.3,3.1,14.8
04/05/2013,6.5,9.9,3.3,0.0
05/05/2013,9.6,12.7,6.7,0.0
06/05/2013,13.0,18.7,9.8,3.5
07/05/2013,12.1,14.8,9.9,0.2
08/05/2013,11.0,13.0,8.3,2.0
09/05/2013,7.9,10.6,4.8,14.5
10/05/2013,4.6,6.9,2.9,0.5
11/05/2013,4.3,6.0,2.8,0.0
12/05/2013,4.0,5.0,3.5,2.7
13/05/2013,6.1,10.0,3.4,0.0
14/05/2013,7.5,14.7,4.3,6.7
15/05/2013,2.8,5.2,1.4,20.6
16/05/2013,2.5,5.9,0.9,0.9
17/05/2013,3.9,7.2,2.2,17.3
18/05/2013,1.6,3.9,-1.2,57.4
19/05/2013,3.3,4.4,2.3,4.0
20/05/2013,3.6,5.7,2.3,0.2
21/05/2013,3.7,5.2,2.1,13.5
22/05/2013,5.7,6.7,4.8,48.9
23/05/2013,4.3,5.7,2.8,6.7
24/05/2013,1.9,3.1,0.3,9.1
25/05/2013,2.6,4.2,1.7,6.7
26/05/2013,6.1,10.0,0.6,0.1
27/05/2013,8.3,10.6,5.9,7.3
28/05/2013,3.5,7.7,1.7,25.0
29/05/2013,2.0,3.2,0.1,24.3
30/05/2013,4.8,6.6,2.8,36.2
31/05/2013,5.8,6.4,4.9,71.7
01/06/2013,6.0,6.3,5.6,19.0
02/06/2013,6.0,7.2,4.9,3.9
03/06/2013,7.2,9.5,5.1,0.5
04/06/2013,10.2,12.8,7.6,0.0
05/06/2013,15.0,19.7,9.4,0.0
06/06/2013,15.6,20.7,11.5,0.4
07/06/2013,13.4,16.4,9.2,6.4
08/06/2013,7.3,9.3,6.3,48.3
09/06/2013,8.1,8.8,7.4,67.9
10/06/2013,10.1,13.9,8.0,4.0
11/06/2013,14.1,16.3,12.4,0.0
12/06/2013,18.3,22.2,12.7,0.0
13/06/2013,10.6,13.7,8.7,4.6
14/06/2013,14.4,20.1,8.8,0.0
15/06/2013,11.1,15.8,8.3,0.0
16/06/2013,19.9,26.4,13.9,0.0
17/06/2013,13.1,19.8,8.5,2.1
18/06/2013,8.4,9.7,6.2,43.0
19/06/2013,7.2,9.2,6.1,9.2
20/06/2013,7.7,10.3,6.6,6.4
21/06/2013,8.9,10.6,7.0,14.4
22/06/2013,10.6,15.3,7.1,1.4
23/06/2013,7.0,10.2,5.8,6.2
24/06/2013,6.5,8.4,4.7,0.2
25/06/2013,7.2,9.8,5.0,0.0
26/06/2013,10.3,13.5,6.6,0.0
27/06/2013,10.0,12.0,7.9,0.0
28/06/2013,9.0,11.4,7.2,0.0
29/06/2013,9.9,11.8,7.7,0.0
30/06/2013,11.8,14.2,9.2,0.0
01/07/2013,14.1,16.0,12.2,0.0
02/07/2013,15.2,20.3,11.7,0.1
03/07/2013,12.9,13.4,11.7,6.9
04/07/2013,12.8,14.5,11.4,1.5
05/07/2013,17.0,19.9,12.9,0.0
06/07/2013,19.1,20.9,17.0,0.0
07/07/2013,17.9,19.8,16.3,0.0
08/07/2013,19.7,22.5,17.4,0.0
09/07/2013,20.9,23.5,19.0,0.0
10/07/2013,20.6,23.4,18.7,0.0
11/07/2013,19.0,20.9,16.7,0.0
12/07/2013,21.2,24.0,18.2,0.9
13/07/2013,20.1,22.4,15.6,0.0
14/07/2013,17.4,20.0,15.7,0.0
15/07/2013,17.7,20.5,15.0,0.0
16/07/2013,17.4,19.5,15.2,0.9
17/07/2013,16.3,18.0,13.9,0.0
18/07/2013,15.8,19.0,13.4,0.0
19/07/2013,19.1,22.6,15.4,0.0
20/07/2013,21.2,25.3,17.7,0.0
21/07/2013,21.8,26.3,18.2,0.8
22/07/2013,21.2,26.0,17.3,0.8
23/07/2013,17.5,21.2,15.2,7.8
24/07/2013,18.3,23.1,14.8,0.5
25/07/2013,19.5,23.5,15.4,0.1
26/07/2013,19.3,25.3,15.5,0.9
27/07/2013,17.4,23.0,14.0,0.9
28/07/2013,16.2,21.5,11.5,2.2
29/07/2013,13.7,17.0,11.1,0.0
30/07/2013,17.4,22.2,12.2,0.0
31/07/2013,24.7,29.0,18.6,0.0
01/08/2013,26.2,30.4,23.0,0.0
02/08/2013,21.1,28.3,13.8,2.3
03/08/2013,14.2,17.8,11.4,0.4
04/08/2013,16.4,20.0,12.7,0.0
05/08/2013,15.7,21.2,12.6,1.6
06/08/2013,14.0,15.1,12.8,3.0
07/08/2013,11.6,12.9,10.1,4.4
08/08/2013,11.0,12.5,9.7,13.2
09/08/2013,12.0,14.0,10.7,0.1
10/08/2013,13.4,16.6,10.5,0.0
11/08/2013,17.2,20.5,12.7,0.0
12/08/2013,17.6,21.5,13.8,0.2
13/08/2013,13.5,15.3,11.3,0.0
14/08/2013,14.3,17.5,11.0,0.0
15/08/2013,17.5,21.2,14.0,0.0
16/08/2013,16.2,19.5,12.7,0.0
17/08/2013,15.4,19.2,12.4,0.1
18/08/2013,18.3,21.6,14.6,0.1
19/08/2013,12.8,14.5,10.2,3.2
20/08/2013,14.5,18.3,10.6,0.0
21/08/2013,20.6,23.8,15.4,0.0
22/08/2013,18.7,23.3,13.9,0.6
23/08/2013,14.2,15.4,12.5,1.6
24/08/2013,11.6,12.9,9.9,7.4
25/08/2013,10.7,13.2,9.0,4.1
26/08/2013,10.9,12.1,9.8,6.3
27/08/2013,11.4,13.3,9.7,0.2
28/08/2013,12.3,15.1,10.0,0.0
29/08/2013,12.2,14.3,10.8,0.0
30/08/2013,12.6,14.8,10.9,0.0
31/08/2013,11.7,14.1,10.2,0.0
01/09/2013,12.5,14.5,10.7,0.0
02/09/2013,14.5,16.2,12.5,0.0
03/09/2013,19.7,23.0,15.2,0.0
04/09/2013,21.4,26.3,18.4,0.0
05/09/2013,18.4,24.9,13.1,0.0
06/09/2013,13.1,16.1,10.5,4.1
07/09/2013,10.5,12.9,8.6,2.7
08/09/2013,9.2,10.4,8.0,5.8
09/09/2013,11.1,14.2,8.9,0.0
10/09/2013,10.7,12.3,7.6,9.7
11/09/2013,8.4,10.5,7.0,0.5
12/09/2013,9.2,11.2,7.7,0.8
13/09/2013,12.3,13.8,11.1,5.4
14/09/2013,13.6,17.5,9.4,5.0
15/09/2013,8.7,10.7,7.1,3.2
16/09/2013,9.8,12.2,8.1,10.6
17/09/2013,9.1,10.4,7.9,15.0
18/09/2013,11.1,12.6,9.5,16.6
19/09/2013,9.8,11.7,8.7,4.9
20/09/2013,11.8,13.2,9.5,7.6
21/09/2013,12.3,15.2,9.6,0.0
22/09/2013,18.3,21.2,12.6,0.0
23/09/2013,19.0,22.5,16.5,0.0
24/09/2013,19.9,23.7,16.8,0.0
25/09/2013,20.9,23.4,18.5,0.0
26/09/2013,21.7,24.4,19.1,0.0
27/09/2013,21.3,22.6,19.7,0.0
28/09/2013,15.5,20.1,12.5,0.6
29/09/2013,12.5,15.1,11.3,0.1
30/09/2013,14.5,16.8,12.1,0.0
01/10/2013,16.5,18.7,15.0,0.0
02/10/2013,18.7,21.4,15.4,0.7
03/10/2013,18.4,20.9,15.1,4.6
04/10/2013,12.8,16.9,9.7,40.4
05/10/2013,10.3,11.3,9.4,11.7
06/10/2013,9.7,11.3,8.7,0.8
07/10/2013,8.9,10.7,7.7,0.0
08/10/2013,9.1,11.0,8.1,0.0
09/10/2013,8.3,9.2,7.5,0.0
10/10/2013,6.7,8.5,3.3,7.8
11/10/2013,3.8,5.9,2.8,0.2
12/10/2013,6.3,11.2,2.7,0.0
13/10/2013,10.2,13.0,8.3,0.0
14/10/2013,11.6,14.1,9.3,0.0
15/10/2013,12.0,13.9,10.5,5.0
16/10/2013,13.8,18.0,11.3,6.1
17/10/2013,14.4,18.0,10.4,0.3
18/10/2013,17.8,20.3,15.8,0.0
19/10/2013,15.7,17.7,12.7,0.0
20/10/2013,13.3,16.3,11.1,0.0
21/10/2013,13.4,15.7,10.9,0.0
22/10/2013,13.3,16.0,10.4,4.2
23/10/2013,12.5,15.5,10.1,0.1
24/10/2013,14.1,15.8,11.4,0.2
25/10/2013,15.0,16.9,12.9,3.8
26/10/2013,14.1,15.3,11.8,0.1
27/10/2013,12.6,14.3,10.1,0.0
28/10/2013,10.5,14.4,6.0,6.5
29/10/2013,4.4,5.2,3.5,10.6
30/10/2013,4.7,5.8,3.8,1.5
31/10/2013,6.3,11.6,3.5,0.0
01/11/2013,10.0,11.1,9.0,0.5
02/11/2013,11.6,14.7,9.0,19.2
03/11/2013,6.8,9.2,5.6,9.3
04/11/2013,6.6,8.3,5.6,49.4
05/11/2013,10.9,12.0,8.3,81.2
06/11/2013,11.9,14.5,10.6,2.1
07/11/2013,11.1,14.2,8.8,0.0
08/11/2013,7.3,9.9,3.4,6.5
09/11/2013,5.0,8.5,2.5,13.1
10/11/2013,7.7,8.5,7.0,62.0
11/11/2013,7.2,7.8,6.9,29.8
12/11/2013,8.5,9.8,7.1,24.5
13/11/2013,7.2,8.7,4.2,3.8
14/11/2013,3.6,4.9,2.1,15.9
15/11/2013,-0.8,0.8,-1.6,13.5
16/11/2013,0.0,2.7,-1.7,0.5
17/11/2013,1.7,2.7,0.9,1.5
18/11/2013,3.0,4.4,1.7,47.1
19/11/2013,1.2,4.0,-2.0,31.1
20/11/2013,-1.6,0.7,-2.9,11.3
21/11/2013,1.1,1.6,0.1,55.8
22/11/2013,-2.5,0.3,-3.4,9.8
23/11/2013,-1.9,-0.8,-3.6,0.0
24/11/2013,-2.0,-1.2,-2.5,0.0
25/11/2013,-2.1,-1.2,-3.5,0.0
26/11/2013,-3.6,-1.8,-5.0,0.0
27/11/2013,-4.8,-2.4,-6.2,0.0
28/11/2013,-1.3,2.0,-3.1,0.0
29/11/2013,-1.7,0.6,-3.3,0.1
30/11/2013,0.1,3.0,-2.2,15.5
01/12/2013,-2.8,-2.2,-3.7,0.0
02/12/2013,-1.9,0.3,-2.7,0.0
03/12/2013,8.0,10.6,0.7,0.0
04/12/2013,6.4,10.0,3.2,0.0
05/12/2013,1.5,3.3,-1.0,0.2
06/12/2013,0.3,1.1,-1.4,0.0
07/12/2013,4.0,8.0,-0.6,0.0
08/12/2013,8.0,10.0,5.8,0.0
09/12/2013,7.4,9.6,5.3,0.0
10/12/2013,9.6,11.6,6.1,0.0
11/12/2013,10.1,12.1,6.2,0.0
12/12/2013,7.8,10.4,5.5,0.0
13/12/2013,6.2,8.7,3.4,5.9
14/12/2013,5.7,9.4,2.2,8.7
15/12/2013,10.2,12.5,7.3,0.0
16/12/2013,10.6,12.5,7.6,0.0
17/12/2013,5.0,8.3,3.0,0.0
18/12/2013,5.6,8.1,4.4,0.8
19/12/2013,3.1,4.6,0.5,20.8
20/12/2013,0.5,1.4,-0.4,5.2
21/12/2013,3.2,5.5,0.0,0.0
22/12/2013,4.8,7.6,2.9,0.0
23/12/2013,5.5,7.5,3.4,0.0
24/12/2013,5.9,6.8,4.8,10.0
25/12/2013,2.7,5.3,-1.3,3.4
26/12/2013,-0.1,2.8,-1.8,17.9
27/12/2013,7.4,10.1,2.9,0.0
28/12/2013,2.7,7.8,0.5,6.5
29/12/2013,-0.3,0.8,-1.3,7.3
30/12/2013,2.4,3.8,0.5,0.0
31/12/2013,4.1,6.2,2.0,0.3
