Fecha, Temperatura media, Temperatura maxima, Temperatura minima, Precipitacion acumulada
01/01/2015,-,6.0,-6.0,0.0
02/01/2015,-,6.0,-6.0,0.0
03/01/2015,-,9.0,-6.0,0.9
04/01/2015,-,13.0,3.0,1.2
05/01/2015,-,14.0,5.0,0.0
06/01/2015,-,9.0,1.0,0.6
07/01/2015,-,10.0,5.0,0.0
08/01/2015,-,13.0,1.0,0.0
09/01/2015,-,18.0,1.0,0.0
10/01/2015,-,10.0,3.0,5.2
11/01/2015,-,11.0,7.0,6.5
12/01/2015,-,13.0,-1.0,0.0
13/01/2015,-,17.0,8.0,0.0
14/01/2015,-,16.0,4.0,0.0
15/01/2015,-,14.0,5.0,5.4
16/01/2015,-,9.0,6.0,32.9
17/01/2015,-,10.0,3.0,5.8
18/01/2015,-,8.0,1.0,8.7
19/01/2015,-,9.0,5.0,11.7
20/01/2015,-,7.0,2.0,5.6
21/01/2015,-,8.0,0.0,28.8
22/01/2015,-,8.0,2.0,5.9
23/01/2015,-,7.0,3.0,0.0
24/01/2015,-,9.0,2.0,1.7
25/01/2015,-,9.0,-1.0,0.0
26/01/2015,-,10.0,0.0,9.6
27/01/2015,-,9.0,2.0,6.8
28/01/2015,-,11.0,6.0,5.8
29/01/2015,-,12.0,6.0,57.6
30/01/2015,-,9.0,7.0,97.7
31/01/2015,-,8.0,6.0,54.3
01/02/2015,-,7.0,4.0,25.2
02/02/2015,-,10.0,2.0,19.6
03/02/2015,-,8.0,2.0,0.0
04/02/2015,-,3.0,-3.0,0.0
05/02/2015,-,4.0,-3.0,0.5
06/02/2015,-,1.0,-3.0,1.7
07/02/2015,-,6.0,-3.0,0.0
08/02/2015,-,6.0,0.0,0.0
09/02/2015,-,10.0,-2.0,0.0
10/02/2015,-,14.0,-4.0,0.0
11/02/2015,-,12.0,-2.0,0.6
12/02/2015,-,15.0,5.0,0.0
13/02/2015,-,12.0,5.0,0.6
14/02/2015,-,10.0,5.0,26.7
15/02/2015,-,10.0,7.0,7.7
16/02/2015,-,10.0,5.0,42.4
17/02/2015,-,10.0,6.0,4.3
18/02/2015,-,9.0,5.0,0.0
19/02/2015,-,17.0,0.0,0.0
20/02/2015,-,13.0,7.0,21.8
21/02/2015,-,9.0,7.0,34.7
22/02/2015,-,11.0,5.0,8.9
23/02/2015,-,13.0,6.0,51.2
24/02/2015,-,10.0,4.0,54.6
25/02/2015,-,12.0,5.0,129.2
26/02/2015,-,12.0,10.0,70.6
27/02/2015,-,11.0,6.0,7.4
28/02/2015,-,13.0,5.0,29.8
01/03/2015,-,18.0,7.0,3.5
02/03/2015,-,14.0,11.0,5.2
03/03/2015,-,15.0,9.0,14.1
04/03/2015,-,9.0,7.0,11.1
05/03/2015,-,12.0,2.0,0.0
06/03/2015,-,18.0,0.0,0.0
07/03/2015,-,24.0,0.0,0.0
08/03/2015,-,20.0,1.0,0.0
09/03/2015,-,20.0,2.0,0.0
10/03/2015,-,20.0,3.0,0.0
11/03/2015,-,13.0,4.0,0.0
12/03/2015,-,18.0,4.0,4.8
13/03/2015,-,13.0,6.0,22.7
14/03/2015,-,9.0,4.0,12.6
15/03/2015,-,11.0,4.0,8.8
16/03/2015,-,12.0,5.0,0.0
17/03/2015,-,19.0,3.0,0.0
18/03/2015,-,16.0,5.0,1.4
19/03/2015,-,15.0,6.0,0.0
20/03/2015,-,10.0,6.0,4.2
21/03/2015,-,9.0,7.0,9.6
22/03/2015,-,8.0,7.0,13.2
23/03/2015,-,10.0,5.0,10.3
24/03/2015,-,9.0,5.0,18.3
25/03/2015,-,10.0,4.0,5.5
26/03/2015,-,12.0,4.0,16.2
27/03/2015,-,13.0,6.0,19.8
28/03/2015,-,15.0,7.0,2.9
29/03/2015,-,19.0,11.0,1.1
30/03/2015,-,15.0,10.0,6.6
31/03/2015,-,13.0,11.0,5.9
01/04/2015,-,15.0,9.0,0.0
02/04/2015,-,18.0,3.0,0.0
03/04/2015,-,18.0,4.0,4.3
04/04/2015,-,13.0,4.0,3.9
05/04/2015,-,15.0,9.0,0.0
06/04/2015,-,18.0,1.0,0.0
07/04/2015,-,21.0,2.0,0.0
08/04/2015,-,23.0,10.0,0.0
09/04/2015,-,23.0,12.0,0.0
10/04/2015,-,22.0,14.0,1.6
11/04/2015,-,17.0,12.0,0.0
12/04/2015,-,23.0,6.0,0.0
13/04/2015,-,29.0,8.0,0.0
14/04/2015,-,31.0,8.0,0.0
15/04/2015,-,24.0,18.0,0.0
16/04/2015,-,19.0,12.0,0.0
17/04/2015,-,18.0,11.0,1.9
18/04/2015,-,25.0,9.0,8.6
19/04/2015,-,17.0,10.0,0.4
20/04/2015,-,20.0,7.0,0.0
21/04/2015,-,26.0,6.0,0.0
22/04/2015,-,23.0,12.0,0.9
23/04/2015,-,20.0,12.0,0.0
24/04/2015,-,26.0,7.0,0.0
25/04/2015,-,26.0,8.0,0.4
26/04/2015,-,20.0,15.0,79.6
27/04/2015,-,15.0,11.0,26.9
28/04/2015,-,16.0,8.0,0.0
29/04/2015,-,16.0,7.0,0.0
30/04/2015,-,23.0,6.0,3.6
01/05/2015,-,20.0,10.0,4.1
02/05/2015,-,26.0,12.0,0.0
03/05/2015,-,27.0,13.0,0.0
04/05/2015,-,29.0,16.0,1.8
05/05/2015,-,20.0,12.0,0.6
06/05/2015,-,18.0,10.0,0.0
07/05/2015,-,30.0,7.0,0.0
08/05/2015,-,23.0,8.0,0.0
09/05/2015,-,19.0,10.0,0.0
10/05/2015,-,33.0,10.0,0.0
11/05/2015,-,24.0,14.0,0.0
12/05/2015,-,24.0,14.0,0.0
13/05/2015,-,29.0,16.0,0.0
14/05/2015,-,20.0,15.0,18.3
15/05/2015,-,15.0,10.0,13.8
16/05/2015,-,16.0,12.0,3.4
17/05/2015,-,18.0,12.0,0.0
18/05/2015,-,20.0,10.0,6.4
19/05/2015,-,15.0,11.0,13.4
20/05/2015,-,15.0,10.0,11.2
21/05/2015,-,16.0,8.0,1.7
22/05/2015,-,17.0,6.0,0.0
23/05/2015,-,17.0,8.0,8.2
24/05/2015,-,18.0,13.0,0.0
25/05/2015,-,17.0,13.0,1.8
26/05/2015,-,17.0,11.0,0.0
27/05/2015,-,21.0,10.0,0.0
28/05/2015,-,21.0,10.0,0.0
29/05/2015,-,18.0,10.0,0.0
30/05/2015,-,20.0,7.0,0.0
31/05/2015,-,24.0,10.0,0.0
01/06/2015,-,23.0,11.0,0.0
02/06/2015,-,25.0,16.0,0.8
03/06/2015,-,22.0,16.0,0.0
04/06/2015,-,36.0,15.0,0.0
05/06/2015,-,31.0,15.0,0.8
06/06/2015,-,19.0,14.0,0.4
07/06/2015,-,25.0,16.0,0.0
08/06/2015,-,26.0,14.0,0.0
09/06/2015,-,23.0,13.0,6.6
10/06/2015,-,21.0,14.0,19.4
11/06/2015,-,21.0,17.0,3.1
12/06/2015,-,21.0,14.0,3.7
13/06/2015,-,20.0,14.0,17.2
14/06/2015,-,21.0,12.0,0.0
15/06/2015,-,21.0,10.0,10.9
16/06/2015,-,16.0,10.0,12.1
17/06/2015,-,22.0,13.0,0.0
18/06/2015,-,20.0,10.0,0.6
19/06/2015,-,19.0,11.0,0.3
20/06/2015,-,23.0,11.0,0.0
21/06/2015,-,26.0,10.0,0.0
22/06/2015,-,28.0,10.0,0.0
23/06/2015,-,24.0,14.0,0.0
24/06/2015,-,24.0,13.0,0.0
25/06/2015,-,31.0,10.0,0.0
26/06/2015,-,30.0,14.0,0.0
27/06/2015,-,27.0,14.0,0.0
28/06/2015,-,26.0,15.0,0.0
29/06/2015,-,30.0,16.0,0.0
30/06/2015,-,40.0,18.0,0.0
01/07/2015,-,30.0,19.0,0.0
02/07/2015,-,24.0,19.0,0.0
03/07/2015,-,37.0,17.0,0.0
04/07/2015,-,29.0,17.0,0.0
05/07/2015,-,24.0,17.0,0.0
06/07/2015,-,33.0,16.0,0.0
07/07/2015,-,27.0,17.0,3.8
08/07/2015,-,22.0,18.0,0.0
09/07/2015,-,26.0,14.0,0.0
10/07/2015,-,38.0,12.0,0.0
11/07/2015,-,22.0,12.0,0.4
12/07/2015,-,25.0,17.0,0.0
13/07/2015,-,26.0,15.0,0.0
14/07/2015,-,27.0,14.0,0.0
15/07/2015,-,29.0,16.0,0.0
16/07/2015,-,27.0,17.0,0.0
17/07/2015,-,28.0,17.0,1.9
18/07/2015,-,36.0,17.0,8.6
19/07/2015,-,29.0,18.0,0.0
20/07/2015,-,31.0,17.0,0.0
21/07/2015,-,29.0,17.0,19.6
22/07/2015,-,24.0,17.0,8.1
23/07/2015,-,27.0,18.0,0.0
24/07/2015,-,29.0,17.0,15.3
25/07/2015,-,22.0,16.0,1.1
26/07/2015,-,29.0,12.0,1.6
27/07/2015,-,23.0,13.0,2.5
28/07/2015,-,29.0,16.0,0.0
29/07/2015,-,20.0,14.0,2.1
30/07/2015,-,19.0,15.0,1.3
31/07/2015,-,20.0,14.0,0.9
01/08/2015,-,23.0,15.0,0.0
02/08/2015,-,35.0,11.0,0.0
03/08/2015,-,28.0,16.0,6.8
04/08/2015,-,20.0,17.0,1.4
05/08/2015,-,35.0,17.0,0.0
06/08/2015,-,30.0,17.0,0.0
07/08/2015,-,24.0,17.0,3.8
08/08/2015,-,18.0,15.0,5.7
09/08/2015,-,21.0,15.0,1.2
10/08/2015,-,28.0,14.0,0.0
11/08/2015,-,31.0,15.0,0.7
12/08/2015,-,31.0,14.0,0.3
13/08/2015,-,26.0,17.0,4.6
14/08/2015,-,20.0,15.0,3.4
15/08/2015,-,21.0,15.0,1.7
16/08/2015,-,26.0,12.0,1.5
17/08/2015,-,23.0,12.0,0.0
18/08/2015,-,23.0,13.0,0.0
19/08/2015,-,25.0,12.0,0.0
20/08/2015,-,30.0,13.0,0.0
21/08/2015,-,35.0,14.0,0.0
22/08/2015,-,29.0,14.0,35.2
23/08/2015,-,27.0,15.0,0.0
24/08/2015,-,23.0,13.0,0.0
25/08/2015,-,30.0,11.0,0.0
26/08/2015,-,34.0,11.0,0.0
27/08/2015,-,30.0,16.0,0.0
28/08/2015,-,31.0,15.0,0.0
29/08/2015,-,39.0,16.0,0.0
30/08/2015,-,36.0,18.0,0.0
31/08/2015,-,31.0,19.0,37.4
01/09/2015,-,20.0,17.0,1.1
02/09/2015,-,22.0,12.0,10.3
03/09/2015,-,21.0,13.0,0.0
04/09/2015,-,20.0,10.0,0.0
05/09/2015,-,18.0,10.0,0.6
06/09/2015,-,22.0,10.0,0.0
07/09/2015,-,23.0,10.0,0.0
08/09/2015,-,25.0,8.0,0.0
09/09/2015,-,30.0,8.0,0.6
10/09/2015,-,20.0,14.0,0.0
11/09/2015,-,30.0,12.0,0.0
12/09/2015,-,21.0,17.0,0.9
13/09/2015,-,23.0,15.0,7.2
14/09/2015,-,20.0,13.0,0.4
15/09/2015,-,23.0,10.0,1.6
16/09/2015,-,26.0,17.0,1.9
17/09/2015,-,19.0,12.0,0.0
18/09/2015,-,23.0,9.0,0.0
19/09/2015,-,22.0,10.0,0.0
20/09/2015,-,23.0,9.0,0.0
21/09/2015,-,25.0,10.0,0.6
22/09/2015,-,20.0,10.0,25.6
23/09/2015,-,19.0,14.0,0.7
24/09/2015,-,22.0,11.0,0.0
25/09/2015,-,23.0,9.0,0.0
26/09/2015,-,23.0,9.0,0.4
27/09/2015,-,23.0,12.0,0.0
28/09/2015,-,24.0,10.0,0.0
29/09/2015,-,20.0,11.0,5.6
30/09/2015,-,24.0,12.0,0.0
01/10/2015,-,21.0,10.0,14.9
02/10/2015,-,18.0,10.0,9.3
03/10/2015,-,20.0,9.0,0.0
04/10/2015,-,24.0,7.0,2.4
05/10/2015,-,28.0,16.0,0.0
06/10/2015,-,24.0,19.0,21.1
07/10/2015,-,17.0,13.0,1.7
08/10/2015,-,20.0,10.0,0.0
09/10/2015,-,20.0,9.0,0.0
10/10/2015,-,24.0,7.0,0.0
11/10/2015,-,21.0,7.0,0.6
12/10/2015,-,19.0,12.0,17.5
13/10/2015,-,16.0,12.0,0.6
14/10/2015,-,14.0,8.0,0.0
15/10/2015,-,16.0,3.0,0.0
16/10/2015,-,16.0,5.0,0.0
17/10/2015,-,22.0,4.0,2.6
18/10/2015,-,25.0,15.0,0.0
19/10/2015,-,18.0,13.0,1.2
20/10/2015,-,16.0,12.0,0.0
21/10/2015,-,16.0,10.0,0.0
22/10/2015,-,15.0,7.0,0.7
23/10/2015,-,20.0,8.0,0.0
24/10/2015,-,20.0,12.0,0.0
25/10/2015,-,21.0,14.0,0.0
26/10/2015,-,23.0,13.0,0.0
27/10/2015,-,21.0,17.0,23.6
28/10/2015,-,19.0,10.0,0.6
29/10/2015,-,22.0,9.0,0.0
30/10/2015,-,25.0,11.0,0.0
31/10/2015,-,23.0,15.0,0.0
01/11/2015,-,23.0,11.0,0.0
02/11/2015,-,16.0,9.0,2.9
03/11/2015,-,18.0,9.0,0.6
04/11/2015,-,21.0,11.0,0.0
05/11/2015,-,20.0,11.0,0.0
06/11/2015,-,26.0,11.0,0.0
07/11/2015,-,27.0,10.0,0.0
08/11/2015,-,27.0,9.0,0.0
09/11/2015,-,21.0,9.0,0.0
10/11/2015,-,21.0,9.0,0.0
11/11/2015,-,14.0,8.0,0.0
12/11/2015,-,21.0,11.0,0.0
13/11/2015,-,16.0,7.0,1.2
14/11/2015,-,17.0,8.0,0.0
15/11/2015,-,20.0,7.0,0.0
16/11/2015,-,17.0,4.0,0.0
17/11/2015,-,17.0,5.0,0.0
18/11/2015,-,21.0,6.0,0.0
19/11/2015,-,19.0,9.0,0.0
20/11/2015,-,20.0,9.0,34.0
21/11/2015,-,10.5,10.0,49.4
22/11/2015,-,7.0,5.0,2.5
23/11/2015,-,5.0,-1.0,3.5
24/11/2015,-,11.0,0.0,64.3
25/11/2015,-,13.0,2.0,81.3
26/11/2015,-,14.0,12.0,4.2
27/11/2015,-,11.0,8.0,21.8
28/11/2015,-,11.0,9.0,0.8
29/11/2015,-,14.0,6.0,0.0
30/11/2015,-,14.0,2.0,0.0
01/12/2015,-,10.0,3.0,0.0
02/12/2015,-,9.0,0.0,0.0
03/12/2015,-,12.0,0.0,0.0
04/12/2015,-,16.0,1.0,0.0
05/12/2015,-,16.0,7.0,0.0
06/12/2015,-,17.0,6.0,0.0
07/12/2015,-,18.0,7.0,0.0
08/12/2015,-,16.0,14.0,4.9
09/12/2015,-,15.0,10.0,0.0
10/12/2015,-,17.0,4.0,0.0
11/12/2015,-,13.0,3.0,0.0
12/12/2015,-,14.0,2.0,0.0
13/12/2015,-,14.0,3.0,0.0
14/12/2015,-,16.0,4.0,0.0
15/12/2015,-,18.0,11.0,0.0
16/12/2015,-,19.0,6.0,0.0
17/12/2015,-,21.0,7.0,0.0
18/12/2015,-,20.0,7.0,0.0
19/12/2015,-,21.0,8.0,0.0
20/12/2015,-,21.0,16.0,0.0
21/12/2015,-,16.0,4.0,0.0
22/12/2015,-,17.0,4.0,0.0
23/12/2015,-,19.0,5.0,0.0
24/12/2015,-,16.0,5.0,0.0
25/12/2015,-,19.0,7.0,0.0
26/12/2015,-,20.0,7.0,0.0
27/12/2015,-,19.0,9.0,0.0
