Fecha, Temperatura media, Temperatura maxima, Temperatura minima, Precipitacion acumulada
01/01/2012,12.2,16.5,9.2,0.1
02/01/2012,9.1,13.8,7.1,15.5
03/01/2012,7.1,13.3,4.2,0.1
04/01/2012,7.6,12.6,4.0,6.4
05/01/2012,8.3,13.5,2.1,13.1
06/01/2012,10.4,12.7,6.4,20.8
07/01/2012,9.4,13.7,6.7,2.3
08/01/2012,9.6,11.9,8.1,1.8
09/01/2012,7.8,8.6,6.6,0.0
10/01/2012,3.7,11.4,0.7,0.0
11/01/2012,2.4,10.2,-0.2,0.0
12/01/2012,3.9,10.5,-0.7,0.1
13/01/2012,6.1,10.8,2.8,0.0
14/01/2012,3.8,6.6,-1.4,0.0
15/01/2012,3.7,13.1,-2.8,0.0
16/01/2012,6.2,9.6,3.8,0.0
17/01/2012,4.3,12.5,-0.5,0.0
18/01/2012,3.3,12.4,-0.8,0.0
19/01/2012,8.5,12.3,4.8,3.5
20/01/2012,10.1,11.9,8.9,14.7
21/01/2012,9.7,11.9,8.0,5.6
22/01/2012,10.2,12.3,9.3,4.9
23/01/2012,10.1,12.4,8.6,2.0
24/01/2012,7.9,10.3,2.4,0.2
25/01/2012,4.6,13.8,0.6,0.0
26/01/2012,5.0,10.6,-0.5,4.7
27/01/2012,6.6,10.3,4.2,6.7
28/01/2012,4.7,7.1,3.0,17.7
29/01/2012,3.7,5.4,1.7,0.6
30/01/2012,2.5,10.0,-0.1,0.0
31/01/2012,3.4,6.7,-0.2,12.5
01/02/2012,4.3,7.2,0.5,20.2
02/02/2012,-1.9,0.3,-3.4,0.0
03/02/2012,-2.0,1.5,-4.2,0.5
04/02/2012,-0.9,3.5,-3.6,0.3
05/02/2012,3.0,8.7,-1.8,20.5
06/02/2012,3.8,6.4,1.8,2.9
07/02/2012,1.1,4.6,-2.5,1.1
08/02/2012,-3.1,-1.8,-5.2,0.0
09/02/2012,-1.1,0.1,-2.5,0.0
10/02/2012,0.1,5.2,-5.5,0.0
11/02/2012,-2.8,3.2,-7.9,0.0
12/02/2012,-2.5,2.8,-8.7,0.0
13/02/2012,1.0,6.8,-3.3,1.1
14/02/2012,3.6,7.3,1.0,11.4
15/02/2012,4.3,7.4,0.6,10.8
16/02/2012,6.8,8.9,4.7,1.5
17/02/2012,5.9,8.9,0.1,0.0
18/02/2012,4.3,12.2,-1.6,0.2
19/02/2012,5.8,7.9,4.1,6.2
20/02/2012,3.1,9.4,-2.8,0.0
21/02/2012,1.1,9.3,-4.2,0.0
22/02/2012,1.7,13.1,-5.8,0.0
23/02/2012,4.3,15.8,-3.5,0.0
24/02/2012,6.7,16.3,-0.7,0.0
25/02/2012,9.0,12.1,6.9,0.0
26/02/2012,10.3,13.8,8.4,0.0
27/02/2012,9.1,14.5,1.4,0.0
28/02/2012,6.6,20.0,-0.7,0.0
29/02/2012,8.8,21.4,0.2,0.0
01/03/2012,7.3,17.6,0.7,0.0
02/03/2012,10.5,21.1,-0.2,0.0
03/03/2012,10.3,19.6,3.1,0.0
04/03/2012,7.5,14.2,2.9,7.6
05/03/2012,6.7,10.6,3.1,5.8
06/03/2012,5.4,8.6,3.1,15.1
07/03/2012,6.3,12.5,1.1,1.2
08/03/2012,8.9,11.2,6.7,2.3
09/03/2012,6.9,13.2,-0.2,0.0
10/03/2012,6.1,13.8,-0.2,0.0
11/03/2012,8.3,13.8,2.1,0.0
12/03/2012,10.1,16.6,3.7,0.0
13/03/2012,10.1,21.8,2.6,0.0
14/03/2012,12.0,25.2,3.6,0.0
15/03/2012,14.0,27.9,3.2,0.0
16/03/2012,12.3,23.0,6.1,0.0
17/03/2012,12.1,20.9,5.3,4.7
18/03/2012,7.9,12.9,3.6,3.0
19/03/2012,7.8,12.1,4.7,10.9
20/03/2012,6.9,10.6,3.2,0.0
21/03/2012,6.5,8.7,5.1,16.2
22/03/2012,8.9,17.6,3.4,0.0
23/03/2012,10.4,21.2,1.9,0.0
24/03/2012,16.3,24.3,6.3,0.0
25/03/2012,13.3,25.3,3.3,0.0
26/03/2012,13.6,25.2,2.8,0.0
27/03/2012,14.6,24.6,5.7,0.0
28/03/2012,13.0,24.4,3.6,0.0
29/03/2012,12.4,23.7,2.9,0.0
30/03/2012,11.5,21.7,2.2,0.0
31/03/2012,11.4,20.6,3.0,0.0
01/04/2012,11.0,19.4,4.0,0.0
02/04/2012,12.2,18.7,6.5,0.0
03/04/2012,10.4,12.0,7.8,0.4
04/04/2012,10.6,15.0,8.2,0.9
05/04/2012,9.7,11.1,8.3,7.8
06/04/2012,9.7,13.9,6.5,0.9
07/04/2012,9.8,13.2,5.5,3.0
08/04/2012,9.9,12.6,8.3,6.4
09/04/2012,13.9,23.0,8.4,0.0
10/04/2012,11.3,18.4,7.0,4.9
11/04/2012,11.4,16.0,6.8,1.2
12/04/2012,9.5,14.0,5.7,8.5
13/04/2012,7.6,11.3,4.9,9.1
14/04/2012,7.7,10.9,5.9,10.5
15/04/2012,7.2,10.3,4.4,17.1
16/04/2012,7.2,10.9,1.5,3.9
17/04/2012,7.6,16.6,-0.4,5.1
18/04/2012,9.8,14.3,5.8,3.2
19/04/2012,8.4,11.6,7.1,18.5
20/04/2012,10.2,14.9,6.9,9.2
21/04/2012,10.5,15.7,8.2,9.9
22/04/2012,9.4,13.5,5.4,0.3
23/04/2012,9.6,15.0,4.7,13.3
24/04/2012,8.8,15.0,5.9,7.1
25/04/2012,16.4,22.7,10.6,2.1
26/04/2012,12.3,17.9,9.5,3.3
27/04/2012,12.5,18.0,9.1,9.7
28/04/2012,9.5,10.7,7.9,48.8
29/04/2012,10.9,18.3,6.3,1.3
30/04/2012,10.5,16.2,7.1,8.8
01/05/2012,11.9,20.3,5.2,0.4
02/05/2012,14.3,23.6,4.5,0.0
03/05/2012,15.9,25.1,6.6,0.5
04/05/2012,15.6,21.0,9.9,0.0
05/05/2012,13.5,19.2,7.1,2.0
06/05/2012,11.7,17.9,6.7,0.9
07/05/2012,15.1,24.7,4.2,0.3
08/05/2012,19.1,25.3,15.0,6.0
09/05/2012,21.0,30.2,12.8,0.0
10/05/2012,23.7,33.7,14.1,0.0
11/05/2012,24.0,31.3,16.7,0.0
12/05/2012,16.0,18.3,13.0,0.0
13/05/2012,15.0,19.7,8.2,0.0
14/05/2012,13.2,21.1,7.6,0.0
15/05/2012,12.2,18.2,6.8,0.1
16/05/2012,14.1,22.4,6.9,0.0
17/05/2012,18.1,26.5,8.2,0.0
18/05/2012,13.7,16.1,11.6,2.8
19/05/2012,12.3,14.9,11.4,29.1
20/05/2012,10.6,11.5,8.6,24.6
21/05/2012,10.2,11.8,8.5,45.1
22/05/2012,13.2,15.6,11.0,9.9
23/05/2012,15.4,21.5,10.2,0.0
24/05/2012,18.6,26.4,11.8,0.0
25/05/2012,22.9,33.2,15.3,0.0
26/05/2012,17.5,20.4,12.9,0.0
27/05/2012,16.3,22.9,8.8,0.0
28/05/2012,17.1,25.9,9.6,0.0
29/05/2012,19.5,30.3,10.0,0.0
30/05/2012,17.9,23.4,13.9,0.0
31/05/2012,19.3,25.8,14.9,0.0
01/06/2012,23.8,35.8,14.3,0.0
02/06/2012,20.9,29.5,14.2,20.8
03/06/2012,15.9,20.6,12.9,4.4
04/06/2012,16.6,21.9,10.7,0.0
05/06/2012,18.4,30.4,10.1,0.0
06/06/2012,18.1,24.4,11.0,0.0
07/06/2012,19.7,28.3,14.6,0.0
08/06/2012,15.3,19.3,8.8,0.0
09/06/2012,14.6,22.3,7.6,0.2
10/06/2012,17.4,24.2,14.7,4.5
11/06/2012,15.5,21.4,12.9,10.5
12/06/2012,14.8,18.9,12.3,1.9
13/06/2012,15.2,19.9,10.7,0.0
14/06/2012,21.1,32.3,9.5,0.0
15/06/2012,21.8,34.2,10.7,0.0
16/06/2012,18.1,30.6,13.2,0.1
17/06/2012,20.8,29.6,14.6,0.0
18/06/2012,17.1,18.8,15.8,0.0
19/06/2012,20.2,27.5,15.5,8.4
20/06/2012,22.4,32.9,16.1,15.8
21/06/2012,17.7,26.3,10.3,0.0
22/06/2012,15.4,20.0,10.1,0.0
23/06/2012,18.2,24.2,14.3,0.0
24/06/2012,20.2,27.1,12.3,0.0
25/06/2012,19.9,28.3,10.3,0.0
26/06/2012,23.1,31.9,15.9,0.0
27/06/2012,26.2,36.7,16.7,0.0
28/06/2012,20.5,28.1,17.1,0.0
29/06/2012,18.9,23.1,16.8,0.0
30/06/2012,17.6,25.7,13.5,1.3
01/07/2012,15.0,18.5,10.8,1.2
02/07/2012,16.4,24.3,8.6,0.0
03/07/2012,19.8,30.6,11.3,0.0
04/07/2012,19.2,24.2,14.4,1.0
05/07/2012,16.9,21.3,14.2,1.5
06/07/2012,18.2,22.9,13.5,0.0
07/07/2012,21.0,32.6,12.4,0.0
08/07/2012,18.6,22.9,14.1,0.0
09/07/2012,17.0,19.7,14.4,0.0
10/07/2012,17.4,19.5,16.0,0.6
11/07/2012,16.2,17.9,14.7,1.3
12/07/2012,17.5,23.4,11.1,0.0
13/07/2012,20.2,34.1,10.4,0.0
14/07/2012,17.3,21.1,14.0,1.0
15/07/2012,16.7,21.1,12.9,0.4
16/07/2012,18.1,25.4,11.4,0.0
17/07/2012,20.7,30.7,11.0,0.0
18/07/2012,21.1,32.7,12.5,0.0
19/07/2012,18.0,23.3,11.9,0.0
20/07/2012,18.7,22.4,15.9,0.0
21/07/2012,19.0,23.1,15.9,0.0
22/07/2012,19.6,24.5,14.2,0.0
23/07/2012,18.7,28.3,11.6,0.0
24/07/2012,21.4,32.5,9.8,0.0
25/07/2012,23.7,33.3,13.4,0.0
26/07/2012,25.3,37.0,17.5,1.0
27/07/2012,22.6,30.6,17.8,0.1
28/07/2012,18.7,21.5,16.8,0.3
29/07/2012,19.3,22.7,16.1,0.0
30/07/2012,20.0,25.7,13.0,0.1
31/07/2012,22.8,32.6,12.0,0.0
01/08/2012,23.0,27.9,19.0,0.0
02/08/2012,20.4,24.7,17.2,0.0
03/08/2012,20.1,25.1,14.9,0.0
04/08/2012,19.9,25.0,15.9,0.0
05/08/2012,17.2,20.5,14.7,9.8
06/08/2012,18.6,24.3,14.2,0.0
07/08/2012,21.5,32.8,13.4,0.0
08/08/2012,24.9,37.4,14.9,0.0
09/08/2012,26.4,39.0,15.4,0.0
10/08/2012,27.9,40.7,16.6,0.0
11/08/2012,22.6,29.0,17.6,0.0
12/08/2012,20.2,26.0,16.3,0.0
13/08/2012,21.5,29.4,14.9,0.0
14/08/2012,23.8,34.4,15.9,0.0
15/08/2012,21.1,27.3,14.5,0.0
16/08/2012,23.0,35.8,13.8,0.0
17/08/2012,27.4,41.8,14.6,0.0
18/08/2012,28.0,39.2,18.5,0.0
19/08/2012,26.0,36.2,19.7,0.0
20/08/2012,25.0,31.2,20.9,0.0
21/08/2012,23.6,30.5,20.9,0.0
22/08/2012,22.8,28.3,19.9,0.0
23/08/2012,21.6,27.4,16.5,0.0
24/08/2012,20.3,28.5,13.7,0.0
25/08/2012,18.0,21.9,14.0,1.4
26/08/2012,18.6,25.9,12.5,0.2
27/08/2012,22.8,37.0,10.9,18.2
28/08/2012,22.7,30.5,17.5,0.1
29/08/2012,20.7,26.1,17.1,1.1
30/08/2012,17.0,20.8,13.6,11.2
31/08/2012,15.9,20.7,11.8,1.7
01/09/2012,15.0,20.2,9.3,0.0
02/09/2012,14.3,21.9,6.7,0.0
03/09/2012,17.0,21.8,10.8,0.0
04/09/2012,18.6,22.3,15.2,0.2
05/09/2012,19.4,24.7,14.1,0.0
06/09/2012,19.5,28.4,13.9,0.0
07/09/2012,22.3,34.9,15.8,0.0
08/09/2012,21.7,34.3,13.3,0.0
09/09/2012,20.3,29.1,13.2,0.0
10/09/2012,22.4,28.9,18.7,1.3
11/09/2012,22.1,28.3,18.0,0.0
12/09/2012,17.3,20.2,13.5,7.6
13/09/2012,16.2,20.8,13.6,8.4
14/09/2012,15.9,21.8,11.3,0.1
15/09/2012,16.7,24.1,10.9,0.0
16/09/2012,19.3,31.9,11.2,0.0
17/09/2012,19.3,25.8,15.4,0.0
18/09/2012,17.5,19.3,16.2,3.9
19/09/2012,16.2,22.0,8.9,0.1
20/09/2012,18.3,30.6,8.6,0.0
21/09/2012,23.8,32.2,15.6,8.3
22/09/2012,20.4,31.8,14.3,0.0
23/09/2012,23.0,33.0,16.2,1.2
24/09/2012,18.6,25.8,11.6,12.1
25/09/2012,17.9,22.7,12.2,11.1
26/09/2012,14.8,21.9,10.3,2.2
27/09/2012,14.5,20.6,9.4,0.0
28/09/2012,15.3,19.8,11.1,2.5
29/09/2012,14.6,17.4,12.7,14.3
30/09/2012,13.0,19.7,7.2,1.7
01/10/2012,12.5,21.4,5.5,0.0
02/10/2012,13.7,23.7,7.6,0.0
03/10/2012,16.1,26.6,9.7,0.0
04/10/2012,17.4,23.7,12.0,0.0
05/10/2012,17.8,29.3,11.0,0.0
06/10/2012,18.1,27.2,10.5,0.1
07/10/2012,18.7,24.7,15.0,0.0
08/10/2012,19.8,30.9,14.4,0.0
09/10/2012,19.3,28.8,13.9,0.0
10/10/2012,18.8,24.7,15.3,1.3
11/10/2012,17.5,24.2,14.6,34.5
12/10/2012,13.8,16.0,11.9,7.1
13/10/2012,12.1,20.4,8.2,0.0
14/10/2012,11.5,18.0,7.1,26.6
15/10/2012,10.8,16.3,7.4,14.5
16/10/2012,14.6,20.6,7.0,0.7
17/10/2012,20.6,24.1,16.1,0.0
18/10/2012,20.4,24.3,15.8,0.0
19/10/2012,14.3,20.7,13.1,22.5
20/10/2012,13.3,14.0,13.0,82.4
21/10/2012,14.8,17.7,13.1,20.6
22/10/2012,15.5,21.0,12.5,4.3
23/10/2012,14.2,21.5,11.0,0.1
24/10/2012,16.8,23.6,10.3,0.1
25/10/2012,15.9,21.9,13.8,7.1
26/10/2012,15.3,19.6,13.0,39.6
27/10/2012,9.0,13.8,2.0,42.6
28/10/2012,5.0,9.8,1.8,4.3
29/10/2012,5.6,14.8,1.9,0.0
30/10/2012,6.8,17.4,0.7,0.0
31/10/2012,7.3,17.0,3.2,0.0
01/11/2012,10.6,18.9,3.3,7.6
02/11/2012,12.6,20.8,7.0,0.1
03/11/2012,16.4,18.1,11.6,0.0
04/11/2012,12.7,16.8,7.0,8.0
05/11/2012,8.1,15.2,4.2,1.7
06/11/2012,7.8,12.7,3.4,9.0
07/11/2012,6.1,12.5,2.2,0.0
08/11/2012,14.5,17.9,12.0,0.1
09/11/2012,16.5,19.4,12.7,1.2
10/11/2012,12.3,18.5,8.6,5.4
11/11/2012,8.6,13.1,6.1,6.6
12/11/2012,6.7,13.0,2.4,0.1
13/11/2012,5.1,14.2,1.6,0.0
14/11/2012,10.1,22.2,2.4,0.0
15/11/2012,11.2,22.1,6.0,0.0
16/11/2012,12.7,20.9,7.4,0.0
17/11/2012,14.9,18.9,9.9,7.9
18/11/2012,11.2,12.8,9.0,16.4
19/11/2012,9.0,17.1,3.6,0.0
20/11/2012,10.3,17.8,3.1,0.0
21/11/2012,11.7,15.9,7.5,3.0
22/11/2012,9.9,16.7,5.4,0.0
23/11/2012,14.3,17.6,9.9,0.0
24/11/2012,16.3,18.1,13.6,0.0
25/11/2012,13.5,16.3,10.8,6.7
26/11/2012,10.1,16.0,7.0,12.2
27/11/2012,5.7,9.1,3.0,21.3
28/11/2012,4.8,7.3,2.6,49.4
29/11/2012,4.7,5.9,3.8,26.9
30/11/2012,3.7,6.8,-0.5,0.1
01/12/2012,0.6,6.4,-3.0,0.0
02/12/2012,3.3,7.0,-2.4,5.2
03/12/2012,8.5,13.7,5.2,3.7
04/12/2012,7.3,9.8,5.3,40.8
05/12/2012,6.1,9.4,4.9,42.2
06/12/2012,6.4,11.8,3.4,5.6
07/12/2012,8.4,12.2,3.8,11.5
08/12/2012,6.6,8.7,5.0,10.8
09/12/2012,3.6,6.8,0.6,0.0
10/12/2012,1.7,4.5,-1.1,0.0
11/12/2012,3.9,7.7,-0.2,0.1
12/12/2012,4.3,8.8,-1.8,0.0
13/12/2012,9.0,11.0,7.1,6.6
14/12/2012,11.6,13.2,8.4,18.6
15/12/2012,10.9,17.1,6.1,0.1
16/12/2012,9.1,16.4,3.2,4.8
17/12/2012,8.5,12.7,6.3,1.1
18/12/2012,9.0,14.6,4.5,0.2
19/12/2012,11.9,15.4,9.1,1.3
20/12/2012,11.5,14.7,7.7,2.7
21/12/2012,11.2,16.8,6.5,2.5
22/12/2012,9.0,16.8,6.0,0.0
23/12/2012,12.2,19.0,4.4,0.1
24/12/2012,17.3,19.9,11.4,0.0
25/12/2012,12.0,16.1,8.7,0.0
26/12/2012,7.8,14.7,3.2,4.1
27/12/2012,6.6,10.7,1.2,1.4
28/12/2012,11.3,17.1,7.3,0.1
29/12/2012,10.9,15.0,3.7,3.1
30/12/2012,5.4,12.4,1.5,0.5
31/12/2012,6.5,12.2,-0.1,0.4
