Fecha, Temperatura media, Temperatura maxima, Temperatura minima, Precipitacion acumulada
01/01/2019,-,5.4,1.0,1.4
02/01/2019,-,6.1,2.0,0.0
03/01/2019,-,7.1,1.1,0.0
04/01/2019,-,6.7,-2.7,0.0
05/01/2019,-,10.6,-2.0,0.0
06/01/2019,-,6.7,-1.1,0.0
07/01/2019,-,7.6,1.6,0.0
08/01/2019,-,10.2,2.4,5.4
09/01/2019,-,8.0,6.2,0.0
10/01/2019,-,6.4,-0.2,0.0
11/01/2019,-,8.6,-2.9,0.0
12/01/2019,-,9.4,-0.8,0.4
13/01/2019,-,10.7,2.0,1.6
14/01/2019,-,11.7,7.1,5.2
15/01/2019,-,13.4,7.0,0.0
16/01/2019,-,13.3,1.2,4.1
17/01/2019,-,11.8,7.6,7.8
18/01/2019,-,9.4,4.5,1.1
19/01/2019,-,12.6,6.6,1.2
20/01/2019,-,11.2,6.3,14.7
21/01/2019,-,11.4,5.0,1.4
22/01/2019,-,9.8,5.5,44.6
23/01/2019,-,10.2,3.4,16.2
24/01/2019,-,10.0,3.4,2.7
25/01/2019,-,11.0,3.6,19.6
26/01/2019,-,13.5,7.6,3.4
27/01/2019,-,11.0,6.0,28.4
28/01/2019,-,11.2,5.5,14.4
29/01/2019,-,11.5,6.0,17.2
30/01/2019,-,11.2,5.0,12.6
31/01/2019,-,15.0,3.7,28.4
01/02/2019,-,13.0,6.1,21.6
02/02/2019,-,9.1,5.2,25.0
03/02/2019,-,8.2,1.0,15.6
04/02/2019,-,11.2,0.0,2.6
05/02/2019,-,17.0,5.0,5.3
06/02/2019,-,15.1,10.0,0.0
07/02/2019,-,11.2,8.0,0.0
08/02/2019,-,20.0,5.0,0.0
09/02/2019,-,15.1,7.1,0.0
10/02/2019,-,15.2,9.2,3.1
11/02/2019,-,11.2,6.0,0.0
12/02/2019,-,13.2,2.2,0.0
13/02/2019,-,19.0,3.0,0.0
14/02/2019,-,21.7,4.8,0.0
15/02/2019,-,21.5,12.2,0.0
16/02/2019,-,22.0,10.5,0.0
17/02/2019,-,22.6,13.6,0.0
18/02/2019,-,18.0,8.2,0.0
19/02/2019,-,14.6,5.6,0.0
20/02/2019,-,20.7,4.2,0.0
21/02/2019,-,21.8,11.2,0.0
22/02/2019,-,24.6,11.6,0.0
23/02/2019,-,20.2,7.2,0.0
24/02/2019,-,20.2,6.8,0.0
25/02/2019,-,20.4,6.2,0.0
26/02/2019,-,26.1,6.0,0.0
27/02/2019,-,27.2,10.0,0.0
28/02/2019,-,16.4,7.0,0.0
01/03/2019,-,16.2,5.4,0.0
02/03/2019,-,16.8,6.2,0.0
03/03/2019,-,23.5,8.2,1.2
04/03/2019,-,14.0,10.4,0.0
05/03/2019,-,20.6,7.5,0.0
06/03/2019,-,21.0,14.8,3.6
07/03/2019,-,17.2,8.2,6.4
08/03/2019,-,14.2,8.0,3.6
09/03/2019,-,17.5,7.8,1.0
10/03/2019,-,15.5,8.0,3.2
11/03/2019,-,14.7,7.2,0.4
12/03/2019,-,21.0,3.2,14.6
13/03/2019,-,12.0,6.8,12.5
14/03/2019,-,10.4,6.6,0.4
15/03/2019,-,13.5,7.4,0.0
16/03/2019,-,26.9,2.8,0.0
17/03/2019,-,13.7,8.2,10.8
18/03/2019,-,12.8,4.1,20.8
19/03/2019,-,11.0,5.0,0.0
20/03/2019,-,13.8,3.7,0.0
21/03/2019,-,15.0,2.8,0.0
22/03/2019,-,22.4,4.0,0.0
23/03/2019,-,22.0,6.5,0.0
24/03/2019,-,20.4,6.2,0.0
25/03/2019,-,14.0,6.0,0.0
26/03/2019,-,14.5,2.0,0.0
27/03/2019,-,14.6,1.6,0.0
28/03/2019,-,18.0,2.4,0.0
29/03/2019,-,22.8,4.0,0.0
30/03/2019,-,22.7,5.0,0.0
31/03/2019,-,20.6,7.2,1.6
01/04/2019,-,18.0,7.2,1.2
02/04/2019,-,15.3,10.0,5.2
03/04/2019,-,10.0,6.6,12.6
04/04/2019,-,16.0,2.3,0.0
05/04/2019,-,15.0,4.8,-
06/04/2019,-,17.8,5.7,-
07/04/2019,-,15.0,5.6,0.0
08/04/2019,-,14.0,5.6,9.3
09/04/2019,-,17.4,5.6,0.0
10/04/2019,-,15.6,6.0,12.6
11/04/2019,-,13.8,8.2,4.2
12/04/2019,-,15.5,9.5,0.0
13/04/2019,-,20.9,2.8,0.0
14/04/2019,-,20.5,6.2,0.0
15/04/2019,-,24.7,7.1,14.1
16/04/2019,-,20.1,9.7,0.0
17/04/2019,-,25.2,8.6,0.0
18/04/2019,-,19.2,15.5,0.3
19/04/2019,-,22.2,11.0,0.0
20/04/2019,-,21.2,8.2,0.0
21/04/2019,-,18.8,6.8,0.0
22/04/2019,-,21.2,7.8,0.0
23/04/2019,-,21.0,11.5,10.1
24/04/2019,-,17.1,8.0,6.0
25/04/2019,-,19.7,8.5,6.5
26/04/2019,-,15.2,8.2,2.8
27/04/2019,-,15.4,9.2,0.7
28/04/2019,-,16.6,9.4,0.0
29/04/2019,-,19.2,4.3,0.0
30/04/2019,-,18.8,4.7,0.0
01/05/2019,-,18.7,6.5,2.0
02/05/2019,-,15.6,11.0,2.1
03/05/2019,-,14.5,9.2,6.1
04/05/2019,-,16.8,8.0,3.6
05/05/2019,-,14.5,1.8,0.0
06/05/2019,-,20.0,2.8,0.0
07/05/2019,-,22.4,7.4,0.0
08/05/2019,-,20.6,14.0,2.6
09/05/2019,-,20.0,9.6,10.1
10/05/2019,-,23.2,10.0,2.1
11/05/2019,-,17.1,11.5,2.0
12/05/2019,-,19.5,8.0,0.0
13/05/2019,-,19.0,6.4,0.0
14/05/2019,-,20.8,6.2,0.0
15/05/2019,-,23.0,7.2,0.0
16/05/2019,-,24.6,7.6,28.8
17/05/2019,-,13.6,9.1,22.6
18/05/2019,-,13.2,9.0,38.2
19/05/2019,-,12.8,9.4,28.6
20/05/2019,-,17.8,9.0,0.0
21/05/2019,-,18.7,8.1,0.0
22/05/2019,-,23.8,8.7,0.0
23/05/2019,-,21.0,11.3,4.8
24/05/2019,-,15.5,12.2,3.0
25/05/2019,-,16.5,13.0,4.6
26/05/2019,-,15.5,11.6,9.2
27/05/2019,-,16.0,12.0,4.6
28/05/2019,-,16.0,11.4,7.2
29/05/2019,-,18.2,11.0,0.0
30/05/2019,-,24.2,7.7,0.0
31/05/2019,-,28.5,8.5,0.0
01/06/2019,-,33.5,12.4,0.0
02/06/2019,-,29.8,12.8,0.0
03/06/2019,-,23.8,13.0,0.0
04/06/2019,-,28.5,13.6,20.2
05/06/2019,-,16.0,4.7,26.6
06/06/2019,-,26.0,9.6,0.8
07/06/2019,-,18.8,10.2,0.0
08/06/2019,-,22.0,7.8,0.0
09/06/2019,-,21.8,9.2,2.4
10/06/2019,-,17.6,12.2,2.2
11/06/2019,-,16.0,10.2,4.8
12/06/2019,-,19.1,9.8,0.0
13/06/2019,-,20.0,8.0,2.8
14/06/2019,-,16.4,8.8,6.8
15/06/2019,-,20.5,11.5,0.0
16/06/2019,-,26.3,9.3,0.0
17/06/2019,-,30.0,10.0,0.0
18/06/2019,-,34.0,15.0,0.0
19/06/2019,-,25.0,14.6,2.2
20/06/2019,-,18.2,15.0,13.2
21/06/2019,-,19.5,12.8,2.3
22/06/2019,-,27.6,9.0,0.0
23/06/2019,-,28.2,10.8,0.0
24/06/2019,-,26.4,15.6,0.0
25/06/2019,-,26.6,16.6,0.0
26/06/2019,-,33.4,17.5,0.0
27/06/2019,-,33.0,17.7,0.0
28/06/2019,-,26.2,15.8,0.0
29/06/2019,-,21.8,16.2,0.0
30/06/2019,-,21.3,16.5,0.3
01/07/2019,-,21.2,16.5,2.2
02/07/2019,-,23.0,16.6,0.2
03/07/2019,-,26.6,17.3,0.0
04/07/2019,-,32.8,18.0,0.0
05/07/2019,-,28.6,18.2,0.0
06/07/2019,-,26.0,18.3,0.0
07/07/2019,-,21.8,18.0,14.2
08/07/2019,-,20.4,18.0,33.2
09/07/2019,-,23.4,17.5,7.8
10/07/2019,-,25.0,15.0,0.0
11/07/2019,-,26.6,16.0,0.0
12/07/2019,-,27.0,14.0,0.0
13/07/2019,-,26.3,15.0,0.0
14/07/2019,-,25.7,17.0,0.0
15/07/2019,-,26.0,15.0,0.0
16/07/2019,-,25.0,15.2,0.3
17/07/2019,-,25.0,17.0,0.5
18/07/2019,-,24.5,16.6,0.0
19/07/2019,-,30.2,13.7,0.0
20/07/2019,-,23.0,14.0,1.0
21/07/2019,-,27.4,18.6,0.0
22/07/2019,-,33.5,19.0,0.0
23/07/2019,-,39.0,20.0,0.0
24/07/2019,-,35.2,19.6,0.0
25/07/2019,-,32.5,21.7,9.0
26/07/2019,-,22.7,19.4,10.6
27/07/2019,-,17.9,15.5,38.7
28/07/2019,-,23.4,14.6,0.0
29/07/2019,-,26.4,13.5,0.0
30/07/2019,-,21.5,15.5,0.0
31/07/2019,-,24.8,11.5,24.8
01/08/2019,-,25.8,11.4,6.4
02/08/2019,-,25.2,15.5,0.0
03/08/2019,-,30.5,15.0,0.0
04/08/2019,-,23.8,17.2,0.9
05/08/2019,-,23.6,18.6,0.8
06/08/2019,-,27.3,18.5,20.1
07/08/2019,-,28.0,18.0,0.0
08/08/2019,-,33.6,20.2,0.0
09/08/2019,-,31.4,23.2,4.6
10/08/2019,-,23.5,17.5,7.6
11/08/2019,-,23.0,17.2,15.1
12/08/2019,-,21.0,15.7,5.8
13/08/2019,-,22.8,12.7,0.0
14/08/2019,-,26.1,11.5,2.3
15/08/2019,-,23.2,12.2,0.9
16/08/2019,-,28.0,13.0,0.0
17/08/2019,-,29.8,12.7,0.0
18/08/2019,-,25.0,15.2,5.2
19/08/2019,-,22.0,15.0,3.1
20/08/2019,-,21.5,15.0,0.0
21/08/2019,-,26.0,11.5,0.0
22/08/2019,-,25.8,12.5,0.0
23/08/2019,-,32.1,13.0,0.0
24/08/2019,-,31.1,13.5,0.0
25/08/2019,-,25.7,13.2,1.0
26/08/2019,-,29.6,18.6,1.6
27/08/2019,-,25.5,17.6,0.0
28/08/2019,-,28.3,17.8,0.0
29/08/2019,-,28.4,17.3,0.0
30/08/2019,-,27.0,17.4,0.0
31/08/2019,-,24.0,17.8,3.0
01/09/2019,-,24.8,15.6,0.0
02/09/2019,-,22.7,13.0,0.0
03/09/2019,-,24.3,10.4,0.0
04/09/2019,-,24.2,11.0,6.6
05/09/2019,-,20.8,13.8,0.0
06/09/2019,-,20.7,10.0,0.0
07/09/2019,-,22.2,8.5,1.4
08/09/2019,-,21.6,9.6,0.0
09/09/2019,-,20.8,8.7,11.4
10/09/2019,-,19.8,9.3,7.2
11/09/2019,-,22.4,12.4,0.0
12/09/2019,-,23.8,10.0,0.0
13/09/2019,-,24.6,10.5,0.0
14/09/2019,-,28.5,12.0,0.0
15/09/2019,-,27.9,17.0,1.0
16/09/2019,-,27.8,17.0,0.0
17/09/2019,-,27.2,15.8,0.0
18/09/2019,-,25.8,16.0,0.0
19/09/2019,-,24.2,13.8,0.0
20/09/2019,-,31.7,13.6,0.0
21/09/2019,-,27.9,15.5,15.6
22/09/2019,-,22.6,15.0,6.4
23/09/2019,-,25.6,12.4,0.0
24/09/2019,-,25.6,15.6,0.4
25/09/2019,-,21.4,14.6,0.0
26/09/2019,-,23.0,14.6,0.0
27/09/2019,-,23.8,13.6,0.0
28/09/2019,-,24.2,14.8,0.0
29/09/2019,-,28.8,14.0,0.5
30/09/2019,-,27.0,14.0,0.0
01/10/2019,-,-,-,-
02/10/2019,-,-,-,-
03/10/2019,-,-,-,-
04/10/2019,-,-,-,-
05/10/2019,-,-,-,-
06/10/2019,-,-,-,-
07/10/2019,-,-,-,-
08/10/2019,-,-,-,-
09/10/2019,-,-,-,-
10/10/2019,-,-,-,-
11/10/2019,-,-,-,-
12/10/2019,-,-,-,-
13/10/2019,-,-,-,-
14/10/2019,-,-,-,-
15/10/2019,-,-,-,-
16/10/2019,-,-,-,-
17/10/2019,-,-,-,-
18/10/2019,-,-,-,-
19/10/2019,-,-,-,-
20/10/2019,-,-,-,-
21/10/2019,-,-,-,-
22/10/2019,-,-,-,-
23/10/2019,-,-,-,-
24/10/2019,-,-,-,-
25/10/2019,-,-,-,-
26/10/2019,-,-,-,-
27/10/2019,-,-,-,-
28/10/2019,-,-,-,-
29/10/2019,-,-,-,-
30/10/2019,-,-,-,-
31/10/2019,-,-,-,-
01/11/2019,-,-,-,-
02/11/2019,-,-,-,-
03/11/2019,-,-,-,-
04/11/2019,-,-,-,-
05/11/2019,-,-,-,-
06/11/2019,-,-,-,-
07/11/2019,-,-,-,-
08/11/2019,-,-,-,-
09/11/2019,-,-,-,-
10/11/2019,-,-,-,-
11/11/2019,-,-,-,-
12/11/2019,-,-,-,-
13/11/2019,-,-,-,-
14/11/2019,-,-,-,-
15/11/2019,-,-,-,-
16/11/2019,-,-,-,-
17/11/2019,-,-,-,-
18/11/2019,-,-,-,-
19/11/2019,-,-,-,-
20/11/2019,-,-,-,-
21/11/2019,-,-,-,-
22/11/2019,-,-,-,-
23/11/2019,-,-,-,-
24/11/2019,-,-,-,-
25/11/2019,-,-,-,-
26/11/2019,-,-,-,-
27/11/2019,-,-,-,-
28/11/2019,-,-,-,-
29/11/2019,-,-,-,-
30/11/2019,-,-,-,-
01/12/2019,-,-,-,-
02/12/2019,-,-,-,-
03/12/2019,-,-,-,-
04/12/2019,-,-,-,-
05/12/2019,-,-,-,-
06/12/2019,-,-,-,-
07/12/2019,-,-,-,-
08/12/2019,-,-,-,-
09/12/2019,-,-,-,-
10/12/2019,-,-,-,-
11/12/2019,-,-,-,-
12/12/2019,-,-,-,-
13/12/2019,-,-,-,-
14/12/2019,-,-,-,-
15/12/2019,-,-,-,-
16/12/2019,-,-,-,-
17/12/2019,-,-,-,-
18/12/2019,-,-,-,-
19/12/2019,-,-,-,-
20/12/2019,-,-,-,-
21/12/2019,-,-,-,-
22/12/2019,-,-,-,-
23/12/2019,-,-,-,-
24/12/2019,-,-,-,-
25/12/2019,-,-,-,-
26/12/2019,-,-,-,-
27/12/2019,-,-,-,-
