Comarca,Fecha, Temperatura media, Temperatura maxima, Temperatura minima, Precipitacion acumulada,Localidad
Pirineo,01/01/2015,4.4,8.0,0.2,0.0,Arangoiti
Pirineo,02/01/2015,6.7,8.7,4.7,0.0,Arangoiti
Pirineo,03/01/2015,6.8,10.4,1.0,0.0,Arangoiti
Pirineo,04/01/2015,4.1,11.0,1.3,0.0,Arangoiti
Pirineo,05/01/2015,7.0,11.0,4.0,0.0,Arangoiti
Pirineo,06/01/2015,1.7,5.6,-0.1,0.0,Arangoiti
Pirineo,07/01/2015,1.7,3.4,0.1,0.0,Arangoiti
Pirineo,08/01/2015,2.1,5.2,0.6,0.0,Arangoiti
Pirineo,09/01/2015,6.2,8.4,2.9,0.0,Arangoiti
Pirineo,10/01/2015,8.6,11.6,4.7,0.0,Arangoiti
Pirineo,11/01/2015,2.8,8.8,-1.3,0.1,Arangoiti
Pirineo,12/01/2015,6.0,9.7,3.4,0.0,Arangoiti
Pirineo,13/01/2015,4.7,8.8,2.3,0.0,Arangoiti
Pirineo,14/01/2015,3.3,8.7,1.2,0.0,Arangoiti
Pirineo,15/01/2015,1.7,4.8,0.1,0.7,Arangoiti
Pirineo,16/01/2015,-0.8,2.3,-4.0,12.1,Arangoiti
Pirineo,17/01/2015,-2.6,-0.7,-3.9,12.8,Arangoiti
Pirineo,18/01/2015,-3.8,-2.9,-4.7,0.8,Arangoiti
Pirineo,19/01/2015,-3.8,-2.2,-5.5,0.0,Arangoiti
Pirineo,20/01/2015,-4.3,-2.3,-5.9,0.9,Arangoiti
Pirineo,21/01/2015,-3.1,-1.3,-4.7,3.2,Arangoiti
Pirineo,22/01/2015,-2.9,-1.1,-4.0,1.2,Arangoiti
Pirineo,23/01/2015,-4.9,-3.4,-6.3,0.1,Arangoiti
Pirineo,24/01/2015,-3.0,0.4,-6.2,2.3,Arangoiti
Pirineo,25/01/2015,-4.3,-1.0,-6.2,0.0,Arangoiti
Pirineo,26/01/2015,-3.5,-0.6,-6.2,0.0,Arangoiti
Pirineo,27/01/2015,-0.8,1.3,-2.7,3.7,Arangoiti
Pirineo,28/01/2015,-0.5,2.0,-2.7,0.0,Arangoiti
Pirineo,29/01/2015,1.8,4.2,-0.0,8.9,Arangoiti
Pirineo,30/01/2015,-0.8,4.1,-2.4,51.0,Arangoiti
Pirineo,31/01/2015,-2.9,-1.1,-4.3,31.1,Arangoiti
Pirineo,01/02/2015,-4.2,-3.1,-5.0,19.7,Arangoiti
Pirineo,02/02/2015,-2.5,-0.2,-4.4,13.2,Arangoiti
Pirineo,03/02/2015,-4.5,-1.6,-7.8,15.2,Arangoiti
Pirineo,04/02/2015,-8.2,-7.7,-8.7,0.0,Arangoiti
Pirineo,05/02/2015,-8.9,-7.4,-10.2,0.0,Arangoiti
Pirineo,06/02/2015,-9.9,-8.2,-11.1,0.0,Arangoiti
Pirineo,07/02/2015,-7.3,-3.1,-10.7,1.8,Arangoiti
Pirineo,08/02/2015,-6.1,-3.8,-8.6,0.0,Arangoiti
Pirineo,09/02/2015,-1.3,2.6,-5.8,0.0,Arangoiti
Pirineo,10/02/2015,0.2,2.1,-1.5,0.0,Arangoiti
Pirineo,11/02/2015,-0.6,1.1,-1.9,0.2,Arangoiti
Pirineo,12/02/2015,-0.0,1.5,-0.8,4.7,Arangoiti
Pirineo,13/02/2015,1.0,2.4,-0.2,0.0,Arangoiti
Pirineo,14/02/2015,0.2,1.4,-0.5,16.6,Arangoiti
Pirineo,15/02/2015,0.7,2.5,-2.2,9.3,Arangoiti
Pirineo,16/02/2015,-0.5,1.5,-2.9,6.6,Arangoiti
Pirineo,17/02/2015,-1.1,0.0,-2.2,0.7,Arangoiti
Pirineo,18/02/2015,-1.2,1.0,-3.3,0.0,Arangoiti
Pirineo,19/02/2015,1.8,4.7,-0.4,0.0,Arangoiti
Pirineo,20/02/2015,1.1,4.0,-0.8,5.4,Arangoiti
Pirineo,21/02/2015,-2.2,-0.2,-3.6,20.7,Arangoiti
Pirineo,22/02/2015,-1.9,2.4,-4.0,6.8,Arangoiti
Pirineo,23/02/2015,1.5,4.6,-2.3,6.4,Arangoiti
Pirineo,24/02/2015,-3.0,-1.9,-3.9,23.5,Arangoiti
Pirineo,25/02/2015,0.3,3.1,-2.3,37.3,Arangoiti
Pirineo,26/02/2015,2.9,3.5,2.4,3.9,Arangoiti
Pirineo,27/02/2015,-2.0,3.4,-3.8,7.1,Arangoiti
Pirineo,28/02/2015,0.5,4.8,-3.9,2.7,Arangoiti
Pirineo,01/03/2015,6.0,7.3,4.7,6.0,Arangoiti
Pirineo,02/03/2015,6.1,7.2,4.4,0.0,Arangoiti
Pirineo,03/03/2015,6.8,11.7,3.9,0.0,Arangoiti
Pirineo,04/03/2015,-1.0,4.1,-4.0,0.4,Arangoiti
Pirineo,05/03/2015,-1.3,2.7,-4.8,0.0,Arangoiti
Pirineo,06/03/2015,8.5,13.4,-0.1,0.0,Arangoiti
Pirineo,07/03/2015,10.6,15.0,7.6,0.0,Arangoiti
Pirineo,08/03/2015,8.5,12.2,3.7,0.0,Arangoiti
Pirineo,09/03/2015,9.0,14.2,4.3,0.0,Arangoiti
Pirineo,10/03/2015,10.2,13.8,7.0,0.0,Arangoiti
Pirineo,11/03/2015,9.3,13.3,5.7,0.0,Arangoiti
Pirineo,12/03/2015,8.4,13.5,1.0,0.0,Arangoiti
Pirineo,13/03/2015,0.6,3.4,-3.2,0.0,Arangoiti
Pirineo,14/03/2015,-2.7,-1.2,-3.8,8.4,Arangoiti
Pirineo,15/03/2015,-2.1,0.1,-3.8,0.0,Arangoiti
Pirineo,16/03/2015,0.1,3.7,-3.0,0.0,Arangoiti
Pirineo,17/03/2015,3.5,9.0,-0.7,0.0,Arangoiti
Pirineo,18/03/2015,3.5,7.1,1.1,0.1,Arangoiti
Pirineo,19/03/2015,5.7,11.5,1.7,4.7,Arangoiti
Pirineo,20/03/2015,4.3,10.3,1.2,3.0,Arangoiti
Pirineo,21/03/2015,2.3,5.0,0.8,8.1,Arangoiti
Pirineo,22/03/2015,0.5,1.9,-2.0,15.9,Arangoiti
Pirineo,23/03/2015,1.7,3.4,-0.8,37.5,Arangoiti
Pirineo,24/03/2015,1.0,4.1,-2.5,4.1,Arangoiti
Pirineo,25/03/2015,-3.5,-2.3,-4.4,0.1,Arangoiti
Pirineo,26/03/2015,0.1,4.2,-4.2,1.0,Arangoiti
Pirineo,27/03/2015,3.0,6.1,-1.0,0.5,Arangoiti
Pirineo,28/03/2015,4.7,8.6,1.7,0.5,Arangoiti
Pirineo,29/03/2015,5.6,10.4,2.3,0.0,Arangoiti
Pirineo,30/03/2015,5.7,6.9,4.5,0.0,Arangoiti
Pirineo,31/03/2015,5.9,9.0,2.5,0.1,Arangoiti
Pirineo,01/04/2015,1.9,5.8,-1.3,0.0,Arangoiti
Pirineo,02/04/2015,6.5,12.0,1.7,0.0,Arangoiti
Pirineo,03/04/2015,7.0,12.5,1.2,0.0,Arangoiti
Pirineo,04/04/2015,2.9,7.9,-0.2,0.0,Arangoiti
Pirineo,05/04/2015,4.3,9.0,0.8,0.0,Arangoiti
Pirineo,06/04/2015,6.7,12.7,1.9,0.0,Arangoiti
Pirineo,07/04/2015,7.1,13.4,1.4,0.0,Arangoiti
Pirineo,08/04/2015,5.5,11.9,-0.3,0.0,Arangoiti
Pirineo,09/04/2015,7.2,13.1,1.8,0.3,Arangoiti
Pirineo,10/04/2015,6.6,12.2,1.3,0.1,Arangoiti
Pirineo,11/04/2015,8.1,12.4,4.4,0.0,Arangoiti
Pirineo,12/04/2015,11.0,17.8,6.0,0.1,Arangoiti
Pirineo,13/04/2015,12.7,18.9,7.9,0.0,Arangoiti
Pirineo,14/04/2015,14.0,19.7,9.8,0.0,Arangoiti
Pirineo,15/04/2015,10.3,13.9,6.1,0.0,Arangoiti
Pirineo,16/04/2015,6.4,9.3,4.8,2.0,Arangoiti
Pirineo,17/04/2015,8.1,11.4,5.0,0.1,Arangoiti
Pirineo,18/04/2015,7.7,13.8,4.0,8.8,Arangoiti
Pirineo,19/04/2015,4.1,7.5,1.8,0.1,Arangoiti
Pirineo,20/04/2015,6.9,11.8,1.5,0.0,Arangoiti
Pirineo,21/04/2015,11.0,16.7,6.6,0.0,Arangoiti
Pirineo,22/04/2015,9.0,12.8,6.6,0.0,Arangoiti
Pirineo,23/04/2015,8.6,12.8,5.1,0.0,Arangoiti
Pirineo,24/04/2015,11.8,17.6,7.3,2.4,Arangoiti
Pirineo,25/04/2015,10.9,14.8,8.3,0.2,Arangoiti
Pirineo,26/04/2015,6.3,9.2,2.9,16.9,Arangoiti
Pirineo,27/04/2015,3.6,5.4,0.3,8.9,Arangoiti
Pirineo,28/04/2015,3.7,8.4,-0.7,0.0,Arangoiti
Pirineo,29/04/2015,6.9,10.8,4.7,0.0,Arangoiti
Pirineo,30/04/2015,10.1,14.7,5.2,0.0,Arangoiti
Pirineo,01/05/2015,9.8,12.3,8.1,2.1,Arangoiti
Pirineo,02/05/2015,12.3,15.9,9.1,0.8,Arangoiti
Pirineo,03/05/2015,11.9,14.4,9.4,2.3,Arangoiti
Pirineo,04/05/2015,13.9,17.7,9.9,0.8,Arangoiti
Pirineo,05/05/2015,10.6,16.2,7.4,0.0,Arangoiti
Pirineo,06/05/2015,8.7,12.8,5.3,0.0,Arangoiti
Pirineo,07/05/2015,13.6,19.5,7.9,0.0,Arangoiti
Pirineo,08/05/2015,12.0,14.9,8.7,0.0,Arangoiti
Pirineo,09/05/2015,12.7,16.2,8.7,0.0,Arangoiti
Pirineo,10/05/2015,18.1,22.8,12.8,0.0,Arangoiti
Pirineo,11/05/2015,19.7,24.7,15.3,0.0,Arangoiti
Pirineo,12/05/2015,20.7,25.7,15.9,0.0,Arangoiti
Pirineo,13/05/2015,21.3,26.3,18.5,0.0,Arangoiti
Pirineo,14/05/2015,11.6,20.1,1.8,0.0,Arangoiti
Pirineo,15/05/2015,3.0,4.2,1.3,2.3,Arangoiti
Pirineo,16/05/2015,5.7,9.9,2.9,0.0,Arangoiti
Pirineo,17/05/2015,9.3,13.9,4.4,0.0,Arangoiti
Pirineo,18/05/2015,12.5,20.4,3.7,0.0,Arangoiti
Pirineo,19/05/2015,3.3,5.9,1.1,1.1,Arangoiti
Pirineo,20/05/2015,2.5,5.8,1.1,0.0,Arangoiti
Pirineo,21/05/2015,3.2,7.5,-0.5,0.0,Arangoiti
Pirineo,22/05/2015,4.6,9.2,0.5,0.0,Arangoiti
Pirineo,23/05/2015,5.5,9.8,3.0,0.0,Arangoiti
Pirineo,24/05/2015,9.0,13.9,4.8,0.0,Arangoiti
Pirineo,25/05/2015,7.7,11.3,5.2,0.0,Arangoiti
Pirineo,26/05/2015,5.4,9.9,1.2,0.0,Arangoiti
Pirineo,27/05/2015,9.8,16.0,4.3,0.0,Arangoiti
Pirineo,28/05/2015,14.2,21.0,7.9,0.0,Arangoiti
Pirineo,29/05/2015,11.5,18.5,6.0,0.0,Arangoiti
Pirineo,30/05/2015,12.3,17.1,5.8,0.0,Arangoiti
Pirineo,31/05/2015,14.7,20.7,10.5,0.0,Arangoiti
Pirineo,01/06/2015,15.6,22.7,10.8,0.0,Arangoiti
Pirineo,02/06/2015,17.9,24.8,10.5,0.0,Arangoiti
Pirineo,03/06/2015,19.3,25.5,14.5,0.0,Arangoiti
Pirineo,04/06/2015,20.2,26.2,15.5,0.0,Arangoiti
Pirineo,05/06/2015,19.4,25.4,14.6,0.0,Arangoiti
Pirineo,06/06/2015,19.5,25.4,15.5,0.0,Arangoiti
Pirineo,07/06/2015,19.0,24.5,15.1,0.0,Arangoiti
Pirineo,08/06/2015,17.6,23.2,12.3,0.0,Arangoiti
Pirineo,09/06/2015,13.2,20.9,9.1,0.3,Arangoiti
Pirineo,10/06/2015,10.9,13.0,9.2,18.4,Arangoiti
Pirineo,11/06/2015,11.3,16.1,8.9,18.8,Arangoiti
Pirineo,12/06/2015,13.2,19.5,8.8,0.8,Arangoiti
Pirineo,13/06/2015,10.8,15.7,8.7,11.0,Arangoiti
Pirineo,14/06/2015,10.5,15.4,7.4,0.4,Arangoiti
Pirineo,15/06/2015,10.0,15.3,6.5,0.0,Arangoiti
Pirineo,16/06/2015,7.8,8.9,6.5,0.2,Arangoiti
Pirineo,17/06/2015,10.1,14.5,6.5,0.1,Arangoiti
Pirineo,18/06/2015,12.7,18.4,7.4,0.0,Arangoiti
Pirineo,19/06/2015,11.2,15.3,7.8,0.0,Arangoiti
Pirineo,20/06/2015,14.2,19.8,8.2,0.0,Arangoiti
Pirineo,21/06/2015,18.8,23.2,11.9,0.0,Arangoiti
Pirineo,22/06/2015,19.5,26.4,13.3,0.4,Arangoiti
Pirineo,23/06/2015,14.6,19.1,9.5,0.0,Arangoiti
Pirineo,24/06/2015,15.5,20.5,9.2,0.0,Arangoiti
Pirineo,25/06/2015,19.0,24.2,13.3,0.0,Arangoiti
Pirineo,26/06/2015,22.0,27.0,17.9,0.0,Arangoiti
Pirineo,27/06/2015,21.1,25.4,14.8,0.0,Arangoiti
Pirineo,28/06/2015,22.1,26.8,16.3,0.0,Arangoiti
Pirineo,29/06/2015,24.8,32.5,19.1,0.0,Arangoiti
Pirineo,30/06/2015,25.2,31.1,19.8,0.0,Arangoiti
Pirineo,01/07/2015,24.1,29.3,19.7,0.0,Arangoiti
Pirineo,02/07/2015,21.7,26.5,18.5,0.0,Arangoiti
Pirineo,03/07/2015,22.6,27.8,18.4,0.0,Arangoiti
Pirineo,04/07/2015,24.1,30.1,18.9,0.0,Arangoiti
Pirineo,05/07/2015,22.9,30.6,18.0,0.0,Arangoiti
Pirineo,06/07/2015,25.1,32.5,18.2,0.0,Arangoiti
Pirineo,07/07/2015,22.8,32.9,11.4,0.0,Arangoiti
Pirineo,08/07/2015,13.2,17.9,7.8,0.0,Arangoiti
Pirineo,09/07/2015,15.1,23.3,7.2,0.0,Arangoiti
Pirineo,10/07/2015,21.5,30.4,11.0,0.0,Arangoiti
Pirineo,11/07/2015,14.9,19.7,9.7,0.0,Arangoiti
Pirineo,12/07/2015,18.6,24.2,13.3,0.0,Arangoiti
Pirineo,13/07/2015,19.9,25.7,13.0,0.0,Arangoiti
Pirineo,14/07/2015,22.6,29.9,17.5,0.0,Arangoiti
Pirineo,15/07/2015,25.4,31.9,19.3,0.0,Arangoiti
Pirineo,16/07/2015,24.4,32.6,20.1,0.0,Arangoiti
Pirineo,17/07/2015,23.5,31.9,18.1,0.6,Arangoiti
Pirineo,18/07/2015,20.5,28.5,15.5,0.6,Arangoiti
Pirineo,19/07/2015,20.4,27.6,15.7,0.0,Arangoiti
Pirineo,20/07/2015,23.2,30.2,17.8,0.0,Arangoiti
Pirineo,21/07/2015,21.3,29.1,12.9,17.0,Arangoiti
Pirineo,22/07/2015,15.9,21.4,12.7,0.0,Arangoiti
Pirineo,23/07/2015,19.7,25.5,11.5,0.0,Arangoiti
Pirineo,24/07/2015,19.2,24.7,11.0,0.0,Arangoiti
Pirineo,25/07/2015,11.9,16.0,8.2,0.0,Arangoiti
Pirineo,26/07/2015,19.1,24.4,13.3,0.0,Arangoiti
Pirineo,27/07/2015,14.1,19.4,9.8,0.0,Arangoiti
Pirineo,28/07/2015,16.0,23.3,9.4,0.0,Arangoiti
Pirineo,29/07/2015,16.9,22.1,10.3,0.0,Arangoiti
Pirineo,30/07/2015,11.8,14.2,7.9,12.1,Arangoiti
Pirineo,31/07/2015,12.9,15.5,9.1,15.0,Arangoiti
Pirineo,01/08/2015,12.0,16.0,7.7,0.6,Arangoiti
Pirineo,02/08/2015,19.1,25.8,12.3,0.0,Arangoiti
Pirineo,03/08/2015,21.4,28.4,15.1,5.0,Arangoiti
Pirineo,04/08/2015,18.2,24.0,13.3,0.0,Arangoiti
Pirineo,05/08/2015,22.3,28.7,17.4,0.0,Arangoiti
Pirineo,06/08/2015,23.6,29.9,18.4,0.0,Arangoiti
Pirineo,07/08/2015,19.1,26.3,12.6,6.7,Arangoiti
Pirineo,08/08/2015,11.8,15.9,7.6,9.6,Arangoiti
Pirineo,09/08/2015,10.4,14.5,7.5,0.1,Arangoiti
Pirineo,10/08/2015,16.8,21.7,8.9,0.0,Arangoiti
Pirineo,11/08/2015,21.4,27.6,15.9,1.8,Arangoiti
Pirineo,12/08/2015,21.5,28.0,15.5,5.6,Arangoiti
Pirineo,13/08/2015,14.7,18.4,9.9,10.9,Arangoiti
Pirineo,14/08/2015,9.8,13.9,7.8,0.2,Arangoiti
Pirineo,15/08/2015,9.9,13.8,7.7,0.3,Arangoiti
Pirineo,16/08/2015,14.0,21.0,8.0,0.7,Arangoiti
Pirineo,17/08/2015,13.3,17.2,9.8,0.0,Arangoiti
Pirineo,18/08/2015,11.3,16.6,7.8,0.0,Arangoiti
Pirineo,19/08/2015,14.4,19.1,7.8,0.0,Arangoiti
Pirineo,20/08/2015,19.5,23.6,13.7,0.1,Arangoiti
Pirineo,21/08/2015,22.2,27.9,17.1,0.0,Arangoiti
Pirineo,22/08/2015,18.0,22.3,13.4,6.0,Arangoiti
Pirineo,23/08/2015,15.1,18.5,12.1,2.8,Arangoiti
Pirineo,24/08/2015,11.4,15.5,7.9,0.1,Arangoiti
Pirineo,25/08/2015,16.2,22.9,10.0,0.0,Arangoiti
Pirineo,26/08/2015,19.1,25.3,13.4,0.0,Arangoiti
Pirineo,27/08/2015,20.3,26.2,15.1,0.0,Arangoiti
Pirineo,28/08/2015,22.4,28.1,17.1,0.0,Arangoiti
Pirineo,29/08/2015,22.5,28.6,18.0,0.0,Arangoiti
Pirineo,30/08/2015,21.0,27.5,14.2,1.3,Arangoiti
Pirineo,31/08/2015,17.6,27.0,10.9,2.2,Arangoiti
Pirineo,01/09/2015,11.8,15.9,9.4,1.0,Arangoiti
Pirineo,02/09/2015,13.6,19.8,9.9,7.8,Arangoiti
Pirineo,03/09/2015,10.1,14.1,7.0,0.1,Arangoiti
Pirineo,04/09/2015,8.5,13.9,4.7,1.0,Arangoiti
Pirineo,05/09/2015,8.2,13.2,4.7,0.0,Arangoiti
Pirineo,06/09/2015,10.2,15.5,6.0,0.0,Arangoiti
Pirineo,07/09/2015,10.8,15.7,7.2,0.0,Arangoiti
Pirineo,08/09/2015,13.9,19.7,9.3,0.0,Arangoiti
Pirineo,09/09/2015,15.7,22.5,10.2,0.0,Arangoiti
Pirineo,10/09/2015,14.1,19.9,10.8,2.4,Arangoiti
Pirineo,11/09/2015,14.4,19.8,11.1,0.0,Arangoiti
Pirineo,12/09/2015,14.2,16.6,11.1,10.4,Arangoiti
Pirineo,13/09/2015,12.7,15.4,10.3,0.0,Arangoiti
Pirineo,14/09/2015,10.6,14.6,8.1,0.0,Arangoiti
Pirineo,15/09/2015,10.1,12.8,8.7,2.2,Arangoiti
Pirineo,16/09/2015,12.0,16.3,9.3,3.1,Arangoiti
Pirineo,17/09/2015,7.2,10.3,5.0,0.4,Arangoiti
Pirineo,18/09/2015,8.6,13.1,4.9,0.0,Arangoiti
Pirineo,19/09/2015,9.5,14.3,6.5,0.0,Arangoiti
Pirineo,20/09/2015,11.9,15.9,7.2,0.0,Arangoiti
Pirineo,21/09/2015,12.7,18.2,7.7,0.0,Arangoiti
Pirineo,22/09/2015,8.6,12.0,6.3,0.0,Arangoiti
Pirineo,23/09/2015,6.5,9.1,4.4,4.7,Arangoiti
Pirineo,24/09/2015,10.3,17.0,3.8,0.0,Arangoiti
Pirineo,25/09/2015,14.4,20.1,11.2,0.0,Arangoiti
Pirineo,26/09/2015,13.8,18.6,9.7,0.0,Arangoiti
Pirineo,27/09/2015,11.7,16.6,8.9,0.0,Arangoiti
Pirineo,28/09/2015,12.9,19.3,8.5,0.0,Arangoiti
Pirineo,29/09/2015,11.6,17.2,7.6,2.1,Arangoiti
Pirineo,30/09/2015,11.5,17.8,7.2,0.0,Arangoiti
Pirineo,01/10/2015,11.2,15.7,7.8,0.0,Arangoiti
Pirineo,02/10/2015,8.0,12.2,4.3,25.8,Arangoiti
Pirineo,03/10/2015,9.1,13.7,5.0,0.0,Arangoiti
Pirineo,04/10/2015,9.8,12.8,7.5,0.8,Arangoiti
Pirineo,05/10/2015,13.1,14.7,11.7,3.1,Arangoiti
Pirineo,06/10/2015,11.1,17.9,6.7,0.7,Arangoiti
Pirineo,07/10/2015,6.5,9.8,5.1,0.1,Arangoiti
Pirineo,08/10/2015,7.5,11.4,5.2,0.1,Arangoiti
Pirineo,09/10/2015,10.4,13.6,6.7,0.1,Arangoiti
Pirineo,10/10/2015,12.5,17.3,8.9,0.0,Arangoiti
Pirineo,11/10/2015,11.7,15.5,10.2,0.2,Arangoiti
Pirineo,12/10/2015,11.5,17.6,6.9,9.0,Arangoiti
Pirineo,13/10/2015,5.3,7.0,3.1,0.9,Arangoiti
Pirineo,14/10/2015,1.7,5.4,-1.8,0.0,Arangoiti
Pirineo,15/10/2015,2.8,8.0,-2.0,0.0,Arangoiti
Pirineo,16/10/2015,7.4,12.1,2.5,0.0,Arangoiti
Pirineo,17/10/2015,9.5,14.7,5.1,1.7,Arangoiti
Pirineo,18/10/2015,10.4,13.6,8.3,0.2,Arangoiti
Pirineo,19/10/2015,11.1,12.4,9.3,1.8,Arangoiti
Pirineo,20/10/2015,5.7,10.1,2.6,0.1,Arangoiti
Pirineo,21/10/2015,2.8,5.6,0.8,0.0,Arangoiti
Pirineo,22/10/2015,5.2,7.9,2.1,0.0,Arangoiti
Pirineo,23/10/2015,13.4,19.7,7.0,0.0,Arangoiti
Pirineo,24/10/2015,11.5,16.5,9.3,0.0,Arangoiti
Pirineo,25/10/2015,10.6,15.9,8.0,0.1,Arangoiti
Pirineo,26/10/2015,9.5,13.4,7.0,0.0,Arangoiti
Pirineo,27/10/2015,8.4,10.4,5.5,4.4,Arangoiti
Pirineo,28/10/2015,5.3,7.9,3.4,2.8,Arangoiti
Pirineo,29/10/2015,8.9,13.4,5.5,0.0,Arangoiti
Pirineo,30/10/2015,11.2,16.6,8.2,0.0,Arangoiti
Pirineo,31/10/2015,10.0,14.9,7.3,0.0,Arangoiti
Pirineo,01/11/2015,9.0,14.1,6.1,0.1,Arangoiti
Pirineo,02/11/2015,7.4,10.2,5.4,7.8,Arangoiti
Pirineo,03/11/2015,5.8,7.6,4.4,6.2,Arangoiti
Pirineo,04/11/2015,8.5,13.2,6.1,0.1,Arangoiti
Pirineo,05/11/2015,10.3,13.8,7.8,0.1,Arangoiti
Pirineo,06/11/2015,13.2,18.1,10.8,0.0,Arangoiti
Pirineo,07/11/2015,13.3,18.5,10.6,0.0,Arangoiti
Pirineo,08/11/2015,13.8,18.6,10.8,0.0,Arangoiti
Pirineo,09/11/2015,12.8,15.7,10.1,0.0,Arangoiti
Pirineo,10/11/2015,14.1,16.2,10.8,0.0,Arangoiti
Pirineo,11/11/2015,16.6,20.5,13.8,0.0,Arangoiti
Pirineo,12/11/2015,13.0,16.6,9.8,0.0,Arangoiti
Pirineo,13/11/2015,7.7,10.6,5.5,0.0,Arangoiti
Pirineo,14/11/2015,10.0,15.3,6.3,0.0,Arangoiti
Pirineo,15/11/2015,12.3,15.3,8.3,0.0,Arangoiti
Pirineo,16/11/2015,10.8,13.6,8.4,0.0,Arangoiti
Pirineo,17/11/2015,8.9,11.5,7.0,0.0,Arangoiti
Pirineo,18/11/2015,10.0,13.2,7.6,0.0,Arangoiti
Pirineo,19/11/2015,8.6,11.0,7.1,0.1,Arangoiti
Pirineo,20/11/2015,9.2,11.0,7.2,0.0,Arangoiti
Pirineo,21/11/2015,1.1,8.1,-2.7,24.4,Arangoiti
Pirineo,22/11/2015,-2.7,-0.7,-5.4,5.7,Arangoiti
Pirineo,23/11/2015,-4.3,-0.4,-7.4,0.1,Arangoiti
Pirineo,24/11/2015,-1.3,3.2,-5.4,3.1,Arangoiti
Pirineo,25/11/2015,4.3,6.0,2.2,19.0,Arangoiti
Pirineo,26/11/2015,3.1,4.5,1.6,1.2,Arangoiti
Pirineo,27/11/2015,2.1,5.1,-1.1,0.1,Arangoiti
Pirineo,28/11/2015,1.6,4.7,-1.1,0.4,Arangoiti
Pirineo,29/11/2015,3.2,7.5,-1.1,0.0,Arangoiti
Pirineo,30/11/2015,9.1,12.1,7.1,0.0,Arangoiti
Pirineo,01/12/2015,11.1,17.1,8.3,0.0,Arangoiti
Pirineo,02/12/2015,7.9,13.0,6.1,0.0,Arangoiti
Pirineo,03/12/2015,8.3,12.1,4.8,0.0,Arangoiti
Pirineo,04/12/2015,7.4,9.6,4.9,0.0,Arangoiti
Pirineo,05/12/2015,8.6,12.9,5.3,0.0,Arangoiti
Pirineo,06/12/2015,5.7,9.6,3.4,0.0,Arangoiti
Pirineo,07/12/2015,4.9,8.2,3.2,0.0,Arangoiti
Pirineo,08/12/2015,5.2,7.6,3.9,0.0,Arangoiti
Pirineo,09/12/2015,5.7,10.8,2.9,0.2,Arangoiti
Pirineo,10/12/2015,5.3,9.8,3.5,0.1,Arangoiti
Pirineo,11/12/2015,4.8,9.4,2.3,0.0,Arangoiti
Pirineo,12/12/2015,3.5,7.5,1.7,0.0,Arangoiti
Pirineo,13/12/2015,3.8,8.4,2.0,0.0,Arangoiti
Pirineo,14/12/2015,4.0,5.5,2.1,0.0,Arangoiti
Pirineo,15/12/2015,7.5,11.6,4.4,0.0,Arangoiti
Pirineo,16/12/2015,9.6,13.8,7.1,0.0,Arangoiti
Pirineo,17/12/2015,10.6,13.4,8.0,0.0,Arangoiti
Pirineo,18/12/2015,10.6,14.6,8.3,0.0,Arangoiti
Pirineo,19/12/2015,10.0,14.0,7.8,0.0,Arangoiti
Pirineo,20/12/2015,8.9,13.3,4.8,0.0,Arangoiti
Pirineo,21/12/2015,5.3,10.5,2.5,0.0,Arangoiti
Pirineo,22/12/2015,6.0,10.0,2.7,0.0,Arangoiti
Pirineo,23/12/2015,7.3,11.8,4.4,0.0,Arangoiti
Pirineo,24/12/2015,4.8,9.5,2.5,0.0,Arangoiti
Pirineo,25/12/2015,6.9,11.1,3.9,0.0,Arangoiti
Pirineo,26/12/2015,7.4,11.6,5.1,0.0,Arangoiti
Pirineo,27/12/2015,8.1,12.1,6.3,0.0,Arangoiti
Pirineo,28/12/2015,4.8,7.0,2.9,0.0,Arangoiti
Pirineo,29/12/2015,4.0,5.2,2.7,0.4,Arangoiti
Pirineo,30/12/2015,5.1,9.3,2.8,0.0,Arangoiti
Pirineo,31/12/2015,4.0,6.4,1.2,1.0,Arangoiti
