Comarca,Fecha, Temperatura media, Temperatura maxima, Temperatura minima, Precipitacion acumulada,Localidad
Pirineo,01/01/2011,2.1,4.0,0.8,0.0,Arangoiti
Pirineo,02/01/2011,-0.7,1.8,-5.0,0.0,Arangoiti
Pirineo,03/01/2011,-4.1,-1.7,-6.6,0.0,Arangoiti
Pirineo,04/01/2011,1.3,3.4,-1.8,0.4,Arangoiti
Pirineo,05/01/2011,3.0,3.8,2.3,2.5,Arangoiti
Pirineo,06/01/2011,5.4,7.0,3.6,1.4,Arangoiti
Pirineo,07/01/2011,5.1,6.5,3.9,0.1,Arangoiti
Pirineo,08/01/2011,4.1,5.1,3.4,1.0,Arangoiti
Pirineo,09/01/2011,1.5,3.9,-1.1,1.1,Arangoiti
Pirineo,10/01/2011,1.7,5.5,-1.1,0.2,Arangoiti
Pirineo,11/01/2011,2.7,4.0,1.0,6.1,Arangoiti
Pirineo,12/01/2011,4.9,6.8,1.0,0.1,Arangoiti
Pirineo,13/01/2011,8.0,11.8,4.0,0.0,Arangoiti
Pirineo,14/01/2011,8.3,13.4,4.5,0.0,Arangoiti
Pirineo,15/01/2011,8.4,12.5,4.8,0.0,Arangoiti
Pirineo,16/01/2011,7.1,10.9,4.9,0.0,Arangoiti
Pirineo,17/01/2011,5.6,9.4,3.8,0.0,Arangoiti
Pirineo,18/01/2011,4.5,9.2,2.9,0.0,Arangoiti
Pirineo,19/01/2011,3.1,4.7,1.3,0.0,Arangoiti
Pirineo,20/01/2011,-0.1,4.0,-6.7,0.0,Arangoiti
Pirineo,21/01/2011,-7.1,-4.4,-9.1,0.0,Arangoiti
Pirineo,22/01/2011,-9.2,-4.4,-10.7,0.0,Arangoiti
Pirineo,23/01/2011,-7.7,-2.0,-10.5,0.0,Arangoiti
Pirineo,24/01/2011,-3.4,1.2,-7.3,0.0,Arangoiti
Pirineo,25/01/2011,-2.6,-0.4,-5.0,0.0,Arangoiti
Pirineo,26/01/2011,-0.8,3.0,-4.4,0.0,Arangoiti
Pirineo,27/01/2011,-1.9,3.4,-4.6,0.0,Arangoiti
Pirineo,28/01/2011,-1.6,-1.0,-2.1,4.3,Arangoiti
Pirineo,29/01/2011,-1.2,-0.3,-2.0,4.0,Arangoiti
Pirineo,30/01/2011,-2.5,-0.4,-4.2,0.3,Arangoiti
Pirineo,31/01/2011,-3.9,-1.4,-4.8,0.0,Arangoiti
Pirineo,01/02/2011,-4.4,-2.7,-6.0,0.0,Arangoiti
Pirineo,02/02/2011,-3.2,0.7,-6.9,0.0,Arangoiti
Pirineo,03/02/2011,-0.1,2.4,-2.3,0.0,Arangoiti
Pirineo,04/02/2011,2.3,5.3,-0.8,0.0,Arangoiti
Pirineo,05/02/2011,8.3,11.4,3.7,0.0,Arangoiti
Pirineo,06/02/2011,11.6,16.3,9.0,0.0,Arangoiti
Pirineo,07/02/2011,9.9,14.5,6.2,0.0,Arangoiti
Pirineo,08/02/2011,7.4,11.5,4.8,0.0,Arangoiti
Pirineo,09/02/2011,6.9,12.4,4.0,0.0,Arangoiti
Pirineo,10/02/2011,6.8,10.8,4.2,0.0,Arangoiti
Pirineo,11/02/2011,5.8,10.4,3.5,0.0,Arangoiti
Pirineo,12/02/2011,3.1,4.8,1.2,0.3,Arangoiti
Pirineo,13/02/2011,2.3,6.3,0.6,2.2,Arangoiti
Pirineo,14/02/2011,-1.6,0.9,-2.7,6.1,Arangoiti
Pirineo,15/02/2011,-1.0,0.5,-3.0,6.8,Arangoiti
Pirineo,16/02/2011,-1.0,-0.1,-2.9,2.0,Arangoiti
Pirineo,17/02/2011,-0.7,1.5,-1.8,0.0,Arangoiti
Pirineo,18/02/2011,1.5,5.3,-1.2,0.0,Arangoiti
Pirineo,19/02/2011,3.2,5.2,1.0,3.0,Arangoiti
Pirineo,20/02/2011,1.3,4.8,-1.0,0.2,Arangoiti
Pirineo,21/02/2011,1.2,4.6,-0.4,25.0,Arangoiti
Pirineo,22/02/2011,2.9,4.7,1.1,4.9,Arangoiti
Pirineo,23/02/2011,3.8,4.7,3.2,2.8,Arangoiti
Pirineo,24/02/2011,3.0,6.6,0.2,0.0,Arangoiti
Pirineo,25/02/2011,6.4,11.7,1.9,0.0,Arangoiti
Pirineo,26/02/2011,3.9,7.0,0.6,0.0,Arangoiti
Pirineo,27/02/2011,-1.6,0.7,-3.0,0.7,Arangoiti
Pirineo,28/02/2011,-3.1,-1.3,-4.5,12.1,Arangoiti
Pirineo,01/03/2011,-4.0,-2.9,-5.5,0.0,Arangoiti
Pirineo,02/03/2011,-3.0,-1.9,-3.8,0.0,Arangoiti
Pirineo,03/03/2011,-3.9,-1.9,-6.4,0.1,Arangoiti
Pirineo,04/03/2011,-1.2,0.6,-4.0,1.8,Arangoiti
Pirineo,05/03/2011,1.4,5.3,-1.2,0.0,Arangoiti
Pirineo,06/03/2011,4.2,9.2,0.6,0.0,Arangoiti
Pirineo,07/03/2011,5.1,11.4,1.2,0.0,Arangoiti
Pirineo,08/03/2011,2.2,5.5,0.7,0.0,Arangoiti
Pirineo,09/03/2011,3.7,9.4,-0.4,0.0,Arangoiti
Pirineo,10/03/2011,6.6,12.6,2.7,0.0,Arangoiti
Pirineo,11/03/2011,5.9,11.6,0.2,0.0,Arangoiti
Pirineo,12/03/2011,1.7,3.3,-0.2,2.4,Arangoiti
Pirineo,13/03/2011,4.3,9.6,2.2,0.0,Arangoiti
Pirineo,14/03/2011,4.9,8.5,3.8,0.1,Arangoiti
Pirineo,15/03/2011,4.5,6.5,3.2,30.7,Arangoiti
Pirineo,16/03/2011,4.1,5.1,3.2,1.2,Arangoiti
Pirineo,17/03/2011,2.8,3.7,1.8,4.7,Arangoiti
Pirineo,18/03/2011,2.5,8.2,-0.4,0.0,Arangoiti
Pirineo,19/03/2011,2.3,6.9,-0.6,0.0,Arangoiti
Pirineo,20/03/2011,4.4,10.8,-0.6,0.0,Arangoiti
Pirineo,21/03/2011,5.3,10.9,2.9,0.0,Arangoiti
Pirineo,22/03/2011,1.3,3.8,-0.3,0.9,Arangoiti
Pirineo,23/03/2011,3.9,11.0,-1.0,0.0,Arangoiti
Pirineo,24/03/2011,2.9,5.4,0.3,0.0,Arangoiti
Pirineo,25/03/2011,6.1,10.7,2.9,0.0,Arangoiti
Pirineo,26/03/2011,8.8,14.1,5.2,0.0,Arangoiti
Pirineo,27/03/2011,4.4,8.7,1.2,7.0,Arangoiti
Pirineo,28/03/2011,3.6,6.4,1.7,0.6,Arangoiti
Pirineo,29/03/2011,4.8,8.0,3.3,3.6,Arangoiti
Pirineo,30/03/2011,4.2,8.2,0.8,2.3,Arangoiti
Pirineo,31/03/2011,9.4,14.7,5.5,0.0,Arangoiti
Pirineo,01/04/2011,13.9,20.1,9.4,0.0,Arangoiti
Pirineo,02/04/2011,13.6,19.4,10.0,0.0,Arangoiti
Pirineo,03/04/2011,8.6,13.2,3.9,5.5,Arangoiti
Pirineo,04/04/2011,7.8,11.7,2.9,0.0,Arangoiti
Pirineo,05/04/2011,14.7,20.5,9.8,0.0,Arangoiti
Pirineo,06/04/2011,15.7,21.0,11.4,0.0,Arangoiti
Pirineo,07/04/2011,17.1,22.2,12.7,0.0,Arangoiti
Pirineo,08/04/2011,17.4,21.6,14.1,0.0,Arangoiti
Pirineo,09/04/2011,15.6,21.2,5.3,0.0,Arangoiti
Pirineo,10/04/2011,5.7,6.9,4.6,0.1,Arangoiti
Pirineo,11/04/2011,6.0,9.9,4.4,0.1,Arangoiti
Pirineo,12/04/2011,6.3,11.0,1.4,0.0,Arangoiti
Pirineo,13/04/2011,9.5,15.9,1.9,0.0,Arangoiti
Pirineo,14/04/2011,7.5,12.1,2.1,0.0,Arangoiti
Pirineo,15/04/2011,5.5,10.3,1.2,0.0,Arangoiti
Pirineo,16/04/2011,8.1,13.5,4.0,0.0,Arangoiti
Pirineo,17/04/2011,9.7,15.7,5.0,0.0,Arangoiti
Pirineo,18/04/2011,10.0,16.4,5.5,0.0,Arangoiti
Pirineo,19/04/2011,9.7,16.7,5.6,0.0,Arangoiti
Pirineo,20/04/2011,8.2,11.9,6.0,0.0,Arangoiti
Pirineo,21/04/2011,9.3,15.0,4.9,0.0,Arangoiti
Pirineo,22/04/2011,5.7,7.3,4.0,4.6,Arangoiti
Pirineo,23/04/2011,6.7,10.5,4.8,22.6,Arangoiti
Pirineo,24/04/2011,6.9,9.8,5.2,4.6,Arangoiti
Pirineo,25/04/2011,7.8,12.1,5.4,0.0,Arangoiti
Pirineo,26/04/2011,8.2,12.2,5.4,0.1,Arangoiti
Pirineo,27/04/2011,9.4,14.1,6.3,0.0,Arangoiti
Pirineo,28/04/2011,8.6,14.3,5.2,0.0,Arangoiti
Pirineo,29/04/2011,9.5,16.1,4.7,0.1,Arangoiti
Pirineo,30/04/2011,9.8,16.0,5.7,0.1,Arangoiti
Pirineo,01/05/2011,9.7,16.9,6.0,0.3,Arangoiti
Pirineo,02/05/2011,9.7,14.6,6.4,1.8,Arangoiti
Pirineo,03/05/2011,7.9,12.3,3.8,0.1,Arangoiti
Pirineo,04/05/2011,8.4,14.3,3.6,0.0,Arangoiti
Pirineo,05/05/2011,12.8,19.1,8.3,0.0,Arangoiti
Pirineo,06/05/2011,11.8,16.1,9.0,0.0,Arangoiti
Pirineo,07/05/2011,8.4,12.0,6.3,13.5,Arangoiti
Pirineo,08/05/2011,11.6,16.5,5.7,0.0,Arangoiti
Pirineo,09/05/2011,15.5,21.3,10.4,0.1,Arangoiti
Pirineo,10/05/2011,15.8,22.0,11.3,0.0,Arangoiti
Pirineo,11/05/2011,16.5,22.6,10.5,0.0,Arangoiti
Pirineo,12/05/2011,12.2,16.0,9.9,0.0,Arangoiti
Pirineo,13/05/2011,12.6,16.7,9.7,0.3,Arangoiti
Pirineo,14/05/2011,7.5,12.9,1.9,4.6,Arangoiti
Pirineo,15/05/2011,4.7,9.0,1.5,0.0,Arangoiti
Pirineo,16/05/2011,11.0,16.7,3.5,0.0,Arangoiti
Pirineo,17/05/2011,14.9,21.3,9.4,0.0,Arangoiti
Pirineo,18/05/2011,14.9,20.2,11.1,0.1,Arangoiti
Pirineo,19/05/2011,11.9,16.9,9.1,4.8,Arangoiti
Pirineo,20/05/2011,12.8,16.5,9.8,0.0,Arangoiti
Pirineo,21/05/2011,15.0,21.6,9.8,0.0,Arangoiti
Pirineo,22/05/2011,11.3,15.2,8.9,0.0,Arangoiti
Pirineo,23/05/2011,16.5,22.9,9.5,0.0,Arangoiti
Pirineo,24/05/2011,13.7,18.7,9.5,0.0,Arangoiti
Pirineo,25/05/2011,18.9,24.5,12.5,4.6,Arangoiti
Pirineo,26/05/2011,12.6,17.3,6.4,1.7,Arangoiti
Pirineo,27/05/2011,8.0,12.1,4.6,0.0,Arangoiti
Pirineo,28/05/2011,12.4,18.1,4.5,0.0,Arangoiti
Pirineo,29/05/2011,16.6,24.3,11.7,0.0,Arangoiti
Pirineo,30/05/2011,12.5,19.0,9.5,8.9,Arangoiti
Pirineo,31/05/2011,7.0,9.8,2.6,1.7,Arangoiti
Pirineo,01/06/2011,5.0,8.7,1.5,0.1,Arangoiti
Pirineo,02/06/2011,6.6,10.1,4.4,0.0,Arangoiti
Pirineo,03/06/2011,10.1,17.3,5.8,25.5,Arangoiti
Pirineo,04/06/2011,10.1,15.9,8.0,1.8,Arangoiti
Pirineo,05/06/2011,11.1,16.0,7.5,2.2,Arangoiti
Pirineo,06/06/2011,11.3,17.8,8.7,38.0,Arangoiti
Pirineo,07/06/2011,6.7,9.3,4.5,33.9,Arangoiti
Pirineo,08/06/2011,6.4,10.5,3.9,0.0,Arangoiti
Pirineo,09/06/2011,10.7,19.3,4.4,9.9,Arangoiti
Pirineo,10/06/2011,7.3,11.0,3.7,0.6,Arangoiti
Pirineo,11/06/2011,9.1,13.5,3.9,0.0,Arangoiti
Pirineo,12/06/2011,16.5,26.7,10.6,1.4,Arangoiti
Pirineo,13/06/2011,15.9,23.1,11.4,0.0,Arangoiti
Pirineo,14/06/2011,17.5,28.3,11.8,0.0,Arangoiti
Pirineo,15/06/2011,0.0,0.0,0.0,0.0,Arangoiti
Pirineo,16/06/2011,12.9,16.6,10.7,0.0,Arangoiti
Pirineo,17/06/2011,15.3,22.8,10.1,0.0,Arangoiti
Pirineo,18/06/2011,8.9,12.5,5.2,0.0,Arangoiti
Pirineo,19/06/2011,12.8,19.5,4.8,0.0,Arangoiti
Pirineo,20/06/2011,20.8,27.1,15.2,0.0,Arangoiti
Pirineo,21/06/2011,20.2,28.2,14.7,18.7,Arangoiti
Pirineo,22/06/2011,14.0,18.9,9.2,0.0,Arangoiti
Pirineo,23/06/2011,9.7,14.5,7.0,0.0,Arangoiti
Pirineo,24/06/2011,13.4,19.1,6.2,0.0,Arangoiti
Pirineo,25/06/2011,22.2,29.1,15.0,0.0,Arangoiti
Pirineo,26/06/2011,24.1,30.6,18.7,0.0,Arangoiti
Pirineo,27/06/2011,23.9,29.9,17.8,1.8,Arangoiti
Pirineo,28/06/2011,17.6,25.9,9.2,1.7,Arangoiti
Pirineo,29/06/2011,8.8,12.5,5.2,0.1,Arangoiti
Pirineo,30/06/2011,10.8,16.5,5.2,0.0,Arangoiti
Pirineo,01/07/2011,15.1,21.4,7.9,0.0,Arangoiti
Pirineo,02/07/2011,21.6,26.0,16.6,0.0,Arangoiti
Pirineo,03/07/2011,18.7,25.9,11.3,0.5,Arangoiti
Pirineo,04/07/2011,15.0,20.4,9.8,0.0,Arangoiti
Pirineo,05/07/2011,19.8,27.4,12.6,0.0,Arangoiti
Pirineo,06/07/2011,13.9,19.5,10.5,0.0,Arangoiti
Pirineo,07/07/2011,13.4,20.6,8.4,0.0,Arangoiti
Pirineo,08/07/2011,16.5,22.8,8.1,0.0,Arangoiti
Pirineo,09/07/2011,19.2,26.0,14.0,0.0,Arangoiti
Pirineo,10/07/2011,17.1,23.0,12.4,0.0,Arangoiti
Pirineo,11/07/2011,21.1,27.5,14.1,0.0,Arangoiti
Pirineo,12/07/2011,17.1,26.7,9.4,2.7,Arangoiti
Pirineo,13/07/2011,9.0,11.4,7.3,1.3,Arangoiti
Pirineo,14/07/2011,11.8,18.1,7.3,0.0,Arangoiti
Pirineo,15/07/2011,15.3,21.0,9.0,0.0,Arangoiti
Pirineo,16/07/2011,19.5,25.1,13.6,0.0,Arangoiti
Pirineo,17/07/2011,9.5,14.0,5.6,0.6,Arangoiti
Pirineo,18/07/2011,11.4,18.8,5.5,0.0,Arangoiti
Pirineo,19/07/2011,7.7,11.2,5.9,5.0,Arangoiti
Pirineo,20/07/2011,10.0,16.4,5.2,0.1,Arangoiti
Pirineo,21/07/2011,10.9,15.7,7.0,0.0,Arangoiti
Pirineo,22/07/2011,8.7,13.6,6.0,0.0,Arangoiti
Pirineo,23/07/2011,8.7,14.3,5.2,0.0,Arangoiti
Pirineo,24/07/2011,9.6,13.2,6.7,0.9,Arangoiti
Pirineo,25/07/2011,11.9,13.1,11.0,2.3,Arangoiti
Pirineo,26/07/2011,12.2,15.4,9.7,1.5,Arangoiti
Pirineo,27/07/2011,12.8,18.4,9.4,0.0,Arangoiti
Pirineo,28/07/2011,13.5,18.4,9.4,0.0,Arangoiti
Pirineo,29/07/2011,15.6,21.5,10.4,0.0,Arangoiti
Pirineo,30/07/2011,15.2,20.9,11.4,0.0,Arangoiti
Pirineo,31/07/2011,17.2,22.8,11.8,0.0,Arangoiti
Pirineo,01/08/2011,20.2,26.9,14.3,0.0,Arangoiti
Pirineo,02/08/2011,18.0,23.6,13.5,0.4,Arangoiti
Pirineo,03/08/2011,16.0,21.4,11.5,0.0,Arangoiti
Pirineo,04/08/2011,20.3,25.5,15.3,0.0,Arangoiti
Pirineo,05/08/2011,19.4,26.5,15.1,23.1,Arangoiti
Pirineo,06/08/2011,17.2,25.1,10.7,0.0,Arangoiti
Pirineo,07/08/2011,15.6,23.1,9.7,0.0,Arangoiti
Pirineo,08/08/2011,9.9,14.2,6.3,0.0,Arangoiti
Pirineo,09/08/2011,10.5,16.3,6.0,0.0,Arangoiti
Pirineo,10/08/2011,17.4,24.5,8.4,0.0,Arangoiti
Pirineo,11/08/2011,19.6,25.6,14.2,0.0,Arangoiti
Pirineo,12/08/2011,21.5,28.0,16.2,0.0,Arangoiti
Pirineo,13/08/2011,21.4,28.5,15.8,2.2,Arangoiti
Pirineo,14/08/2011,19.6,25.8,15.9,0.1,Arangoiti
Pirineo,15/08/2011,18.2,23.2,13.4,0.0,Arangoiti
Pirineo,16/08/2011,22.9,28.7,17.2,0.0,Arangoiti
Pirineo,17/08/2011,23.9,31.1,18.8,0.1,Arangoiti
Pirineo,18/08/2011,19.6,23.2,15.7,0.4,Arangoiti
Pirineo,19/08/2011,24.2,31.4,18.7,0.0,Arangoiti
Pirineo,20/08/2011,26.9,33.7,22.0,0.0,Arangoiti
Pirineo,21/08/2011,25.8,32.6,20.3,0.0,Arangoiti
Pirineo,22/08/2011,21.9,28.4,18.5,0.0,Arangoiti
Pirineo,23/08/2011,20.8,27.4,16.1,0.0,Arangoiti
Pirineo,24/08/2011,17.8,23.8,14.0,0.0,Arangoiti
Pirineo,25/08/2011,20.2,27.1,15.7,0.0,Arangoiti
Pirineo,26/08/2011,12.1,17.0,7.4,0.6,Arangoiti
Pirineo,27/08/2011,11.0,16.1,6.2,0.0,Arangoiti
Pirineo,28/08/2011,17.0,25.0,11.2,0.0,Arangoiti
Pirineo,29/08/2011,17.8,24.6,13.3,0.0,Arangoiti
Pirineo,30/08/2011,19.6,26.3,13.5,0.0,Arangoiti
Pirineo,31/08/2011,18.4,23.9,15.4,0.3,Arangoiti
Pirineo,01/09/2011,18.4,25.5,13.0,6.0,Arangoiti
Pirineo,02/09/2011,17.7,23.7,13.0,9.2,Arangoiti
Pirineo,03/09/2011,14.6,19.4,12.2,4.3,Arangoiti
Pirineo,04/09/2011,13.2,17.8,9.4,0.0,Arangoiti
Pirineo,05/09/2011,10.2,13.9,7.5,0.1,Arangoiti
Pirineo,06/09/2011,15.6,22.0,8.5,0.0,Arangoiti
Pirineo,07/09/2011,16.0,20.3,13.8,0.0,Arangoiti
Pirineo,08/09/2011,18.6,23.6,14.1,0.0,Arangoiti
Pirineo,09/09/2011,22.4,28.2,17.1,0.0,Arangoiti
Pirineo,10/09/2011,22.6,29.1,18.0,0.0,Arangoiti
Pirineo,11/09/2011,16.2,19.3,13.5,0.0,Arangoiti
Pirineo,12/09/2011,17.8,23.2,13.6,0.0,Arangoiti
Pirineo,13/09/2011,19.3,27.0,12.1,0.0,Arangoiti
Pirineo,14/09/2011,17.9,24.4,11.7,0.0,Arangoiti
Pirineo,15/09/2011,21.2,27.7,16.8,0.0,Arangoiti
Pirineo,16/09/2011,19.6,27.6,14.4,1.7,Arangoiti
Pirineo,17/09/2011,15.4,22.6,9.3,0.0,Arangoiti
Pirineo,18/09/2011,7.0,9.1,5.3,1.9,Arangoiti
Pirineo,19/09/2011,7.0,9.4,5.4,0.9,Arangoiti
Pirineo,20/09/2011,14.7,21.9,7.0,0.0,Arangoiti
Pirineo,21/09/2011,17.8,23.8,12.8,0.0,Arangoiti
Pirineo,22/09/2011,16.5,22.3,12.4,0.0,Arangoiti
Pirineo,23/09/2011,17.3,24.0,13.7,0.0,Arangoiti
Pirineo,24/09/2011,14.7,21.8,11.8,0.6,Arangoiti
Pirineo,25/09/2011,16.4,21.6,11.4,0.0,Arangoiti
Pirineo,26/09/2011,18.0,23.5,13.7,0.0,Arangoiti
Pirineo,27/09/2011,18.7,25.0,13.9,0.0,Arangoiti
Pirineo,28/09/2011,18.0,24.9,14.1,0.0,Arangoiti
Pirineo,29/09/2011,17.1,23.7,13.4,0.0,Arangoiti
Pirineo,30/09/2011,15.8,21.9,11.8,0.0,Arangoiti
Pirineo,01/10/2011,15.3,21.7,10.8,0.0,Arangoiti
Pirineo,02/10/2011,16.6,21.5,11.8,0.0,Arangoiti
Pirineo,03/10/2011,17.1,21.8,14.3,0.0,Arangoiti
Pirineo,04/10/2011,16.4,22.8,12.4,0.0,Arangoiti
Pirineo,05/10/2011,16.5,22.3,12.4,0.0,Arangoiti
Pirineo,06/10/2011,12.9,16.4,9.7,0.0,Arangoiti
Pirineo,07/10/2011,6.7,9.7,4.3,0.6,Arangoiti
Pirineo,08/10/2011,5.7,8.3,4.1,0.0,Arangoiti
Pirineo,09/10/2011,9.7,15.7,5.3,0.0,Arangoiti
Pirineo,10/10/2011,17.9,23.8,14.0,0.0,Arangoiti
Pirineo,11/10/2011,18.3,22.9,15.9,0.0,Arangoiti
Pirineo,12/10/2011,19.8,23.9,15.9,0.0,Arangoiti
Pirineo,13/10/2011,14.4,17.1,11.7,0.0,Arangoiti
Pirineo,14/10/2011,14.2,18.6,11.2,0.0,Arangoiti
Pirineo,15/10/2011,12.9,19.4,9.7,0.0,Arangoiti
Pirineo,16/10/2011,12.3,16.3,9.7,0.0,Arangoiti
Pirineo,17/10/2011,12.5,17.6,9.1,0.0,Arangoiti
Pirineo,18/10/2011,12.7,17.9,9.9,0.0,Arangoiti
Pirineo,19/10/2011,7.7,12.6,1.7,2.9,Arangoiti
Pirineo,20/10/2011,2.7,7.7,0.2,0.0,Arangoiti
Pirineo,21/10/2011,6.6,11.6,1.1,0.0,Arangoiti
Pirineo,22/10/2011,8.9,15.0,4.3,0.0,Arangoiti
Pirineo,23/10/2011,9.8,14.6,6.9,0.0,Arangoiti
Pirineo,24/10/2011,7.3,8.1,4.3,8.8,Arangoiti
Pirineo,25/10/2011,4.3,8.7,1.9,0.0,Arangoiti
Pirineo,26/10/2011,5.3,8.5,2.0,0.0,Arangoiti
Pirineo,27/10/2011,7.1,8.2,5.6,1.7,Arangoiti
Pirineo,28/10/2011,6.3,7.2,5.2,0.4,Arangoiti
Pirineo,29/10/2011,8.9,10.3,6.5,1.4,Arangoiti
Pirineo,30/10/2011,10.3,13.9,8.2,0.0,Arangoiti
Pirineo,31/10/2011,10.2,14.6,7.2,0.0,Arangoiti
Pirineo,01/11/2011,9.5,11.7,8.3,14.9,Arangoiti
Pirineo,02/11/2011,9.1,10.0,8.6,0.9,Arangoiti
Pirineo,03/11/2011,7.4,9.0,4.1,3.2,Arangoiti
Pirineo,04/11/2011,5.6,7.8,3.9,1.3,Arangoiti
Pirineo,05/11/2011,3.8,4.8,2.1,8.3,Arangoiti
Pirineo,06/11/2011,5.4,6.6,3.7,5.5,Arangoiti
Pirineo,07/11/2011,5.5,6.4,4.9,1.3,Arangoiti
Pirineo,08/11/2011,6.1,9.4,4.0,0.1,Arangoiti
Pirineo,09/11/2011,8.0,13.0,5.4,0.6,Arangoiti
Pirineo,10/11/2011,7.5,11.2,5.5,8.0,Arangoiti
Pirineo,11/11/2011,8.6,11.5,7.1,0.0,Arangoiti
Pirineo,12/11/2011,10.2,14.9,7.7,0.0,Arangoiti
Pirineo,13/11/2011,8.6,12.9,6.7,0.4,Arangoiti
Pirineo,14/11/2011,7.1,8.2,6.1,0.4,Arangoiti
Pirineo,15/11/2011,4.7,6.9,2.9,11.1,Arangoiti
Pirineo,16/11/2011,4.3,7.1,2.7,0.0,Arangoiti
Pirineo,17/11/2011,5.8,10.0,3.6,0.0,Arangoiti
Pirineo,18/11/2011,4.6,6.5,3.6,0.3,Arangoiti
Pirineo,19/11/2011,5.3,7.6,3.2,0.1,Arangoiti
Pirineo,20/11/2011,6.3,8.2,5.1,0.0,Arangoiti
Pirineo,21/11/2011,7.3,11.8,5.5,0.0,Arangoiti
Pirineo,22/11/2011,5.7,7.2,4.5,0.0,Arangoiti
Pirineo,23/11/2011,5.9,8.6,4.6,0.0,Arangoiti
Pirineo,24/11/2011,8.6,14.6,4.7,0.0,Arangoiti
Pirineo,25/11/2011,4.4,7.3,2.0,0.0,Arangoiti
Pirineo,26/11/2011,6.4,9.1,2.8,0.0,Arangoiti
Pirineo,27/11/2011,6.9,11.3,4.1,0.0,Arangoiti
Pirineo,28/11/2011,4.6,8.8,2.3,0.0,Arangoiti
Pirineo,29/11/2011,5.0,9.3,2.7,0.0,Arangoiti
Pirineo,30/11/2011,5.5,8.4,3.1,0.0,Arangoiti
Pirineo,01/12/2011,5.1,9.3,3.1,0.0,Arangoiti
Pirineo,02/12/2011,1.3,3.1,-0.2,7.1,Arangoiti
Pirineo,03/12/2011,0.9,2.8,-0.7,0.0,Arangoiti
Pirineo,04/12/2011,2.4,4.4,1.3,0.3,Arangoiti
Pirineo,05/12/2011,2.9,4.4,1.5,2.7,Arangoiti
Pirineo,06/12/2011,2.2,3.1,1.6,0.4,Arangoiti
Pirineo,07/12/2011,3.2,4.5,2.1,0.1,Arangoiti
Pirineo,08/12/2011,5.7,11.1,1.8,0.0,Arangoiti
Pirineo,09/12/2011,5.4,9.1,2.7,0.0,Arangoiti
Pirineo,10/12/2011,3.7,6.5,1.9,0.0,Arangoiti
Pirineo,11/12/2011,2.6,6.3,0.6,0.0,Arangoiti
Pirineo,12/12/2011,1.2,2.3,0.3,0.4,Arangoiti
Pirineo,13/12/2011,2.6,4.6,0.1,0.0,Arangoiti
Pirineo,14/12/2011,3.7,7.2,1.4,0.0,Arangoiti
Pirineo,15/12/2011,1.4,4.7,-0.6,0.0,Arangoiti
Pirineo,16/12/2011,1.3,5.5,-1.8,4.8,Arangoiti
Pirineo,17/12/2011,-2.6,-1.5,-3.8,18.4,Arangoiti
Pirineo,18/12/2011,-3.3,-1.6,-4.0,4.7,Arangoiti
Pirineo,19/12/2011,-2.0,-0.8,-3.9,1.4,Arangoiti
Pirineo,20/12/2011,0.9,3.3,-1.7,6.5,Arangoiti
Pirineo,21/12/2011,3.9,5.7,2.6,0.9,Arangoiti
Pirineo,22/12/2011,4.7,13.9,2.1,0.0,Arangoiti
Pirineo,23/12/2011,7.8,14.9,0.5,0.0,Arangoiti
Pirineo,24/12/2011,-1.0,1.1,-2.3,0.0,Arangoiti
Pirineo,25/12/2011,2.7,7.5,-1.5,0.0,Arangoiti
Pirineo,26/12/2011,4.7,9.2,1.1,0.0,Arangoiti
Pirineo,27/12/2011,4.4,10.4,1.4,0.0,Arangoiti
Pirineo,28/12/2011,2.4,4.3,-0.5,0.0,Arangoiti
Pirineo,29/12/2011,-1.6,1.2,-3.0,0.0,Arangoiti
Pirineo,30/12/2011,-0.4,1.0,-1.8,0.9,Arangoiti
Pirineo,31/12/2011,3.2,5.0,0.1,1.0,Arangoiti
