Comarca,Fecha, Temperatura media, Temperatura maxima, Temperatura minima, Precipitacion acumulada,Localidad
Pirineo,01/01/2010,0.0,8.0,-1.0,2.2,Eugi
Pirineo,02/01/2010,0.0,6.5,-0.8,0.6,Eugi
Pirineo,03/01/2010,0.0,6.2,0.5,7.2,Eugi
Pirineo,04/01/2010,0.0,7.3,2.5,0.8,Eugi
Pirineo,05/01/2010,0.0,5.5,1.5,1.5,Eugi
Pirineo,06/01/2010,0.0,3.7,-1.5,0.0,Eugi
Pirineo,07/01/2010,0.0,2.2,-4.0,0.0,Eugi
Pirineo,08/01/2010,0.0,-1.5,-6.0,3.0,Eugi
Pirineo,09/01/2010,0.0,-1.0,-6.3,4.8,Eugi
Pirineo,10/01/2010,0.0,2.0,-5.5,0.0,Eugi
Pirineo,11/01/2010,0.0,3.5,-6.0,0.0,Eugi
Pirineo,12/01/2010,0.0,4.0,-7.8,14.2,Eugi
Pirineo,13/01/2010,0.0,6.5,-4.0,18.8,Eugi
Pirineo,14/01/2010,0.0,6.9,-2.0,54.3,Eugi
Pirineo,15/01/2010,0.0,10.5,0.6,0.0,Eugi
Pirineo,16/01/2010,0.0,10.0,-0.6,4.0,Eugi
Pirineo,17/01/2010,0.0,10.0,4.0,0.0,Eugi
Pirineo,18/01/2010,0.0,10.0,2.0,0.0,Eugi
Pirineo,19/01/2010,0.0,9.6,1.0,7.9,Eugi
Pirineo,20/01/2010,0.0,8.0,4.2,2.8,Eugi
Pirineo,21/01/2010,0.0,9.2,-1.6,0.0,Eugi
Pirineo,22/01/2010,0.0,12.5,-2.0,0.8,Eugi
Pirineo,23/01/2010,0.0,8.0,-1.5,0.5,Eugi
Pirineo,24/01/2010,0.0,7.5,2.5,3.6,Eugi
Pirineo,25/01/2010,0.0,4.2,0.5,0.0,Eugi
Pirineo,26/01/2010,0.0,5.0,-5.0,0.0,Eugi
Pirineo,27/01/2010,0.0,1.5,-5.0,0.0,Eugi
Pirineo,28/01/2010,0.0,4.5,-5.5,8.2,Eugi
Pirineo,29/01/2010,0.0,6.2,-1.0,40.5,Eugi
Pirineo,30/01/2010,0.0,5.5,0.0,22.0,Eugi
Pirineo,31/01/2010,0.0,4.2,-1.8,2.2,Eugi
Pirineo,01/02/2010,0.0,3.5,-5.0,5.3,Eugi
Pirineo,02/02/2010,0.0,6.8,-3.5,0.0,Eugi
Pirineo,03/02/2010,0.0,7.8,-5.5,0.0,Eugi
Pirineo,04/02/2010,0.0,8.0,-6.0,12.1,Eugi
Pirineo,05/02/2010,0.0,9.5,1.2,2.4,Eugi
Pirineo,06/02/2010,0.0,9.2,-2.0,14.7,Eugi
Pirineo,07/02/2010,0.0,9.5,2.2,0.0,Eugi
Pirineo,08/02/2010,0.0,5.7,-1.0,9.5,Eugi
Pirineo,09/02/2010,0.0,4.0,0.0,7.8,Eugi
Pirineo,10/02/2010,0.0,1.5,-1.5,2.2,Eugi
Pirineo,11/02/2010,0.0,-0.3,-7.0,10.8,Eugi
Pirineo,12/02/2010,0.0,-2.5,-7.7,0.8,Eugi
Pirineo,13/02/2010,0.0,-2.2,-6.5,0.0,Eugi
Pirineo,14/02/2010,0.0,3.2,-6.6,0.0,Eugi
Pirineo,15/02/2010,0.0,4.2,-10.6,0.2,Eugi
Pirineo,16/02/2010,0.0,5.8,-9.5,8.2,Eugi
Pirineo,17/02/2010,0.0,7.2,-2.0,20.0,Eugi
Pirineo,18/02/2010,0.0,10.0,0.5,1.8,Eugi
Pirineo,19/02/2010,0.0,6.1,-0.8,6.0,Eugi
Pirineo,20/02/2010,0.0,9.0,-1.3,0.2,Eugi
Pirineo,21/02/2010,0.0,7.0,-3.5,3.6,Eugi
Pirineo,22/02/2010,0.0,10.5,2.0,2.2,Eugi
Pirineo,23/02/2010,0.0,11.2,4.0,1.8,Eugi
Pirineo,24/02/2010,0.0,11.5,3.0,4.1,Eugi
Pirineo,25/02/2010,0.0,11.0,3.2,2.9,Eugi
Pirineo,26/02/2010,0.0,13.0,1.5,0.0,Eugi
Pirineo,27/02/2010,0.0,16.0,0.0,2.6,Eugi
Pirineo,28/02/2010,0.0,14.0,5.5,0.6,Eugi
Pirineo,01/03/2010,0.0,13.0,0.2,0.2,Eugi
Pirineo,02/03/2010,0.0,15.0,-2.0,2.2,Eugi
Pirineo,03/03/2010,0.0,6.4,2.0,7.4,Eugi
Pirineo,04/03/2010,0.0,10.0,2.5,1.8,Eugi
Pirineo,05/03/2010,0.0,9.0,0.5,0.0,Eugi
Pirineo,06/03/2010,0.0,12.2,-2.0,0.0,Eugi
Pirineo,07/03/2010,0.0,8.5,-4.5,0.3,Eugi
Pirineo,08/03/2010,0.0,2.0,-6.2,0.0,Eugi
Pirineo,09/03/2010,0.0,3.5,-6.0,0.0,Eugi
Pirineo,10/03/2010,0.0,-1.2,-6.0,3.6,Eugi
Pirineo,11/03/2010,0.0,1.5,-5.5,0.0,Eugi
Pirineo,12/03/2010,0.0,4.0,-4.5,0.3,Eugi
Pirineo,13/03/2010,0.0,9.5,-3.0,0.0,Eugi
Pirineo,14/03/2010,0.0,7.8,-2.5,0.0,Eugi
Pirineo,15/03/2010,0.0,12.0,-2.2,0.0,Eugi
Pirineo,16/03/2010,0.0,16.0,-6.0,0.0,Eugi
Pirineo,17/03/2010,0.0,18.5,-1.0,0.0,Eugi
Pirineo,18/03/2010,0.0,15.8,-4.0,0.0,Eugi
Pirineo,19/03/2010,0.0,17.7,1.8,1.3,Eugi
Pirineo,20/03/2010,0.0,18.5,7.4,1.2,Eugi
Pirineo,21/03/2010,0.0,16.0,6.8,0.0,Eugi
Pirineo,22/03/2010,0.0,17.0,3.6,0.0,Eugi
Pirineo,23/03/2010,0.0,18.8,-2.0,0.0,Eugi
Pirineo,24/03/2010,0.0,15.8,3.0,8.6,Eugi
Pirineo,25/03/2010,0.0,15.2,7.5,10.8,Eugi
Pirineo,26/03/2010,0.0,12.4,0.5,3.0,Eugi
Pirineo,27/03/2010,0.0,13.7,0.0,0.0,Eugi
Pirineo,28/03/2010,0.0,17.6,0.5,1.3,Eugi
Pirineo,29/03/2010,0.0,16.5,2.0,12.3,Eugi
Pirineo,30/03/2010,0.0,10.8,3.0,10.2,Eugi
Pirineo,31/03/2010,0.0,11.0,1.5,10.6,Eugi
Pirineo,01/04/2010,0.0,10.0,0.2,0.0,Eugi
Pirineo,02/04/2010,0.0,13.0,-2.3,0.0,Eugi
Pirineo,03/04/2010,0.0,9.5,-1.0,15.7,Eugi
Pirineo,04/04/2010,0.0,8.5,1.5,1.4,Eugi
Pirineo,05/04/2010,0.0,17.0,-2.5,0.6,Eugi
Pirineo,06/04/2010,0.0,19.0,-2.0,0.0,Eugi
Pirineo,07/04/2010,0.0,9.8,0.0,8.9,Eugi
Pirineo,08/04/2010,0.0,11.9,2.6,0.0,Eugi
Pirineo,09/04/2010,0.0,22.0,2.4,0.0,Eugi
Pirineo,10/04/2010,0.0,21.5,2.2,0.0,Eugi
Pirineo,11/04/2010,0.0,17.6,1.0,0.0,Eugi
Pirineo,12/04/2010,0.0,12.4,5.0,0.0,Eugi
Pirineo,13/04/2010,0.0,13.6,-0.8,0.0,Eugi
Pirineo,14/04/2010,0.0,13.5,-0.5,0.0,Eugi
Pirineo,15/04/2010,0.0,10.0,2.0,3.7,Eugi
Pirineo,16/04/2010,0.0,17.2,1.0,0.1,Eugi
Pirineo,17/04/2010,0.0,18.5,1.2,0.0,Eugi
Pirineo,18/04/2010,0.0,17.6,2.5,0.0,Eugi
Pirineo,19/04/2010,0.0,18.0,5.2,5.9,Eugi
Pirineo,20/04/2010,0.0,22.0,3.5,0.0,Eugi
Pirineo,21/04/2010,0.0,22.5,5.0,1.6,Eugi
Pirineo,22/04/2010,0.0,14.0,6.8,7.5,Eugi
Pirineo,23/04/2010,0.0,13.0,9.0,0.3,Eugi
Pirineo,24/04/2010,0.0,23.0,3.8,0.0,Eugi
Pirineo,25/04/2010,0.0,21.0,5.5,0.0,Eugi
Pirineo,26/04/2010,0.0,24.2,5.2,0.0,Eugi
Pirineo,27/04/2010,0.0,23.6,7.0,0.0,Eugi
Pirineo,28/04/2010,0.0,26.0,4.5,0.0,Eugi
Pirineo,29/04/2010,0.0,25.5,9.0,21.3,Eugi
Pirineo,30/04/2010,0.0,20.2,8.5,19.8,Eugi
Pirineo,01/05/2010,0.0,12.7,7.9,0.3,Eugi
Pirineo,02/05/2010,0.0,11.0,3.0,1.9,Eugi
Pirineo,03/05/2010,0.0,8.8,4.0,23.9,Eugi
Pirineo,04/05/2010,0.0,4.2,2.4,36.0,Eugi
Pirineo,05/05/2010,0.0,6.5,1.2,22.3,Eugi
Pirineo,06/05/2010,0.0,9.0,2.2,3.3,Eugi
Pirineo,07/05/2010,0.0,14.2,-1.5,3.1,Eugi
Pirineo,08/05/2010,0.0,14.6,6.0,9.4,Eugi
Pirineo,09/05/2010,0.0,14.0,7.4,23.0,Eugi
Pirineo,10/05/2010,0.0,19.0,3.5,16.3,Eugi
Pirineo,11/05/2010,0.0,13.2,3.8,0.7,Eugi
Pirineo,12/05/2010,0.0,12.0,4.4,0.0,Eugi
Pirineo,13/05/2010,0.0,9.5,4.0,0.8,Eugi
Pirineo,14/05/2010,0.0,12.5,1.7,16.2,Eugi
Pirineo,15/05/2010,0.0,8.5,3.5,14.8,Eugi
Pirineo,16/05/2010,0.0,11.2,3.0,2.7,Eugi
Pirineo,17/05/2010,0.0,14.5,4.3,0.3,Eugi
Pirineo,18/05/2010,0.0,19.5,4.5,0.0,Eugi
Pirineo,19/05/2010,0.0,15.0,4.6,0.0,Eugi
Pirineo,20/05/2010,0.0,19.5,6.2,0.0,Eugi
Pirineo,21/05/2010,0.0,24.0,8.0,0.0,Eugi
Pirineo,22/05/2010,0.0,25.5,8.0,0.0,Eugi
Pirineo,23/05/2010,0.0,26.8,7.5,0.0,Eugi
Pirineo,24/05/2010,0.0,25.8,8.7,1.6,Eugi
Pirineo,25/05/2010,0.0,24.8,9.5,0.0,Eugi
Pirineo,26/05/2010,0.0,22.0,10.2,0.0,Eugi
Pirineo,27/05/2010,0.0,20.5,7.5,0.0,Eugi
Pirineo,28/05/2010,0.0,16.0,9.8,0.0,Eugi
Pirineo,29/05/2010,0.0,19.5,3.0,0.0,Eugi
Pirineo,30/05/2010,0.0,18.4,9.0,0.1,Eugi
Pirineo,31/05/2010,0.0,21.2,13.5,0.4,Eugi
Pirineo,01/06/2010,0.0,23.1,7.3,0.1,Eugi
Pirineo,02/06/2010,0.0,20.5,10.0,0.0,Eugi
Pirineo,03/06/2010,0.0,24.4,6.6,0.0,Eugi
Pirineo,04/06/2010,0.0,25.2,7.6,0.0,Eugi
Pirineo,05/06/2010,0.0,29.6,8.8,7.0,Eugi
Pirineo,06/06/2010,0.0,15.5,11.0,4.8,Eugi
Pirineo,07/06/2010,0.0,23.2,10.2,0.3,Eugi
Pirineo,08/06/2010,0.0,23.2,11.0,8.1,Eugi
Pirineo,09/06/2010,0.0,16.4,10.6,2.8,Eugi
Pirineo,10/06/2010,0.0,18.5,11.6,7.6,Eugi
Pirineo,11/06/2010,0.0,18.5,7.5,17.0,Eugi
Pirineo,12/06/2010,0.0,17.0,10.5,3.5,Eugi
Pirineo,13/06/2010,0.0,18.4,11.0,0.3,Eugi
Pirineo,14/06/2010,0.0,15.2,10.3,1.0,Eugi
Pirineo,15/06/2010,0.0,15.5,4.5,0.7,Eugi
Pirineo,16/06/2010,0.0,13.5,7.5,29.0,Eugi
Pirineo,17/06/2010,0.0,12.0,8.3,1.5,Eugi
Pirineo,18/06/2010,0.0,16.7,8.6,1.1,Eugi
Pirineo,19/06/2010,0.0,15.5,10.2,16.5,Eugi
Pirineo,20/06/2010,0.0,13.2,7.0,0.4,Eugi
Pirineo,21/06/2010,0.0,16.5,5.2,0.0,Eugi
Pirineo,22/06/2010,0.0,20.3,7.0,0.0,Eugi
Pirineo,23/06/2010,0.0,22.8,8.0,0.0,Eugi
Pirineo,24/06/2010,0.0,26.0,7.0,0.0,Eugi
Pirineo,25/06/2010,0.0,28.5,9.5,0.0,Eugi
Pirineo,26/06/2010,0.0,27.8,12.5,7.3,Eugi
Pirineo,27/06/2010,0.0,26.0,12.5,1.5,Eugi
Pirineo,28/06/2010,0.0,25.5,13.5,0.0,Eugi
Pirineo,29/06/2010,0.0,25.4,12.4,0.0,Eugi
Pirineo,30/06/2010,0.0,25.6,13.0,0.0,Eugi
Pirineo,01/07/2010,0.0,31.0,11.8,0.0,Eugi
Pirineo,02/07/2010,0.0,28.5,14.5,0.3,Eugi
Pirineo,03/07/2010,0.0,27.0,14.2,0.4,Eugi
Pirineo,04/07/2010,0.0,23.0,15.0,0.0,Eugi
Pirineo,05/07/2010,0.0,22.8,11.5,0.0,Eugi
Pirineo,06/07/2010,0.0,23.4,11.6,0.0,Eugi
Pirineo,07/07/2010,0.0,32.2,9.5,0.0,Eugi
Pirineo,08/07/2010,0.0,33.5,13.5,0.4,Eugi
Pirineo,09/07/2010,0.0,27.5,16.2,0.0,Eugi
Pirineo,10/07/2010,0.0,32.0,11.5,0.0,Eugi
Pirineo,11/07/2010,0.0,33.2,14.5,3.3,Eugi
Pirineo,12/07/2010,0.0,26.5,14.2,0.0,Eugi
Pirineo,13/07/2010,0.0,31.0,13.2,0.0,Eugi
Pirineo,14/07/2010,0.0,28.0,15.5,0.0,Eugi
Pirineo,15/07/2010,0.0,28.5,10.8,0.0,Eugi
Pirineo,16/07/2010,0.0,23.4,12.0,0.0,Eugi
Pirineo,17/07/2010,0.0,20.0,11.8,0.0,Eugi
Pirineo,18/07/2010,0.0,27.8,10.5,0.0,Eugi
Pirineo,19/07/2010,0.0,28.5,10.0,0.0,Eugi
Pirineo,20/07/2010,0.0,30.2,10.8,38.3,Eugi
Pirineo,21/07/2010,0.0,18.0,13.5,6.5,Eugi
Pirineo,22/07/2010,0.0,17.9,11.6,1.9,Eugi
Pirineo,23/07/2010,0.0,17.5,10.0,0.3,Eugi
Pirineo,24/07/2010,0.0,20.8,10.6,0.1,Eugi
Pirineo,25/07/2010,0.0,17.4,11.0,1.6,Eugi
Pirineo,26/07/2010,0.0,20.2,11.0,0.2,Eugi
Pirineo,27/07/2010,0.0,25.0,12.0,0.0,Eugi
Pirineo,28/07/2010,0.0,27.0,12.0,0.0,Eugi
Pirineo,29/07/2010,0.0,21.0,14.0,2.1,Eugi
Pirineo,30/07/2010,0.0,23.5,12.0,0.0,Eugi
Pirineo,31/07/2010,0.0,30.0,10.0,0.0,Eugi
Pirineo,01/08/2010,0.0,26.5,12.5,0.0,Eugi
Pirineo,02/08/2010,0.0,18.2,13.8,1.3,Eugi
Pirineo,03/08/2010,0.0,20.5,12.5,0.4,Eugi
Pirineo,04/08/2010,0.0,19.0,11.8,5.1,Eugi
Pirineo,05/08/2010,0.0,20.0,13.0,0.2,Eugi
Pirineo,06/08/2010,0.0,22.0,8.8,0.0,Eugi
Pirineo,07/08/2010,0.0,29.5,8.5,0.0,Eugi
Pirineo,08/08/2010,0.0,24.5,9.6,1.1,Eugi
Pirineo,09/08/2010,0.0,22.5,14.5,0.6,Eugi
Pirineo,10/08/2010,0.0,29.6,13.2,0.0,Eugi
Pirineo,11/08/2010,0.0,25.7,8.3,0.3,Eugi
Pirineo,12/08/2010,0.0,18.5,9.5,0.7,Eugi
Pirineo,13/08/2010,0.0,20.2,10.0,0.0,Eugi
Pirineo,14/08/2010,0.0,19.0,11.5,1.0,Eugi
Pirineo,15/08/2010,0.0,18.0,9.2,0.7,Eugi
Pirineo,16/08/2010,0.0,22.5,8.8,0.0,Eugi
Pirineo,17/08/2010,0.0,28.6,7.1,0.0,Eugi
Pirineo,18/08/2010,0.0,28.0,8.2,0.0,Eugi
Pirineo,19/08/2010,0.0,24.5,10.5,0.0,Eugi
Pirineo,20/08/2010,0.0,30.7,12.0,0.0,Eugi
Pirineo,21/08/2010,0.0,34.0,12.5,0.0,Eugi
Pirineo,22/08/2010,0.0,34.8,13.7,0.0,Eugi
Pirineo,23/08/2010,0.0,32.0,13.5,0.1,Eugi
Pirineo,24/08/2010,0.0,20.5,14.3,0.3,Eugi
Pirineo,25/08/2010,0.0,32.2,10.5,0.0,Eugi
Pirineo,26/08/2010,0.0,35.4,11.0,0.0,Eugi
Pirineo,27/08/2010,0.0,25.5,14.5,0.0,Eugi
Pirineo,28/08/2010,0.0,22.5,13.0,0.0,Eugi
Pirineo,29/08/2010,0.0,22.0,11.0,0.0,Eugi
Pirineo,30/08/2010,0.0,20.2,10.5,0.5,Eugi
Pirineo,31/08/2010,0.0,26.0,7.0,0.0,Eugi
Pirineo,01/09/2010,0.0,28.0,6.2,0.5,Eugi
Pirineo,02/09/2010,0.0,24.5,15.0,0.6,Eugi
Pirineo,03/09/2010,0.0,27.0,8.0,0.0,Eugi
Pirineo,04/09/2010,0.0,27.5,6.0,0.0,Eugi
Pirineo,05/09/2010,0.0,32.0,7.5,0.0,Eugi
Pirineo,06/09/2010,0.0,30.5,9.0,3.6,Eugi
Pirineo,07/09/2010,0.0,21.0,13.5,19.7,Eugi
Pirineo,08/09/2010,0.0,20.0,9.0,0.7,Eugi
Pirineo,09/09/2010,0.0,19.0,9.0,0.7,Eugi
Pirineo,10/09/2010,0.0,22.5,6.5,0.0,Eugi
Pirineo,11/09/2010,0.0,27.0,7.0,0.0,Eugi
Pirineo,12/09/2010,0.0,20.5,8.0,0.0,Eugi
Pirineo,13/09/2010,0.0,20.6,10.5,0.0,Eugi
Pirineo,14/09/2010,0.0,24.4,9.0,0.0,Eugi
Pirineo,15/09/2010,0.0,26.5,8.8,0.0,Eugi
Pirineo,16/09/2010,0.0,18.0,9.2,2.8,Eugi
Pirineo,17/09/2010,0.0,17.3,12.4,5.1,Eugi
Pirineo,18/09/2010,0.0,17.4,8.5,0.0,Eugi
Pirineo,19/09/2010,0.0,22.0,2.5,0.0,Eugi
Pirineo,20/09/2010,0.0,25.0,2.5,0.0,Eugi
Pirineo,21/09/2010,0.0,25.6,6.0,0.0,Eugi
Pirineo,22/09/2010,0.0,25.5,9.0,0.0,Eugi
Pirineo,23/09/2010,0.0,21.5,9.5,11.6,Eugi
Pirineo,24/09/2010,0.0,15.0,10.6,11.8,Eugi
Pirineo,25/09/2010,0.0,14.5,8.5,6.2,Eugi
Pirineo,26/09/2010,0.0,13.8,6.0,0.0,Eugi
Pirineo,27/09/2010,0.0,16.2,3.5,0.0,Eugi
Pirineo,28/09/2010,0.0,16.5,2.5,0.0,Eugi
Pirineo,29/09/2010,0.0,22.8,2.5,0.0,Eugi
Pirineo,30/09/2010,0.0,17.2,2.8,0.0,Eugi
Pirineo,01/10/2010,0.0,22.5,6.4,0.0,Eugi
Pirineo,02/10/2010,0.0,25.6,6.6,0.0,Eugi
Pirineo,03/10/2010,0.0,23.2,9.2,14.6,Eugi
Pirineo,04/10/2010,0.0,14.0,9.8,18.0,Eugi
Pirineo,05/10/2010,0.0,20.0,3.5,0.0,Eugi
Pirineo,06/10/2010,0.0,23.5,3.4,0.0,Eugi
Pirineo,07/10/2010,0.0,23.5,5.5,0.0,Eugi
Pirineo,08/10/2010,0.0,22.8,8.0,0.0,Eugi
Pirineo,09/10/2010,0.0,20.0,15.8,23.0,Eugi
Pirineo,10/10/2010,0.0,13.2,10.0,23.5,Eugi
Pirineo,11/10/2010,0.0,17.0,9.0,0.5,Eugi
Pirineo,12/10/2010,0.0,15.8,8.6,0.0,Eugi
Pirineo,13/10/2010,0.0,17.2,8.5,0.0,Eugi
Pirineo,14/10/2010,0.0,15.5,5.5,0.0,Eugi
Pirineo,15/10/2010,0.0,14.0,5.5,0.0,Eugi
Pirineo,16/10/2010,0.0,12.0,5.0,0.0,Eugi
Pirineo,17/10/2010,0.0,11.5,4.5,0.0,Eugi
Pirineo,18/10/2010,0.0,11.5,2.5,0.0,Eugi
Pirineo,19/10/2010,0.0,13.0,1.2,0.0,Eugi
Pirineo,20/10/2010,0.0,13.2,1.2,0.6,Eugi
Pirineo,21/10/2010,0.0,16.5,1.2,0.0,Eugi
Pirineo,22/10/2010,0.0,16.6,0.0,0.0,Eugi
Pirineo,23/10/2010,0.0,17.3,0.8,0.0,Eugi
Pirineo,24/10/2010,0.0,14.2,5.5,15.0,Eugi
Pirineo,25/10/2010,0.0,9.0,3.0,3.2,Eugi
Pirineo,26/10/2010,0.0,10.6,1.0,0.0,Eugi
Pirineo,27/10/2010,0.0,19.2,-2.0,0.0,Eugi
Pirineo,28/10/2010,0.0,19.8,-1.5,0.0,Eugi
Pirineo,29/10/2010,0.0,18.0,2.0,8.1,Eugi
Pirineo,30/10/2010,0.0,11.5,4.5,0.5,Eugi
Pirineo,31/10/2010,0.0,15.0,5.0,34.9,Eugi
Pirineo,01/11/2010,0.0,12.7,7.0,15.5,Eugi
Pirineo,02/11/2010,0.0,10.5,7.0,3.4,Eugi
Pirineo,03/11/2010,0.0,15.5,6.8,0.0,Eugi
Pirineo,04/11/2010,0.0,18.0,9.0,0.0,Eugi
Pirineo,05/11/2010,0.0,17.8,6.0,0.0,Eugi
Pirineo,06/11/2010,0.0,18.0,4.2,3.0,Eugi
Pirineo,07/11/2010,0.0,8.5,4.3,19.1,Eugi
Pirineo,08/11/2010,0.0,6.5,1.8,19.9,Eugi
Pirineo,09/11/2010,0.0,9.5,2.2,21.4,Eugi
Pirineo,10/11/2010,0.0,6.5,3.5,31.6,Eugi
Pirineo,11/11/2010,0.0,8.5,1.5,0.5,Eugi
Pirineo,12/11/2010,0.0,16.5,2.0,0.0,Eugi
Pirineo,13/11/2010,0.0,15.5,3.5,0.0,Eugi
Pirineo,14/11/2010,0.0,11.5,4.6,8.3,Eugi
Pirineo,15/11/2010,0.0,11.5,1.8,19.1,Eugi
Pirineo,16/11/2010,0.0,8.5,0.0,1.6,Eugi
Pirineo,17/11/2010,0.0,7.5,-1.0,7.1,Eugi
Pirineo,18/11/2010,0.0,8.5,-0.5,0.3,Eugi
Pirineo,19/11/2010,0.0,8.5,-0.5,6.3,Eugi
Pirineo,20/11/2010,0.0,9.6,0.5,13.6,Eugi
Pirineo,21/11/2010,0.0,7.5,3.0,37.2,Eugi
Pirineo,22/11/2010,0.0,5.8,1.8,18.5,Eugi
Pirineo,23/11/2010,0.0,7.8,-0.5,2.4,Eugi
Pirineo,24/11/2010,0.0,6.5,0.0,0.3,Eugi
Pirineo,25/11/2010,0.0,6.0,-0.5,24.2,Eugi
Pirineo,26/11/2010,0.0,4.0,-1.2,1.8,Eugi
Pirineo,27/11/2010,0.0,2.3,-4.0,2.2,Eugi
Pirineo,28/11/2010,0.0,4.2,-5.5,2.5,Eugi
Pirineo,29/11/2010,0.0,2.0,-6.5,0.1,Eugi
Pirineo,30/11/2010,0.0,4.5,-6.5,1.6,Eugi
Pirineo,01/12/2010,0.0,3.3,-0.7,3.6,Eugi
Pirineo,02/12/2010,0.0,5.5,-0.7,3.0,Eugi
Pirineo,03/12/2010,0.0,1.0,-2.5,14.6,Eugi
Pirineo,04/12/2010,0.0,4.8,-1.0,0.0,Eugi
Pirineo,05/12/2010,0.0,11.2,-1.0,2.8,Eugi
Pirineo,06/12/2010,0.0,12.7,2.3,4.7,Eugi
Pirineo,07/12/2010,0.0,13.5,6.5,2.0,Eugi
Pirineo,08/12/2010,0.0,15.8,10.0,4.6,Eugi
Pirineo,09/12/2010,0.0,5.8,5.0,0.7,Eugi
Pirineo,10/12/2010,0.0,10.0,-1.0,0.0,Eugi
Pirineo,11/12/2010,0.0,7.4,-3.5,0.0,Eugi
Pirineo,12/12/2010,0.0,10.5,-3.2,0.0,Eugi
Pirineo,13/12/2010,0.0,10.0,-1.0,0.0,Eugi
Pirineo,14/12/2010,0.0,5.0,-1.5,0.0,Eugi
Pirineo,15/12/2010,0.0,0.5,-4.2,0.0,Eugi
Pirineo,16/12/2010,0.0,1.0,-7.5,0.0,Eugi
Pirineo,17/12/2010,0.0,2.5,-5.5,5.7,Eugi
Pirineo,18/12/2010,0.0,4.5,-3.0,0.0,Eugi
Pirineo,19/12/2010,0.0,9.0,-2.5,0.0,Eugi
Pirineo,20/12/2010,0.0,8.0,-2.0,4.4,Eugi
Pirineo,21/12/2010,0.0,9.5,-2.0,5.6,Eugi
Pirineo,22/12/2010,0.0,11.0,4.5,25.3,Eugi
Pirineo,23/12/2010,0.0,5.5,5.5,14.4,Eugi
Pirineo,24/12/2010,0.0,3.0,0.5,14.8,Eugi
Pirineo,25/12/2010,0.0,0.0,-3.8,0.0,Eugi
Pirineo,26/12/2010,0.0,0.0,-7.2,0.0,Eugi
Pirineo,27/12/2010,0.0,4.0,-7.0,0.0,Eugi
