Comarca,Fecha, Temperatura media, Temperatura maxima, Temperatura minima, Precipitacion acumulada,Localidad
Pirineo,01/01/2010,2.3,5.3,-0.1,0.6,Irabia
Pirineo,02/01/2010,2.4,5.0,0.7,0.0,Irabia
Pirineo,03/01/2010,4.1,5.6,1.1,9.0,Irabia
Pirineo,04/01/2010,3.7,7.2,1.7,0.0,Irabia
Pirineo,05/01/2010,1.6,3.7,-0.6,0.2,Irabia
Pirineo,06/01/2010,-0.5,4.4,-3.1,0.0,Irabia
Pirineo,07/01/2010,-2.2,0.0,-4.8,11.0,Irabia
Pirineo,08/01/2010,-6.3,-5.0,-7.4,6.5,Irabia
Pirineo,09/01/2010,-5.9,-4.3,-7.6,0.6,Irabia
Pirineo,10/01/2010,-3.9,2.6,-7.4,0.0,Irabia
Pirineo,11/01/2010,-4.2,5.2,-8.5,0.0,Irabia
Pirineo,12/01/2010,-2.4,2.5,-9.3,44.4,Irabia
Pirineo,13/01/2010,1.7,5.2,-0.7,17.8,Irabia
Pirineo,14/01/2010,2.7,4.5,1.4,77.3,Irabia
Pirineo,15/01/2010,2.0,7.1,-1.6,8.6,Irabia
Pirineo,16/01/2010,4.7,9.5,-1.1,1.6,Irabia
Pirineo,17/01/2010,5.0,8.0,2.7,1.3,Irabia
Pirineo,18/01/2010,4.6,10.9,0.8,0.0,Irabia
Pirineo,19/01/2010,6.8,9.5,4.0,3.2,Irabia
Pirineo,20/01/2010,4.2,7.3,0.0,3.5,Irabia
Pirineo,21/01/2010,3.1,8.3,-1.0,0.4,Irabia
Pirineo,22/01/2010,2.0,11.8,-2.0,0.0,Irabia
Pirineo,23/01/2010,3.6,9.2,-1.4,0.0,Irabia
Pirineo,24/01/2010,3.3,5.8,1.4,3.3,Irabia
Pirineo,25/01/2010,-0.1,1.6,-3.3,0.0,Irabia
Pirineo,26/01/2010,-2.2,3.3,-5.7,0.0,Irabia
Pirineo,27/01/2010,-4.2,-2.7,-5.8,0.0,Irabia
Pirineo,28/01/2010,-0.4,2.3,-5.7,4.9,Irabia
Pirineo,29/01/2010,1.7,3.8,-0.2,27.4,Irabia
Pirineo,30/01/2010,0.0,1.9,-0.5,42.2,Irabia
Pirineo,31/01/2010,-1.5,3.2,-5.4,0.0,Irabia
Pirineo,01/02/2010,-1.8,3.6,-6.7,2.0,Irabia
Pirineo,02/02/2010,-1.7,5.7,-5.7,0.0,Irabia
Pirineo,03/02/2010,-1.5,8.3,-7.8,0.0,Irabia
Pirineo,04/02/2010,4.7,8.3,-0.7,4.6,Irabia
Pirineo,05/02/2010,2.9,9.0,-1.4,7.7,Irabia
Pirineo,06/02/2010,2.8,5.7,-0.5,13.2,Irabia
Pirineo,07/02/2010,3.6,7.9,0.6,0.4,Irabia
Pirineo,08/02/2010,1.9,4.3,-0.7,4.9,Irabia
Pirineo,09/02/2010,-0.4,1.3,-2.2,7.4,Irabia
Pirineo,10/02/2010,-2.9,-1.5,-5.0,0.5,Irabia
Pirineo,11/02/2010,-6.3,-3.9,-9.0,11.4,Irabia
Pirineo,12/02/2010,-6.1,-4.4,-8.9,1.7,Irabia
Pirineo,13/02/2010,-6.1,-4.9,-6.9,0.0,Irabia
Pirineo,14/02/2010,-4.5,1.3,-6.1,0.0,Irabia
Pirineo,15/02/2010,-3.4,4.7,-10.8,0.0,Irabia
Pirineo,16/02/2010,1.6,6.5,-3.6,8.8,Irabia
Pirineo,17/02/2010,3.8,6.0,1.9,21.2,Irabia
Pirineo,18/02/2010,3.9,10.8,-0.8,0.0,Irabia
Pirineo,19/02/2010,0.8,3.0,-1.1,10.5,Irabia
Pirineo,20/02/2010,0.9,5.5,-1.9,0.0,Irabia
Pirineo,21/02/2010,1.8,4.6,-1.9,2.0,Irabia
Pirineo,22/02/2010,5.8,7.6,4.4,17.7,Irabia
Pirineo,23/02/2010,6.6,10.0,5.0,3.3,Irabia
Pirineo,24/02/2010,6.0,10.7,4.0,22.9,Irabia
Pirineo,25/02/2010,7.8,9.1,5.7,4.5,Irabia
Pirineo,26/02/2010,5.3,11.2,1.1,0.0,Irabia
Pirineo,27/02/2010,9.4,14.6,4.5,2.9,Irabia
Pirineo,28/02/2010,7.6,13.8,0.9,0.0,Irabia
Pirineo,01/03/2010,5.3,11.8,-0.7,4.1,Irabia
Pirineo,02/03/2010,5.6,14.9,-2.5,0.0,Irabia
Pirineo,03/03/2010,4.8,8.8,2.9,0.3,Irabia
Pirineo,04/03/2010,3.6,6.5,1.7,6.3,Irabia
Pirineo,05/03/2010,2.5,7.4,-1.6,0.0,Irabia
Pirineo,06/03/2010,2.1,10.8,-2.8,0.0,Irabia
Pirineo,07/03/2010,-0.6,7.2,-5.1,0.0,Irabia
Pirineo,08/03/2010,-4.5,-2.6,-5.6,0.2,Irabia
Pirineo,09/03/2010,-3.2,0.9,-7.1,0.0,Irabia
Pirineo,10/03/2010,-5.2,-3.7,-6.9,0.5,Irabia
Pirineo,11/03/2010,-2.9,0.4,-5.4,0.0,Irabia
Pirineo,12/03/2010,-2.0,0.1,-3.8,0.0,Irabia
Pirineo,13/03/2010,1.2,7.8,-2.0,0.0,Irabia
Pirineo,14/03/2010,0.2,3.9,-2.3,0.0,Irabia
Pirineo,15/03/2010,1.8,10.3,-3.8,0.0,Irabia
Pirineo,16/03/2010,3.4,17.4,-6.6,0.0,Irabia
Pirineo,17/03/2010,7.3,20.4,-3.6,0.0,Irabia
Pirineo,18/03/2010,10.6,17.5,4.2,0.3,Irabia
Pirineo,19/03/2010,11.1,18.3,4.7,1.8,Irabia
Pirineo,20/03/2010,13.6,19.6,10.2,2.7,Irabia
Pirineo,21/03/2010,8.8,12.2,6.1,0.3,Irabia
Pirineo,22/03/2010,8.6,18.4,1.8,0.0,Irabia
Pirineo,23/03/2010,9.6,20.0,-0.5,2.9,Irabia
Pirineo,24/03/2010,11.3,16.4,8.0,12.7,Irabia
Pirineo,25/03/2010,8.5,13.1,5.4,32.2,Irabia
Pirineo,26/03/2010,6.4,13.2,2.3,13.5,Irabia
Pirineo,27/03/2010,5.4,11.3,0.9,0.0,Irabia
Pirineo,28/03/2010,7.9,18.3,0.2,1.6,Irabia
Pirineo,29/03/2010,11.2,17.9,5.4,7.6,Irabia
Pirineo,30/03/2010,4.8,7.4,2.9,13.2,Irabia
Pirineo,31/03/2010,5.5,11.8,2.1,10.0,Irabia
Pirineo,01/04/2010,2.9,7.4,-0.9,0.0,Irabia
Pirineo,02/04/2010,5.7,13.6,-1.6,0.0,Irabia
Pirineo,03/04/2010,6.0,8.3,2.2,11.9,Irabia
Pirineo,04/04/2010,2.8,6.5,0.3,9.3,Irabia
Pirineo,05/04/2010,7.3,18.4,-1.1,0.0,Irabia
Pirineo,06/04/2010,11.7,22.1,2.4,0.0,Irabia
Pirineo,07/04/2010,5.4,7.2,4.0,15.6,Irabia
Pirineo,08/04/2010,5.7,9.9,3.3,2.6,Irabia
Pirineo,09/04/2010,8.2,15.9,-0.1,0.0,Irabia
Pirineo,10/04/2010,9.6,21.1,-0.7,0.0,Irabia
Pirineo,11/04/2010,8.7,17.3,1.3,0.0,Irabia
Pirineo,12/04/2010,5.9,10.8,1.2,0.0,Irabia
Pirineo,13/04/2010,4.8,12.1,-1.8,0.0,Irabia
Pirineo,14/04/2010,6.1,14.8,-0.9,0.0,Irabia
Pirineo,15/04/2010,6.5,8.9,4.4,3.5,Irabia
Pirineo,16/04/2010,9.0,18.1,2.0,0.0,Irabia
Pirineo,17/04/2010,9.6,19.5,0.5,0.0,Irabia
Pirineo,18/04/2010,10.9,18.2,5.2,0.0,Irabia
Pirineo,19/04/2010,10.3,17.0,6.0,1.6,Irabia
Pirineo,20/04/2010,11.6,21.9,3.4,0.0,Irabia
Pirineo,21/04/2010,13.8,23.2,3.7,0.0,Irabia
Pirineo,22/04/2010,11.4,16.4,9.7,7.9,Irabia
Pirineo,23/04/2010,9.6,10.5,8.7,1.9,Irabia
Pirineo,24/04/2010,13.0,22.3,6.7,0.0,Irabia
Pirineo,25/04/2010,12.1,20.2,6.1,0.0,Irabia
Pirineo,26/04/2010,14.3,24.5,7.2,0.0,Irabia
Pirineo,27/04/2010,14.0,23.8,6.5,0.0,Irabia
Pirineo,28/04/2010,15.6,27.0,4.4,0.0,Irabia
Pirineo,29/04/2010,15.9,26.5,9.6,22.5,Irabia
Pirineo,30/04/2010,11.5,16.4,9.4,19.0,Irabia
Pirineo,01/05/2010,8.9,10.4,5.6,2.7,Irabia
Pirineo,02/05/2010,6.5,9.4,4.1,0.6,Irabia
Pirineo,03/05/2010,4.3,9.3,0.4,46.6,Irabia
Pirineo,04/05/2010,1.4,2.8,0.3,36.2,Irabia
Pirineo,05/05/2010,1.7,3.0,0.3,53.1,Irabia
Pirineo,06/05/2010,3.9,6.4,2.1,2.4,Irabia
Pirineo,07/05/2010,5.8,15.3,-0.0,4.2,Irabia
Pirineo,08/05/2010,8.2,15.0,4.3,0.3,Irabia
Pirineo,09/05/2010,9.4,13.4,6.4,21.6,Irabia
Pirineo,10/05/2010,10.1,18.2,3.7,8.9,Irabia
Pirineo,11/05/2010,7.5,12.6,3.4,0.0,Irabia
Pirineo,12/05/2010,7.5,15.5,4.8,0.0,Irabia
Pirineo,13/05/2010,4.3,6.7,2.5,1.5,Irabia
Pirineo,14/05/2010,5.3,10.3,1.8,6.0,Irabia
Pirineo,15/05/2010,3.5,6.1,0.5,50.2,Irabia
Pirineo,16/05/2010,5.8,8.2,3.7,9.2,Irabia
Pirineo,17/05/2010,7.8,11.0,4.4,0.6,Irabia
Pirineo,18/05/2010,9.8,18.4,3.0,0.0,Irabia
Pirineo,19/05/2010,8.3,12.6,3.2,0.0,Irabia
Pirineo,20/05/2010,11.7,18.1,5.1,0.0,Irabia
Pirineo,21/05/2010,13.8,23.0,4.2,0.0,Irabia
Pirineo,22/05/2010,14.7,24.6,5.9,0.0,Irabia
Pirineo,23/05/2010,15.0,24.8,6.5,0.0,Irabia
Pirineo,24/05/2010,16.9,26.1,8.1,0.0,Irabia
Pirineo,25/05/2010,18.8,25.5,11.9,0.0,Irabia
Pirineo,26/05/2010,14.2,22.0,7.7,0.0,Irabia
Pirineo,27/05/2010,12.5,19.5,6.0,0.0,Irabia
Pirineo,28/05/2010,10.2,12.7,5.5,0.2,Irabia
Pirineo,29/05/2010,11.5,19.9,2.6,0.0,Irabia
Pirineo,30/05/2010,13.8,17.2,11.5,1.0,Irabia
Pirineo,31/05/2010,14.3,17.7,10.3,1.4,Irabia
Pirineo,01/06/2010,13.4,20.5,7.0,0.0,Irabia
Pirineo,02/06/2010,13.6,18.0,11.1,0.3,Irabia
Pirineo,03/06/2010,13.8,22.6,5.3,0.0,Irabia
Pirineo,04/06/2010,14.6,23.8,6.1,0.0,Irabia
Pirineo,05/06/2010,18.1,29.9,7.4,0.6,Irabia
Pirineo,06/06/2010,12.3,14.7,10.7,7.9,Irabia
Pirineo,07/06/2010,16.7,23.4,10.2,1.8,Irabia
Pirineo,08/06/2010,15.6,23.4,12.3,1.5,Irabia
Pirineo,09/06/2010,13.2,17.2,11.1,6.3,Irabia
Pirineo,10/06/2010,13.7,17.6,11.1,16.4,Irabia
Pirineo,11/06/2010,13.8,19.1,10.8,1.5,Irabia
Pirineo,12/06/2010,12.0,14.2,10.6,39.4,Irabia
Pirineo,13/06/2010,13.3,16.7,11.5,1.0,Irabia
Pirineo,14/06/2010,9.7,12.1,6.9,4.2,Irabia
Pirineo,15/06/2010,8.0,10.7,5.1,15.3,Irabia
Pirineo,16/06/2010,10.1,13.4,8.6,27.3,Irabia
Pirineo,17/06/2010,9.8,10.7,8.8,23.5,Irabia
Pirineo,18/06/2010,10.6,12.5,9.7,2.7,Irabia
Pirineo,19/06/2010,9.9,11.0,8.6,29.8,Irabia
Pirineo,20/06/2010,8.4,10.8,7.0,5.0,Irabia
Pirineo,21/06/2010,10.9,15.5,5.5,0.0,Irabia
Pirineo,22/06/2010,12.6,18.1,6.1,0.0,Irabia
Pirineo,23/06/2010,13.4,21.9,5.3,0.0,Irabia
Pirineo,24/06/2010,15.1,24.8,6.6,0.0,Irabia
Pirineo,25/06/2010,16.8,26.4,8.1,0.0,Irabia
Pirineo,26/06/2010,17.5,26.3,10.6,0.2,Irabia
Pirineo,27/06/2010,17.6,25.9,13.0,1.0,Irabia
Pirineo,28/06/2010,17.5,24.7,13.8,0.0,Irabia
Pirineo,29/06/2010,17.7,23.3,13.5,0.0,Irabia
Pirineo,30/06/2010,18.0,24.9,11.6,0.0,Irabia
Pirineo,01/07/2010,20.1,30.1,12.6,0.0,Irabia
Pirineo,02/07/2010,19.4,28.8,14.5,2.1,Irabia
Pirineo,03/07/2010,17.7,23.7,14.9,0.0,Irabia
Pirineo,04/07/2010,17.0,21.1,14.9,0.0,Irabia
Pirineo,05/07/2010,15.7,20.7,13.4,0.0,Irabia
Pirineo,06/07/2010,16.9,21.8,12.2,0.0,Irabia
Pirineo,07/07/2010,19.8,30.6,10.5,0.0,Irabia
Pirineo,08/07/2010,22.0,33.5,12.4,0.0,Irabia
Pirineo,09/07/2010,19.9,26.7,16.1,0.2,Irabia
Pirineo,10/07/2010,21.3,31.4,15.2,0.0,Irabia
Pirineo,11/07/2010,21.4,32.6,13.8,1.9,Irabia
Pirineo,12/07/2010,19.6,25.1,15.4,0.0,Irabia
Pirineo,13/07/2010,21.0,30.2,15.4,0.0,Irabia
Pirineo,14/07/2010,17.5,28.9,11.3,0.0,Irabia
Pirineo,15/07/2010,18.0,27.5,10.5,0.0,Irabia
Pirineo,16/07/2010,15.7,23.1,10.3,0.0,Irabia
Pirineo,17/07/2010,14.3,16.6,12.5,0.0,Irabia
Pirineo,18/07/2010,17.7,25.7,11.8,0.0,Irabia
Pirineo,19/07/2010,18.0,28.2,9.9,0.0,Irabia
Pirineo,20/07/2010,17.7,27.9,10.2,10.8,Irabia
Pirineo,21/07/2010,14.4,16.6,11.8,8.0,Irabia
Pirineo,22/07/2010,12.8,15.7,11.8,8.2,Irabia
Pirineo,23/07/2010,12.7,15.7,9.9,0.3,Irabia
Pirineo,24/07/2010,14.4,19.6,9.1,0.0,Irabia
Pirineo,25/07/2010,13.3,14.2,12.4,6.1,Irabia
Pirineo,26/07/2010,13.9,16.4,11.6,0.3,Irabia
Pirineo,27/07/2010,17.1,23.9,11.2,0.0,Irabia
Pirineo,28/07/2010,18.0,26.7,11.0,0.0,Irabia
Pirineo,29/07/2010,15.1,18.2,12.6,7.7,Irabia
Pirineo,30/07/2010,15.3,20.6,11.4,0.0,Irabia
Pirineo,31/07/2010,18.2,29.5,9.6,0.0,Irabia
Pirineo,01/08/2010,17.9,24.1,14.6,24.0,Irabia
Pirineo,02/08/2010,13.5,14.9,10.8,11.9,Irabia
Pirineo,03/08/2010,13.2,18.1,10.5,1.6,Irabia
Pirineo,04/08/2010,14.1,17.0,11.7,6.0,Irabia
Pirineo,05/08/2010,13.8,17.9,11.2,10.0,Irabia
Pirineo,06/08/2010,13.8,20.4,7.1,0.0,Irabia
Pirineo,07/08/2010,15.9,27.5,6.7,0.0,Irabia
Pirineo,08/08/2010,16.7,23.4,10.7,0.0,Irabia
Pirineo,09/08/2010,16.3,21.5,14.0,0.0,Irabia
Pirineo,10/08/2010,17.0,28.0,8.5,0.0,Irabia
Pirineo,11/08/2010,15.9,25.3,7.6,0.0,Irabia
Pirineo,12/08/2010,13.7,16.0,10.8,2.4,Irabia
Pirineo,13/08/2010,12.6,17.5,8.8,1.0,Irabia
Pirineo,14/08/2010,12.0,16.8,9.6,1.1,Irabia
Pirineo,15/08/2010,11.3,15.6,8.4,1.0,Irabia
Pirineo,16/08/2010,13.4,20.9,7.9,0.0,Irabia
Pirineo,17/08/2010,16.0,26.4,7.1,0.0,Irabia
Pirineo,18/08/2010,16.8,25.2,10.1,0.0,Irabia
Pirineo,19/08/2010,16.5,21.1,12.7,0.5,Irabia
Pirineo,20/08/2010,19.3,28.8,12.6,0.0,Irabia
Pirineo,21/08/2010,20.2,31.7,11.7,0.0,Irabia
Pirineo,22/08/2010,22.5,33.1,14.1,0.0,Irabia
Pirineo,23/08/2010,21.6,31.0,15.7,0.0,Irabia
Pirineo,24/08/2010,15.6,16.9,11.9,3.1,Irabia
Pirineo,25/08/2010,18.4,28.9,10.5,0.0,Irabia
Pirineo,26/08/2010,23.7,35.2,14.3,0.0,Irabia
Pirineo,27/08/2010,17.5,25.6,13.7,0.3,Irabia
Pirineo,28/08/2010,14.6,19.6,12.3,0.6,Irabia
Pirineo,29/08/2010,14.7,21.3,8.9,0.0,Irabia
Pirineo,30/08/2010,13.5,19.3,7.7,0.0,Irabia
Pirineo,31/08/2010,14.0,24.0,5.4,0.0,Irabia
Pirineo,01/09/2010,16.8,27.5,7.9,0.0,Irabia
Pirineo,02/09/2010,16.5,23.4,12.5,0.0,Irabia
Pirineo,03/09/2010,16.1,26.1,8.3,0.0,Irabia
Pirineo,04/09/2010,13.6,25.3,4.9,0.0,Irabia
Pirineo,05/09/2010,16.7,29.4,6.5,0.0,Irabia
Pirineo,06/09/2010,19.4,29.8,12.0,9.7,Irabia
Pirineo,07/09/2010,14.3,19.5,10.1,39.9,Irabia
Pirineo,08/09/2010,12.0,17.2,9.1,0.3,Irabia
Pirineo,09/09/2010,11.1,13.5,8.0,8.9,Irabia
Pirineo,10/09/2010,12.7,21.0,6.6,0.0,Irabia
Pirineo,11/09/2010,14.3,24.3,6.8,0.0,Irabia
Pirineo,12/09/2010,13.0,15.9,9.9,0.0,Irabia
Pirineo,13/09/2010,13.8,19.5,8.2,0.0,Irabia
Pirineo,14/09/2010,13.7,22.6,7.2,0.0,Irabia
Pirineo,15/09/2010,14.3,22.3,7.2,0.0,Irabia
Pirineo,16/09/2010,13.2,16.3,11.1,3.9,Irabia
Pirineo,17/09/2010,12.0,14.3,9.0,4.3,Irabia
Pirineo,18/09/2010,10.4,14.1,6.1,0.0,Irabia
Pirineo,19/09/2010,10.2,20.3,3.1,0.0,Irabia
Pirineo,20/09/2010,13.5,23.7,4.9,0.0,Irabia
Pirineo,21/09/2010,15.3,24.8,9.2,0.0,Irabia
Pirineo,22/09/2010,14.7,24.9,7.4,0.0,Irabia
Pirineo,23/09/2010,14.9,20.2,11.4,16.1,Irabia
Pirineo,24/09/2010,10.9,12.9,8.6,10.5,Irabia
Pirineo,25/09/2010,8.9,10.4,7.2,14.0,Irabia
Pirineo,26/09/2010,7.7,11.5,4.5,0.0,Irabia
Pirineo,27/09/2010,8.0,15.5,2.8,0.0,Irabia
Pirineo,28/09/2010,8.3,15.1,4.0,0.0,Irabia
Pirineo,29/09/2010,9.7,20.5,1.8,0.0,Irabia
Pirineo,30/09/2010,10.3,15.9,6.2,0.2,Irabia
Pirineo,01/10/2010,11.7,20.2,6.3,0.0,Irabia
Pirineo,02/10/2010,16.5,25.4,9.2,0.0,Irabia
Pirineo,03/10/2010,16.0,21.3,11.4,14.0,Irabia
Pirineo,04/10/2010,9.8,11.7,7.5,33.0,Irabia
Pirineo,05/10/2010,10.3,18.5,5.2,0.2,Irabia
Pirineo,06/10/2010,12.0,21.6,6.1,0.0,Irabia
Pirineo,07/10/2010,16.3,23.3,8.3,0.0,Irabia
Pirineo,08/10/2010,17.4,22.0,12.9,0.0,Irabia
Pirineo,09/10/2010,15.8,18.9,12.2,32.5,Irabia
Pirineo,10/10/2010,10.7,12.2,9.5,49.2,Irabia
Pirineo,11/10/2010,11.3,13.7,9.5,5.0,Irabia
Pirineo,12/10/2010,11.6,13.6,9.5,0.0,Irabia
Pirineo,13/10/2010,11.3,15.6,7.9,0.0,Irabia
Pirineo,14/10/2010,8.7,12.7,6.8,0.0,Irabia
Pirineo,15/10/2010,7.9,11.8,6.3,0.0,Irabia
Pirineo,16/10/2010,7.3,9.2,5.9,0.0,Irabia
Pirineo,17/10/2010,5.9,7.0,4.5,0.0,Irabia
Pirineo,18/10/2010,5.1,7.9,3.7,0.0,Irabia
Pirineo,19/10/2010,4.7,12.3,-0.4,0.0,Irabia
Pirineo,20/10/2010,6.2,10.5,2.2,1.5,Irabia
Pirineo,21/10/2010,5.6,14.2,0.4,0.0,Irabia
Pirineo,22/10/2010,7.1,17.3,1.3,0.0,Irabia
Pirineo,23/10/2010,8.2,14.9,3.9,0.0,Irabia
Pirineo,24/10/2010,8.3,15.1,4.7,23.2,Irabia
Pirineo,25/10/2010,4.5,7.0,3.4,6.8,Irabia
Pirineo,26/10/2010,3.5,9.1,-0.6,0.0,Irabia
Pirineo,27/10/2010,4.7,15.0,-1.1,0.0,Irabia
Pirineo,28/10/2010,6.8,17.3,1.0,0.0,Irabia
Pirineo,29/10/2010,13.4,19.2,4.1,19.5,Irabia
Pirineo,30/10/2010,7.7,10.7,4.9,10.5,Irabia
Pirineo,31/10/2010,7.8,11.8,6.4,29.4,Irabia
Pirineo,01/11/2010,8.3,9.7,7.0,20.1,Irabia
Pirineo,02/11/2010,7.9,9.4,7.4,20.4,Irabia
Pirineo,03/11/2010,9.7,11.8,7.5,3.1,Irabia
Pirineo,04/11/2010,10.8,17.4,6.8,0.0,Irabia
Pirineo,05/11/2010,10.6,18.8,6.4,0.0,Irabia
Pirineo,06/11/2010,8.9,17.5,0.0,0.0,Irabia
Pirineo,07/11/2010,5.6,9.1,1.4,30.2,Irabia
Pirineo,08/11/2010,3.4,5.1,1.7,25.4,Irabia
Pirineo,09/11/2010,5.3,8.6,3.6,12.1,Irabia
Pirineo,10/11/2010,2.8,4.1,1.0,42.8,Irabia
Pirineo,11/11/2010,4.8,8.3,1.5,0.3,Irabia
Pirineo,12/11/2010,7.9,16.1,3.5,0.3,Irabia
Pirineo,13/11/2010,9.4,16.9,3.4,0.0,Irabia
Pirineo,14/11/2010,8.2,10.3,5.8,24.9,Irabia
Pirineo,15/11/2010,4.9,10.5,2.3,21.4,Irabia
Pirineo,16/11/2010,4.2,7.8,-0.2,1.1,Irabia
Pirineo,17/11/2010,3.3,6.5,-0.6,5.0,Irabia
Pirineo,18/11/2010,4.3,9.0,2.2,0.0,Irabia
Pirineo,19/11/2010,4.4,7.7,1.0,0.8,Irabia
Pirineo,20/11/2010,5.0,6.5,2.3,50.3,Irabia
Pirineo,21/11/2010,3.7,4.9,0.8,36.4,Irabia
Pirineo,22/11/2010,1.1,4.0,0.2,49.5,Irabia
Pirineo,23/11/2010,1.9,4.4,0.7,5.3,Irabia
Pirineo,24/11/2010,2.2,5.7,0.3,0.0,Irabia
Pirineo,25/11/2010,1.7,5.4,0.1,18.2,Irabia
Pirineo,26/11/2010,-0.7,3.3,-4.1,4.3,Irabia
Pirineo,27/11/2010,-1.6,2.9,-5.3,0.2,Irabia
Pirineo,28/11/2010,-2.5,3.7,-6.5,1.1,Irabia
Pirineo,29/11/2010,-3.7,2.1,-8.5,0.0,Irabia
Pirineo,30/11/2010,1.2,3.8,-2.5,2.1,Irabia
Pirineo,01/12/2010,0.5,1.9,-0.8,2.9,Irabia
Pirineo,02/12/2010,-1.0,3.1,-2.8,0.5,Irabia
Pirineo,03/12/2010,-1.0,0.4,-2.5,14.8,Irabia
Pirineo,04/12/2010,-0.6,5.1,-4.3,0.0,Irabia
Pirineo,05/12/2010,4.8,8.0,0.9,1.8,Irabia
Pirineo,06/12/2010,9.1,11.3,6.8,8.7,Irabia
Pirineo,07/12/2010,10.4,11.8,8.3,5.6,Irabia
Pirineo,08/12/2010,9.5,13.3,6.2,6.0,Irabia
Pirineo,09/12/2010,3.3,6.2,-0.4,7.7,Irabia
Pirineo,10/12/2010,-0.4,7.3,-3.0,0.0,Irabia
Pirineo,11/12/2010,-0.4,8.5,-4.4,0.0,Irabia
Pirineo,12/12/2010,1.7,10.0,-1.3,0.0,Irabia
Pirineo,13/12/2010,2.0,8.5,-1.3,0.0,Irabia
Pirineo,14/12/2010,-1.5,3.0,-3.2,0.0,Irabia
Pirineo,15/12/2010,-5.0,-1.8,-6.6,0.0,Irabia
Pirineo,16/12/2010,-2.5,-0.9,-6.5,0.0,Irabia
Pirineo,17/12/2010,-0.6,1.3,-4.4,6.1,Irabia
Pirineo,18/12/2010,-3.0,3.2,-6.9,0.0,Irabia
Pirineo,19/12/2010,-0.8,5.2,-3.0,0.0,Irabia
Pirineo,20/12/2010,0.2,4.4,-3.6,0.0,Irabia
Pirineo,21/12/2010,5.0,7.8,0.7,18.7,Irabia
Pirineo,22/12/2010,7.4,8.8,4.6,9.8,Irabia
Pirineo,23/12/2010,2.9,5.2,0.2,33.9,Irabia
Pirineo,24/12/2010,-0.9,0.2,-3.0,44.7,Irabia
Pirineo,25/12/2010,-4.2,-3.0,-6.1,0.0,Irabia
Pirineo,26/12/2010,-6.8,2.4,-10.5,0.0,Irabia
Pirineo,27/12/2010,-3.8,5.7,-9.6,0.0,Irabia
Pirineo,28/12/2010,-0.4,6.5,-3.4,0.0,Irabia
Pirineo,29/12/2010,1.2,7.2,-0.7,0.0,Irabia
Pirineo,30/12/2010,2.3,6.4,-0.3,0.0,Irabia
Pirineo,31/12/2010,2.3,7.7,-1.0,0.0,Irabia
