Comarca,Fecha, Temperatura media, Temperatura maxima, Temperatura minima, Precipitacion acumulada,Localidad
Pirineo,01/01/2009,6.4,11.6,2.4,0.0,Irabia
Pirineo,02/01/2009,5.4,11.3,1.3,0.0,Irabia
Pirineo,03/01/2009,2.5,7.4,-1.4,0.0,Irabia
Pirineo,04/01/2009,0.5,5.5,-2.9,0.0,Irabia
Pirineo,05/01/2009,0.8,2.8,-2.8,0.2,Irabia
Pirineo,06/01/2009,-1.1,0.9,-3.1,1.0,Irabia
Pirineo,07/01/2009,-4.4,-3.0,-5.5,0.0,Irabia
Pirineo,08/01/2009,-4.1,-2.4,-5.7,0.0,Irabia
Pirineo,09/01/2009,-1.9,3.3,-7.1,0.4,Irabia
Pirineo,10/01/2009,-1.3,3.6,-4.9,0.0,Irabia
Pirineo,11/01/2009,-1.9,3.3,-4.7,0.0,Irabia
Pirineo,12/01/2009,-1.7,3.6,-5.0,0.0,Irabia
Pirineo,13/01/2009,-0.1,2.3,-1.6,6.2,Irabia
Pirineo,14/01/2009,1.5,6.6,-4.1,1.5,Irabia
Pirineo,15/01/2009,-0.3,6.1,-4.5,0.0,Irabia
Pirineo,16/01/2009,0.1,8.2,-4.7,0.0,Irabia
Pirineo,17/01/2009,2.5,9.7,-3.1,0.0,Irabia
Pirineo,18/01/2009,5.0,8.6,0.5,0.0,Irabia
Pirineo,19/01/2009,6.9,9.7,0.9,13.0,Irabia
Pirineo,20/01/2009,-0.4,3.4,-3.8,0.3,Irabia
Pirineo,21/01/2009,-0.3,1.8,-1.4,5.7,Irabia
Pirineo,22/01/2009,0.5,1.8,-1.4,11.1,Irabia
Pirineo,23/01/2009,4.8,8.8,1.1,28.9,Irabia
Pirineo,24/01/2009,3.0,9.6,0.0,20.9,Irabia
Pirineo,25/01/2009,1.0,3.4,-0.8,5.6,Irabia
Pirineo,26/01/2009,0.0,1.1,-0.5,27.0,Irabia
Pirineo,27/01/2009,1.1,3.4,-0.2,42.3,Irabia
Pirineo,28/01/2009,2.4,4.1,1.2,1.9,Irabia
Pirineo,29/01/2009,3.0,8.4,-0.2,0.0,Irabia
Pirineo,30/01/2009,5.3,13.5,-0.5,0.0,Irabia
Pirineo,31/01/2009,6.8,9.7,3.8,0.6,Irabia
Pirineo,01/02/2009,3.8,6.8,1.5,12.1,Irabia
Pirineo,02/02/2009,2.3,6.3,-0.3,5.5,Irabia
Pirineo,03/02/2009,1.3,5.1,-1.3,1.0,Irabia
Pirineo,04/02/2009,4.2,7.9,2.5,10.9,Irabia
Pirineo,05/02/2009,3.6,4.7,3.0,1.9,Irabia
Pirineo,06/02/2009,1.1,4.0,-0.5,15.6,Irabia
Pirineo,07/02/2009,-1.1,0.0,-2.2,18.9,Irabia
Pirineo,08/02/2009,0.1,3.9,-1.9,24.9,Irabia
Pirineo,09/02/2009,3.7,8.7,0.0,2.8,Irabia
Pirineo,10/02/2009,1.5,4.5,-0.5,24.3,Irabia
Pirineo,11/02/2009,1.1,3.2,-0.5,104.6,Irabia
Pirineo,12/02/2009,1.9,2.6,0.3,14.2,Irabia
Pirineo,13/02/2009,0.7,7.1,-2.4,0.0,Irabia
Pirineo,14/02/2009,1.5,8.9,-2.5,0.0,Irabia
Pirineo,15/02/2009,-0.4,8.9,-5.9,0.0,Irabia
Pirineo,16/02/2009,-0.7,7.5,-6.1,0.0,Irabia
Pirineo,17/02/2009,1.1,8.0,-4.2,0.0,Irabia
Pirineo,18/02/2009,2.5,7.0,1.6,0.0,Irabia
Pirineo,19/02/2009,2.9,8.9,-1.4,0.0,Irabia
Pirineo,20/02/2009,1.6,10.8,-3.1,0.0,Irabia
Pirineo,21/02/2009,2.4,8.4,-2.5,0.0,Irabia
Pirineo,22/02/2009,3.4,7.6,2.1,0.0,Irabia
Pirineo,23/02/2009,3.5,5.6,1.7,0.0,Irabia
Pirineo,24/02/2009,3.1,6.4,-1.6,0.0,Irabia
Pirineo,25/02/2009,2.8,14.0,-3.8,0.0,Irabia
Pirineo,26/02/2009,4.0,15.6,-1.9,0.0,Irabia
Pirineo,27/02/2009,4.4,16.5,-2.5,0.0,Irabia
Pirineo,28/02/2009,4.9,17.4,-2.7,0.0,Irabia
Pirineo,01/03/2009,5.1,8.8,2.6,0.0,Irabia
Pirineo,02/03/2009,4.1,5.5,1.8,0.3,Irabia
Pirineo,03/03/2009,3.8,8.9,1.2,0.0,Irabia
Pirineo,04/03/2009,1.6,5.2,-1.3,29.3,Irabia
Pirineo,05/03/2009,-0.3,1.7,-1.2,37.9,Irabia
Pirineo,06/03/2009,1.2,5.2,-0.5,2.3,Irabia
Pirineo,07/03/2009,2.6,4.5,0.1,7.3,Irabia
Pirineo,08/03/2009,3.7,8.6,1.6,0.7,Irabia
Pirineo,09/03/2009,2.7,5.6,-1.1,0.9,Irabia
Pirineo,10/03/2009,3.6,14.2,-3.7,0.0,Irabia
Pirineo,11/03/2009,4.3,10.6,0.7,0.0,Irabia
Pirineo,12/03/2009,6.8,19.4,-1.2,0.0,Irabia
Pirineo,13/03/2009,8.1,22.5,-1.1,0.0,Irabia
Pirineo,14/03/2009,7.0,16.8,-0.2,0.0,Irabia
Pirineo,15/03/2009,7.4,15.7,2.6,0.0,Irabia
Pirineo,16/03/2009,7.5,18.3,-0.9,0.0,Irabia
Pirineo,17/03/2009,8.0,19.4,0.5,0.0,Irabia
Pirineo,18/03/2009,8.5,22.4,-1.2,0.0,Irabia
Pirineo,19/03/2009,8.8,20.3,-0.7,0.0,Irabia
Pirineo,20/03/2009,8.8,18.8,0.5,0.0,Irabia
Pirineo,21/03/2009,5.5,14.3,-1.8,0.0,Irabia
Pirineo,22/03/2009,4.3,13.0,-2.4,0.0,Irabia
Pirineo,23/03/2009,5.8,15.1,-2.9,0.0,Irabia
Pirineo,24/03/2009,3.0,5.6,-1.0,0.3,Irabia
Pirineo,25/03/2009,4.1,12.3,-2.1,0.0,Irabia
Pirineo,26/03/2009,8.2,17.2,0.9,0.0,Irabia
Pirineo,27/03/2009,7.2,20.1,-2.0,0.0,Irabia
Pirineo,28/03/2009,2.7,5.5,0.9,8.1,Irabia
Pirineo,29/03/2009,3.0,6.2,0.8,3.5,Irabia
Pirineo,30/03/2009,3.3,8.9,-1.6,0.0,Irabia
Pirineo,31/03/2009,3.8,10.2,-2.4,0.0,Irabia
Pirineo,01/04/2009,5.2,9.6,3.7,0.0,Irabia
Pirineo,02/04/2009,5.1,8.9,3.2,0.0,Irabia
Pirineo,03/04/2009,6.3,8.7,5.1,0.0,Irabia
Pirineo,04/04/2009,8.7,17.3,2.2,0.0,Irabia
Pirineo,05/04/2009,9.7,18.8,4.5,0.0,Irabia
Pirineo,06/04/2009,10.8,23.0,2.8,25.8,Irabia
Pirineo,07/04/2009,3.6,4.5,2.4,16.0,Irabia
Pirineo,08/04/2009,6.8,13.9,0.6,0.0,Irabia
Pirineo,09/04/2009,10.0,19.1,-0.4,0.0,Irabia
Pirineo,10/04/2009,5.0,10.4,-0.2,54.1,Irabia
Pirineo,11/04/2009,1.4,5.1,-0.4,27.0,Irabia
Pirineo,12/04/2009,2.8,4.6,0.6,4.1,Irabia
Pirineo,13/04/2009,6.3,13.6,0.7,0.0,Irabia
Pirineo,14/04/2009,6.8,18.3,-0.6,20.6,Irabia
Pirineo,15/04/2009,5.9,8.9,2.6,11.2,Irabia
Pirineo,16/04/2009,6.0,14.4,2.4,5.4,Irabia
Pirineo,17/04/2009,6.1,13.2,0.1,1.4,Irabia
Pirineo,18/04/2009,6.7,16.4,-1.5,0.0,Irabia
Pirineo,19/04/2009,4.8,13.7,-0.3,6.3,Irabia
Pirineo,20/04/2009,5.7,8.1,3.6,3.8,Irabia
Pirineo,21/04/2009,6.2,7.5,5.2,2.2,Irabia
Pirineo,22/04/2009,8.6,14.1,3.9,0.1,Irabia
Pirineo,23/04/2009,11.0,22.0,1.6,0.0,Irabia
Pirineo,24/04/2009,11.4,25.0,0.4,0.4,Irabia
Pirineo,25/04/2009,5.1,7.6,1.0,17.0,Irabia
Pirineo,26/04/2009,3.4,4.6,2.5,16.2,Irabia
Pirineo,27/04/2009,6.6,11.2,3.3,3.8,Irabia
Pirineo,28/04/2009,6.5,10.9,3.6,1.0,Irabia
Pirineo,29/04/2009,6.4,10.0,3.2,6.5,Irabia
Pirineo,30/04/2009,7.8,16.0,2.1,15.1,Irabia
Pirineo,01/05/2009,5.9,7.7,3.9,17.3,Irabia
Pirineo,02/05/2009,9.1,14.5,4.8,1.0,Irabia
Pirineo,03/05/2009,10.2,15.6,3.6,0.0,Irabia
Pirineo,04/05/2009,8.0,9.3,5.8,1.0,Irabia
Pirineo,05/05/2009,9.6,16.2,5.4,0.0,Irabia
Pirineo,06/05/2009,14.4,26.1,3.5,0.0,Irabia
Pirineo,07/05/2009,14.9,27.5,7.2,1.1,Irabia
Pirineo,08/05/2009,12.8,23.5,9.3,0.0,Irabia
Pirineo,09/05/2009,15.0,25.3,7.6,4.7,Irabia
Pirineo,10/05/2009,14.9,21.9,10.5,6.3,Irabia
Pirineo,11/05/2009,17.5,25.9,11.0,2.0,Irabia
Pirineo,12/05/2009,14.6,23.2,8.3,0.0,Irabia
Pirineo,13/05/2009,14.9,22.9,8.9,23.6,Irabia
Pirineo,14/05/2009,7.8,9.8,5.7,16.8,Irabia
Pirineo,15/05/2009,6.2,10.3,2.0,5.5,Irabia
Pirineo,16/05/2009,11.7,22.9,1.5,0.0,Irabia
Pirineo,17/05/2009,11.7,19.0,6.5,0.0,Irabia
Pirineo,18/05/2009,10.6,16.6,7.9,0.0,Irabia
Pirineo,19/05/2009,12.5,21.6,7.0,0.0,Irabia
Pirineo,20/05/2009,17.0,29.1,7.6,7.3,Irabia
Pirineo,21/05/2009,14.5,22.8,8.9,0.0,Irabia
Pirineo,22/05/2009,17.3,26.0,11.3,0.0,Irabia
Pirineo,23/05/2009,17.4,25.5,12.1,19.5,Irabia
Pirineo,24/05/2009,15.0,21.1,11.1,17.0,Irabia
Pirineo,25/05/2009,13.6,18.9,10.7,0.9,Irabia
Pirineo,26/05/2009,9.2,11.1,7.3,8.4,Irabia
Pirineo,27/05/2009,10.0,14.7,5.9,0.1,Irabia
Pirineo,28/05/2009,14.2,21.8,6.1,0.0,Irabia
Pirineo,29/05/2009,15.9,26.7,6.6,0.0,Irabia
Pirineo,30/05/2009,16.0,26.3,6.8,0.0,Irabia
Pirineo,31/05/2009,14.3,22.3,8.2,0.0,Irabia
Pirineo,01/06/2009,13.4,21.7,6.1,0.0,Irabia
Pirineo,02/06/2009,14.9,22.4,6.5,0.0,Irabia
Pirineo,03/06/2009,16.4,25.2,8.0,0.0,Irabia
Pirineo,04/06/2009,15.8,23.3,8.2,5.7,Irabia
Pirineo,05/06/2009,12.9,19.2,9.4,25.7,Irabia
Pirineo,06/06/2009,10.6,16.2,8.3,17.6,Irabia
Pirineo,07/06/2009,12.0,16.7,8.7,0.0,Irabia
Pirineo,08/06/2009,12.0,16.2,7.4,12.3,Irabia
Pirineo,09/06/2009,11.3,16.1,5.8,0.3,Irabia
Pirineo,10/06/2009,16.1,23.9,9.5,0.1,Irabia
Pirineo,11/06/2009,15.4,22.7,8.6,0.0,Irabia
Pirineo,12/06/2009,16.6,28.5,5.8,0.0,Irabia
Pirineo,13/06/2009,20.5,30.9,11.1,0.0,Irabia
Pirineo,14/06/2009,19.8,29.8,14.0,5.3,Irabia
Pirineo,15/06/2009,16.4,21.5,13.4,1.0,Irabia
Pirineo,16/06/2009,15.4,20.6,11.9,1.1,Irabia
Pirineo,17/06/2009,20.2,28.8,14.9,44.4,Irabia
Pirineo,18/06/2009,19.8,27.5,14.8,8.6,Irabia
Pirineo,19/06/2009,14.9,17.0,10.4,1.0,Irabia
Pirineo,20/06/2009,12.0,16.4,9.0,0.4,Irabia
Pirineo,21/06/2009,11.9,15.6,8.5,0.0,Irabia
Pirineo,22/06/2009,14.9,20.7,7.5,0.0,Irabia
Pirineo,23/06/2009,14.8,22.6,7.4,0.0,Irabia
Pirineo,24/06/2009,15.0,24.2,5.7,0.0,Irabia
Pirineo,25/06/2009,15.4,23.0,9.9,1.6,Irabia
Pirineo,26/06/2009,15.1,19.3,11.1,0.6,Irabia
Pirineo,27/06/2009,16.7,26.8,8.7,0.0,Irabia
Pirineo,28/06/2009,17.8,29.2,9.1,0.0,Irabia
Pirineo,29/06/2009,19.1,28.6,11.6,0.3,Irabia
Pirineo,30/06/2009,20.8,30.1,14.5,0.0,Irabia
Pirineo,01/07/2009,20.7,30.3,13.2,0.0,Irabia
Pirineo,02/07/2009,18.2,24.8,16.1,0.0,Irabia
Pirineo,03/07/2009,19.0,26.7,15.0,0.0,Irabia
Pirineo,04/07/2009,17.3,21.0,15.1,0.3,Irabia
Pirineo,05/07/2009,16.8,20.9,14.4,0.0,Irabia
Pirineo,06/07/2009,14.3,16.5,12.1,0.0,Irabia
Pirineo,07/07/2009,13.3,17.7,10.8,0.3,Irabia
Pirineo,08/07/2009,13.9,19.4,7.8,0.0,Irabia
Pirineo,09/07/2009,14.1,20.0,9.2,0.0,Irabia
Pirineo,10/07/2009,14.6,21.8,8.4,0.0,Irabia
Pirineo,11/07/2009,18.2,28.8,8.8,0.0,Irabia
Pirineo,12/07/2009,19.2,29.2,11.8,0.0,Irabia
Pirineo,13/07/2009,20.3,32.9,13.9,0.0,Irabia
Pirineo,14/07/2009,16.7,22.8,13.4,0.0,Irabia
Pirineo,15/07/2009,17.8,24.1,13.9,0.0,Irabia
Pirineo,16/07/2009,20.2,32.4,12.2,3.2,Irabia
Pirineo,17/07/2009,12.2,17.2,8.9,4.9,Irabia
Pirineo,18/07/2009,13.0,18.1,8.9,1.7,Irabia
Pirineo,19/07/2009,16.2,23.5,9.4,0.0,Irabia
Pirineo,20/07/2009,18.4,31.0,12.3,20.3,Irabia
Pirineo,21/07/2009,20.2,32.3,11.8,1.4,Irabia
Pirineo,22/07/2009,21.1,31.8,13.2,0.0,Irabia
Pirineo,23/07/2009,20.2,26.9,14.9,0.0,Irabia
Pirineo,24/07/2009,16.9,25.0,12.6,0.0,Irabia
Pirineo,25/07/2009,15.7,23.3,8.4,0.0,Irabia
Pirineo,26/07/2009,19.5,31.8,9.0,0.0,Irabia
Pirineo,27/07/2009,14.6,16.1,12.2,0.3,Irabia
Pirineo,28/07/2009,19.5,30.2,12.1,0.0,Irabia
Pirineo,29/07/2009,17.5,31.6,10.8,0.0,Irabia
Pirineo,30/07/2009,14.8,20.5,9.2,0.0,Irabia
Pirineo,31/07/2009,17.4,30.6,6.5,0.0,Irabia
Pirineo,01/08/2009,18.0,30.4,12.1,8.7,Irabia
Pirineo,02/08/2009,14.0,18.5,11.1,1.3,Irabia
Pirineo,03/08/2009,15.8,22.3,11.0,0.0,Irabia
Pirineo,04/08/2009,18.1,28.8,8.6,0.0,Irabia
Pirineo,05/08/2009,19.9,31.0,12.0,15.2,Irabia
Pirineo,06/08/2009,17.2,25.8,13.1,0.6,Irabia
Pirineo,07/08/2009,14.4,15.5,13.3,1.7,Irabia
Pirineo,08/08/2009,14.2,15.6,12.9,3.7,Irabia
Pirineo,09/08/2009,13.7,15.8,12.5,3.9,Irabia
Pirineo,10/08/2009,15.0,19.3,10.0,0.0,Irabia
Pirineo,11/08/2009,17.6,24.6,13.5,0.0,Irabia
Pirineo,12/08/2009,18.2,25.2,13.4,0.0,Irabia
Pirineo,13/08/2009,18.1,25.4,11.7,0.0,Irabia
Pirineo,14/08/2009,19.1,27.9,13.1,4.6,Irabia
Pirineo,15/08/2009,20.2,31.1,13.0,0.0,Irabia
Pirineo,16/08/2009,19.0,26.9,13.1,0.0,Irabia
Pirineo,17/08/2009,19.7,30.7,12.5,0.0,Irabia
Pirineo,18/08/2009,22.4,34.6,15.0,0.0,Irabia
Pirineo,19/08/2009,22.2,36.0,13.7,0.0,Irabia
Pirineo,20/08/2009,20.9,31.7,15.3,0.0,Irabia
Pirineo,21/08/2009,16.1,17.6,14.1,0.0,Irabia
Pirineo,22/08/2009,17.9,24.8,12.6,0.0,Irabia
Pirineo,23/08/2009,19.9,32.7,10.2,0.6,Irabia
Pirineo,24/08/2009,17.0,23.8,12.8,0.1,Irabia
Pirineo,25/08/2009,15.5,16.9,13.6,32.4,Irabia
Pirineo,26/08/2009,18.9,26.3,12.4,0.0,Irabia
Pirineo,27/08/2009,20.6,30.3,14.3,0.0,Irabia
Pirineo,28/08/2009,16.3,22.1,11.9,1.0,Irabia
Pirineo,29/08/2009,13.4,18.6,8.8,0.0,Irabia
Pirineo,30/08/2009,13.8,22.6,6.4,0.0,Irabia
Pirineo,31/08/2009,18.6,31.1,8.4,0.0,Irabia
Pirineo,01/09/2009,17.8,27.1,13.6,1.6,Irabia
Pirineo,02/09/2009,17.4,24.4,12.6,7.4,Irabia
Pirineo,03/09/2009,15.6,21.5,11.9,0.0,Irabia
Pirineo,04/09/2009,12.2,16.1,9.0,2.4,Irabia
Pirineo,05/09/2009,11.8,18.1,6.8,0.0,Irabia
Pirineo,06/09/2009,14.3,26.5,4.6,0.0,Irabia
Pirineo,07/09/2009,17.2,28.3,9.6,0.0,Irabia
Pirineo,08/09/2009,18.4,28.6,11.9,0.0,Irabia
Pirineo,09/09/2009,15.9,23.3,11.1,0.0,Irabia
Pirineo,10/09/2009,16.3,25.6,10.0,0.0,Irabia
Pirineo,11/09/2009,15.7,24.0,8.8,0.0,Irabia
Pirineo,12/09/2009,14.8,22.8,10.4,0.0,Irabia
Pirineo,13/09/2009,14.0,19.6,9.9,0.0,Irabia
Pirineo,14/09/2009,11.6,15.2,8.5,0.0,Irabia
Pirineo,15/09/2009,11.4,16.6,8.0,0.3,Irabia
Pirineo,16/09/2009,10.0,14.0,7.6,4.6,Irabia
Pirineo,17/09/2009,11.3,20.9,6.1,2.1,Irabia
Pirineo,18/09/2009,9.9,11.4,9.2,58.9,Irabia
Pirineo,19/09/2009,10.5,13.1,9.2,2.1,Irabia
Pirineo,20/09/2009,10.7,13.9,7.9,6.7,Irabia
Pirineo,21/09/2009,12.2,14.9,10.1,19.6,Irabia
Pirineo,22/09/2009,13.5,18.8,11.0,1.4,Irabia
Pirineo,23/09/2009,14.7,22.8,9.8,0.0,Irabia
Pirineo,24/09/2009,14.6,21.3,10.2,0.0,Irabia
Pirineo,25/09/2009,12.9,19.1,8.9,0.0,Irabia
Pirineo,26/09/2009,13.0,20.6,7.7,0.0,Irabia
Pirineo,27/09/2009,14.0,20.9,9.9,0.0,Irabia
Pirineo,28/09/2009,13.5,22.2,8.6,0.0,Irabia
Pirineo,29/09/2009,13.9,23.1,9.0,0.0,Irabia
Pirineo,30/09/2009,14.1,18.7,10.7,0.0,Irabia
Pirineo,01/10/2009,13.1,18.4,8.4,0.0,Irabia
Pirineo,02/10/2009,11.4,17.5,6.6,0.0,Irabia
Pirineo,03/10/2009,9.6,19.3,3.6,0.0,Irabia
Pirineo,04/10/2009,11.3,22.5,2.8,0.0,Irabia
Pirineo,05/10/2009,17.6,25.4,10.6,0.0,Irabia
Pirineo,06/10/2009,19.4,25.7,15.1,0.0,Irabia
Pirineo,07/10/2009,18.7,23.3,13.7,0.6,Irabia
Pirineo,08/10/2009,15.0,21.7,11.5,6.1,Irabia
Pirineo,09/10/2009,12.5,18.8,8.8,0.0,Irabia
Pirineo,10/10/2009,12.3,15.9,10.8,3.5,Irabia
Pirineo,11/10/2009,12.9,15.2,11.1,9.9,Irabia
Pirineo,12/10/2009,12.1,14.2,7.8,12.5,Irabia
Pirineo,13/10/2009,8.4,15.4,3.7,0.0,Irabia
Pirineo,14/10/2009,7.7,16.1,2.1,0.0,Irabia
Pirineo,15/10/2009,5.1,11.1,0.5,0.0,Irabia
Pirineo,16/10/2009,2.9,10.4,-2.3,0.0,Irabia
Pirineo,17/10/2009,5.1,11.5,-2.1,0.0,Irabia
Pirineo,18/10/2009,5.4,12.1,-1.0,0.0,Irabia
Pirineo,19/10/2009,6.2,15.1,-2.6,0.0,Irabia
Pirineo,20/10/2009,12.3,16.0,9.3,20.9,Irabia
Pirineo,21/10/2009,8.6,12.3,6.9,10.0,Irabia
Pirineo,22/10/2009,7.6,8.8,6.1,40.5,Irabia
Pirineo,23/10/2009,9.6,12.0,7.7,16.1,Irabia
Pirineo,24/10/2009,13.3,18.3,10.2,0.6,Irabia
Pirineo,25/10/2009,12.8,15.1,8.4,1.3,Irabia
Pirineo,26/10/2009,9.0,17.1,4.2,0.0,Irabia
Pirineo,27/10/2009,9.0,20.8,2.2,0.0,Irabia
Pirineo,28/10/2009,10.4,20.2,5.0,0.0,Irabia
Pirineo,29/10/2009,11.3,22.2,6.7,0.0,Irabia
Pirineo,30/10/2009,10.9,21.9,4.4,0.0,Irabia
Pirineo,31/10/2009,12.1,19.7,7.7,0.0,Irabia
Pirineo,01/11/2009,12.6,21.3,5.9,19.9,Irabia
Pirineo,02/11/2009,6.9,10.7,5.8,5.5,Irabia
Pirineo,03/11/2009,8.0,13.8,4.6,3.2,Irabia
Pirineo,04/11/2009,6.4,7.8,4.6,6.4,Irabia
Pirineo,05/11/2009,2.7,4.7,0.1,22.2,Irabia
Pirineo,06/11/2009,3.6,6.7,-0.1,17.8,Irabia
Pirineo,07/11/2009,4.3,7.8,0.9,29.0,Irabia
Pirineo,08/11/2009,2.6,4.9,-0.3,78.6,Irabia
Pirineo,09/11/2009,3.7,5.3,1.4,11.3,Irabia
Pirineo,10/11/2009,3.9,7.9,-0.4,27.0,Irabia
Pirineo,11/11/2009,7.6,9.2,5.7,18.3,Irabia
Pirineo,12/11/2009,8.0,16.0,2.6,0.2,Irabia
Pirineo,13/11/2009,12.5,14.9,9.0,0.0,Irabia
Pirineo,14/11/2009,12.3,16.2,8.7,0.0,Irabia
Pirineo,15/11/2009,12.9,15.9,8.3,2.2,Irabia
Pirineo,16/11/2009,15.5,19.3,13.1,0.0,Irabia
Pirineo,17/11/2009,13.0,18.9,5.2,0.0,Irabia
Pirineo,18/11/2009,7.4,15.4,2.6,0.0,Irabia
Pirineo,19/11/2009,9.8,20.2,1.9,0.0,Irabia
Pirineo,20/11/2009,11.5,18.9,4.9,0.0,Irabia
Pirineo,21/11/2009,14.9,17.7,10.5,1.0,Irabia
Pirineo,22/11/2009,7.0,13.1,0.5,4.0,Irabia
Pirineo,23/11/2009,4.7,13.5,-0.1,0.0,Irabia
Pirineo,24/11/2009,4.9,14.9,-0.9,0.0,Irabia
Pirineo,25/11/2009,11.0,15.0,7.2,0.0,Irabia
Pirineo,26/11/2009,8.0,12.2,5.0,2.6,Irabia
Pirineo,27/11/2009,3.4,9.2,-0.6,0.0,Irabia
Pirineo,28/11/2009,4.5,8.6,-1.3,0.0,Irabia
Pirineo,29/11/2009,4.1,7.1,1.3,22.6,Irabia
Pirineo,30/11/2009,0.3,1.4,-0.4,44.8,Irabia
Pirineo,01/12/2009,0.8,4.8,-0.4,24.4,Irabia
Pirineo,02/12/2009,3.1,8.7,0.5,10.4,Irabia
Pirineo,03/12/2009,3.6,5.3,2.0,17.0,Irabia
Pirineo,04/12/2009,5.3,6.6,3.2,17.0,Irabia
Pirineo,05/12/2009,5.5,10.1,2.1,0.0,Irabia
Pirineo,06/12/2009,9.1,10.5,6.7,0.9,Irabia
Pirineo,07/12/2009,8.8,10.8,5.9,0.6,Irabia
Pirineo,08/12/2009,5.6,11.8,2.0,0.0,Irabia
Pirineo,09/12/2009,3.9,11.9,0.4,0.0,Irabia
Pirineo,10/12/2009,3.4,13.3,0.1,0.0,Irabia
Pirineo,11/12/2009,1.7,11.6,-2.0,0.0,Irabia
Pirineo,12/12/2009,0.3,6.7,-2.3,0.0,Irabia
Pirineo,13/12/2009,-1.8,0.2,-2.8,0.0,Irabia
Pirineo,14/12/2009,-3.1,-1.8,-4.6,0.0,Irabia
Pirineo,15/12/2009,-3.1,-2.2,-4.6,0.2,Irabia
Pirineo,16/12/2009,-2.4,0.3,-6.1,0.3,Irabia
Pirineo,17/12/2009,-4.5,-0.3,-10.2,0.0,Irabia
Pirineo,18/12/2009,-5.2,-1.1,-10.9,9.7,Irabia
Pirineo,19/12/2009,-7.6,-3.9,-13.9,0.0,Irabia
Pirineo,20/12/2009,-5.7,2.8,-13.3,0.0,Irabia
Pirineo,21/12/2009,2.1,6.4,-2.1,2.8,Irabia
Pirineo,22/12/2009,6.6,8.9,4.0,7.5,Irabia
Pirineo,23/12/2009,2.0,4.5,-0.6,31.0,Irabia
Pirineo,24/12/2009,7.9,10.5,3.8,13.9,Irabia
Pirineo,25/12/2009,2.1,5.4,-1.4,0.0,Irabia
Pirineo,26/12/2009,2.3,3.4,0.5,11.8,Irabia
Pirineo,27/12/2009,2.3,5.7,-0.7,0.3,Irabia
Pirineo,28/12/2009,6.4,8.9,2.9,10.2,Irabia
Pirineo,29/12/2009,10.3,11.5,7.9,5.7,Irabia
Pirineo,30/12/2009,8.2,11.1,5.6,9.6,Irabia
Pirineo,31/12/2009,5.3,7.3,1.5,21.5,Irabia
