Comarca,Fecha, Temperatura media, Temperatura maxima, Temperatura minima, Precipitacion acumulada,Localidad
Pirineo,01/01/2009,4.8,10.1,0.1,0.0,Lumbier
Pirineo,02/01/2009,5.4,11.0,0.8,0.0,Lumbier
Pirineo,03/01/2009,2.3,7.2,-0.7,0.0,Lumbier
Pirineo,04/01/2009,1.4,8.4,-2.5,0.0,Lumbier
Pirineo,05/01/2009,1.3,6.4,-3.8,0.0,Lumbier
Pirineo,06/01/2009,1.1,4.3,-1.4,0.0,Lumbier
Pirineo,07/01/2009,-2.4,-0.1,-4.0,0.0,Lumbier
Pirineo,08/01/2009,-2.4,2.0,-5.9,0.0,Lumbier
Pirineo,09/01/2009,-1.1,3.4,-6.0,0.0,Lumbier
Pirineo,10/01/2009,0.6,5.1,-2.5,0.0,Lumbier
Pirineo,11/01/2009,0.2,5.4,-1.7,0.0,Lumbier
Pirineo,12/01/2009,-1.6,3.1,-3.8,0.0,Lumbier
Pirineo,13/01/2009,-0.7,2.8,-2.9,0.0,Lumbier
Pirineo,14/01/2009,3.4,9.4,-2.8,0.0,Lumbier
Pirineo,15/01/2009,0.5,7.6,-4.5,0.0,Lumbier
Pirineo,16/01/2009,0.9,9.2,-4.1,0.0,Lumbier
Pirineo,17/01/2009,1.2,9.5,-3.5,0.0,Lumbier
Pirineo,18/01/2009,3.5,10.6,-3.0,0.0,Lumbier
Pirineo,19/01/2009,9.0,13.0,1.6,0.0,Lumbier
Pirineo,20/01/2009,1.0,5.9,-2.1,0.0,Lumbier
Pirineo,21/01/2009,1.4,5.8,-1.4,0.0,Lumbier
Pirineo,22/01/2009,1.8,3.6,-1.4,0.0,Lumbier
Pirineo,23/01/2009,8.7,13.1,3.5,0.0,Lumbier
Pirineo,24/01/2009,5.2,12.3,0.3,0.0,Lumbier
Pirineo,25/01/2009,2.7,7.1,-1.2,0.0,Lumbier
Pirineo,26/01/2009,1.8,3.8,0.2,0.0,Lumbier
Pirineo,27/01/2009,3.5,6.0,0.2,0.0,Lumbier
Pirineo,28/01/2009,6.0,8.9,2.7,0.0,Lumbier
Pirineo,29/01/2009,5.8,11.4,1.9,0.0,Lumbier
Pirineo,30/01/2009,8.5,15.0,3.7,0.0,Lumbier
Pirineo,31/01/2009,7.3,10.7,3.8,0.0,Lumbier
Pirineo,01/02/2009,6.1,9.0,3.7,0.0,Lumbier
Pirineo,02/02/2009,5.0,6.6,2.9,0.0,Lumbier
Pirineo,03/02/2009,5.1,9.1,-0.1,0.0,Lumbier
Pirineo,04/02/2009,7.9,10.6,6.2,0.0,Lumbier
Pirineo,05/02/2009,6.9,7.6,5.6,0.0,Lumbier
Pirineo,06/02/2009,3.6,7.1,0.2,0.0,Lumbier
Pirineo,07/02/2009,1.0,3.6,-0.0,0.0,Lumbier
Pirineo,08/02/2009,1.8,4.1,-0.0,0.0,Lumbier
Pirineo,09/02/2009,7.6,12.2,1.6,0.0,Lumbier
Pirineo,10/02/2009,6.0,11.3,0.6,0.0,Lumbier
Pirineo,11/02/2009,5.9,8.9,0.6,0.0,Lumbier
Pirineo,12/02/2009,6.3,8.4,3.3,0.0,Lumbier
Pirineo,13/02/2009,4.9,10.6,1.2,0.0,Lumbier
Pirineo,14/02/2009,4.8,10.7,-0.2,0.0,Lumbier
Pirineo,15/02/2009,2.5,11.1,-3.9,0.0,Lumbier
Pirineo,16/02/2009,2.2,11.5,-4.0,0.0,Lumbier
Pirineo,17/02/2009,4.3,12.1,-3.1,0.0,Lumbier
Pirineo,18/02/2009,4.6,10.9,-0.0,0.0,Lumbier
Pirineo,19/02/2009,4.9,13.2,-0.5,0.0,Lumbier
Pirineo,20/02/2009,3.5,12.1,-2.5,0.0,Lumbier
Pirineo,21/02/2009,5.4,12.2,-1.6,0.0,Lumbier
Pirineo,22/02/2009,7.1,11.3,4.5,0.0,Lumbier
Pirineo,23/02/2009,7.3,11.6,4.5,0.0,Lumbier
Pirineo,24/02/2009,6.1,11.7,-0.5,0.0,Lumbier
Pirineo,25/02/2009,5.2,14.3,-2.9,0.0,Lumbier
Pirineo,26/02/2009,5.5,16.3,-2.2,0.0,Lumbier
Pirineo,27/02/2009,6.0,17.6,-3.5,0.0,Lumbier
Pirineo,28/02/2009,5.9,14.0,-2.5,0.0,Lumbier
Pirineo,01/03/2009,8.3,12.4,4.5,0.0,Lumbier
Pirineo,02/03/2009,7.8,11.7,2.5,0.0,Lumbier
Pirineo,03/03/2009,6.4,12.8,-0.4,0.0,Lumbier
Pirineo,04/03/2009,4.1,8.0,0.7,0.0,Lumbier
Pirineo,05/03/2009,1.6,4.1,0.1,0.0,Lumbier
Pirineo,06/03/2009,4.6,7.6,2.5,0.0,Lumbier
Pirineo,07/03/2009,7.9,10.4,3.4,0.0,Lumbier
Pirineo,08/03/2009,9.2,13.3,6.7,0.0,Lumbier
Pirineo,09/03/2009,6.8,11.3,0.2,0.0,Lumbier
Pirineo,10/03/2009,6.5,16.7,-3.1,0.0,Lumbier
Pirineo,11/03/2009,7.9,15.0,1.8,0.0,Lumbier
Pirineo,12/03/2009,9.2,19.2,0.3,0.0,Lumbier
Pirineo,13/03/2009,10.8,22.5,1.2,0.0,Lumbier
Pirineo,14/03/2009,10.9,20.2,2.8,0.0,Lumbier
Pirineo,15/03/2009,10.2,18.9,3.8,0.0,Lumbier
Pirineo,16/03/2009,11.2,22.6,0.5,0.0,Lumbier
Pirineo,17/03/2009,10.4,18.8,2.1,0.0,Lumbier
Pirineo,18/03/2009,9.7,20.5,-0.3,0.0,Lumbier
Pirineo,19/03/2009,11.0,22.6,-0.6,0.0,Lumbier
Pirineo,20/03/2009,12.1,22.8,2.9,0.0,Lumbier
Pirineo,21/03/2009,8.6,17.6,-0.0,0.0,Lumbier
Pirineo,22/03/2009,8.2,16.2,0.3,0.0,Lumbier
Pirineo,23/03/2009,8.7,18.7,-1.1,0.0,Lumbier
Pirineo,24/03/2009,7.3,12.8,1.9,0.0,Lumbier
Pirineo,25/03/2009,7.0,15.0,-1.0,0.0,Lumbier
Pirineo,26/03/2009,10.8,20.9,1.2,0.0,Lumbier
Pirineo,27/03/2009,10.4,21.1,0.6,0.0,Lumbier
Pirineo,28/03/2009,6.9,8.9,5.0,0.0,Lumbier
Pirineo,29/03/2009,7.4,12.0,4.3,0.0,Lumbier
Pirineo,30/03/2009,6.9,12.8,1.0,0.0,Lumbier
Pirineo,31/03/2009,7.6,13.4,0.8,0.0,Lumbier
Pirineo,01/04/2009,8.1,12.5,2.7,0.0,Lumbier
Pirineo,02/04/2009,7.6,12.8,2.3,0.0,Lumbier
Pirineo,03/04/2009,8.5,15.6,2.0,0.0,Lumbier
Pirineo,04/04/2009,9.1,18.6,-0.1,0.0,Lumbier
Pirineo,05/04/2009,12.7,21.4,5.4,0.0,Lumbier
Pirineo,06/04/2009,11.8,23.1,2.6,0.0,Lumbier
Pirineo,07/04/2009,7.5,10.1,4.6,0.0,Lumbier
Pirineo,08/04/2009,9.6,16.3,3.6,0.0,Lumbier
Pirineo,09/04/2009,11.2,19.1,0.3,0.0,Lumbier
Pirineo,10/04/2009,7.6,13.5,1.5,0.0,Lumbier
Pirineo,11/04/2009,5.6,8.2,3.4,0.0,Lumbier
Pirineo,12/04/2009,7.0,10.6,2.9,0.0,Lumbier
Pirineo,13/04/2009,9.7,17.5,2.6,0.0,Lumbier
Pirineo,14/04/2009,9.8,17.9,2.4,0.0,Lumbier
Pirineo,15/04/2009,10.5,13.4,7.9,0.0,Lumbier
Pirineo,16/04/2009,9.1,13.5,5.4,0.0,Lumbier
Pirineo,17/04/2009,9.1,15.2,3.7,0.0,Lumbier
Pirineo,18/04/2009,8.5,17.5,0.3,0.0,Lumbier
Pirineo,19/04/2009,9.4,16.3,3.0,0.0,Lumbier
Pirineo,20/04/2009,9.6,14.2,5.8,0.0,Lumbier
Pirineo,21/04/2009,10.5,14.1,8.2,0.0,Lumbier
Pirineo,22/04/2009,12.8,19.1,7.1,0.0,Lumbier
Pirineo,23/04/2009,13.6,25.9,2.3,0.0,Lumbier
Pirineo,24/04/2009,14.0,26.2,3.7,0.0,Lumbier
Pirineo,25/04/2009,8.8,11.5,5.1,0.0,Lumbier
Pirineo,26/04/2009,6.7,9.1,4.9,0.0,Lumbier
Pirineo,27/04/2009,9.8,14.5,5.2,0.0,Lumbier
Pirineo,28/04/2009,10.4,15.2,7.0,0.0,Lumbier
Pirineo,29/04/2009,10.0,15.5,5.5,0.0,Lumbier
Pirineo,30/04/2009,9.9,16.7,3.7,0.0,Lumbier
Pirineo,01/05/2009,9.6,13.2,7.0,0.0,Lumbier
Pirineo,02/05/2009,13.0,20.0,6.2,0.0,Lumbier
Pirineo,03/05/2009,13.6,22.2,4.8,0.0,Lumbier
Pirineo,04/05/2009,11.6,16.6,7.6,0.0,Lumbier
Pirineo,05/05/2009,14.3,22.3,7.7,0.0,Lumbier
Pirineo,06/05/2009,17.2,28.8,5.2,0.0,Lumbier
Pirineo,07/05/2009,19.1,28.7,10.1,0.0,Lumbier
Pirineo,08/05/2009,16.7,25.9,10.5,0.0,Lumbier
Pirineo,09/05/2009,17.5,25.8,10.1,0.0,Lumbier
Pirineo,10/05/2009,18.0,22.9,13.3,0.0,Lumbier
Pirineo,11/05/2009,19.9,25.9,12.6,0.0,Lumbier
Pirineo,12/05/2009,17.5,25.6,10.2,0.0,Lumbier
Pirineo,13/05/2009,16.8,23.0,11.4,0.0,Lumbier
Pirineo,14/05/2009,11.5,13.5,8.5,0.0,Lumbier
Pirineo,15/05/2009,9.7,13.9,4.8,0.0,Lumbier
Pirineo,16/05/2009,15.5,24.6,2.7,0.0,Lumbier
Pirineo,17/05/2009,16.1,22.6,9.5,0.0,Lumbier
Pirineo,18/05/2009,14.8,22.4,9.4,0.0,Lumbier
Pirineo,19/05/2009,15.7,26.8,7.3,0.0,Lumbier
Pirineo,20/05/2009,18.4,29.3,8.4,3.7,Lumbier
Pirineo,21/05/2009,17.5,25.0,11.7,0.0,Lumbier
Pirineo,22/05/2009,20.5,29.8,12.6,0.0,Lumbier
Pirineo,23/05/2009,20.2,27.5,15.2,8.2,Lumbier
Pirineo,24/05/2009,18.0,26.3,13.1,10.0,Lumbier
Pirineo,25/05/2009,16.4,22.7,11.9,0.2,Lumbier
Pirineo,26/05/2009,13.0,16.3,10.4,0.0,Lumbier
Pirineo,27/05/2009,13.3,18.9,7.2,0.0,Lumbier
Pirineo,28/05/2009,16.8,26.1,7.0,0.0,Lumbier
Pirineo,29/05/2009,19.5,29.6,8.4,0.0,Lumbier
Pirineo,30/05/2009,19.8,29.3,10.4,0.0,Lumbier
Pirineo,31/05/2009,18.5,25.9,10.3,0.0,Lumbier
Pirineo,01/06/2009,17.5,24.8,8.4,0.0,Lumbier
Pirineo,02/06/2009,19.2,27.2,9.9,0.0,Lumbier
Pirineo,03/06/2009,19.6,29.1,9.7,0.0,Lumbier
Pirineo,04/06/2009,19.7,28.2,12.3,0.2,Lumbier
Pirineo,05/06/2009,15.8,22.6,11.2,1.0,Lumbier
Pirineo,06/06/2009,13.9,20.7,9.9,7.4,Lumbier
Pirineo,07/06/2009,15.8,21.3,10.1,0.0,Lumbier
Pirineo,08/06/2009,16.2,20.3,9.3,5.5,Lumbier
Pirineo,09/06/2009,14.8,20.2,7.3,0.0,Lumbier
Pirineo,10/06/2009,19.5,25.7,12.8,2.7,Lumbier
Pirineo,11/06/2009,19.2,25.9,12.1,0.0,Lumbier
Pirineo,12/06/2009,21.4,32.7,9.3,0.0,Lumbier
Pirineo,13/06/2009,25.1,35.1,14.3,0.0,Lumbier
Pirineo,14/06/2009,23.4,30.7,17.8,2.0,Lumbier
Pirineo,15/06/2009,20.2,27.2,14.2,0.0,Lumbier
Pirineo,16/06/2009,18.6,24.9,11.8,0.4,Lumbier
Pirineo,17/06/2009,23.6,31.8,17.1,6.1,Lumbier
Pirineo,18/06/2009,23.6,33.1,16.3,8.8,Lumbier
Pirineo,19/06/2009,18.8,22.8,14.6,0.4,Lumbier
Pirineo,20/06/2009,16.3,21.3,11.1,0.0,Lumbier
Pirineo,21/06/2009,16.0,21.4,10.7,0.0,Lumbier
Pirineo,22/06/2009,18.4,26.1,9.4,0.0,Lumbier
Pirineo,23/06/2009,19.4,28.1,11.0,0.0,Lumbier
Pirineo,24/06/2009,19.3,29.2,9.1,0.0,Lumbier
Pirineo,25/06/2009,19.8,27.1,12.7,0.0,Lumbier
Pirineo,26/06/2009,19.2,25.4,13.5,3.5,Lumbier
Pirineo,27/06/2009,19.8,28.8,9.7,0.0,Lumbier
Pirineo,28/06/2009,22.1,31.4,11.3,0.8,Lumbier
Pirineo,29/06/2009,23.6,32.9,14.1,0.8,Lumbier
Pirineo,30/06/2009,25.2,33.5,17.3,0.0,Lumbier
Pirineo,01/07/2009,25.5,34.1,16.3,0.0,Lumbier
Pirineo,02/07/2009,22.7,29.4,17.3,0.0,Lumbier
Pirineo,03/07/2009,23.0,31.6,15.1,0.0,Lumbier
Pirineo,04/07/2009,22.0,29.3,16.8,0.0,Lumbier
Pirineo,05/07/2009,21.6,27.7,15.5,0.0,Lumbier
Pirineo,06/07/2009,18.9,24.8,15.2,0.0,Lumbier
Pirineo,07/07/2009,17.4,22.9,13.0,0.0,Lumbier
Pirineo,08/07/2009,17.7,23.9,10.4,0.0,Lumbier
Pirineo,09/07/2009,17.2,24.0,10.0,0.0,Lumbier
Pirineo,10/07/2009,18.5,26.4,9.9,0.0,Lumbier
Pirineo,11/07/2009,22.0,32.9,9.2,0.0,Lumbier
Pirineo,12/07/2009,24.6,34.7,15.0,0.0,Lumbier
Pirineo,13/07/2009,24.1,36.2,15.2,0.0,Lumbier
Pirineo,14/07/2009,21.1,29.5,15.4,0.0,Lumbier
Pirineo,15/07/2009,22.1,32.0,12.8,0.0,Lumbier
Pirineo,16/07/2009,22.8,34.9,13.6,14.9,Lumbier
Pirineo,17/07/2009,15.9,19.9,12.3,0.2,Lumbier
Pirineo,18/07/2009,16.9,23.9,11.0,0.0,Lumbier
Pirineo,19/07/2009,20.4,30.3,11.2,0.0,Lumbier
Pirineo,20/07/2009,21.2,33.6,13.1,1.8,Lumbier
Pirineo,21/07/2009,25.6,35.5,13.1,0.0,Lumbier
Pirineo,22/07/2009,27.3,35.3,16.5,0.0,Lumbier
Pirineo,23/07/2009,25.0,29.8,15.3,0.0,Lumbier
Pirineo,24/07/2009,19.9,28.1,11.9,0.0,Lumbier
Pirineo,25/07/2009,20.9,29.6,11.7,0.0,Lumbier
Pirineo,26/07/2009,24.9,35.8,12.1,0.0,Lumbier
Pirineo,27/07/2009,20.2,24.8,14.8,0.0,Lumbier
Pirineo,28/07/2009,22.6,33.7,12.3,0.0,Lumbier
Pirineo,29/07/2009,22.6,34.3,15.0,0.0,Lumbier
Pirineo,30/07/2009,20.3,26.7,13.2,0.0,Lumbier
Pirineo,31/07/2009,22.1,33.6,9.5,0.0,Lumbier
Pirineo,01/08/2009,19.4,30.7,12.8,2.5,Lumbier
Pirineo,02/08/2009,18.2,24.2,12.6,0.0,Lumbier
Pirineo,03/08/2009,20.1,28.1,13.4,0.0,Lumbier
Pirineo,04/08/2009,23.0,32.9,11.3,0.0,Lumbier
Pirineo,05/08/2009,24.7,36.6,15.4,3.7,Lumbier
Pirineo,06/08/2009,21.1,31.8,15.2,1.0,Lumbier
Pirineo,07/08/2009,19.0,23.6,15.4,0.0,Lumbier
Pirineo,08/08/2009,18.6,26.4,13.7,4.3,Lumbier
Pirineo,09/08/2009,17.3,22.4,13.0,0.6,Lumbier
Pirineo,10/08/2009,19.3,28.7,11.5,0.0,Lumbier
Pirineo,11/08/2009,21.0,31.8,13.1,0.0,Lumbier
Pirineo,12/08/2009,21.8,31.6,13.2,0.0,Lumbier
Pirineo,13/08/2009,22.4,32.2,14.0,0.0,Lumbier
Pirineo,14/08/2009,24.3,33.9,14.5,0.0,Lumbier
Pirineo,15/08/2009,26.9,35.6,17.2,0.0,Lumbier
Pirineo,16/08/2009,25.5,35.9,17.0,0.0,Lumbier
Pirineo,17/08/2009,25.5,37.0,16.2,0.0,Lumbier
Pirineo,18/08/2009,27.4,36.8,17.8,0.0,Lumbier
Pirineo,19/08/2009,28.9,36.2,18.0,0.0,Lumbier
Pirineo,20/08/2009,26.5,35.3,18.5,0.0,Lumbier
Pirineo,21/08/2009,21.4,29.1,15.8,0.0,Lumbier
Pirineo,22/08/2009,21.8,32.0,13.1,0.0,Lumbier
Pirineo,23/08/2009,25.5,35.8,13.2,0.0,Lumbier
Pirineo,24/08/2009,22.9,33.2,17.2,0.0,Lumbier
Pirineo,25/08/2009,18.0,23.3,8.6,4.5,Lumbier
Pirineo,26/08/2009,21.2,31.2,12.5,0.0,Lumbier
Pirineo,27/08/2009,23.6,33.4,14.5,0.0,Lumbier
Pirineo,28/08/2009,20.7,26.0,15.8,0.0,Lumbier
Pirineo,29/08/2009,17.2,23.1,10.4,0.0,Lumbier
Pirineo,30/08/2009,18.5,28.9,9.2,0.0,Lumbier
Pirineo,31/08/2009,22.4,33.2,9.4,0.4,Lumbier
Pirineo,01/09/2009,23.1,30.7,17.0,0.0,Lumbier
Pirineo,02/09/2009,21.7,29.7,14.7,0.0,Lumbier
Pirineo,03/09/2009,20.1,26.6,13.6,0.0,Lumbier
Pirineo,04/09/2009,16.4,22.7,11.9,0.0,Lumbier
Pirineo,05/09/2009,15.8,24.1,8.0,0.0,Lumbier
Pirineo,06/09/2009,18.7,30.1,5.8,0.0,Lumbier
Pirineo,07/09/2009,22.2,30.0,13.3,0.0,Lumbier
Pirineo,08/09/2009,22.4,31.2,13.9,0.0,Lumbier
Pirineo,09/09/2009,20.5,30.2,12.5,0.0,Lumbier
Pirineo,10/09/2009,20.3,31.0,11.0,0.0,Lumbier
Pirineo,11/09/2009,20.0,29.8,11.1,0.0,Lumbier
Pirineo,12/09/2009,19.0,27.4,11.5,0.0,Lumbier
Pirineo,13/09/2009,17.6,25.7,11.2,0.0,Lumbier
Pirineo,14/09/2009,14.9,20.5,10.4,0.0,Lumbier
Pirineo,15/09/2009,14.9,20.8,9.5,0.0,Lumbier
Pirineo,16/09/2009,13.4,19.8,8.2,0.0,Lumbier
Pirineo,17/09/2009,13.6,21.6,6.3,0.0,Lumbier
Pirineo,18/09/2009,12.2,13.2,11.3,0.0,Lumbier
Pirineo,19/09/2009,13.4,17.4,10.4,0.0,Lumbier
Pirineo,20/09/2009,14.3,18.9,10.5,0.0,Lumbier
Pirineo,21/09/2009,16.5,21.9,12.0,0.0,Lumbier
Pirineo,22/09/2009,17.1,24.9,11.0,0.0,Lumbier
Pirineo,23/09/2009,17.2,27.0,8.8,0.0,Lumbier
Pirineo,24/09/2009,17.0,25.7,10.0,0.0,Lumbier
Pirineo,25/09/2009,17.0,24.2,10.9,0.0,Lumbier
Pirineo,26/09/2009,16.1,25.3,8.5,0.0,Lumbier
Pirineo,27/09/2009,16.1,25.9,9.2,0.0,Lumbier
Pirineo,28/09/2009,16.9,24.0,11.3,0.0,Lumbier
Pirineo,29/09/2009,17.0,25.8,9.6,0.0,Lumbier
Pirineo,30/09/2009,17.7,23.8,12.8,0.0,Lumbier
Pirineo,01/10/2009,17.2,23.9,11.7,0.0,Lumbier
Pirineo,02/10/2009,14.9,20.1,9.7,0.0,Lumbier
Pirineo,03/10/2009,13.7,23.3,6.7,0.0,Lumbier
Pirineo,04/10/2009,15.6,27.0,5.2,0.0,Lumbier
Pirineo,05/10/2009,21.9,30.0,11.0,0.0,Lumbier
Pirineo,06/10/2009,25.3,28.9,22.6,0.0,Lumbier
Pirineo,07/10/2009,22.6,26.4,17.0,0.0,Lumbier
Pirineo,08/10/2009,18.2,23.3,14.1,0.0,Lumbier
Pirineo,09/10/2009,16.3,22.5,10.6,0.0,Lumbier
Pirineo,10/10/2009,16.0,21.6,13.0,0.0,Lumbier
Pirineo,11/10/2009,16.4,21.3,11.9,0.0,Lumbier
Pirineo,12/10/2009,16.0,20.7,9.5,0.0,Lumbier
Pirineo,13/10/2009,12.9,24.1,5.8,0.0,Lumbier
Pirineo,14/10/2009,13.0,24.4,4.7,0.0,Lumbier
Pirineo,15/10/2009,9.9,17.6,4.0,0.0,Lumbier
Pirineo,16/10/2009,7.5,17.5,-0.1,0.0,Lumbier
Pirineo,17/10/2009,9.8,17.5,3.4,0.0,Lumbier
Pirineo,18/10/2009,8.8,17.4,0.5,0.0,Lumbier
Pirineo,19/10/2009,8.4,17.4,-2.7,0.0,Lumbier
Pirineo,20/10/2009,15.3,18.5,10.3,0.0,Lumbier
Pirineo,21/10/2009,12.0,15.5,8.8,0.0,Lumbier
Pirineo,22/10/2009,10.6,13.6,8.5,0.0,Lumbier
Pirineo,23/10/2009,11.4,16.1,7.1,18.2,Lumbier
Pirineo,24/10/2009,15.6,21.6,11.0,0.0,Lumbier
Pirineo,25/10/2009,15.8,19.9,10.6,0.0,Lumbier
Pirineo,26/10/2009,13.0,21.1,7.4,0.0,Lumbier
Pirineo,27/10/2009,12.3,23.0,4.6,0.0,Lumbier
Pirineo,28/10/2009,12.9,21.2,6.9,0.2,Lumbier
Pirineo,29/10/2009,13.0,19.8,10.0,0.0,Lumbier
Pirineo,30/10/2009,13.6,23.4,6.1,10.0,Lumbier
Pirineo,31/10/2009,15.7,22.9,10.2,0.0,Lumbier
Pirineo,01/11/2009,14.3,21.7,8.2,15.3,Lumbier
Pirineo,02/11/2009,10.2,13.4,8.4,0.0,Lumbier
Pirineo,03/11/2009,11.2,16.4,7.9,0.8,Lumbier
Pirineo,04/11/2009,10.0,13.6,6.0,2.5,Lumbier
Pirineo,05/11/2009,6.5,9.1,4.7,4.1,Lumbier
Pirineo,06/11/2009,7.1,9.2,4.8,8.2,Lumbier
Pirineo,07/11/2009,7.3,9.9,5.1,9.0,Lumbier
Pirineo,08/11/2009,6.0,7.7,4.3,39.8,Lumbier
Pirineo,09/11/2009,6.4,9.8,4.0,6.1,Lumbier
Pirineo,10/11/2009,5.8,11.1,0.8,2.5,Lumbier
Pirineo,11/11/2009,10.4,14.2,5.6,2.7,Lumbier
Pirineo,12/11/2009,9.6,17.4,5.1,0.4,Lumbier
Pirineo,13/11/2009,12.8,17.2,7.2,0.0,Lumbier
Pirineo,14/11/2009,15.8,18.3,11.8,0.0,Lumbier
Pirineo,15/11/2009,15.7,19.3,10.5,0.2,Lumbier
Pirineo,16/11/2009,18.1,20.0,15.6,0.0,Lumbier
Pirineo,17/11/2009,16.5,20.4,9.2,0.0,Lumbier
Pirineo,18/11/2009,9.4,15.2,5.6,0.0,Lumbier
Pirineo,19/11/2009,9.3,18.1,3.4,0.2,Lumbier
Pirineo,20/11/2009,10.5,18.8,4.7,0.2,Lumbier
Pirineo,21/11/2009,15.9,20.2,7.6,0.4,Lumbier
Pirineo,22/11/2009,11.0,15.4,3.2,0.2,Lumbier
Pirineo,23/11/2009,6.5,14.5,1.9,0.0,Lumbier
Pirineo,24/11/2009,4.5,13.3,-0.5,0.2,Lumbier
Pirineo,25/11/2009,8.5,13.7,1.4,0.2,Lumbier
Pirineo,26/11/2009,10.5,15.7,6.7,2.3,Lumbier
Pirineo,27/11/2009,6.5,11.7,1.5,0.0,Lumbier
Pirineo,28/11/2009,6.0,10.4,-0.3,0.2,Lumbier
Pirineo,29/11/2009,6.6,10.0,1.2,11.6,Lumbier
Pirineo,30/11/2009,2.1,4.8,0.1,24.3,Lumbier
Pirineo,01/12/2009,3.7,7.3,0.2,10.8,Lumbier
Pirineo,02/12/2009,7.1,12.7,2.7,1.8,Lumbier
Pirineo,03/12/2009,7.6,9.9,6.5,3.7,Lumbier
Pirineo,04/12/2009,7.9,10.6,4.5,3.7,Lumbier
Pirineo,05/12/2009,6.7,12.9,2.4,0.0,Lumbier
Pirineo,06/12/2009,10.4,12.1,6.9,0.2,Lumbier
Pirineo,07/12/2009,11.0,14.7,6.6,0.2,Lumbier
Pirineo,08/12/2009,6.9,12.7,3.2,0.0,Lumbier
Pirineo,09/12/2009,4.5,11.9,-0.4,0.4,Lumbier
Pirineo,10/12/2009,3.5,11.2,-1.1,0.2,Lumbier
Pirineo,11/12/2009,2.2,8.4,-0.8,0.4,Lumbier
Pirineo,12/12/2009,3.1,11.2,-2.7,0.2,Lumbier
Pirineo,13/12/2009,1.7,3.5,0.1,0.0,Lumbier
Pirineo,14/12/2009,0.4,3.6,-2.4,0.0,Lumbier
Pirineo,15/12/2009,0.9,3.2,-1.9,0.0,Lumbier
Pirineo,16/12/2009,-0.8,1.9,-3.0,0.0,Lumbier
Pirineo,17/12/2009,-1.0,1.9,-5.6,2.0,Lumbier
Pirineo,18/12/2009,-2.0,3.0,-6.6,0.4,Lumbier
Pirineo,19/12/2009,-2.9,-0.2,-5.7,0.0,Lumbier
Pirineo,20/12/2009,-1.2,5.0,-6.1,0.0,Lumbier
Pirineo,21/12/2009,5.3,9.3,0.2,6.1,Lumbier
Pirineo,22/12/2009,9.9,11.8,6.5,3.5,Lumbier
Pirineo,23/12/2009,5.3,9.2,1.7,24.7,Lumbier
Pirineo,24/12/2009,11.3,14.1,4.5,5.5,Lumbier
Pirineo,25/12/2009,5.9,9.4,2.5,0.6,Lumbier
Pirineo,26/12/2009,5.7,8.4,3.5,18.2,Lumbier
Pirineo,27/12/2009,4.5,8.8,-0.2,0.0,Lumbier
Pirineo,28/12/2009,9.0,11.9,6.0,4.9,Lumbier
Pirineo,29/12/2009,11.9,15.4,7.9,0.0,Lumbier
Pirineo,30/12/2009,11.9,14.5,8.0,5.1,Lumbier
Pirineo,31/12/2009,8.8,10.3,5.1,8.6,Lumbier
