Comarca,Fecha, Temperatura media, Temperatura maxima, Temperatura minima, Precipitacion acumulada,Localidad
Pirineo,01/01/2016,8.1,12.9,0.6,7.4,Lumbier
Pirineo,02/01/2016,6.0,10.1,-0.3,0.0,Lumbier
Pirineo,03/01/2016,4.1,7.2,-0.3,18.7,Lumbier
Pirineo,04/01/2016,6.9,8.2,6.0,22.3,Lumbier
Pirineo,05/01/2016,4.8,8.7,0.1,2.4,Lumbier
Pirineo,06/01/2016,5.1,8.8,0.3,3.2,Lumbier
Pirineo,07/01/2016,7.3,11.7,3.7,0.6,Lumbier
Pirineo,08/01/2016,12.9,14.9,9.0,1.6,Lumbier
Pirineo,09/01/2016,10.3,13.7,7.7,0.2,Lumbier
Pirineo,10/01/2016,12.2,14.2,10.2,0.2,Lumbier
Pirineo,11/01/2016,9.6,13.1,6.0,0.0,Lumbier
Pirineo,12/01/2016,5.7,9.6,2.4,0.0,Lumbier
Pirineo,13/01/2016,3.2,8.5,-2.3,0.0,Lumbier
Pirineo,14/01/2016,6.2,9.3,3.8,0.0,Lumbier
Pirineo,15/01/2016,3.4,6.6,-0.0,0.0,Lumbier
Pirineo,16/01/2016,1.4,4.1,-0.3,0.0,Lumbier
Pirineo,17/01/2016,2.2,7.2,-2.2,0.0,Lumbier
Pirineo,18/01/2016,4.0,6.2,2.5,0.0,Lumbier
Pirineo,19/01/2016,4.6,8.9,0.8,0.0,Lumbier
Pirineo,20/01/2016,3.1,10.4,-0.8,0.0,Lumbier
Pirineo,21/01/2016,2.0,10.4,-3.0,0.0,Lumbier
Pirineo,22/01/2016,4.8,8.0,0.4,0.0,Lumbier
Pirineo,23/01/2016,7.1,12.6,3.8,0.0,Lumbier
Pirineo,24/01/2016,7.6,15.7,4.3,0.0,Lumbier
Pirineo,25/01/2016,6.7,11.7,2.3,0.0,Lumbier
Pirineo,26/01/2016,8.0,8.9,7.1,0.0,Lumbier
Pirineo,27/01/2016,7.7,9.9,6.0,0.0,Lumbier
Pirineo,28/01/2016,7.4,10.1,5.7,0.6,Lumbier
Pirineo,29/01/2016,6.7,10.1,2.0,0.0,Lumbier
Pirineo,30/01/2016,5.0,9.9,1.3,0.0,Lumbier
Pirineo,31/01/2016,6.6,11.3,2.9,0.0,Lumbier
Pirineo,01/02/2016,11.2,16.1,5.1,0.0,Lumbier
Pirineo,02/02/2016,7.5,11.9,3.5,0.0,Lumbier
Pirineo,03/02/2016,7.1,9.2,3.7,0.0,Lumbier
Pirineo,04/02/2016,4.7,11.2,-1.0,0.0,Lumbier
Pirineo,05/02/2016,3.5,13.4,-3.8,0.0,Lumbier
Pirineo,06/02/2016,5.7,11.9,-4.0,0.0,Lumbier
Pirineo,07/02/2016,5.4,9.7,0.6,0.0,Lumbier
Pirineo,08/02/2016,7.8,15.0,0.6,0.0,Lumbier
Pirineo,09/02/2016,10.2,14.4,5.2,0.0,Lumbier
Pirineo,10/02/2016,5.6,7.7,4.1,0.0,Lumbier
Pirineo,11/02/2016,6.6,9.7,4.7,0.0,Lumbier
Pirineo,12/02/2016,9.4,12.5,5.6,0.0,Lumbier
Pirineo,13/02/2016,11.1,17.1,8.1,0.0,Lumbier
Pirineo,14/02/2016,5.9,9.1,2.5,0.0,Lumbier
Pirineo,15/02/2016,2.8,6.2,0.3,0.0,Lumbier
Pirineo,16/02/2016,1.9,4.5,-1.8,0.0,Lumbier
Pirineo,17/02/2016,1.2,7.1,-5.1,7.3,Lumbier
Pirineo,18/02/2016,2.8,8.0,-0.6,0.8,Lumbier
Pirineo,19/02/2016,2.6,9.7,-2.8,0.0,Lumbier
Pirineo,20/02/2016,3.6,13.2,-4.7,0.0,Lumbier
Pirineo,21/02/2016,5.9,17.0,-3.2,0.0,Lumbier
Pirineo,22/02/2016,6.3,14.1,-0.0,0.0,Lumbier
Pirineo,23/02/2016,8.1,11.7,4.5,0.0,Lumbier
Pirineo,24/02/2016,6.9,13.8,-0.3,1.6,Lumbier
Pirineo,25/02/2016,7.1,10.2,4.2,0.2,Lumbier
Pirineo,26/02/2016,6.3,12.1,0.9,5.5,Lumbier
Pirineo,27/02/2016,2.2,6.0,-0.0,23.0,Lumbier
Pirineo,28/02/2016,5.2,9.8,1.0,7.3,Lumbier
Pirineo,29/02/2016,5.1,7.8,3.6,0.2,Lumbier
Pirineo,01/03/2016,6.3,10.8,2.9,0.0,Lumbier
Pirineo,02/03/2016,7.2,11.0,3.8,1.4,Lumbier
Pirineo,03/03/2016,5.4,7.7,3.4,2.8,Lumbier
Pirineo,04/03/2016,6.6,13.4,1.6,3.2,Lumbier
Pirineo,05/03/2016,4.0,7.6,1.8,1.6,Lumbier
Pirineo,06/03/2016,2.5,5.9,0.1,5.4,Lumbier
Pirineo,07/03/2016,4.0,8.4,1.0,4.2,Lumbier
Pirineo,08/03/2016,4.6,8.2,0.7,0.0,Lumbier
Pirineo,09/03/2016,3.3,8.6,0.1,18.8,Lumbier
Pirineo,10/03/2016,3.1,8.0,-0.1,18.8,Lumbier
Pirineo,11/03/2016,5.4,8.6,1.4,0.0,Lumbier
Pirineo,12/03/2016,4.3,8.5,-0.6,0.0,Lumbier
Pirineo,13/03/2016,4.6,11.1,-2.0,0.0,Lumbier
Pirineo,14/03/2016,0.4,3.2,-0.1,9.7,Lumbier
Pirineo,15/03/2016,2.8,8.7,-0.1,23.4,Lumbier
Pirineo,16/03/2016,5.4,8.9,-0.9,0.2,Lumbier
Pirineo,17/03/2016,3.7,10.5,-2.8,0.0,Lumbier
Pirineo,18/03/2016,4.9,12.3,-3.3,0.4,Lumbier
Pirineo,19/03/2016,8.0,9.5,6.4,26.5,Lumbier
Pirineo,20/03/2016,8.0,13.3,2.2,0.0,Lumbier
Pirineo,21/03/2016,6.4,15.8,-1.4,0.4,Lumbier
Pirineo,22/03/2016,6.5,12.1,1.4,0.0,Lumbier
Pirineo,23/03/2016,7.9,11.6,3.4,0.0,Lumbier
Pirineo,24/03/2016,8.9,14.3,2.2,0.0,Lumbier
Pirineo,25/03/2016,7.6,13.0,0.6,0.0,Lumbier
Pirineo,26/03/2016,13.5,20.0,5.8,0.0,Lumbier
Pirineo,27/03/2016,9.9,14.7,3.9,8.7,Lumbier
Pirineo,28/03/2016,11.8,14.4,9.6,0.0,Lumbier
Pirineo,29/03/2016,12.5,17.1,8.9,0.2,Lumbier
Pirineo,30/03/2016,17.0,21.0,11.1,0.0,Lumbier
Pirineo,31/03/2016,9.1,16.7,4.0,2.6,Lumbier
Pirineo,01/04/2016,6.7,11.2,2.2,0.2,Lumbier
Pirineo,02/04/2016,8.6,16.5,-2.0,0.0,Lumbier
Pirineo,03/04/2016,13.1,16.9,9.3,0.4,Lumbier
Pirineo,04/04/2016,8.8,10.1,7.5,19.4,Lumbier
Pirineo,05/04/2016,8.8,11.9,4.7,1.0,Lumbier
Pirineo,06/04/2016,8.5,14.0,2.1,0.0,Lumbier
Pirineo,07/04/2016,8.0,12.4,3.1,0.0,Lumbier
Pirineo,08/04/2016,5.6,9.5,2.2,0.2,Lumbier
Pirineo,09/04/2016,8.5,14.5,3.9,0.0,Lumbier
Pirineo,10/04/2016,12.3,16.1,3.3,8.1,Lumbier
Pirineo,11/04/2016,11.0,15.0,6.0,0.4,Lumbier
Pirineo,12/04/2016,11.5,16.1,8.4,4.4,Lumbier
Pirineo,13/04/2016,11.3,16.7,5.6,0.2,Lumbier
Pirineo,14/04/2016,13.8,19.7,5.9,0.2,Lumbier
Pirineo,15/04/2016,15.5,21.8,8.6,0.4,Lumbier
Pirineo,16/04/2016,12.8,17.8,8.9,4.4,Lumbier
Pirineo,17/04/2016,11.5,17.7,5.9,0.0,Lumbier
Pirineo,18/04/2016,10.7,18.7,2.3,0.0,Lumbier
Pirineo,19/04/2016,12.1,18.3,2.8,0.0,Lumbier
Pirineo,20/04/2016,11.0,14.4,8.2,5.2,Lumbier
Pirineo,21/04/2016,12.0,17.4,6.4,2.4,Lumbier
Pirineo,22/04/2016,8.6,15.2,3.6,6.1,Lumbier
Pirineo,23/04/2016,9.9,17.3,3.4,0.2,Lumbier
Pirineo,24/04/2016,9.0,12.3,4.8,0.0,Lumbier
Pirineo,25/04/2016,9.0,15.2,2.9,0.0,Lumbier
Pirineo,26/04/2016,8.8,16.9,0.5,0.0,Lumbier
Pirineo,27/04/2016,9.1,15.6,2.1,0.0,Lumbier
Pirineo,28/04/2016,9.1,14.6,3.1,0.0,Lumbier
Pirineo,29/04/2016,10.0,18.4,-0.1,0.0,Lumbier
Pirineo,30/04/2016,7.2,9.6,3.7,6.3,Lumbier
Pirineo,01/05/2016,7.4,12.1,3.7,0.2,Lumbier
Pirineo,02/05/2016,10.6,17.4,4.2,0.0,Lumbier
Pirineo,03/05/2016,10.7,17.8,2.9,0.0,Lumbier
Pirineo,04/05/2016,13.7,25.2,1.1,0.0,Lumbier
Pirineo,05/05/2016,16.3,24.9,5.0,0.0,Lumbier
Pirineo,06/05/2016,15.6,20.6,12.4,3.4,Lumbier
Pirineo,07/05/2016,14.0,18.0,11.4,10.7,Lumbier
Pirineo,08/05/2016,14.1,16.7,11.7,9.5,Lumbier
Pirineo,09/05/2016,14.1,17.8,11.2,13.5,Lumbier
Pirineo,10/05/2016,14.0,18.7,9.3,9.7,Lumbier
Pirineo,11/05/2016,12.6,17.3,6.2,2.8,Lumbier
Pirineo,12/05/2016,9.6,15.3,4.5,0.4,Lumbier
Pirineo,13/05/2016,11.0,16.6,4.3,0.0,Lumbier
Pirineo,14/05/2016,12.7,16.0,10.2,0.0,Lumbier
Pirineo,15/05/2016,12.4,16.7,6.0,0.0,Lumbier
Pirineo,16/05/2016,11.6,17.7,3.9,0.0,Lumbier
Pirineo,17/05/2016,13.4,22.0,5.0,0.0,Lumbier
Pirineo,18/05/2016,13.2,22.6,5.1,0.0,Lumbier
Pirineo,19/05/2016,12.6,16.8,7.9,0.0,Lumbier
Pirineo,20/05/2016,16.3,26.5,7.0,0.0,Lumbier
Pirineo,21/05/2016,19.2,28.8,6.3,0.0,Lumbier
Pirineo,22/05/2016,12.9,19.9,5.3,10.5,Lumbier
Pirineo,23/05/2016,10.8,17.6,3.8,0.0,Lumbier
Pirineo,24/05/2016,15.5,24.5,5.5,0.0,Lumbier
Pirineo,25/05/2016,18.8,24.9,12.9,0.0,Lumbier
Pirineo,26/05/2016,18.2,26.2,12.6,0.2,Lumbier
Pirineo,27/05/2016,19.4,27.8,10.8,0.0,Lumbier
Pirineo,28/05/2016,16.4,25.6,8.4,0.2,Lumbier
Pirineo,29/05/2016,13.4,20.1,7.1,1.8,Lumbier
Pirineo,30/05/2016,13.9,19.4,9.5,0.0,Lumbier
Pirineo,31/05/2016,13.6,18.9,7.9,0.0,Lumbier
Pirineo,01/06/2016,13.9,21.3,6.8,0.0,Lumbier
Pirineo,02/06/2016,16.2,24.8,7.8,0.0,Lumbier
Pirineo,03/06/2016,18.2,28.5,7.0,0.0,Lumbier
Pirineo,04/06/2016,18.7,25.4,11.2,3.4,Lumbier
Pirineo,05/06/2016,19.4,28.7,9.7,0.0,Lumbier
Pirineo,06/06/2016,20.0,28.6,11.5,0.0,Lumbier
Pirineo,07/06/2016,20.7,30.0,11.0,0.0,Lumbier
Pirineo,08/06/2016,21.9,31.3,12.3,0.0,Lumbier
Pirineo,09/06/2016,21.6,30.7,12.5,2.0,Lumbier
Pirineo,10/06/2016,17.5,21.7,13.6,0.0,Lumbier
Pirineo,11/06/2016,16.5,23.7,9.3,0.0,Lumbier
Pirineo,12/06/2016,17.0,24.1,8.6,0.0,Lumbier
Pirineo,13/06/2016,18.5,24.6,13.7,0.0,Lumbier
Pirineo,14/06/2016,17.2,23.5,12.6,0.0,Lumbier
Pirineo,15/06/2016,16.2,25.4,8.6,0.2,Lumbier
Pirineo,16/06/2016,12.0,17.6,7.4,2.2,Lumbier
Pirineo,17/06/2016,11.9,19.3,6.0,4.6,Lumbier
Pirineo,18/06/2016,12.3,17.4,8.9,0.0,Lumbier
Pirineo,19/06/2016,14.2,18.5,9.4,0.0,Lumbier
Pirineo,20/06/2016,19.1,28.7,8.0,0.0,Lumbier
Pirineo,21/06/2016,23.0,33.3,10.4,0.0,Lumbier
Pirineo,22/06/2016,25.9,34.4,13.8,0.0,Lumbier
Pirineo,23/06/2016,26.8,33.9,17.6,0.0,Lumbier
Pirineo,24/06/2016,20.3,30.5,14.9,9.3,Lumbier
Pirineo,25/06/2016,16.9,21.1,12.9,0.0,Lumbier
Pirineo,26/06/2016,15.6,21.3,10.0,0.0,Lumbier
Pirineo,27/06/2016,18.0,27.1,8.6,0.0,Lumbier
Pirineo,28/06/2016,20.2,32.5,9.1,0.0,Lumbier
Pirineo,29/06/2016,19.7,29.5,13.9,0.4,Lumbier
Pirineo,30/06/2016,20.8,30.1,12.7,0.0,Lumbier
Pirineo,01/07/2016,21.2,31.9,14.1,0.0,Lumbier
Pirineo,02/07/2016,18.6,24.3,11.8,0.0,Lumbier
Pirineo,03/07/2016,19.7,29.2,9.8,0.0,Lumbier
Pirineo,04/07/2016,22.1,34.3,11.8,7.1,Lumbier
Pirineo,05/07/2016,20.7,26.4,15.8,0.0,Lumbier
Pirineo,06/07/2016,23.2,32.8,14.5,0.0,Lumbier
Pirineo,07/07/2016,25.0,32.0,17.7,2.4,Lumbier
Pirineo,08/07/2016,23.3,32.4,15.8,3.0,Lumbier
Pirineo,09/07/2016,25.1,34.5,16.1,0.0,Lumbier
Pirineo,10/07/2016,25.2,36.4,16.2,1.2,Lumbier
Pirineo,11/07/2016,20.8,30.1,16.1,0.0,Lumbier
Pirineo,12/07/2016,18.2,22.2,12.5,0.0,Lumbier
Pirineo,13/07/2016,15.8,19.9,12.4,0.0,Lumbier
Pirineo,14/07/2016,15.7,20.3,11.9,0.0,Lumbier
Pirineo,15/07/2016,17.1,26.7,6.6,0.0,Lumbier
Pirineo,16/07/2016,20.6,31.8,8.1,0.0,Lumbier
Pirineo,17/07/2016,24.0,35.1,10.8,0.0,Lumbier
Pirineo,18/07/2016,26.4,35.5,14.2,0.0,Lumbier
Pirineo,19/07/2016,27.8,37.7,14.9,0.0,Lumbier
Pirineo,20/07/2016,23.7,31.1,16.8,0.8,Lumbier
Pirineo,21/07/2016,21.3,30.8,16.4,0.0,Lumbier
Pirineo,22/07/2016,19.2,24.6,15.2,1.0,Lumbier
Pirineo,23/07/2016,19.8,26.5,13.1,0.0,Lumbier
Pirineo,24/07/2016,19.8,27.4,12.3,0.0,Lumbier
Pirineo,25/07/2016,21.0,30.9,11.9,0.0,Lumbier
Pirineo,26/07/2016,22.1,31.0,13.4,0.0,Lumbier
Pirineo,27/07/2016,20.1,27.0,13.4,0.0,Lumbier
Pirineo,28/07/2016,20.9,31.3,11.4,0.0,Lumbier
Pirineo,29/07/2016,22.2,32.4,11.7,0.6,Lumbier
Pirineo,30/07/2016,24.1,36.4,16.0,0.2,Lumbier
Pirineo,31/07/2016,20.0,25.3,15.9,0.0,Lumbier
Pirineo,01/08/2016,19.3,27.1,11.1,0.0,Lumbier
Pirineo,02/08/2016,21.1,32.9,9.5,0.0,Lumbier
Pirineo,03/08/2016,23.4,35.8,12.1,0.0,Lumbier
Pirineo,04/08/2016,21.9,31.0,15.6,0.0,Lumbier
Pirineo,05/08/2016,20.3,25.3,16.0,0.0,Lumbier
Pirineo,06/08/2016,21.0,28.9,12.5,0.0,Lumbier
Pirineo,07/08/2016,23.4,33.3,13.1,0.0,Lumbier
Pirineo,08/08/2016,21.8,31.8,12.5,0.0,Lumbier
Pirineo,09/08/2016,19.5,25.3,15.8,0.0,Lumbier
Pirineo,10/08/2016,17.9,23.9,12.8,0.0,Lumbier
Pirineo,11/08/2016,17.3,23.9,8.9,0.0,Lumbier
Pirineo,12/08/2016,20.6,32.1,8.2,0.0,Lumbier
Pirineo,13/08/2016,23.6,33.8,11.2,0.0,Lumbier
Pirineo,14/08/2016,25.3,34.2,13.9,0.0,Lumbier
Pirineo,15/08/2016,24.9,34.5,16.7,0.0,Lumbier
Pirineo,16/08/2016,24.3,33.1,13.4,0.0,Lumbier
Pirineo,17/08/2016,23.1,33.4,16.6,0.0,Lumbier
Pirineo,18/08/2016,21.9,29.1,15.0,0.0,Lumbier
Pirineo,19/08/2016,21.6,33.3,11.1,0.0,Lumbier
Pirineo,20/08/2016,18.9,22.8,14.8,2.6,Lumbier
Pirineo,21/08/2016,18.3,25.0,11.5,0.0,Lumbier
Pirineo,22/08/2016,21.7,33.6,9.5,0.0,Lumbier
Pirineo,23/08/2016,24.8,35.7,12.0,0.0,Lumbier
Pirineo,24/08/2016,25.4,34.7,13.7,0.0,Lumbier
Pirineo,25/08/2016,25.5,34.7,13.1,0.0,Lumbier
Pirineo,26/08/2016,25.3,34.0,13.9,0.0,Lumbier
Pirineo,27/08/2016,25.4,34.3,15.3,0.0,Lumbier
Pirineo,28/08/2016,21.9,31.4,16.7,0.0,Lumbier
Pirineo,29/08/2016,18.9,24.0,14.3,0.0,Lumbier
Pirineo,30/08/2016,19.5,28.8,12.0,0.0,Lumbier
Pirineo,31/08/2016,20.1,29.9,11.2,0.0,Lumbier
Pirineo,01/09/2016,22.4,31.9,13.9,0.0,Lumbier
Pirineo,02/09/2016,24.0,34.4,14.3,0.0,Lumbier
Pirineo,03/09/2016,24.6,34.6,14.8,0.0,Lumbier
Pirineo,04/09/2016,25.7,36.2,15.3,0.0,Lumbier
Pirineo,05/09/2016,23.7,31.1,16.0,0.0,Lumbier
Pirineo,06/09/2016,24.0,35.7,14.2,0.0,Lumbier
Pirineo,07/09/2016,23.9,33.8,12.7,0.0,Lumbier
Pirineo,08/09/2016,20.8,26.3,15.2,0.0,Lumbier
Pirineo,09/09/2016,18.9,26.8,14.1,0.0,Lumbier
Pirineo,10/09/2016,20.6,29.3,15.0,0.0,Lumbier
Pirineo,11/09/2016,22.1,31.6,11.6,0.0,Lumbier
Pirineo,12/09/2016,24.9,33.6,14.7,0.0,Lumbier
Pirineo,13/09/2016,20.5,27.8,12.7,40.8,Lumbier
Pirineo,14/09/2016,14.0,20.2,9.6,2.8,Lumbier
Pirineo,15/09/2016,13.5,17.6,9.5,9.7,Lumbier
Pirineo,16/09/2016,14.8,19.5,11.6,7.9,Lumbier
Pirineo,17/09/2016,13.5,16.7,11.3,0.6,Lumbier
Pirineo,18/09/2016,14.0,18.4,9.2,0.0,Lumbier
Pirineo,19/09/2016,15.2,20.7,9.7,0.0,Lumbier
Pirineo,20/09/2016,15.3,22.6,9.9,0.0,Lumbier
Pirineo,21/09/2016,15.9,24.6,7.9,0.0,Lumbier
Pirineo,22/09/2016,17.2,26.8,8.1,0.0,Lumbier
Pirineo,23/09/2016,18.6,25.6,13.9,0.0,Lumbier
Pirineo,24/09/2016,18.3,26.4,9.0,0.0,Lumbier
Pirineo,25/09/2016,17.4,22.9,11.5,0.0,Lumbier
Pirineo,26/09/2016,16.7,24.4,10.6,0.0,Lumbier
Pirineo,27/09/2016,16.4,21.5,10.1,0.0,Lumbier
Pirineo,28/09/2016,17.4,25.0,10.4,0.0,Lumbier
Pirineo,29/09/2016,16.8,26.5,8.0,0.0,Lumbier
Pirineo,30/09/2016,18.4,26.7,7.5,0.0,Lumbier
Pirineo,01/10/2016,18.1,23.1,13.0,0.2,Lumbier
Pirineo,02/10/2016,16.2,24.4,10.0,0.0,Lumbier
Pirineo,03/10/2016,17.9,26.9,9.1,0.0,Lumbier
Pirineo,04/10/2016,18.1,27.0,10.4,0.0,Lumbier
Pirineo,05/10/2016,16.7,22.8,12.3,0.0,Lumbier
Pirineo,06/10/2016,15.7,21.0,8.2,0.0,Lumbier
Pirineo,07/10/2016,13.2,22.9,4.7,0.0,Lumbier
Pirineo,08/10/2016,12.4,19.0,6.7,0.0,Lumbier
Pirineo,09/10/2016,11.1,18.0,5.5,0.0,Lumbier
Pirineo,10/10/2016,10.4,18.9,2.9,0.0,Lumbier
Pirineo,11/10/2016,9.8,19.0,0.8,0.0,Lumbier
Pirineo,12/10/2016,14.0,17.2,7.8,7.3,Lumbier
Pirineo,13/10/2016,12.6,15.4,10.1,0.0,Lumbier
Pirineo,14/10/2016,11.6,15.2,5.1,3.0,Lumbier
Pirineo,15/10/2016,12.0,20.0,1.7,0.2,Lumbier
Pirineo,16/10/2016,16.4,20.7,12.2,0.0,Lumbier
Pirineo,17/10/2016,14.4,18.3,12.0,6.5,Lumbier
Pirineo,18/10/2016,13.7,19.4,8.2,0.0,Lumbier
Pirineo,19/10/2016,10.6,18.7,5.3,0.2,Lumbier
Pirineo,20/10/2016,8.0,14.5,3.0,0.0,Lumbier
Pirineo,21/10/2016,7.9,17.2,0.5,0.0,Lumbier
Pirineo,22/10/2016,12.4,18.2,6.1,0.2,Lumbier
Pirineo,23/10/2016,16.3,19.0,13.1,31.2,Lumbier
Pirineo,24/10/2016,14.3,16.9,11.3,1.2,Lumbier
Pirineo,25/10/2016,15.3,23.1,10.6,2.6,Lumbier
Pirineo,26/10/2016,15.4,22.6,11.2,1.8,Lumbier
Pirineo,27/10/2016,13.7,22.5,7.7,0.2,Lumbier
Pirineo,28/10/2016,11.2,21.2,3.3,0.2,Lumbier
Pirineo,29/10/2016,10.7,22.4,4.5,0.2,Lumbier
Pirineo,30/10/2016,10.0,22.2,1.8,0.2,Lumbier
Pirineo,31/10/2016,9.2,17.8,1.4,0.2,Lumbier
Pirineo,01/11/2016,10.4,16.7,5.7,0.0,Lumbier
Pirineo,02/11/2016,9.8,19.6,5.5,0.0,Lumbier
Pirineo,03/11/2016,9.9,20.2,2.5,0.0,Lumbier
Pirineo,04/11/2016,8.1,14.1,3.2,5.9,Lumbier
Pirineo,05/11/2016,10.4,13.9,6.2,22.4,Lumbier
Pirineo,06/11/2016,6.4,8.6,4.5,0.0,Lumbier
Pirineo,07/11/2016,5.1,8.1,2.5,0.8,Lumbier
Pirineo,08/11/2016,4.6,7.0,2.1,2.8,Lumbier
Pirineo,09/11/2016,7.6,10.1,4.5,5.9,Lumbier
Pirineo,10/11/2016,8.8,11.3,6.6,0.2,Lumbier
Pirineo,11/11/2016,9.8,12.3,8.0,0.2,Lumbier
Pirineo,12/11/2016,9.8,13.7,5.5,1.8,Lumbier
Pirineo,13/11/2016,11.0,14.2,9.0,0.2,Lumbier
Pirineo,14/11/2016,9.2,12.3,6.2,0.0,Lumbier
Pirineo,15/11/2016,8.1,14.8,2.8,0.0,Lumbier
Pirineo,16/11/2016,6.8,15.7,0.2,0.0,Lumbier
Pirineo,17/11/2016,8.0,16.9,2.1,0.0,Lumbier
Pirineo,18/11/2016,7.8,12.8,4.0,0.0,Lumbier
Pirineo,19/11/2016,9.1,12.7,4.1,0.2,Lumbier
Pirineo,20/11/2016,10.9,11.5,10.0,11.9,Lumbier
Pirineo,21/11/2016,12.3,15.2,10.6,7.9,Lumbier
Pirineo,22/11/2016,8.3,10.8,6.2,23.8,Lumbier
Pirineo,23/11/2016,4.6,6.2,3.9,61.8,Lumbier
Pirineo,24/11/2016,5.8,9.6,1.2,1.4,Lumbier
Pirineo,25/11/2016,2.8,9.5,-0.9,0.2,Lumbier
Pirineo,26/11/2016,6.2,10.9,-0.6,3.2,Lumbier
Pirineo,27/11/2016,9.5,15.4,4.1,0.4,Lumbier
Pirineo,28/11/2016,5.0,12.2,-0.3,0.2,Lumbier
Pirineo,29/11/2016,5.6,12.1,-0.3,0.2,Lumbier
Pirineo,30/11/2016,9.1,12.8,3.1,0.0,Lumbier
Pirineo,01/12/2016,4.4,12.1,-0.7,0.2,Lumbier
Pirineo,02/12/2016,2.2,10.5,-1.6,0.2,Lumbier
Pirineo,03/12/2016,3.0,10.8,-0.5,0.4,Lumbier
Pirineo,04/12/2016,12.2,13.6,10.1,0.4,Lumbier
Pirineo,05/12/2016,9.6,15.2,3.6,0.0,Lumbier
Pirineo,06/12/2016,4.8,13.7,0.4,0.2,Lumbier
Pirineo,07/12/2016,3.2,8.7,-0.5,0.4,Lumbier
Pirineo,08/12/2016,4.3,9.8,1.4,0.2,Lumbier
Pirineo,09/12/2016,4.4,12.8,-1.1,0.4,Lumbier
Pirineo,10/12/2016,2.0,6.6,-0.3,0.4,Lumbier
Pirineo,11/12/2016,2.5,8.4,-0.1,0.2,Lumbier
Pirineo,12/12/2016,3.4,11.4,-0.2,0.2,Lumbier
Pirineo,13/12/2016,1.9,9.4,-1.1,0.4,Lumbier
Pirineo,14/12/2016,3.6,11.9,-1.4,0.2,Lumbier
Pirineo,15/12/2016,3.2,9.9,-2.7,0.2,Lumbier
Pirineo,16/12/2016,8.2,10.7,2.8,2.0,Lumbier
Pirineo,17/12/2016,3.5,8.9,-0.8,0.0,Lumbier
Pirineo,18/12/2016,0.7,8.0,-2.3,0.4,Lumbier
Pirineo,19/12/2016,2.5,8.4,-2.0,0.2,Lumbier
Pirineo,20/12/2016,5.2,7.5,3.1,0.0,Lumbier
Pirineo,21/12/2016,5.4,10.1,0.7,0.0,Lumbier
Pirineo,22/12/2016,4.4,7.8,0.8,1.2,Lumbier
Pirineo,23/12/2016,8.7,13.2,5.8,0.0,Lumbier
Pirineo,24/12/2016,9.3,13.0,5.8,0.0,Lumbier
Pirineo,25/12/2016,5.8,11.9,1.6,0.0,Lumbier
Pirineo,26/12/2016,3.8,11.7,-1.7,0.4,Lumbier
Pirineo,27/12/2016,2.5,10.5,-2.0,0.2,Lumbier
Pirineo,28/12/2016,-0.1,7.3,-3.6,0.2,Lumbier
Pirineo,29/12/2016,-1.4,8.0,-7.2,0.2,Lumbier
Pirineo,30/12/2016,-0.8,7.7,-5.7,0.2,Lumbier
Pirineo,31/12/2016,-2.1,5.6,-7.0,0.2,Lumbier
