Comarca,Fecha, Temperatura media, Temperatura maxima, Temperatura minima, Precipitacion acumulada,Localidad
Pirineo,01/01/2018,2.5,5.1,-2.5,15.9,Salazar
Pirineo,02/01/2018,4.7,8.4,1.6,15.0,Salazar
Pirineo,03/01/2018,8.6,11.9,4.2,1.8,Salazar
Pirineo,04/01/2018,8.8,10.7,6.0,0.1,Salazar
Pirineo,05/01/2018,6.1,7.8,1.5,15.1,Salazar
Pirineo,06/01/2018,-0.2,1.4,-0.8,71.5,Salazar
Pirineo,07/01/2018,0.7,3.4,-1.9,6.4,Salazar
Pirineo,08/01/2018,-3.2,3.6,-11.5,0.0,Salazar
Pirineo,09/01/2018,-3.3,2.9,-13.6,1.5,Salazar
Pirineo,10/01/2018,1.2,3.4,-0.3,4.1,Salazar
Pirineo,11/01/2018,-0.3,0.9,-3.8,11.6,Salazar
Pirineo,12/01/2018,0.6,3.7,-3.9,7.8,Salazar
Pirineo,13/01/2018,2.4,4.3,-0.1,5.3,Salazar
Pirineo,14/01/2018,0.3,2.0,-0.6,18.8,Salazar
Pirineo,15/01/2018,1.3,2.9,-0.6,2.8,Salazar
Pirineo,16/01/2018,3.5,6.6,0.7,1.3,Salazar
Pirineo,17/01/2018,2.6,6.1,-1.0,4.6,Salazar
Pirineo,18/01/2018,0.5,8.9,-5.1,0.0,Salazar
Pirineo,19/01/2018,3.5,5.0,2.2,4.5,Salazar
Pirineo,20/01/2018,4.0,6.7,-0.0,16.9,Salazar
Pirineo,21/01/2018,7.2,7.8,6.6,8.6,Salazar
Pirineo,22/01/2018,7.0,8.2,4.5,0.7,Salazar
Pirineo,23/01/2018,6.6,10.8,0.2,0.0,Salazar
Pirineo,24/01/2018,8.2,12.8,-1.5,0.0,Salazar
Pirineo,25/01/2018,5.4,8.9,0.3,7.9,Salazar
Pirineo,26/01/2018,0.8,1.5,0.2,9.2,Salazar
Pirineo,27/01/2018,-0.1,2.2,-5.7,5.7,Salazar
Pirineo,28/01/2018,-1.6,7.5,-7.4,0.0,Salazar
Pirineo,29/01/2018,0.8,11.2,-5.8,0.0,Salazar
Pirineo,30/01/2018,0.8,11.3,-4.8,0.0,Salazar
Pirineo,31/01/2018,0.8,9.8,-5.6,0.0,Salazar
Pirineo,01/02/2018,0.3,2.7,-1.7,11.4,Salazar
Pirineo,02/02/2018,-2.0,-0.7,-3.0,12.6,Salazar
Pirineo,03/02/2018,-0.6,1.2,-2.5,26.0,Salazar
Pirineo,04/02/2018,-0.2,1.1,-1.0,1.6,Salazar
Pirineo,05/02/2018,-1.4,0.1,-2.4,5.3,Salazar
Pirineo,06/02/2018,-3.4,-2.1,-4.5,2.9,Salazar
Pirineo,07/02/2018,-3.9,-2.6,-4.8,0.5,Salazar
Pirineo,08/02/2018,-4.8,-3.5,-12.0,0.5,Salazar
Pirineo,09/02/2018,-5.4,2.0,-15.5,10.8,Salazar
Pirineo,10/02/2018,-1.8,-0.2,-3.1,4.8,Salazar
Pirineo,11/02/2018,2.9,7.2,-0.7,0.0,Salazar
Pirineo,12/02/2018,-2.0,0.7,-11.8,7.8,Salazar
Pirineo,13/02/2018,-4.6,-0.0,-14.1,6.1,Salazar
Pirineo,14/02/2018,1.1,3.4,-0.9,7.7,Salazar
Pirineo,15/02/2018,3.7,7.9,1.2,0.0,Salazar
Pirineo,16/02/2018,6.4,12.5,2.4,0.0,Salazar
Pirineo,17/02/2018,3.4,6.2,1.2,2.5,Salazar
Pirineo,18/02/2018,2.7,5.4,0.7,2.8,Salazar
Pirineo,19/02/2018,4.8,6.6,2.8,12.6,Salazar
Pirineo,20/02/2018,4.0,5.3,2.6,15.7,Salazar
Pirineo,21/02/2018,-0.6,2.6,-2.6,9.3,Salazar
Pirineo,22/02/2018,-2.8,-0.0,-4.4,0.0,Salazar
Pirineo,23/02/2018,-4.7,-2.7,-8.0,0.0,Salazar
Pirineo,24/02/2018,-2.3,6.2,-9.5,0.0,Salazar
Pirineo,25/02/2018,0.0,8.8,-7.0,0.0,Salazar
Pirineo,26/02/2018,-1.9,3.1,-7.2,0.0,Salazar
Pirineo,27/02/2018,-6.3,-1.1,-12.9,0.0,Salazar
Pirineo,28/02/2018,0.2,4.2,-3.0,30.8,Salazar
Pirineo,01/03/2018,5.6,7.0,2.7,20.1,Salazar
Pirineo,02/03/2018,1.9,4.9,-2.1,7.1,Salazar
Pirineo,03/03/2018,5.4,8.3,2.2,15.7,Salazar
Pirineo,04/03/2018,5.3,8.6,0.1,11.6,Salazar
Pirineo,05/03/2018,3.0,6.4,0.3,15.3,Salazar
Pirineo,06/03/2018,1.4,4.9,-0.8,9.0,Salazar
Pirineo,07/03/2018,1.9,6.6,-2.1,0.0,Salazar
Pirineo,08/03/2018,5.7,9.3,3.5,0.0,Salazar
Pirineo,09/03/2018,8.4,10.7,6.5,11.1,Salazar
Pirineo,10/03/2018,8.7,10.4,7.0,18.7,Salazar
Pirineo,11/03/2018,5.9,7.5,3.4,0.7,Salazar
Pirineo,12/03/2018,3.9,7.7,0.2,1.7,Salazar
Pirineo,13/03/2018,2.9,6.1,0.5,1.4,Salazar
Pirineo,14/03/2018,5.3,7.5,1.7,21.6,Salazar
Pirineo,15/03/2018,4.1,7.9,1.4,5.9,Salazar
Pirineo,16/03/2018,2.7,7.1,-1.0,0.9,Salazar
Pirineo,17/03/2018,0.8,5.1,-1.3,4.6,Salazar
Pirineo,18/03/2018,0.2,1.8,-1.9,5.9,Salazar
Pirineo,19/03/2018,-0.8,2.4,-3.6,13.7,Salazar
Pirineo,20/03/2018,-3.3,-2.4,-4.4,3.8,Salazar
Pirineo,21/03/2018,-2.4,-0.3,-4.5,7.2,Salazar
Pirineo,22/03/2018,-1.2,2.3,-4.5,0.0,Salazar
Pirineo,23/03/2018,1.8,8.0,-8.2,11.4,Salazar
Pirineo,24/03/2018,1.5,4.4,-0.7,14.6,Salazar
Pirineo,25/03/2018,1.6,4.3,0.2,0.5,Salazar
Pirineo,26/03/2018,2.1,4.4,0.6,10.7,Salazar
Pirineo,27/03/2018,5.0,6.9,1.5,0.8,Salazar
Pirineo,28/03/2018,6.0,12.9,-1.1,0.4,Salazar
Pirineo,29/03/2018,5.1,8.6,-0.3,0.0,Salazar
Pirineo,30/03/2018,4.3,7.1,0.7,2.6,Salazar
Pirineo,31/03/2018,0.3,2.1,-2.6,16.4,Salazar
Pirineo,01/04/2018,4.3,11.1,-6.2,0.0,Salazar
Pirineo,02/04/2018,10.6,13.3,8.5,0.0,Salazar
Pirineo,03/04/2018,9.5,12.7,6.5,0.5,Salazar
Pirineo,04/04/2018,6.4,10.2,4.3,11.7,Salazar
Pirineo,05/04/2018,8.8,14.2,3.4,0.0,Salazar
Pirineo,06/04/2018,11.7,16.9,8.2,9.5,Salazar
Pirineo,07/04/2018,7.7,11.9,3.5,55.8,Salazar
Pirineo,08/04/2018,2.8,7.7,-0.4,24.2,Salazar
Pirineo,09/04/2018,2.8,8.4,-1.7,4.9,Salazar
Pirineo,10/04/2018,1.6,2.4,0.6,37.6,Salazar
Pirineo,11/04/2018,2.6,5.5,0.2,31.6,Salazar
Pirineo,12/04/2018,4.4,8.3,0.3,18.2,Salazar
Pirineo,13/04/2018,5.9,8.2,4.8,0.1,Salazar
Pirineo,14/04/2018,6.9,12.9,0.2,0.5,Salazar
Pirineo,15/04/2018,8.2,13.3,2.7,0.1,Salazar
Pirineo,16/04/2018,5.4,9.8,0.2,12.1,Salazar
Pirineo,17/04/2018,9.5,19.6,-1.3,0.0,Salazar
Pirineo,18/04/2018,13.2,20.0,2.4,0.0,Salazar
Pirineo,19/04/2018,14.8,19.5,9.6,0.0,Salazar
Pirineo,20/04/2018,12.8,18.4,3.7,0.0,Salazar
Pirineo,21/04/2018,14.0,18.6,7.4,0.0,Salazar
Pirineo,22/04/2018,14.6,19.3,5.6,0.2,Salazar
Pirineo,23/04/2018,11.1,18.4,3.8,0.0,Salazar
Pirineo,24/04/2018,12.5,21.8,1.9,0.0,Salazar
Pirineo,25/04/2018,9.6,18.1,3.0,0.0,Salazar
Pirineo,26/04/2018,7.7,12.6,1.7,0.0,Salazar
Pirineo,27/04/2018,8.1,14.0,1.7,0.0,Salazar
Pirineo,28/04/2018,7.6,14.0,4.1,32.8,Salazar
Pirineo,29/04/2018,4.8,7.7,2.1,15.0,Salazar
Pirineo,30/04/2018,3.1,8.8,0.3,1.7,Salazar
Pirineo,01/05/2018,2.6,7.1,-4.0,4.2,Salazar
Pirineo,02/05/2018,4.4,11.1,-4.8,1.2,Salazar
Pirineo,03/05/2018,4.3,7.0,2.6,4.3,Salazar
Pirineo,04/05/2018,5.8,9.0,3.4,2.1,Salazar
Pirineo,05/05/2018,9.2,15.2,2.1,0.0,Salazar
Pirineo,06/05/2018,11.3,19.6,2.0,0.0,Salazar
Pirineo,07/05/2018,12.4,20.4,4.0,7.0,Salazar
Pirineo,08/05/2018,9.6,14.8,3.2,0.1,Salazar
Pirineo,09/05/2018,9.4,13.0,6.2,0.0,Salazar
Pirineo,10/05/2018,6.8,10.3,1.6,0.0,Salazar
Pirineo,11/05/2018,13.1,19.1,1.8,0.0,Salazar
Pirineo,12/05/2018,6.7,12.8,1.2,12.5,Salazar
Pirineo,13/05/2018,2.8,6.3,0.3,2.9,Salazar
Pirineo,14/05/2018,3.8,6.4,1.3,2.3,Salazar
Pirineo,15/05/2018,5.1,6.7,3.8,1.4,Salazar
Pirineo,16/05/2018,7.8,13.0,2.1,0.0,Salazar
Pirineo,17/05/2018,9.5,17.1,2.0,0.0,Salazar
Pirineo,18/05/2018,10.2,17.0,2.7,0.0,Salazar
Pirineo,19/05/2018,9.7,16.5,1.1,0.0,Salazar
Pirineo,20/05/2018,10.1,16.0,1.3,0.4,Salazar
Pirineo,21/05/2018,11.2,16.8,3.1,7.1,Salazar
Pirineo,22/05/2018,9.9,17.8,1.6,0.1,Salazar
Pirineo,23/05/2018,11.9,17.9,2.3,0.1,Salazar
Pirineo,24/05/2018,14.8,20.8,8.3,0.9,Salazar
Pirineo,25/05/2018,14.6,19.4,8.2,0.8,Salazar
Pirineo,26/05/2018,12.0,16.1,8.4,40.5,Salazar
Pirineo,27/05/2018,13.4,19.7,6.6,0.0,Salazar
Pirineo,28/05/2018,11.2,14.3,9.4,3.8,Salazar
Pirineo,29/05/2018,11.4,16.3,8.4,21.6,Salazar
Pirineo,30/05/2018,11.5,16.3,9.0,4.9,Salazar
Pirineo,31/05/2018,12.2,16.0,7.4,0.4,Salazar
Pirineo,01/06/2018,13.7,19.6,8.6,22.5,Salazar
Pirineo,02/06/2018,13.8,20.2,8.9,5.6,Salazar
Pirineo,03/06/2018,12.5,18.6,6.7,11.9,Salazar
Pirineo,04/06/2018,11.9,16.3,8.5,3.4,Salazar
Pirineo,05/06/2018,9.8,11.6,6.8,6.8,Salazar
Pirineo,06/06/2018,9.7,13.1,5.5,2.3,Salazar
Pirineo,07/06/2018,12.0,17.1,6.4,0.5,Salazar
Pirineo,08/06/2018,13.4,17.5,4.3,14.7,Salazar
Pirineo,09/06/2018,14.2,18.1,11.5,19.3,Salazar
Pirineo,10/06/2018,12.9,17.1,8.3,0.0,Salazar
Pirineo,11/06/2018,10.8,15.7,4.2,0.0,Salazar
Pirineo,12/06/2018,9.3,11.1,4.1,24.3,Salazar
Pirineo,13/06/2018,10.0,11.3,9.3,8.5,Salazar
Pirineo,14/06/2018,10.2,12.9,8.1,0.7,Salazar
Pirineo,15/06/2018,11.5,16.6,5.6,0.0,Salazar
Pirineo,16/06/2018,11.4,15.2,5.8,0.0,Salazar
Pirineo,17/06/2018,10.6,15.4,5.2,0.0,Salazar
Pirineo,18/06/2018,11.6,16.2,4.5,0.0,Salazar
Pirineo,19/06/2018,15.1,21.4,8.4,0.0,Salazar
Pirineo,20/06/2018,19.6,26.5,7.3,0.0,Salazar
Pirineo,21/06/2018,18.8,25.9,11.4,0.0,Salazar
Pirineo,22/06/2018,16.4,20.5,9.5,0.0,Salazar
Pirineo,23/06/2018,14.4,22.1,4.9,0.0,Salazar
Pirineo,24/06/2018,15.4,24.2,4.2,0.0,Salazar
Pirineo,25/06/2018,15.9,23.8,5.0,0.0,Salazar
Pirineo,26/06/2018,17.4,26.2,6.6,0.0,Salazar
Pirineo,27/06/2018,16.9,24.9,9.3,1.3,Salazar
Pirineo,28/06/2018,15.7,19.8,10.8,0.0,Salazar
Pirineo,29/06/2018,18.3,25.0,12.2,4.3,Salazar
Pirineo,30/06/2018,20.1,27.0,13.6,0.3,Salazar
Pirineo,01/07/2018,18.9,26.2,11.4,26.9,Salazar
Pirineo,02/07/2018,17.3,23.5,10.4,0.0,Salazar
Pirineo,03/07/2018,17.4,25.0,8.7,0.0,Salazar
Pirineo,04/07/2018,17.1,25.7,12.1,3.5,Salazar
Pirineo,05/07/2018,13.4,17.6,11.0,0.7,Salazar
Pirineo,06/07/2018,14.1,19.9,6.0,0.0,Salazar
Pirineo,07/07/2018,17.0,24.8,7.9,0.7,Salazar
Pirineo,08/07/2018,18.5,25.1,12.2,0.7,Salazar
Pirineo,09/07/2018,17.5,22.4,11.9,0.0,Salazar
Pirineo,10/07/2018,16.4,21.6,8.6,0.0,Salazar
Pirineo,11/07/2018,15.4,22.1,6.7,0.0,Salazar
Pirineo,12/07/2018,15.2,21.0,9.0,0.1,Salazar
Pirineo,13/07/2018,17.2,26.0,9.2,28.5,Salazar
Pirineo,14/07/2018,18.6,27.4,10.3,15.4,Salazar
Pirineo,15/07/2018,18.0,26.0,9.2,0.0,Salazar
Pirineo,16/07/2018,14.4,16.8,12.4,1.5,Salazar
Pirineo,17/07/2018,15.5,22.9,6.0,0.0,Salazar
Pirineo,18/07/2018,18.1,25.7,9.2,0.3,Salazar
Pirineo,19/07/2018,17.6,27.1,6.6,0.0,Salazar
Pirineo,20/07/2018,15.0,17.9,11.6,0.1,Salazar
Pirineo,21/07/2018,13.3,16.6,10.7,0.2,Salazar
Pirineo,22/07/2018,13.5,19.5,6.1,0.0,Salazar
Pirineo,23/07/2018,16.9,26.8,5.3,0.0,Salazar
Pirineo,24/07/2018,17.8,25.3,10.2,0.0,Salazar
Pirineo,25/07/2018,19.1,27.0,11.9,0.0,Salazar
Pirineo,26/07/2018,19.8,29.9,11.2,0.0,Salazar
Pirineo,27/07/2018,20.1,28.2,13.3,0.0,Salazar
Pirineo,28/07/2018,16.7,21.1,9.6,0.0,Salazar
Pirineo,29/07/2018,18.8,26.3,8.9,0.0,Salazar
Pirineo,30/07/2018,19.3,28.9,9.0,0.0,Salazar
Pirineo,31/07/2018,18.1,23.3,12.6,0.0,Salazar
Pirineo,01/08/2018,19.7,28.5,14.4,0.0,Salazar
Pirineo,02/08/2018,20.7,30.0,11.7,0.0,Salazar
Pirineo,03/08/2018,19.9,28.1,9.4,0.0,Salazar
Pirineo,04/08/2018,19.7,26.3,10.0,0.0,Salazar
Pirineo,05/08/2018,18.9,28.1,8.6,0.0,Salazar
Pirineo,06/08/2018,21.5,31.7,10.3,0.0,Salazar
Pirineo,07/08/2018,20.6,28.4,12.8,0.2,Salazar
Pirineo,08/08/2018,18.8,27.5,13.4,34.5,Salazar
Pirineo,09/08/2018,13.5,19.1,10.3,0.4,Salazar
Pirineo,10/08/2018,14.3,22.5,7.4,0.0,Salazar
Pirineo,11/08/2018,17.9,27.1,7.8,0.0,Salazar
Pirineo,12/08/2018,21.3,27.7,13.6,0.0,Salazar
Pirineo,13/08/2018,15.0,20.7,8.2,0.0,Salazar
Pirineo,14/08/2018,13.4,16.7,8.8,1.0,Salazar
Pirineo,15/08/2018,14.3,23.3,4.3,0.0,Salazar
Pirineo,16/08/2018,16.9,25.4,7.6,0.0,Salazar
Pirineo,17/08/2018,13.4,16.6,8.5,0.0,Salazar
Pirineo,18/08/2018,12.5,18.8,4.2,0.0,Salazar
Pirineo,19/08/2018,14.0,22.1,4.5,0.0,Salazar
Pirineo,20/08/2018,14.6,23.2,4.8,0.0,Salazar
Pirineo,21/08/2018,16.4,26.3,6.6,0.0,Salazar
Pirineo,22/08/2018,18.3,27.9,7.7,0.0,Salazar
Pirineo,23/08/2018,17.8,22.9,13.9,0.0,Salazar
Pirineo,24/08/2018,14.1,17.4,9.7,0.8,Salazar
Pirineo,25/08/2018,12.0,15.9,8.7,0.0,Salazar
Pirineo,26/08/2018,14.0,24.0,4.1,0.0,Salazar
Pirineo,27/08/2018,16.6,28.0,5.2,0.0,Salazar
Pirineo,28/08/2018,21.2,29.3,9.9,2.4,Salazar
Pirineo,29/08/2018,15.3,20.9,8.1,0.0,Salazar
Pirineo,30/08/2018,13.9,21.5,5.6,0.0,Salazar
Pirineo,31/08/2018,13.6,19.8,5.9,0.0,Salazar
Pirineo,01/09/2018,14.7,22.2,5.4,0.0,Salazar
Pirineo,02/09/2018,13.8,25.8,1.0,0.0,Salazar
Pirineo,03/09/2018,14.3,24.2,3.5,0.0,Salazar
Pirineo,04/09/2018,16.3,22.4,8.5,2.1,Salazar
Pirineo,05/09/2018,15.0,20.3,11.5,18.0,Salazar
Pirineo,06/09/2018,13.8,17.8,11.4,0.0,Salazar
Pirineo,07/09/2018,12.8,18.7,6.4,0.0,Salazar
Pirineo,08/09/2018,17.1,24.5,6.1,8.9,Salazar
Pirineo,09/09/2018,15.3,21.8,10.8,1.6,Salazar
Pirineo,10/09/2018,14.2,20.5,7.5,0.0,Salazar
Pirineo,11/09/2018,14.5,23.6,6.9,4.2,Salazar
Pirineo,12/09/2018,16.8,22.3,11.1,0.3,Salazar
Pirineo,13/09/2018,13.8,16.8,8.7,0.0,Salazar
Pirineo,14/09/2018,14.0,20.7,5.9,0.0,Salazar
Pirineo,15/09/2018,13.6,23.2,3.6,0.0,Salazar
Pirineo,16/09/2018,15.9,25.4,6.9,0.0,Salazar
Pirineo,17/09/2018,20.2,26.4,10.5,0.0,Salazar
Pirineo,18/09/2018,18.0,24.0,10.6,0.0,Salazar
Pirineo,19/09/2018,15.8,25.8,7.1,0.0,Salazar
Pirineo,20/09/2018,16.3,27.0,7.2,0.0,Salazar
Pirineo,21/09/2018,16.3,21.6,9.6,0.0,Salazar
Pirineo,22/09/2018,15.8,24.8,6.9,0.0,Salazar
Pirineo,23/09/2018,16.4,27.2,6.0,0.0,Salazar
Pirineo,24/09/2018,11.6,15.5,5.3,0.0,Salazar
Pirineo,25/09/2018,9.9,18.9,0.9,0.0,Salazar
Pirineo,26/09/2018,16.5,21.3,12.0,0.0,Salazar
Pirineo,27/09/2018,15.8,24.7,6.2,0.0,Salazar
Pirineo,28/09/2018,13.6,23.2,4.0,0.0,Salazar
Pirineo,29/09/2018,11.7,18.8,0.4,0.0,Salazar
Pirineo,30/09/2018,8.7,19.5,-3.9,0.0,Salazar
Pirineo,01/10/2018,7.9,9.3,5.3,0.0,Salazar
Pirineo,02/10/2018,8.2,13.1,4.3,0.0,Salazar
Pirineo,03/10/2018,11.3,20.2,1.2,0.0,Salazar
Pirineo,04/10/2018,10.8,22.1,-2.3,0.0,Salazar
Pirineo,05/10/2018,14.7,21.9,3.9,0.0,Salazar
Pirineo,06/10/2018,13.4,21.3,6.3,1.2,Salazar
Pirineo,07/10/2018,6.8,9.2,5.3,13.0,Salazar
Pirineo,08/10/2018,8.5,13.4,4.4,2.2,Salazar
Pirineo,09/10/2018,8.1,14.3,0.5,0.8,Salazar
Pirineo,10/10/2018,11.4,13.4,8.6,7.1,Salazar
Pirineo,11/10/2018,14.6,16.7,12.5,1.2,Salazar
Pirineo,12/10/2018,16.6,19.0,14.7,0.0,Salazar
Pirineo,13/10/2018,17.4,20.5,15.5,0.0,Salazar
Pirineo,14/10/2018,12.2,16.6,7.7,30.3,Salazar
Pirineo,15/10/2018,8.7,15.6,2.7,1.1,Salazar
Pirineo,16/10/2018,8.0,16.6,1.6,0.0,Salazar
Pirineo,17/10/2018,8.9,17.9,2.0,0.0,Salazar
Pirineo,18/10/2018,9.9,17.2,1.5,0.0,Salazar
Pirineo,19/10/2018,11.7,18.2,5.7,0.0,Salazar
Pirineo,20/10/2018,11.5,18.2,6.4,0.0,Salazar
Pirineo,21/10/2018,10.1,19.3,3.3,0.0,Salazar
Pirineo,22/10/2018,9.1,15.0,2.6,0.0,Salazar
Pirineo,23/10/2018,7.7,17.0,-0.9,0.0,Salazar
Pirineo,24/10/2018,7.6,20.2,-1.2,0.0,Salazar
Pirineo,25/10/2018,9.1,23.6,-0.5,0.0,Salazar
Pirineo,26/10/2018,8.7,18.0,1.6,0.0,Salazar
Pirineo,27/10/2018,3.5,6.4,1.0,0.2,Salazar
Pirineo,28/10/2018,-0.3,1.6,-1.3,0.9,Salazar
Pirineo,29/10/2018,-0.3,1.2,-1.2,21.3,Salazar
Pirineo,30/10/2018,1.2,5.1,-7.7,9.6,Salazar
Pirineo,31/10/2018,4.0,5.8,0.3,16.0,Salazar
Pirineo,01/11/2018,3.4,7.1,0.3,1.3,Salazar
Pirineo,02/11/2018,5.3,7.3,3.2,9.4,Salazar
Pirineo,03/11/2018,3.5,9.0,-1.1,0.0,Salazar
Pirineo,04/11/2018,6.3,13.6,-4.0,0.0,Salazar
Pirineo,05/11/2018,7.6,10.8,4.6,16.0,Salazar
Pirineo,06/11/2018,4.0,5.6,1.9,14.0,Salazar
Pirineo,07/11/2018,5.5,8.9,-0.1,10.2,Salazar
Pirineo,08/11/2018,6.0,8.4,-1.7,7.5,Salazar
Pirineo,09/11/2018,5.6,8.2,4.0,10.4,Salazar
Pirineo,10/11/2018,8.0,9.9,5.4,3.9,Salazar
Pirineo,11/11/2018,10.7,12.5,8.2,0.0,Salazar
Pirineo,12/11/2018,11.6,13.6,8.6,1.6,Salazar
Pirineo,13/11/2018,8.4,15.2,4.4,0.1,Salazar
Pirineo,14/11/2018,9.6,13.9,3.6,0.0,Salazar
Pirineo,15/11/2018,9.5,13.5,4.0,0.0,Salazar
Pirineo,16/11/2018,8.0,13.6,1.7,0.0,Salazar
Pirineo,17/11/2018,7.6,13.2,1.8,0.0,Salazar
Pirineo,18/11/2018,6.3,8.3,4.6,12.6,Salazar
Pirineo,19/11/2018,3.6,10.2,-3.6,0.0,Salazar
Pirineo,20/11/2018,0.2,1.9,-3.5,9.0,Salazar
Pirineo,21/11/2018,5.2,7.7,1.6,7.3,Salazar
Pirineo,22/11/2018,5.8,7.4,4.2,0.0,Salazar
Pirineo,23/11/2018,4.2,6.9,0.6,12.4,Salazar
Pirineo,24/11/2018,3.7,8.0,-1.3,0.0,Salazar
Pirineo,25/11/2018,2.9,6.1,-1.6,8.6,Salazar
Pirineo,26/11/2018,1.8,3.4,0.0,12.6,Salazar
Pirineo,27/11/2018,3.3,10.4,-1.9,0.0,Salazar
Pirineo,28/11/2018,2.8,13.1,-2.4,0.0,Salazar
Pirineo,29/11/2018,8.0,11.9,3.9,12.7,Salazar
Pirineo,30/11/2018,4.2,6.1,-0.1,8.1,Salazar
Pirineo,01/12/2018,3.0,6.1,-1.5,5.1,Salazar
Pirineo,02/12/2018,6.2,11.1,2.1,0.1,Salazar
Pirineo,03/12/2018,6.7,13.2,1.6,0.3,Salazar
Pirineo,04/12/2018,7.7,16.0,1.9,0.0,Salazar
Pirineo,05/12/2018,6.7,16.4,-0.0,0.0,Salazar
Pirineo,06/12/2018,6.3,9.5,2.4,0.0,Salazar
Pirineo,07/12/2018,4.2,12.7,-4.5,2.2,Salazar
Pirineo,08/12/2018,3.5,7.0,-0.8,2.5,Salazar
Pirineo,09/12/2018,6.0,8.2,2.3,0.0,Salazar
Pirineo,10/12/2018,3.7,8.0,-2.5,0.0,Salazar
Pirineo,11/12/2018,2.0,12.9,-4.1,0.0,Salazar
Pirineo,12/12/2018,5.7,7.1,3.5,2.2,Salazar
Pirineo,13/12/2018,4.0,5.5,2.8,18.3,Salazar
Pirineo,14/12/2018,3.7,4.5,1.2,18.8,Salazar
Pirineo,15/12/2018,4.5,9.1,-0.9,0.3,Salazar
Pirineo,16/12/2018,5.6,7.9,1.7,23.9,Salazar
Pirineo,17/12/2018,3.1,6.5,-0.5,0.3,Salazar
Pirineo,18/12/2018,6.5,8.5,4.4,0.5,Salazar
Pirineo,19/12/2018,2.7,6.2,-2.4,0.8,Salazar
Pirineo,20/12/2018,4.2,7.8,-1.5,0.0,Salazar
Pirineo,21/12/2018,6.5,9.1,3.7,0.0,Salazar
Pirineo,22/12/2018,6.9,12.9,1.1,0.0,Salazar
Pirineo,23/12/2018,4.3,13.8,-1.1,0.0,Salazar
Pirineo,24/12/2018,2.9,13.2,-3.0,0.0,Salazar
Pirineo,25/12/2018,3.7,15.0,-1.2,0.0,Salazar
Pirineo,26/12/2018,2.6,11.5,-3.6,0.0,Salazar
Pirineo,27/12/2018,1.4,12.6,-5.6,0.0,Salazar
Pirineo,28/12/2018,4.0,8.2,-4.2,0.0,Salazar
Pirineo,29/12/2018,2.1,8.3,-4.5,0.0,Salazar
Pirineo,30/12/2018,1.3,15.5,-6.1,0.0,Salazar
Pirineo,31/12/2018,5.2,15.9,-3.8,0.0,Salazar
