Comarca,Fecha, Temperatura media, Temperatura maxima, Temperatura minima, Precipitacion acumulada,Localidad
Pirineo,01/01/2017,-3.9,7.4,-10.0,0.0,Salazar
Pirineo,02/01/2017,1.7,7.5,-5.6,0.0,Salazar
Pirineo,03/01/2017,-1.5,9.9,-7.8,0.0,Salazar
Pirineo,04/01/2017,-0.4,6.8,-9.8,0.0,Salazar
Pirineo,05/01/2017,0.1,3.9,-4.5,0.0,Salazar
Pirineo,06/01/2017,-3.8,9.1,-11.6,0.0,Salazar
Pirineo,07/01/2017,-1.4,9.8,-8.9,0.0,Salazar
Pirineo,08/01/2017,0.4,8.0,-8.1,0.0,Salazar
Pirineo,09/01/2017,2.4,5.3,0.1,0.0,Salazar
Pirineo,10/01/2017,2.4,3.6,0.5,34.3,Salazar
Pirineo,11/01/2017,4.7,8.0,0.3,13.1,Salazar
Pirineo,12/01/2017,6.3,10.6,1.0,1.4,Salazar
Pirineo,13/01/2017,-0.5,2.7,-2.0,16.0,Salazar
Pirineo,14/01/2017,-1.6,-0.5,-2.5,8.4,Salazar
Pirineo,15/01/2017,-0.1,0.6,-0.7,40.7,Salazar
Pirineo,16/01/2017,2.2,3.6,-0.3,60.2,Salazar
Pirineo,17/01/2017,-5.0,-0.4,-8.1,0.3,Salazar
Pirineo,18/01/2017,-9.2,-6.0,-12.2,0.0,Salazar
Pirineo,19/01/2017,-8.8,1.6,-16.4,0.0,Salazar
Pirineo,20/01/2017,-7.8,3.8,-15.0,0.0,Salazar
Pirineo,21/01/2017,-5.6,6.4,-12.8,0.0,Salazar
Pirineo,22/01/2017,-1.7,4.8,-10.6,0.0,Salazar
Pirineo,23/01/2017,-1.4,3.1,-9.9,0.0,Salazar
Pirineo,24/01/2017,-1.2,4.1,-7.4,0.0,Salazar
Pirineo,25/01/2017,-4.9,0.0,-14.3,0.0,Salazar
Pirineo,26/01/2017,-0.2,3.0,-11.9,0.0,Salazar
Pirineo,27/01/2017,2.7,3.8,0.4,4.2,Salazar
Pirineo,28/01/2017,1.3,5.7,-5.3,0.8,Salazar
Pirineo,29/01/2017,1.8,7.0,-6.1,0.4,Salazar
Pirineo,30/01/2017,4.2,7.5,1.5,0.0,Salazar
Pirineo,31/01/2017,7.4,11.9,-0.8,0.0,Salazar
Pirineo,01/02/2017,9.1,11.8,6.6,0.7,Salazar
Pirineo,02/02/2017,4.9,7.3,2.0,18.2,Salazar
Pirineo,03/02/2017,3.9,6.2,1.9,18.2,Salazar
Pirineo,04/02/2017,6.0,8.1,4.1,21.7,Salazar
Pirineo,05/02/2017,2.1,7.6,-0.5,23.8,Salazar
Pirineo,06/02/2017,2.8,6.4,0.1,11.8,Salazar
Pirineo,07/02/2017,3.2,5.5,-0.8,8.3,Salazar
Pirineo,08/02/2017,-0.3,0.9,-1.3,19.3,Salazar
Pirineo,09/02/2017,-1.2,4.1,-9.5,0.0,Salazar
Pirineo,10/02/2017,2.9,6.5,-3.2,0.0,Salazar
Pirineo,11/02/2017,1.0,5.5,-5.0,2.1,Salazar
Pirineo,12/02/2017,6.9,8.4,4.2,0.0,Salazar
Pirineo,13/02/2017,6.6,9.6,2.4,11.8,Salazar
Pirineo,14/02/2017,4.3,9.5,-1.9,0.0,Salazar
Pirineo,15/02/2017,6.5,11.8,-0.2,0.0,Salazar
Pirineo,16/02/2017,4.8,11.0,-2.1,0.0,Salazar
Pirineo,17/02/2017,3.1,12.7,-3.2,0.0,Salazar
Pirineo,18/02/2017,2.4,12.6,-4.6,0.0,Salazar
Pirineo,19/02/2017,3.3,9.7,-3.9,0.0,Salazar
Pirineo,20/02/2017,3.3,9.3,-3.2,0.0,Salazar
Pirineo,21/02/2017,2.7,13.1,-4.5,0.0,Salazar
Pirineo,22/02/2017,5.0,16.6,-3.7,0.0,Salazar
Pirineo,23/02/2017,8.2,15.5,1.9,0.0,Salazar
Pirineo,24/02/2017,2.9,5.6,0.2,0.1,Salazar
Pirineo,25/02/2017,4.0,15.7,-4.4,0.0,Salazar
Pirineo,26/02/2017,4.2,14.4,-4.2,0.0,Salazar
Pirineo,27/02/2017,6.7,10.7,-2.3,0.0,Salazar
Pirineo,28/02/2017,3.3,6.4,-0.2,7.3,Salazar
Pirineo,01/03/2017,3.7,10.4,-2.1,0.1,Salazar
Pirineo,02/03/2017,6.6,12.9,-1.5,0.0,Salazar
Pirineo,03/03/2017,7.9,12.6,-0.1,39.8,Salazar
Pirineo,04/03/2017,-0.5,3.0,-4.0,3.2,Salazar
Pirineo,05/03/2017,1.8,5.5,-2.1,6.3,Salazar
Pirineo,06/03/2017,6.1,9.6,3.3,4.2,Salazar
Pirineo,07/03/2017,5.5,7.8,2.6,9.2,Salazar
Pirineo,08/03/2017,8.2,16.2,-0.4,0.0,Salazar
Pirineo,09/03/2017,8.4,21.4,-1.5,0.0,Salazar
Pirineo,10/03/2017,7.9,21.4,-2.6,0.0,Salazar
Pirineo,11/03/2017,9.2,20.4,-1.4,0.0,Salazar
Pirineo,12/03/2017,5.0,8.5,2.1,11.2,Salazar
Pirineo,13/03/2017,4.8,6.2,3.4,4.2,Salazar
Pirineo,14/03/2017,6.0,12.8,-1.6,0.0,Salazar
Pirineo,15/03/2017,6.0,16.7,-3.4,0.0,Salazar
Pirineo,16/03/2017,9.1,16.2,0.7,0.0,Salazar
Pirineo,17/03/2017,8.0,17.7,-1.8,0.0,Salazar
Pirineo,18/03/2017,6.2,13.5,-0.4,0.0,Salazar
Pirineo,19/03/2017,7.1,17.3,-2.2,0.0,Salazar
Pirineo,20/03/2017,8.1,17.4,0.4,0.0,Salazar
Pirineo,21/03/2017,4.1,7.7,1.9,0.0,Salazar
Pirineo,22/03/2017,2.6,6.9,-1.4,13.2,Salazar
Pirineo,23/03/2017,0.0,4.0,-3.0,0.0,Salazar
Pirineo,24/03/2017,2.4,7.1,-2.5,2.0,Salazar
Pirineo,25/03/2017,0.7,2.5,-0.3,6.5,Salazar
Pirineo,26/03/2017,6.6,10.8,2.5,1.4,Salazar
Pirineo,27/03/2017,6.3,8.8,3.7,4.5,Salazar
Pirineo,28/03/2017,6.7,12.8,-0.8,0.0,Salazar
Pirineo,29/03/2017,7.0,17.3,-2.5,0.0,Salazar
Pirineo,30/03/2017,10.3,17.9,-1.1,0.0,Salazar
Pirineo,31/03/2017,9.1,14.3,1.3,6.5,Salazar
Pirineo,01/04/2017,3.0,5.2,1.4,24.8,Salazar
Pirineo,02/04/2017,3.2,5.5,0.6,13.5,Salazar
Pirineo,03/04/2017,6.3,13.8,-3.0,0.0,Salazar
Pirineo,04/04/2017,6.2,8.7,2.6,0.0,Salazar
Pirineo,05/04/2017,5.7,8.9,3.2,0.0,Salazar
Pirineo,06/04/2017,6.7,9.9,3.0,0.0,Salazar
Pirineo,07/04/2017,7.6,17.4,-3.3,0.0,Salazar
Pirineo,08/04/2017,10.2,19.2,-1.5,0.0,Salazar
Pirineo,09/04/2017,12.5,19.6,2.1,0.0,Salazar
Pirineo,10/04/2017,9.9,19.2,-0.1,0.0,Salazar
Pirineo,11/04/2017,7.0,13.0,-1.1,0.0,Salazar
Pirineo,12/04/2017,8.9,19.1,-2.0,0.0,Salazar
Pirineo,13/04/2017,9.3,20.1,-1.5,0.0,Salazar
Pirineo,14/04/2017,8.3,18.0,-1.4,0.0,Salazar
Pirineo,15/04/2017,6.7,9.8,4.2,0.0,Salazar
Pirineo,16/04/2017,6.5,14.5,-2.3,0.0,Salazar
Pirineo,17/04/2017,7.9,17.4,-3.1,0.0,Salazar
Pirineo,18/04/2017,8.0,13.0,-0.4,0.0,Salazar
Pirineo,19/04/2017,4.8,10.5,-3.7,0.0,Salazar
Pirineo,20/04/2017,4.0,13.5,-7.1,0.0,Salazar
Pirineo,21/04/2017,7.2,16.0,-3.8,0.0,Salazar
Pirineo,22/04/2017,9.7,18.9,-1.1,0.0,Salazar
Pirineo,23/04/2017,9.4,19.6,-2.1,0.0,Salazar
Pirineo,24/04/2017,12.6,21.5,-0.8,0.0,Salazar
Pirineo,25/04/2017,10.6,15.6,5.1,3.6,Salazar
Pirineo,26/04/2017,2.7,5.1,0.1,0.4,Salazar
Pirineo,27/04/2017,1.5,5.0,-0.6,0.2,Salazar
Pirineo,28/04/2017,3.1,9.3,-4.4,0.1,Salazar
Pirineo,29/04/2017,6.8,11.2,-4.7,0.0,Salazar
Pirineo,30/04/2017,5.3,9.7,-0.8,15.0,Salazar
Pirineo,01/05/2017,4.4,10.2,-2.4,0.0,Salazar
Pirineo,02/05/2017,7.5,9.6,2.6,1.1,Salazar
Pirineo,03/05/2017,7.7,16.1,0.5,0.4,Salazar
Pirineo,04/05/2017,13.9,19.6,3.5,0.0,Salazar
Pirineo,05/05/2017,15.8,20.9,7.1,21.3,Salazar
Pirineo,06/05/2017,8.7,15.0,1.2,1.2,Salazar
Pirineo,07/05/2017,7.9,14.8,0.2,0.0,Salazar
Pirineo,08/05/2017,8.2,16.8,-2.1,0.0,Salazar
Pirineo,09/05/2017,12.1,19.5,-0.6,0.4,Salazar
Pirineo,10/05/2017,12.7,18.3,8.8,5.9,Salazar
Pirineo,11/05/2017,10.6,14.2,8.0,7.3,Salazar
Pirineo,12/05/2017,10.7,14.3,7.6,2.0,Salazar
Pirineo,13/05/2017,10.7,15.6,6.2,1.0,Salazar
Pirineo,14/05/2017,11.7,19.0,3.9,3.7,Salazar
Pirineo,15/05/2017,13.3,21.4,3.2,0.0,Salazar
Pirineo,16/05/2017,15.7,24.1,6.9,0.0,Salazar
Pirineo,17/05/2017,16.2,20.9,7.4,0.0,Salazar
Pirineo,18/05/2017,6.4,10.1,4.2,15.9,Salazar
Pirineo,19/05/2017,5.5,10.0,0.1,0.5,Salazar
Pirineo,20/05/2017,7.5,15.1,-0.5,0.0,Salazar
Pirineo,21/05/2017,14.4,22.7,-0.9,0.0,Salazar
Pirineo,22/05/2017,16.7,22.4,6.7,0.0,Salazar
Pirineo,23/05/2017,12.9,22.3,3.9,0.0,Salazar
Pirineo,24/05/2017,15.5,24.5,4.5,0.0,Salazar
Pirineo,25/05/2017,17.6,27.7,5.9,0.0,Salazar
Pirineo,26/05/2017,19.9,27.5,8.2,1.0,Salazar
Pirineo,27/05/2017,21.8,26.5,15.2,0.0,Salazar
Pirineo,28/05/2017,21.3,24.9,18.5,0.0,Salazar
Pirineo,29/05/2017,14.9,18.2,10.2,4.0,Salazar
Pirineo,30/05/2017,13.0,16.5,8.0,1.9,Salazar
Pirineo,31/05/2017,13.7,19.5,7.3,0.0,Salazar
Pirineo,01/06/2017,15.3,23.5,5.1,0.0,Salazar
Pirineo,02/06/2017,17.2,23.7,11.9,3.6,Salazar
Pirineo,03/06/2017,12.4,15.4,9.3,17.4,Salazar
Pirineo,04/06/2017,8.8,12.1,7.3,8.3,Salazar
Pirineo,05/06/2017,11.1,17.6,6.0,0.4,Salazar
Pirineo,06/06/2017,9.1,12.3,3.4,0.2,Salazar
Pirineo,07/06/2017,12.2,20.8,1.9,0.0,Salazar
Pirineo,08/06/2017,16.3,25.7,5.6,7.2,Salazar
Pirineo,09/06/2017,16.4,24.4,9.5,0.0,Salazar
Pirineo,10/06/2017,18.8,27.1,9.3,0.0,Salazar
Pirineo,11/06/2017,18.8,29.1,10.0,0.0,Salazar
Pirineo,12/06/2017,18.7,28.9,12.4,0.0,Salazar
Pirineo,13/06/2017,21.1,29.1,11.6,0.0,Salazar
Pirineo,14/06/2017,23.0,30.1,12.1,0.0,Salazar
Pirineo,15/06/2017,17.3,24.1,13.5,0.0,Salazar
Pirineo,16/06/2017,16.7,23.5,9.6,0.0,Salazar
Pirineo,17/06/2017,18.3,26.7,7.2,0.0,Salazar
Pirineo,18/06/2017,20.4,30.7,6.8,0.0,Salazar
Pirineo,19/06/2017,24.2,29.2,17.8,0.0,Salazar
Pirineo,20/06/2017,21.8,27.1,15.6,0.0,Salazar
Pirineo,21/06/2017,20.5,29.9,10.5,0.0,Salazar
Pirineo,22/06/2017,21.7,32.0,10.0,0.0,Salazar
Pirineo,23/06/2017,17.9,28.5,13.0,0.0,Salazar
Pirineo,24/06/2017,14.9,20.2,12.1,0.0,Salazar
Pirineo,25/06/2017,18.6,27.0,12.0,1.4,Salazar
Pirineo,26/06/2017,16.4,20.3,11.7,2.2,Salazar
Pirineo,27/06/2017,16.2,24.1,10.5,1.3,Salazar
Pirineo,28/06/2017,11.6,16.8,7.9,38.7,Salazar
Pirineo,29/06/2017,9.2,14.5,5.5,0.0,Salazar
Pirineo,30/06/2017,7.8,11.2,2.6,2.4,Salazar
Pirineo,01/07/2017,7.9,10.0,6.5,6.5,Salazar
Pirineo,02/07/2017,10.9,15.4,7.5,0.0,Salazar
Pirineo,03/07/2017,14.0,20.7,5.9,0.0,Salazar
Pirineo,04/07/2017,20.6,28.3,7.1,0.0,Salazar
Pirineo,05/07/2017,24.8,29.6,19.9,0.0,Salazar
Pirineo,06/07/2017,22.2,26.8,14.4,0.0,Salazar
Pirineo,07/07/2017,23.4,29.3,13.6,0.0,Salazar
Pirineo,08/07/2017,16.9,22.2,12.2,5.2,Salazar
Pirineo,09/07/2017,16.9,22.9,13.0,0.1,Salazar
Pirineo,10/07/2017,13.7,16.6,12.1,21.6,Salazar
Pirineo,11/07/2017,17.5,26.2,10.6,0.0,Salazar
Pirineo,12/07/2017,16.5,23.1,8.6,0.0,Salazar
Pirineo,13/07/2017,16.1,21.4,12.4,0.0,Salazar
Pirineo,14/07/2017,14.4,18.8,10.6,0.0,Salazar
Pirineo,15/07/2017,15.1,22.3,6.6,0.0,Salazar
Pirineo,16/07/2017,18.0,27.1,6.1,0.0,Salazar
Pirineo,17/07/2017,23.7,29.7,12.3,0.0,Salazar
Pirineo,18/07/2017,24.1,30.5,16.6,2.7,Salazar
Pirineo,19/07/2017,20.2,26.7,13.6,9.8,Salazar
Pirineo,20/07/2017,14.1,18.5,11.0,0.0,Salazar
Pirineo,21/07/2017,14.9,22.5,11.1,2.2,Salazar
Pirineo,22/07/2017,15.9,23.3,10.6,0.0,Salazar
Pirineo,23/07/2017,14.1,19.1,10.2,0.0,Salazar
Pirineo,24/07/2017,13.2,15.3,11.2,3.0,Salazar
Pirineo,25/07/2017,12.0,15.0,10.0,0.3,Salazar
Pirineo,26/07/2017,14.7,20.5,7.8,0.0,Salazar
Pirineo,27/07/2017,16.6,25.5,4.8,0.0,Salazar
Pirineo,28/07/2017,17.5,27.3,8.6,0.0,Salazar
Pirineo,29/07/2017,19.9,29.9,8.8,0.0,Salazar
Pirineo,30/07/2017,18.6,28.8,13.0,0.0,Salazar
Pirineo,31/07/2017,17.4,28.5,12.4,0.2,Salazar
Pirineo,01/08/2017,16.4,23.1,12.5,0.0,Salazar
Pirineo,02/08/2017,23.9,29.6,11.7,0.0,Salazar
Pirineo,03/08/2017,23.3,30.0,14.7,0.0,Salazar
Pirineo,04/08/2017,19.9,26.6,12.5,0.0,Salazar
Pirineo,05/08/2017,16.6,21.3,11.9,0.0,Salazar
Pirineo,06/08/2017,13.8,19.8,9.0,0.1,Salazar
Pirineo,07/08/2017,19.2,26.7,11.5,18.8,Salazar
Pirineo,08/08/2017,11.0,15.3,4.4,0.8,Salazar
Pirineo,09/08/2017,8.7,12.6,3.1,0.5,Salazar
Pirineo,10/08/2017,9.6,13.3,8.0,2.9,Salazar
Pirineo,11/08/2017,10.1,14.9,4.5,0.0,Salazar
Pirineo,12/08/2017,13.0,21.3,4.1,0.0,Salazar
Pirineo,13/08/2017,15.3,25.4,5.3,0.0,Salazar
Pirineo,14/08/2017,22.7,29.6,10.2,4.2,Salazar
Pirineo,15/08/2017,18.4,26.8,13.4,2.6,Salazar
Pirineo,16/08/2017,15.9,24.2,8.9,0.0,Salazar
Pirineo,17/08/2017,16.9,27.6,5.1,0.0,Salazar
Pirineo,18/08/2017,16.2,22.6,11.8,0.0,Salazar
Pirineo,19/08/2017,14.0,18.7,8.9,0.0,Salazar
Pirineo,20/08/2017,13.6,20.9,6.5,0.0,Salazar
Pirineo,21/08/2017,18.4,30.6,4.6,0.0,Salazar
Pirineo,22/08/2017,23.2,31.2,14.9,5.0,Salazar
Pirineo,23/08/2017,20.1,28.6,13.3,1.3,Salazar
Pirineo,24/08/2017,21.3,29.4,12.5,0.0,Salazar
Pirineo,25/08/2017,22.6,29.9,11.5,0.0,Salazar
Pirineo,26/08/2017,23.2,29.1,15.6,6.0,Salazar
Pirineo,27/08/2017,20.5,27.4,16.1,8.3,Salazar
Pirineo,28/08/2017,20.7,27.3,14.6,11.3,Salazar
Pirineo,29/08/2017,17.6,22.6,12.5,24.5,Salazar
Pirineo,30/08/2017,17.0,21.5,12.3,3.6,Salazar
Pirineo,31/08/2017,11.5,14.9,6.1,4.6,Salazar
Pirineo,01/09/2017,8.8,14.3,1.7,0.3,Salazar
Pirineo,02/09/2017,9.3,14.4,4.1,2.7,Salazar
Pirineo,03/09/2017,12.5,19.9,3.1,0.5,Salazar
Pirineo,04/09/2017,14.4,19.8,8.4,4.6,Salazar
Pirineo,05/09/2017,15.5,24.1,7.6,0.0,Salazar
Pirineo,06/09/2017,12.8,16.1,9.7,0.0,Salazar
Pirineo,07/09/2017,10.3,15.0,4.9,0.0,Salazar
Pirineo,08/09/2017,11.1,21.8,0.8,0.0,Salazar
Pirineo,09/09/2017,9.6,12.1,6.7,12.9,Salazar
Pirineo,10/09/2017,8.5,10.5,6.5,27.6,Salazar
Pirineo,11/09/2017,11.7,13.9,9.5,3.4,Salazar
Pirineo,12/09/2017,10.3,15.0,6.7,0.8,Salazar
Pirineo,13/09/2017,14.8,23.3,6.0,0.0,Salazar
Pirineo,14/09/2017,9.9,12.7,4.9,0.7,Salazar
Pirineo,15/09/2017,7.4,10.0,3.5,0.3,Salazar
Pirineo,16/09/2017,5.2,10.2,0.2,0.2,Salazar
Pirineo,17/09/2017,7.0,13.3,0.1,0.0,Salazar
Pirineo,18/09/2017,8.9,11.3,6.8,9.0,Salazar
Pirineo,19/09/2017,8.2,12.3,1.8,0.0,Salazar
Pirineo,20/09/2017,8.8,20.2,-2.0,1.0,Salazar
Pirineo,21/09/2017,11.3,22.6,0.9,0.0,Salazar
Pirineo,22/09/2017,10.2,15.4,4.8,8.5,Salazar
Pirineo,23/09/2017,11.6,22.3,3.5,0.0,Salazar
Pirineo,24/09/2017,13.5,23.4,4.8,0.0,Salazar
Pirineo,25/09/2017,12.0,15.2,9.4,0.4,Salazar
Pirineo,26/09/2017,10.6,17.2,2.8,0.0,Salazar
Pirineo,27/09/2017,13.7,20.4,2.8,0.0,Salazar
Pirineo,28/09/2017,13.5,22.1,5.2,0.0,Salazar
Pirineo,29/09/2017,13.9,22.9,4.8,0.0,Salazar
Pirineo,30/09/2017,10.4,15.4,6.3,3.0,Salazar
Pirineo,01/10/2017,11.2,13.8,6.0,2.6,Salazar
Pirineo,02/10/2017,13.9,16.7,9.7,1.2,Salazar
Pirineo,03/10/2017,12.2,18.3,5.3,0.0,Salazar
Pirineo,04/10/2017,13.1,21.4,5.5,0.0,Salazar
Pirineo,05/10/2017,12.6,20.6,4.6,0.0,Salazar
Pirineo,06/10/2017,9.9,13.9,5.5,0.0,Salazar
Pirineo,07/10/2017,7.9,18.6,-1.5,0.0,Salazar
Pirineo,08/10/2017,7.0,18.4,-1.9,0.0,Salazar
Pirineo,09/10/2017,7.8,19.3,-0.8,0.0,Salazar
Pirineo,10/10/2017,8.2,20.9,-2.1,0.0,Salazar
Pirineo,11/10/2017,10.1,22.0,1.1,0.0,Salazar
Pirineo,12/10/2017,10.1,22.0,1.7,0.0,Salazar
Pirineo,13/10/2017,12.1,24.8,2.6,0.0,Salazar
Pirineo,14/10/2017,17.6,22.5,5.3,0.0,Salazar
Pirineo,15/10/2017,15.9,21.7,9.0,0.0,Salazar
Pirineo,16/10/2017,16.8,21.6,8.5,0.0,Salazar
Pirineo,17/10/2017,16.3,20.1,12.9,0.7,Salazar
Pirineo,18/10/2017,10.9,12.8,8.0,38.4,Salazar
Pirineo,19/10/2017,8.8,14.8,2.8,0.3,Salazar
Pirineo,20/10/2017,10.2,16.5,3.2,0.0,Salazar
Pirineo,21/10/2017,8.9,12.8,5.4,3.4,Salazar
Pirineo,22/10/2017,6.6,8.0,4.2,1.5,Salazar
Pirineo,23/10/2017,8.0,16.8,-0.6,0.0,Salazar
Pirineo,24/10/2017,9.9,21.9,1.5,0.0,Salazar
Pirineo,25/10/2017,10.9,22.3,2.6,0.0,Salazar
Pirineo,26/10/2017,11.5,23.1,2.7,0.0,Salazar
Pirineo,27/10/2017,8.7,13.8,1.1,0.0,Salazar
Pirineo,28/10/2017,9.1,12.1,5.1,0.0,Salazar
Pirineo,29/10/2017,7.6,10.3,4.9,0.5,Salazar
Pirineo,30/10/2017,7.2,10.0,0.8,1.7,Salazar
Pirineo,31/10/2017,6.1,14.1,-3.2,0.0,Salazar
Pirineo,01/11/2017,11.3,14.7,8.6,0.0,Salazar
Pirineo,02/11/2017,12.0,14.8,8.2,0.0,Salazar
Pirineo,03/11/2017,12.3,14.3,6.8,0.0,Salazar
Pirineo,04/11/2017,9.1,11.7,5.9,18.4,Salazar
Pirineo,05/11/2017,4.5,7.3,2.4,21.7,Salazar
Pirineo,06/11/2017,1.9,3.5,-0.1,3.2,Salazar
Pirineo,07/11/2017,1.6,6.9,-1.7,1.3,Salazar
Pirineo,08/11/2017,1.3,3.6,-0.1,16.0,Salazar
Pirineo,09/11/2017,2.0,3.0,0.3,9.3,Salazar
Pirineo,10/11/2017,4.9,6.8,2.0,4.4,Salazar
Pirineo,11/11/2017,7.1,9.0,6.2,4.6,Salazar
Pirineo,12/11/2017,7.2,8.1,4.5,6.5,Salazar
Pirineo,13/11/2017,1.2,4.3,0.1,1.9,Salazar
Pirineo,14/11/2017,1.0,4.1,-4.3,0.0,Salazar
Pirineo,15/11/2017,2.8,16.6,-5.4,0.0,Salazar
Pirineo,16/11/2017,3.8,14.7,-3.5,0.0,Salazar
Pirineo,17/11/2017,5.5,14.6,-2.7,0.0,Salazar
Pirineo,18/11/2017,2.5,9.2,-3.9,0.0,Salazar
Pirineo,19/11/2017,1.0,12.7,-6.1,0.0,Salazar
Pirineo,20/11/2017,3.1,16.0,-4.2,0.0,Salazar
Pirineo,21/11/2017,3.7,16.1,-4.7,0.0,Salazar
Pirineo,22/11/2017,10.2,14.6,-0.4,0.0,Salazar
Pirineo,23/11/2017,11.0,13.7,7.3,0.0,Salazar
Pirineo,24/11/2017,9.9,11.2,8.4,1.8,Salazar
Pirineo,25/11/2017,4.3,9.2,0.2,10.8,Salazar
Pirineo,26/11/2017,1.1,3.5,-2.1,0.7,Salazar
Pirineo,27/11/2017,-0.2,8.5,-5.6,0.0,Salazar
Pirineo,28/11/2017,-0.0,6.2,-7.1,0.5,Salazar
Pirineo,29/11/2017,0.5,2.8,-1.8,1.0,Salazar
Pirineo,30/11/2017,-1.6,1.8,-7.6,5.2,Salazar
Pirineo,01/12/2017,-2.5,-0.1,-4.7,31.1,Salazar
Pirineo,02/12/2017,-4.1,-2.1,-5.7,3.7,Salazar
Pirineo,03/12/2017,-3.4,0.3,-7.0,0.0,Salazar
Pirineo,04/12/2017,-1.2,4.6,-9.3,0.0,Salazar
Pirineo,05/12/2017,-6.6,3.7,-12.3,0.0,Salazar
Pirineo,06/12/2017,-6.0,6.3,-12.3,0.0,Salazar
Pirineo,07/12/2017,-0.6,8.4,-11.1,0.0,Salazar
Pirineo,08/12/2017,2.1,4.7,0.7,5.6,Salazar
Pirineo,09/12/2017,1.2,3.6,-0.3,12.3,Salazar
Pirineo,10/12/2017,5.8,8.1,1.0,28.1,Salazar
Pirineo,11/12/2017,2.9,8.1,-0.2,15.8,Salazar
Pirineo,12/12/2017,-1.8,2.4,-7.2,4.5,Salazar
Pirineo,13/12/2017,0.1,3.7,-7.4,3.0,Salazar
Pirineo,14/12/2017,4.7,5.9,3.1,11.1,Salazar
Pirineo,15/12/2017,1.0,4.2,-0.1,27.9,Salazar
Pirineo,16/12/2017,0.1,3.3,-1.1,22.3,Salazar
Pirineo,17/12/2017,0.8,2.5,-0.7,3.7,Salazar
Pirineo,18/12/2017,3.0,6.4,1.0,4.8,Salazar
Pirineo,19/12/2017,0.3,3.4,-3.0,0.0,Salazar
Pirineo,20/12/2017,2.2,7.2,-3.7,0.0,Salazar
Pirineo,21/12/2017,4.7,9.0,0.3,0.0,Salazar
Pirineo,22/12/2017,2.9,5.0,0.9,0.0,Salazar
Pirineo,23/12/2017,2.0,8.0,-3.8,0.0,Salazar
Pirineo,24/12/2017,0.6,11.9,-4.7,0.0,Salazar
Pirineo,25/12/2017,3.3,8.4,-4.5,3.5,Salazar
Pirineo,26/12/2017,1.7,3.3,0.2,10.0,Salazar
Pirineo,27/12/2017,0.0,0.9,-0.9,59.2,Salazar
Pirineo,28/12/2017,0.7,3.2,-1.0,36.6,Salazar
Pirineo,29/12/2017,3.0,7.3,0.4,27.6,Salazar
Pirineo,30/12/2017,4.0,10.4,-2.0,0.3,Salazar
Pirineo,31/12/2017,3.6,7.3,-2.7,8.7,Salazar
