Comarca,Fecha, Temperatura media, Temperatura maxima, Temperatura minima, Precipitacion acumulada,Localidad
Pirineo,01/01/2013,0.0,8.0,-2.0,16.5,Zubiri
Pirineo,02/01/2013,0.0,7.0,5.0,0.5,Zubiri
Pirineo,03/01/2013,0.0,13.0,1.0,0.0,Zubiri
Pirineo,04/01/2013,0.0,17.0,-3.0,0.0,Zubiri
Pirineo,05/01/2013,0.0,17.0,-0.5,0.0,Zubiri
Pirineo,06/01/2013,0.0,17.0,0.0,0.0,Zubiri
Pirineo,07/01/2013,0.0,14.0,-3.0,0.0,Zubiri
Pirineo,08/01/2013,0.0,13.0,-4.0,0.0,Zubiri
Pirineo,09/01/2013,0.0,6.0,-5.0,3.1,Zubiri
Pirineo,10/01/2013,0.0,12.0,-4.0,0.9,Zubiri
Pirineo,11/01/2013,0.0,10.0,-1.0,0.0,Zubiri
Pirineo,12/01/2013,0.0,9.0,-1.0,5.3,Zubiri
Pirineo,13/01/2013,0.0,5.0,0.0,13.2,Zubiri
Pirineo,14/01/2013,0.0,3.0,0.0,65.5,Zubiri
Pirineo,15/01/2013,0.0,3.0,0.0,58.1,Zubiri
Pirineo,16/01/2013,0.0,5.0,1.0,35.5,Zubiri
Pirineo,17/01/2013,0.0,5.0,1.0,15.6,Zubiri
Pirineo,18/01/2013,0.0,10.0,1.0,17.3,Zubiri
Pirineo,19/01/2013,0.0,10.0,3.0,29.8,Zubiri
Pirineo,20/01/2013,0.0,5.0,2.0,10.3,Zubiri
Pirineo,21/01/2013,0.0,5.0,2.0,1.6,Zubiri
Pirineo,22/01/2013,0.0,5.0,-2.0,7.8,Zubiri
Pirineo,23/01/2013,0.0,2.0,0.0,31.2,Zubiri
Pirineo,24/01/2013,0.0,4.0,0.0,12.6,Zubiri
Pirineo,25/01/2013,0.0,7.0,-3.0,18.9,Zubiri
Pirineo,26/01/2013,0.0,7.0,3.0,7.2,Zubiri
Pirineo,27/01/2013,0.0,4.0,0.0,12.6,Zubiri
Pirineo,28/01/2013,0.0,9.0,1.0,0.0,Zubiri
Pirineo,29/01/2013,0.0,11.0,-1.0,0.0,Zubiri
Pirineo,30/01/2013,0.0,12.0,0.0,0.0,Zubiri
Pirineo,31/01/2013,0.0,17.0,0.0,0.0,Zubiri
Pirineo,01/02/2013,0.0,14.0,1.0,27.5,Zubiri
Pirineo,02/02/2013,0.0,4.0,2.0,23.2,Zubiri
Pirineo,03/02/2013,0.0,5.0,0.0,2.3,Zubiri
Pirineo,04/02/2013,0.0,9.0,3.0,2.1,Zubiri
Pirineo,05/02/2013,0.0,12.0,5.0,14.0,Zubiri
Pirineo,06/02/2013,0.0,5.0,0.0,37.1,Zubiri
Pirineo,07/02/2013,0.0,3.0,0.0,19.2,Zubiri
Pirineo,08/02/2013,0.0,2.0,0.0,22.5,Zubiri
Pirineo,09/02/2013,0.0,5.0,-0.5,16.3,Zubiri
Pirineo,10/02/2013,0.0,5.0,0.0,10.3,Zubiri
Pirineo,11/02/2013,0.0,5.0,0.0,22.5,Zubiri
Pirineo,12/02/2013,0.0,5.0,0.0,18.6,Zubiri
Pirineo,13/02/2013,0.0,7.0,0.0,8.6,Zubiri
Pirineo,14/02/2013,0.0,8.0,0.0,1.3,Zubiri
Pirineo,15/02/2013,0.0,10.0,4.0,0.0,Zubiri
Pirineo,16/02/2013,0.0,13.0,-3.0,0.0,Zubiri
Pirineo,17/02/2013,0.0,12.0,-3.0,2.5,Zubiri
Pirineo,18/02/2013,0.0,11.0,-2.0,0.5,Zubiri
Pirineo,19/02/2013,0.0,13.0,1.0,0.0,Zubiri
Pirineo,20/02/2013,0.0,14.0,0.0,0.0,Zubiri
Pirineo,21/02/2013,0.0,12.0,0.0,1.2,Zubiri
Pirineo,22/02/2013,0.0,5.0,1.0,0.0,Zubiri
Pirineo,23/02/2013,0.0,0.0,-5.0,0.9,Zubiri
Pirineo,24/02/2013,0.0,1.0,-2.0,0.3,Zubiri
Pirineo,25/02/2013,0.0,2.0,-2.0,4.1,Zubiri
Pirineo,26/02/2013,0.0,3.0,-2.0,0.3,Zubiri
Pirineo,27/02/2013,0.0,9.0,-5.5,0.0,Zubiri
Pirineo,28/02/2013,0.0,9.0,-5.0,0.3,Zubiri
Pirineo,01/03/2013,0.0,9.0,0.0,0.0,Zubiri
Pirineo,02/03/2013,0.0,14.0,-3.0,0.0,Zubiri
Pirineo,03/03/2013,0.0,15.0,-3.5,0.0,Zubiri
Pirineo,04/03/2013,0.0,14.0,-2.0,2.2,Zubiri
Pirineo,05/03/2013,0.0,12.0,5.0,3.5,Zubiri
Pirineo,06/03/2013,0.0,18.0,7.0,1.3,Zubiri
Pirineo,07/03/2013,0.0,16.0,8.0,18.8,Zubiri
Pirineo,08/03/2013,0.0,16.0,6.0,10.5,Zubiri
Pirineo,09/03/2013,0.0,14.0,2.0,0.0,Zubiri
Pirineo,10/03/2013,0.0,12.0,4.0,0.2,Zubiri
Pirineo,11/03/2013,0.0,12.0,3.0,21.8,Zubiri
Pirineo,12/03/2013,0.0,10.0,4.0,13.8,Zubiri
Pirineo,13/03/2013,0.0,2.0,0.0,4.3,Zubiri
Pirineo,14/03/2013,0.0,3.0,-1.0,4.3,Zubiri
Pirineo,15/03/2013,0.0,7.0,-1.0,0.0,Zubiri
Pirineo,16/03/2013,0.0,6.0,-1.0,6.7,Zubiri
Pirineo,17/03/2013,0.0,8.0,5.0,3.7,Zubiri
Pirineo,18/03/2013,0.0,9.0,1.0,0.2,Zubiri
Pirineo,19/03/2013,0.0,12.0,0.0,1.7,Zubiri
Pirineo,20/03/2013,0.0,11.0,4.0,0.0,Zubiri
Pirineo,21/03/2013,0.0,16.0,-1.0,0.0,Zubiri
Pirineo,22/03/2013,0.0,17.0,5.0,6.1,Zubiri
Pirineo,23/03/2013,0.0,16.0,0.0,0.0,Zubiri
Pirineo,24/03/2013,0.0,16.0,0.0,0.0,Zubiri
Pirineo,25/03/2013,0.0,11.0,5.0,17.3,Zubiri
Pirineo,26/03/2013,0.0,15.0,7.0,4.5,Zubiri
Pirineo,27/03/2013,0.0,13.0,8.0,21.9,Zubiri
Pirineo,28/03/2013,0.0,15.0,8.0,2.5,Zubiri
Pirineo,29/03/2013,0.0,16.0,10.0,28.7,Zubiri
Pirineo,30/03/2013,0.0,12.0,9.0,7.2,Zubiri
Pirineo,31/03/2013,0.0,16.0,4.0,9.4,Zubiri
Pirineo,01/04/2013,0.0,13.0,5.0,3.5,Zubiri
Pirineo,02/04/2013,0.0,12.0,5.0,0.3,Zubiri
Pirineo,03/04/2013,0.0,17.0,-1.0,13.7,Zubiri
Pirineo,04/04/2013,0.0,6.0,0.0,2.5,Zubiri
Pirineo,05/04/2013,0.0,6.0,2.0,23.5,Zubiri
Pirineo,06/04/2013,0.0,5.0,1.0,1.5,Zubiri
Pirineo,07/04/2013,0.0,12.0,1.0,3.1,Zubiri
Pirineo,08/04/2013,0.0,13.0,5.0,0.0,Zubiri
Pirineo,09/04/2013,0.0,11.0,7.0,2.2,Zubiri
Pirineo,10/04/2013,0.0,18.0,1.0,0.0,Zubiri
Pirineo,11/04/2013,0.0,18.0,6.0,8.9,Zubiri
Pirineo,12/04/2013,0.0,16.0,4.0,0.3,Zubiri
Pirineo,13/04/2013,0.0,21.0,5.0,0.0,Zubiri
Pirineo,14/04/2013,0.0,25.0,6.0,0.2,Zubiri
Pirineo,15/04/2013,0.0,24.0,7.0,0.0,Zubiri
Pirineo,16/04/2013,0.0,25.0,7.0,0.0,Zubiri
Pirineo,17/04/2013,0.0,28.0,8.0,0.0,Zubiri
Pirineo,18/04/2013,0.0,15.0,7.0,0.0,Zubiri
Pirineo,19/04/2013,0.0,11.0,5.0,0.0,Zubiri
Pirineo,20/04/2013,0.0,12.0,7.0,0.0,Zubiri
Pirineo,21/04/2013,0.0,13.0,0.0,0.0,Zubiri
Pirineo,22/04/2013,0.0,12.0,6.0,0.0,Zubiri
Pirineo,23/04/2013,0.0,17.0,3.0,0.0,Zubiri
Pirineo,24/04/2013,0.0,21.0,5.0,0.0,Zubiri
Pirineo,25/04/2013,0.0,23.0,5.0,2.0,Zubiri
Pirineo,26/04/2013,0.0,12.0,9.0,12.0,Zubiri
Pirineo,27/04/2013,0.0,8.0,2.0,3.5,Zubiri
Pirineo,28/04/2013,0.0,8.0,0.0,2.0,Zubiri
Pirineo,29/04/2013,0.0,8.0,5.0,11.0,Zubiri
Pirineo,30/04/2013,0.0,14.0,6.0,3.5,Zubiri
Pirineo,01/05/2013,0.0,16.0,6.0,5.6,Zubiri
Pirineo,02/05/2013,0.0,11.0,6.0,1.8,Zubiri
Pirineo,03/05/2013,0.0,13.0,7.0,0.3,Zubiri
Pirineo,04/05/2013,0.0,18.0,6.0,0.0,Zubiri
Pirineo,05/05/2013,0.0,20.0,5.0,0.0,Zubiri
Pirineo,06/05/2013,0.0,25.0,5.0,1.3,Zubiri
Pirineo,07/05/2013,0.0,21.0,12.0,0.5,Zubiri
Pirineo,08/05/2013,0.0,17.0,12.0,1.7,Zubiri
Pirineo,09/05/2013,0.0,16.0,8.0,10.5,Zubiri
Pirineo,10/05/2013,0.0,14.0,9.0,0.0,Zubiri
Pirineo,11/05/2013,0.0,15.0,5.0,0.0,Zubiri
Pirineo,12/05/2013,0.0,12.0,7.0,0.0,Zubiri
Pirineo,13/05/2013,0.0,19.0,6.0,0.0,Zubiri
Pirineo,14/05/2013,0.0,21.0,5.0,9.1,Zubiri
Pirineo,15/05/2013,0.0,8.0,6.0,3.5,Zubiri
Pirineo,16/05/2013,0.0,13.0,5.0,3.7,Zubiri
Pirineo,17/05/2013,0.0,13.0,5.0,35.0,Zubiri
Pirineo,18/05/2013,0.0,9.0,0.0,10.5,Zubiri
Pirineo,19/05/2013,0.0,12.0,2.0,0.0,Zubiri
Pirineo,20/05/2013,0.0,14.0,2.0,0.3,Zubiri
Pirineo,21/05/2013,0.0,10.0,0.0,2.5,Zubiri
Pirineo,22/05/2013,0.0,10.0,2.0,4.1,Zubiri
Pirineo,23/05/2013,0.0,10.0,6.0,1.4,Zubiri
Pirineo,24/05/2013,0.0,12.0,6.0,3.6,Zubiri
Pirineo,25/05/2013,0.0,12.0,7.0,0.4,Zubiri
Pirineo,26/05/2013,0.0,21.0,0.0,0.6,Zubiri
Pirineo,27/05/2013,0.0,18.0,8.0,17.3,Zubiri
Pirineo,28/05/2013,0.0,12.0,7.0,4.5,Zubiri
Pirineo,29/05/2013,0.0,12.0,5.0,11.2,Zubiri
Pirineo,30/05/2013,0.0,10.0,6.0,22.8,Zubiri
Pirineo,31/05/2013,0.0,10.0,9.0,16.5,Zubiri
Pirineo,01/06/2013,0.0,11.0,9.0,1.0,Zubiri
Pirineo,02/06/2013,0.0,13.0,9.0,0.0,Zubiri
Pirineo,03/06/2013,0.0,16.0,10.0,0.0,Zubiri
Pirineo,04/06/2013,0.0,22.0,5.0,0.0,Zubiri
Pirineo,05/06/2013,0.0,26.0,6.0,0.0,Zubiri
Pirineo,06/06/2013,0.0,27.0,10.0,0.0,Zubiri
Pirineo,07/06/2013,0.0,24.0,9.0,18.6,Zubiri
Pirineo,08/06/2013,0.0,14.0,10.0,84.2,Zubiri
Pirineo,09/06/2013,0.0,16.0,9.0,9.8,Zubiri
Pirineo,10/06/2013,0.0,21.0,11.0,0.2,Zubiri
Pirineo,11/06/2013,0.0,24.0,12.0,0.0,Zubiri
Pirineo,12/06/2013,0.0,30.0,10.0,0.0,Zubiri
Pirineo,13/06/2013,0.0,19.0,15.0,0.2,Zubiri
Pirineo,14/06/2013,0.0,28.0,12.0,0.0,Zubiri
Pirineo,15/06/2013,0.0,24.0,10.0,0.0,Zubiri
Pirineo,16/06/2013,0.0,32.0,9.0,0.0,Zubiri
Pirineo,17/06/2013,0.0,27.0,14.0,4.5,Zubiri
Pirineo,18/06/2013,0.0,16.0,12.0,13.5,Zubiri
Pirineo,19/06/2013,0.0,15.0,10.0,3.8,Zubiri
Pirineo,20/06/2013,0.0,19.0,11.0,7.1,Zubiri
Pirineo,21/06/2013,0.0,17.0,9.0,6.9,Zubiri
Pirineo,22/06/2013,0.0,22.0,6.0,0.0,Zubiri
Pirineo,23/06/2013,0.0,15.0,12.0,0.0,Zubiri
Pirineo,24/06/2013,0.0,17.0,11.0,0.0,Zubiri
Pirineo,25/06/2013,0.0,18.0,7.0,0.0,Zubiri
Pirineo,26/06/2013,0.0,20.0,13.0,0.0,Zubiri
Pirineo,27/06/2013,0.0,20.0,8.0,0.0,Zubiri
Pirineo,28/06/2013,0.0,20.0,10.0,0.0,Zubiri
Pirineo,29/06/2013,0.0,20.0,8.0,0.0,Zubiri
Pirineo,30/06/2013,0.0,24.0,10.0,0.0,Zubiri
Pirineo,01/07/2013,0.0,27.0,11.0,0.0,Zubiri
Pirineo,02/07/2013,0.0,29.0,13.0,0.0,Zubiri
Pirineo,03/07/2013,0.0,22.0,17.0,0.0,Zubiri
Pirineo,04/07/2013,0.0,22.0,17.0,0.0,Zubiri
Pirineo,05/07/2013,0.0,28.0,10.0,0.0,Zubiri
Pirineo,06/07/2013,0.0,31.0,12.0,0.0,Zubiri
Pirineo,07/07/2013,0.0,28.0,10.0,0.0,Zubiri
Pirineo,08/07/2013,0.0,31.0,13.0,0.0,Zubiri
Pirineo,09/07/2013,0.0,32.0,16.0,0.0,Zubiri
Pirineo,10/07/2013,0.0,31.0,17.0,0.0,Zubiri
Pirineo,11/07/2013,0.0,28.0,17.0,0.0,Zubiri
Pirineo,12/07/2013,0.0,32.0,15.0,0.3,Zubiri
Pirineo,13/07/2013,0.0,29.0,17.0,0.0,Zubiri
Pirineo,14/07/2013,0.0,28.0,13.0,0.0,Zubiri
Pirineo,15/07/2013,0.0,29.0,13.0,0.8,Zubiri
Pirineo,16/07/2013,0.0,28.0,17.0,0.0,Zubiri
Pirineo,17/07/2013,0.0,26.0,13.0,0.0,Zubiri
Pirineo,18/07/2013,0.0,26.0,13.0,0.0,Zubiri
Pirineo,19/07/2013,0.0,31.0,12.0,0.0,Zubiri
Pirineo,20/07/2013,0.0,33.0,16.0,0.0,Zubiri
Pirineo,21/07/2013,0.0,33.0,16.0,0.0,Zubiri
Pirineo,22/07/2013,0.0,33.0,15.0,1.9,Zubiri
Pirineo,23/07/2013,0.0,31.0,16.0,0.0,Zubiri
Pirineo,24/07/2013,0.0,32.0,17.0,0.0,Zubiri
Pirineo,25/07/2013,0.0,35.0,17.0,0.0,Zubiri
Pirineo,26/07/2013,0.0,34.0,17.0,0.0,Zubiri
Pirineo,27/07/2013,0.0,29.0,17.0,0.0,Zubiri
Pirineo,28/07/2013,0.0,27.0,16.0,6.5,Zubiri
Pirineo,29/07/2013,0.0,24.0,12.0,0.0,Zubiri
Pirineo,30/07/2013,0.0,30.0,12.0,0.0,Zubiri
Pirineo,31/07/2013,0.0,35.0,15.0,0.0,Zubiri
Pirineo,01/08/2013,0.0,36.0,12.0,0.0,Zubiri
Pirineo,02/08/2013,0.0,36.0,15.0,0.0,Zubiri
Pirineo,03/08/2013,0.0,27.0,17.0,0.0,Zubiri
Pirineo,04/08/2013,0.0,31.0,17.0,0.0,Zubiri
Pirineo,05/08/2013,0.0,27.0,15.0,0.0,Zubiri
Pirineo,06/08/2013,0.0,27.0,16.0,0.0,Zubiri
Pirineo,07/08/2013,0.0,24.0,17.0,4.5,Zubiri
Pirineo,08/08/2013,0.0,20.0,10.0,1.4,Zubiri
Pirineo,09/08/2013,0.0,23.0,12.0,0.0,Zubiri
Pirineo,10/08/2013,0.0,25.0,12.0,0.0,Zubiri
Pirineo,11/08/2013,0.0,32.0,10.0,0.0,Zubiri
Pirineo,12/08/2013,0.0,31.0,12.0,0.8,Zubiri
Pirineo,13/08/2013,0.0,25.0,15.0,0.0,Zubiri
Pirineo,14/08/2013,0.0,25.0,10.0,0.0,Zubiri
Pirineo,15/08/2013,0.0,32.0,9.0,0.0,Zubiri
Pirineo,16/08/2013,0.0,26.0,13.0,0.0,Zubiri
Pirineo,17/08/2013,0.0,28.0,14.0,0.0,Zubiri
Pirineo,18/08/2013,0.0,32.0,9.0,0.0,Zubiri
Pirineo,19/08/2013,0.0,21.0,15.0,0.0,Zubiri
Pirineo,20/08/2013,0.0,25.0,12.0,0.0,Zubiri
Pirineo,21/08/2013,0.0,32.0,10.0,0.0,Zubiri
Pirineo,22/08/2013,0.0,32.0,12.0,0.0,Zubiri
Pirineo,23/08/2013,0.0,29.0,17.0,0.0,Zubiri
Pirineo,24/08/2013,0.0,21.0,17.0,0.0,Zubiri
Pirineo,25/08/2013,0.0,21.0,14.0,0.0,Zubiri
Pirineo,26/08/2013,0.0,21.0,9.0,0.0,Zubiri
Pirineo,27/08/2013,0.0,24.0,9.0,0.0,Zubiri
Pirineo,28/08/2013,0.0,23.0,12.0,0.0,Zubiri
Pirineo,29/08/2013,0.0,23.0,8.0,0.0,Zubiri
Pirineo,30/08/2013,0.0,24.0,10.0,0.0,Zubiri
Pirineo,31/08/2013,0.0,23.0,10.0,0.0,Zubiri
Pirineo,01/09/2013,0.0,24.0,10.0,0.0,Zubiri
Pirineo,02/09/2013,0.0,25.0,10.0,0.0,Zubiri
Pirineo,03/09/2013,0.0,32.0,9.0,0.0,Zubiri
Pirineo,04/09/2013,0.0,32.0,10.0,0.0,Zubiri
Pirineo,05/09/2013,0.0,30.0,10.0,1.5,Zubiri
Pirineo,06/09/2013,0.0,25.0,14.0,3.3,Zubiri
Pirineo,07/09/2013,0.0,23.0,12.0,6.1,Zubiri
Pirineo,08/09/2013,0.0,19.0,13.0,0.0,Zubiri
Pirineo,09/09/2013,0.0,24.0,6.0,0.0,Zubiri
Pirineo,10/09/2013,0.0,20.0,13.0,0.0,Zubiri
Pirineo,11/09/2013,0.0,19.0,10.0,0.0,Zubiri
Pirineo,12/09/2013,0.0,19.0,10.0,0.0,Zubiri
Pirineo,13/09/2013,0.0,22.0,11.0,0.0,Zubiri
Pirineo,14/09/2013,0.0,26.0,9.0,2.8,Zubiri
Pirineo,15/09/2013,0.0,17.0,12.0,0.0,Zubiri
Pirineo,16/09/2013,0.0,22.0,7.0,0.0,Zubiri
Pirineo,17/09/2013,0.0,16.0,11.0,1.4,Zubiri
Pirineo,18/09/2013,0.0,19.0,12.0,1.8,Zubiri
Pirineo,19/09/2013,0.0,17.0,13.0,0.4,Zubiri
Pirineo,20/09/2013,0.0,21.0,14.0,0.0,Zubiri
Pirineo,21/09/2013,0.0,24.0,6.0,0.0,Zubiri
Pirineo,22/09/2013,0.0,29.0,7.0,0.0,Zubiri
Pirineo,23/09/2013,0.0,29.0,8.0,0.0,Zubiri
Pirineo,24/09/2013,0.0,29.0,9.0,0.0,Zubiri
Pirineo,25/09/2013,0.0,31.0,11.0,0.0,Zubiri
Pirineo,26/09/2013,0.0,30.0,14.0,0.0,Zubiri
Pirineo,27/09/2013,0.0,30.0,14.0,0.0,Zubiri
Pirineo,28/09/2013,0.0,22.0,13.0,4.7,Zubiri
Pirineo,29/09/2013,0.0,21.0,14.0,4.6,Zubiri
Pirineo,30/09/2013,0.0,25.0,13.0,0.0,Zubiri
Pirineo,01/10/2013,0.0,20.0,13.0,0.6,Zubiri
Pirineo,02/10/2013,0.0,27.0,15.0,2.1,Zubiri
Pirineo,03/10/2013,0.0,26.0,16.0,13.3,Zubiri
Pirineo,04/10/2013,0.0,21.0,15.0,4.6,Zubiri
Pirineo,05/10/2013,0.0,17.0,9.0,0.0,Zubiri
Pirineo,06/10/2013,0.0,19.0,9.0,0.0,Zubiri
Pirineo,07/10/2013,0.0,17.0,6.0,0.0,Zubiri
Pirineo,08/10/2013,0.0,18.0,4.5,0.0,Zubiri
Pirineo,09/10/2013,0.0,17.0,9.0,0.0,Zubiri
Pirineo,10/10/2013,0.0,16.0,4.0,0.0,Zubiri
Pirineo,11/10/2013,0.0,13.0,0.0,0.0,Zubiri
Pirineo,12/10/2013,0.0,16.0,1.0,0.0,Zubiri
Pirineo,13/10/2013,0.0,19.0,1.0,0.0,Zubiri
Pirineo,14/10/2013,0.0,20.0,8.0,2.4,Zubiri
Pirineo,15/10/2013,0.0,16.0,7.0,4.5,Zubiri
Pirineo,16/10/2013,0.0,25.0,13.0,0.0,Zubiri
Pirineo,17/10/2013,0.0,23.0,10.0,0.0,Zubiri
Pirineo,18/10/2013,0.0,25.0,10.0,0.0,Zubiri
Pirineo,19/10/2013,0.0,21.0,15.0,0.0,Zubiri
Pirineo,20/10/2013,0.0,20.0,14.0,0.0,Zubiri
Pirineo,21/10/2013,0.0,18.0,11.0,0.0,Zubiri
Pirineo,22/10/2013,0.0,16.0,13.0,5.9,Zubiri
Pirineo,23/10/2013,0.0,20.0,12.0,0.0,Zubiri
Pirineo,24/10/2013,0.0,20.0,10.0,2.9,Zubiri
Pirineo,25/10/2013,0.0,19.0,19.0,12.0,Zubiri
Pirineo,26/10/2013,0.0,20.0,18.0,0.0,Zubiri
Pirineo,27/10/2013,0.0,20.0,10.0,0.0,Zubiri
Pirineo,28/10/2013,0.0,20.0,7.0,2.6,Zubiri
Pirineo,29/10/2013,0.0,11.0,7.0,3.6,Zubiri
Pirineo,30/10/2013,0.0,13.0,4.0,0.0,Zubiri
Pirineo,31/10/2013,0.0,16.0,0.0,0.0,Zubiri
Pirineo,01/11/2013,0.0,16.0,1.0,0.8,Zubiri
Pirineo,02/11/2013,0.0,21.0,6.0,4.6,Zubiri
Pirineo,03/11/2013,0.0,15.0,10.0,13.3,Zubiri
Pirineo,04/11/2013,0.0,15.0,9.0,50.3,Zubiri
Pirineo,05/11/2013,0.0,16.0,10.0,17.9,Zubiri
Pirineo,06/11/2013,0.0,20.0,14.0,0.0,Zubiri
Pirineo,07/11/2013,0.0,18.0,9.0,0.2,Zubiri
Pirineo,08/11/2013,0.0,17.0,9.0,3.2,Zubiri
Pirineo,09/11/2013,0.0,12.0,2.0,15.0,Zubiri
Pirineo,10/11/2013,0.0,12.0,5.0,13.5,Zubiri
Pirineo,11/11/2013,0.0,15.0,11.0,8.5,Zubiri
Pirineo,12/11/2013,0.0,13.0,12.0,2.4,Zubiri
Pirineo,13/11/2013,0.0,13.0,9.0,0.4,Zubiri
Pirineo,14/11/2013,0.0,9.5,9.0,10.5,Zubiri
Pirineo,15/11/2013,0.0,7.0,4.0,1.3,Zubiri
Pirineo,16/11/2013,0.0,8.0,0.0,0.0,Zubiri
Pirineo,17/11/2013,0.0,8.0,5.0,2.2,Zubiri
Pirineo,18/11/2013,0.0,8.0,5.0,11.0,Zubiri
Pirineo,19/11/2013,0.0,8.0,3.0,13.5,Zubiri
Pirineo,20/11/2013,0.0,5.0,1.0,21.5,Zubiri
Pirineo,21/11/2013,0.0,6.0,2.0,20.0,Zubiri
Pirineo,22/11/2013,0.0,4.0,1.0,1.0,Zubiri
Pirineo,23/11/2013,0.0,5.0,2.0,0.0,Zubiri
Pirineo,24/11/2013,0.0,5.0,3.0,0.0,Zubiri
Pirineo,25/11/2013,0.0,3.5,3.0,0.0,Zubiri
Pirineo,26/11/2013,0.0,3.0,1.0,0.0,Zubiri
Pirineo,27/11/2013,0.0,4.0,0.0,0.0,Zubiri
Pirineo,28/11/2013,0.0,8.0,-6.0,0.0,Zubiri
Pirineo,29/11/2013,0.0,7.0,-3.0,2.4,Zubiri
Pirineo,30/11/2013,0.0,7.0,2.0,4.3,Zubiri
Pirineo,01/12/2013,0.0,6.0,0.0,0.0,Zubiri
Pirineo,02/12/2013,0.0,7.0,1.0,0.0,Zubiri
Pirineo,03/12/2013,0.0,12.0,-5.0,0.0,Zubiri
Pirineo,04/12/2013,0.0,15.0,-5.0,0.0,Zubiri
Pirineo,05/12/2013,0.0,8.0,4.0,0.0,Zubiri
Pirineo,06/12/2013,0.0,8.0,1.0,0.0,Zubiri
Pirineo,07/12/2013,0.0,12.0,-3.0,0.0,Zubiri
Pirineo,08/12/2013,0.0,11.0,-5.0,0.0,Zubiri
Pirineo,09/12/2013,0.0,8.0,-5.0,0.0,Zubiri
Pirineo,10/12/2013,0.0,7.0,-4.5,0.0,Zubiri
Pirineo,11/12/2013,0.0,7.0,-3.0,0.3,Zubiri
Pirineo,12/12/2013,0.0,4.0,-2.5,0.0,Zubiri
Pirineo,13/12/2013,0.0,8.0,-2.0,3.4,Zubiri
Pirineo,14/12/2013,0.0,12.0,-1.0,0.0,Zubiri
Pirineo,15/12/2013,0.0,12.0,-3.0,0.0,Zubiri
Pirineo,16/12/2013,0.0,11.0,-4.0,0.4,Zubiri
Pirineo,17/12/2013,0.0,10.0,-3.5,0.0,Zubiri
Pirineo,18/12/2013,0.0,11.0,1.0,4.6,Zubiri
Pirineo,19/12/2013,0.0,8.0,2.0,15.1,Zubiri
Pirineo,20/12/2013,0.0,7.0,4.0,0.0,Zubiri
Pirineo,21/12/2013,0.0,7.0,-4.0,0.0,Zubiri
Pirineo,22/12/2013,0.0,9.0,-4.0,0.0,Zubiri
Pirineo,23/12/2013,0.0,10.0,-2.5,0.0,Zubiri
Pirineo,24/12/2013,0.0,10.0,3.0,12.9,Zubiri
Pirineo,25/12/2013,0.0,8.0,5.0,6.5,Zubiri
Pirineo,26/12/2013,0.0,6.0,1.0,4.4,Zubiri
Pirineo,27/12/2013,0.0,12.0,1.0,12.4,Zubiri
