Fecha, Temperatura media, Temperatura maxima, Temperatura minima, Precipitacion acumulada
01/01/2012,-,14.0,3.0,0.0
02/01/2012,-,13.5,3.5,0.0
03/01/2012,-,12.0,-1.5,0.0
04/01/2012,-,14.0,0.5,0.0
05/01/2012,-,16.0,5.0,0.0
06/01/2012,-,14.5,8.0,0.0
07/01/2012,-,14.0,4.0,0.0
08/01/2012,-,12.5,7.5,0.0
09/01/2012,-,12.0,4.0,0.0
10/01/2012,-,7.0,-4.0,0.0
11/01/2012,-,2.0,-4.0,0.0
12/01/2012,-,4.0,-3.5,0.0
13/01/2012,-,8.0,-0.5,0.0
14/01/2012,-,10.0,1.0,0.0
15/01/2012,-,2.0,-5.0,14.5
16/01/2012,-,5.0,-3.5,0.8
17/01/2012,-,10.5,-2.0,0.0
18/01/2012,-,13.5,-2.5,0.2
19/01/2012,-,17.0,1.5,0.0
20/01/2012,-,14.5,9.0,0.0
21/01/2012,-,15.0,5.5,0.0
22/01/2012,-,14.5,9.5,0.0
23/01/2012,-,14.5,8.5,0.0
24/01/2012,-,12.5,7.5,0.0
25/01/2012,-,11.0,0.0,0.0
26/01/2012,-,13.5,-3.0,0.6
27/01/2012,-,8.0,-2.0,0.8
28/01/2012,-,10.0,2.0,2.3
29/01/2012,-,7.0,2.0,0.0
30/01/2012,-,9.5,-1.0,0.0
31/01/2012,-,12.5,1.0,0.0
01/02/2012,-,9.5,3.5,0.3
02/02/2012,-,3.0,-0.5,0.2
03/02/2012,-,2.5,-4.0,0.0
04/02/2012,-,5.5,-3.5,0.5
05/02/2012,-,9.5,0.0,1.1
06/02/2012,-,7.5,1.5,0.0
07/02/2012,-,6.5,1.0,0.0
08/02/2012,-,3.0,-2.5,0.0
09/02/2012,-,5.5,-3.0,0.0
10/02/2012,-,7.5,-0.5,0.0
11/02/2012,-,4.5,-5.0,0.0
12/02/2012,-,4.5,-4.0,0.0
13/02/2012,-,6.5,-1.5,0.4
14/02/2012,-,9.0,2.0,0.3
15/02/2012,-,9.0,1.5,0.3
16/02/2012,-,10.5,4.0,0.0
17/02/2012,-,11.0,2.5,0.0
18/02/2012,-,14.5,-4.5,0.0
19/02/2012,-,13.0,-1.5,0.0
20/02/2012,-,10.5,0.5,0.0
21/02/2012,-,12.0,-1.0,0.0
22/02/2012,-,17.0,-4.0,0.0
23/02/2012,-,18.5,3.5,0.0
24/02/2012,-,19.5,4.5,0.0
25/02/2012,-,19.5,1.0,0.0
26/02/2012,-,16.5,3.5,0.0
27/02/2012,-,17.0,5.5,0.0
28/02/2012,-,18.0,0.5,0.0
29/02/2012,-,20.5,-0.5,0.0
01/03/2012,-,20.0,-0.5,0.0
02/03/2012,-,18.5,-0.5,0.0
03/03/2012,-,18.0,4.5,0.0
04/03/2012,-,16.5,2.5,2.4
05/03/2012,-,10.5,4.5,0.0
06/03/2012,-,11.5,2.0,0.0
07/03/2012,-,14.0,1.5,0.0
08/03/2012,-,12.0,5.5,0.0
09/03/2012,-,16.0,4.5,0.0
10/03/2012,-,18.5,3.0,0.0
11/03/2012,-,18.0,5.5,0.0
12/03/2012,-,19.5,7.5,0.0
13/03/2012,-,25.5,1.5,0.0
14/03/2012,-,25.5,3.0,0.0
15/03/2012,-,25.0,3.0,0.0
16/03/2012,-,22.5,6.0,0.5
17/03/2012,-,19.5,3.0,0.0
18/03/2012,-,15.0,2.0,0.0
19/03/2012,-,13.0,4.0,0.0
20/03/2012,-,12.5,2.5,4.2
21/03/2012,-,8.5,5.0,10.8
22/03/2012,-,14.5,1.5,0.0
23/03/2012,-,17.5,0.5,0.0
24/03/2012,-,20.5,1.5,0.0
25/03/2012,-,22.5,2.0,0.0
26/03/2012,-,22.5,2.5,0.0
27/03/2012,-,21.5,3.5,0.0
28/03/2012,-,23.0,3.0,0.0
29/03/2012,-,24.0,2.5,0.0
30/03/2012,-,24.5,7.5,0.0
31/03/2012,-,24.5,9.5,0.0
01/04/2012,-,24.0,8.5,0.0
02/04/2012,-,23.0,6.0,0.0
03/04/2012,-,12.5,6.5,2.3
04/04/2012,-,15.5,8.0,2.9
05/04/2012,-,12.5,7.5,12.8
06/04/2012,-,13.5,7.5,2.8
07/04/2012,-,11.5,-0.5,0.2
08/04/2012,-,15.5,7.0,0.0
09/04/2012,-,21.5,7.0,0.0
10/04/2012,-,18.5,9.5,4.8
11/04/2012,-,15.5,3.0,0.0
12/04/2012,-,15.5,5.5,1.9
13/04/2012,-,14.5,4.5,3.6
14/04/2012,-,13.5,6.0,0.3
15/04/2012,-,11.5,4.5,0.0
16/04/2012,-,11.0,4.5,0.0
17/04/2012,-,18.0,2.0,0.6
18/04/2012,-,14.5,6.0,0.5
19/04/2012,-,14.5,6.5,0.3
20/04/2012,-,17.5,5.5,2.0
21/04/2012,-,19.0,5.5,0.9
22/04/2012,-,16.5,7.5,0.0
23/04/2012,-,20.0,4.0,0.4
24/04/2012,-,17.0,4.5,0.0
25/04/2012,-,22.5,8.5,0.1
26/04/2012,-,17.5,9.5,0.0
27/04/2012,-,23.5,6.0,14.2
28/04/2012,-,11.0,7.5,10.5
29/04/2012,-,15.0,5.0,17.8
30/04/2012,-,16.0,7.0,2.6
01/05/2012,-,18.0,4.0,0.3
02/05/2012,-,21.5,4.5,0.0
03/05/2012,-,23.0,9.0,0.0
04/05/2012,-,20.0,9.5,2.1
05/05/2012,-,18.5,6.0,0.4
06/05/2012,-,19.5,8.0,0.0
07/05/2012,-,24.0,5.0,0.4
08/05/2012,-,25.0,12.5,0.1
09/05/2012,-,29.0,11.5,0.0
10/05/2012,-,31.5,14.5,0.0
11/05/2012,-,34.0,16.0,0.5
12/05/2012,-,28.0,17.5,2.2
13/05/2012,-,23.0,13.0,0.0
14/05/2012,-,26.0,9.5,0.0
15/05/2012,-,21.0,7.5,0.0
16/05/2012,-,25.5,6.5,0.0
17/05/2012,-,25.0,11.5,3.4
18/05/2012,-,24.0,14.0,3.3
19/05/2012,-,19.0,13.0,27.7
20/05/2012,-,13.0,9.0,3.2
21/05/2012,-,15.0,9.0,0.0
22/05/2012,-,19.5,10.5,0.0
23/05/2012,-,27.5,8.0,0.0
24/05/2012,-,30.0,13.0,0.0
25/05/2012,-,31.5,14.0,0.0
26/05/2012,-,27.0,15.0,0.0
27/05/2012,-,27.0,10.5,0.0
28/05/2012,-,28.0,11.0,0.3
29/05/2012,-,30.5,15.0,0.0
30/05/2012,-,32.0,13.5,0.0
31/05/2012,-,33.0,14.0,0.0
01/06/2012,-,36.0,15.0,0.0
02/06/2012,-,35.5,19.0,15.8
03/06/2012,-,21.0,14.0,0.1
04/06/2012,-,25.0,14.5,0.0
05/06/2012,-,31.0,10.0,0.0
06/06/2012,-,29.0,15.5,0.0
07/06/2012,-,28.5,18.5,0.0
08/06/2012,-,22.0,12.0,0.0
09/06/2012,-,25.0,7.5,0.0
10/06/2012,-,27.5,12.5,0.0
11/06/2012,-,25.5,15.0,2.2
12/06/2012,-,21.5,11.0,0.2
13/06/2012,-,23.5,12.0,0.0
14/06/2012,-,32.5,10.5,0.0
15/06/2012,-,34.0,14.5,0.0
16/06/2012,-,33.5,14.0,0.0
17/06/2012,-,33.5,12.5,0.0
18/06/2012,-,24.5,16.5,1.8
19/06/2012,-,28.5,15.5,3.4
20/06/2012,-,32.0,15.0,0.0
21/06/2012,-,29.5,15.5,0.0
22/06/2012,-,27.0,10.0,0.0
23/06/2012,-,30.5,12.5,0.0
24/06/2012,-,34.0,16.0,0.0
25/06/2012,-,33.5,15.0,0.0
26/06/2012,-,37.5,17.0,0.0
27/06/2012,-,36.0,17.5,0.0
28/06/2012,-,38.5,19.5,0.0
29/06/2012,-,34.0,15.5,0.0
30/06/2012,-,29.0,14.5,0.0
01/07/2012,-,21.5,14.5,0.0
02/07/2012,-,29.5,8.5,0.0
03/07/2012,-,34.0,12.0,0.0
04/07/2012,-,30.5,17.0,0.0
05/07/2012,-,25.0,16.5,0.0
06/07/2012,-,28.0,13.0,0.0
07/07/2012,-,34.5,15.0,0.0
08/07/2012,-,27.5,16.5,0.0
09/07/2012,-,31.5,14.5,0.0
10/07/2012,-,27.0,16.5,0.0
11/07/2012,-,25.0,15.0,0.0
12/07/2012,-,31.5,11.0,0.0
13/07/2012,-,35.0,12.5,0.0
14/07/2012,-,24.5,17.0,0.0
15/07/2012,-,25.5,16.0,0.0
16/07/2012,-,31.0,10.5,0.0
17/07/2012,-,36.5,16.0,0.0
18/07/2012,-,38.5,14.5,0.0
19/07/2012,-,29.5,16.5,0.0
20/07/2012,-,28.0,14.5,0.0
21/07/2012,-,25.5,15.0,0.0
22/07/2012,-,27.5,15.0,0.0
23/07/2012,-,32.0,15.5,0.0
24/07/2012,-,33.5,14.5,0.0
25/07/2012,-,35.5,19.0,2.8
26/07/2012,-,36.5,20.0,6.1
27/07/2012,-,30.5,17.0,1.1
28/07/2012,-,27.5,16.5,0.0
29/07/2012,-,30.0,14.5,0.0
30/07/2012,-,33.5,14.0,0.0
31/07/2012,-,36.0,16.0,0.0
01/08/2012,-,35.0,16.0,0.0
02/08/2012,-,31.5,17.0,0.0
03/08/2012,-,31.0,15.5,0.0
04/08/2012,-,31.5,16.0,0.6
05/08/2012,-,27.5,15.0,2.3
06/08/2012,-,27.0,13.0,0.0
07/08/2012,-,33.0,12.5,0.0
08/08/2012,-,35.0,16.5,0.0
09/08/2012,-,39.0,20.0,0.0
10/08/2012,-,42.0,18.5,0.0
11/08/2012,-,37.0,21.5,0.0
12/08/2012,-,29.0,19.0,0.0
13/08/2012,-,32.5,15.0,0.0
14/08/2012,-,35.5,16.5,0.0
15/08/2012,-,28.5,20.5,0.0
16/08/2012,-,35.0,12.0,0.0
17/08/2012,-,38.5,13.5,0.0
18/08/2012,-,38.5,22.5,0.0
19/08/2012,-,37.5,25.5,0.0
20/08/2012,-,39.0,20.5,0.0
21/08/2012,-,39.0,20.5,0.0
22/08/2012,-,34.5,19.0,0.0
23/08/2012,-,35.0,18.5,0.0
24/08/2012,-,33.5,15.5,0.0
25/08/2012,-,26.0,18.0,0.0
26/08/2012,-,28.5,13.5,0.0
27/08/2012,-,35.0,13.0,0.0
28/08/2012,-,34.0,15.5,0.0
29/08/2012,-,32.0,18.0,7.6
30/08/2012,-,23.5,17.0,0.0
31/08/2012,-,22.5,14.0,0.0
01/09/2012,-,22.0,12.5,0.0
02/09/2012,-,24.0,11.5,0.0
03/09/2012,-,24.5,14.0,0.0
04/09/2012,-,25.0,14.5,0.0
05/09/2012,-,27.5,15.5,0.0
06/09/2012,-,31.0,15.5,0.0
07/09/2012,-,33.0,13.5,0.0
08/09/2012,-,33.0,14.5,0.0
09/09/2012,-,32.0,13.5,0.2
10/09/2012,-,31.0,16.0,0.0
11/09/2012,-,32.0,16.0,0.0
12/09/2012,-,26.0,16.0,0.0
13/09/2012,-,22.5,14.0,0.0
14/09/2012,-,27.5,12.5,0.0
15/09/2012,-,32.0,10.5,0.0
16/09/2012,-,32.0,9.5,0.0
17/09/2012,-,30.0,11.5,0.0
18/09/2012,-,24.5,14.5,0.1
19/09/2012,-,23.5,15.0,0.0
20/09/2012,-,28.0,8.5,0.0
21/09/2012,-,29.5,11.0,1.9
22/09/2012,-,29.0,15.0,0.0
23/09/2012,-,33.5,16.0,0.0
24/09/2012,-,26.5,18.0,0.0
25/09/2012,-,23.5,9.5,0.8
26/09/2012,-,21.0,11.0,0.0
27/09/2012,-,22.0,6.0,0.3
28/09/2012,-,20.5,9.5,16.8
29/09/2012,-,18.0,13.0,0.3
30/09/2012,-,20.0,12.0,0.0
01/10/2012,-,22.5,5.5,0.0
02/10/2012,-,24.5,5.5,0.0
03/10/2012,-,25.0,7.0,0.0
04/10/2012,-,25.0,9.5,0.0
05/10/2012,-,26.5,9.0,0.0
06/10/2012,-,24.0,9.5,0.0
07/10/2012,-,28.0,14.5,0.0
08/10/2012,-,28.5,13.5,0.0
09/10/2012,-,28.5,13.0,0.0
10/10/2012,-,26.5,15.5,25.3
11/10/2012,-,23.5,14.0,11.4
12/10/2012,-,18.5,12.5,0.2
13/10/2012,-,19.5,8.0,0.0
14/10/2012,-,18.5,6.5,5.4
15/10/2012,-,17.0,8.0,0.0
16/10/2012,-,20.0,5.5,0.0
17/10/2012,-,23.0,6.0,0.0
18/10/2012,-,21.5,11.5,2.0
19/10/2012,-,18.5,16.0,9.5
20/10/2012,-,14.0,11.5,31.0
21/10/2012,-,16.0,12.0,6.6
22/10/2012,-,19.0,10.5,2.8
23/10/2012,-,20.5,7.5,0.0
24/10/2012,-,19.5,8.5,8.4
25/10/2012,-,19.0,12.0,13.4
26/10/2012,-,19.5,13.5,3.0
27/10/2012,-,15.0,13.0,0.0
28/10/2012,-,10.5,8.5,0.0
29/10/2012,-,14.0,1.0,0.0
30/10/2012,-,10.5,0.0,0.0
31/10/2012,-,15.0,3.0,0.0
01/11/2012,-,16.5,2.5,0.1
02/11/2012,-,20.5,5.0,0.0
03/11/2012,-,16.5,7.0,2.9
04/11/2012,-,13.5,9.0,5.1
05/11/2012,-,14.5,2.5,0.0
06/11/2012,-,12.5,4.5,0.3
07/11/2012,-,11.5,1.0,0.5
08/11/2012,-,10.5,1.8,0.8
09/11/2012,-,14.0,9.0,0.7
10/11/2012,-,14.5,9.5,1.1
11/11/2012,-,11.5,5.0,0.0
12/11/2012,-,13.5,5.5,0.0
13/11/2012,-,15.0,4.0,0.0
14/11/2012,-,17.0,4.5,0.0
15/11/2012,-,18.0,5.5,0.0
16/11/2012,-,12.5,7.0,0.0
17/11/2012,-,14.0,9.5,2.4
18/11/2012,-,14.5,10.5,0.0
19/11/2012,-,15.0,2.5,0.0
20/11/2012,-,13.0,1.0,0.0
21/11/2012,-,14.0,3.0,0.0
22/11/2012,-,13.0,0.5,0.0
23/11/2012,-,13.5,-0.5,0.0
24/11/2012,-,13.5,0.0,0.0
25/11/2012,-,13.5,8.5,5.9
26/11/2012,-,10.5,9.0,1.6
27/11/2012,-,9.0,4.0,1.7
28/11/2012,-,7.5,4.5,24.5
29/11/2012,-,8.0,3.5,0.7
30/11/2012,-,7.5,3.0,0.0
01/12/2012,-,7.5,0.5,0.0
02/12/2012,-,10.5,1.0,0.0
03/12/2012,-,13.0,3.5,0.4
04/12/2012,-,11.0,4.5,0.1
05/12/2012,-,10.0,3.0,0.0
06/12/2012,-,10.5,2.5,0.0
07/12/2012,-,13.5,0.5,0.0
08/12/2012,-,11.0,2.0,0.0
09/12/2012,-,10.5,2.5,0.0
10/12/2012,-,10.0,1.0,0.0
11/12/2012,-,11.0,1.5,0.0
12/12/2012,-,5.0,-4.0,0.0
13/12/2012,-,11.5,-3.5,0.6
14/12/2012,-,15.5,2.5,1.2
15/12/2012,-,15.0,4.0,0.0
16/12/2012,-,15.0,4.0,0.0
17/12/2012,-,15.5,1.5,0.6
18/12/2012,-,15.0,-0.5,0.5
19/12/2012,-,12.0,1.5,0.0
20/12/2012,-,13.0,8.0,0.0
21/12/2012,-,14.0,4.5,0.0
22/12/2012,-,14.5,2.5,0.0
23/12/2012,-,10.0,3.0,0.0
24/12/2012,-,15.5,5.0,0.0
25/12/2012,-,15.0,7.0,1.0
26/12/2012,-,14.5,7.5,0.0
27/12/2012,-,14.0,-0.5,0.0
