Fecha, Temperatura media, Temperatura maxima, Temperatura minima, Precipitacion acumulada
01/01/2018,-,13.0,2.0,3.1
02/01/2018,-,13.0,9.0,0.6
03/01/2018,-,18.0,6.5,0.0
04/01/2018,-,18.5,10.0,0.0
05/01/2018,-,16.0,6.0,6.7
06/01/2018,-,4.5,4.0,35.7
07/01/2018,-,7.0,1.0,0.0
08/01/2018,-,6.0,2.0,0.0
09/01/2018,-,6.5,-2.0,0.8
10/01/2018,-,9.0,0.0,0.7
11/01/2018,-,10.0,2.5,10.1
12/01/2018,-,11.0,2.0,0.0
13/01/2018,-,7.8,2.0,5.4
14/01/2018,-,10.0,4.0,0.1
15/01/2018,-,8.0,5.0,0.0
16/01/2018,-,15.0,3.0,0.0
17/01/2018,-,12.0,6.0,0.0
18/01/2018,-,12.5,-0.5,0.0
19/01/2018,-,13.0,3.8,0.0
20/01/2018,-,14.5,4.0,0.0
21/01/2018,-,16.0,8.0,0.0
22/01/2018,-,15.5,9.8,0.0
23/01/2018,-,16.5,10.0,0.0
24/01/2018,-,9.0,3.5,0.0
25/01/2018,-,8.5,5.8,4.9
26/01/2018,-,10.0,6.0,2.7
27/01/2018,-,10.0,5.5,0.0
28/01/2018,-,13.0,2.0,0.0
29/01/2018,-,14.0,-0.5,0.0
30/01/2018,-,11.0,-0.9,0.0
31/01/2018,-,11.0,-1.0,0.0
01/02/2018,-,10.0,2.5,0.1
02/02/2018,-,7.0,2.8,0.0
03/02/2018,-,10.0,1.0,0.4
04/02/2018,-,8.0,2.0,3.8
05/02/2018,-,6.0,3.0,0.3
06/02/2018,-,6.5,3.0,0.0
07/02/2018,-,5.5,2.4,0.0
08/02/2018,-,7.0,1.0,0.0
09/02/2018,-,7.5,-2.0,0.0
10/02/2018,-,8.5,2.0,0.0
11/02/2018,-,14.5,0.5,0.0
12/02/2018,-,8.5,5.0,0.0
13/02/2018,-,7.0,-3.0,0.7
14/02/2018,-,10.0,3.0,2.1
15/02/2018,-,14.5,2.5,0.0
16/02/2018,-,17.5,4.5,0.0
17/02/2018,-,13.0,7.0,0.0
18/02/2018,-,11.0,6.0,0.0
19/02/2018,-,14.0,9.0,0.0
20/02/2018,-,13.0,10.4,0.0
21/02/2018,-,8.5,5.0,0.0
22/02/2018,-,9.0,2.5,0.0
23/02/2018,-,7.0,0.0,0.0
24/02/2018,-,12.0,-1.0,0.0
25/02/2018,-,15.0,-2.0,0.0
26/02/2018,-,11.0,3.0,0.0
27/02/2018,-,6.0,-2.5,6.1
28/02/2018,-,10.0,-1.0,14.9
01/03/2018,-,11.0,1.0,0.5
02/03/2018,-,11.5,1.0,2.3
03/03/2018,-,17.5,3.5,0.5
04/03/2018,-,14.5,9.0,3.7
05/03/2018,-,15.0,7.0,0.5
06/03/2018,-,14.0,3.0,0.3
07/03/2018,-,13.0,2.0,1.1
08/03/2018,-,15.0,5.0,0.0
09/03/2018,-,16.0,9.0,2.1
10/03/2018,-,14.0,11.0,2.5
11/03/2018,-,16.0,9.5,0.0
12/03/2018,-,15.0,6.0,1.5
13/03/2018,-,14.0,5.0,0.0
14/03/2018,-,13.0,4.0,14.2
15/03/2018,-,15.0,6.0,0.8
16/03/2018,-,13.0,4.0,0.0
17/03/2018,-,11.0,3.5,8.7
18/03/2018,-,11.0,3.0,0.0
19/03/2018,-,11.0,3.0,2.1
20/03/2018,-,9.0,2.0,0.0
21/03/2018,-,9.0,2.5,0.0
22/03/2018,-,11.0,5.0,0.0
23/03/2018,-,15.0,2.0,4.1
24/03/2018,-,12.0,5.0,0.0
25/03/2018,-,12.0,6.0,0.0
26/03/2018,-,12.0,7.0,0.0
27/03/2018,-,18.0,6.0,0.0
28/03/2018,-,19.0,5.5,0.0
29/03/2018,-,15.0,7.5,0.0
30/03/2018,-,14.0,6.0,0.0
31/03/2018,-,14.0,7.0,0.0
01/04/2018,-,18.0,1.0,0.0
02/04/2018,-,19.0,8.0,0.0
03/04/2018,-,21.0,8.0,0.0
04/04/2018,-,19.0,8.0,0.2
05/04/2018,-,19.0,9.5,0.0
06/04/2018,-,21.5,8.5,11.7
07/04/2018,-,11.5,10.0,18.4
08/04/2018,-,15.0,8.0,0.4
09/04/2018,-,11.0,5.0,1.7
10/04/2018,-,9.0,5.0,18.8
11/04/2018,-,11.5,4.0,11.0
12/04/2018,-,16.0,6.0,1.9
13/04/2018,-,15.0,8.5,12.2
14/04/2018,-,18.0,6.0,0.0
15/04/2018,-,20.0,6.5,8.7
16/04/2018,-,16.0,9.0,0.0
17/04/2018,-,22.0,4.5,0.0
18/04/2018,-,25.0,6.5,0.0
19/04/2018,-,24.0,9.5,0.0
20/04/2018,-,23.0,9.0,0.0
21/04/2018,-,23.0,9.0,0.0
22/04/2018,-,22.0,11.5,0.2
23/04/2018,-,23.0,10.0,0.0
24/04/2018,-,26.0,9.0,0.0
25/04/2018,-,23.0,12.0,0.0
26/04/2018,-,20.0,11.5,0.3
27/04/2018,-,21.5,9.5,4.9
28/04/2018,-,21.0,10.0,0.0
29/04/2018,-,13.5,7.0,15.4
30/04/2018,-,14.5,4.0,3.5
01/05/2018,-,14.5,6.0,0.0
02/05/2018,-,18.0,4.0,0.0
03/05/2018,-,14.0,8.5,0.0
04/05/2018,-,17.0,9.5,0.0
05/05/2018,-,21.0,9.0,0.0
06/05/2018,-,25.0,9.0,0.0
07/05/2018,-,26.0,12.0,1.7
08/05/2018,-,22.0,13.0,0.0
09/05/2018,-,22.0,11.0,0.0
10/05/2018,-,18.0,11.5,0.0
11/05/2018,-,25.0,5.0,0.0
12/05/2018,-,17.0,12.0,1.7
13/05/2018,-,15.0,6.0,0.0
14/05/2018,-,17.0,9.0,0.0
15/05/2018,-,17.5,10.0,0.0
16/05/2018,-,20.5,10.0,0.0
17/05/2018,-,24.0,10.5,0.0
18/05/2018,-,25.0,11.0,0.0
19/05/2018,-,25.0,11.0,0.0
20/05/2018,-,25.5,14.0,0.0
21/05/2018,-,24.0,14.0,0.0
22/05/2018,-,25.0,12.0,0.0
23/05/2018,-,22.5,10.0,2.7
24/05/2018,-,25.0,16.0,11.5
25/05/2018,-,23.0,14.0,3.9
26/05/2018,-,24.0,14.0,19.4
27/05/2018,-,27.0,14.0,3.6
28/05/2018,-,19.0,14.0,3.8
29/05/2018,-,22.0,13.5,1.2
30/05/2018,-,22.0,14.5,6.0
31/05/2018,-,24.0,15.0,0.3
01/06/2018,-,25.5,15.0,4.4
02/06/2018,-,26.0,16.0,0.3
03/06/2018,-,25.0,16.0,0.0
04/06/2018,-,24.0,16.5,0.7
05/06/2018,-,21.5,14.0,0.0
06/06/2018,-,22.0,12.0,0.0
07/06/2018,-,25.0,12.0,0.0
08/06/2018,-,25.0,14.0,0.0
09/06/2018,-,22.0,16.0,2.6
10/06/2018,-,25.0,13.0,0.0
11/06/2018,-,22.0,13.0,8.6
12/06/2018,-,22.0,11.0,0.0
13/06/2018,-,20.0,14.0,0.0
14/06/2018,-,21.5,12.0,0.0
15/06/2018,-,25.0,14.0,0.0
16/06/2018,-,23.0,16.0,0.0
17/06/2018,-,25.0,13.0,0.0
18/06/2018,-,24.5,13.0,0.0
19/06/2018,-,29.5,16.0,0.0
20/06/2018,-,33.5,17.0,0.0
21/06/2018,-,34.5,15.5,0.0
22/06/2018,-,28.5,20.0,0.0
23/06/2018,-,29.0,17.0,0.0
24/06/2018,-,32.0,14.5,0.0
25/06/2018,-,33.0,17.0,0.0
26/06/2018,-,34.0,16.5,0.0
27/06/2018,-,30.0,20.0,0.7
28/06/2018,-,27.0,18.0,0.0
29/06/2018,-,32.0,17.0,14.6
30/06/2018,-,32.0,18.0,5.3
01/07/2018,-,32.0,18.0,0.0
02/07/2018,-,30.0,19.0,0.0
03/07/2018,-,32.0,20.0,0.0
04/07/2018,-,34.0,21.0,3.3
05/07/2018,-,25.5,17.0,0.0
06/07/2018,-,28.0,16.0,0.0
07/07/2018,-,31.5,17.0,8.0
08/07/2018,-,32.0,18.0,0.0
09/07/2018,-,29.5,20.0,0.0
10/07/2018,-,29.0,20.0,0.0
11/07/2018,-,30.0,19.0,0.0
12/07/2018,-,29.0,20.0,0.0
13/07/2018,-,32.0,19.5,17.9
14/07/2018,-,34.0,17.0,0.0
15/07/2018,-,32.5,18.0,0.0
16/07/2018,-,25.5,18.0,0.0
17/07/2018,-,31.5,16.5,0.0
18/07/2018,-,33.0,18.5,3.0
19/07/2018,-,33.0,17.0,0.0
20/07/2018,-,26.0,20.5,0.0
21/07/2018,-,25.0,17.0,0.0
22/07/2018,-,27.0,16.0,0.0
23/07/2018,-,34.0,14.0,0.0
24/07/2018,-,33.0,18.0,0.5
25/07/2018,-,34.0,16.5,0.0
26/07/2018,-,36.5,20.5,0.0
27/07/2018,-,34.0,20.5,0.0
28/07/2018,-,29.0,20.0,0.0
29/07/2018,-,33.0,17.0,0.0
30/07/2018,-,35.0,20.0,0.0
31/07/2018,-,32.0,21.0,0.0
01/08/2018,-,34.0,20.5,0.0
02/08/2018,-,36.0,21.0,0.0
03/08/2018,-,37.0,22.0,0.0
04/08/2018,-,35.0,24.0,0.0
05/08/2018,-,35.5,21.0,0.0
06/08/2018,-,36.5,18.0,0.0
07/08/2018,-,36.0,23.0,2.2
08/08/2018,-,32.0,20.0,0.0
09/08/2018,-,26.0,18.5,0.0
10/08/2018,-,29.0,16.0,0.0
11/08/2018,-,32.0,17.0,0.0
12/08/2018,-,32.5,22.0,0.8
13/08/2018,-,28.5,18.0,0.0
14/08/2018,-,25.0,18.0,0.0
15/08/2018,-,30.0,16.0,0.0
16/08/2018,-,30.5,17.0,0.0
17/08/2018,-,24.0,18.0,0.0
18/08/2018,-,25.0,12.0,0.0
19/08/2018,-,30.5,14.0,0.0
20/08/2018,-,30.5,15.0,0.0
21/08/2018,-,34.0,18.0,0.0
22/08/2018,-,34.0,16.0,0.0
23/08/2018,-,29.0,19.0,0.0
24/08/2018,-,25.0,16.0,0.0
25/08/2018,-,25.0,14.0,0.0
26/08/2018,-,29.0,15.5,0.0
27/08/2018,-,33.0,17.0,0.0
28/08/2018,-,34.0,18.5,1.6
29/08/2018,-,29.0,20.0,0.0
30/08/2018,-,28.0,17.5,0.0
31/08/2018,-,27.0,17.0,0.0
01/09/2018,-,29.0,17.0,0.0
02/09/2018,-,32.0,13.0,0.0
03/09/2018,-,29.0,15.0,0.0
04/09/2018,-,29.0,17.0,0.0
05/09/2018,-,26.0,17.0,0.5
06/09/2018,-,25.0,17.0,0.0
07/09/2018,-,27.0,15.0,0.0
08/09/2018,-,29.0,16.5,7.3
09/09/2018,-,27.0,17.0,0.0
10/09/2018,-,27.0,16.0,0.0
11/09/2018,-,29.0,15.0,0.0
12/09/2018,-,27.0,19.0,0.0
13/09/2018,-,28.0,17.0,0.0
14/09/2018,-,28.0,17.0,0.0
15/09/2018,-,26.0,15.0,0.0
16/09/2018,-,29.0,14.0,0.0
17/09/2018,-,30.0,17.0,0.0
18/09/2018,-,28.5,20.0,0.0
19/09/2018,-,29.0,16.0,0.0
20/09/2018,-,31.0,17.0,0.0
21/09/2018,-,28.0,17.0,0.0
22/09/2018,-,31.0,15.0,0.0
23/09/2018,-,33.0,17.0,0.0
24/09/2018,-,24.0,18.0,0.0
25/09/2018,-,22.0,10.0,0.0
26/09/2018,-,25.0,11.0,0.0
27/09/2018,-,27.0,14.0,0.0
28/09/2018,-,30.0,10.0,0.0
29/09/2018,-,26.0,12.0,0.0
30/09/2018,-,25.0,10.0,0.0
01/10/2018,-,20.0,15.0,0.0
02/10/2018,-,20.0,10.0,0.0
03/10/2018,-,27.0,11.0,0.0
04/10/2018,-,25.0,13.0,0.0
05/10/2018,-,27.0,9.5,0.0
06/10/2018,-,25.0,9.0,0.0
07/10/2018,-,18.0,10.0,0.0
08/10/2018,-,20.0,10.0,0.0
09/10/2018,-,19.0,7.0,0.0
10/10/2018,-,20.0,13.0,0.1
11/10/2018,-,25.0,14.0,0.0
12/10/2018,-,25.5,16.5,0.0
13/10/2018,-,27.0,16.0,0.0
14/10/2018,-,20.5,18.0,3.0
15/10/2018,-,20.0,12.0,0.0
16/10/2018,-,22.0,10.0,0.0
17/10/2018,-,23.0,8.5,0.0
18/10/2018,-,21.0,9.0,0.0
19/10/2018,-,22.0,10.0,8.0
20/10/2018,-,22.0,15.0,0.0
21/10/2018,-,25.0,10.0,0.0
22/10/2018,-,22.0,12.0,0.0
23/10/2018,-,20.0,12.0,0.0
24/10/2018,-,23.0,10.0,0.0
25/10/2018,-,24.0,11.5,0.0
26/10/2018,-,20.0,7.0,0.0
27/10/2018,-,13.0,9.0,0.0
28/10/2018,-,8.0,6.0,0.0
29/10/2018,-,10.5,5.0,1.7
30/10/2018,-,11.0,2.0,9.4
31/10/2018,-,11.0,8.0,9.5
01/11/2018,-,14.0,9.0,6.2
02/11/2018,-,15.0,9.0,0.0
03/11/2018,-,14.5,7.0,0.0
04/11/2018,-,14.5,0.5,0.9
05/11/2018,-,11.0,6.0,11.8
06/11/2018,-,13.0,5.0,0.2
07/11/2018,-,15.5,7.0,0.0
08/11/2018,-,14.5,5.0,9.3
09/11/2018,-,15.0,8.0,0.0
10/11/2018,-,18.0,10.0,0.0
11/11/2018,-,18.0,10.0,0.0
12/11/2018,-,18.5,13.0,0.0
13/11/2018,-,18.0,13.0,0.0
14/11/2018,-,18.0,9.0,0.0
15/11/2018,-,18.0,13.0,0.0
16/11/2018,-,17.0,11.5,0.0
17/11/2018,-,16.0,10.0,1.4
18/11/2018,-,10.5,10.0,3.6
19/11/2018,-,15.0,9.5,2.3
20/11/2018,-,8.0,7.0,3.4
21/11/2018,-,14.5,5.5,0.7
22/11/2018,-,11.0,7.0,8.2
23/11/2018,-,12.0,7.5,0.6
24/11/2018,-,11.0,1.0,1.5
25/11/2018,-,12.0,5.0,4.4
26/11/2018,-,11.0,5.5,0.0
27/11/2018,-,13.0,6.5,0.0
28/11/2018,-,11.0,1.0,0.0
29/11/2018,-,11.0,0.0,6.5
30/11/2018,-,12.0,0.5,0.0
01/12/2018,-,12.0,4.5,0.0
02/12/2018,-,14.0,6.5,0.0
03/12/2018,-,14.0,3.0,0.0
04/12/2018,-,15.0,5.0,0.0
05/12/2018,-,13.5,5.0,0.0
06/12/2018,-,15.0,6.0,0.0
07/12/2018,-,14.0,2.0,0.0
08/12/2018,-,14.0,2.0,0.0
09/12/2018,-,15.0,3.0,0.0
10/12/2018,-,14.0,8.0,0.0
11/12/2018,-,10.0,0.5,0.0
12/12/2018,-,16.0,3.0,1.9
13/12/2018,-,10.0,4.0,4.8
14/12/2018,-,10.5,8.5,0.0
15/12/2018,-,10.0,4.0,5.1
16/12/2018,-,13.0,8.0,0.4
17/12/2018,-,9.0,4.0,0.0
18/12/2018,-,8.5,4.0,0.0
19/12/2018,-,11.0,1.5,0.0
20/12/2018,-,12.0,4.0,0.0
21/12/2018,-,11.0,4.0,0.0
22/12/2018,-,14.0,4.0,0.0
23/12/2018,-,10.0,4.0,0.0
24/12/2018,-,14.0,3.5,0.0
25/12/2018,-,6.0,3.0,0.4
26/12/2018,-,6.0,4.0,0.0
27/12/2018,-,5.0,4.0,0.0
