Fecha, Temperatura media, Temperatura maxima, Temperatura minima, Precipitacion acumulada
01/01/2010,6.3,10.3,1.3,0.0
02/01/2010,3.4,9.6,-1.6,0.2
03/01/2010,5.3,6.2,3.8,12.0
04/01/2010,4.6,6.5,2.7,1.2
05/01/2010,5.1,7.9,1.1,0.8
06/01/2010,2.1,7.7,-1.8,0.0
07/01/2010,0.7,4.0,-2.4,0.2
08/01/2010,-0.2,1.9,-2.5,0.0
09/01/2010,-1.7,1.4,-3.4,1.8
10/01/2010,-2.3,2.4,-5.5,0.0
11/01/2010,-0.5,5.2,-3.9,0.0
12/01/2010,-0.7,3.7,-5.0,2.6
13/01/2010,2.2,7.4,-2.7,7.6
14/01/2010,6.0,7.2,4.9,7.2
15/01/2010,5.6,11.6,1.7,0.0
16/01/2010,5.1,8.0,1.4,2.0
17/01/2010,7.7,11.3,4.9,0.0
18/01/2010,7.1,10.3,3.2,0.0
19/01/2010,9.2,11.1,8.2,0.0
20/01/2010,7.7,12.5,4.3,0.2
21/01/2010,4.5,10.7,-0.2,0.0
22/01/2010,4.3,12.7,-1.8,0.2
23/01/2010,6.5,8.3,4.6,0.6
24/01/2010,6.6,10.5,4.9,0.2
25/01/2010,4.0,7.1,1.4,0.2
26/01/2010,2.9,6.6,-1.2,0.0
27/01/2010,0.5,4.5,-2.9,0.0
28/01/2010,3.3,8.4,-3.9,0.0
29/01/2010,6.5,10.9,4.3,0.6
30/01/2010,5.6,8.9,3.8,1.8
31/01/2010,2.8,6.2,0.4,2.2
01/02/2010,2.6,9.2,-1.2,0.2
02/02/2010,1.3,8.8,-3.0,0.0
03/02/2010,1.0,9.2,-6.0,0.2
04/02/2010,5.0,8.0,-0.7,6.6
05/02/2010,7.8,13.1,3.0,2.0
06/02/2010,9.2,13.1,5.5,0.0
07/02/2010,7.1,10.8,3.4,0.0
08/02/2010,4.4,6.3,1.1,8.6
09/02/2010,4.5,8.3,1.4,0.2
10/02/2010,2.8,7.0,-1.0,0.0
11/02/2010,-1.3,1.0,-3.7,1.0
12/02/2010,-1.4,2.5,-4.0,1.8
13/02/2010,-1.3,1.8,-3.4,0.0
14/02/2010,-0.5,2.0,-3.5,0.0
15/02/2010,-0.7,3.4,-4.7,0.0
16/02/2010,1.6,4.0,-0.7,10.4
17/02/2010,6.5,8.5,3.9,5.8
18/02/2010,6.0,11.0,0.9,0.2
19/02/2010,5.4,10.1,-0.4,0.0
20/02/2010,3.1,10.7,-3.3,0.2
21/02/2010,4.0,7.5,-0.2,3.6
22/02/2010,8.3,12.7,4.2,0.2
23/02/2010,10.1,17.1,4.6,0.0
24/02/2010,10.0,15.1,5.5,0.4
25/02/2010,11.9,17.1,7.4,0.0
26/02/2010,9.5,15.3,5.4,0.0
27/02/2010,10.4,18.0,7.0,1.6
28/02/2010,10.7,15.7,5.7,0.0
01/03/2010,9.5,15.9,3.6,1.8
02/03/2010,7.9,15.6,-1.0,0.0
03/03/2010,6.6,8.8,5.4,5.6
04/03/2010,8.1,13.5,5.1,0.2
05/03/2010,6.6,11.7,2.6,0.0
06/03/2010,7.3,11.5,3.8,0.0
07/03/2010,4.2,10.9,-1.6,0.0
08/03/2010,0.8,4.3,-3.3,0.0
09/03/2010,2.6,7.0,-1.1,0.0
10/03/2010,0.6,4.1,-1.3,0.0
11/03/2010,1.8,5.8,-0.5,0.8
12/03/2010,3.2,7.0,1.2,0.2
13/03/2010,5.9,10.7,2.4,0.0
14/03/2010,5.4,10.3,1.2,0.0
15/03/2010,7.0,15.8,-0.7,0.0
16/03/2010,6.0,16.1,-3.8,0.0
17/03/2010,8.9,19.0,-1.6,0.0
18/03/2010,9.9,15.9,4.8,0.0
19/03/2010,10.5,17.8,1.8,1.4
20/03/2010,15.5,20.5,11.8,0.0
21/03/2010,12.8,17.7,8.6,0.0
22/03/2010,13.0,21.3,6.6,0.0
23/03/2010,10.9,18.9,0.3,0.0
24/03/2010,12.8,17.4,10.1,19.8
25/03/2010,10.8,16.6,7.5,5.6
26/03/2010,9.0,15.4,2.0,0.2
27/03/2010,10.6,17.2,3.6,0.0
28/03/2010,10.2,16.9,4.2,0.0
29/03/2010,12.6,18.3,6.2,2.8
30/03/2010,9.7,15.2,5.0,0.4
31/03/2010,8.7,15.3,2.4,1.2
01/04/2010,7.7,14.1,1.4,0.0
02/04/2010,8.1,16.5,0.2,0.0
03/04/2010,10.2,15.9,6.1,0.2
04/04/2010,8.1,13.7,2.7,0.0
05/04/2010,8.6,17.4,-1.1,0.0
06/04/2010,11.5,19.4,2.9,0.0
07/04/2010,10.1,14.0,5.7,0.6
08/04/2010,9.8,14.4,5.2,0.0
09/04/2010,11.2,19.4,3.5,0.0
10/04/2010,12.4,22.4,1.8,0.0
11/04/2010,12.6,20.8,5.0,0.0
12/04/2010,9.7,14.3,4.1,0.6
13/04/2010,9.3,16.7,1.8,0.0
14/04/2010,9.2,13.3,6.4,0.0
15/04/2010,9.9,12.3,6.5,0.0
16/04/2010,13.2,19.3,8.2,0.0
17/04/2010,12.1,17.9,8.4,0.0
18/04/2010,11.8,17.0,8.5,0.4
19/04/2010,13.6,21.6,7.4,0.2
20/04/2010,15.5,24.5,6.9,0.2
21/04/2010,16.0,23.2,6.8,0.0
22/04/2010,14.0,16.6,11.5,7.6
23/04/2010,13.8,19.2,8.5,0.0
24/04/2010,15.2,24.9,6.2,0.0
25/04/2010,17.0,25.4,9.0,0.0
26/04/2010,18.1,27.4,8.8,0.0
27/04/2010,19.4,28.6,11.1,0.0
28/04/2010,17.3,25.5,7.0,0.0
29/04/2010,16.9,24.6,12.2,9.0
30/04/2010,15.6,22.9,10.1,3.2
01/05/2010,12.9,17.1,8.2,1.0
02/05/2010,10.4,14.7,6.3,0.0
03/05/2010,9.0,13.5,5.6,1.6
04/05/2010,6.2,7.2,5.2,2.4
05/05/2010,7.4,11.4,5.6,0.6
06/05/2010,8.8,14.1,3.9,0.0
07/05/2010,8.2,14.4,-0.2,2.2
08/05/2010,12.3,19.8,5.4,0.4
09/05/2010,13.5,20.0,9.1,16.0
10/05/2010,12.8,21.5,5.2,2.2
11/05/2010,11.4,18.2,4.7,0.6
12/05/2010,10.9,17.4,7.7,0.6
13/05/2010,8.8,12.3,5.6,0.6
14/05/2010,9.5,15.5,3.5,0.6
15/05/2010,10.1,14.4,5.5,0.2
16/05/2010,10.3,15.7,3.8,0.0
17/05/2010,11.9,18.5,5.2,0.0
18/05/2010,15.1,24.1,5.8,0.6
19/05/2010,13.6,18.6,7.4,0.0
20/05/2010,16.6,23.8,9.3,0.0
21/05/2010,18.6,28.5,7.5,1.4
22/05/2010,19.7,29.7,8.6,0.2
23/05/2010,20.0,28.0,10.1,0.0
24/05/2010,20.7,29.0,11.8,0.0
25/05/2010,21.4,29.7,14.5,0.0
26/05/2010,18.3,25.8,11.8,0.0
27/05/2010,16.9,24.3,9.5,0.0
28/05/2010,15.4,19.9,10.4,0.0
29/05/2010,16.5,24.8,6.2,0.0
30/05/2010,19.1,26.0,11.3,0.2
31/05/2010,20.4,25.5,15.4,0.0
01/06/2010,18.8,27.0,11.9,0.2
02/06/2010,17.9,24.0,12.7,0.0
03/06/2010,19.6,29.1,9.5,0.2
04/06/2010,21.4,30.6,12.1,0.0
05/06/2010,22.8,33.6,12.5,2.0
06/06/2010,16.8,19.8,13.6,1.4
07/06/2010,20.2,28.9,10.9,0.0
08/06/2010,19.4,28.6,15.0,1.0
09/06/2010,17.4,21.1,14.8,1.6
10/06/2010,18.4,24.2,13.3,0.4
11/06/2010,16.8,22.1,12.4,1.6
12/06/2010,15.6,19.4,13.1,5.8
13/06/2010,17.3,23.0,11.7,0.0
14/06/2010,15.3,20.4,11.0,0.0
15/06/2010,13.4,18.8,8.3,1.4
16/06/2010,12.7,15.8,10.7,7.4
17/06/2010,13.1,17.1,9.3,0.0
18/06/2010,15.2,21.6,8.3,0.0
19/06/2010,16.5,22.0,12.9,0.0
20/06/2010,14.3,17.8,10.9,0.4
21/06/2010,15.5,21.5,9.3,0.0
22/06/2010,18.0,25.0,11.3,0.0
23/06/2010,19.7,28.7,9.7,0.0
24/06/2010,21.6,31.7,9.9,0.0
25/06/2010,23.3,33.1,11.3,0.4
26/06/2010,23.2,32.3,17.0,1.0
27/06/2010,22.2,30.4,16.3,35.4
28/06/2010,21.8,29.7,16.7,3.0
29/06/2010,22.1,28.3,15.5,0.0
30/06/2010,23.1,31.5,15.0,0.0
01/07/2010,26.0,36.0,14.9,0.4
02/07/2010,23.4,31.1,17.8,3.2
03/07/2010,22.9,31.3,17.2,0.0
04/07/2010,22.4,28.2,17.1,0.0
05/07/2010,20.7,26.8,15.3,0.0
06/07/2010,21.2,27.7,15.4,0.2
07/07/2010,25.0,36.4,13.6,0.4
08/07/2010,29.0,36.3,18.2,0.0
09/07/2010,26.1,33.2,19.3,0.0
10/07/2010,26.6,36.2,16.4,0.0
11/07/2010,28.8,38.0,19.6,6.4
12/07/2010,24.7,31.5,18.8,1.0
13/07/2010,25.1,35.4,16.0,0.0
14/07/2010,22.7,31.9,16.8,0.2
15/07/2010,22.5,32.3,13.2,0.0
16/07/2010,21.9,27.9,16.4,0.2
17/07/2010,19.5,23.6,15.8,0.0
18/07/2010,22.8,32.5,13.9,0.8
19/07/2010,24.5,33.7,16.8,0.0
20/07/2010,23.7,34.3,17.0,0.2
21/07/2010,18.8,23.8,16.0,0.6
22/07/2010,17.6,21.8,14.9,4.8
23/07/2010,17.5,22.7,12.1,0.0
24/07/2010,18.2,24.2,12.1,0.0
25/07/2010,18.6,23.5,13.1,0.4
26/07/2010,19.4,24.2,14.1,0.2
27/07/2010,22.0,29.8,13.7,0.8
28/07/2010,23.3,31.2,15.0,0.2
29/07/2010,20.4,24.8,16.7,0.0
30/07/2010,20.5,26.7,13.0,1.3
31/07/2010,23.8,34.5,13.1,1.3
01/08/2010,23.1,31.9,17.8,0.0
02/08/2010,18.7,21.8,14.9,0.5
03/08/2010,18.3,23.7,12.5,0.3
04/08/2010,19.2,24.9,12.8,0.0
05/08/2010,18.9,23.2,12.4,0.5
06/08/2010,19.2,27.3,11.1,0.0
07/08/2010,22.5,34.8,11.2,0.0
08/08/2010,23.0,31.0,16.3,0.0
09/08/2010,21.0,25.5,15.9,0.3
10/08/2010,22.1,32.9,13.1,0.0
11/08/2010,21.7,29.8,14.1,0.0
12/08/2010,19.7,24.0,16.2,0.0
13/08/2010,17.7,22.3,13.5,0.0
14/08/2010,16.6,21.8,12.2,0.0
15/08/2010,16.7,22.8,12.0,0.0
16/08/2010,17.8,26.0,8.8,0.0
17/08/2010,21.5,32.9,11.0,0.0
18/08/2010,22.1,30.8,14.7,0.0
19/08/2010,21.8,27.5,17.8,6.6
20/08/2010,23.8,33.9,14.9,0.0
21/08/2010,25.8,36.1,16.6,0.0
22/08/2010,26.8,34.7,18.4,0.0
23/08/2010,26.1,34.2,16.9,0.0
24/08/2010,21.7,26.4,16.7,0.0
25/08/2010,24.5,35.4,13.3,0.0
26/08/2010,27.7,37.5,18.9,0.0
27/08/2010,22.7,29.8,16.8,0.0
28/08/2010,19.5,24.0,15.1,0.0
29/08/2010,18.7,25.4,13.7,0.0
30/08/2010,17.4,23.4,10.5,0.0
31/08/2010,18.7,27.4,10.2,0.1
01/09/2010,20.5,28.7,12.7,0.0
02/09/2010,20.4,26.2,16.8,1.0
03/09/2010,21.0,30.3,12.7,0.0
04/09/2010,21.0,30.6,12.0,0.0
05/09/2010,22.7,32.8,11.3,0.0
06/09/2010,24.2,32.0,18.0,0.0
07/09/2010,19.2,25.2,13.8,1.0
08/09/2010,17.1,23.9,11.0,0.1
09/09/2010,17.6,22.3,13.0,0.0
10/09/2010,18.1,27.6,9.4,0.0
11/09/2010,19.9,31.4,9.7,0.0
12/09/2010,18.7,23.5,13.3,0.0
13/09/2010,17.6,24.1,11.6,0.0
14/09/2010,20.2,28.9,12.4,0.0
15/09/2010,20.1,29.6,9.7,0.0
16/09/2010,18.6,21.3,15.7,0.2
17/09/2010,16.5,19.9,14.5,1.7
18/09/2010,15.7,20.3,11.6,0.0
19/09/2010,15.5,26.0,6.2,0.0
20/09/2010,17.9,25.1,8.0,0.0
21/09/2010,20.8,28.7,13.5,0.0
22/09/2010,20.0,27.2,12.2,0.0
23/09/2010,19.8,24.5,15.3,0.3
24/09/2010,16.3,20.4,10.5,0.1
25/09/2010,14.0,18.7,10.5,0.0
26/09/2010,12.4,16.9,6.8,0.0
27/09/2010,12.7,19.7,5.4,0.0
28/09/2010,13.1,20.9,4.8,0.0
29/09/2010,16.0,26.9,4.9,0.0
30/09/2010,15.4,21.0,9.8,0.0
01/10/2010,16.3,25.0,9.0,0.0
02/10/2010,19.9,27.3,12.7,0.0
03/10/2010,18.3,25.2,15.7,5.2
04/10/2010,15.2,19.7,8.2,2.7
05/10/2010,13.8,22.8,4.5,0.1
06/10/2010,17.1,25.8,8.8,0.0
07/10/2010,18.8,24.5,11.6,0.0
08/10/2010,20.9,27.0,16.9,0.0
09/10/2010,18.8,20.6,15.6,1.5
10/10/2010,13.1,15.6,11.6,11.0
11/10/2010,14.5,19.7,11.4,4.1
12/10/2010,15.0,19.5,10.3,0.1
13/10/2010,14.9,19.8,8.6,0.0
14/10/2010,11.3,17.8,6.4,0.0
15/10/2010,10.6,16.8,5.8,0.0
16/10/2010,10.5,16.9,5.4,0.0
17/10/2010,9.7,14.8,6.4,0.0
18/10/2010,9.4,14.2,5.4,0.0
19/10/2010,10.4,16.6,5.8,0.0
20/10/2010,9.9,15.5,4.5,0.0
21/10/2010,8.3,17.1,0.9,0.0
22/10/2010,8.5,16.2,0.7,0.0
23/10/2010,12.0,19.8,6.3,0.0
24/10/2010,11.6,19.9,5.7,3.8
25/10/2010,8.1,11.8,4.2,1.2
26/10/2010,8.7,15.7,3.8,0.0
27/10/2010,10.9,21.7,1.7,0.0
28/10/2010,12.2,21.6,4.4,0.0
29/10/2010,12.7,18.0,7.4,4.5
30/10/2010,10.3,13.2,5.2,0.2
31/10/2010,11.5,16.0,9.0,6.9
01/11/2010,12.7,16.1,9.6,6.3
02/11/2010,11.8,15.7,9.5,1.0
03/11/2010,13.6,19.0,9.3,0.0
04/11/2010,14.7,21.9,9.6,0.0
05/11/2010,12.5,19.0,7.5,0.0
06/11/2010,10.1,16.5,5.8,0.1
07/11/2010,10.1,13.4,5.1,0.9
08/11/2010,7.1,10.6,4.9,8.0
09/11/2010,9.5,14.4,4.7,0.1
10/11/2010,8.4,11.4,4.7,0.2
11/11/2010,7.2,12.2,1.1,0.1
12/11/2010,11.8,19.2,6.4,0.0
13/11/2010,9.7,17.1,2.7,0.0
14/11/2010,10.0,11.8,7.0,2.8
15/11/2010,7.9,12.3,3.7,0.2
16/11/2010,7.6,12.2,1.0,0.1
17/11/2010,4.4,8.6,0.8,1.9
18/11/2010,5.6,12.5,-0.7,0.1
19/11/2010,5.1,9.2,0.3,0.0
20/11/2010,8.8,12.4,6.0,7.7
21/11/2010,8.2,9.8,5.4,1.5
22/11/2010,7.4,11.3,5.5,0.0
23/11/2010,6.7,11.1,2.6,0.0
24/11/2010,5.5,10.7,1.4,0.0
25/11/2010,4.0,11.6,-2.0,0.0
26/11/2010,3.5,8.1,-2.6,0.0
27/11/2010,-0.2,5.6,-4.6,0.1
28/11/2010,0.1,7.8,-4.3,0.0
29/11/2010,-1.8,2.9,-6.0,0.1
30/11/2010,2.5,5.4,-0.3,1.2
01/12/2010,4.3,6.8,0.0,1.9
02/12/2010,1.7,6.1,-0.5,2.5
03/12/2010,1.9,6.1,-2.0,0.0
04/12/2010,1.5,6.7,-4.4,0.0
05/12/2010,5.2,8.3,2.8,1.7
06/12/2010,10.8,16.2,7.5,1.1
07/12/2010,12.9,15.4,11.2,0.6
08/12/2010,13.2,18.6,10.0,3.0
09/12/2010,7.0,10.0,2.1,1.3
10/12/2010,4.6,10.4,-0.6,0.0
11/12/2010,0.3,6.5,-3.1,0.0
12/12/2010,4.4,12.2,-1.3,0.1
13/12/2010,7.9,12.8,4.5,0.1
14/12/2010,3.9,9.3,0.3,0.0
15/12/2010,1.4,4.0,-2.1,0.1
16/12/2010,-0.0,4.8,-4.4,0.0
17/12/2010,1.7,8.6,-5.6,0.0
18/12/2010,1.4,7.5,-4.2,0.0
19/12/2010,2.6,8.5,-1.7,0.0
20/12/2010,1.4,10.5,-4.6,0.0
21/12/2010,5.9,8.5,2.7,3.7
22/12/2010,9.3,12.2,7.6,7.2
23/12/2010,6.9,9.0,3.9,2.4
24/12/2010,3.3,5.9,1.1,0.6
25/12/2010,0.7,3.1,-1.9,0.0
26/12/2010,0.2,6.1,-4.3,0.0
27/12/2010,-1.2,5.9,-6.1,0.0
28/12/2010,1.5,9.0,-3.8,0.0
29/12/2010,4.0,11.0,-0.5,0.0
30/12/2010,5.3,8.4,1.0,0.0
31/12/2010,7.8,12.5,5.5,0.0
