Fecha, Temperatura media, Temperatura maxima, Temperatura minima, Precipitacion acumulada
01/01/2012,8.0,14.6,2.5,0.0
02/01/2012,7.2,13.0,2.9,0.6
03/01/2012,5.0,12.6,-1.9,0.2
04/01/2012,7.3,14.2,1.3,0.0
05/01/2012,7.7,14.8,0.1,0.0
06/01/2012,10.5,12.8,5.3,0.0
07/01/2012,9.6,13.9,6.8,0.0
08/01/2012,9.5,13.6,6.7,0.0
09/01/2012,6.5,12.7,-1.1,0.0
10/01/2012,-0.2,5.5,-3.7,0.2
11/01/2012,-1.2,2.2,-4.7,0.2
12/01/2012,0.5,2.1,-1.7,0.2
13/01/2012,2.1,6.7,-2.9,0.0
14/01/2012,1.2,6.6,-3.1,0.2
15/01/2012,0.7,6.5,-3.9,0.8
16/01/2012,2.7,7.4,-1.1,3.7
17/01/2012,2.2,11.2,-3.5,0.2
18/01/2012,4.7,13.6,-4.6,0.2
19/01/2012,8.0,16.1,-0.1,0.0
20/01/2012,10.4,15.1,6.0,0.0
21/01/2012,10.0,15.6,4.1,0.0
22/01/2012,10.1,14.6,5.7,0.0
23/01/2012,10.2,14.7,7.4,0.0
24/01/2012,7.8,11.6,2.5,0.0
25/01/2012,2.9,11.4,-2.9,0.0
26/01/2012,4.2,14.2,-4.4,0.2
27/01/2012,6.0,9.1,1.9,0.2
28/01/2012,4.6,10.4,0.6,1.4
29/01/2012,3.6,7.8,0.4,0.0
30/01/2012,4.2,9.4,0.5,0.0
31/01/2012,4.2,11.7,-2.7,0.0
01/02/2012,4.6,9.5,1.2,1.4
02/02/2012,-0.7,2.0,-3.3,0.0
03/02/2012,-2.1,1.9,-4.7,0.0
04/02/2012,-0.2,3.9,-5.8,0.0
05/02/2012,3.4,8.8,0.4,4.9
06/02/2012,4.0,6.9,0.8,0.0
07/02/2012,1.7,6.5,-1.7,0.0
08/02/2012,-1.5,2.4,-3.7,0.0
09/02/2012,-0.1,4.0,-3.8,0.0
10/02/2012,2.1,7.4,-3.3,0.0
11/02/2012,-0.9,4.6,-5.7,0.0
12/02/2012,-0.6,4.5,-4.2,0.0
13/02/2012,2.3,6.3,-2.1,0.0
14/02/2012,4.4,8.8,1.6,1.6
15/02/2012,5.2,10.2,0.4,0.0
16/02/2012,7.5,11.7,3.8,0.0
17/02/2012,5.7,12.5,-1.5,0.0
18/02/2012,4.2,13.5,-5.1,0.0
19/02/2012,7.1,12.9,3.0,0.0
20/02/2012,6.1,12.3,1.6,0.0
21/02/2012,2.6,10.5,-4.3,0.0
22/02/2012,3.5,16.7,-8.0,0.0
23/02/2012,7.3,19.0,-3.5,0.0
24/02/2012,8.3,19.4,-1.4,0.0
25/02/2012,8.7,18.3,-1.4,0.0
26/02/2012,12.2,18.6,8.0,0.0
27/02/2012,10.2,17.8,2.5,0.0
28/02/2012,7.7,18.0,-1.0,0.0
29/02/2012,13.0,19.6,-1.4,0.0
01/03/2012,9.0,20.7,-0.2,0.0
02/03/2012,9.9,18.6,-0.0,0.0
03/03/2012,10.7,18.8,2.3,0.0
04/03/2012,8.0,14.8,3.1,3.7
05/03/2012,6.3,10.7,2.3,0.0
06/03/2012,5.6,11.4,1.6,0.0
07/03/2012,7.4,15.2,-0.9,0.0
08/03/2012,9.1,11.8,5.6,0.0
09/03/2012,9.3,16.3,3.5,0.0
10/03/2012,8.5,19.9,-1.9,0.0
11/03/2012,10.8,18.2,6.5,0.0
12/03/2012,11.1,19.6,4.1,0.0
13/03/2012,11.8,24.6,0.7,0.0
14/03/2012,13.4,25.7,2.7,0.0
15/03/2012,14.1,25.3,4.2,0.0
16/03/2012,13.9,22.3,4.2,0.0
17/03/2012,13.2,20.7,4.4,0.0
18/03/2012,9.2,15.0,2.0,0.0
19/03/2012,7.5,14.2,2.3,0.0
20/03/2012,8.7,15.4,0.6,0.0
21/03/2012,7.2,9.9,5.6,22.3
22/03/2012,7.2,14.1,1.0,0.2
23/03/2012,9.0,17.6,0.2,0.2
24/03/2012,11.9,20.9,3.8,0.0
25/03/2012,12.5,22.4,2.6,0.0
26/03/2012,13.7,22.6,3.9,0.0
27/03/2012,13.1,21.9,4.9,0.0
28/03/2012,12.7,23.2,3.1,0.0
29/03/2012,14.4,23.9,3.4,0.0
30/03/2012,15.3,26.0,4.7,0.0
31/03/2012,14.3,24.8,4.7,0.0
01/04/2012,14.4,23.9,5.1,0.0
02/04/2012,15.0,23.3,5.6,0.0
03/04/2012,12.3,14.4,9.6,0.4
04/04/2012,-,-,-,-
05/04/2012,-,-,-,-
06/04/2012,-,-,-,-
07/04/2012,-,-,-,-
08/04/2012,-,-,-,-
09/04/2012,-,-,-,-
10/04/2012,-,-,-,-
11/04/2012,-,-,-,-
12/04/2012,-,-,-,-
13/04/2012,-,-,-,-
14/04/2012,-,-,-,-
15/04/2012,-,-,-,-
16/04/2012,-,-,-,-
17/04/2012,-,-,-,-
18/04/2012,10.8,14.2,-,4.9
19/04/2012,11.0,14.1,-,0.6
20/04/2012,10.4,16.1,6.4,3.2
21/04/2012,11.6,21.7,5.1,2.4
22/04/2012,11.1,16.5,6.5,0.0
23/04/2012,10.5,17.5,3.2,0.8
24/04/2012,11.8,15.7,-,0.0
25/04/2012,18.9,22.6,-,0.0
26/04/2012,13.2,18.9,8.4,0.0
27/04/2012,14.0,22.9,6.7,0.0
28/04/2012,9.4,10.7,7.7,21.1
29/04/2012,10.2,16.8,6.1,3.4
30/04/2012,10.3,15.9,6.8,8.9
01/05/2012,12.5,18.1,5.3,0.0
02/05/2012,14.7,21.9,5.9,0.0
03/05/2012,16.9,23.5,11.1,0.8
04/05/2012,13.7,19.0,10.5,1.4
05/05/2012,13.7,20.2,7.3,0.0
06/05/2012,13.5,20.0,6.1,0.0
07/05/2012,15.8,23.7,5.6,0.4
08/05/2012,18.1,23.7,13.9,2.4
09/05/2012,21.1,28.5,12.8,0.0
10/05/2012,23.9,30.5,16.1,0.0
11/05/2012,24.5,32.3,13.9,0.0
12/05/2012,21.8,29.3,15.4,0.0
13/05/2012,17.4,23.3,11.0,0.8
14/05/2012,16.6,27.0,8.4,0.0
15/05/2012,13.6,20.5,8.4,0.0
16/05/2012,15.7,25.1,6.9,0.0
17/05/2012,17.4,23.9,12.1,5.3
18/05/2012,18.2,24.7,14.2,0.0
19/05/2012,15.1,21.3,10.9,22.7
20/05/2012,10.7,12.5,8.5,6.1
21/05/2012,10.8,13.7,8.4,0.4
22/05/2012,14.7,19.5,10.9,0.2
23/05/2012,17.6,26.1,9.3,0.0
24/05/2012,21.2,30.2,11.3,0.0
25/05/2012,23.8,30.9,15.3,0.0
26/05/2012,20.7,27.7,13.0,0.0
27/05/2012,19.2,26.9,10.3,0.0
28/05/2012,19.9,28.5,10.5,0.0
29/05/2012,22.7,30.0,14.6,0.0
30/05/2012,22.6,32.3,13.3,0.0
31/05/2012,23.2,33.2,13.6,0.0
01/06/2012,26.4,36.0,15.8,0.0
02/06/2012,24.9,35.1,15.5,3.2
03/06/2012,18.2,23.1,14.7,1.8
04/06/2012,18.8,24.9,13.6,0.0
05/06/2012,21.4,31.0,9.3,0.0
06/06/2012,22.8,29.8,15.3,0.0
07/06/2012,24.3,29.7,15.1,0.0
08/06/2012,17.2,21.5,11.3,0.0
09/06/2012,17.3,25.3,7.6,0.0
10/06/2012,19.9,26.9,14.5,0.0
11/06/2012,16.8,24.8,10.5,1.2
12/06/2012,15.3,20.6,9.3,0.4
13/06/2012,17.1,24.5,9.2,0.0
14/06/2012,22.7,30.6,11.2,0.0
15/06/2012,25.7,34.6,14.6,0.0
16/06/2012,24.8,33.8,15.8,0.0
17/06/2012,23.3,32.6,13.0,0.0
18/06/2012,21.7,27.9,15.5,8.3
19/06/2012,18.7,21.7,15.8,12.8
20/06/2012,23.1,30.5,14.9,0.0
21/06/2012,22.3,30.1,13.6,0.0
22/06/2012,19.6,28.6,11.4,0.0
23/06/2012,21.3,30.1,12.0,0.0
24/06/2012,23.5,33.2,14.6,0.0
25/06/2012,24.9,33.7,14.0,0.0
26/06/2012,27.4,37.4,16.6,0.0
27/06/2012,28.4,36.6,18.3,0.2
28/06/2012,27.5,38.1,18.1,0.0
29/06/2012,23.0,34.7,15.3,0.0
30/06/2012,19.4,29.7,13.9,0.0
01/07/2012,16.5,21.0,12.6,0.0
02/07/2012,19.0,27.6,9.6,0.0
03/07/2012,-,-,-,-
04/07/2012,-,-,-,-
05/07/2012,-,-,-,-
06/07/2012,-,-,-,-
07/07/2012,-,-,-,-
08/07/2012,-,-,-,-
09/07/2012,-,-,-,-
10/07/2012,-,-,-,-
11/07/2012,-,-,-,-
12/07/2012,-,-,-,-
13/07/2012,-,-,-,-
14/07/2012,-,-,-,-
15/07/2012,-,-,-,-
16/07/2012,-,-,-,-
17/07/2012,-,-,-,-
18/07/2012,-,-,-,-
19/07/2012,-,-,-,-
20/07/2012,-,-,-,-
21/07/2012,-,-,-,-
22/07/2012,-,-,-,-
23/07/2012,-,-,-,-
24/07/2012,27.4,31.5,14.2,0.2
25/07/2012,26.3,34.6,16.5,0.0
26/07/2012,27.6,35.6,20.0,0.0
27/07/2012,23.1,32.4,16.4,0.0
28/07/2012,20.7,26.5,15.6,0.0
29/07/2012,21.0,30.2,12.9,0.0
30/07/2012,22.4,33.6,13.1,0.0
31/07/2012,25.9,35.4,14.8,0.0
01/08/2012,25.0,34.5,16.4,0.0
02/08/2012,21.6,31.5,14.1,0.0
03/08/2012,21.8,30.6,14.0,0.0
04/08/2012,21.9,31.5,14.0,0.8
05/08/2012,19.4,28.3,14.2,3.2
06/08/2012,19.3,26.9,11.8,0.2
07/08/2012,22.6,31.8,11.9,0.0
08/08/2012,25.2,34.0,14.4,0.0
09/08/2012,26.3,38.2,14.8,0.0
10/08/2012,27.7,38.8,17.8,0.0
11/08/2012,26.2,38.4,18.9,0.0
12/08/2012,22.0,28.1,16.0,0.0
13/08/2012,22.1,31.6,13.3,0.0
14/08/2012,26.6,33.9,16.8,0.0
15/08/2012,22.5,27.8,14.8,0.0
16/08/2012,24.2,33.3,11.9,0.0
17/08/2012,29.5,37.2,20.7,0.0
18/08/2012,30.2,37.4,20.5,0.0
19/08/2012,28.6,36.1,21.7,0.0
20/08/2012,28.2,37.8,20.2,0.0
21/08/2012,27.3,38.8,17.9,0.0
22/08/2012,24.8,34.9,17.3,0.0
23/08/2012,24.8,36.0,16.3,0.0
24/08/2012,23.4,34.6,14.6,0.0
25/08/2012,20.2,26.0,14.8,0.0
26/08/2012,19.7,29.6,12.8,0.0
27/08/2012,24.5,33.4,13.2,0.0
28/08/2012,24.3,32.8,15.0,0.0
29/08/2012,23.6,32.3,17.9,4.6
30/08/2012,18.1,22.0,14.0,0.0
31/08/2012,16.5,21.9,12.6,0.0
01/09/2012,15.6,20.7,11.6,0.0
02/09/2012,17.3,23.7,10.9,0.0
03/09/2012,18.3,23.1,13.8,0.0
04/09/2012,18.8,24.5,13.6,0.0
05/09/2012,19.7,27.2,11.8,0.0
06/09/2012,20.2,30.4,11.8,0.0
07/09/2012,22.3,32.3,13.9,0.0
08/09/2012,22.4,32.1,13.5,0.0
09/09/2012,22.6,32.2,13.7,0.0
10/09/2012,22.9,29.6,16.0,0.0
11/09/2012,22.5,31.1,14.3,0.0
12/09/2012,19.4,24.9,14.3,0.0
13/09/2012,16.5,21.5,12.0,0.0
14/09/2012,17.9,26.0,13.2,0.0
15/09/2012,19.2,29.9,9.7,0.0
16/09/2012,19.4,30.2,9.1,0.0
17/09/2012,21.2,29.8,13.6,0.0
18/09/2012,19.2,25.0,16.2,0.0
19/09/2012,17.4,24.0,9.4,0.0
20/09/2012,18.7,27.9,8.1,0.0
21/09/2012,23.1,28.7,18.2,0.0
22/09/2012,22.2,30.6,13.9,0.0
23/09/2012,23.2,32.5,19.5,0.0
24/09/2012,19.6,25.9,12.0,0.0
25/09/2012,16.6,21.7,9.1,0.0
26/09/2012,14.5,20.5,8.7,0.8
27/09/2012,14.2,22.2,6.6,0.0
28/09/2012,16.3,21.5,11.8,4.2
29/09/2012,14.7,19.3,12.1,11.1
30/09/2012,14.2,19.6,8.3,0.0
01/10/2012,12.0,21.5,4.1,0.0
02/10/2012,13.7,25.0,4.5,0.2
03/10/2012,15.9,25.7,7.2,0.0
04/10/2012,16.1,26.1,9.0,0.0
05/10/2012,18.0,27.2,10.5,0.0
06/10/2012,18.1,28.1,8.7,0.0
07/10/2012,19.7,27.5,12.4,0.0
08/10/2012,20.5,30.0,13.0,0.0
09/10/2012,20.0,28.3,13.2,1.0
10/10/2012,19.6,26.3,14.6,17.0
11/10/2012,17.3,24.6,13.6,0.4
12/10/2012,14.5,19.9,9.3,0.6
13/10/2012,12.0,19.9,5.1,0.0
14/10/2012,13.3,18.4,7.6,5.5
15/10/2012,10.9,17.3,5.9,0.0
16/10/2012,12.6,19.9,4.6,0.0
17/10/2012,19.5,23.6,-,0.2
18/10/2012,20.0,23.1,17.6,0.0
19/10/2012,14.8,21.4,12.8,20.4
20/10/2012,12.5,13.2,11.9,56.6
21/10/2012,12.5,13.2,10.8,9.7
22/10/2012,13.6,20.3,10.8,0.6
23/10/2012,11.9,20.7,7.5,0.2
24/10/2012,17.9,21.1,-,3.4
25/10/2012,16.0,19.0,14.0,1.6
26/10/2012,14.8,17.7,11.6,7.5
27/10/2012,10.0,14.5,3.5,1.6
28/10/2012,6.1,10.8,1.9,0.0
29/10/2012,5.7,13.9,-0.9,0.0
30/10/2012,6.1,12.3,-0.6,0.0
31/10/2012,9.3,16.3,3.7,0.2
01/11/2012,9.9,18.2,3.1,0.4
02/11/2012,13.1,20.9,6.8,0.0
03/11/2012,14.0,16.4,12.1,0.2
04/11/2012,12.3,14.2,7.2,7.7
05/11/2012,7.7,14.7,2.5,0.0
06/11/2012,7.2,13.4,3.2,0.4
07/11/2012,6.0,12.3,-1.2,0.2
08/11/2012,10.9,14.1,8.4,1.4
09/11/2012,13.4,15.8,11.0,0.4
10/11/2012,12.2,18.8,8.1,2.4
11/11/2012,8.5,12.3,5.7,0.0
12/11/2012,8.4,14.1,3.6,0.0
13/11/2012,6.5,15.0,-1.5,0.0
14/11/2012,10.2,19.9,3.4,0.2
15/11/2012,12.1,19.3,6.7,0.0
16/11/2012,11.2,17.3,5.8,0.2
17/11/2012,13.0,16.7,10.6,17.8
18/11/2012,11.1,15.1,7.2,3.8
19/11/2012,7.3,14.9,1.7,0.2
20/11/2012,8.3,15.1,1.3,0.2
21/11/2012,10.7,14.0,5.3,0.2
22/11/2012,6.8,14.6,0.8,0.0
23/11/2012,8.4,15.1,2.1,0.2
24/11/2012,11.3,14.7,6.5,0.0
25/11/2012,11.7,15.8,8.3,0.2
26/11/2012,9.3,12.4,5.5,15.6
27/11/2012,6.1,8.8,3.5,0.6
28/11/2012,5.1,8.4,3.3,5.9
29/11/2012,4.8,7.9,2.8,0.2
30/11/2012,4.3,9.1,1.3,0.0
01/12/2012,3.5,8.4,0.7,0.0
02/12/2012,5.8,11.5,-0.3,0.0
03/12/2012,8.0,14.3,2.6,0.0
04/12/2012,6.6,10.4,2.7,1.2
05/12/2012,5.3,8.2,2.3,1.6
06/12/2012,5.0,10.9,1.1,0.0
07/12/2012,6.7,12.5,0.9,0.0
08/12/2012,6.9,10.7,3.8,0.6
09/12/2012,4.5,10.6,-2.7,0.0
10/12/2012,3.1,10.1,-4.3,0.2
11/12/2012,4.9,11.1,-3.5,0.0
12/12/2012,1.5,7.3,-4.1,0.0
13/12/2012,5.2,7.4,1.1,3.8
14/12/2012,9.0,11.2,7.0,3.6
15/12/2012,9.5,15.2,6.3,0.2
16/12/2012,8.9,13.6,4.0,1.2
17/12/2012,7.1,13.5,0.3,0.0
18/12/2012,5.2,11.0,-1.1,0.2
19/12/2012,8.8,12.4,5.3,0.0
20/12/2012,9.9,14.0,6.5,0.6
21/12/2012,10.9,17.1,6.7,0.2
22/12/2012,8.2,16.7,3.5,0.0
23/12/2012,5.1,12.7,0.2,0.4
24/12/2012,9.3,16.8,2.1,0.0
25/12/2012,11.3,13.8,8.7,0.2
26/12/2012,7.9,13.5,-0.1,0.0
27/12/2012,5.1,12.8,-2.0,0.2
28/12/2012,7.5,14.7,3.1,0.2
29/12/2012,6.4,12.4,0.9,0.0
30/12/2012,3.5,10.8,-2.1,0.2
31/12/2012,3.9,9.3,-2.3,1.6
