Fecha, Temperatura media, Temperatura maxima, Temperatura minima, Precipitacion acumulada
01/01/2010,5.8,10.4,1.3,-
02/01/2010,4.1,9.4,-0.3,-
03/01/2010,4.8,5.9,1.9,-
04/01/2010,5.2,6.1,4.1,-
05/01/2010,6.1,8.6,3.5,-
06/01/2010,3.4,8.9,-1.1,-
07/01/2010,1.7,4.3,-0.9,-
08/01/2010,1.1,3.7,-1.0,-
09/01/2010,-0.2,2.7,-1.7,-
10/01/2010,-1.3,2.7,-4.4,-
11/01/2010,0.7,5.5,-2.0,-
12/01/2010,0.0,3.1,-3.2,-
13/01/2010,3.0,8.4,-2.4,-
14/01/2010,7.1,9.7,6.0,-
15/01/2010,6.6,11.5,2.3,-
16/01/2010,5.8,8.5,2.7,-
17/01/2010,8.3,11.8,6.0,-
18/01/2010,7.7,11.2,3.2,-
19/01/2010,9.6,11.0,7.9,-
20/01/2010,8.5,14.1,4.7,-
21/01/2010,6.6,11.1,1.5,-
22/01/2010,6.3,15.6,-2.0,-
23/01/2010,6.9,7.5,5.7,-
24/01/2010,7.6,10.0,6.4,-
25/01/2010,5.1,8.2,0.0,-
26/01/2010,4.1,8.2,0.4,-
27/01/2010,2.1,5.3,-0.9,-
28/01/2010,4.3,7.5,-0.3,-
29/01/2010,7.8,11.9,5.4,-
30/01/2010,7.1,10.5,5.0,-
31/01/2010,5.0,9.2,2.0,-
01/02/2010,4.4,8.5,0.1,0.1
02/02/2010,2.6,9.5,-1.6,0.0
03/02/2010,1.9,8.9,-4.8,0.1
04/02/2010,5.7,7.8,2.3,8.1
05/02/2010,7.4,14.1,1.4,1.7
06/02/2010,8.8,14.8,2.6,0.0
07/02/2010,8.6,11.5,3.5,0.0
08/02/2010,5.4,7.0,2.6,6.7
09/02/2010,5.6,8.3,3.0,0.0
10/02/2010,3.8,7.4,0.2,0.0
11/02/2010,0.6,3.1,-1.2,0.1
12/02/2010,1.5,3.9,-0.2,0.0
13/02/2010,0.5,2.5,-2.1,0.0
14/02/2010,1.5,3.9,-0.6,0.0
15/02/2010,0.6,3.5,-1.6,0.0
16/02/2010,2.4,5.1,-0.0,3.9
17/02/2010,6.2,8.9,4.5,4.7
18/02/2010,6.5,11.0,0.7,0.2
19/02/2010,6.1,9.1,1.5,0.0
20/02/2010,4.0,10.8,-2.2,0.0
21/02/2010,4.2,7.8,-0.4,0.8
22/02/2010,8.3,15.5,2.1,0.0
23/02/2010,9.4,17.7,2.7,0.0
24/02/2010,9.5,16.3,2.5,0.0
25/02/2010,12.4,18.6,5.5,0.0
26/02/2010,9.3,15.5,2.5,0.0
27/02/2010,10.7,20.6,6.7,0.2
28/02/2010,11.0,16.1,5.6,0.0
01/03/2010,10.1,17.0,4.0,0.0
02/03/2010,8.2,15.6,-0.4,0.0
03/03/2010,7.1,9.6,5.8,5.9
04/03/2010,9.8,13.9,6.0,0.0
05/03/2010,8.2,12.5,4.9,0.0
06/03/2010,7.6,11.3,4.3,0.0
07/03/2010,5.2,12.1,0.5,0.2
08/03/2010,1.6,4.9,-2.0,0.0
09/03/2010,3.7,7.8,0.7,0.0
10/03/2010,2.6,5.6,1.0,0.0
11/03/2010,2.5,5.3,0.5,0.2
12/03/2010,3.8,8.3,1.7,0.2
13/03/2010,6.1,11.1,1.8,0.0
14/03/2010,5.8,11.4,0.9,0.0
15/03/2010,7.7,17.8,0.4,0.0
16/03/2010,6.0,16.1,-2.9,0.5
17/03/2010,9.2,19.8,-0.7,0.0
18/03/2010,9.7,15.1,5.9,0.0
19/03/2010,11.4,17.6,3.2,0.0
20/03/2010,15.9,21.3,12.0,0.0
21/03/2010,13.6,18.2,10.1,0.0
22/03/2010,14.1,21.7,5.7,0.0
23/03/2010,11.5,19.0,1.2,0.0
24/03/2010,13.4,18.6,10.7,12.8
25/03/2010,11.5,18.4,7.1,1.5
26/03/2010,10.3,17.6,2.5,0.2
27/03/2010,10.8,18.0,3.3,0.1
28/03/2010,10.8,17.6,4.8,0.0
29/03/2010,13.2,20.2,4.9,1.4
30/03/2010,11.4,15.6,7.5,0.0
31/03/2010,9.5,16.0,3.4,0.9
01/04/2010,8.6,15.0,3.0,0.0
02/04/2010,8.6,17.6,0.6,0.0
03/04/2010,10.0,16.3,6.2,1.7
04/04/2010,8.8,15.0,2.4,0.1
05/04/2010,9.4,18.6,0.1,0.0
06/04/2010,12.8,21.0,4.4,0.0
07/04/2010,10.7,14.2,7.2,1.0
08/04/2010,11.0,16.6,6.6,1.4
09/04/2010,12.0,20.4,4.5,0.0
10/04/2010,13.0,22.8,2.9,0.0
11/04/2010,14.4,22.8,6.7,0.0
12/04/2010,10.8,16.0,7.1,0.0
13/04/2010,10.4,17.6,3.9,0.0
14/04/2010,10.0,13.7,7.4,1.1
15/04/2010,10.3,12.5,8.4,0.1
16/04/2010,13.7,19.4,8.9,0.0
17/04/2010,12.9,17.8,9.0,1.1
18/04/2010,11.9,16.6,9.0,3.2
19/04/2010,14.4,22.8,8.7,0.2
20/04/2010,16.1,24.8,6.6,0.1
21/04/2010,16.9,24.7,6.8,0.0
22/04/2010,14.9,17.1,13.1,6.7
23/04/2010,15.4,22.2,8.4,0.3
24/04/2010,15.7,24.8,7.2,0.0
25/04/2010,18.2,26.8,11.7,0.0
26/04/2010,18.8,27.7,10.6,0.0
27/04/2010,20.1,30.4,11.4,0.0
28/04/2010,18.9,27.6,8.9,0.0
29/04/2010,18.2,25.5,13.1,6.3
30/04/2010,16.4,23.5,11.2,6.5
01/05/2010,13.9,16.6,10.1,1.3
02/05/2010,11.3,14.8,7.7,0.5
03/05/2010,9.5,13.0,6.6,0.4
04/05/2010,6.8,8.1,5.5,0.4
05/05/2010,8.5,10.7,6.4,0.0
06/05/2010,9.6,13.9,5.3,0.6
07/05/2010,8.6,14.3,0.3,3.5
08/05/2010,13.0,19.4,7.2,0.4
09/05/2010,14.6,22.0,10.5,13.8
10/05/2010,14.4,21.8,6.4,0.2
11/05/2010,12.7,20.1,6.2,2.2
12/05/2010,11.3,17.3,8.1,11.1
13/05/2010,8.8,12.4,6.9,0.4
14/05/2010,10.3,17.1,5.5,0.4
15/05/2010,10.8,15.2,8.0,0.2
16/05/2010,11.3,16.2,7.2,0.0
17/05/2010,12.9,20.0,5.3,0.0
18/05/2010,16.4,25.8,7.8,0.0
19/05/2010,15.4,21.3,8.6,0.0
20/05/2010,17.7,25.9,10.0,0.0
21/05/2010,19.8,29.9,10.9,0.0
22/05/2010,21.0,30.7,10.6,0.0
23/05/2010,21.3,28.8,11.0,0.0
24/05/2010,21.2,28.9,14.0,0.2
25/05/2010,22.2,29.7,15.3,0.0
26/05/2010,19.2,25.8,11.9,0.0
27/05/2010,17.4,25.4,9.6,0.0
28/05/2010,16.1,21.0,11.0,0.4
29/05/2010,17.8,26.2,8.8,0.0
30/05/2010,19.9,27.3,11.0,0.0
31/05/2010,21.7,28.2,16.9,0.0
01/06/2010,20.6,28.7,12.9,0.0
02/06/2010,19.8,27.4,13.2,0.0
03/06/2010,21.1,31.7,11.3,0.0
04/06/2010,23.2,32.5,13.4,0.0
05/06/2010,23.1,33.1,13.5,2.7
06/06/2010,18.1,20.7,15.6,1.0
07/06/2010,21.7,29.8,14.6,0.0
08/06/2010,20.4,28.4,15.9,0.2
09/06/2010,18.1,21.6,15.6,4.1
10/06/2010,18.4,24.5,12.9,0.0
11/06/2010,16.6,23.2,10.6,6.6
12/06/2010,16.3,20.8,14.2,8.4
13/06/2010,18.9,24.1,14.1,0.0
14/06/2010,16.0,20.6,12.6,0.0
15/06/2010,14.3,19.1,9.9,0.8
16/06/2010,13.6,16.7,11.8,4.5
17/06/2010,14.8,20.0,11.4,0.0
18/06/2010,16.9,23.8,10.3,0.0
19/06/2010,17.6,22.2,14.8,0.0
20/06/2010,15.3,19.1,10.7,0.0
21/06/2010,16.7,24.4,10.2,0.0
22/06/2010,19.4,28.3,10.6,0.0
23/06/2010,21.0,31.5,11.5,0.0
24/06/2010,22.6,32.8,12.7,0.0
25/06/2010,24.2,32.6,14.3,0.0
26/06/2010,23.7,32.3,18.7,11.3
27/06/2010,22.1,30.9,17.2,9.3
28/06/2010,22.6,30.6,17.0,0.2
29/06/2010,23.9,31.2,17.7,0.0
30/06/2010,24.4,32.5,16.7,0.0
01/07/2010,25.9,35.2,16.0,0.0
02/07/2010,22.5,31.9,18.8,3.1
03/07/2010,23.4,32.4,18.0,0.4
04/07/2010,24.4,31.5,19.2,0.0
05/07/2010,22.6,29.6,16.4,0.0
06/07/2010,22.8,30.7,16.2,0.0
07/07/2010,25.1,36.9,15.6,0.0
08/07/2010,27.8,34.2,18.9,0.0
09/07/2010,27.2,34.7,20.7,0.8
10/07/2010,27.0,36.6,17.9,0.0
11/07/2010,27.9,37.1,18.9,15.0
12/07/2010,25.9,34.9,19.9,0.0
13/07/2010,25.5,35.0,17.1,0.0
14/07/2010,24.3,33.1,17.1,0.0
15/07/2010,23.6,32.9,16.8,0.0
16/07/2010,23.7,31.6,17.0,0.0
17/07/2010,20.9,26.0,17.4,0.0
18/07/2010,23.8,34.9,13.9,0.0
19/07/2010,26.3,36.8,18.7,0.0
20/07/2010,24.5,33.9,17.9,0.4
21/07/2010,20.7,26.2,16.7,0.4
22/07/2010,18.4,23.3,15.9,3.9
23/07/2010,19.2,25.5,13.7,0.0
24/07/2010,19.6,27.8,12.5,0.0
25/07/2010,20.3,27.3,14.0,0.0
26/07/2010,21.6,28.0,16.6,0.0
27/07/2010,23.3,32.9,15.1,0.0
28/07/2010,24.8,35.0,16.6,0.0
29/07/2010,22.5,27.6,18.1,0.0
30/07/2010,23.0,31.4,15.6,0.0
31/07/2010,24.8,34.2,15.2,0.0
01/08/2010,24.2,31.8,19.0,0.0
02/08/2010,20.7,23.9,17.6,0.0
03/08/2010,20.5,25.6,16.6,0.0
04/08/2010,21.0,27.3,14.9,0.0
05/08/2010,20.5,25.7,15.2,0.0
06/08/2010,20.6,30.8,11.8,0.0
07/08/2010,23.8,33.8,13.5,0.0
08/08/2010,23.8,31.5,16.3,0.0
09/08/2010,22.8,29.0,16.5,0.0
10/08/2010,23.1,35.9,14.6,0.0
11/08/2010,23.3,32.5,14.8,0.0
12/08/2010,21.0,25.5,17.0,0.0
13/08/2010,18.9,24.0,15.6,0.0
14/08/2010,18.2,23.4,15.2,0.0
15/08/2010,18.8,25.2,13.3,0.0
16/08/2010,19.6,29.2,10.8,0.0
17/08/2010,22.1,32.8,12.4,0.0
18/08/2010,23.8,33.2,15.4,0.0
19/08/2010,22.5,28.3,17.9,0.0
20/08/2010,23.9,34.0,15.6,0.0
21/08/2010,26.3,36.1,17.3,0.0
22/08/2010,27.7,36.8,17.9,0.0
23/08/2010,27.2,36.2,17.6,0.0
24/08/2010,24.2,30.2,17.9,0.0
25/08/2010,25.1,35.6,15.9,0.0
26/08/2010,28.4,40.3,19.9,0.0
27/08/2010,25.3,33.2,20.0,0.0
28/08/2010,21.4,27.0,15.8,0.0
29/08/2010,20.0,28.6,14.2,0.0
30/08/2010,19.2,26.8,12.7,0.0
31/08/2010,19.1,27.9,11.9,0.0
01/09/2010,21.0,28.8,13.1,0.2
02/09/2010,21.7,28.2,18.0,2.0
03/09/2010,22.4,33.3,14.5,0.0
04/09/2010,21.8,33.2,12.6,0.0
05/09/2010,23.1,33.1,12.2,3.7
06/09/2010,24.3,33.1,18.0,0.0
07/09/2010,20.5,26.9,14.8,2.0
08/09/2010,17.7,24.8,11.0,0.0
09/09/2010,18.4,25.1,12.1,0.2
10/09/2010,19.5,30.4,11.2,0.0
11/09/2010,20.0,31.1,10.7,0.0
12/09/2010,19.7,25.3,15.2,0.0
13/09/2010,19.1,28.4,12.7,0.0
14/09/2010,20.7,31.9,12.3,0.0
15/09/2010,20.3,31.3,11.4,0.0
16/09/2010,19.2,22.7,16.1,0.0
17/09/2010,17.1,20.2,14.2,4.3
18/09/2010,16.7,21.4,13.3,0.0
19/09/2010,16.8,27.2,8.5,0.0
20/09/2010,18.0,25.1,9.1,0.0
21/09/2010,20.6,30.4,14.4,0.0
22/09/2010,19.8,26.9,12.8,0.0
23/09/2010,19.6,24.0,14.9,0.0
24/09/2010,17.6,21.4,14.5,0.8
25/09/2010,15.1,19.6,12.6,0.0
26/09/2010,13.4,17.8,7.8,0.0
27/09/2010,13.2,20.5,7.5,0.0
28/09/2010,14.2,22.4,7.1,0.0
29/09/2010,16.6,28.8,5.1,0.0
30/09/2010,16.7,23.1,11.3,0.0
01/10/2010,16.6,25.2,9.4,0.0
02/10/2010,20.3,27.5,12.2,0.0
03/10/2010,19.3,24.2,15.9,0.0
04/10/2010,16.2,21.4,7.2,1.0
05/10/2010,14.9,24.3,4.7,0.0
06/10/2010,16.1,26.2,6.8,0.0
07/10/2010,19.1,24.7,10.6,0.0
08/10/2010,21.3,27.4,16.9,0.0
09/10/2010,18.9,21.7,14.8,2.7
10/10/2010,13.7,16.4,11.2,4.3
11/10/2010,15.0,19.8,12.3,1.8
12/10/2010,15.5,20.2,11.6,0.2
13/10/2010,16.0,20.8,11.6,0.0
14/10/2010,12.9,18.6,8.6,0.0
15/10/2010,12.1,17.9,7.8,0.0
16/10/2010,11.1,16.4,7.1,0.0
17/10/2010,10.3,14.7,7.8,0.0
18/10/2010,10.6,16.2,7.1,0.0
19/10/2010,10.5,17.8,5.0,0.0
20/10/2010,10.4,16.6,4.9,0.0
21/10/2010,8.5,17.2,1.9,0.0
22/10/2010,8.7,16.3,1.8,0.0
23/10/2010,11.7,21.0,4.5,0.0
24/10/2010,12.7,20.4,6.3,2.7
25/10/2010,9.8,13.3,5.7,0.6
26/10/2010,9.5,17.2,3.7,0.0
27/10/2010,12.6,24.0,5.9,0.0
28/10/2010,12.1,21.7,5.7,0.0
29/10/2010,12.5,19.9,8.6,1.0
30/10/2010,11.0,15.6,4.7,0.0
31/10/2010,12.6,17.0,8.1,6.4
01/11/2010,13.1,16.2,9.8,3.9
02/11/2010,13.0,17.2,10.1,0.0
03/11/2010,14.9,20.8,10.8,0.0
04/11/2010,16.1,22.9,11.1,0.0
05/11/2010,13.1,20.1,9.0,0.0
06/11/2010,12.6,20.0,7.2,0.0
07/11/2010,10.9,13.7,6.0,0.8
08/11/2010,7.4,10.8,3.9,17.3
09/11/2010,10.2,16.6,5.1,0.2
10/11/2010,9.0,13.0,5.1,0.0
11/11/2010,6.6,12.4,0.3,0.0
12/11/2010,11.5,19.8,4.1,0.0
13/11/2010,8.8,18.3,2.5,0.0
14/11/2010,10.7,13.9,4.8,1.2
15/11/2010,8.7,13.5,4.1,0.0
16/11/2010,8.9,14.4,1.2,0.0
17/11/2010,5.4,10.5,1.5,1.2
18/11/2010,5.9,13.3,0.5,0.2
19/11/2010,5.0,9.5,0.2,0.0
20/11/2010,8.9,14.1,4.9,4.1
21/11/2010,8.8,12.5,6.3,2.9
22/11/2010,8.6,11.5,7.3,0.0
23/11/2010,8.1,13.0,4.1,0.0
24/11/2010,5.8,12.3,1.3,0.0
25/11/2010,4.5,12.4,-2.4,0.0
26/11/2010,4.4,9.3,-2.6,0.0
27/11/2010,-0.2,6.7,-6.0,0.0
28/11/2010,0.7,8.9,-4.6,0.2
29/11/2010,-1.8,2.9,-7.0,0.0
30/11/2010,2.3,4.2,0.2,1.6
01/12/2010,3.7,7.1,-0.5,1.0
02/12/2010,2.0,7.7,-0.8,1.2
03/12/2010,3.3,7.2,-0.0,0.0
04/12/2010,2.4,7.7,-4.6,0.0
05/12/2010,5.3,6.9,3.5,1.6
06/12/2010,8.7,14.6,6.5,0.2
07/12/2010,13.1,17.3,8.1,0.0
08/12/2010,13.3,19.4,9.5,5.1
09/12/2010,7.9,10.6,3.9,2.2
10/12/2010,5.2,13.1,-0.1,0.0
11/12/2010,-0.0,3.5,-3.0,0.2
12/12/2010,5.3,15.0,-1.3,0.2
13/12/2010,9.5,13.8,6.2,0.0
14/12/2010,5.4,9.2,2.7,0.0
15/12/2010,2.9,5.2,0.1,0.0
16/12/2010,1.3,6.7,-2.8,0.0
17/12/2010,3.1,7.4,-1.3,0.0
18/12/2010,2.1,8.3,-3.8,0.0
19/12/2010,3.2,8.8,-0.7,0.0
20/12/2010,1.9,10.3,-3.8,0.0
21/12/2010,5.6,8.0,1.7,2.3
22/12/2010,9.2,11.6,7.6,3.5
23/12/2010,7.0,9.1,4.3,0.6
24/12/2010,4.4,7.7,2.6,0.0
25/12/2010,2.0,4.6,-1.0,0.0
26/12/2010,1.4,8.2,-2.8,0.0
27/12/2010,-0.9,6.1,-5.7,0.0
28/12/2010,2.2,9.5,-3.6,0.0
29/12/2010,4.2,10.7,0.6,0.0
30/12/2010,5.7,9.1,1.5,0.0
31/12/2010,7.6,12.0,5.1,0.0
