Fecha, Temperatura media, Temperatura maxima, Temperatura minima, Precipitacion acumulada
01/01/2013,6.8,11.4,3.7,0.8
02/01/2013,7.0,9.7,5.6,0.6
03/01/2013,6.3,13.8,-1.3,0.6
04/01/2013,3.1,15.9,-3.8,0.0
05/01/2013,7.0,18.0,-3.2,0.0
06/01/2013,8.5,18.1,-1.1,0.0
07/01/2013,3.2,15.5,-3.4,0.2
08/01/2013,2.6,11.8,-4.2,0.0
09/01/2013,1.6,8.8,-4.5,1.4
10/01/2013,8.8,14.4,2.4,0.0
11/01/2013,4.5,11.4,-1.9,0.0
12/01/2013,3.4,12.4,-2.5,0.8
13/01/2013,4.9,8.4,2.4,0.6
14/01/2013,4.6,7.2,2.4,7.5
15/01/2013,5.4,7.5,3.1,9.5
16/01/2013,8.3,12.0,4.1,5.4
17/01/2013,6.1,9.9,4.1,1.4
18/01/2013,7.4,11.0,3.7,3.4
19/01/2013,10.0,13.7,5.5,2.8
20/01/2013,6.1,9.4,4.0,2.0
21/01/2013,4.9,9.6,-1.1,1.0
22/01/2013,2.4,6.5,-2.0,0.2
23/01/2013,3.8,7.7,-2.0,6.7
24/01/2013,4.8,9.6,2.1,6.7
25/01/2013,5.1,10.5,-0.1,2.6
26/01/2013,7.2,12.0,0.8,1.6
27/01/2013,5.0,9.8,0.5,10.3
28/01/2013,6.3,11.9,-0.7,0.2
29/01/2013,4.2,12.6,-1.8,0.0
30/01/2013,4.6,11.3,-0.9,0.2
31/01/2013,8.2,18.4,0.3,0.0
01/02/2013,7.7,13.6,1.2,2.8
02/02/2013,5.1,9.2,2.5,15.6
03/02/2013,4.1,7.9,1.6,0.8
04/02/2013,8.2,13.0,2.0,0.0
05/02/2013,9.8,14.5,4.2,0.8
06/02/2013,4.3,7.3,1.1,5.7
07/02/2013,3.0,5.8,0.5,17.4
08/02/2013,3.7,6.7,1.6,2.0
09/02/2013,4.9,8.7,1.0,2.4
10/02/2013,4.9,10.4,-0.3,2.0
11/02/2013,4.6,7.9,1.0,0.2
12/02/2013,4.2,8.5,1.0,8.5
13/02/2013,7.2,11.4,3.0,0.0
14/02/2013,8.6,13.0,4.9,0.0
15/02/2013,7.7,12.9,2.8,0.0
16/02/2013,4.7,13.8,-2.7,0.0
17/02/2013,5.0,10.0,0.2,0.0
18/02/2013,7.9,13.9,4.3,1.2
19/02/2013,9.3,11.8,7.1,0.0
20/02/2013,9.5,14.8,4.6,0.0
21/02/2013,10.0,14.9,4.9,1.8
22/02/2013,6.8,10.0,1.7,0.0
23/02/2013,0.1,1.9,-2.0,0.0
24/02/2013,1.7,4.7,-0.2,0.2
25/02/2013,1.7,4.6,-0.3,0.0
26/02/2013,2.0,5.0,-2.6,0.0
27/02/2013,2.4,9.7,-4.4,0.2
28/02/2013,5.2,11.2,0.9,0.0
01/03/2013,7.2,12.8,3.6,0.6
02/03/2013,6.1,13.4,0.0,0.0
03/03/2013,7.0,15.1,-2.0,0.0
04/03/2013,9.4,11.8,5.4,0.2
05/03/2013,11.1,12.2,9.8,2.6
06/03/2013,-,-,-,-
07/03/2013,-,-,-,-
08/03/2013,11.7,18.2,4.5,2.6
09/03/2013,-,-,-,-
10/03/2013,9.9,16.1,3.9,0.0
11/03/2013,8.6,16.0,3.2,0.4
12/03/2013,8.3,13.8,1.8,1.6
13/03/2013,2.5,3.3,1.7,1.6
14/03/2013,3.0,7.1,0.3,5.2
15/03/2013,4.7,10.5,-0.3,0.0
16/03/2013,6.6,10.3,0.9,0.0
17/03/2013,7.4,9.6,5.0,7.5
18/03/2013,6.1,13.4,-1.0,1.4
19/03/2013,6.3,13.0,-1.3,7.9
20/03/2013,7.8,13.8,0.7,0.2
21/03/2013,8.3,17.0,-1.2,0.0
22/03/2013,10.8,19.0,3.0,0.0
23/03/2013,8.6,17.6,0.1,0.2
24/03/2013,10.1,17.5,1.6,0.0
25/03/2013,9.4,13.6,5.1,9.5
26/03/2013,11.0,16.9,6.9,6.7
27/03/2013,12.4,16.9,9.2,3.0
28/03/2013,-,-,-,-
29/03/2013,12.9,17.1,10.9,10.3
30/03/2013,10.8,14.2,6.1,4.8
31/03/2013,11.4,17.3,4.9,0.8
01/04/2013,10.4,13.5,7.8,15.4
02/04/2013,10.0,15.7,6.4,1.1
03/04/2013,10.0,16.5,2.4,6.9
04/04/2013,8.6,13.9,4.4,4.1
05/04/2013,5.2,9.3,2.5,0.2
06/04/2013,4.6,9.0,0.7,6.6
07/04/2013,8.4,12.7,3.7,0.0
08/04/2013,10.8,15.9,6.1,0.2
09/04/2013,11.0,16.3,5.5,0.0
10/04/2013,12.9,21.8,3.7,0.0
11/04/2013,13.9,21.9,7.1,2.1
12/04/2013,12.6,18.9,5.9,0.0
13/04/2013,14.6,22.2,5.2,0.0
14/04/2013,17.6,24.6,10.7,0.0
15/04/2013,16.7,23.8,9.6,0.0
16/04/2013,17.8,25.8,10.5,0.0
17/04/2013,19.4,28.1,10.5,0.0
18/04/2013,14.2,20.6,10.0,0.0
19/04/2013,10.4,14.6,6.4,0.0
20/04/2013,9.8,15.9,3.9,0.0
21/04/2013,10.4,17.4,4.1,0.0
22/04/2013,10.5,15.3,6.2,0.0
23/04/2013,12.7,20.5,5.6,0.0
24/04/2013,14.7,22.5,6.0,0.0
25/04/2013,14.8,22.5,7.5,0.2
26/04/2013,12.8,16.0,8.4,2.1
27/04/2013,7.0,11.5,2.9,6.4
28/04/2013,6.7,11.4,2.1,2.8
29/04/2013,7.9,11.0,6.1,6.8
30/04/2013,9.1,14.0,5.6,8.8
01/05/2013,10.5,15.9,6.7,3.0
02/05/2013,9.8,13.7,7.2,2.1
03/05/2013,10.5,16.4,4.6,0.0
04/05/2013,13.1,21.1,5.7,0.0
05/05/2013,15.1,22.7,8.0,0.0
06/05/2013,15.9,25.3,5.2,0.0
07/05/2013,17.8,23.2,12.5,0.2
08/05/2013,17.6,22.0,12.9,0.8
09/05/2013,14.2,20.3,11.1,1.7
10/05/2013,12.8,17.9,8.3,0.0
11/05/2013,11.7,17.5,6.0,0.0
12/05/2013,11.6,16.7,6.1,0.0
13/05/2013,14.8,24.1,5.7,0.0
14/05/2013,13.9,21.1,5.7,3.8
15/05/2013,9.2,12.2,4.9,3.0
16/05/2013,8.4,14.3,2.7,1.5
17/05/2013,9.2,14.6,5.4,20.4
18/05/2013,8.6,14.0,4.8,7.7
19/05/2013,10.3,15.3,7.0,0.2
20/05/2013,10.6,16.9,3.7,0.0
21/05/2013,9.2,13.1,4.2,0.0
22/05/2013,13.0,17.2,9.2,0.0
23/05/2013,11.2,13.7,8.7,0.0
24/05/2013,10.2,15.5,6.8,0.0
25/05/2013,10.3,15.5,5.2,0.0
26/05/2013,11.4,20.9,1.6,0.6
27/05/2013,13.2,19.0,10.0,5.6
28/05/2013,10.8,15.2,4.6,3.0
29/05/2013,9.2,15.6,2.7,0.4
30/05/2013,10.9,15.9,7.3,0.6
31/05/2013,12.0,16.6,8.3,0.2
01/06/2013,12.8,16.3,10.5,0.0
02/06/2013,13.4,19.1,9.9,0.0
03/06/2013,14.8,21.3,8.5,0.0
04/06/2013,16.3,26.1,5.2,0.0
05/06/2013,19.2,27.0,8.5,0.0
06/06/2013,19.7,27.6,12.9,1.7
07/06/2013,18.2,24.6,13.5,19.5
08/06/2013,12.8,15.3,11.3,18.2
09/06/2013,14.3,19.7,11.0,25.3
10/06/2013,14.3,19.7,11.0,25.3
11/06/2013,20.7,26.9,14.4,0.0
12/06/2013,23.2,31.2,14.4,0.0
13/06/2013,19.8,25.6,14.8,0.0
14/06/2013,20.6,29.2,12.0,0.0
15/06/2013,20.9,29.3,14.2,0.0
16/06/2013,24.1,33.2,13.1,0.0
17/06/2013,21.6,29.0,14.5,0.0
18/06/2013,14.3,18.0,10.6,8.8
19/06/2013,13.3,19.0,10.3,6.2
20/06/2013,15.2,20.5,11.1,2.3
21/06/2013,15.9,21.3,12.0,0.8
22/06/2013,18.7,26.7,10.4,0.0
23/06/2013,15.9,19.7,11.8,0.0
24/06/2013,14.7,21.4,9.8,0.0
25/06/2013,15.8,22.9,9.5,0.0
26/06/2013,17.9,24.7,11.6,0.0
27/06/2013,17.4,24.0,11.1,0.0
28/06/2013,17.9,24.2,11.8,0.0
29/06/2013,19.0,25.7,11.8,0.0
30/06/2013,21.6,30.3,14.0,0.0
01/07/2013,22.6,30.9,14.0,0.0
02/07/2013,23.7,30.9,14.6,0.0
03/07/2013,22.0,27.5,17.5,0.0
04/07/2013,22.7,29.3,17.5,0.0
05/07/2013,24.4,34.0,13.8,0.0
06/07/2013,25.4,34.7,16.4,0.0
07/07/2013,24.7,33.2,17.0,0.0
08/07/2013,26.0,34.2,15.1,0.0
09/07/2013,26.7,33.8,17.4,0.0
10/07/2013,26.3,34.0,17.0,3.4
11/07/2013,24.3,32.5,17.7,1.5
12/07/2013,25.1,33.8,17.2,1.1
13/07/2013,25.2,32.4,17.5,0.2
14/07/2013,22.9,32.6,16.6,25.7
15/07/2013,22.7,30.5,15.5,0.2
16/07/2013,22.9,30.0,16.3,14.8
17/07/2013,22.7,29.6,16.9,0.0
18/07/2013,23.1,30.5,16.5,0.0
19/07/2013,23.7,31.0,16.6,0.8
20/07/2013,23.7,31.2,16.4,0.0
21/07/2013,25.0,31.4,18.6,0.0
22/07/2013,25.1,32.7,15.6,0.4
23/07/2013,24.2,32.7,19.1,8.8
24/07/2013,24.9,33.1,17.2,0.0
25/07/2013,27.9,35.7,18.6,0.0
26/07/2013,27.2,34.5,17.2,0.0
27/07/2013,25.5,30.8,20.5,0.0
28/07/2013,21.9,28.5,16.4,5.4
29/07/2013,20.6,28.0,12.5,0.0
30/07/2013,22.7,32.8,13.1,0.0
31/07/2013,25.5,35.8,14.5,0.2
01/08/2013,28.1,34.8,20.4,0.0
02/08/2013,27.4,34.5,20.4,0.0
03/08/2013,23.4,32.3,17.2,0.0
04/08/2013,24.3,32.7,17.3,0.0
05/08/2013,24.8,32.9,18.8,0.0
06/08/2013,22.2,27.9,16.5,0.0
07/08/2013,20.2,27.7,15.7,2.0
08/08/2013,17.8,24.6,12.1,0.2
09/08/2013,19.3,27.2,12.0,0.0
10/08/2013,21.0,27.9,14.1,0.0
11/08/2013,23.6,35.5,14.1,0.0
12/08/2013,23.3,34.3,17.0,0.2
13/08/2013,21.5,27.4,16.6,0.0
14/08/2013,21.3,29.1,13.9,0.0
15/08/2013,21.7,33.0,11.7,0.0
16/08/2013,22.5,32.6,16.1,1.0
17/08/2013,22.5,31.2,15.4,0.0
18/08/2013,23.3,34.0,14.0,0.0
19/08/2013,21.4,27.0,16.9,0.0
20/08/2013,20.8,29.1,14.1,0.0
21/08/2013,20.9,33.6,10.5,0.0
22/08/2013,23.9,34.2,16.2,0.0
23/08/2013,23.1,32.2,15.5,0.0
24/08/2013,20.2,24.1,15.1,0.0
25/08/2013,18.7,25.6,13.7,0.0
26/08/2013,18.6,24.1,13.7,0.0
27/08/2013,18.7,25.2,12.3,0.0
28/08/2013,19.3,25.6,13.9,0.0
29/08/2013,19.2,26.6,12.0,0.0
30/08/2013,19.5,26.3,13.1,0.0
31/08/2013,18.9,26.1,11.7,0.0
01/09/2013,20.0,26.9,13.5,0.0
02/09/2013,20.2,28.6,13.1,0.0
03/09/2013,19.6,31.2,9.2,0.0
04/09/2013,20.5,30.1,11.5,0.0
05/09/2013,20.3,29.8,12.7,5.2
06/09/2013,18.9,26.8,13.6,0.2
07/09/2013,17.4,23.6,14.5,1.6
08/09/2013,17.0,23.2,12.1,0.2
09/09/2013,16.2,24.9,7.2,0.2
10/09/2013,17.5,24.4,11.4,0.0
11/09/2013,15.5,20.9,11.1,0.0
12/09/2013,15.1,22.1,8.3,0.0
13/09/2013,18.5,26.1,11.9,0.0
14/09/2013,18.0,28.7,8.7,0.0
15/09/2013,17.4,21.0,13.0,0.0
16/09/2013,16.0,26.3,6.7,0.2
17/09/2013,16.2,20.8,12.6,0.0
18/09/2013,16.8,23.7,9.1,0.0
19/09/2013,17.8,22.2,14.6,0.0
20/09/2013,19.0,24.9,14.5,0.0
21/09/2013,19.1,27.3,12.3,0.0
22/09/2013,16.6,29.9,6.6,0.0
23/09/2013,18.2,29.1,9.8,0.0
24/09/2013,18.9,28.1,12.3,0.2
25/09/2013,22.4,30.6,15.4,0.0
26/09/2013,24.3,31.3,18.4,0.0
27/09/2013,23.5,31.3,18.8,0.0
28/09/2013,20.2,27.5,15.4,3.0
29/09/2013,17.7,24.9,12.2,0.0
30/09/2013,18.8,27.3,12.5,0.0
01/10/2013,19.7,26.3,15.3,1.4
02/10/2013,21.0,29.2,15.9,0.2
03/10/2013,22.4,26.7,19.6,1.6
04/10/2013,18.1,22.4,14.2,33.3
05/10/2013,15.7,22.4,10.8,0.2
06/10/2013,16.0,21.8,11.0,0.2
07/10/2013,14.8,22.6,7.6,0.0
08/10/2013,13.5,21.8,5.1,0.2
09/10/2013,14.7,20.2,9.2,0.0
10/10/2013,12.9,20.1,7.0,0.0
11/10/2013,10.5,16.9,4.8,0.0
12/10/2013,8.5,18.2,-0.1,0.0
13/10/2013,9.9,20.7,1.6,0.2
14/10/2013,13.9,22.2,6.9,0.0
15/10/2013,15.2,18.8,12.0,0.6
16/10/2013,17.2,26.4,9.6,0.2
17/10/2013,16.3,25.0,9.4,0.2
18/10/2013,19.4,27.9,12.9,0.0
19/10/2013,19.5,23.7,15.5,1.2
20/10/2013,16.9,22.8,12.5,2.8
21/10/2013,16.1,22.8,9.0,0.2
22/10/2013,16.9,18.8,14.9,4.6
23/10/2013,15.7,23.6,9.2,0.2
24/10/2013,16.0,22.2,8.8,0.8
25/10/2013,19.3,23.2,16.4,9.3
26/10/2013,18.3,22.7,11.0,0.2
27/10/2013,13.5,22.7,6.9,0.2
28/10/2013,15.9,22.3,10.6,0.0
29/10/2013,10.8,14.9,6.9,0.0
30/10/2013,10.4,15.9,5.9,0.2
31/10/2013,9.0,18.2,1.4,0.0
01/11/2013,7.9,17.1,0.6,0.0
02/11/2013,12.8,22.9,6.8,0.2
03/11/2013,12.6,18.1,6.1,1.6
04/11/2013,10.9,15.4,7.5,7.7
05/11/2013,16.6,21.4,11.6,0.6
06/11/2013,16.3,23.3,9.0,0.0
07/11/2013,12.1,20.6,7.0,0.0
08/11/2013,10.9,18.9,4.9,0.4
09/11/2013,9.8,16.0,3.2,0.0
10/11/2013,13.7,16.9,10.0,0.0
11/11/2013,13.3,16.8,11.2,0.0
12/11/2013,14.5,18.8,11.9,0.0
13/11/2013,14.0,16.9,11.6,0.0
14/11/2013,11.2,13.1,10.0,0.0
15/11/2013,6.7,10.6,3.4,1.8
16/11/2013,4.5,9.5,-1.8,0.2
17/11/2013,8.2,9.4,6.5,2.2
18/11/2013,9.3,11.3,7.1,1.6
19/11/2013,8.8,11.8,4.3,0.2
20/11/2013,4.5,7.2,1.4,1.4
21/11/2013,5.4,7.0,2.3,2.6
22/11/2013,5.0,7.3,2.4,3.6
23/11/2013,5.5,8.6,3.2,0.0
24/11/2013,5.6,7.2,4.3,0.0
25/11/2013,5.7,8.3,4.3,0.0
26/11/2013,4.1,7.5,2.0,0.0
27/11/2013,3.0,6.9,-4.8,0.0
28/11/2013,-1.3,8.3,-8.8,0.0
29/11/2013,4.7,8.5,-0.4,0.0
30/11/2013,7.0,9.6,4.5,0.6
01/12/2013,4.8,8.5,2.6,0.0
02/12/2013,4.2,8.5,-3.2,0.0
03/12/2013,1.8,12.5,-4.5,0.0
04/12/2013,3.9,15.5,-5.0,0.2
05/12/2013,7.8,11.5,5.3,0.0
06/12/2013,7.0,11.8,4.3,0.0
07/12/2013,3.3,12.4,-4.1,0.0
08/12/2013,0.4,11.1,-5.8,0.0
09/12/2013,-0.7,8.0,-5.7,0.2
10/12/2013,0.9,3.3,-3.2,0.0
11/12/2013,1.7,3.5,-0.3,0.2
12/12/2013,2.6,3.9,1.4,0.4
13/12/2013,3.0,7.1,1.2,0.0
14/12/2013,8.1,13.9,0.2,0.0
15/12/2013,-0.0,3.3,-4.0,0.2
16/12/2013,1.7,8.2,-1.1,0.2
17/12/2013,5.5,10.5,2.4,0.0
18/12/2013,4.1,9.6,0.7,0.2
19/12/2013,7.4,10.0,4.6,4.2
20/12/2013,6.4,10.0,0.6,0.2
21/12/2013,1.3,8.7,-5.1,0.2
22/12/2013,0.4,10.0,-5.9,0.0
23/12/2013,3.6,11.4,-3.2,0.2
24/12/2013,9.5,14.5,6.7,0.0
25/12/2013,7.4,12.2,3.0,3.0
26/12/2013,5.9,9.6,2.4,0.0
27/12/2013,6.5,15.1,-1.5,0.0
28/12/2013,9.5,13.9,0.4,1.8
29/12/2013,2.7,10.1,-2.6,0.2
30/12/2013,0.6,9.1,-5.2,0.0
31/12/2013,3.8,10.5,0.1,0.2
