Fecha, Temperatura media, Temperatura maxima, Temperatura minima, Precipitacion acumulada
01/01/2011,7.9,13.6,3.4,0.0
02/01/2011,7.6,10.8,3.0,0.0
03/01/2011,2.3,6.5,-3.6,0.0
04/01/2011,2.1,7.4,-3.5,1.0
05/01/2011,6.8,9.5,3.5,3.6
06/01/2011,11.0,13.6,8.6,0.0
07/01/2011,12.5,14.6,9.9,0.0
08/01/2011,11.8,14.7,9.8,2.0
09/01/2011,8.4,12.2,2.0,0.0
10/01/2011,4.3,11.5,-2.2,0.0
11/01/2011,7.0,13.6,0.5,0.2
12/01/2011,10.6,16.1,5.7,0.0
13/01/2011,7.7,15.8,0.6,0.0
14/01/2011,4.7,13.4,-0.4,0.4
15/01/2011,3.9,13.4,-2.1,0.0
16/01/2011,3.2,5.7,-1.4,0.4
17/01/2011,4.6,11.0,-0.6,0.0
18/01/2011,3.2,4.9,-1.0,0.2
19/01/2011,5.3,7.7,2.4,1.6
20/01/2011,4.3,12.7,-0.8,0.2
21/01/2011,1.2,5.0,-2.2,0.0
22/01/2011,-0.2,3.8,-2.8,0.0
23/01/2011,-0.1,6.1,-5.7,0.0
24/01/2011,0.4,7.5,-5.9,0.0
25/01/2011,-,-,-,0.0
26/01/2011,-,-,-,0.0
27/01/2011,-,-,-,0.0
28/01/2011,-,-,-,8.1
29/01/2011,-,-,-,0.4
30/01/2011,-,-,-,0.4
31/01/2011,-,-,-,0.0
01/02/2011,-,-,-,0.0
02/02/2011,-,-,-,0.0
03/02/2011,-,-,-,0.0
04/02/2011,-,-,-,0.0
05/02/2011,-,-,-,0.0
06/02/2011,-,-,-,0.0
07/02/2011,-,-,-,0.0
08/02/2011,3.8,15.4,-3.6,0.0
09/02/2011,3.3,14.8,-4.9,0.2
10/02/2011,4.1,14.8,-3.6,0.0
11/02/2011,4.1,13.9,-2.2,0.0
12/02/2011,3.8,14.0,-3.8,0.2
13/02/2011,6.7,14.5,-3.0,2.6
14/02/2011,6.6,10.7,2.2,2.4
15/02/2011,6.1,9.5,3.2,7.9
16/02/2011,5.6,9.8,0.6,0.6
17/02/2011,6.3,11.8,1.2,0.0
18/02/2011,7.9,15.0,2.3,0.0
19/02/2011,6.7,10.4,2.3,1.6
20/02/2011,7.6,15.2,1.2,0.2
21/02/2011,7.4,11.2,3.8,24.4
22/02/2011,11.0,12.7,9.6,0.6
23/02/2011,11.4,15.1,9.1,0.0
24/02/2011,10.3,14.4,6.0,0.0
25/02/2011,12.0,18.6,6.2,0.0
26/02/2011,11.0,14.7,5.6,0.0
27/02/2011,7.0,10.1,3.8,0.6
28/02/2011,4.9,8.3,2.2,7.9
01/03/2011,4.8,8.3,0.7,0.2
02/03/2011,6.1,8.9,3.2,0.0
03/03/2011,4.1,7.9,0.9,0.4
04/03/2011,3.2,7.1,0.5,3.8
05/03/2011,6.4,13.9,0.1,0.0
06/03/2011,5.3,15.4,-2.8,0.2
07/03/2011,7.0,16.9,-2.6,0.2
08/03/2011,9.0,11.8,5.5,0.0
09/03/2011,7.8,14.6,1.8,0.0
10/03/2011,7.3,17.5,-1.6,0.0
11/03/2011,8.8,17.3,-1.1,3.6
12/03/2011,9.0,13.3,6.3,5.6
13/03/2011,9.4,17.5,2.4,0.0
14/03/2011,11.6,14.1,8.0,1.2
15/03/2011,10.1,11.2,9.2,35.8
16/03/2011,10.8,13.4,9.2,0.8
17/03/2011,10.4,12.9,7.5,0.4
18/03/2011,10.1,15.8,6.5,0.0
19/03/2011,9.7,14.8,3.7,0.0
20/03/2011,9.8,16.6,4.1,0.0
21/03/2011,8.9,16.1,1.8,0.0
22/03/2011,8.0,11.2,4.0,0.6
23/03/2011,8.0,15.3,0.3,0.0
24/03/2011,8.3,12.1,1.9,1.2
25/03/2011,11.6,17.2,8.3,0.0
26/03/2011,13.7,20.3,5.5,0.0
27/03/2011,10.7,17.1,4.7,5.0
28/03/2011,11.0,16.7,4.9,0.2
29/03/2011,11.9,16.3,7.4,1.4
30/03/2011,12.1,15.9,6.5,1.6
31/03/2011,15.0,22.4,7.9,0.0
01/04/2011,15.8,25.0,4.7,0.0
02/04/2011,18.0,25.0,9.9,0.0
03/04/2011,13.1,18.1,9.7,3.2
04/04/2011,11.7,17.7,7.1,0.0
05/04/2011,14.0,25.1,4.0,0.0
06/04/2011,16.8,26.8,6.3,0.0
07/04/2011,16.7,28.3,6.0,0.0
08/04/2011,17.3,29.5,5.7,0.0
09/04/2011,18.1,30.2,7.3,0.0
10/04/2011,13.9,16.8,10.7,0.0
11/04/2011,13.5,16.3,11.0,0.0
12/04/2011,13.4,18.3,7.7,0.0
13/04/2011,13.1,23.0,5.1,0.0
14/04/2011,11.8,18.9,3.8,0.0
15/04/2011,12.0,17.9,6.3,0.0
16/04/2011,13.2,20.6,6.3,0.0
17/04/2011,15.1,22.6,7.7,0.0
18/04/2011,15.2,22.2,6.7,0.0
19/04/2011,14.4,20.3,8.5,0.0
20/04/2011,14.4,19.7,10.0,0.2
21/04/2011,14.7,19.0,11.8,5.4
22/04/2011,12.7,16.1,10.1,6.3
23/04/2011,13.7,20.1,10.2,7.9
24/04/2011,13.8,19.4,11.2,3.2
25/04/2011,14.8,19.5,9.7,0.0
26/04/2011,15.5,20.9,10.8,0.0
27/04/2011,15.1,20.8,8.3,0.0
28/04/2011,14.7,21.6,8.9,0.0
29/04/2011,13.9,22.9,4.3,0.0
30/04/2011,15.5,22.4,9.4,0.8
01/05/2011,16.8,22.7,12.2,0.0
02/05/2011,16.3,23.4,8.5,0.0
03/05/2011,15.4,21.3,9.4,0.0
04/05/2011,15.3,22.0,8.3,0.0
05/05/2011,17.0,25.8,7.3,0.0
06/05/2011,19.1,25.5,14.3,0.6
07/05/2011,14.0,18.1,10.8,16.2
08/05/2011,15.4,23.8,6.7,0.0
09/05/2011,17.8,26.8,7.5,0.2
10/05/2011,19.1,26.2,11.0,0.0
11/05/2011,19.8,29.4,9.8,0.0
12/05/2011,18.0,24.0,13.4,0.0
13/05/2011,17.9,24.8,12.9,0.4
14/05/2011,13.9,17.2,9.0,0.4
15/05/2011,13.2,19.0,7.5,0.0
16/05/2011,15.5,25.2,6.5,0.0
17/05/2011,17.6,27.7,6.4,0.0
18/05/2011,18.9,27.1,9.3,0.0
19/05/2011,18.4,23.9,10.4,0.0
20/05/2011,17.6,26.8,8.0,0.0
21/05/2011,19.5,28.3,10.5,0.0
22/05/2011,18.5,23.8,13.7,0.0
23/05/2011,20.0,30.4,9.7,0.0
24/05/2011,19.6,26.3,14.1,0.0
25/05/2011,21.0,32.8,9.0,1.8
26/05/2011,17.4,23.9,13.1,2.6
27/05/2011,14.8,19.8,9.7,0.2
28/05/2011,16.8,26.5,7.2,0.0
29/05/2011,19.3,29.7,8.6,0.0
30/05/2011,18.3,26.2,14.9,10.7
31/05/2011,15.0,19.5,10.2,0.4
01/06/2011,13.7,18.2,8.9,1.0
02/06/2011,15.4,19.1,12.9,0.0
03/06/2011,17.3,26.0,8.3,0.0
04/06/2011,17.0,24.7,12.8,3.8
05/06/2011,17.6,24.8,10.6,0.2
06/06/2011,18.3,24.4,14.3,27.5
07/06/2011,14.7,18.5,11.1,4.0
08/06/2011,14.8,20.1,10.0,0.0
09/06/2011,16.6,25.6,10.2,5.9
10/06/2011,15.0,20.1,9.4,0.0
11/06/2011,16.1,22.7,8.3,0.0
12/06/2011,21.0,30.4,10.3,0.0
13/06/2011,21.6,30.3,14.3,0.0
14/06/2011,22.7,31.1,13.5,0.0
15/06/2011,23.8,32.8,15.8,0.0
16/06/2011,19.5,25.3,14.9,0.0
17/06/2011,21.1,31.5,13.2,0.0
18/06/2011,17.3,22.7,11.4,0.0
19/06/2011,20.0,29.2,10.6,0.0
20/06/2011,24.7,34.4,11.7,0.0
21/06/2011,25.4,35.8,18.5,0.4
22/06/2011,20.5,27.6,14.4,0.0
23/06/2011,18.0,24.4,12.8,0.0
24/06/2011,19.5,28.8,10.5,0.4
25/06/2011,23.7,35.2,11.0,0.0
26/06/2011,28.9,37.9,17.7,0.0
27/06/2011,28.8,36.9,21.3,0.4
28/06/2011,22.8,31.6,15.4,0.4
29/06/2011,16.4,21.0,12.4,0.0
30/06/2011,17.7,25.0,10.6,0.0
01/07/2011,20.8,30.0,11.9,0.0
02/07/2011,23.6,34.3,10.6,0.0
03/07/2011,23.0,32.2,17.6,1.2
04/07/2011,22.0,29.1,15.5,0.0
05/07/2011,22.9,34.2,10.7,0.0
06/07/2011,20.7,28.2,14.3,0.0
07/07/2011,18.8,26.6,12.7,0.0
08/07/2011,20.5,29.7,10.6,0.0
09/07/2011,24.0,32.1,14.9,0.0
10/07/2011,22.9,30.4,17.8,0.0
11/07/2011,25.4,34.2,14.7,0.0
12/07/2011,21.5,31.7,15.3,4.8
13/07/2011,17.5,22.8,13.0,0.0
14/07/2011,19.1,25.7,12.9,0.0
15/07/2011,20.8,31.1,10.8,0.0
16/07/2011,24.1,33.6,15.5,0.0
17/07/2011,18.5,22.8,14.7,0.0
18/07/2011,19.3,26.3,9.6,0.0
19/07/2011,17.3,21.1,11.1,0.8
20/07/2011,18.7,26.8,10.0,0.0
21/07/2011,18.9,24.8,12.6,0.0
22/07/2011,16.7,22.1,12.2,0.0
23/07/2011,16.5,22.0,10.9,0.0
24/07/2011,18.6,23.5,14.2,0.0
25/07/2011,20.8,24.6,17.0,0.0
26/07/2011,20.3,25.8,14.5,0.0
27/07/2011,19.4,25.5,12.6,0.0
28/07/2011,20.0,27.1,12.6,0.2
29/07/2011,21.0,30.0,12.2,0.0
30/07/2011,21.5,28.2,15.1,0.0
31/07/2011,21.5,30.5,12.4,0.0
01/08/2011,23.8,32.8,13.3,0.0
02/08/2011,24.5,31.9,20.2,1.6
03/08/2011,23.3,29.5,17.6,0.0
04/08/2011,23.7,33.3,14.7,0.0
05/08/2011,23.2,31.7,17.3,0.0
06/08/2011,24.0,33.0,16.5,0.0
07/08/2011,22.3,30.1,16.5,0.0
08/08/2011,18.6,23.0,12.8,0.0
09/08/2011,17.4,23.5,10.7,0.0
10/08/2011,19.5,30.6,10.8,0.0
11/08/2011,21.9,32.5,11.6,0.0
12/08/2011,22.3,32.7,13.0,0.0
13/08/2011,24.6,35.0,15.3,0.0
14/08/2011,24.0,31.5,16.3,0.0
15/08/2011,23.7,30.5,18.4,0.0
16/08/2011,25.2,34.9,15.1,0.0
17/08/2011,27.0,36.6,17.8,0.0
18/08/2011,23.0,31.4,16.9,0.4
19/08/2011,27.2,36.3,19.1,0.0
20/08/2011,29.1,38.5,17.3,0.0
21/08/2011,28.5,37.6,19.9,0.0
22/08/2011,25.7,35.0,18.4,0.0
23/08/2011,24.0,32.9,16.9,0.0
24/08/2011,22.3,28.8,17.0,0.0
25/08/2011,23.8,32.7,13.6,0.0
26/08/2011,19.3,24.0,12.8,0.4
27/08/2011,16.9,23.7,9.1,0.0
28/08/2011,19.3,30.5,8.3,0.0
29/08/2011,20.5,31.3,13.4,0.0
30/08/2011,20.9,32.2,11.5,0.0
31/08/2011,22.9,30.3,17.3,0.0
01/09/2011,24.2,32.5,16.7,11.7
02/09/2011,21.7,29.0,15.6,9.1
03/09/2011,20.3,26.0,15.3,1.0
04/09/2011,19.1,25.6,14.5,0.0
05/09/2011,17.2,23.2,11.5,0.0
06/09/2011,17.9,29.3,8.6,0.0
07/09/2011,19.5,28.8,9.6,0.0
08/09/2011,22.1,32.2,14.1,0.0
09/09/2011,-,-,-,-
10/09/2011,-,-,-,-
11/09/2011,-,-,-,-
12/09/2011,-,-,-,-
13/09/2011,-,-,-,-
14/09/2011,-,-,-,-
15/09/2011,24.7,33.5,18.6,0.0
16/09/2011,23.6,32.1,18.0,2.2
17/09/2011,20.5,27.2,16.3,0.0
18/09/2011,15.5,19.4,10.4,0.0
19/09/2011,14.8,19.7,9.9,0.0
20/09/2011,16.6,27.2,9.2,0.0
21/09/2011,18.2,29.8,7.9,0.0
22/09/2011,19.6,28.3,13.9,0.0
23/09/2011,18.7,28.1,10.6,0.0
24/09/2011,18.4,26.5,12.5,0.0
25/09/2011,18.2,28.0,10.4,0.0
26/09/2011,18.5,29.6,9.6,0.0
27/09/2011,18.8,30.3,10.0,0.0
28/09/2011,18.8,30.1,10.6,0.0
29/09/2011,18.0,28.5,9.6,0.0
30/09/2011,17.6,27.5,9.4,0.0
01/10/2011,16.4,26.2,8.5,0.0
02/10/2011,15.6,28.2,6.3,0.0
03/10/2011,16.9,29.9,4.7,0.0
04/10/2011,18.1,30.0,5.7,0.0
05/10/2011,19.0,27.8,11.8,0.0
06/10/2011,18.0,25.7,10.8,0.0
07/10/2011,14.1,17.0,11.0,0.8
08/10/2011,14.0,18.1,10.8,0.4
09/10/2011,15.6,20.7,10.8,0.0
10/10/2011,14.7,26.8,5.6,0.0
11/10/2011,17.8,31.2,5.7,0.0
12/10/2011,17.8,30.7,6.3,0.0
13/10/2011,17.6,26.3,12.8,0.0
14/10/2011,14.4,25.2,6.1,0.0
15/10/2011,14.9,24.5,6.6,0.0
16/10/2011,13.0,22.6,6.1,0.0
17/10/2011,11.6,23.1,3.0,0.0
18/10/2011,12.6,23.8,4.0,0.0
19/10/2011,11.9,20.3,6.3,0.2
20/10/2011,10.8,16.5,5.9,0.0
21/10/2011,7.6,17.0,-0.3,0.0
22/10/2011,11.0,20.7,1.8,0.0
23/10/2011,16.9,22.2,12.0,0.0
24/10/2011,13.6,16.3,7.1,4.2
25/10/2011,9.6,17.3,3.9,0.0
26/10/2011,11.9,17.3,4.1,0.2
27/10/2011,13.2,17.9,7.9,1.4
28/10/2011,12.9,16.9,8.3,1.0
29/10/2011,12.7,17.9,8.2,0.0
30/10/2011,11.5,21.7,4.3,0.0
31/10/2011,12.6,20.8,3.2,0.0
01/11/2011,16.3,20.5,13.4,2.0
02/11/2011,16.4,18.1,15.1,0.4
03/11/2011,14.7,17.1,10.0,16.6
04/11/2011,12.6,16.5,9.6,2.8
05/11/2011,10.6,13.3,8.7,36.2
06/11/2011,11.2,12.6,8.7,1.4
07/11/2011,12.6,14.7,10.4,2.2
08/11/2011,11.4,18.7,5.9,0.2
09/11/2011,11.4,17.7,4.9,0.4
10/11/2011,12.7,17.9,9.6,6.1
11/11/2011,14.3,20.1,9.9,0.2
12/11/2011,14.7,19.4,8.6,0.0
13/11/2011,15.6,17.9,13.3,0.0
14/11/2011,14.4,16.1,12.8,1.4
15/11/2011,11.6,15.9,7.6,9.5
16/11/2011,10.5,16.9,5.5,0.0
17/11/2011,8.4,15.1,2.6,0.2
18/11/2011,11.4,14.8,6.9,0.0
19/11/2011,12.3,15.3,9.7,0.2
20/11/2011,13.3,16.3,10.7,0.0
21/11/2011,11.6,17.9,5.1,0.0
22/11/2011,9.8,14.4,3.6,0.2
23/11/2011,-,-,-,-
24/11/2011,-,-,-,-
25/11/2011,-,-,-,-
26/11/2011,-,-,-,-
27/11/2011,-,-,-,-
28/11/2011,4.6,5.6,3.3,0.2
29/11/2011,5.1,6.1,3.8,0.0
30/11/2011,4.9,5.7,3.9,0.0
01/12/2011,5.0,6.1,4.4,0.0
02/12/2011,6.4,8.1,4.4,4.2
03/12/2011,7.6,11.2,4.4,0.0
04/12/2011,6.6,13.5,1.2,0.0
05/12/2011,9.3,14.1,5.6,0.0
06/12/2011,8.6,13.0,3.0,0.0
07/12/2011,6.8,14.4,0.0,0.0
08/12/2011,6.4,15.5,1.3,0.0
09/12/2011,3.1,10.5,-0.5,0.2
10/12/2011,2.8,4.7,0.7,0.4
11/12/2011,4.5,5.6,3.1,0.0
12/12/2011,5.8,13.6,2.7,0.2
13/12/2011,7.7,13.0,0.0,0.0
14/12/2011,9.4,15.1,0.6,0.0
15/12/2011,5.3,12.4,-0.3,0.2
16/12/2011,8.6,17.6,4.9,5.2
17/12/2011,5.6,8.7,2.0,0.2
18/12/2011,4.1,7.6,1.3,0.2
19/12/2011,4.6,8.9,0.5,0.2
20/12/2011,7.9,12.7,0.1,0.0
21/12/2011,11.5,13.4,9.8,0.0
22/12/2011,10.0,12.9,5.5,0.0
23/12/2011,6.1,12.6,-2.4,0.2
24/12/2011,7.3,10.1,3.2,0.0
25/12/2011,4.4,11.0,-2.8,0.0
26/12/2011,0.4,9.2,-4.8,0.0
27/12/2011,0.3,10.3,-5.2,0.2
28/12/2011,3.8,12.2,-5.4,0.0
29/12/2011,6.6,9.1,3.2,0.0
30/12/2011,6.7,10.4,3.6,0.0
31/12/2011,9.2,15.1,3.7,0.0
