Comarca,Fecha, Temperatura media, Temperatura maxima, Temperatura minima, Precipitacion acumulada,Localidad
Tierra_Estella,01/01/2017,-1.9,-0.6,-3.0,0.1,Aguilar_de_Codes
Tierra_Estella,02/01/2017,-1.3,0.6,-2.6,0.0,Aguilar_de_Codes
Tierra_Estella,03/01/2017,5.9,11.0,-0.1,0.0,Aguilar_de_Codes
Tierra_Estella,04/01/2017,6.0,10.7,3.4,0.0,Aguilar_de_Codes
Tierra_Estella,05/01/2017,2.8,6.2,-1.2,0.0,Aguilar_de_Codes
Tierra_Estella,06/01/2017,1.6,7.1,-1.7,0.0,Aguilar_de_Codes
Tierra_Estella,07/01/2017,3.0,8.5,-0.4,0.0,Aguilar_de_Codes
Tierra_Estella,08/01/2017,4.6,9.8,0.8,0.0,Aguilar_de_Codes
Tierra_Estella,09/01/2017,5.0,8.0,2.9,0.0,Aguilar_de_Codes
Tierra_Estella,10/01/2017,5.5,6.7,3.8,11.0,Aguilar_de_Codes
Tierra_Estella,11/01/2017,8.6,10.4,6.2,2.5,Aguilar_de_Codes
Tierra_Estella,12/01/2017,8.4,12.3,5.9,0.3,Aguilar_de_Codes
Tierra_Estella,13/01/2017,1.9,5.7,0.2,8.6,Aguilar_de_Codes
Tierra_Estella,14/01/2017,0.8,2.6,0.1,7.3,Aguilar_de_Codes
Tierra_Estella,15/01/2017,3.2,4.5,1.2,12.2,Aguilar_de_Codes
Tierra_Estella,16/01/2017,6.0,7.2,4.5,10.3,Aguilar_de_Codes
Tierra_Estella,17/01/2017,0.3,6.2,-3.1,2.1,Aguilar_de_Codes
Tierra_Estella,18/01/2017,-3.2,-2.3,-5.0,0.0,Aguilar_de_Codes
Tierra_Estella,19/01/2017,-0.9,2.9,-2.6,0.0,Aguilar_de_Codes
Tierra_Estella,20/01/2017,1.5,6.2,-2.7,0.0,Aguilar_de_Codes
Tierra_Estella,21/01/2017,4.1,9.0,0.5,0.0,Aguilar_de_Codes
Tierra_Estella,22/01/2017,3.0,5.0,0.4,0.1,Aguilar_de_Codes
Tierra_Estella,23/01/2017,3.7,6.4,1.9,0.0,Aguilar_de_Codes
Tierra_Estella,24/01/2017,3.0,6.4,-0.4,0.0,Aguilar_de_Codes
Tierra_Estella,25/01/2017,0.4,4.4,-3.4,0.0,Aguilar_de_Codes
Tierra_Estella,26/01/2017,-0.1,2.8,-3.9,0.0,Aguilar_de_Codes
Tierra_Estella,27/01/2017,3.7,5.8,2.0,0.7,Aguilar_de_Codes
Tierra_Estella,28/01/2017,4.1,8.2,1.8,0.0,Aguilar_de_Codes
Tierra_Estella,29/01/2017,4.8,7.8,1.8,0.4,Aguilar_de_Codes
Tierra_Estella,30/01/2017,7.5,11.1,4.8,0.0,Aguilar_de_Codes
Tierra_Estella,31/01/2017,7.7,11.3,5.2,0.0,Aguilar_de_Codes
Tierra_Estella,01/02/2017,8.0,11.9,5.5,0.0,Aguilar_de_Codes
Tierra_Estella,02/02/2017,6.6,8.1,5.5,7.7,Aguilar_de_Codes
Tierra_Estella,03/02/2017,6.8,11.0,2.8,2.2,Aguilar_de_Codes
Tierra_Estella,04/02/2017,8.7,13.0,6.6,15.3,Aguilar_de_Codes
Tierra_Estella,05/02/2017,4.5,11.1,0.6,5.0,Aguilar_de_Codes
Tierra_Estella,06/02/2017,6.3,10.5,2.2,3.0,Aguilar_de_Codes
Tierra_Estella,07/02/2017,6.7,9.5,1.3,4.6,Aguilar_de_Codes
Tierra_Estella,08/02/2017,1.5,3.3,0.1,12.1,Aguilar_de_Codes
Tierra_Estella,09/02/2017,4.2,10.5,0.2,0.0,Aguilar_de_Codes
Tierra_Estella,10/02/2017,3.8,7.7,0.4,0.0,Aguilar_de_Codes
Tierra_Estella,11/02/2017,3.4,4.4,2.3,6.0,Aguilar_de_Codes
Tierra_Estella,12/02/2017,6.3,8.1,4.1,12.4,Aguilar_de_Codes
Tierra_Estella,13/02/2017,7.0,8.4,5.6,6.6,Aguilar_de_Codes
Tierra_Estella,14/02/2017,5.5,9.9,1.8,0.0,Aguilar_de_Codes
Tierra_Estella,15/02/2017,6.9,10.8,4.6,0.0,Aguilar_de_Codes
Tierra_Estella,16/02/2017,8.2,12.8,6.1,0.0,Aguilar_de_Codes
Tierra_Estella,17/02/2017,8.1,14.1,3.9,0.0,Aguilar_de_Codes
Tierra_Estella,18/02/2017,8.6,14.6,3.6,0.0,Aguilar_de_Codes
Tierra_Estella,19/02/2017,7.6,12.5,4.7,0.0,Aguilar_de_Codes
Tierra_Estella,20/02/2017,7.2,11.3,4.2,0.0,Aguilar_de_Codes
Tierra_Estella,21/02/2017,8.0,14.9,3.4,0.0,Aguilar_de_Codes
Tierra_Estella,22/02/2017,9.4,14.3,4.4,0.0,Aguilar_de_Codes
Tierra_Estella,23/02/2017,9.7,13.5,5.7,0.0,Aguilar_de_Codes
Tierra_Estella,24/02/2017,5.9,7.2,2.4,0.0,Aguilar_de_Codes
Tierra_Estella,25/02/2017,8.3,16.8,0.7,0.0,Aguilar_de_Codes
Tierra_Estella,26/02/2017,9.2,16.2,3.5,0.0,Aguilar_de_Codes
Tierra_Estella,27/02/2017,9.3,13.8,3.7,0.0,Aguilar_de_Codes
Tierra_Estella,28/02/2017,6.6,11.6,2.0,5.4,Aguilar_de_Codes
Tierra_Estella,01/03/2017,7.8,13.6,2.1,0.0,Aguilar_de_Codes
Tierra_Estella,02/03/2017,10.6,15.4,6.2,0.0,Aguilar_de_Codes
Tierra_Estella,03/03/2017,7.3,11.8,1.9,2.2,Aguilar_de_Codes
Tierra_Estella,04/03/2017,3.6,8.7,1.3,0.7,Aguilar_de_Codes
Tierra_Estella,05/03/2017,7.6,11.6,3.1,1.9,Aguilar_de_Codes
Tierra_Estella,06/03/2017,10.9,15.8,6.2,0.1,Aguilar_de_Codes
Tierra_Estella,07/03/2017,9.5,14.5,5.7,0.0,Aguilar_de_Codes
Tierra_Estella,08/03/2017,12.8,20.0,7.6,0.0,Aguilar_de_Codes
Tierra_Estella,09/03/2017,16.1,23.4,9.3,0.0,Aguilar_de_Codes
Tierra_Estella,10/03/2017,17.8,24.3,11.9,0.0,Aguilar_de_Codes
Tierra_Estella,11/03/2017,15.5,23.4,9.7,0.0,Aguilar_de_Codes
Tierra_Estella,12/03/2017,7.2,10.6,3.8,2.5,Aguilar_de_Codes
Tierra_Estella,13/03/2017,6.1,8.2,4.0,0.6,Aguilar_de_Codes
Tierra_Estella,14/03/2017,9.1,14.0,5.2,0.0,Aguilar_de_Codes
Tierra_Estella,15/03/2017,10.9,19.1,5.1,0.0,Aguilar_de_Codes
Tierra_Estella,16/03/2017,12.5,18.4,7.4,0.0,Aguilar_de_Codes
Tierra_Estella,17/03/2017,12.5,20.5,7.0,0.0,Aguilar_de_Codes
Tierra_Estella,18/03/2017,9.5,17.0,5.0,0.0,Aguilar_de_Codes
Tierra_Estella,19/03/2017,11.0,19.2,5.5,0.0,Aguilar_de_Codes
Tierra_Estella,20/03/2017,9.8,19.7,4.3,0.0,Aguilar_de_Codes
Tierra_Estella,21/03/2017,6.6,9.2,4.5,0.0,Aguilar_de_Codes
Tierra_Estella,22/03/2017,5.0,10.2,1.6,0.7,Aguilar_de_Codes
Tierra_Estella,23/03/2017,3.5,7.7,-0.2,0.0,Aguilar_de_Codes
Tierra_Estella,24/03/2017,5.0,11.0,0.2,0.0,Aguilar_de_Codes
Tierra_Estella,25/03/2017,1.7,4.7,-0.4,28.3,Aguilar_de_Codes
Tierra_Estella,26/03/2017,6.5,11.1,1.8,5.6,Aguilar_de_Codes
Tierra_Estella,27/03/2017,7.1,9.7,5.4,1.4,Aguilar_de_Codes
Tierra_Estella,28/03/2017,10.3,16.4,5.8,0.0,Aguilar_de_Codes
Tierra_Estella,29/03/2017,12.8,19.6,5.7,0.0,Aguilar_de_Codes
Tierra_Estella,30/03/2017,13.1,18.0,9.0,0.0,Aguilar_de_Codes
Tierra_Estella,31/03/2017,11.4,16.4,8.1,1.4,Aguilar_de_Codes
Tierra_Estella,01/04/2017,7.5,11.1,4.6,6.6,Aguilar_de_Codes
Tierra_Estella,02/04/2017,6.1,9.2,4.6,1.8,Aguilar_de_Codes
Tierra_Estella,03/04/2017,9.6,17.7,3.1,0.0,Aguilar_de_Codes
Tierra_Estella,04/04/2017,8.6,12.7,5.9,0.0,Aguilar_de_Codes
Tierra_Estella,05/04/2017,7.8,11.1,5.5,0.1,Aguilar_de_Codes
Tierra_Estella,06/04/2017,9.2,13.9,4.8,0.0,Aguilar_de_Codes
Tierra_Estella,07/04/2017,10.8,18.0,3.4,0.0,Aguilar_de_Codes
Tierra_Estella,08/04/2017,14.6,21.1,8.8,0.0,Aguilar_de_Codes
Tierra_Estella,09/04/2017,14.6,20.7,9.1,0.0,Aguilar_de_Codes
Tierra_Estella,10/04/2017,15.2,22.9,8.9,0.0,Aguilar_de_Codes
Tierra_Estella,11/04/2017,11.2,17.5,6.6,0.0,Aguilar_de_Codes
Tierra_Estella,12/04/2017,13.5,22.5,5.5,0.0,Aguilar_de_Codes
Tierra_Estella,13/04/2017,15.3,22.8,8.4,0.0,Aguilar_de_Codes
Tierra_Estella,14/04/2017,13.2,19.2,7.4,0.0,Aguilar_de_Codes
Tierra_Estella,15/04/2017,10.0,14.4,7.1,0.0,Aguilar_de_Codes
Tierra_Estella,16/04/2017,12.0,19.1,5.4,0.0,Aguilar_de_Codes
Tierra_Estella,17/04/2017,12.1,20.7,4.1,0.0,Aguilar_de_Codes
Tierra_Estella,18/04/2017,10.1,16.4,5.5,0.0,Aguilar_de_Codes
Tierra_Estella,19/04/2017,7.8,13.9,2.9,0.0,Aguilar_de_Codes
Tierra_Estella,20/04/2017,10.4,18.1,2.9,0.0,Aguilar_de_Codes
Tierra_Estella,21/04/2017,11.1,17.7,3.9,0.0,Aguilar_de_Codes
Tierra_Estella,22/04/2017,12.4,20.2,5.6,0.0,Aguilar_de_Codes
Tierra_Estella,23/04/2017,15.7,24.0,6.3,0.0,Aguilar_de_Codes
Tierra_Estella,24/04/2017,16.0,23.3,8.9,0.0,Aguilar_de_Codes
Tierra_Estella,25/04/2017,10.8,15.2,7.1,6.3,Aguilar_de_Codes
Tierra_Estella,26/04/2017,4.3,7.1,1.6,1.5,Aguilar_de_Codes
Tierra_Estella,27/04/2017,3.9,8.0,0.1,0.0,Aguilar_de_Codes
Tierra_Estella,28/04/2017,6.0,13.6,-1.4,0.0,Aguilar_de_Codes
Tierra_Estella,29/04/2017,8.6,14.7,2.7,0.6,Aguilar_de_Codes
Tierra_Estella,30/04/2017,6.8,11.2,2.2,6.0,Aguilar_de_Codes
Tierra_Estella,01/05/2017,7.8,13.9,1.0,0.0,Aguilar_de_Codes
Tierra_Estella,02/05/2017,11.1,15.0,8.2,0.4,Aguilar_de_Codes
Tierra_Estella,03/05/2017,13.5,20.8,6.6,0.0,Aguilar_de_Codes
Tierra_Estella,04/05/2017,15.0,21.2,8.9,0.0,Aguilar_de_Codes
Tierra_Estella,05/05/2017,13.3,20.2,10.3,7.5,Aguilar_de_Codes
Tierra_Estella,06/05/2017,12.4,17.0,9.0,0.0,Aguilar_de_Codes
Tierra_Estella,07/05/2017,13.5,19.5,7.4,0.0,Aguilar_de_Codes
Tierra_Estella,08/05/2017,14.0,20.9,7.1,0.0,Aguilar_de_Codes
Tierra_Estella,09/05/2017,14.1,20.4,9.2,1.8,Aguilar_de_Codes
Tierra_Estella,10/05/2017,13.5,20.1,10.1,11.8,Aguilar_de_Codes
Tierra_Estella,11/05/2017,11.5,16.6,7.8,3.9,Aguilar_de_Codes
Tierra_Estella,12/05/2017,11.8,18.2,6.8,4.7,Aguilar_de_Codes
Tierra_Estella,13/05/2017,14.2,19.2,9.2,0.0,Aguilar_de_Codes
Tierra_Estella,14/05/2017,15.7,22.1,9.5,0.0,Aguilar_de_Codes
Tierra_Estella,15/05/2017,18.4,25.7,11.3,0.0,Aguilar_de_Codes
Tierra_Estella,16/05/2017,20.8,27.9,15.5,0.0,Aguilar_de_Codes
Tierra_Estella,17/05/2017,17.0,23.2,11.4,2.1,Aguilar_de_Codes
Tierra_Estella,18/05/2017,9.0,12.1,5.7,15.0,Aguilar_de_Codes
Tierra_Estella,19/05/2017,9.3,15.4,2.8,0.0,Aguilar_de_Codes
Tierra_Estella,20/05/2017,12.5,20.8,4.7,0.0,Aguilar_de_Codes
Tierra_Estella,21/05/2017,16.6,21.9,10.0,0.0,Aguilar_de_Codes
Tierra_Estella,22/05/2017,18.0,25.0,10.8,0.0,Aguilar_de_Codes
Tierra_Estella,23/05/2017,17.2,25.0,8.5,0.0,Aguilar_de_Codes
Tierra_Estella,24/05/2017,20.8,28.9,11.2,0.0,Aguilar_de_Codes
Tierra_Estella,25/05/2017,23.1,31.2,15.6,0.0,Aguilar_de_Codes
Tierra_Estella,26/05/2017,21.2,30.5,14.9,5.2,Aguilar_de_Codes
Tierra_Estella,27/05/2017,21.3,28.0,15.7,0.0,Aguilar_de_Codes
Tierra_Estella,28/05/2017,20.4,26.9,14.5,0.0,Aguilar_de_Codes
Tierra_Estella,29/05/2017,15.0,17.7,11.5,8.6,Aguilar_de_Codes
Tierra_Estella,30/05/2017,15.8,20.7,12.8,0.0,Aguilar_de_Codes
Tierra_Estella,31/05/2017,18.1,24.7,12.3,0.0,Aguilar_de_Codes
Tierra_Estella,01/06/2017,20.7,28.2,14.1,0.0,Aguilar_de_Codes
Tierra_Estella,02/06/2017,18.0,23.9,13.9,1.7,Aguilar_de_Codes
Tierra_Estella,03/06/2017,12.6,15.3,9.7,4.5,Aguilar_de_Codes
Tierra_Estella,04/06/2017,9.7,11.9,8.7,17.6,Aguilar_de_Codes
Tierra_Estella,05/06/2017,14.7,21.0,8.7,0.0,Aguilar_de_Codes
Tierra_Estella,06/06/2017,12.6,17.0,8.4,0.0,Aguilar_de_Codes
Tierra_Estella,07/06/2017,15.9,25.1,6.3,0.0,Aguilar_de_Codes
Tierra_Estella,08/06/2017,18.5,26.8,14.4,15.3,Aguilar_de_Codes
Tierra_Estella,09/06/2017,18.2,26.0,13.0,0.0,Aguilar_de_Codes
Tierra_Estella,10/06/2017,21.8,29.4,14.1,0.0,Aguilar_de_Codes
Tierra_Estella,11/06/2017,21.5,31.1,15.2,0.0,Aguilar_de_Codes
Tierra_Estella,12/06/2017,20.7,31.4,14.4,0.0,Aguilar_de_Codes
Tierra_Estella,13/06/2017,23.2,31.7,15.7,0.0,Aguilar_de_Codes
Tierra_Estella,14/06/2017,24.5,33.4,17.8,0.0,Aguilar_de_Codes
Tierra_Estella,15/06/2017,17.7,21.6,14.9,0.0,Aguilar_de_Codes
Tierra_Estella,16/06/2017,19.7,28.5,13.8,0.0,Aguilar_de_Codes
Tierra_Estella,17/06/2017,22.0,31.3,12.9,0.0,Aguilar_de_Codes
Tierra_Estella,18/06/2017,25.2,33.7,16.3,0.0,Aguilar_de_Codes
Tierra_Estella,19/06/2017,24.3,33.3,18.5,0.0,Aguilar_de_Codes
Tierra_Estella,20/06/2017,23.3,31.3,17.7,0.0,Aguilar_de_Codes
Tierra_Estella,21/06/2017,25.7,33.4,17.4,0.0,Aguilar_de_Codes
Tierra_Estella,22/06/2017,24.9,34.6,16.0,0.0,Aguilar_de_Codes
Tierra_Estella,23/06/2017,19.2,27.4,15.7,0.0,Aguilar_de_Codes
Tierra_Estella,24/06/2017,18.0,24.1,15.1,0.0,Aguilar_de_Codes
Tierra_Estella,25/06/2017,19.3,27.5,13.9,5.6,Aguilar_de_Codes
Tierra_Estella,26/06/2017,18.6,23.0,15.7,3.0,Aguilar_de_Codes
Tierra_Estella,27/06/2017,17.4,25.1,12.9,24.2,Aguilar_de_Codes
Tierra_Estella,28/06/2017,15.4,23.0,10.0,12.4,Aguilar_de_Codes
Tierra_Estella,29/06/2017,12.1,18.7,8.1,0.0,Aguilar_de_Codes
Tierra_Estella,30/06/2017,11.1,15.9,8.1,0.6,Aguilar_de_Codes
Tierra_Estella,01/07/2017,10.5,13.4,8.5,0.0,Aguilar_de_Codes
Tierra_Estella,02/07/2017,14.2,19.6,9.8,0.0,Aguilar_de_Codes
Tierra_Estella,03/07/2017,18.2,26.5,10.1,0.0,Aguilar_de_Codes
Tierra_Estella,04/07/2017,22.9,30.9,13.6,0.0,Aguilar_de_Codes
Tierra_Estella,05/07/2017,23.9,30.9,16.8,0.0,Aguilar_de_Codes
Tierra_Estella,06/07/2017,21.9,27.6,15.4,1.8,Aguilar_de_Codes
Tierra_Estella,07/07/2017,22.8,29.0,15.9,0.4,Aguilar_de_Codes
Tierra_Estella,08/07/2017,18.0,26.2,15.3,44.2,Aguilar_de_Codes
Tierra_Estella,09/07/2017,20.1,28.0,14.6,0.3,Aguilar_de_Codes
Tierra_Estella,10/07/2017,16.1,19.6,14.2,0.0,Aguilar_de_Codes
Tierra_Estella,11/07/2017,20.2,29.5,12.6,0.0,Aguilar_de_Codes
Tierra_Estella,12/07/2017,20.6,26.5,15.4,0.0,Aguilar_de_Codes
Tierra_Estella,13/07/2017,18.4,25.7,13.9,0.0,Aguilar_de_Codes
Tierra_Estella,14/07/2017,16.7,21.8,12.7,0.0,Aguilar_de_Codes
Tierra_Estella,15/07/2017,18.2,25.7,11.7,0.0,Aguilar_de_Codes
Tierra_Estella,16/07/2017,22.3,31.8,12.6,0.2,Aguilar_de_Codes
Tierra_Estella,17/07/2017,24.9,31.6,19.0,0.1,Aguilar_de_Codes
Tierra_Estella,18/07/2017,22.0,31.3,17.7,7.4,Aguilar_de_Codes
Tierra_Estella,19/07/2017,21.7,30.4,16.1,0.0,Aguilar_de_Codes
Tierra_Estella,20/07/2017,15.9,19.8,13.1,0.0,Aguilar_de_Codes
Tierra_Estella,21/07/2017,16.5,23.0,12.7,0.0,Aguilar_de_Codes
Tierra_Estella,22/07/2017,18.0,27.3,13.3,0.0,Aguilar_de_Codes
Tierra_Estella,23/07/2017,17.7,23.6,13.3,0.0,Aguilar_de_Codes
Tierra_Estella,24/07/2017,16.2,19.6,13.1,0.9,Aguilar_de_Codes
Tierra_Estella,25/07/2017,14.2,18.1,11.9,0.1,Aguilar_de_Codes
Tierra_Estella,26/07/2017,18.2,25.4,10.2,0.0,Aguilar_de_Codes
Tierra_Estella,27/07/2017,21.9,29.5,15.3,0.0,Aguilar_de_Codes
Tierra_Estella,28/07/2017,21.6,29.4,16.3,0.0,Aguilar_de_Codes
Tierra_Estella,29/07/2017,24.7,33.4,16.5,0.0,Aguilar_de_Codes
Tierra_Estella,30/07/2017,21.1,32.2,14.8,0.0,Aguilar_de_Codes
Tierra_Estella,31/07/2017,18.6,26.9,14.4,0.0,Aguilar_de_Codes
Tierra_Estella,01/08/2017,18.7,25.3,14.6,0.0,Aguilar_de_Codes
Tierra_Estella,02/08/2017,22.8,32.6,14.1,0.0,Aguilar_de_Codes
Tierra_Estella,03/08/2017,22.7,31.4,15.8,0.0,Aguilar_de_Codes
Tierra_Estella,04/08/2017,23.0,31.0,15.9,0.0,Aguilar_de_Codes
Tierra_Estella,05/08/2017,18.0,21.9,14.6,0.0,Aguilar_de_Codes
Tierra_Estella,06/08/2017,17.0,22.5,13.5,0.0,Aguilar_de_Codes
Tierra_Estella,07/08/2017,19.1,29.9,13.3,0.0,Aguilar_de_Codes
Tierra_Estella,08/08/2017,14.4,19.1,11.7,0.0,Aguilar_de_Codes
Tierra_Estella,09/08/2017,12.7,16.2,10.2,0.1,Aguilar_de_Codes
Tierra_Estella,10/08/2017,12.4,16.0,10.2,0.0,Aguilar_de_Codes
Tierra_Estella,11/08/2017,14.2,19.6,10.0,0.0,Aguilar_de_Codes
Tierra_Estella,12/08/2017,17.7,27.0,9.5,0.0,Aguilar_de_Codes
Tierra_Estella,13/08/2017,20.7,30.4,12.4,0.0,Aguilar_de_Codes
Tierra_Estella,14/08/2017,22.8,32.3,16.6,5.3,Aguilar_de_Codes
Tierra_Estella,15/08/2017,19.9,27.9,15.9,1.5,Aguilar_de_Codes
Tierra_Estella,16/08/2017,19.1,24.8,15.1,0.0,Aguilar_de_Codes
Tierra_Estella,17/08/2017,23.3,33.3,14.5,0.0,Aguilar_de_Codes
Tierra_Estella,18/08/2017,18.1,23.4,14.3,0.0,Aguilar_de_Codes
Tierra_Estella,19/08/2017,17.1,22.9,11.6,0.0,Aguilar_de_Codes
Tierra_Estella,20/08/2017,17.5,26.1,9.8,0.0,Aguilar_de_Codes
Tierra_Estella,21/08/2017,23.5,32.2,14.6,0.0,Aguilar_de_Codes
Tierra_Estella,22/08/2017,24.6,33.9,18.6,0.0,Aguilar_de_Codes
Tierra_Estella,23/08/2017,22.6,30.0,16.1,0.0,Aguilar_de_Codes
Tierra_Estella,24/08/2017,22.5,30.5,17.1,0.0,Aguilar_de_Codes
Tierra_Estella,25/08/2017,22.9,32.3,16.0,0.0,Aguilar_de_Codes
Tierra_Estella,26/08/2017,23.8,29.9,17.4,0.0,Aguilar_de_Codes
Tierra_Estella,27/08/2017,19.7,23.4,16.7,8.9,Aguilar_de_Codes
Tierra_Estella,28/08/2017,18.1,23.9,14.8,3.4,Aguilar_de_Codes
Tierra_Estella,29/08/2017,18.1,25.4,12.6,0.1,Aguilar_de_Codes
Tierra_Estella,30/08/2017,17.9,24.1,12.0,6.6,Aguilar_de_Codes
Tierra_Estella,31/08/2017,13.8,18.2,10.0,1.4,Aguilar_de_Codes
Tierra_Estella,01/09/2017,13.3,19.0,9.4,0.0,Aguilar_de_Codes
Tierra_Estella,02/09/2017,14.8,20.7,10.2,0.0,Aguilar_de_Codes
Tierra_Estella,03/09/2017,18.8,26.5,12.2,0.0,Aguilar_de_Codes
Tierra_Estella,04/09/2017,18.6,24.1,14.8,0.0,Aguilar_de_Codes
Tierra_Estella,05/09/2017,19.5,28.6,14.8,0.0,Aguilar_de_Codes
Tierra_Estella,06/09/2017,15.5,19.0,12.6,0.0,Aguilar_de_Codes
Tierra_Estella,07/09/2017,14.2,19.1,10.2,0.0,Aguilar_de_Codes
Tierra_Estella,08/09/2017,15.9,25.4,7.8,0.0,Aguilar_de_Codes
Tierra_Estella,09/09/2017,12.6,16.3,9.1,2.8,Aguilar_de_Codes
Tierra_Estella,10/09/2017,12.3,17.5,9.3,0.7,Aguilar_de_Codes
Tierra_Estella,11/09/2017,14.4,17.2,12.1,0.2,Aguilar_de_Codes
Tierra_Estella,12/09/2017,14.9,21.2,11.0,0.0,Aguilar_de_Codes
Tierra_Estella,13/09/2017,18.5,27.7,11.6,0.0,Aguilar_de_Codes
Tierra_Estella,14/09/2017,12.5,15.5,8.5,0.0,Aguilar_de_Codes
Tierra_Estella,15/09/2017,9.9,14.5,7.3,0.0,Aguilar_de_Codes
Tierra_Estella,16/09/2017,9.0,14.5,5.8,0.6,Aguilar_de_Codes
Tierra_Estella,17/09/2017,11.6,17.5,6.1,0.0,Aguilar_de_Codes
Tierra_Estella,18/09/2017,12.2,17.4,9.0,1.8,Aguilar_de_Codes
Tierra_Estella,19/09/2017,12.0,16.8,8.4,0.0,Aguilar_de_Codes
Tierra_Estella,20/09/2017,16.0,25.2,8.2,0.0,Aguilar_de_Codes
Tierra_Estella,21/09/2017,16.5,25.1,12.7,0.0,Aguilar_de_Codes
Tierra_Estella,22/09/2017,15.0,20.5,12.0,1.2,Aguilar_de_Codes
Tierra_Estella,23/09/2017,16.5,23.2,12.9,0.0,Aguilar_de_Codes
Tierra_Estella,24/09/2017,20.0,28.0,13.5,0.0,Aguilar_de_Codes
Tierra_Estella,25/09/2017,15.0,18.9,12.0,0.0,Aguilar_de_Codes
Tierra_Estella,26/09/2017,15.1,21.4,10.3,0.0,Aguilar_de_Codes
Tierra_Estella,27/09/2017,16.5,24.0,11.5,0.0,Aguilar_de_Codes
Tierra_Estella,28/09/2017,17.6,24.2,14.1,0.0,Aguilar_de_Codes
Tierra_Estella,29/09/2017,18.3,25.3,13.7,0.0,Aguilar_de_Codes
Tierra_Estella,30/09/2017,14.2,17.1,11.8,1.3,Aguilar_de_Codes
Tierra_Estella,01/10/2017,14.4,17.0,10.8,0.0,Aguilar_de_Codes
Tierra_Estella,02/10/2017,16.5,20.2,13.9,0.0,Aguilar_de_Codes
Tierra_Estella,03/10/2017,17.1,22.3,13.6,0.0,Aguilar_de_Codes
Tierra_Estella,04/10/2017,17.6,24.1,11.7,0.0,Aguilar_de_Codes
Tierra_Estella,05/10/2017,16.9,21.7,13.6,0.0,Aguilar_de_Codes
Tierra_Estella,06/10/2017,13.1,17.3,8.1,0.0,Aguilar_de_Codes
Tierra_Estella,07/10/2017,13.0,22.4,6.3,0.0,Aguilar_de_Codes
Tierra_Estella,08/10/2017,14.8,22.1,9.3,0.0,Aguilar_de_Codes
Tierra_Estella,09/10/2017,15.6,23.2,9.7,0.0,Aguilar_de_Codes
Tierra_Estella,10/10/2017,17.6,26.4,11.6,0.0,Aguilar_de_Codes
Tierra_Estella,11/10/2017,16.7,22.9,12.5,0.0,Aguilar_de_Codes
Tierra_Estella,12/10/2017,17.0,23.5,11.4,0.0,Aguilar_de_Codes
Tierra_Estella,13/10/2017,18.6,23.9,15.2,0.0,Aguilar_de_Codes
Tierra_Estella,14/10/2017,17.3,22.1,14.6,0.0,Aguilar_de_Codes
Tierra_Estella,15/10/2017,16.5,20.8,14.3,0.2,Aguilar_de_Codes
Tierra_Estella,16/10/2017,16.5,21.8,13.6,0.0,Aguilar_de_Codes
Tierra_Estella,17/10/2017,14.5,18.8,12.4,1.7,Aguilar_de_Codes
Tierra_Estella,18/10/2017,11.8,13.5,8.8,17.2,Aguilar_de_Codes
Tierra_Estella,19/10/2017,11.4,16.5,8.2,2.5,Aguilar_de_Codes
Tierra_Estella,20/10/2017,14.7,20.9,10.5,0.0,Aguilar_de_Codes
Tierra_Estella,21/10/2017,11.2,13.2,9.7,1.7,Aguilar_de_Codes
Tierra_Estella,22/10/2017,9.2,11.4,6.7,0.0,Aguilar_de_Codes
Tierra_Estella,23/10/2017,11.8,19.1,5.2,0.0,Aguilar_de_Codes
Tierra_Estella,24/10/2017,17.5,25.1,11.9,0.0,Aguilar_de_Codes
Tierra_Estella,25/10/2017,16.7,22.4,11.6,0.0,Aguilar_de_Codes
Tierra_Estella,26/10/2017,17.6,24.7,11.2,0.0,Aguilar_de_Codes
Tierra_Estella,27/10/2017,13.6,16.5,11.2,0.0,Aguilar_de_Codes
Tierra_Estella,28/10/2017,11.6,14.3,6.8,0.0,Aguilar_de_Codes
Tierra_Estella,29/10/2017,9.6,12.9,6.7,0.1,Aguilar_de_Codes
Tierra_Estella,30/10/2017,9.6,12.8,6.3,0.2,Aguilar_de_Codes
Tierra_Estella,31/10/2017,8.7,14.5,3.5,0.0,Aguilar_de_Codes
Tierra_Estella,01/11/2017,10.8,15.8,8.2,0.0,Aguilar_de_Codes
Tierra_Estella,02/11/2017,12.1,15.7,10.1,0.0,Aguilar_de_Codes
Tierra_Estella,03/11/2017,12.2,16.9,9.6,0.0,Aguilar_de_Codes
Tierra_Estella,04/11/2017,10.7,15.1,8.6,10.6,Aguilar_de_Codes
Tierra_Estella,05/11/2017,7.1,9.9,5.9,6.4,Aguilar_de_Codes
Tierra_Estella,06/11/2017,5.7,7.0,4.6,1.7,Aguilar_de_Codes
Tierra_Estella,07/11/2017,6.1,10.6,1.7,0.0,Aguilar_de_Codes
Tierra_Estella,08/11/2017,4.1,7.3,1.8,11.0,Aguilar_de_Codes
Tierra_Estella,09/11/2017,4.7,7.2,2.5,0.9,Aguilar_de_Codes
Tierra_Estella,10/11/2017,7.7,10.0,4.5,1.3,Aguilar_de_Codes
Tierra_Estella,11/11/2017,9.1,11.2,7.6,0.0,Aguilar_de_Codes
Tierra_Estella,12/11/2017,9.6,12.6,7.4,1.6,Aguilar_de_Codes
Tierra_Estella,13/11/2017,4.7,8.3,3.1,3.1,Aguilar_de_Codes
Tierra_Estella,14/11/2017,3.7,7.1,1.3,0.1,Aguilar_de_Codes
Tierra_Estella,15/11/2017,6.9,12.7,1.0,0.0,Aguilar_de_Codes
Tierra_Estella,16/11/2017,11.9,17.5,8.0,0.0,Aguilar_de_Codes
Tierra_Estella,17/11/2017,9.2,14.6,5.5,0.0,Aguilar_de_Codes
Tierra_Estella,18/11/2017,6.7,10.6,4.1,0.0,Aguilar_de_Codes
Tierra_Estella,19/11/2017,7.0,13.3,0.7,0.0,Aguilar_de_Codes
Tierra_Estella,20/11/2017,10.3,16.8,6.5,0.0,Aguilar_de_Codes
Tierra_Estella,21/11/2017,8.8,15.4,3.4,0.0,Aguilar_de_Codes
Tierra_Estella,22/11/2017,7.8,12.0,3.6,0.0,Aguilar_de_Codes
Tierra_Estella,23/11/2017,9.1,14.2,4.4,0.0,Aguilar_de_Codes
Tierra_Estella,24/11/2017,9.0,12.0,6.8,3.8,Aguilar_de_Codes
Tierra_Estella,25/11/2017,6.1,9.2,2.6,7.5,Aguilar_de_Codes
Tierra_Estella,26/11/2017,4.1,6.7,1.8,0.1,Aguilar_de_Codes
Tierra_Estella,27/11/2017,3.7,8.8,1.1,0.0,Aguilar_de_Codes
Tierra_Estella,28/11/2017,4.1,8.5,0.6,0.0,Aguilar_de_Codes
Tierra_Estella,29/11/2017,3.0,4.4,0.9,0.6,Aguilar_de_Codes
Tierra_Estella,30/11/2017,1.9,3.9,0.3,1.1,Aguilar_de_Codes
Tierra_Estella,01/12/2017,0.4,3.3,-1.4,17.0,Aguilar_de_Codes
Tierra_Estella,02/12/2017,0.0,0.9,-0.8,12.5,Aguilar_de_Codes
Tierra_Estella,03/12/2017,0.0,2.5,-3.6,0.0,Aguilar_de_Codes
Tierra_Estella,04/12/2017,3.1,5.7,1.5,0.1,Aguilar_de_Codes
Tierra_Estella,05/12/2017,2.5,6.7,-0.3,0.0,Aguilar_de_Codes
Tierra_Estella,06/12/2017,1.5,6.9,-1.4,0.0,Aguilar_de_Codes
Tierra_Estella,07/12/2017,2.7,7.1,-0.3,0.1,Aguilar_de_Codes
Tierra_Estella,08/12/2017,5.4,6.7,3.3,0.0,Aguilar_de_Codes
Tierra_Estella,09/12/2017,5.4,10.9,3.2,2.8,Aguilar_de_Codes
Tierra_Estella,10/12/2017,8.9,12.3,5.7,1.0,Aguilar_de_Codes
Tierra_Estella,11/12/2017,4.8,12.3,1.3,7.8,Aguilar_de_Codes
Tierra_Estella,12/12/2017,2.0,4.6,-0.1,0.0,Aguilar_de_Codes
Tierra_Estella,13/12/2017,5.9,9.7,-0.1,0.0,Aguilar_de_Codes
Tierra_Estella,14/12/2017,8.1,10.2,6.9,4.0,Aguilar_de_Codes
Tierra_Estella,15/12/2017,3.9,7.0,1.6,5.7,Aguilar_de_Codes
Tierra_Estella,16/12/2017,2.1,3.4,1.0,5.6,Aguilar_de_Codes
Tierra_Estella,17/12/2017,3.2,5.2,1.3,1.6,Aguilar_de_Codes
Tierra_Estella,18/12/2017,4.8,9.1,1.4,1.6,Aguilar_de_Codes
Tierra_Estella,19/12/2017,3.4,6.6,1.4,0.0,Aguilar_de_Codes
Tierra_Estella,20/12/2017,3.5,7.6,0.8,0.0,Aguilar_de_Codes
Tierra_Estella,21/12/2017,6.7,10.3,3.8,0.0,Aguilar_de_Codes
Tierra_Estella,22/12/2017,4.7,6.0,2.1,0.0,Aguilar_de_Codes
Tierra_Estella,23/12/2017,5.1,7.5,2.7,0.0,Aguilar_de_Codes
Tierra_Estella,24/12/2017,3.4,7.7,1.1,0.0,Aguilar_de_Codes
Tierra_Estella,25/12/2017,-0.2,2.5,-1.9,1.1,Aguilar_de_Codes
Tierra_Estella,26/12/2017,3.2,6.0,0.7,4.5,Aguilar_de_Codes
Tierra_Estella,27/12/2017,3.1,5.1,0.5,8.8,Aguilar_de_Codes
Tierra_Estella,28/12/2017,5.2,9.2,2.2,3.8,Aguilar_de_Codes
Tierra_Estella,29/12/2017,9.3,12.7,4.5,2.3,Aguilar_de_Codes
Tierra_Estella,30/12/2017,11.7,13.3,8.2,0.0,Aguilar_de_Codes
Tierra_Estella,31/12/2017,6.7,11.9,2.6,5.5,Aguilar_de_Codes
