Comarca,Fecha, Temperatura media, Temperatura maxima, Temperatura minima, Precipitacion acumulada,Localidad
Tierra_Estella,01/01/2010,3.7,6.5,1.8,0.0,Aguilar_de_Codes
Tierra_Estella,02/01/2010,3.1,6.3,0.6,0.0,Aguilar_de_Codes
Tierra_Estella,03/01/2010,2.6,3.7,1.8,18.4,Aguilar_de_Codes
Tierra_Estella,04/01/2010,4.0,7.7,3.0,0.6,Aguilar_de_Codes
Tierra_Estella,05/01/2010,2.1,4.0,-0.3,0.8,Aguilar_de_Codes
Tierra_Estella,06/01/2010,0.6,3.7,-2.0,0.0,Aguilar_de_Codes
Tierra_Estella,07/01/2010,-1.2,0.3,-2.7,0.2,Aguilar_de_Codes
Tierra_Estella,08/01/2010,-3.3,-2.4,-3.9,2.0,Aguilar_de_Codes
Tierra_Estella,09/01/2010,-3.9,-2.2,-4.9,0.0,Aguilar_de_Codes
Tierra_Estella,10/01/2010,-3.5,1.9,-7.8,8.7,Aguilar_de_Codes
Tierra_Estella,11/01/2010,-2.1,0.3,-4.2,3.8,Aguilar_de_Codes
Tierra_Estella,12/01/2010,-0.7,3.7,-3.8,4.7,Aguilar_de_Codes
Tierra_Estella,13/01/2010,2.9,5.6,1.0,7.5,Aguilar_de_Codes
Tierra_Estella,14/01/2010,3.3,4.8,2.5,20.8,Aguilar_de_Codes
Tierra_Estella,15/01/2010,4.7,8.7,2.1,1.5,Aguilar_de_Codes
Tierra_Estella,16/01/2010,4.6,6.5,2.9,1.7,Aguilar_de_Codes
Tierra_Estella,17/01/2010,6.9,8.3,5.3,0.8,Aguilar_de_Codes
Tierra_Estella,18/01/2010,5.5,6.8,3.5,0.0,Aguilar_de_Codes
Tierra_Estella,19/01/2010,6.9,7.8,6.2,3.4,Aguilar_de_Codes
Tierra_Estella,20/01/2010,6.3,9.0,3.9,0.3,Aguilar_de_Codes
Tierra_Estella,21/01/2010,5.2,7.7,2.5,0.0,Aguilar_de_Codes
Tierra_Estella,22/01/2010,7.8,12.8,4.2,0.2,Aguilar_de_Codes
Tierra_Estella,23/01/2010,4.4,6.4,3.4,6.0,Aguilar_de_Codes
Tierra_Estella,24/01/2010,4.3,6.0,2.5,2.5,Aguilar_de_Codes
Tierra_Estella,25/01/2010,1.4,2.9,-0.7,0.8,Aguilar_de_Codes
Tierra_Estella,26/01/2010,-0.4,1.8,-3.2,0.2,Aguilar_de_Codes
Tierra_Estella,27/01/2010,-2.3,-0.1,-3.7,0.0,Aguilar_de_Codes
Tierra_Estella,28/01/2010,0.6,3.9,-3.0,0.6,Aguilar_de_Codes
Tierra_Estella,29/01/2010,3.6,6.1,1.7,6.9,Aguilar_de_Codes
Tierra_Estella,30/01/2010,2.1,3.5,0.5,17.0,Aguilar_de_Codes
Tierra_Estella,31/01/2010,1.0,3.6,-0.3,3.2,Aguilar_de_Codes
Tierra_Estella,01/02/2010,0.5,3.1,-1.0,7.0,Aguilar_de_Codes
Tierra_Estella,02/02/2010,1.1,5.6,-1.9,0.0,Aguilar_de_Codes
Tierra_Estella,03/02/2010,2.3,6.2,-1.8,0.2,Aguilar_de_Codes
Tierra_Estella,04/02/2010,3.2,4.4,2.0,4.3,Aguilar_de_Codes
Tierra_Estella,05/02/2010,6.6,9.6,4.2,2.9,Aguilar_de_Codes
Tierra_Estella,06/02/2010,7.1,9.8,5.8,0.9,Aguilar_de_Codes
Tierra_Estella,07/02/2010,5.4,7.9,2.5,0.8,Aguilar_de_Codes
Tierra_Estella,08/02/2010,3.4,4.5,2.0,6.4,Aguilar_de_Codes
Tierra_Estella,09/02/2010,1.1,2.9,-0.6,1.2,Aguilar_de_Codes
Tierra_Estella,10/02/2010,-0.3,2.0,-2.8,1.2,Aguilar_de_Codes
Tierra_Estella,11/02/2010,-3.5,-2.0,-4.5,0.8,Aguilar_de_Codes
Tierra_Estella,12/02/2010,-2.7,-0.7,-4.5,4.0,Aguilar_de_Codes
Tierra_Estella,13/02/2010,-3.7,-3.1,-4.3,0.0,Aguilar_de_Codes
Tierra_Estella,14/02/2010,-2.6,-0.8,-5.0,0.5,Aguilar_de_Codes
Tierra_Estella,15/02/2010,-3.2,-0.2,-5.7,0.2,Aguilar_de_Codes
Tierra_Estella,16/02/2010,-0.4,2.3,-2.6,9.3,Aguilar_de_Codes
Tierra_Estella,17/02/2010,3.5,5.4,2.3,8.4,Aguilar_de_Codes
Tierra_Estella,18/02/2010,4.3,8.6,-0.1,0.2,Aguilar_de_Codes
Tierra_Estella,19/02/2010,1.9,3.7,-0.5,2.3,Aguilar_de_Codes
Tierra_Estella,20/02/2010,1.7,5.7,-1.8,0.0,Aguilar_de_Codes
Tierra_Estella,21/02/2010,0.6,2.6,-1.0,3.7,Aguilar_de_Codes
Tierra_Estella,22/02/2010,5.4,9.5,1.8,0.6,Aguilar_de_Codes
Tierra_Estella,23/02/2010,8.0,10.6,5.6,0.5,Aguilar_de_Codes
Tierra_Estella,24/02/2010,8.1,11.4,5.0,0.9,Aguilar_de_Codes
Tierra_Estella,25/02/2010,9.6,13.2,5.6,0.3,Aguilar_de_Codes
Tierra_Estella,26/02/2010,6.9,10.4,4.1,0.0,Aguilar_de_Codes
Tierra_Estella,27/02/2010,6.2,13.2,3.1,7.8,Aguilar_de_Codes
Tierra_Estella,28/02/2010,7.4,10.2,4.8,0.0,Aguilar_de_Codes
Tierra_Estella,01/03/2010,7.1,10.8,3.7,0.3,Aguilar_de_Codes
Tierra_Estella,02/03/2010,6.7,11.5,2.2,0.0,Aguilar_de_Codes
Tierra_Estella,03/03/2010,3.8,6.9,2.6,12.8,Aguilar_de_Codes
Tierra_Estella,04/03/2010,6.0,8.9,3.6,0.0,Aguilar_de_Codes
Tierra_Estella,05/03/2010,4.3,8.8,1.8,0.0,Aguilar_de_Codes
Tierra_Estella,06/03/2010,4.5,7.4,2.5,0.0,Aguilar_de_Codes
Tierra_Estella,07/03/2010,1.8,5.7,-3.0,0.0,Aguilar_de_Codes
Tierra_Estella,08/03/2010,-2.6,-0.9,-4.7,1.4,Aguilar_de_Codes
Tierra_Estella,09/03/2010,-0.8,1.8,-2.3,0.0,Aguilar_de_Codes
Tierra_Estella,10/03/2010,-2.1,-0.3,-3.4,0.0,Aguilar_de_Codes
Tierra_Estella,11/03/2010,-1.7,-0.7,-3.0,1.8,Aguilar_de_Codes
Tierra_Estella,12/03/2010,0.1,2.9,-2.4,2.3,Aguilar_de_Codes
Tierra_Estella,13/03/2010,2.1,5.7,-0.3,0.0,Aguilar_de_Codes
Tierra_Estella,14/03/2010,2.3,5.0,0.3,0.0,Aguilar_de_Codes
Tierra_Estella,15/03/2010,5.6,13.6,0.4,0.0,Aguilar_de_Codes
Tierra_Estella,16/03/2010,6.1,11.5,-0.3,0.0,Aguilar_de_Codes
Tierra_Estella,17/03/2010,9.3,15.6,4.1,0.0,Aguilar_de_Codes
Tierra_Estella,18/03/2010,7.3,11.5,3.8,0.0,Aguilar_de_Codes
Tierra_Estella,19/03/2010,9.9,15.0,6.7,0.0,Aguilar_de_Codes
Tierra_Estella,20/03/2010,11.9,15.7,9.3,0.9,Aguilar_de_Codes
Tierra_Estella,21/03/2010,10.6,13.7,8.5,0.2,Aguilar_de_Codes
Tierra_Estella,22/03/2010,10.6,16.1,6.6,0.0,Aguilar_de_Codes
Tierra_Estella,23/03/2010,9.9,14.4,5.0,0.0,Aguilar_de_Codes
Tierra_Estella,24/03/2010,9.3,12.0,7.7,5.5,Aguilar_de_Codes
Tierra_Estella,25/03/2010,7.8,13.5,4.5,2.6,Aguilar_de_Codes
Tierra_Estella,26/03/2010,7.4,12.6,3.6,1.2,Aguilar_de_Codes
Tierra_Estella,27/03/2010,8.3,13.1,4.9,0.0,Aguilar_de_Codes
Tierra_Estella,28/03/2010,9.2,14.1,3.7,0.2,Aguilar_de_Codes
Tierra_Estella,29/03/2010,9.7,14.5,5.0,10.6,Aguilar_de_Codes
Tierra_Estella,30/03/2010,6.6,11.0,3.6,2.3,Aguilar_de_Codes
Tierra_Estella,31/03/2010,5.7,10.9,2.0,3.2,Aguilar_de_Codes
Tierra_Estella,01/04/2010,5.2,10.8,0.6,0.0,Aguilar_de_Codes
Tierra_Estella,02/04/2010,7.9,12.2,2.5,0.0,Aguilar_de_Codes
Tierra_Estella,03/04/2010,7.9,11.7,2.8,1.5,Aguilar_de_Codes
Tierra_Estella,04/04/2010,5.0,8.9,2.8,0.0,Aguilar_de_Codes
Tierra_Estella,05/04/2010,7.6,14.0,0.0,0.0,Aguilar_de_Codes
Tierra_Estella,06/04/2010,10.4,16.7,4.5,0.0,Aguilar_de_Codes
Tierra_Estella,07/04/2010,6.7,10.4,4.3,0.0,Aguilar_de_Codes
Tierra_Estella,08/04/2010,6.5,10.6,3.8,0.0,Aguilar_de_Codes
Tierra_Estella,09/04/2010,9.6,16.5,3.5,0.0,Aguilar_de_Codes
Tierra_Estella,10/04/2010,12.9,19.2,6.3,0.0,Aguilar_de_Codes
Tierra_Estella,11/04/2010,10.8,15.9,4.7,0.0,Aguilar_de_Codes
Tierra_Estella,12/04/2010,6.0,8.8,2.6,0.0,Aguilar_de_Codes
Tierra_Estella,13/04/2010,6.1,12.3,1.8,0.0,Aguilar_de_Codes
Tierra_Estella,14/04/2010,6.9,10.3,4.3,0.0,Aguilar_de_Codes
Tierra_Estella,15/04/2010,6.9,8.8,5.0,0.0,Aguilar_de_Codes
Tierra_Estella,16/04/2010,10.8,16.9,6.7,0.0,Aguilar_de_Codes
Tierra_Estella,17/04/2010,9.0,13.5,5.6,0.5,Aguilar_de_Codes
Tierra_Estella,18/04/2010,8.3,12.1,6.0,0.5,Aguilar_de_Codes
Tierra_Estella,19/04/2010,11.8,18.9,7.5,0.0,Aguilar_de_Codes
Tierra_Estella,20/04/2010,14.9,21.5,9.1,0.0,Aguilar_de_Codes
Tierra_Estella,21/04/2010,14.9,20.5,10.2,1.1,Aguilar_de_Codes
Tierra_Estella,22/04/2010,11.9,15.0,10.1,0.3,Aguilar_de_Codes
Tierra_Estella,23/04/2010,11.5,16.0,7.9,0.5,Aguilar_de_Codes
Tierra_Estella,24/04/2010,14.2,21.7,6.5,0.0,Aguilar_de_Codes
Tierra_Estella,25/04/2010,15.0,21.3,10.2,0.0,Aguilar_de_Codes
Tierra_Estella,26/04/2010,16.5,24.7,9.3,0.0,Aguilar_de_Codes
Tierra_Estella,27/04/2010,17.7,25.1,11.0,0.0,Aguilar_de_Codes
Tierra_Estella,28/04/2010,17.3,23.8,11.2,0.0,Aguilar_de_Codes
Tierra_Estella,29/04/2010,15.1,22.5,9.0,2.1,Aguilar_de_Codes
Tierra_Estella,30/04/2010,12.7,19.6,8.7,5.7,Aguilar_de_Codes
Tierra_Estella,01/05/2010,9.8,13.1,7.1,0.6,Aguilar_de_Codes
Tierra_Estella,02/05/2010,7.4,9.6,5.8,0.0,Aguilar_de_Codes
Tierra_Estella,03/05/2010,4.5,7.1,1.8,6.3,Aguilar_de_Codes
Tierra_Estella,04/05/2010,2.2,3.4,0.9,10.7,Aguilar_de_Codes
Tierra_Estella,05/05/2010,3.9,5.0,2.7,0.9,Aguilar_de_Codes
Tierra_Estella,06/05/2010,5.2,8.2,2.9,2.6,Aguilar_de_Codes
Tierra_Estella,07/05/2010,6.5,9.9,1.5,2.1,Aguilar_de_Codes
Tierra_Estella,08/05/2010,9.4,14.6,4.5,0.8,Aguilar_de_Codes
Tierra_Estella,09/05/2010,11.3,17.1,8.5,8.3,Aguilar_de_Codes
Tierra_Estella,10/05/2010,11.5,17.4,6.1,0.0,Aguilar_de_Codes
Tierra_Estella,11/05/2010,9.2,13.9,6.4,0.8,Aguilar_de_Codes
Tierra_Estella,12/05/2010,6.7,11.6,3.5,0.0,Aguilar_de_Codes
Tierra_Estella,13/05/2010,4.1,6.2,2.7,5.2,Aguilar_de_Codes
Tierra_Estella,14/05/2010,6.0,13.5,2.1,1.5,Aguilar_de_Codes
Tierra_Estella,15/05/2010,5.9,9.6,3.5,2.1,Aguilar_de_Codes
Tierra_Estella,16/05/2010,6.9,11.2,4.1,0.6,Aguilar_de_Codes
Tierra_Estella,17/05/2010,9.3,15.1,3.9,0.0,Aguilar_de_Codes
Tierra_Estella,18/05/2010,12.4,19.9,3.9,0.0,Aguilar_de_Codes
Tierra_Estella,19/05/2010,10.5,16.7,4.6,0.0,Aguilar_de_Codes
Tierra_Estella,20/05/2010,13.1,20.7,5.3,0.0,Aguilar_de_Codes
Tierra_Estella,21/05/2010,17.1,25.7,8.7,0.0,Aguilar_de_Codes
Tierra_Estella,22/05/2010,18.6,25.8,10.2,0.0,Aguilar_de_Codes
Tierra_Estella,23/05/2010,18.3,24.6,10.6,0.0,Aguilar_de_Codes
Tierra_Estella,24/05/2010,17.1,24.5,11.9,6.4,Aguilar_de_Codes
Tierra_Estella,25/05/2010,17.6,25.3,12.3,0.2,Aguilar_de_Codes
Tierra_Estella,26/05/2010,15.1,21.3,10.1,0.0,Aguilar_de_Codes
Tierra_Estella,27/05/2010,13.8,20.9,9.1,0.8,Aguilar_de_Codes
Tierra_Estella,28/05/2010,10.8,16.0,7.3,1.2,Aguilar_de_Codes
Tierra_Estella,29/05/2010,14.1,20.3,6.4,0.0,Aguilar_de_Codes
Tierra_Estella,30/05/2010,16.1,21.9,10.6,0.0,Aguilar_de_Codes
Tierra_Estella,31/05/2010,17.3,23.0,12.7,0.0,Aguilar_de_Codes
Tierra_Estella,01/06/2010,16.3,23.2,11.8,0.0,Aguilar_de_Codes
Tierra_Estella,02/06/2010,14.5,20.6,9.2,0.0,Aguilar_de_Codes
Tierra_Estella,03/06/2010,17.4,26.9,7.9,0.0,Aguilar_de_Codes
Tierra_Estella,04/06/2010,19.3,26.3,12.5,0.0,Aguilar_de_Codes
Tierra_Estella,05/06/2010,20.2,29.4,12.7,4.3,Aguilar_de_Codes
Tierra_Estella,06/06/2010,12.8,16.0,11.1,0.9,Aguilar_de_Codes
Tierra_Estella,07/06/2010,16.3,25.0,7.7,0.0,Aguilar_de_Codes
Tierra_Estella,08/06/2010,16.3,24.0,12.7,0.8,Aguilar_de_Codes
Tierra_Estella,09/06/2010,14.4,18.2,12.1,14.5,Aguilar_de_Codes
Tierra_Estella,10/06/2010,13.0,16.1,9.8,0.5,Aguilar_de_Codes
Tierra_Estella,11/06/2010,12.7,17.7,10.2,0.9,Aguilar_de_Codes
Tierra_Estella,12/06/2010,11.9,14.5,10.2,14.7,Aguilar_de_Codes
Tierra_Estella,13/06/2010,13.7,17.4,11.4,0.0,Aguilar_de_Codes
Tierra_Estella,14/06/2010,11.2,15.4,7.8,0.0,Aguilar_de_Codes
Tierra_Estella,15/06/2010,9.7,13.8,7.2,0.3,Aguilar_de_Codes
Tierra_Estella,16/06/2010,9.2,11.4,7.8,21.7,Aguilar_de_Codes
Tierra_Estella,17/06/2010,9.5,13.9,7.5,0.6,Aguilar_de_Codes
Tierra_Estella,18/06/2010,12.3,18.5,7.5,0.0,Aguilar_de_Codes
Tierra_Estella,19/06/2010,12.7,17.3,10.4,0.2,Aguilar_de_Codes
Tierra_Estella,20/06/2010,10.2,13.3,6.5,1.5,Aguilar_de_Codes
Tierra_Estella,21/06/2010,11.3,18.1,5.5,0.0,Aguilar_de_Codes
Tierra_Estella,22/06/2010,14.5,22.2,6.1,0.0,Aguilar_de_Codes
Tierra_Estella,23/06/2010,17.0,25.5,8.2,0.0,Aguilar_de_Codes
Tierra_Estella,24/06/2010,19.7,29.2,11.4,0.0,Aguilar_de_Codes
Tierra_Estella,25/06/2010,21.4,29.1,13.7,0.0,Aguilar_de_Codes
Tierra_Estella,26/06/2010,20.6,28.9,15.4,16.7,Aguilar_de_Codes
Tierra_Estella,27/06/2010,18.6,25.5,14.5,14.5,Aguilar_de_Codes
Tierra_Estella,28/06/2010,18.8,27.0,13.5,2.0,Aguilar_de_Codes
Tierra_Estella,29/06/2010,19.5,26.0,13.5,0.0,Aguilar_de_Codes
Tierra_Estella,30/06/2010,20.5,28.0,13.1,0.0,Aguilar_de_Codes
Tierra_Estella,01/07/2010,23.4,31.4,15.5,1.8,Aguilar_de_Codes
Tierra_Estella,02/07/2010,20.0,27.2,15.7,7.0,Aguilar_de_Codes
Tierra_Estella,03/07/2010,19.3,27.0,14.2,0.0,Aguilar_de_Codes
Tierra_Estella,04/07/2010,19.1,25.5,13.7,0.0,Aguilar_de_Codes
Tierra_Estella,05/07/2010,16.8,23.4,12.0,0.0,Aguilar_de_Codes
Tierra_Estella,06/07/2010,17.8,25.0,12.0,0.0,Aguilar_de_Codes
Tierra_Estella,07/07/2010,23.3,34.3,12.4,0.0,Aguilar_de_Codes
Tierra_Estella,08/07/2010,26.7,31.9,22.1,0.0,Aguilar_de_Codes
Tierra_Estella,09/07/2010,22.6,27.8,15.4,0.0,Aguilar_de_Codes
Tierra_Estella,10/07/2010,23.5,32.3,14.2,0.0,Aguilar_de_Codes
Tierra_Estella,11/07/2010,25.1,33.7,17.1,0.3,Aguilar_de_Codes
Tierra_Estella,12/07/2010,22.8,29.2,15.5,0.0,Aguilar_de_Codes
Tierra_Estella,13/07/2010,21.6,31.2,13.7,0.0,Aguilar_de_Codes
Tierra_Estella,14/07/2010,19.9,28.2,13.3,0.0,Aguilar_de_Codes
Tierra_Estella,15/07/2010,20.0,28.1,12.1,0.0,Aguilar_de_Codes
Tierra_Estella,16/07/2010,19.2,26.3,13.5,0.0,Aguilar_de_Codes
Tierra_Estella,17/07/2010,15.2,19.9,12.1,0.0,Aguilar_de_Codes
Tierra_Estella,18/07/2010,20.3,31.0,10.9,0.0,Aguilar_de_Codes
Tierra_Estella,19/07/2010,22.3,31.7,15.3,0.0,Aguilar_de_Codes
Tierra_Estella,20/07/2010,20.6,31.6,14.6,0.0,Aguilar_de_Codes
Tierra_Estella,21/07/2010,15.4,18.8,11.9,0.9,Aguilar_de_Codes
Tierra_Estella,22/07/2010,13.8,17.0,11.6,1.8,Aguilar_de_Codes
Tierra_Estella,23/07/2010,14.4,21.0,10.1,0.0,Aguilar_de_Codes
Tierra_Estella,24/07/2010,15.2,22.6,8.8,0.0,Aguilar_de_Codes
Tierra_Estella,25/07/2010,15.9,21.8,10.4,0.0,Aguilar_de_Codes
Tierra_Estella,26/07/2010,17.0,23.1,12.6,0.0,Aguilar_de_Codes
Tierra_Estella,27/07/2010,19.7,29.9,11.2,0.0,Aguilar_de_Codes
Tierra_Estella,28/07/2010,21.5,30.0,14.6,0.0,Aguilar_de_Codes
Tierra_Estella,29/07/2010,17.0,21.5,13.9,0.0,Aguilar_de_Codes
Tierra_Estella,30/07/2010,18.3,26.4,11.4,0.0,Aguilar_de_Codes
Tierra_Estella,31/07/2010,21.1,31.5,12.5,0.0,Aguilar_de_Codes
Tierra_Estella,01/08/2010,18.9,27.3,15.6,0.0,Aguilar_de_Codes
Tierra_Estella,02/08/2010,15.4,17.6,13.3,0.5,Aguilar_de_Codes
Tierra_Estella,03/08/2010,16.0,21.8,11.9,0.2,Aguilar_de_Codes
Tierra_Estella,04/08/2010,16.3,22.6,12.3,0.0,Aguilar_de_Codes
Tierra_Estella,05/08/2010,15.4,19.7,11.0,0.6,Aguilar_de_Codes
Tierra_Estella,06/08/2010,17.0,25.8,9.3,0.0,Aguilar_de_Codes
Tierra_Estella,07/08/2010,21.1,31.9,12.9,0.0,Aguilar_de_Codes
Tierra_Estella,08/08/2010,20.3,29.1,13.6,3.7,Aguilar_de_Codes
Tierra_Estella,09/08/2010,17.1,21.8,13.6,0.0,Aguilar_de_Codes
Tierra_Estella,10/08/2010,20.5,30.4,12.6,0.0,Aguilar_de_Codes
Tierra_Estella,11/08/2010,19.8,27.1,14.7,0.0,Aguilar_de_Codes
Tierra_Estella,12/08/2010,16.0,17.9,13.1,1.2,Aguilar_de_Codes
Tierra_Estella,13/08/2010,13.6,17.9,11.0,0.6,Aguilar_de_Codes
Tierra_Estella,14/08/2010,13.2,17.6,10.8,0.0,Aguilar_de_Codes
Tierra_Estella,15/08/2010,13.8,19.9,9.4,0.0,Aguilar_de_Codes
Tierra_Estella,16/08/2010,15.9,24.1,8.7,0.0,Aguilar_de_Codes
Tierra_Estella,17/08/2010,19.6,29.7,11.0,0.0,Aguilar_de_Codes
Tierra_Estella,18/08/2010,20.1,29.1,13.1,0.0,Aguilar_de_Codes
Tierra_Estella,19/08/2010,20.6,27.0,15.0,0.0,Aguilar_de_Codes
Tierra_Estella,20/08/2010,23.2,32.6,16.6,0.0,Aguilar_de_Codes
Tierra_Estella,21/08/2010,26.3,34.5,18.9,0.0,Aguilar_de_Codes
Tierra_Estella,22/08/2010,26.2,34.5,18.3,0.0,Aguilar_de_Codes
Tierra_Estella,23/08/2010,24.5,31.7,16.6,0.0,Aguilar_de_Codes
Tierra_Estella,24/08/2010,19.2,24.6,15.6,0.0,Aguilar_de_Codes
Tierra_Estella,25/08/2010,24.4,33.5,15.0,0.0,Aguilar_de_Codes
Tierra_Estella,26/08/2010,27.3,35.7,20.6,0.0,Aguilar_de_Codes
Tierra_Estella,27/08/2010,22.0,28.7,15.5,0.0,Aguilar_de_Codes
Tierra_Estella,28/08/2010,16.0,20.6,11.2,0.0,Aguilar_de_Codes
Tierra_Estella,29/08/2010,15.5,22.4,10.8,0.0,Aguilar_de_Codes
Tierra_Estella,30/08/2010,14.7,21.4,9.4,0.0,Aguilar_de_Codes
Tierra_Estella,31/08/2010,17.9,25.3,9.6,0.0,Aguilar_de_Codes
Tierra_Estella,01/09/2010,18.3,24.0,15.6,0.9,Aguilar_de_Codes
Tierra_Estella,02/09/2010,19.0,25.7,15.0,2.1,Aguilar_de_Codes
Tierra_Estella,03/09/2010,20.3,28.9,13.1,0.0,Aguilar_de_Codes
Tierra_Estella,04/09/2010,22.0,29.7,14.7,0.0,Aguilar_de_Codes
Tierra_Estella,05/09/2010,23.2,31.3,15.7,0.4,Aguilar_de_Codes
Tierra_Estella,06/09/2010,21.3,29.3,14.9,0.0,Aguilar_de_Codes
Tierra_Estella,07/09/2010,15.6,21.9,10.4,6.2,Aguilar_de_Codes
Tierra_Estella,08/09/2010,14.0,20.9,8.0,0.0,Aguilar_de_Codes
Tierra_Estella,09/09/2010,14.4,19.6,10.6,0.6,Aguilar_de_Codes
Tierra_Estella,10/09/2010,17.4,25.7,9.7,0.0,Aguilar_de_Codes
Tierra_Estella,11/09/2010,19.1,27.8,12.3,0.0,Aguilar_de_Codes
Tierra_Estella,12/09/2010,15.6,19.9,12.5,0.0,Aguilar_de_Codes
Tierra_Estella,13/09/2010,14.8,22.6,9.5,0.0,Aguilar_de_Codes
Tierra_Estella,14/09/2010,18.1,26.7,9.5,0.0,Aguilar_de_Codes
Tierra_Estella,15/09/2010,21.4,29.9,13.9,0.0,Aguilar_de_Codes
Tierra_Estella,16/09/2010,16.3,19.2,13.3,5.9,Aguilar_de_Codes
Tierra_Estella,17/09/2010,12.4,14.4,10.2,0.7,Aguilar_de_Codes
Tierra_Estella,18/09/2010,12.1,17.1,8.1,0.1,Aguilar_de_Codes
Tierra_Estella,19/09/2010,13.7,21.1,6.2,0.0,Aguilar_de_Codes
Tierra_Estella,20/09/2010,17.4,23.0,12.1,0.0,Aguilar_de_Codes
Tierra_Estella,21/09/2010,19.0,25.9,14.6,0.0,Aguilar_de_Codes
Tierra_Estella,22/09/2010,17.9,23.6,14.4,0.0,Aguilar_de_Codes
Tierra_Estella,23/09/2010,17.4,21.5,14.2,0.0,Aguilar_de_Codes
Tierra_Estella,24/09/2010,12.7,15.8,10.0,2.0,Aguilar_de_Codes
Tierra_Estella,25/09/2010,10.1,13.3,8.6,4.8,Aguilar_de_Codes
Tierra_Estella,26/09/2010,8.8,13.0,6.2,0.0,Aguilar_de_Codes
Tierra_Estella,27/09/2010,9.9,15.4,5.0,0.1,Aguilar_de_Codes
Tierra_Estella,28/09/2010,11.2,17.5,5.9,0.0,Aguilar_de_Codes
Tierra_Estella,29/09/2010,15.6,23.8,9.7,0.0,Aguilar_de_Codes
Tierra_Estella,30/09/2010,12.9,17.4,9.3,0.0,Aguilar_de_Codes
Tierra_Estella,01/10/2010,15.4,22.8,9.2,0.0,Aguilar_de_Codes
Tierra_Estella,02/10/2010,17.9,26.0,13.8,0.0,Aguilar_de_Codes
Tierra_Estella,03/10/2010,15.5,21.6,12.3,3.2,Aguilar_de_Codes
Tierra_Estella,04/10/2010,12.1,16.0,7.7,2.8,Aguilar_de_Codes
Tierra_Estella,05/10/2010,13.4,20.2,6.9,0.0,Aguilar_de_Codes
Tierra_Estella,06/10/2010,15.9,22.4,9.7,0.0,Aguilar_de_Codes
Tierra_Estella,07/10/2010,15.9,20.1,12.8,2.2,Aguilar_de_Codes
Tierra_Estella,08/10/2010,17.5,23.4,13.8,1.1,Aguilar_de_Codes
Tierra_Estella,09/10/2010,15.1,16.8,11.2,22.0,Aguilar_de_Codes
Tierra_Estella,10/10/2010,10.2,12.0,8.5,7.7,Aguilar_de_Codes
Tierra_Estella,11/10/2010,11.7,14.4,9.5,0.1,Aguilar_de_Codes
Tierra_Estella,12/10/2010,12.3,15.9,10.5,0.0,Aguilar_de_Codes
Tierra_Estella,13/10/2010,12.1,15.6,7.7,0.0,Aguilar_de_Codes
Tierra_Estella,14/10/2010,9.6,13.7,7.3,0.0,Aguilar_de_Codes
Tierra_Estella,15/10/2010,9.0,13.1,6.8,0.0,Aguilar_de_Codes
Tierra_Estella,16/10/2010,7.7,10.5,5.2,0.0,Aguilar_de_Codes
Tierra_Estella,17/10/2010,6.5,9.6,4.4,0.5,Aguilar_de_Codes
Tierra_Estella,18/10/2010,6.3,10.1,3.4,0.0,Aguilar_de_Codes
Tierra_Estella,19/10/2010,7.1,12.8,2.9,0.0,Aguilar_de_Codes
Tierra_Estella,20/10/2010,7.1,11.3,3.6,0.0,Aguilar_de_Codes
Tierra_Estella,21/10/2010,8.3,14.1,2.3,0.0,Aguilar_de_Codes
Tierra_Estella,22/10/2010,10.0,13.9,6.7,0.0,Aguilar_de_Codes
Tierra_Estella,23/10/2010,11.1,16.9,5.9,0.0,Aguilar_de_Codes
Tierra_Estella,24/10/2010,10.6,16.9,6.9,2.6,Aguilar_de_Codes
Tierra_Estella,25/10/2010,5.7,8.3,2.3,0.6,Aguilar_de_Codes
Tierra_Estella,26/10/2010,6.7,12.1,1.6,0.0,Aguilar_de_Codes
Tierra_Estella,27/10/2010,12.5,18.7,6.6,0.0,Aguilar_de_Codes
Tierra_Estella,28/10/2010,13.7,19.4,8.9,0.0,Aguilar_de_Codes
Tierra_Estella,29/10/2010,10.1,17.1,7.5,13.9,Aguilar_de_Codes
Tierra_Estella,30/10/2010,8.0,10.3,4.4,0.5,Aguilar_de_Codes
Tierra_Estella,31/10/2010,8.7,12.3,6.6,14.6,Aguilar_de_Codes
Tierra_Estella,01/11/2010,9.4,10.9,7.5,8.9,Aguilar_de_Codes
Tierra_Estella,02/11/2010,9.5,12.0,7.9,2.0,Aguilar_de_Codes
Tierra_Estella,03/11/2010,12.3,16.8,9.3,0.0,Aguilar_de_Codes
Tierra_Estella,04/11/2010,13.5,17.3,10.5,0.0,Aguilar_de_Codes
Tierra_Estella,05/11/2010,11.7,13.9,10.1,0.0,Aguilar_de_Codes
Tierra_Estella,06/11/2010,11.4,18.4,9.0,0.0,Aguilar_de_Codes
Tierra_Estella,07/11/2010,7.0,10.5,2.9,2.3,Aguilar_de_Codes
Tierra_Estella,08/11/2010,5.8,9.2,2.4,10.2,Aguilar_de_Codes
Tierra_Estella,09/11/2010,8.0,10.7,5.7,0.1,Aguilar_de_Codes
Tierra_Estella,10/11/2010,5.1,7.0,3.0,4.4,Aguilar_de_Codes
Tierra_Estella,11/11/2010,7.8,11.6,2.3,0.1,Aguilar_de_Codes
Tierra_Estella,12/11/2010,11.6,14.4,9.7,0.0,Aguilar_de_Codes
Tierra_Estella,13/11/2010,10.4,15.8,6.0,0.0,Aguilar_de_Codes
Tierra_Estella,14/11/2010,6.9,8.3,4.8,8.6,Aguilar_de_Codes
Tierra_Estella,15/11/2010,4.8,8.3,1.4,2.5,Aguilar_de_Codes
Tierra_Estella,16/11/2010,5.9,9.9,3.6,0.0,Aguilar_de_Codes
Tierra_Estella,17/11/2010,5.5,7.3,3.2,5.0,Aguilar_de_Codes
Tierra_Estella,18/11/2010,5.2,8.3,1.1,0.0,Aguilar_de_Codes
Tierra_Estella,19/11/2010,4.2,5.5,2.3,0.0,Aguilar_de_Codes
Tierra_Estella,20/11/2010,6.5,9.6,3.4,14.8,Aguilar_de_Codes
Tierra_Estella,21/11/2010,5.1,6.5,4.0,18.5,Aguilar_de_Codes
Tierra_Estella,22/11/2010,4.4,6.0,3.1,2.8,Aguilar_de_Codes
Tierra_Estella,23/11/2010,4.2,6.9,2.3,0.0,Aguilar_de_Codes
Tierra_Estella,24/11/2010,3.1,6.5,0.3,0.0,Aguilar_de_Codes
Tierra_Estella,25/11/2010,2.6,7.3,0.4,1.8,Aguilar_de_Codes
Tierra_Estella,26/11/2010,1.3,4.2,-0.3,1.2,Aguilar_de_Codes
Tierra_Estella,27/11/2010,-0.0,3.6,-3.0,0.0,Aguilar_de_Codes
Tierra_Estella,28/11/2010,-0.3,3.2,-2.7,0.1,Aguilar_de_Codes
Tierra_Estella,29/11/2010,-2.0,0.1,-4.2,0.0,Aguilar_de_Codes
Tierra_Estella,30/11/2010,-0.6,0.8,-1.8,1.9,Aguilar_de_Codes
Tierra_Estella,01/12/2010,0.7,2.5,-1.4,1.3,Aguilar_de_Codes
Tierra_Estella,02/12/2010,-0.6,1.3,-3.2,5.4,Aguilar_de_Codes
Tierra_Estella,03/12/2010,-0.5,2.1,-2.9,1.1,Aguilar_de_Codes
Tierra_Estella,04/12/2010,-0.3,3.0,-4.0,0.0,Aguilar_de_Codes
Tierra_Estella,05/12/2010,1.7,4.6,-0.4,4.1,Aguilar_de_Codes
Tierra_Estella,06/12/2010,7.9,12.6,4.7,4.1,Aguilar_de_Codes
Tierra_Estella,07/12/2010,9.7,12.4,7.7,3.2,Aguilar_de_Codes
Tierra_Estella,08/12/2010,10.2,14.8,6.2,1.2,Aguilar_de_Codes
Tierra_Estella,09/12/2010,3.2,6.1,-0.5,8.0,Aguilar_de_Codes
Tierra_Estella,10/12/2010,5.3,13.6,-0.4,0.0,Aguilar_de_Codes
Tierra_Estella,11/12/2010,3.9,7.5,-0.4,0.0,Aguilar_de_Codes
Tierra_Estella,12/12/2010,9.3,14.2,3.2,0.0,Aguilar_de_Codes
Tierra_Estella,13/12/2010,6.5,10.0,1.4,0.0,Aguilar_de_Codes
Tierra_Estella,14/12/2010,1.0,4.0,-0.8,0.0,Aguilar_de_Codes
Tierra_Estella,15/12/2010,-1.2,0.5,-3.1,0.0,Aguilar_de_Codes
Tierra_Estella,16/12/2010,-2.3,1.8,-6.7,0.0,Aguilar_de_Codes
Tierra_Estella,17/12/2010,-0.3,3.8,-3.0,0.5,Aguilar_de_Codes
Tierra_Estella,18/12/2010,0.3,3.4,-2.9,0.0,Aguilar_de_Codes
Tierra_Estella,19/12/2010,1.6,6.2,-1.3,0.0,Aguilar_de_Codes
Tierra_Estella,20/12/2010,3.5,9.4,-1.2,0.4,Aguilar_de_Codes
Tierra_Estella,21/12/2010,3.1,5.4,1.3,15.8,Aguilar_de_Codes
Tierra_Estella,22/12/2010,6.4,7.6,5.1,7.9,Aguilar_de_Codes
Tierra_Estella,23/12/2010,0.0,0.0,0.0,9.1,Aguilar_de_Codes
Tierra_Estella,24/12/2010,0.0,0.0,0.0,3.8,Aguilar_de_Codes
Tierra_Estella,25/12/2010,0.0,0.0,0.0,1.3,Aguilar_de_Codes
Tierra_Estella,26/12/2010,0.0,0.0,0.0,0.0,Aguilar_de_Codes
Tierra_Estella,27/12/2010,0.0,0.0,0.0,0.0,Aguilar_de_Codes
Tierra_Estella,28/12/2010,0.0,0.0,0.0,0.0,Aguilar_de_Codes
Tierra_Estella,29/12/2010,5.5,9.2,2.0,0.0,Aguilar_de_Codes
Tierra_Estella,30/12/2010,4.2,5.4,2.9,0.0,Aguilar_de_Codes
Tierra_Estella,31/12/2010,5.4,7.4,3.7,0.0,Aguilar_de_Codes
