Comarca,Fecha, Temperatura media, Temperatura maxima, Temperatura minima, Precipitacion acumulada,Localidad
Tierra_Estella,01/01/2013,6.3,10.4,1.8,2.4,Ancin
Tierra_Estella,02/01/2013,7.3,9.0,6.3,1.0,Ancin
Tierra_Estella,03/01/2013,6.6,14.8,-1.1,0.0,Ancin
Tierra_Estella,04/01/2013,6.9,18.9,-2.6,0.1,Ancin
Tierra_Estella,05/01/2013,11.8,18.6,6.7,0.0,Ancin
Tierra_Estella,06/01/2013,11.5,18.8,5.9,0.0,Ancin
Tierra_Estella,07/01/2013,7.0,16.9,-0.0,0.1,Ancin
Tierra_Estella,08/01/2013,4.2,11.9,-2.5,0.1,Ancin
Tierra_Estella,09/01/2013,4.2,9.0,-2.3,0.4,Ancin
Tierra_Estella,10/01/2013,8.6,12.9,5.8,0.0,Ancin
Tierra_Estella,11/01/2013,4.0,11.6,-1.4,0.1,Ancin
Tierra_Estella,12/01/2013,4.0,10.0,-0.6,6.0,Ancin
Tierra_Estella,13/01/2013,3.4,6.1,1.3,4.6,Ancin
Tierra_Estella,14/01/2013,2.9,4.9,1.5,27.5,Ancin
Tierra_Estella,15/01/2013,5.4,6.8,3.2,9.9,Ancin
Tierra_Estella,16/01/2013,7.6,10.6,4.3,6.7,Ancin
Tierra_Estella,17/01/2013,6.4,9.8,3.8,3.2,Ancin
Tierra_Estella,18/01/2013,9.4,14.7,5.5,14.4,Ancin
Tierra_Estella,19/01/2013,8.9,11.3,5.1,11.3,Ancin
Tierra_Estella,20/01/2013,5.6,7.8,2.6,5.2,Ancin
Tierra_Estella,21/01/2013,4.4,8.1,0.1,1.7,Ancin
Tierra_Estella,22/01/2013,1.8,5.8,-1.2,0.7,Ancin
Tierra_Estella,23/01/2013,3.1,6.6,-1.3,10.3,Ancin
Tierra_Estella,24/01/2013,4.8,8.1,3.0,14.6,Ancin
Tierra_Estella,25/01/2013,5.0,9.7,0.1,3.2,Ancin
Tierra_Estella,26/01/2013,7.1,11.0,0.6,5.1,Ancin
Tierra_Estella,27/01/2013,4.5,7.7,1.2,11.3,Ancin
Tierra_Estella,28/01/2013,6.2,11.6,0.1,0.3,Ancin
Tierra_Estella,29/01/2013,6.0,14.1,0.1,0.1,Ancin
Tierra_Estella,30/01/2013,6.3,15.8,-0.1,0.2,Ancin
Tierra_Estella,31/01/2013,11.8,17.5,3.5,0.1,Ancin
Tierra_Estella,01/02/2013,10.6,14.6,4.0,3.7,Ancin
Tierra_Estella,02/02/2013,4.6,7.5,1.9,18.6,Ancin
Tierra_Estella,03/02/2013,5.0,7.5,2.2,0.8,Ancin
Tierra_Estella,04/02/2013,8.1,11.5,2.2,0.0,Ancin
Tierra_Estella,05/02/2013,9.2,13.5,3.7,0.9,Ancin
Tierra_Estella,06/02/2013,3.4,6.0,2.0,21.7,Ancin
Tierra_Estella,07/02/2013,3.2,5.5,1.5,10.5,Ancin
Tierra_Estella,08/02/2013,2.7,5.7,0.4,26.5,Ancin
Tierra_Estella,09/02/2013,4.0,6.9,1.5,2.8,Ancin
Tierra_Estella,10/02/2013,3.4,7.9,-0.5,4.5,Ancin
Tierra_Estella,11/02/2013,3.4,6.3,0.3,5.6,Ancin
Tierra_Estella,12/02/2013,2.2,5.2,0.1,10.8,Ancin
Tierra_Estella,13/02/2013,5.3,8.0,1.8,1.5,Ancin
Tierra_Estella,14/02/2013,7.3,10.4,3.5,0.2,Ancin
Tierra_Estella,15/02/2013,4.9,10.6,0.0,0.0,Ancin
Tierra_Estella,16/02/2013,3.3,10.8,-2.4,0.2,Ancin
Tierra_Estella,17/02/2013,2.9,7.9,-3.0,0.2,Ancin
Tierra_Estella,18/02/2013,6.7,12.5,3.8,2.3,Ancin
Tierra_Estella,19/02/2013,8.4,9.4,7.5,0.0,Ancin
Tierra_Estella,20/02/2013,9.4,15.1,5.4,0.0,Ancin
Tierra_Estella,21/02/2013,9.7,13.7,6.5,0.0,Ancin
Tierra_Estella,22/02/2013,5.8,8.2,1.0,0.0,Ancin
Tierra_Estella,23/02/2013,-0.1,1.3,-1.9,0.0,Ancin
Tierra_Estella,24/02/2013,0.9,2.6,-0.9,0.5,Ancin
Tierra_Estella,25/02/2013,1.1,3.5,-0.4,2.8,Ancin
Tierra_Estella,26/02/2013,1.2,3.0,-0.7,9.0,Ancin
Tierra_Estella,27/02/2013,2.3,8.1,-3.4,0.2,Ancin
Tierra_Estella,28/02/2013,3.8,9.8,-1.0,0.0,Ancin
Tierra_Estella,01/03/2013,6.1,10.3,2.4,0.0,Ancin
Tierra_Estella,02/03/2013,5.4,12.5,-1.4,0.0,Ancin
Tierra_Estella,03/03/2013,5.9,13.3,-3.2,0.1,Ancin
Tierra_Estella,04/03/2013,8.4,10.0,5.3,2.3,Ancin
Tierra_Estella,05/03/2013,10.0,11.3,8.8,5.0,Ancin
Tierra_Estella,06/03/2013,12.2,17.7,8.5,1.6,Ancin
Tierra_Estella,07/03/2013,12.0,15.9,8.5,11.0,Ancin
Tierra_Estella,08/03/2013,10.9,15.8,5.2,4.2,Ancin
Tierra_Estella,09/03/2013,7.8,14.5,1.7,0.3,Ancin
Tierra_Estella,10/03/2013,8.5,14.6,3.2,0.3,Ancin
Tierra_Estella,11/03/2013,9.1,13.0,6.7,1.5,Ancin
Tierra_Estella,12/03/2013,6.3,11.0,1.1,7.4,Ancin
Tierra_Estella,13/03/2013,1.6,2.4,0.3,1.1,Ancin
Tierra_Estella,14/03/2013,2.4,6.5,0.3,14.3,Ancin
Tierra_Estella,15/03/2013,3.9,10.0,-1.0,0.5,Ancin
Tierra_Estella,16/03/2013,4.7,9.0,-0.9,0.3,Ancin
Tierra_Estella,17/03/2013,6.2,8.3,0.5,7.7,Ancin
Tierra_Estella,18/03/2013,5.0,10.9,-0.7,0.0,Ancin
Tierra_Estella,19/03/2013,4.6,11.2,-2.8,2.8,Ancin
Tierra_Estella,20/03/2013,7.3,13.9,-0.4,0.0,Ancin
Tierra_Estella,21/03/2013,7.2,14.4,-2.1,0.2,Ancin
Tierra_Estella,22/03/2013,8.3,18.1,0.5,0.5,Ancin
Tierra_Estella,23/03/2013,6.6,15.9,-0.9,1.1,Ancin
Tierra_Estella,24/03/2013,8.8,15.6,1.4,0.7,Ancin
Tierra_Estella,25/03/2013,7.3,10.8,3.3,22.3,Ancin
Tierra_Estella,26/03/2013,10.6,15.6,5.9,6.5,Ancin
Tierra_Estella,27/03/2013,10.7,14.4,8.6,28.9,Ancin
Tierra_Estella,28/03/2013,12.8,16.5,9.2,0.3,Ancin
Tierra_Estella,29/03/2013,12.7,15.5,10.7,21.2,Ancin
Tierra_Estella,30/03/2013,10.3,14.3,5.7,0.7,Ancin
Tierra_Estella,31/03/2013,11.1,17.3,3.6,0.6,Ancin
Tierra_Estella,01/04/2013,9.3,13.0,6.6,18.5,Ancin
Tierra_Estella,02/04/2013,8.7,15.1,3.9,0.6,Ancin
Tierra_Estella,03/04/2013,8.9,15.5,1.5,1.8,Ancin
Tierra_Estella,04/04/2013,7.5,10.8,3.6,6.3,Ancin
Tierra_Estella,05/04/2013,4.5,8.5,2.0,0.2,Ancin
Tierra_Estella,06/04/2013,4.3,7.6,0.5,8.5,Ancin
Tierra_Estella,07/04/2013,8.0,11.4,3.8,0.1,Ancin
Tierra_Estella,08/04/2013,10.8,14.6,8.0,0.0,Ancin
Tierra_Estella,09/04/2013,10.6,15.2,5.0,0.2,Ancin
Tierra_Estella,10/04/2013,10.8,18.0,2.7,0.4,Ancin
Tierra_Estella,11/04/2013,11.8,17.6,7.1,1.7,Ancin
Tierra_Estella,12/04/2013,12.1,16.6,6.7,0.0,Ancin
Tierra_Estella,13/04/2013,12.7,20.6,4.4,0.0,Ancin
Tierra_Estella,14/04/2013,16.6,22.9,6.5,0.0,Ancin
Tierra_Estella,15/04/2013,15.1,22.5,6.4,0.0,Ancin
Tierra_Estella,16/04/2013,16.1,24.1,8.2,0.0,Ancin
Tierra_Estella,17/04/2013,16.8,26.1,6.6,0.0,Ancin
Tierra_Estella,18/04/2013,12.0,17.1,9.0,0.0,Ancin
Tierra_Estella,19/04/2013,8.7,12.9,3.2,0.1,Ancin
Tierra_Estella,20/04/2013,7.9,14.2,1.8,0.1,Ancin
Tierra_Estella,21/04/2013,8.1,16.1,-1.8,0.0,Ancin
Tierra_Estella,22/04/2013,9.3,14.5,3.8,0.0,Ancin
Tierra_Estella,23/04/2013,11.1,19.4,3.1,0.0,Ancin
Tierra_Estella,24/04/2013,11.3,20.6,1.2,0.0,Ancin
Tierra_Estella,25/04/2013,12.9,22.2,1.6,0.2,Ancin
Tierra_Estella,26/04/2013,11.5,14.5,6.3,3.1,Ancin
Tierra_Estella,27/04/2013,6.1,10.4,2.4,0.2,Ancin
Tierra_Estella,28/04/2013,6.2,10.6,1.9,2.8,Ancin
Tierra_Estella,29/04/2013,7.4,10.2,5.1,8.4,Ancin
Tierra_Estella,30/04/2013,8.3,13.9,4.6,9.2,Ancin
Tierra_Estella,01/05/2013,9.8,15.2,7.1,0.6,Ancin
Tierra_Estella,02/05/2013,8.7,12.3,5.0,3.0,Ancin
Tierra_Estella,03/05/2013,9.3,14.6,4.2,0.1,Ancin
Tierra_Estella,04/05/2013,11.7,21.1,1.4,0.0,Ancin
Tierra_Estella,05/05/2013,13.4,23.0,4.1,0.0,Ancin
Tierra_Estella,06/05/2013,13.4,24.1,1.6,0.0,Ancin
Tierra_Estella,07/05/2013,16.7,21.8,12.1,0.4,Ancin
Tierra_Estella,08/05/2013,15.7,19.4,8.1,0.4,Ancin
Tierra_Estella,09/05/2013,11.9,16.7,7.6,5.5,Ancin
Tierra_Estella,10/05/2013,11.5,16.7,6.5,0.1,Ancin
Tierra_Estella,11/05/2013,10.7,16.1,4.7,0.0,Ancin
Tierra_Estella,12/05/2013,10.1,14.3,4.7,0.0,Ancin
Tierra_Estella,13/05/2013,14.0,24.1,4.9,0.0,Ancin
Tierra_Estella,14/05/2013,12.9,20.6,4.0,6.0,Ancin
Tierra_Estella,15/05/2013,8.5,11.2,3.8,0.6,Ancin
Tierra_Estella,16/05/2013,7.8,13.5,3.0,2.0,Ancin
Tierra_Estella,17/05/2013,7.7,13.0,4.2,16.5,Ancin
Tierra_Estella,18/05/2013,8.3,12.2,4.8,15.3,Ancin
Tierra_Estella,19/05/2013,9.6,14.2,3.9,0.0,Ancin
Tierra_Estella,20/05/2013,8.1,14.1,1.3,0.1,Ancin
Tierra_Estella,21/05/2013,7.3,11.2,0.1,0.5,Ancin
Tierra_Estella,22/05/2013,11.8,15.7,9.4,0.0,Ancin
Tierra_Estella,23/05/2013,10.2,12.9,7.9,0.2,Ancin
Tierra_Estella,24/05/2013,9.1,13.8,5.5,1.5,Ancin
Tierra_Estella,25/05/2013,8.9,15.0,0.9,1.4,Ancin
Tierra_Estella,26/05/2013,9.6,19.5,-1.7,1.0,Ancin
Tierra_Estella,27/05/2013,11.8,18.4,8.4,1.8,Ancin
Tierra_Estella,28/05/2013,9.8,15.0,2.2,0.7,Ancin
Tierra_Estella,29/05/2013,8.2,14.7,1.8,0.4,Ancin
Tierra_Estella,30/05/2013,9.6,12.5,6.1,0.2,Ancin
Tierra_Estella,31/05/2013,11.2,14.9,9.2,0.4,Ancin
Tierra_Estella,01/06/2013,11.4,14.0,10.0,0.1,Ancin
Tierra_Estella,02/06/2013,12.4,15.5,9.1,0.0,Ancin
Tierra_Estella,03/06/2013,13.2,19.5,8.2,0.1,Ancin
Tierra_Estella,04/06/2013,15.5,25.1,5.1,0.0,Ancin
Tierra_Estella,05/06/2013,16.3,25.5,5.5,0.0,Ancin
Tierra_Estella,06/06/2013,17.4,25.5,8.6,0.0,Ancin
Tierra_Estella,07/06/2013,15.0,22.3,10.0,8.2,Ancin
Tierra_Estella,08/06/2013,12.2,15.5,10.6,5.7,Ancin
Tierra_Estella,09/06/2013,13.9,19.2,11.3,13.7,Ancin
Tierra_Estella,10/06/2013,17.3,23.5,12.5,0.1,Ancin
Tierra_Estella,11/06/2013,19.7,26.6,13.1,0.0,Ancin
Tierra_Estella,12/06/2013,21.1,30.2,10.8,0.0,Ancin
Tierra_Estella,13/06/2013,16.8,20.9,12.1,0.0,Ancin
Tierra_Estella,14/06/2013,18.4,28.0,8.9,0.0,Ancin
Tierra_Estella,15/06/2013,19.0,27.2,10.3,0.0,Ancin
Tierra_Estella,16/06/2013,22.4,31.2,9.6,0.0,Ancin
Tierra_Estella,17/06/2013,19.1,26.1,13.5,0.0,Ancin
Tierra_Estella,18/06/2013,13.7,19.4,9.8,23.3,Ancin
Tierra_Estella,19/06/2013,12.0,15.6,9.8,0.0,Ancin
Tierra_Estella,20/06/2013,13.9,19.4,10.4,0.0,Ancin
Tierra_Estella,21/06/2013,14.2,19.0,9.2,0.0,Ancin
Tierra_Estella,22/06/2013,17.5,26.8,6.7,0.0,Ancin
Tierra_Estella,23/06/2013,15.3,19.6,10.4,0.0,Ancin
Tierra_Estella,24/06/2013,14.6,21.4,8.0,0.0,Ancin
Tierra_Estella,25/06/2013,15.2,22.8,8.4,0.0,Ancin
Tierra_Estella,26/06/2013,16.3,23.7,9.2,0.0,Ancin
Tierra_Estella,27/06/2013,16.5,23.2,11.0,0.0,Ancin
Tierra_Estella,28/06/2013,16.9,24.5,9.9,0.0,Ancin
Tierra_Estella,29/06/2013,18.8,26.5,11.1,0.0,Ancin
Tierra_Estella,30/06/2013,20.8,30.2,13.3,0.0,Ancin
Tierra_Estella,01/07/2013,20.8,29.9,14.0,0.0,Ancin
Tierra_Estella,02/07/2013,22.2,31.0,12.9,0.0,Ancin
Tierra_Estella,03/07/2013,21.2,27.4,15.2,0.0,Ancin
Tierra_Estella,04/07/2013,22.7,30.8,16.1,0.0,Ancin
Tierra_Estella,05/07/2013,23.1,33.2,12.4,0.0,Ancin
Tierra_Estella,06/07/2013,23.3,34.0,12.9,0.0,Ancin
Tierra_Estella,07/07/2013,23.5,32.5,13.4,0.0,Ancin
Tierra_Estella,08/07/2013,24.4,33.1,14.1,0.0,Ancin
Tierra_Estella,09/07/2013,24.8,33.5,15.0,0.0,Ancin
Tierra_Estella,10/07/2013,24.9,33.1,15.6,0.0,Ancin
Tierra_Estella,11/07/2013,24.2,32.1,15.2,0.0,Ancin
Tierra_Estella,12/07/2013,23.6,33.4,15.6,0.4,Ancin
Tierra_Estella,13/07/2013,24.2,31.8,17.2,0.0,Ancin
Tierra_Estella,14/07/2013,22.8,30.9,15.2,0.0,Ancin
Tierra_Estella,15/07/2013,22.0,32.4,12.7,0.0,Ancin
Tierra_Estella,16/07/2013,21.9,29.1,16.8,8.0,Ancin
Tierra_Estella,17/07/2013,22.0,29.4,15.4,0.1,Ancin
Tierra_Estella,18/07/2013,22.2,30.4,15.3,0.0,Ancin
Tierra_Estella,19/07/2013,22.2,31.9,12.3,0.1,Ancin
Tierra_Estella,20/07/2013,23.9,32.7,16.6,0.0,Ancin
Tierra_Estella,21/07/2013,24.9,32.5,17.1,0.0,Ancin
Tierra_Estella,22/07/2013,23.8,33.8,12.8,5.7,Ancin
Tierra_Estella,23/07/2013,23.0,32.6,16.7,0.4,Ancin
Tierra_Estella,24/07/2013,24.0,33.1,15.8,0.0,Ancin
Tierra_Estella,25/07/2013,26.3,36.4,16.8,0.0,Ancin
Tierra_Estella,26/07/2013,26.3,35.6,16.4,0.0,Ancin
Tierra_Estella,27/07/2013,20.6,26.6,14.3,0.0,Ancin
Tierra_Estella,28/07/2013,20.8,29.3,11.8,0.0,Ancin
Tierra_Estella,29/07/2013,20.6,28.3,11.2,0.0,Ancin
Tierra_Estella,30/07/2013,23.3,34.1,13.4,0.0,Ancin
Tierra_Estella,31/07/2013,27.8,35.7,14.7,0.0,Ancin
Tierra_Estella,01/08/2013,28.3,35.9,20.8,0.0,Ancin
Tierra_Estella,02/08/2013,26.4,36.2,18.7,0.0,Ancin
Tierra_Estella,03/08/2013,22.2,30.5,16.6,0.0,Ancin
Tierra_Estella,04/08/2013,23.3,31.4,17.5,0.0,Ancin
Tierra_Estella,05/08/2013,21.8,30.8,14.5,0.0,Ancin
Tierra_Estella,06/08/2013,21.6,27.9,17.9,0.0,Ancin
Tierra_Estella,07/08/2013,18.6,26.2,11.5,0.5,Ancin
Tierra_Estella,08/08/2013,16.5,22.8,9.7,0.2,Ancin
Tierra_Estella,09/08/2013,19.1,28.0,9.4,0.0,Ancin
Tierra_Estella,10/08/2013,20.9,28.1,14.5,0.0,Ancin
Tierra_Estella,11/08/2013,24.0,34.7,14.6,0.0,Ancin
Tierra_Estella,12/08/2013,21.7,31.7,14.2,12.4,Ancin
Tierra_Estella,13/08/2013,21.8,26.4,16.2,0.0,Ancin
Tierra_Estella,14/08/2013,21.0,28.8,14.5,0.0,Ancin
Tierra_Estella,15/08/2013,22.2,31.1,10.7,0.0,Ancin
Tierra_Estella,16/08/2013,21.0,30.4,13.4,0.0,Ancin
Tierra_Estella,17/08/2013,22.0,30.3,14.3,0.0,Ancin
Tierra_Estella,18/08/2013,22.6,32.3,12.3,0.0,Ancin
Tierra_Estella,19/08/2013,20.2,25.9,13.9,0.0,Ancin
Tierra_Estella,20/08/2013,20.4,30.1,12.4,0.0,Ancin
Tierra_Estella,21/08/2013,20.3,32.3,9.0,0.0,Ancin
Tierra_Estella,22/08/2013,21.9,31.7,12.1,0.0,Ancin
Tierra_Estella,23/08/2013,21.9,30.6,14.9,0.0,Ancin
Tierra_Estella,24/08/2013,19.5,23.8,15.1,0.0,Ancin
Tierra_Estella,25/08/2013,18.9,25.8,14.2,0.0,Ancin
Tierra_Estella,26/08/2013,18.2,24.2,14.1,0.0,Ancin
Tierra_Estella,27/08/2013,18.4,23.8,11.4,0.0,Ancin
Tierra_Estella,28/08/2013,19.1,24.5,15.3,0.0,Ancin
Tierra_Estella,29/08/2013,19.3,25.8,14.1,0.2,Ancin
Tierra_Estella,30/08/2013,18.8,25.7,13.5,0.0,Ancin
Tierra_Estella,31/08/2013,18.7,25.1,13.1,0.0,Ancin
Tierra_Estella,01/09/2013,19.9,25.3,15.6,0.0,Ancin
Tierra_Estella,02/09/2013,19.8,28.2,10.5,0.0,Ancin
Tierra_Estella,03/09/2013,18.2,29.8,0.0,0.0,Ancin
Tierra_Estella,04/09/2013,20.1,30.6,9.1,0.6,Ancin
Tierra_Estella,05/09/2013,22.4,28.9,15.4,19.6,Ancin
Tierra_Estella,06/09/2013,19.0,26.5,15.1,1.0,Ancin
Tierra_Estella,07/09/2013,16.5,19.9,14.6,0.0,Ancin
Tierra_Estella,08/09/2013,14.8,19.3,9.9,0.1,Ancin
Tierra_Estella,09/09/2013,15.9,24.6,6.4,0.0,Ancin
Tierra_Estella,10/09/2013,16.6,21.9,11.7,0.0,Ancin
Tierra_Estella,11/09/2013,14.1,18.8,9.8,0.3,Ancin
Tierra_Estella,12/09/2013,16.6,21.9,9.2,0.2,Ancin
Tierra_Estella,13/09/2013,17.7,24.3,0.0,0.0,Ancin
Tierra_Estella,14/09/2013,18.1,28.2,7.8,0.3,Ancin
Tierra_Estella,15/09/2013,16.0,21.2,9.4,0.0,Ancin
Tierra_Estella,16/09/2013,15.6,24.7,6.6,0.1,Ancin
Tierra_Estella,17/09/2013,15.2,18.0,12.2,0.0,Ancin
Tierra_Estella,18/09/2013,17.9,22.9,11.6,0.0,Ancin
Tierra_Estella,19/09/2013,17.9,21.5,15.8,0.0,Ancin
Tierra_Estella,20/09/2013,18.5,23.5,15.8,0.0,Ancin
Tierra_Estella,21/09/2013,19.0,26.5,9.8,0.0,Ancin
Tierra_Estella,22/09/2013,15.9,28.0,5.4,0.0,Ancin
Tierra_Estella,23/09/2013,16.4,27.1,7.3,0.0,Ancin
Tierra_Estella,24/09/2013,18.3,27.7,10.1,0.0,Ancin
Tierra_Estella,25/09/2013,21.4,29.6,14.7,0.0,Ancin
Tierra_Estella,26/09/2013,21.0,30.2,13.5,0.0,Ancin
Tierra_Estella,27/09/2013,23.1,29.6,16.2,0.0,Ancin
Tierra_Estella,28/09/2013,17.9,24.7,11.2,2.0,Ancin
Tierra_Estella,29/09/2013,16.8,23.4,10.4,0.1,Ancin
Tierra_Estella,30/09/2013,18.8,26.1,12.5,0.2,Ancin
Tierra_Estella,01/10/2013,17.5,21.2,15.0,3.3,Ancin
Tierra_Estella,02/10/2013,20.8,26.9,15.7,1.3,Ancin
Tierra_Estella,03/10/2013,21.6,26.2,18.8,0.9,Ancin
Tierra_Estella,04/10/2013,17.8,22.2,11.8,7.7,Ancin
Tierra_Estella,05/10/2013,15.0,20.6,8.5,0.2,Ancin
Tierra_Estella,06/10/2013,15.7,21.3,11.0,0.0,Ancin
Tierra_Estella,07/10/2013,14.5,21.3,9.3,0.1,Ancin
Tierra_Estella,08/10/2013,12.9,20.1,4.6,0.0,Ancin
Tierra_Estella,09/10/2013,14.4,19.4,10.1,0.0,Ancin
Tierra_Estella,10/10/2013,12.7,18.0,6.5,2.0,Ancin
Tierra_Estella,11/10/2013,9.4,13.6,1.7,0.1,Ancin
Tierra_Estella,12/10/2013,8.3,17.3,-1.2,0.3,Ancin
Tierra_Estella,13/10/2013,10.0,19.4,1.1,0.0,Ancin
Tierra_Estella,14/10/2013,13.8,20.6,5.6,1.1,Ancin
Tierra_Estella,15/10/2013,16.0,19.5,12.3,0.3,Ancin
Tierra_Estella,16/10/2013,19.5,24.5,13.7,0.0,Ancin
Tierra_Estella,17/10/2013,16.5,24.0,8.3,0.0,Ancin
Tierra_Estella,18/10/2013,17.8,26.3,9.7,1.7,Ancin
Tierra_Estella,19/10/2013,18.3,23.5,12.6,0.1,Ancin
Tierra_Estella,20/10/2013,14.9,22.6,7.3,0.0,Ancin
Tierra_Estella,21/10/2013,14.4,21.0,4.8,0.1,Ancin
Tierra_Estella,22/10/2013,16.3,18.2,13.6,1.7,Ancin
Tierra_Estella,23/10/2013,13.4,20.6,7.0,0.2,Ancin
Tierra_Estella,24/10/2013,15.0,20.2,5.7,0.2,Ancin
Tierra_Estella,25/10/2013,17.7,21.1,16.0,8.3,Ancin
Tierra_Estella,26/10/2013,15.6,20.2,7.9,0.0,Ancin
Tierra_Estella,27/10/2013,11.5,20.2,4.6,0.2,Ancin
Tierra_Estella,28/10/2013,9.9,16.6,3.2,1.3,Ancin
Tierra_Estella,29/10/2013,9.3,12.7,6.3,0.5,Ancin
Tierra_Estella,30/10/2013,9.0,13.1,5.6,0.8,Ancin
Tierra_Estella,31/10/2013,8.6,15.9,1.9,0.1,Ancin
Tierra_Estella,01/11/2013,8.0,14.5,1.6,0.1,Ancin
Tierra_Estella,02/11/2013,13.4,20.8,6.6,2.2,Ancin
Tierra_Estella,03/11/2013,7.0,8.0,0.0,0.0,Ancin
Tierra_Estella,04/11/2013,11.2,14.2,8.0,13.2,Ancin
Tierra_Estella,05/11/2013,16.0,19.3,11.3,4.3,Ancin
Tierra_Estella,06/11/2013,15.4,23.1,9.0,0.0,Ancin
Tierra_Estella,07/11/2013,12.1,19.2,7.1,0.1,Ancin
Tierra_Estella,08/11/2013,11.0,17.9,7.7,1.0,Ancin
Tierra_Estella,09/11/2013,9.4,13.5,2.9,0.6,Ancin
Tierra_Estella,10/11/2013,11.7,14.1,9.6,1.8,Ancin
Tierra_Estella,11/11/2013,12.8,14.8,10.6,0.2,Ancin
Tierra_Estella,12/11/2013,13.0,14.9,11.9,0.1,Ancin
Tierra_Estella,13/11/2013,12.9,15.3,11.2,0.2,Ancin
Tierra_Estella,14/11/2013,10.4,12.5,7.4,0.6,Ancin
Tierra_Estella,15/11/2013,4.3,7.0,0.0,4.7,Ancin
Tierra_Estella,16/11/2013,5.2,8.8,0.6,0.1,Ancin
Tierra_Estella,17/11/2013,7.7,8.8,6.3,0.8,Ancin
Tierra_Estella,18/11/2013,9.2,11.3,7.5,2.6,Ancin
Tierra_Estella,19/11/2013,7.4,11.0,3.6,5.2,Ancin
Tierra_Estella,20/11/2013,4.8,6.9,2.7,3.1,Ancin
Tierra_Estella,21/11/2013,5.5,6.7,4.5,1.8,Ancin
Tierra_Estella,22/11/2013,5.1,7.3,3.7,2.5,Ancin
Tierra_Estella,23/11/2013,5.5,8.6,3.5,1.2,Ancin
Tierra_Estella,24/11/2013,6.3,9.2,4.2,0.0,Ancin
Tierra_Estella,25/11/2013,5.3,6.9,3.9,0.1,Ancin
Tierra_Estella,26/11/2013,3.6,5.8,2.0,0.0,Ancin
Tierra_Estella,27/11/2013,2.3,5.6,-3.7,0.0,Ancin
Tierra_Estella,28/11/2013,0.2,8.1,-6.3,0.0,Ancin
Tierra_Estella,29/11/2013,5.3,7.1,1.9,0.0,Ancin
Tierra_Estella,30/11/2013,6.3,8.7,2.2,2.1,Ancin
Tierra_Estella,01/12/2013,4.6,7.3,2.8,0.0,Ancin
Tierra_Estella,02/12/2013,3.7,7.8,-3.1,0.0,Ancin
Tierra_Estella,03/12/2013,3.2,12.0,-4.6,0.1,Ancin
Tierra_Estella,04/12/2013,5.3,16.2,-4.0,0.1,Ancin
Tierra_Estella,05/12/2013,7.8,9.0,5.0,0.0,Ancin
Tierra_Estella,06/12/2013,6.7,11.1,0.0,0.0,Ancin
Tierra_Estella,07/12/2013,4.1,12.9,-3.4,0.0,Ancin
Tierra_Estella,08/12/2013,0.2,10.6,-5.5,0.1,Ancin
Tierra_Estella,09/12/2013,0.1,4.9,-6.3,0.1,Ancin
Tierra_Estella,10/12/2013,2.2,5.2,-0.8,0.0,Ancin
Tierra_Estella,11/12/2013,3.5,5.7,-0.3,0.1,Ancin
Tierra_Estella,12/12/2013,1.2,1.4,0.0,0.0,Ancin
Tierra_Estella,13/12/2013,3.5,9.2,-0.2,3.6,Ancin
Tierra_Estella,14/12/2013,6.4,13.3,-1.4,0.0,Ancin
Tierra_Estella,15/12/2013,1.1,10.0,-4.3,0.2,Ancin
Tierra_Estella,16/12/2013,2.7,9.0,-3.4,0.2,Ancin
Tierra_Estella,17/12/2013,5.1,8.6,1.4,0.0,Ancin
Tierra_Estella,18/12/2013,5.0,8.1,1.3,1.7,Ancin
Tierra_Estella,19/12/2013,6.7,8.8,0.0,1.5,Ancin
Tierra_Estella,20/12/2013,4.8,8.8,0.0,0.9,Ancin
Tierra_Estella,21/12/2013,1.0,5.9,-3.0,0.2,Ancin
Tierra_Estella,22/12/2013,1.3,10.0,-4.0,0.1,Ancin
Tierra_Estella,23/12/2013,1.8,7.9,-2.4,0.1,Ancin
Tierra_Estella,24/12/2013,8.6,11.3,5.7,9.2,Ancin
Tierra_Estella,25/12/2013,6.2,9.6,3.0,1.1,Ancin
Tierra_Estella,26/12/2013,4.6,9.0,1.6,0.6,Ancin
Tierra_Estella,27/12/2013,7.4,11.7,0.7,0.3,Ancin
Tierra_Estella,28/12/2013,6.4,9.8,-0.5,2.1,Ancin
Tierra_Estella,29/12/2013,1.6,8.0,-2.6,0.2,Ancin
Tierra_Estella,30/12/2013,0.5,6.9,-4.4,0.2,Ancin
Tierra_Estella,31/12/2013,1.9,7.8,-1.5,0.0,Ancin
