Comarca,Fecha, Temperatura media, Temperatura maxima, Temperatura minima, Precipitacion acumulada,Localidad
Tierra_Estella,01/01/2010,5.1,9.4,0.7,0.2,Ancin
Tierra_Estella,02/01/2010,3.8,8.9,0.1,0.1,Ancin
Tierra_Estella,03/01/2010,4.6,5.1,4.0,16.1,Ancin
Tierra_Estella,04/01/2010,4.7,6.1,3.0,0.4,Ancin
Tierra_Estella,05/01/2010,5.0,7.8,1.0,0.2,Ancin
Tierra_Estella,06/01/2010,1.5,6.5,-3.3,0.3,Ancin
Tierra_Estella,07/01/2010,0.1,3.5,-3.9,0.4,Ancin
Tierra_Estella,08/01/2010,-0.8,1.4,-2.4,0.2,Ancin
Tierra_Estella,09/01/2010,-1.9,0.3,-4.1,0.0,Ancin
Tierra_Estella,10/01/2010,-5.5,0.8,-13.1,1.4,Ancin
Tierra_Estella,11/01/2010,-2.9,2.8,-9.0,1.2,Ancin
Tierra_Estella,12/01/2010,-2.1,2.0,-10.0,2.1,Ancin
Tierra_Estella,13/01/2010,2.4,5.2,-5.3,6.8,Ancin
Tierra_Estella,14/01/2010,5.3,6.7,3.7,22.6,Ancin
Tierra_Estella,15/01/2010,5.3,11.0,1.4,0.5,Ancin
Tierra_Estella,16/01/2010,5.1,8.4,1.7,2.0,Ancin
Tierra_Estella,17/01/2010,7.1,10.8,4.2,0.2,Ancin
Tierra_Estella,18/01/2010,6.3,9.5,1.8,0.0,Ancin
Tierra_Estella,19/01/2010,8.7,10.2,4.6,1.1,Ancin
Tierra_Estella,20/01/2010,8.0,11.7,1.3,0.1,Ancin
Tierra_Estella,21/01/2010,3.7,10.4,-0.5,0.2,Ancin
Tierra_Estella,22/01/2010,5.3,15.5,-2.0,0.2,Ancin
Tierra_Estella,23/01/2010,6.7,7.5,5.7,4.0,Ancin
Tierra_Estella,24/01/2010,6.3,9.3,4.4,1.3,Ancin
Tierra_Estella,25/01/2010,3.7,6.5,0.7,0.9,Ancin
Tierra_Estella,26/01/2010,2.2,5.8,-2.0,0.2,Ancin
Tierra_Estella,27/01/2010,0.4,4.2,-1.9,0.3,Ancin
Tierra_Estella,28/01/2010,3.2,6.4,-0.7,0.8,Ancin
Tierra_Estella,29/01/2010,5.8,9.4,4.1,8.2,Ancin
Tierra_Estella,30/01/2010,4.1,5.6,2.8,8.3,Ancin
Tierra_Estella,31/01/2010,2.9,5.7,0.9,2.5,Ancin
Tierra_Estella,01/02/2010,2.4,6.9,-1.8,1.5,Ancin
Tierra_Estella,02/02/2010,0.6,7.5,-3.7,0.2,Ancin
Tierra_Estella,03/02/2010,-0.0,7.7,-6.1,0.2,Ancin
Tierra_Estella,04/02/2010,3.4,6.5,-1.6,5.3,Ancin
Tierra_Estella,05/02/2010,7.9,11.8,3.9,1.9,Ancin
Tierra_Estella,06/02/2010,8.9,11.6,7.1,0.2,Ancin
Tierra_Estella,07/02/2010,6.9,10.0,2.3,0.3,Ancin
Tierra_Estella,08/02/2010,4.2,6.1,0.5,3.9,Ancin
Tierra_Estella,09/02/2010,4.2,6.3,2.0,0.4,Ancin
Tierra_Estella,10/02/2010,2.6,5.8,-0.5,0.1,Ancin
Tierra_Estella,11/02/2010,-1.3,2.0,-2.9,1.0,Ancin
Tierra_Estella,12/02/2010,-0.3,2.0,-2.8,1.1,Ancin
Tierra_Estella,13/02/2010,-1.2,-0.1,-2.4,0.0,Ancin
Tierra_Estella,14/02/2010,-0.3,1.7,-4.0,0.2,Ancin
Tierra_Estella,15/02/2010,-1.1,2.2,-5.9,0.2,Ancin
Tierra_Estella,16/02/2010,1.7,4.8,-0.5,12.1,Ancin
Tierra_Estella,17/02/2010,5.4,7.5,3.9,8.8,Ancin
Tierra_Estella,18/02/2010,5.2,9.8,-1.0,0.2,Ancin
Tierra_Estella,19/02/2010,4.0,7.1,-2.4,0.7,Ancin
Tierra_Estella,20/02/2010,2.0,8.5,-3.4,0.2,Ancin
Tierra_Estella,21/02/2010,2.7,5.5,-3.8,4.0,Ancin
Tierra_Estella,22/02/2010,6.8,11.2,4.2,0.7,Ancin
Tierra_Estella,23/02/2010,8.5,14.7,3.4,0.4,Ancin
Tierra_Estella,24/02/2010,9.4,12.9,5.9,0.9,Ancin
Tierra_Estella,25/02/2010,11.1,15.4,4.8,0.4,Ancin
Tierra_Estella,26/02/2010,8.0,13.0,1.9,0.0,Ancin
Tierra_Estella,27/02/2010,8.8,15.6,3.2,9.3,Ancin
Tierra_Estella,28/02/2010,8.9,13.6,1.9,0.0,Ancin
Tierra_Estella,01/03/2010,7.8,12.9,1.6,1.0,Ancin
Tierra_Estella,02/03/2010,6.7,13.9,-2.3,0.1,Ancin
Tierra_Estella,03/03/2010,5.9,9.1,3.9,4.9,Ancin
Tierra_Estella,04/03/2010,7.6,11.6,3.4,0.0,Ancin
Tierra_Estella,05/03/2010,6.1,11.4,1.4,0.0,Ancin
Tierra_Estella,06/03/2010,6.4,10.4,0.7,0.0,Ancin
Tierra_Estella,07/03/2010,2.7,9.3,-1.8,0.0,Ancin
Tierra_Estella,08/03/2010,-0.2,2.6,-4.1,0.8,Ancin
Tierra_Estella,09/03/2010,2.1,5.4,-0.5,0.0,Ancin
Tierra_Estella,10/03/2010,0.9,3.4,-0.8,0.0,Ancin
Tierra_Estella,11/03/2010,1.0,2.8,-0.0,0.2,Ancin
Tierra_Estella,12/03/2010,2.8,6.1,0.2,0.2,Ancin
Tierra_Estella,13/03/2010,5.2,9.8,2.6,0.0,Ancin
Tierra_Estella,14/03/2010,5.0,8.7,2.0,0.0,Ancin
Tierra_Estella,15/03/2010,6.5,16.4,-3.0,0.0,Ancin
Tierra_Estella,16/03/2010,3.7,14.6,-5.7,0.1,Ancin
Tierra_Estella,17/03/2010,8.1,17.9,-3.8,0.1,Ancin
Tierra_Estella,18/03/2010,9.5,14.5,3.2,0.0,Ancin
Tierra_Estella,19/03/2010,9.2,15.1,0.6,0.0,Ancin
Tierra_Estella,20/03/2010,13.2,18.2,8.7,1.4,Ancin
Tierra_Estella,21/03/2010,11.7,17.3,6.4,0.1,Ancin
Tierra_Estella,22/03/2010,12.2,20.0,2.8,0.0,Ancin
Tierra_Estella,23/03/2010,9.6,17.5,-1.3,0.1,Ancin
Tierra_Estella,24/03/2010,12.2,15.2,10.0,7.4,Ancin
Tierra_Estella,25/03/2010,9.7,14.9,4.8,1.9,Ancin
Tierra_Estella,26/03/2010,8.8,14.9,2.5,1.2,Ancin
Tierra_Estella,27/03/2010,9.9,16.4,3.5,0.0,Ancin
Tierra_Estella,28/03/2010,8.5,16.2,2.4,0.1,Ancin
Tierra_Estella,29/03/2010,10.2,17.3,1.0,6.3,Ancin
Tierra_Estella,30/03/2010,9.1,13.9,3.8,3.3,Ancin
Tierra_Estella,31/03/2010,7.3,14.0,1.5,1.4,Ancin
Tierra_Estella,01/04/2010,6.2,12.7,-0.5,0.2,Ancin
Tierra_Estella,02/04/2010,7.2,14.5,-1.4,0.1,Ancin
Tierra_Estella,03/04/2010,9.0,14.3,5.9,2.0,Ancin
Tierra_Estella,04/04/2010,7.5,12.9,1.6,0.0,Ancin
Tierra_Estella,05/04/2010,7.3,16.4,-2.6,0.0,Ancin
Tierra_Estella,06/04/2010,9.7,18.6,0.5,0.0,Ancin
Tierra_Estella,07/04/2010,9.6,13.1,5.1,0.3,Ancin
Tierra_Estella,08/04/2010,9.1,14.4,2.5,0.2,Ancin
Tierra_Estella,09/04/2010,10.6,18.6,2.4,0.0,Ancin
Tierra_Estella,10/04/2010,10.4,21.3,-0.6,0.1,Ancin
Tierra_Estella,11/04/2010,11.7,20.2,1.4,0.0,Ancin
Tierra_Estella,12/04/2010,9.2,13.4,5.7,0.0,Ancin
Tierra_Estella,13/04/2010,8.3,14.4,2.4,0.0,Ancin
Tierra_Estella,14/04/2010,8.7,13.0,3.5,0.0,Ancin
Tierra_Estella,15/04/2010,9.2,10.6,6.8,0.1,Ancin
Tierra_Estella,16/04/2010,12.0,19.2,5.4,0.1,Ancin
Tierra_Estella,17/04/2010,11.9,16.7,6.5,0.0,Ancin
Tierra_Estella,18/04/2010,10.3,15.7,4.2,0.2,Ancin
Tierra_Estella,19/04/2010,11.9,20.8,3.8,0.0,Ancin
Tierra_Estella,20/04/2010,14.5,22.9,6.1,0.0,Ancin
Tierra_Estella,21/04/2010,14.8,23.0,4.0,0.5,Ancin
Tierra_Estella,22/04/2010,13.1,15.9,9.6,7.7,Ancin
Tierra_Estella,23/04/2010,13.2,19.5,7.2,0.1,Ancin
Tierra_Estella,24/04/2010,13.4,23.2,4.5,0.1,Ancin
Tierra_Estella,25/04/2010,16.1,24.4,7.9,0.0,Ancin
Tierra_Estella,26/04/2010,16.6,25.8,5.9,0.0,Ancin
Tierra_Estella,27/04/2010,17.5,28.3,6.5,0.0,Ancin
Tierra_Estella,28/04/2010,16.9,26.5,4.6,0.0,Ancin
Tierra_Estella,29/04/2010,17.6,25.3,11.4,10.8,Ancin
Tierra_Estella,30/04/2010,14.9,21.2,10.6,11.5,Ancin
Tierra_Estella,01/05/2010,12.5,16.3,7.4,0.4,Ancin
Tierra_Estella,02/05/2010,9.9,12.6,6.6,0.0,Ancin
Tierra_Estella,03/05/2010,7.6,11.0,4.6,7.0,Ancin
Tierra_Estella,04/05/2010,5.3,6.5,3.9,12.0,Ancin
Tierra_Estella,05/05/2010,6.7,8.4,5.3,2.0,Ancin
Tierra_Estella,06/05/2010,7.5,10.9,1.9,1.5,Ancin
Tierra_Estella,07/05/2010,7.2,12.6,-1.0,1.8,Ancin
Tierra_Estella,08/05/2010,11.0,16.9,4.8,0.2,Ancin
Tierra_Estella,09/05/2010,12.4,19.1,5.5,12.6,Ancin
Tierra_Estella,10/05/2010,11.7,20.0,1.9,0.2,Ancin
Tierra_Estella,11/05/2010,11.0,16.8,4.8,6.7,Ancin
Tierra_Estella,12/05/2010,9.5,13.8,6.4,0.0,Ancin
Tierra_Estella,13/05/2010,7.4,9.1,5.5,0.5,Ancin
Tierra_Estella,14/05/2010,8.4,14.4,2.6,1.2,Ancin
Tierra_Estella,15/05/2010,8.7,12.6,5.3,1.3,Ancin
Tierra_Estella,16/05/2010,8.4,14.6,2.6,0.0,Ancin
Tierra_Estella,17/05/2010,9.9,17.5,1.8,0.1,Ancin
Tierra_Estella,18/05/2010,14.7,23.1,5.6,0.0,Ancin
Tierra_Estella,19/05/2010,13.2,18.6,6.9,0.0,Ancin
Tierra_Estella,20/05/2010,15.8,23.4,7.4,0.0,Ancin
Tierra_Estella,21/05/2010,17.9,28.2,5.1,0.0,Ancin
Tierra_Estella,22/05/2010,18.0,27.6,6.4,0.0,Ancin
Tierra_Estella,23/05/2010,19.2,26.9,8.4,0.0,Ancin
Tierra_Estella,24/05/2010,19.5,27.1,13.3,2.6,Ancin
Tierra_Estella,25/05/2010,19.9,28.3,12.8,0.1,Ancin
Tierra_Estella,26/05/2010,17.8,24.5,10.4,0.0,Ancin
Tierra_Estella,27/05/2010,15.8,22.4,8.2,0.0,Ancin
Tierra_Estella,28/05/2010,13.5,18.7,6.1,0.0,Ancin
Tierra_Estella,29/05/2010,15.6,23.7,4.3,0.1,Ancin
Tierra_Estella,30/05/2010,18.2,25.1,8.7,0.0,Ancin
Tierra_Estella,31/05/2010,20.0,25.7,13.6,5.0,Ancin
Tierra_Estella,01/06/2010,18.5,26.3,11.4,0.0,Ancin
Tierra_Estella,02/06/2010,17.2,23.9,11.7,0.0,Ancin
Tierra_Estella,03/06/2010,19.1,29.9,8.8,0.0,Ancin
Tierra_Estella,04/06/2010,19.5,29.8,6.5,0.0,Ancin
Tierra_Estella,05/06/2010,21.5,32.3,9.2,0.0,Ancin
Tierra_Estella,06/06/2010,16.0,19.0,13.9,0.8,Ancin
Tierra_Estella,07/06/2010,19.4,27.7,11.4,0.0,Ancin
Tierra_Estella,08/06/2010,18.3,25.5,12.6,0.4,Ancin
Tierra_Estella,09/06/2010,17.0,20.5,14.3,2.4,Ancin
Tierra_Estella,10/06/2010,15.9,20.6,11.6,0.0,Ancin
Tierra_Estella,11/06/2010,14.8,19.5,9.8,1.1,Ancin
Tierra_Estella,12/06/2010,14.6,19.0,12.2,7.7,Ancin
Tierra_Estella,13/06/2010,16.9,20.8,12.7,0.0,Ancin
Tierra_Estella,14/06/2010,14.3,18.6,9.6,0.0,Ancin
Tierra_Estella,15/06/2010,12.9,17.2,8.5,0.0,Ancin
Tierra_Estella,16/06/2010,12.0,14.7,10.3,10.6,Ancin
Tierra_Estella,17/06/2010,12.0,15.5,9.1,0.1,Ancin
Tierra_Estella,18/06/2010,14.7,20.5,8.1,0.0,Ancin
Tierra_Estella,19/06/2010,15.6,20.1,12.5,1.2,Ancin
Tierra_Estella,20/06/2010,12.6,16.1,8.1,0.9,Ancin
Tierra_Estella,21/06/2010,14.5,21.4,8.8,0.0,Ancin
Tierra_Estella,22/06/2010,17.6,25.7,9.0,0.0,Ancin
Tierra_Estella,23/06/2010,19.4,28.9,8.2,0.0,Ancin
Tierra_Estella,24/06/2010,20.3,31.2,7.7,0.0,Ancin
Tierra_Estella,25/06/2010,21.9,32.0,10.0,0.1,Ancin
Tierra_Estella,26/06/2010,24.1,31.0,0.0,7.2,Ancin
Tierra_Estella,27/06/2010,20.6,28.4,13.7,9.5,Ancin
Tierra_Estella,28/06/2010,20.7,29.1,15.2,1.7,Ancin
Tierra_Estella,29/06/2010,21.3,27.8,13.5,0.0,Ancin
Tierra_Estella,30/06/2010,22.5,30.5,14.7,0.0,Ancin
Tierra_Estella,01/07/2010,24.0,34.8,12.7,0.1,Ancin
Tierra_Estella,02/07/2010,21.9,31.2,16.4,2.1,Ancin
Tierra_Estella,03/07/2010,22.0,31.0,16.0,0.1,Ancin
Tierra_Estella,04/07/2010,22.1,29.4,16.8,0.0,Ancin
Tierra_Estella,05/07/2010,19.9,26.5,0.0,0.0,Ancin
Tierra_Estella,06/07/2010,20.8,28.1,15.9,0.0,Ancin
Tierra_Estella,07/07/2010,24.4,36.7,11.5,0.0,Ancin
Tierra_Estella,08/07/2010,27.5,35.4,16.0,0.0,Ancin
Tierra_Estella,09/07/2010,25.4,31.0,18.9,0.0,Ancin
Tierra_Estella,10/07/2010,25.6,35.2,15.3,0.0,Ancin
Tierra_Estella,11/07/2010,28.0,36.9,18.9,0.0,Ancin
Tierra_Estella,12/07/2010,24.2,31.8,17.2,0.0,Ancin
Tierra_Estella,13/07/2010,24.1,33.6,15.1,0.0,Ancin
Tierra_Estella,14/07/2010,22.0,30.0,15.9,0.0,Ancin
Tierra_Estella,15/07/2010,21.5,30.6,14.0,0.0,Ancin
Tierra_Estella,16/07/2010,19.7,27.5,12.3,0.0,Ancin
Tierra_Estella,17/07/2010,18.6,22.3,15.0,0.0,Ancin
Tierra_Estella,18/07/2010,22.4,33.8,11.8,0.0,Ancin
Tierra_Estella,19/07/2010,24.3,34.3,17.0,0.0,Ancin
Tierra_Estella,20/07/2010,22.2,33.8,13.2,4.3,Ancin
Tierra_Estella,21/07/2010,18.2,21.3,12.4,0.7,Ancin
Tierra_Estella,22/07/2010,16.8,20.6,13.9,6.6,Ancin
Tierra_Estella,23/07/2010,16.4,22.3,9.8,0.0,Ancin
Tierra_Estella,24/07/2010,17.4,24.8,9.6,0.0,Ancin
Tierra_Estella,25/07/2010,18.1,23.7,12.5,0.0,Ancin
Tierra_Estella,26/07/2010,19.1,24.0,14.5,0.0,Ancin
Tierra_Estella,27/07/2010,21.7,31.2,13.6,0.0,Ancin
Tierra_Estella,28/07/2010,22.7,32.7,11.7,0.0,Ancin
Tierra_Estella,29/07/2010,20.0,24.0,14.9,0.0,Ancin
Tierra_Estella,30/07/2010,20.7,27.9,13.4,0.0,Ancin
Tierra_Estella,31/07/2010,22.3,33.8,10.2,0.0,Ancin
Tierra_Estella,01/08/2010,21.7,30.7,16.1,0.0,Ancin
Tierra_Estella,02/08/2010,18.4,20.7,16.2,0.0,Ancin
Tierra_Estella,03/08/2010,18.0,23.7,13.5,0.0,Ancin
Tierra_Estella,04/08/2010,19.0,24.0,14.8,0.0,Ancin
Tierra_Estella,05/08/2010,17.6,22.4,10.7,0.6,Ancin
Tierra_Estella,06/08/2010,18.4,27.6,9.5,0.0,Ancin
Tierra_Estella,07/08/2010,20.9,33.8,7.2,0.0,Ancin
Tierra_Estella,08/08/2010,22.2,30.5,11.1,2.2,Ancin
Tierra_Estella,09/08/2010,19.5,24.2,12.3,0.0,Ancin
Tierra_Estella,10/08/2010,20.7,32.6,10.7,0.0,Ancin
Tierra_Estella,11/08/2010,20.3,28.2,9.4,0.0,Ancin
Tierra_Estella,12/08/2010,18.6,21.4,15.9,0.0,Ancin
Tierra_Estella,13/08/2010,16.3,20.6,12.6,0.2,Ancin
Tierra_Estella,14/08/2010,15.1,19.7,9.2,0.1,Ancin
Tierra_Estella,15/08/2010,14.9,22.4,8.8,0.0,Ancin
Tierra_Estella,16/08/2010,17.3,26.6,7.7,0.0,Ancin
Tierra_Estella,17/08/2010,19.7,30.9,7.6,0.0,Ancin
Tierra_Estella,18/08/2010,21.8,31.4,12.2,0.0,Ancin
Tierra_Estella,19/08/2010,22.2,29.4,14.3,0.0,Ancin
Tierra_Estella,20/08/2010,23.2,33.5,14.5,0.0,Ancin
Tierra_Estella,21/08/2010,24.4,36.0,13.1,0.0,Ancin
Tierra_Estella,22/08/2010,25.9,35.5,15.1,0.0,Ancin
Tierra_Estella,23/08/2010,24.6,33.0,14.2,0.0,Ancin
Tierra_Estella,24/08/2010,21.4,27.3,14.4,0.0,Ancin
Tierra_Estella,25/08/2010,22.6,34.3,11.4,0.0,Ancin
Tierra_Estella,26/08/2010,24.0,36.7,14.4,0.0,Ancin
Tierra_Estella,27/08/2010,23.0,30.2,14.5,0.0,Ancin
Tierra_Estella,28/08/2010,18.6,23.1,13.4,0.0,Ancin
Tierra_Estella,29/08/2010,17.9,25.0,12.1,0.0,Ancin
Tierra_Estella,30/08/2010,16.3,23.2,8.1,0.0,Ancin
Tierra_Estella,31/08/2010,17.4,28.1,8.2,0.0,Ancin
Tierra_Estella,01/09/2010,17.6,20.6,16.2,0.2,Ancin
Tierra_Estella,02/09/2010,19.2,25.7,14.9,0.1,Ancin
Tierra_Estella,03/09/2010,20.3,30.4,9.8,0.0,Ancin
Tierra_Estella,04/09/2010,19.1,32.2,7.3,0.0,Ancin
Tierra_Estella,05/09/2010,21.3,33.2,8.5,0.0,Ancin
Tierra_Estella,06/09/2010,25.0,31.8,13.9,0.1,Ancin
Tierra_Estella,07/09/2010,17.9,23.8,11.9,4.8,Ancin
Tierra_Estella,08/09/2010,15.2,23.0,6.2,0.1,Ancin
Tierra_Estella,09/09/2010,17.3,22.4,8.4,0.0,Ancin
Tierra_Estella,10/09/2010,16.8,28.9,5.5,0.1,Ancin
Tierra_Estella,11/09/2010,18.5,30.0,6.1,0.0,Ancin
Tierra_Estella,12/09/2010,18.2,22.0,15.1,0.0,Ancin
Tierra_Estella,13/09/2010,18.9,24.0,0.0,0.0,Ancin
Tierra_Estella,14/09/2010,19.8,30.3,11.8,0.0,Ancin
Tierra_Estella,15/09/2010,19.4,31.0,7.1,0.0,Ancin
Tierra_Estella,16/09/2010,18.2,21.3,13.4,1.5,Ancin
Tierra_Estella,17/09/2010,15.1,17.4,13.6,2.1,Ancin
Tierra_Estella,18/09/2010,15.0,19.6,8.1,0.0,Ancin
Tierra_Estella,19/09/2010,13.4,24.5,2.7,0.0,Ancin
Tierra_Estella,20/09/2010,16.2,25.0,5.5,0.0,Ancin
Tierra_Estella,21/09/2010,18.6,27.8,11.4,1.5,Ancin
Tierra_Estella,22/09/2010,17.0,26.1,9.1,0.1,Ancin
Tierra_Estella,23/09/2010,18.2,23.7,13.1,0.7,Ancin
Tierra_Estella,24/09/2010,14.9,19.4,10.0,0.0,Ancin
Tierra_Estella,25/09/2010,13.4,18.0,9.5,0.4,Ancin
Tierra_Estella,26/09/2010,11.9,15.4,9.0,0.1,Ancin
Tierra_Estella,27/09/2010,11.6,18.9,4.6,0.0,Ancin
Tierra_Estella,28/09/2010,11.6,20.9,2.1,0.0,Ancin
Tierra_Estella,29/09/2010,15.1,26.7,2.2,0.0,Ancin
Tierra_Estella,30/09/2010,15.2,20.3,8.7,0.0,Ancin
Tierra_Estella,01/10/2010,14.1,23.9,5.3,0.0,Ancin
Tierra_Estella,02/10/2010,18.1,26.7,7.9,0.0,Ancin
Tierra_Estella,03/10/2010,17.5,23.3,12.2,3.4,Ancin
Tierra_Estella,04/10/2010,13.8,17.6,5.9,1.1,Ancin
Tierra_Estella,05/10/2010,12.8,22.7,1.8,0.1,Ancin
Tierra_Estella,06/10/2010,15.2,24.6,5.6,0.0,Ancin
Tierra_Estella,07/10/2010,17.4,23.2,6.7,3.2,Ancin
Tierra_Estella,08/10/2010,19.9,25.2,15.9,0.9,Ancin
Tierra_Estella,09/10/2010,16.8,18.9,11.9,19.0,Ancin
Tierra_Estella,10/10/2010,10.9,13.6,8.3,6.3,Ancin
Tierra_Estella,11/10/2010,12.5,17.0,9.5,0.2,Ancin
Tierra_Estella,12/10/2010,13.4,17.9,8.4,0.2,Ancin
Tierra_Estella,13/10/2010,14.2,18.3,6.7,0.0,Ancin
Tierra_Estella,14/10/2010,11.5,17.0,5.0,0.0,Ancin
Tierra_Estella,15/10/2010,11.3,15.3,7.4,0.0,Ancin
Tierra_Estella,16/10/2010,9.5,14.7,5.3,0.0,Ancin
Tierra_Estella,17/10/2010,8.5,12.8,4.8,0.0,Ancin
Tierra_Estella,18/10/2010,8.7,13.4,4.8,0.0,Ancin
Tierra_Estella,19/10/2010,10.0,16.0,4.9,0.0,Ancin
Tierra_Estella,20/10/2010,7.1,14.0,-0.6,0.0,Ancin
Tierra_Estella,21/10/2010,8.9,15.9,-0.2,0.0,Ancin
Tierra_Estella,22/10/2010,6.4,15.7,-2.4,0.1,Ancin
Tierra_Estella,23/10/2010,8.7,18.8,1.1,0.0,Ancin
Tierra_Estella,24/10/2010,9.9,17.8,3.8,1.2,Ancin
Tierra_Estella,25/10/2010,7.1,10.9,3.8,2.2,Ancin
Tierra_Estella,26/10/2010,7.6,16.8,-0.4,0.0,Ancin
Tierra_Estella,27/10/2010,10.1,21.8,0.1,0.0,Ancin
Tierra_Estella,28/10/2010,12.3,21.2,0.0,0.0,Ancin
Tierra_Estella,29/10/2010,11.2,17.7,2.2,8.0,Ancin
Tierra_Estella,30/10/2010,8.9,12.6,3.2,0.3,Ancin
Tierra_Estella,31/10/2010,9.6,14.5,7.3,14.0,Ancin
Tierra_Estella,01/11/2010,11.3,13.9,7.7,4.4,Ancin
Tierra_Estella,02/11/2010,10.9,13.7,8.5,0.3,Ancin
Tierra_Estella,03/11/2010,12.7,18.8,7.8,0.1,Ancin
Tierra_Estella,04/11/2010,14.4,20.3,8.2,0.0,Ancin
Tierra_Estella,05/11/2010,9.6,17.1,4.3,0.0,Ancin
Tierra_Estella,06/11/2010,8.3,15.3,4.1,0.1,Ancin
Tierra_Estella,07/11/2010,8.0,10.9,3.4,2.2,Ancin
Tierra_Estella,08/11/2010,5.0,7.0,3.2,8.4,Ancin
Tierra_Estella,09/11/2010,9.2,13.9,4.8,0.7,Ancin
Tierra_Estella,10/11/2010,6.0,9.2,1.1,2.2,Ancin
Tierra_Estella,11/11/2010,7.5,12.7,-0.8,0.2,Ancin
Tierra_Estella,12/11/2010,12.2,17.5,4.4,0.1,Ancin
Tierra_Estella,13/11/2010,6.9,15.8,0.9,0.0,Ancin
Tierra_Estella,14/11/2010,6.6,9.8,1.4,2.3,Ancin
Tierra_Estella,15/11/2010,5.5,11.2,1.5,2.8,Ancin
Tierra_Estella,16/11/2010,6.0,12.1,-0.4,0.1,Ancin
Tierra_Estella,17/11/2010,2.9,9.1,-1.2,1.4,Ancin
Tierra_Estella,18/11/2010,3.3,10.4,-2.2,0.2,Ancin
Tierra_Estella,19/11/2010,3.1,7.0,-1.7,0.1,Ancin
Tierra_Estella,20/11/2010,7.7,11.1,4.2,9.0,Ancin
Tierra_Estella,21/11/2010,6.3,8.2,4.0,9.0,Ancin
Tierra_Estella,22/11/2010,5.5,9.4,2.9,0.7,Ancin
Tierra_Estella,23/11/2010,4.4,9.1,0.3,0.1,Ancin
Tierra_Estella,24/11/2010,1.6,8.5,-2.6,0.2,Ancin
Tierra_Estella,25/11/2010,1.9,9.4,-4.0,2.3,Ancin
Tierra_Estella,26/11/2010,1.7,6.7,-3.8,0.8,Ancin
Tierra_Estella,27/11/2010,-1.6,3.9,-5.9,0.2,Ancin
Tierra_Estella,28/11/2010,-1.9,5.3,-6.4,0.2,Ancin
Tierra_Estella,29/11/2010,-3.1,2.8,-8.3,0.2,Ancin
Tierra_Estella,30/11/2010,0.2,1.0,-0.8,1.5,Ancin
Tierra_Estella,01/12/2010,1.0,4.9,-2.0,1.6,Ancin
Tierra_Estella,02/12/2010,-1.1,0.0,0.0,3.0,Ancin
Tierra_Estella,03/12/2010,-0.4,0.0,0.0,0.8,Ancin
Tierra_Estella,04/12/2010,0.3,0.0,0.0,0.1,Ancin
Tierra_Estella,05/12/2010,3.7,6.0,2.0,2.7,Ancin
Tierra_Estella,06/12/2010,7.9,12.7,5.4,3.2,Ancin
Tierra_Estella,07/12/2010,9.5,14.0,4.6,2.2,Ancin
Tierra_Estella,08/12/2010,9.9,16.3,6.0,1.1,Ancin
Tierra_Estella,09/12/2010,5.2,7.8,1.9,3.5,Ancin
Tierra_Estella,10/12/2010,4.0,12.8,-2.7,0.0,Ancin
Tierra_Estella,11/12/2010,-0.1,8.7,-5.3,0.2,Ancin
Tierra_Estella,12/12/2010,4.8,15.7,-3.7,0.1,Ancin
Tierra_Estella,13/12/2010,7.7,11.8,3.0,0.1,Ancin
Tierra_Estella,14/12/2010,3.4,7.9,0.3,0.0,Ancin
Tierra_Estella,15/12/2010,1.2,3.0,-1.4,0.0,Ancin
Tierra_Estella,16/12/2010,-1.3,4.2,-6.6,0.0,Ancin
Tierra_Estella,17/12/2010,1.2,5.9,-5.3,0.0,Ancin
Tierra_Estella,18/12/2010,0.5,6.4,-5.0,0.0,Ancin
Tierra_Estella,19/12/2010,1.7,7.9,-4.1,0.0,Ancin
Tierra_Estella,20/12/2010,0.0,10.0,-5.7,0.2,Ancin
Tierra_Estella,21/12/2010,3.8,6.1,0.2,11.0,Ancin
Tierra_Estella,22/12/2010,7.3,9.9,5.4,6.0,Ancin
Tierra_Estella,23/12/2010,4.5,6.1,2.2,1.9,Ancin
Tierra_Estella,24/12/2010,1.5,4.3,-0.5,5.0,Ancin
Tierra_Estella,25/12/2010,-0.2,2.3,-4.0,0.0,Ancin
Tierra_Estella,26/12/2010,-0.3,9.3,-4.8,0.0,Ancin
Tierra_Estella,27/12/2010,-2.0,5.3,-7.5,0.0,Ancin
Tierra_Estella,28/12/2010,0.5,8.4,-4.6,0.0,Ancin
Tierra_Estella,29/12/2010,2.6,10.4,-2.2,0.0,Ancin
Tierra_Estella,30/12/2010,5.2,6.9,-0.4,0.0,Ancin
Tierra_Estella,31/12/2010,5.7,9.6,1.4,0.0,Ancin
