Comarca,Fecha, Temperatura media, Temperatura maxima, Temperatura minima, Precipitacion acumulada,Localidad
Tierra_Estella,01/01/2016,5.9,12.5,-1.0,0.0,Ancin
Tierra_Estella,02/01/2016,6.3,10.8,-0.3,0.0,Ancin
Tierra_Estella,03/01/2016,4.2,7.5,-0.1,0.0,Ancin
Tierra_Estella,04/01/2016,6.9,8.3,5.2,18.9,Ancin
Tierra_Estella,05/01/2016,6.0,9.0,2.1,0.0,Ancin
Tierra_Estella,06/01/2016,6.1,9.3,3.9,1.6,Ancin
Tierra_Estella,07/01/2016,9.4,15.0,3.2,0.0,Ancin
Tierra_Estella,08/01/2016,11.7,16.4,7.4,2.0,Ancin
Tierra_Estella,09/01/2016,10.0,14.0,6.6,0.4,Ancin
Tierra_Estella,10/01/2016,11.0,14.3,8.0,0.4,Ancin
Tierra_Estella,11/01/2016,10.3,14.1,7.2,1.9,Ancin
Tierra_Estella,12/01/2016,6.6,10.6,1.7,0.4,Ancin
Tierra_Estella,13/01/2016,3.6,7.1,-1.8,0.0,Ancin
Tierra_Estella,14/01/2016,6.6,9.7,4.3,6.0,Ancin
Tierra_Estella,15/01/2016,5.3,8.2,2.3,2.9,Ancin
Tierra_Estella,16/01/2016,3.9,7.6,1.3,2.9,Ancin
Tierra_Estella,17/01/2016,4.0,8.9,-0.1,0.2,Ancin
Tierra_Estella,18/01/2016,4.6,8.5,2.0,3.9,Ancin
Tierra_Estella,19/01/2016,4.5,9.0,0.7,0.0,Ancin
Tierra_Estella,20/01/2016,3.9,10.8,-0.3,0.0,Ancin
Tierra_Estella,21/01/2016,5.2,13.7,-1.1,0.0,Ancin
Tierra_Estella,22/01/2016,5.9,10.6,0.9,0.4,Ancin
Tierra_Estella,23/01/2016,8.1,13.4,4.7,0.2,Ancin
Tierra_Estella,24/01/2016,7.3,9.5,4.0,0.2,Ancin
Tierra_Estella,25/01/2016,8.4,9.1,7.5,0.2,Ancin
Tierra_Estella,26/01/2016,8.0,9.3,6.8,0.2,Ancin
Tierra_Estella,27/01/2016,7.5,8.1,6.4,0.4,Ancin
Tierra_Estella,28/01/2016,7.8,10.1,7.0,4.3,Ancin
Tierra_Estella,29/01/2016,6.9,9.8,1.3,0.2,Ancin
Tierra_Estella,30/01/2016,4.4,10.8,-0.9,0.2,Ancin
Tierra_Estella,31/01/2016,10.2,14.1,4.8,0.0,Ancin
Tierra_Estella,01/02/2016,10.0,15.6,5.1,0.0,Ancin
Tierra_Estella,02/02/2016,8.9,12.9,3.8,0.0,Ancin
Tierra_Estella,03/02/2016,8.6,11.2,4.4,0.0,Ancin
Tierra_Estella,04/02/2016,5.9,12.0,0.6,0.0,Ancin
Tierra_Estella,05/02/2016,2.6,8.7,-1.7,0.2,Ancin
Tierra_Estella,06/02/2016,4.6,13.3,-2.7,2.1,Ancin
Tierra_Estella,07/02/2016,7.1,11.9,3.6,0.2,Ancin
Tierra_Estella,08/02/2016,8.5,17.4,0.6,0.0,Ancin
Tierra_Estella,09/02/2016,10.9,16.3,6.6,3.5,Ancin
Tierra_Estella,10/02/2016,7.6,9.5,6.5,20.2,Ancin
Tierra_Estella,11/02/2016,7.6,10.6,5.9,2.7,Ancin
Tierra_Estella,12/02/2016,10.6,14.6,6.9,8.0,Ancin
Tierra_Estella,13/02/2016,13.6,18.5,10.0,5.2,Ancin
Tierra_Estella,14/02/2016,7.3,12.9,4.6,1.2,Ancin
Tierra_Estella,15/02/2016,3.8,8.0,0.9,11.3,Ancin
Tierra_Estella,16/02/2016,3.3,6.6,0.4,0.0,Ancin
Tierra_Estella,17/02/2016,2.3,7.1,-2.8,0.0,Ancin
Tierra_Estella,18/02/2016,4.6,9.4,0.7,2.1,Ancin
Tierra_Estella,19/02/2016,4.0,11.4,-1.3,0.0,Ancin
Tierra_Estella,20/02/2016,5.4,15.1,-2.0,0.2,Ancin
Tierra_Estella,21/02/2016,6.8,14.8,0.1,0.0,Ancin
Tierra_Estella,22/02/2016,7.3,15.7,0.5,0.0,Ancin
Tierra_Estella,23/02/2016,9.4,16.5,3.4,0.0,Ancin
Tierra_Estella,24/02/2016,7.0,14.6,0.5,0.2,Ancin
Tierra_Estella,25/02/2016,9.1,13.7,5.9,0.4,Ancin
Tierra_Estella,26/02/2016,8.1,13.7,4.1,8.2,Ancin
Tierra_Estella,27/02/2016,4.1,6.0,2.6,19.4,Ancin
Tierra_Estella,28/02/2016,6.4,9.0,3.4,0.2,Ancin
Tierra_Estella,29/02/2016,6.9,10.0,4.8,0.2,Ancin
Tierra_Estella,01/03/2016,8.1,14.5,4.0,0.0,Ancin
Tierra_Estella,02/03/2016,8.8,15.5,2.8,0.0,Ancin
Tierra_Estella,03/03/2016,7.7,10.9,4.0,0.4,Ancin
Tierra_Estella,04/03/2016,6.4,14.1,0.7,5.2,Ancin
Tierra_Estella,05/03/2016,5.6,10.3,3.0,0.0,Ancin
Tierra_Estella,06/03/2016,5.5,8.7,2.8,0.4,Ancin
Tierra_Estella,07/03/2016,5.8,9.9,3.5,2.7,Ancin
Tierra_Estella,08/03/2016,6.2,10.6,1.7,0.2,Ancin
Tierra_Estella,09/03/2016,6.0,9.9,2.6,6.6,Ancin
Tierra_Estella,10/03/2016,4.4,8.1,0.6,22.9,Ancin
Tierra_Estella,11/03/2016,6.5,10.9,3.6,0.0,Ancin
Tierra_Estella,12/03/2016,6.2,10.9,1.7,0.0,Ancin
Tierra_Estella,13/03/2016,6.7,12.8,1.3,0.0,Ancin
Tierra_Estella,14/03/2016,3.9,7.6,0.5,2.5,Ancin
Tierra_Estella,15/03/2016,5.1,12.8,-0.7,0.0,Ancin
Tierra_Estella,16/03/2016,6.2,9.9,2.7,0.0,Ancin
Tierra_Estella,17/03/2016,6.8,12.6,1.7,0.0,Ancin
Tierra_Estella,18/03/2016,7.2,11.9,1.9,1.9,Ancin
Tierra_Estella,19/03/2016,8.1,9.6,5.4,7.4,Ancin
Tierra_Estella,20/03/2016,8.2,12.6,3.6,0.0,Ancin
Tierra_Estella,21/03/2016,8.9,16.1,3.5,0.0,Ancin
Tierra_Estella,22/03/2016,8.8,13.3,5.7,0.0,Ancin
Tierra_Estella,23/03/2016,8.3,13.4,5.2,0.0,Ancin
Tierra_Estella,24/03/2016,9.6,16.7,4.4,0.0,Ancin
Tierra_Estella,25/03/2016,8.6,13.1,2.7,1.9,Ancin
Tierra_Estella,26/03/2016,13.1,21.3,5.6,0.6,Ancin
Tierra_Estella,27/03/2016,10.5,16.1,5.7,1.4,Ancin
Tierra_Estella,28/03/2016,11.3,16.8,6.9,0.0,Ancin
Tierra_Estella,29/03/2016,12.6,20.2,7.4,0.4,Ancin
Tierra_Estella,30/03/2016,13.3,24.4,4.2,0.0,Ancin
Tierra_Estella,31/03/2016,7.9,13.4,4.7,13.3,Ancin
Tierra_Estella,01/04/2016,7.4,13.3,2.1,0.0,Ancin
Tierra_Estella,02/04/2016,8.8,17.8,-1.8,0.0,Ancin
Tierra_Estella,03/04/2016,10.0,18.0,4.6,0.8,Ancin
Tierra_Estella,04/04/2016,6.9,11.1,1.2,6.0,Ancin
Tierra_Estella,05/04/2016,8.7,12.4,5.8,0.0,Ancin
Tierra_Estella,06/04/2016,9.0,14.9,4.2,0.0,Ancin
Tierra_Estella,07/04/2016,8.1,12.2,3.1,0.0,Ancin
Tierra_Estella,08/04/2016,5.7,9.8,2.1,3.0,Ancin
Tierra_Estella,09/04/2016,8.4,15.2,2.5,0.0,Ancin
Tierra_Estella,10/04/2016,9.6,18.3,0.5,4.6,Ancin
Tierra_Estella,11/04/2016,7.0,14.2,0.4,1.2,Ancin
Tierra_Estella,12/04/2016,7.3,14.9,-0.6,1.8,Ancin
Tierra_Estella,13/04/2016,8.7,17.2,0.5,0.0,Ancin
Tierra_Estella,14/04/2016,11.2,19.9,3.3,1.0,Ancin
Tierra_Estella,15/04/2016,14.0,22.8,7.9,0.0,Ancin
Tierra_Estella,16/04/2016,11.6,17.9,7.5,3.0,Ancin
Tierra_Estella,17/04/2016,10.9,17.4,5.9,0.0,Ancin
Tierra_Estella,18/04/2016,10.6,18.4,1.9,0.0,Ancin
Tierra_Estella,19/04/2016,11.3,15.5,3.7,0.0,Ancin
Tierra_Estella,20/04/2016,11.1,14.4,7.8,5.0,Ancin
Tierra_Estella,21/04/2016,12.6,18.8,4.9,0.0,Ancin
Tierra_Estella,22/04/2016,9.0,13.7,4.2,8.6,Ancin
Tierra_Estella,23/04/2016,10.3,15.8,5.0,0.2,Ancin
Tierra_Estella,24/04/2016,8.7,12.7,3.3,0.2,Ancin
Tierra_Estella,25/04/2016,8.7,15.4,2.7,0.0,Ancin
Tierra_Estella,26/04/2016,9.9,18.2,2.6,0.0,Ancin
Tierra_Estella,27/04/2016,9.8,14.9,5.5,0.0,Ancin
Tierra_Estella,28/04/2016,8.5,13.6,1.1,0.0,Ancin
Tierra_Estella,29/04/2016,9.5,17.6,-1.1,0.0,Ancin
Tierra_Estella,30/04/2016,8.0,12.1,4.1,1.4,Ancin
Tierra_Estella,01/05/2016,7.0,12.8,1.0,0.2,Ancin
Tierra_Estella,02/05/2016,10.2,18.8,0.4,0.0,Ancin
Tierra_Estella,03/05/2016,11.3,19.2,5.2,0.0,Ancin
Tierra_Estella,04/05/2016,12.2,24.3,-0.1,0.0,Ancin
Tierra_Estella,05/05/2016,15.0,23.2,3.2,0.0,Ancin
Tierra_Estella,06/05/2016,13.4,17.1,11.6,2.6,Ancin
Tierra_Estella,07/05/2016,12.9,17.6,10.6,14.8,Ancin
Tierra_Estella,08/05/2016,12.1,15.2,10.4,11.0,Ancin
Tierra_Estella,09/05/2016,13.1,20.1,6.9,40.4,Ancin
Tierra_Estella,10/05/2016,12.1,17.8,6.1,0.0,Ancin
Tierra_Estella,11/05/2016,12.7,18.8,5.7,0.2,Ancin
Tierra_Estella,12/05/2016,10.4,18.1,4.0,5.2,Ancin
Tierra_Estella,13/05/2016,10.8,15.2,4.4,0.0,Ancin
Tierra_Estella,14/05/2016,13.5,17.1,10.9,0.0,Ancin
Tierra_Estella,15/05/2016,13.2,17.1,9.4,0.0,Ancin
Tierra_Estella,16/05/2016,12.6,18.2,6.9,0.0,Ancin
Tierra_Estella,17/05/2016,13.0,22.4,3.3,0.0,Ancin
Tierra_Estella,18/05/2016,13.8,23.0,5.4,0.0,Ancin
Tierra_Estella,19/05/2016,14.0,18.2,8.3,0.0,Ancin
Tierra_Estella,20/05/2016,17.4,27.4,7.9,0.0,Ancin
Tierra_Estella,21/05/2016,17.7,27.3,6.1,0.0,Ancin
Tierra_Estella,22/05/2016,12.3,16.9,3.7,7.2,Ancin
Tierra_Estella,23/05/2016,10.7,19.0,1.9,0.0,Ancin
Tierra_Estella,24/05/2016,14.3,22.3,6.4,0.0,Ancin
Tierra_Estella,25/05/2016,17.1,24.3,10.6,0.0,Ancin
Tierra_Estella,26/05/2016,17.4,24.8,12.2,6.4,Ancin
Tierra_Estella,27/05/2016,17.5,26.7,9.0,4.8,Ancin
Tierra_Estella,28/05/2016,15.0,24.0,9.1,2.4,Ancin
Tierra_Estella,29/05/2016,14.3,20.7,8.6,1.6,Ancin
Tierra_Estella,30/05/2016,13.3,18.3,9.8,0.4,Ancin
Tierra_Estella,31/05/2016,13.8,19.1,7.2,0.0,Ancin
Tierra_Estella,01/06/2016,13.4,21.5,4.2,2.6,Ancin
Tierra_Estella,02/06/2016,16.1,23.9,8.3,0.0,Ancin
Tierra_Estella,03/06/2016,17.5,27.9,7.4,1.4,Ancin
Tierra_Estella,04/06/2016,17.6,24.0,11.7,0.2,Ancin
Tierra_Estella,05/06/2016,17.9,27.4,7.2,0.0,Ancin
Tierra_Estella,06/06/2016,18.5,27.7,10.2,0.0,Ancin
Tierra_Estella,07/06/2016,20.3,30.2,10.5,0.0,Ancin
Tierra_Estella,08/06/2016,21.9,31.8,10.6,0.0,Ancin
Tierra_Estella,09/06/2016,21.8,30.4,12.6,0.0,Ancin
Tierra_Estella,10/06/2016,17.5,21.7,13.0,0.0,Ancin
Tierra_Estella,11/06/2016,16.1,21.6,10.0,0.0,Ancin
Tierra_Estella,12/06/2016,18.3,26.6,9.4,0.0,Ancin
Tierra_Estella,13/06/2016,19.0,25.9,14.9,0.0,Ancin
Tierra_Estella,14/06/2016,18.0,24.9,13.3,0.0,Ancin
Tierra_Estella,15/06/2016,14.4,21.0,7.9,2.4,Ancin
Tierra_Estella,16/06/2016,12.8,19.2,7.7,0.4,Ancin
Tierra_Estella,17/06/2016,12.4,19.2,8.9,5.6,Ancin
Tierra_Estella,18/06/2016,12.5,17.6,7.5,0.0,Ancin
Tierra_Estella,19/06/2016,14.1,20.6,7.9,0.0,Ancin
Tierra_Estella,20/06/2016,19.0,29.0,7.3,0.0,Ancin
Tierra_Estella,21/06/2016,21.8,33.5,8.7,0.0,Ancin
Tierra_Estella,22/06/2016,25.5,34.8,12.0,0.0,Ancin
Tierra_Estella,23/06/2016,24.7,34.5,16.2,0.0,Ancin
Tierra_Estella,24/06/2016,19.8,26.8,16.3,6.2,Ancin
Tierra_Estella,25/06/2016,16.6,19.8,13.6,0.4,Ancin
Tierra_Estella,26/06/2016,15.8,21.0,11.7,0.0,Ancin
Tierra_Estella,27/06/2016,18.8,27.8,10.6,0.0,Ancin
Tierra_Estella,28/06/2016,20.4,31.9,9.8,0.0,Ancin
Tierra_Estella,29/06/2016,18.9,29.1,13.3,0.0,Ancin
Tierra_Estella,30/06/2016,21.1,30.4,12.2,0.0,Ancin
Tierra_Estella,01/07/2016,20.9,30.7,14.8,0.0,Ancin
Tierra_Estella,02/07/2016,18.0,22.4,12.5,0.0,Ancin
Tierra_Estella,03/07/2016,20.0,29.4,8.9,0.0,Ancin
Tierra_Estella,04/07/2016,21.6,32.1,12.6,18.6,Ancin
Tierra_Estella,05/07/2016,20.2,25.2,15.9,0.2,Ancin
Tierra_Estella,06/07/2016,23.8,33.6,15.9,0.0,Ancin
Tierra_Estella,07/07/2016,23.4,31.3,16.4,5.4,Ancin
Tierra_Estella,08/07/2016,22.8,32.3,16.1,0.0,Ancin
Tierra_Estella,09/07/2016,24.6,35.0,13.7,0.0,Ancin
Tierra_Estella,10/07/2016,25.0,35.7,17.0,0.0,Ancin
Tierra_Estella,11/07/2016,20.2,27.2,16.5,0.0,Ancin
Tierra_Estella,12/07/2016,18.0,22.4,15.2,0.0,Ancin
Tierra_Estella,13/07/2016,15.9,21.3,11.1,0.0,Ancin
Tierra_Estella,14/07/2016,14.5,20.3,8.3,0.0,Ancin
Tierra_Estella,15/07/2016,17.7,26.6,8.8,0.0,Ancin
Tierra_Estella,16/07/2016,21.0,31.6,9.6,0.0,Ancin
Tierra_Estella,17/07/2016,22.1,34.0,9.0,0.0,Ancin
Tierra_Estella,18/07/2016,24.7,34.8,12.1,0.0,Ancin
Tierra_Estella,19/07/2016,26.5,36.8,12.7,0.0,Ancin
Tierra_Estella,20/07/2016,23.6,31.4,17.8,0.2,Ancin
Tierra_Estella,21/07/2016,21.2,30.9,17.2,0.0,Ancin
Tierra_Estella,22/07/2016,19.2,22.9,15.9,0.4,Ancin
Tierra_Estella,23/07/2016,18.4,22.3,14.7,0.2,Ancin
Tierra_Estella,24/07/2016,19.8,26.7,15.4,0.0,Ancin
Tierra_Estella,25/07/2016,21.4,30.7,13.7,0.0,Ancin
Tierra_Estella,26/07/2016,21.8,29.9,15.2,0.0,Ancin
Tierra_Estella,27/07/2016,20.3,26.2,15.0,0.0,Ancin
Tierra_Estella,28/07/2016,21.7,31.9,14.4,0.0,Ancin
Tierra_Estella,29/07/2016,22.1,30.7,11.5,0.0,Ancin
Tierra_Estella,30/07/2016,23.5,35.0,14.6,0.4,Ancin
Tierra_Estella,31/07/2016,19.4,23.7,16.7,0.4,Ancin
Tierra_Estella,01/08/2016,19.5,27.2,12.6,0.0,Ancin
Tierra_Estella,02/08/2016,21.6,32.8,12.2,0.0,Ancin
Tierra_Estella,03/08/2016,22.5,34.9,10.6,0.0,Ancin
Tierra_Estella,04/08/2016,21.9,30.4,17.1,0.0,Ancin
Tierra_Estella,05/08/2016,18.9,24.1,14.5,0.0,Ancin
Tierra_Estella,06/08/2016,19.7,27.1,11.5,0.0,Ancin
Tierra_Estella,07/08/2016,23.7,33.2,16.0,0.0,Ancin
Tierra_Estella,08/08/2016,22.7,30.7,17.0,0.0,Ancin
Tierra_Estella,09/08/2016,19.1,24.4,14.7,0.2,Ancin
Tierra_Estella,10/08/2016,16.9,22.2,12.2,0.0,Ancin
Tierra_Estella,11/08/2016,17.0,23.3,11.6,0.0,Ancin
Tierra_Estella,12/08/2016,19.7,31.3,10.1,0.0,Ancin
Tierra_Estella,13/08/2016,21.2,33.1,8.8,0.0,Ancin
Tierra_Estella,14/08/2016,22.8,33.5,11.6,0.0,Ancin
Tierra_Estella,15/08/2016,22.2,32.4,14.5,7.2,Ancin
Tierra_Estella,16/08/2016,22.7,32.6,13.2,0.0,Ancin
Tierra_Estella,17/08/2016,22.2,31.4,15.4,0.0,Ancin
Tierra_Estella,18/08/2016,21.7,29.6,14.3,0.0,Ancin
Tierra_Estella,19/08/2016,20.8,32.3,10.7,0.0,Ancin
Tierra_Estella,20/08/2016,18.5,22.4,12.7,0.0,Ancin
Tierra_Estella,21/08/2016,17.4,24.9,8.3,0.0,Ancin
Tierra_Estella,22/08/2016,20.1,33.1,8.0,0.0,Ancin
Tierra_Estella,23/08/2016,22.6,35.0,10.1,0.0,Ancin
Tierra_Estella,24/08/2016,25.0,34.1,13.7,0.0,Ancin
Tierra_Estella,25/08/2016,24.1,33.8,12.3,0.0,Ancin
Tierra_Estella,26/08/2016,22.9,33.0,11.7,0.0,Ancin
Tierra_Estella,27/08/2016,22.9,33.6,12.4,0.0,Ancin
Tierra_Estella,28/08/2016,21.4,29.8,15.4,0.0,Ancin
Tierra_Estella,29/08/2016,18.5,22.4,16.0,0.0,Ancin
Tierra_Estella,30/08/2016,20.2,27.7,13.7,0.0,Ancin
Tierra_Estella,31/08/2016,19.1,28.8,10.5,0.0,Ancin
Tierra_Estella,01/09/2016,22.3,32.2,13.0,0.8,Ancin
Tierra_Estella,02/09/2016,23.9,35.2,14.2,0.0,Ancin
Tierra_Estella,03/09/2016,24.1,34.9,13.8,0.0,Ancin
Tierra_Estella,04/09/2016,25.2,36.0,13.6,0.0,Ancin
Tierra_Estella,05/09/2016,23.3,32.2,13.6,0.0,Ancin
Tierra_Estella,06/09/2016,25.4,37.3,14.4,0.0,Ancin
Tierra_Estella,07/09/2016,22.0,32.8,10.8,0.0,Ancin
Tierra_Estella,08/09/2016,20.4,24.8,17.0,0.0,Ancin
Tierra_Estella,09/09/2016,19.9,27.6,16.0,0.0,Ancin
Tierra_Estella,10/09/2016,21.0,30.4,11.9,0.0,Ancin
Tierra_Estella,11/09/2016,20.7,31.2,11.2,0.0,Ancin
Tierra_Estella,12/09/2016,23.8,32.4,13.0,0.0,Ancin
Tierra_Estella,13/09/2016,19.0,26.9,12.7,9.0,Ancin
Tierra_Estella,14/09/2016,13.1,19.9,8.0,4.0,Ancin
Tierra_Estella,15/09/2016,13.2,18.1,8.5,10.2,Ancin
Tierra_Estella,16/09/2016,15.2,18.6,12.6,1.6,Ancin
Tierra_Estella,17/09/2016,13.6,15.8,10.3,0.6,Ancin
Tierra_Estella,18/09/2016,14.2,18.5,10.4,0.0,Ancin
Tierra_Estella,19/09/2016,14.6,19.4,9.6,0.0,Ancin
Tierra_Estella,20/09/2016,15.7,21.5,10.6,0.0,Ancin
Tierra_Estella,21/09/2016,15.8,26.0,5.0,0.0,Ancin
Tierra_Estella,22/09/2016,17.6,26.2,8.2,0.0,Ancin
Tierra_Estella,23/09/2016,18.6,25.1,12.6,0.0,Ancin
Tierra_Estella,24/09/2016,17.8,25.5,8.1,0.0,Ancin
Tierra_Estella,25/09/2016,17.2,22.2,12.1,0.0,Ancin
Tierra_Estella,26/09/2016,16.5,24.5,10.7,0.0,Ancin
Tierra_Estella,27/09/2016,16.5,22.0,8.1,0.0,Ancin
Tierra_Estella,28/09/2016,17.3,25.1,8.3,0.0,Ancin
Tierra_Estella,29/09/2016,14.7,26.4,4.7,0.0,Ancin
Tierra_Estella,30/09/2016,17.1,26.2,6.0,0.0,Ancin
Tierra_Estella,01/10/2016,16.9,22.3,12.6,0.2,Ancin
Tierra_Estella,02/10/2016,16.1,23.9,8.8,0.0,Ancin
Tierra_Estella,03/10/2016,17.3,26.1,8.1,0.0,Ancin
Tierra_Estella,04/10/2016,19.0,28.6,12.7,0.0,Ancin
Tierra_Estella,05/10/2016,15.8,22.9,7.6,0.0,Ancin
Tierra_Estella,06/10/2016,15.9,22.4,8.6,0.0,Ancin
Tierra_Estella,07/10/2016,13.3,23.7,3.6,2.0,Ancin
Tierra_Estella,08/10/2016,12.8,20.0,4.9,0.0,Ancin
Tierra_Estella,09/10/2016,13.1,18.2,5.9,0.0,Ancin
Tierra_Estella,10/10/2016,10.2,18.4,1.5,0.0,Ancin
Tierra_Estella,11/10/2016,9.7,20.3,-0.9,0.0,Ancin
Tierra_Estella,12/10/2016,13.4,16.4,12.1,4.6,Ancin
Tierra_Estella,13/10/2016,13.3,16.7,11.8,7.0,Ancin
Tierra_Estella,14/10/2016,11.4,16.3,3.8,0.4,Ancin
Tierra_Estella,15/10/2016,11.2,19.8,1.9,0.2,Ancin
Tierra_Estella,16/10/2016,13.0,19.2,8.6,0.0,Ancin
Tierra_Estella,17/10/2016,14.8,19.1,11.6,0.2,Ancin
Tierra_Estella,18/10/2016,14.8,20.0,8.6,0.2,Ancin
Tierra_Estella,19/10/2016,10.5,19.0,3.9,0.0,Ancin
Tierra_Estella,20/10/2016,7.6,13.9,2.0,0.0,Ancin
Tierra_Estella,21/10/2016,7.4,16.8,-1.3,0.0,Ancin
Tierra_Estella,22/10/2016,10.2,14.0,2.1,1.8,Ancin
Tierra_Estella,23/10/2016,15.4,19.9,12.4,3.8,Ancin
Tierra_Estella,24/10/2016,13.1,16.7,9.3,0.2,Ancin
Tierra_Estella,25/10/2016,14.9,21.6,9.6,4.8,Ancin
Tierra_Estella,26/10/2016,15.9,23.8,10.8,0.2,Ancin
Tierra_Estella,27/10/2016,14.1,24.2,2.8,0.0,Ancin
Tierra_Estella,28/10/2016,9.2,21.5,0.1,0.0,Ancin
Tierra_Estella,29/10/2016,9.4,23.0,0.2,0.0,Ancin
Tierra_Estella,30/10/2016,9.6,23.2,0.5,0.2,Ancin
Tierra_Estella,31/10/2016,7.9,14.8,-0.4,0.2,Ancin
Tierra_Estella,01/11/2016,10.7,15.0,3.5,0.0,Ancin
Tierra_Estella,02/11/2016,9.8,22.7,1.7,0.0,Ancin
Tierra_Estella,03/11/2016,9.5,21.1,1.6,0.2,Ancin
Tierra_Estella,04/11/2016,7.7,11.9,1.8,5.4,Ancin
Tierra_Estella,05/11/2016,9.6,11.5,7.1,23.8,Ancin
Tierra_Estella,06/11/2016,6.4,10.0,2.2,0.0,Ancin
Tierra_Estella,07/11/2016,5.2,9.2,1.5,0.2,Ancin
Tierra_Estella,08/11/2016,5.6,9.4,2.8,3.6,Ancin
Tierra_Estella,09/11/2016,8.9,12.7,3.2,3.0,Ancin
Tierra_Estella,10/11/2016,7.1,14.1,2.2,0.0,Ancin
Tierra_Estella,11/11/2016,8.9,13.0,4.5,0.0,Ancin
Tierra_Estella,12/11/2016,8.6,14.2,2.8,2.6,Ancin
Tierra_Estella,13/11/2016,11.0,14.4,8.6,0.2,Ancin
Tierra_Estella,14/11/2016,9.2,11.5,7.7,0.2,Ancin
Tierra_Estella,15/11/2016,9.1,13.4,6.3,0.0,Ancin
Tierra_Estella,16/11/2016,11.0,18.2,6.2,0.0,Ancin
Tierra_Estella,17/11/2016,10.2,19.7,2.9,0.0,Ancin
Tierra_Estella,18/11/2016,7.4,13.5,3.1,0.0,Ancin
Tierra_Estella,19/11/2016,7.0,12.0,0.1,0.2,Ancin
Tierra_Estella,20/11/2016,9.6,11.9,8.5,2.2,Ancin
Tierra_Estella,21/11/2016,9.7,15.6,4.2,5.2,Ancin
Tierra_Estella,22/11/2016,5.1,8.2,1.3,6.0,Ancin
Tierra_Estella,23/11/2016,4.0,6.2,2.6,33.8,Ancin
Tierra_Estella,24/11/2016,4.9,9.4,-0.3,0.6,Ancin
Tierra_Estella,25/11/2016,2.7,7.7,-1.8,0.4,Ancin
Tierra_Estella,26/11/2016,5.0,7.0,2.0,5.8,Ancin
Tierra_Estella,27/11/2016,7.8,12.2,1.9,0.0,Ancin
Tierra_Estella,28/11/2016,6.5,12.6,-0.2,0.6,Ancin
Tierra_Estella,29/11/2016,7.1,9.9,2.9,0.2,Ancin
Tierra_Estella,30/11/2016,9.1,10.4,8.2,0.2,Ancin
Tierra_Estella,01/12/2016,6.0,11.1,-0.1,0.4,Ancin
Tierra_Estella,02/12/2016,4.1,11.5,-0.4,0.2,Ancin
Tierra_Estella,03/12/2016,2.8,6.2,-1.0,0.0,Ancin
Tierra_Estella,04/12/2016,8.2,11.0,5.3,0.0,Ancin
Tierra_Estella,05/12/2016,9.4,13.8,2.4,0.0,Ancin
Tierra_Estella,06/12/2016,5.0,13.1,1.3,0.0,Ancin
Tierra_Estella,07/12/2016,5.0,9.1,-0.6,0.0,Ancin
Tierra_Estella,08/12/2016,7.0,8.0,6.1,0.0,Ancin
Tierra_Estella,09/12/2016,5.4,7.9,3.4,0.0,Ancin
Tierra_Estella,10/12/2016,4.0,5.4,2.2,0.0,Ancin
Tierra_Estella,11/12/2016,6.8,15.5,0.3,0.0,Ancin
Tierra_Estella,12/12/2016,9.8,16.1,4.3,0.0,Ancin
Tierra_Estella,13/12/2016,3.5,4.2,2.7,0.0,Ancin
Tierra_Estella,14/12/2016,4.1,5.6,2.7,0.0,Ancin
Tierra_Estella,15/12/2016,5.2,7.1,3.1,0.0,Ancin
Tierra_Estella,16/12/2016,6.7,8.0,2.0,0.0,Ancin
Tierra_Estella,17/12/2016,5.0,13.8,0.3,0.4,Ancin
Tierra_Estella,18/12/2016,2.2,10.7,-2.6,0.0,Ancin
Tierra_Estella,19/12/2016,3.6,9.8,-4.4,0.0,Ancin
Tierra_Estella,20/12/2016,6.3,7.8,4.4,0.0,Ancin
Tierra_Estella,21/12/2016,7.7,10.7,4.9,0.0,Ancin
Tierra_Estella,22/12/2016,7.7,9.9,5.7,0.0,Ancin
Tierra_Estella,23/12/2016,8.4,13.8,3.0,0.0,Ancin
Tierra_Estella,24/12/2016,9.7,12.4,5.1,0.0,Ancin
Tierra_Estella,25/12/2016,8.3,12.7,1.0,0.0,Ancin
Tierra_Estella,26/12/2016,4.5,10.1,-2.2,0.0,Ancin
Tierra_Estella,27/12/2016,3.4,12.6,-1.7,0.0,Ancin
Tierra_Estella,28/12/2016,1.3,6.5,-2.3,0.0,Ancin
Tierra_Estella,29/12/2016,0.1,13.1,-6.2,0.0,Ancin
Tierra_Estella,30/12/2016,-1.2,2.6,-3.7,0.0,Ancin
Tierra_Estella,31/12/2016,1.1,3.5,-1.8,0.0,Ancin
