Comarca,Fecha, Temperatura media, Temperatura maxima, Temperatura minima, Precipitacion acumulada,Localidad
Tierra_Estella,01/01/2014,0.0,9.5,3.5,2.0,Arroniz
Tierra_Estella,02/01/2014,0.0,11.5,5.4,0.3,Arroniz
Tierra_Estella,03/01/2014,0.0,13.0,8.5,0.5,Arroniz
Tierra_Estella,04/01/2014,0.0,11.0,8.0,6.0,Arroniz
Tierra_Estella,05/01/2014,0.0,11.0,2.0,0.5,Arroniz
Tierra_Estella,06/01/2014,0.0,11.0,4.5,0.0,Arroniz
Tierra_Estella,07/01/2014,0.0,12.5,6.5,0.0,Arroniz
Tierra_Estella,08/01/2014,0.0,12.5,8.0,0.0,Arroniz
Tierra_Estella,09/01/2014,0.0,12.0,7.5,0.0,Arroniz
Tierra_Estella,10/01/2014,0.0,10.0,3.5,0.0,Arroniz
Tierra_Estella,11/01/2014,0.0,7.5,2.0,0.0,Arroniz
Tierra_Estella,12/01/2014,0.0,7.4,1.5,1.7,Arroniz
Tierra_Estella,13/01/2014,0.0,11.0,3.5,0.7,Arroniz
Tierra_Estella,14/01/2014,0.0,11.0,4.5,7.0,Arroniz
Tierra_Estella,15/01/2014,0.0,9.5,4.0,2.5,Arroniz
Tierra_Estella,16/01/2014,0.0,10.4,5.5,0.0,Arroniz
Tierra_Estella,17/01/2014,0.0,10.0,3.0,0.0,Arroniz
Tierra_Estella,18/01/2014,0.0,6.5,3.5,6.5,Arroniz
Tierra_Estella,19/01/2014,0.0,8.0,2.0,0.0,Arroniz
Tierra_Estella,20/01/2014,0.0,6.5,2.5,2.0,Arroniz
Tierra_Estella,21/01/2014,0.0,9.5,3.5,4.5,Arroniz
Tierra_Estella,22/01/2014,0.0,10.0,4.5,0.0,Arroniz
Tierra_Estella,23/01/2014,0.0,9.5,6.0,1.4,Arroniz
Tierra_Estella,24/01/2014,0.0,12.0,6.5,10.0,Arroniz
Tierra_Estella,25/01/2014,0.0,15.0,9.0,0.0,Arroniz
Tierra_Estella,26/01/2014,0.0,14.5,10.5,0.0,Arroniz
Tierra_Estella,27/01/2014,0.0,9.0,7.0,6.0,Arroniz
Tierra_Estella,28/01/2014,0.0,7.0,4.0,1.0,Arroniz
Tierra_Estella,29/01/2014,0.0,9.0,4.5,0.0,Arroniz
Tierra_Estella,30/01/2014,0.0,7.0,3.5,3.5,Arroniz
Tierra_Estella,31/01/2014,0.0,9.0,5.5,6.7,Arroniz
Tierra_Estella,01/02/2014,0.0,9.0,7.0,4.0,Arroniz
Tierra_Estella,02/02/2014,0.0,8.5,2.5,0.0,Arroniz
Tierra_Estella,03/02/2014,0.0,4.0,1.5,1.4,Arroniz
Tierra_Estella,04/02/2014,0.0,7.5,0.0,3.7,Arroniz
Tierra_Estella,05/02/2014,0.0,10.0,6.5,0.0,Arroniz
Tierra_Estella,06/02/2014,0.0,13.5,3.0,1.6,Arroniz
Tierra_Estella,07/02/2014,0.0,11.0,3.5,1.9,Arroniz
Tierra_Estella,08/02/2014,0.0,11.5,8.6,0.0,Arroniz
Tierra_Estella,09/02/2014,0.0,7.0,2.0,6.7,Arroniz
Tierra_Estella,10/02/2014,0.0,6.0,2.0,0.0,Arroniz
Tierra_Estella,11/02/2014,0.0,4.5,0.0,3.5,Arroniz
Tierra_Estella,12/02/2014,0.0,7.5,1.0,0.0,Arroniz
Tierra_Estella,13/02/2014,0.0,16.5,5.0,0.0,Arroniz
Tierra_Estella,14/02/2014,0.0,20.0,4.5,0.0,Arroniz
Tierra_Estella,15/02/2014,0.0,11.0,6.5,0.0,Arroniz
Tierra_Estella,16/02/2014,0.0,12.0,1.5,0.0,Arroniz
Tierra_Estella,17/02/2014,0.0,12.5,1.0,0.0,Arroniz
Tierra_Estella,18/02/2014,0.0,10.0,2.5,0.0,Arroniz
Tierra_Estella,19/02/2014,0.0,11.5,4.0,0.0,Arroniz
Tierra_Estella,20/02/2014,0.0,15.5,3.5,0.0,Arroniz
Tierra_Estella,21/02/2014,0.0,10.5,4.0,0.0,Arroniz
Tierra_Estella,22/02/2014,0.0,12.0,0.5,0.0,Arroniz
Tierra_Estella,23/02/2014,0.0,14.5,1.0,0.0,Arroniz
Tierra_Estella,24/02/2014,0.0,13.5,2.5,0.0,Arroniz
Tierra_Estella,25/02/2014,0.0,14.0,3.5,7.6,Arroniz
Tierra_Estella,26/02/2014,0.0,9.5,2.5,0.8,Arroniz
Tierra_Estella,27/02/2014,0.0,11.5,2.0,2.5,Arroniz
Tierra_Estella,28/02/2014,0.0,8.5,3.0,8.7,Arroniz
Tierra_Estella,01/03/2014,0.0,10.0,2.5,18.5,Arroniz
Tierra_Estella,02/03/2014,0.0,14.5,3.5,1.3,Arroniz
Tierra_Estella,03/03/2014,0.0,10.5,2.0,20.5,Arroniz
Tierra_Estella,04/03/2014,0.0,9.5,2.5,4.2,Arroniz
Tierra_Estella,05/03/2014,0.0,12.5,3.5,0.0,Arroniz
Tierra_Estella,06/03/2014,0.0,16.5,5.4,0.0,Arroniz
Tierra_Estella,07/03/2014,0.0,16.5,4.0,0.0,Arroniz
Tierra_Estella,08/03/2014,0.0,17.5,1.0,0.0,Arroniz
Tierra_Estella,09/03/2014,0.0,17.5,6.0,0.0,Arroniz
Tierra_Estella,10/03/2014,0.0,20.0,5.0,0.0,Arroniz
Tierra_Estella,11/03/2014,0.0,19.5,6.0,0.0,Arroniz
Tierra_Estella,12/03/2014,0.0,16.5,6.5,0.0,Arroniz
Tierra_Estella,13/03/2014,0.0,15.5,6.0,0.0,Arroniz
Tierra_Estella,14/03/2014,0.0,20.0,5.0,0.0,Arroniz
Tierra_Estella,15/03/2014,0.0,15.0,5.5,0.0,Arroniz
Tierra_Estella,16/03/2014,0.0,22.0,6.0,0.0,Arroniz
Tierra_Estella,17/03/2014,0.0,22.5,7.5,0.0,Arroniz
Tierra_Estella,18/03/2014,0.0,15.0,8.5,0.0,Arroniz
Tierra_Estella,19/03/2014,0.0,19.5,4.0,0.0,Arroniz
Tierra_Estella,20/03/2014,0.0,20.5,7.5,0.0,Arroniz
Tierra_Estella,21/03/2014,0.0,19.0,8.0,0.5,Arroniz
Tierra_Estella,22/03/2014,0.0,14.5,8.5,0.0,Arroniz
Tierra_Estella,23/03/2014,0.0,9.5,3.5,0.0,Arroniz
Tierra_Estella,24/03/2014,0.0,8.5,2.5,8.1,Arroniz
Tierra_Estella,25/03/2014,0.0,8.5,3.0,17.5,Arroniz
Tierra_Estella,26/03/2014,0.0,7.5,1.5,11.5,Arroniz
Tierra_Estella,27/03/2014,0.0,12.5,2.0,0.0,Arroniz
Tierra_Estella,28/03/2014,0.0,12.5,3.5,0.0,Arroniz
Tierra_Estella,29/03/2014,0.0,11.5,6.0,0.0,Arroniz
Tierra_Estella,30/03/2014,0.0,12.5,7.5,0.0,Arroniz
Tierra_Estella,31/03/2014,0.0,17.5,6.5,0.0,Arroniz
Tierra_Estella,01/04/2014,0.0,18.5,7.5,0.0,Arroniz
Tierra_Estella,02/04/2014,0.0,12.5,8.0,3.0,Arroniz
Tierra_Estella,03/04/2014,0.0,11.5,6.5,0.1,Arroniz
Tierra_Estella,04/04/2014,0.0,16.0,5.5,0.0,Arroniz
Tierra_Estella,05/04/2014,0.0,20.5,7.0,0.0,Arroniz
Tierra_Estella,06/04/2014,0.0,25.0,7.0,0.0,Arroniz
Tierra_Estella,07/04/2014,0.0,25.0,11.0,0.0,Arroniz
Tierra_Estella,08/04/2014,0.0,19.0,9.0,0.0,Arroniz
Tierra_Estella,09/04/2014,0.0,21.5,6.0,0.0,Arroniz
Tierra_Estella,10/04/2014,0.0,24.0,11.5,1.0,Arroniz
Tierra_Estella,11/04/2014,0.0,21.0,11.5,0.0,Arroniz
Tierra_Estella,12/04/2014,0.0,20.5,8.5,0.0,Arroniz
Tierra_Estella,13/04/2014,0.0,23.0,7.5,0.0,Arroniz
Tierra_Estella,14/04/2014,0.0,27.0,9.5,0.0,Arroniz
Tierra_Estella,15/04/2014,0.0,23.0,14.0,0.0,Arroniz
Tierra_Estella,16/04/2014,0.0,27.5,9.0,0.0,Arroniz
Tierra_Estella,17/04/2014,0.0,24.5,9.0,0.0,Arroniz
Tierra_Estella,18/04/2014,0.0,24.0,6.0,0.0,Arroniz
Tierra_Estella,19/04/2014,0.0,20.5,6.5,16.0,Arroniz
Tierra_Estella,20/04/2014,0.0,15.0,11.0,0.5,Arroniz
Tierra_Estella,21/04/2014,0.0,17.0,5.0,0.0,Arroniz
Tierra_Estella,22/04/2014,0.0,16.5,8.0,0.0,Arroniz
Tierra_Estella,23/04/2014,0.0,21.0,9.0,2.0,Arroniz
Tierra_Estella,24/04/2014,0.0,14.0,12.0,6.0,Arroniz
Tierra_Estella,25/04/2014,0.0,16.0,7.0,0.0,Arroniz
Tierra_Estella,26/04/2014,0.0,16.0,7.0,9.0,Arroniz
Tierra_Estella,27/04/2014,0.0,16.0,6.0,0.0,Arroniz
Tierra_Estella,28/04/2014,0.0,17.0,11.0,0.0,Arroniz
Tierra_Estella,29/04/2014,0.0,18.0,12.0,0.0,Arroniz
Tierra_Estella,30/04/2014,0.0,18.0,9.0,0.0,Arroniz
Tierra_Estella,01/05/2014,0.0,17.0,11.0,0.0,Arroniz
Tierra_Estella,02/05/2014,0.0,14.0,8.0,0.0,Arroniz
Tierra_Estella,03/05/2014,0.0,16.0,8.0,0.0,Arroniz
Tierra_Estella,04/05/2014,0.0,22.0,6.0,0.0,Arroniz
Tierra_Estella,05/05/2014,0.0,25.0,7.0,0.0,Arroniz
Tierra_Estella,06/05/2014,0.0,20.0,10.0,0.0,Arroniz
Tierra_Estella,07/05/2014,0.0,23.0,12.0,0.0,Arroniz
Tierra_Estella,08/05/2014,0.0,22.0,10.0,0.0,Arroniz
Tierra_Estella,09/05/2014,0.0,23.0,11.0,0.0,Arroniz
Tierra_Estella,10/05/2014,0.0,26.0,12.0,0.0,Arroniz
Tierra_Estella,11/05/2014,0.0,18.0,13.0,0.0,Arroniz
Tierra_Estella,12/05/2014,0.0,18.0,9.0,0.0,Arroniz
Tierra_Estella,13/05/2014,0.0,15.0,7.0,0.0,Arroniz
Tierra_Estella,14/05/2014,0.0,20.0,5.0,0.0,Arroniz
Tierra_Estella,15/05/2014,0.0,23.0,6.0,0.0,Arroniz
Tierra_Estella,16/05/2014,0.0,24.0,7.0,0.0,Arroniz
Tierra_Estella,17/05/2014,0.0,22.0,8.0,0.0,Arroniz
Tierra_Estella,18/05/2014,0.0,25.0,7.0,0.0,Arroniz
Tierra_Estella,19/05/2014,0.0,23.0,11.0,9.0,Arroniz
Tierra_Estella,20/05/2014,0.0,20.0,10.0,0.0,Arroniz
Tierra_Estella,21/05/2014,0.0,21.0,11.0,0.0,Arroniz
Tierra_Estella,22/05/2014,0.0,18.0,8.0,2.0,Arroniz
Tierra_Estella,23/05/2014,0.0,18.0,8.0,3.0,Arroniz
Tierra_Estella,24/05/2014,0.0,20.0,7.0,14.0,Arroniz
Tierra_Estella,25/05/2014,0.0,15.0,9.0,12.0,Arroniz
Tierra_Estella,26/05/2014,0.0,16.0,7.0,0.0,Arroniz
Tierra_Estella,27/05/2014,0.0,22.0,7.0,2.0,Arroniz
Tierra_Estella,28/05/2014,0.0,14.0,8.0,7.0,Arroniz
Tierra_Estella,29/05/2014,0.0,20.0,8.0,2.0,Arroniz
Tierra_Estella,30/05/2014,0.0,17.0,9.0,0.0,Arroniz
Tierra_Estella,31/05/2014,0.0,17.0,9.0,0.0,Arroniz
Tierra_Estella,01/06/2014,0.0,17.0,9.0,0.0,Arroniz
Tierra_Estella,02/06/2014,0.0,19.0,9.0,0.0,Arroniz
Tierra_Estella,03/06/2014,0.0,26.0,8.0,0.0,Arroniz
Tierra_Estella,04/06/2014,0.0,17.0,11.0,0.0,Arroniz
Tierra_Estella,05/06/2014,0.0,28.0,8.0,0.0,Arroniz
Tierra_Estella,06/06/2014,0.0,30.0,13.0,2.0,Arroniz
Tierra_Estella,07/06/2014,0.0,31.0,14.0,0.0,Arroniz
Tierra_Estella,08/06/2014,0.0,33.0,14.0,0.0,Arroniz
Tierra_Estella,09/06/2014,0.0,33.0,16.0,0.0,Arroniz
Tierra_Estella,10/06/2014,0.0,28.0,13.0,0.0,Arroniz
Tierra_Estella,11/06/2014,0.0,30.0,13.0,0.0,Arroniz
Tierra_Estella,12/06/2014,0.0,32.0,14.0,0.0,Arroniz
Tierra_Estella,13/06/2014,0.0,30.0,16.0,0.0,Arroniz
Tierra_Estella,14/06/2014,0.0,24.0,13.0,0.0,Arroniz
Tierra_Estella,15/06/2014,0.0,23.0,13.0,0.0,Arroniz
Tierra_Estella,16/06/2014,0.0,21.0,13.0,0.0,Arroniz
Tierra_Estella,17/06/2014,0.0,24.0,11.0,0.0,Arroniz
Tierra_Estella,18/06/2014,0.0,27.0,11.0,0.0,Arroniz
Tierra_Estella,19/06/2014,0.0,27.0,10.0,0.0,Arroniz
Tierra_Estella,20/06/2014,0.0,33.0,14.0,0.0,Arroniz
Tierra_Estella,21/06/2014,0.0,31.0,17.0,3.0,Arroniz
Tierra_Estella,22/06/2014,0.0,30.0,17.0,12.0,Arroniz
Tierra_Estella,23/06/2014,0.0,29.0,15.0,2.0,Arroniz
Tierra_Estella,24/06/2014,0.0,24.0,15.0,18.0,Arroniz
Tierra_Estella,25/06/2014,0.0,24.0,13.0,0.0,Arroniz
Tierra_Estella,26/06/2014,0.0,21.0,13.0,0.0,Arroniz
Tierra_Estella,27/06/2014,0.0,30.0,12.0,0.0,Arroniz
Tierra_Estella,28/06/2014,0.0,28.0,13.0,0.0,Arroniz
Tierra_Estella,29/06/2014,0.0,22.0,12.0,0.0,Arroniz
Tierra_Estella,30/06/2014,0.0,28.0,11.0,0.0,Arroniz
Tierra_Estella,01/07/2014,0.0,26.0,12.0,21.0,Arroniz
Tierra_Estella,02/07/2014,0.0,22.5,13.0,2.0,Arroniz
Tierra_Estella,03/07/2014,0.0,23.0,13.0,45.0,Arroniz
Tierra_Estella,04/07/2014,0.0,25.0,14.0,0.0,Arroniz
Tierra_Estella,05/07/2014,0.0,30.0,13.5,0.0,Arroniz
Tierra_Estella,06/07/2014,0.0,24.0,17.0,14.0,Arroniz
Tierra_Estella,07/07/2014,0.0,20.0,12.0,0.0,Arroniz
Tierra_Estella,08/07/2014,0.0,21.5,12.0,0.0,Arroniz
Tierra_Estella,09/07/2014,0.0,19.0,11.5,0.0,Arroniz
Tierra_Estella,10/07/2014,0.0,20.0,11.0,0.0,Arroniz
Tierra_Estella,11/07/2014,0.0,20.0,10.5,0.0,Arroniz
Tierra_Estella,12/07/2014,0.0,22.5,12.0,0.0,Arroniz
Tierra_Estella,13/07/2014,0.0,28.0,12.0,0.0,Arroniz
Tierra_Estella,14/07/2014,0.0,26.0,13.0,0.0,Arroniz
Tierra_Estella,15/07/2014,0.0,31.0,13.0,0.0,Arroniz
Tierra_Estella,16/07/2014,0.0,34.5,13.5,0.0,Arroniz
Tierra_Estella,17/07/2014,0.0,36.0,19.0,0.0,Arroniz
Tierra_Estella,18/07/2014,0.0,32.0,19.5,0.0,Arroniz
Tierra_Estella,19/07/2014,0.0,27.0,18.5,0.0,Arroniz
Tierra_Estella,20/07/2014,0.0,24.0,14.5,0.0,Arroniz
Tierra_Estella,21/07/2014,0.0,24.5,14.0,0.0,Arroniz
Tierra_Estella,22/07/2014,0.0,28.0,13.0,0.0,Arroniz
Tierra_Estella,23/07/2014,0.0,31.5,13.0,0.0,Arroniz
Tierra_Estella,24/07/2014,0.0,30.0,14.5,9.5,Arroniz
Tierra_Estella,25/07/2014,0.0,28.0,16.5,0.0,Arroniz
Tierra_Estella,26/07/2014,0.0,30.0,16.0,0.0,Arroniz
Tierra_Estella,27/07/2014,0.0,29.0,14.0,0.0,Arroniz
Tierra_Estella,28/07/2014,0.0,24.0,13.0,0.0,Arroniz
Tierra_Estella,29/07/2014,0.0,23.0,12.0,0.0,Arroniz
Tierra_Estella,30/07/2014,0.0,23.5,13.0,0.0,Arroniz
Tierra_Estella,31/07/2014,0.0,32.0,13.5,0.0,Arroniz
Tierra_Estella,01/08/2014,0.0,28.0,14.0,5.0,Arroniz
Tierra_Estella,02/08/2014,0.0,27.5,15.0,6.0,Arroniz
Tierra_Estella,03/08/2014,0.0,27.0,15.0,0.0,Arroniz
Tierra_Estella,04/08/2014,0.0,27.0,15.5,0.0,Arroniz
Tierra_Estella,05/08/2014,0.0,30.5,14.0,0.0,Arroniz
Tierra_Estella,06/08/2014,0.0,30.0,14.0,0.0,Arroniz
Tierra_Estella,07/08/2014,0.0,31.0,15.0,0.0,Arroniz
Tierra_Estella,08/08/2014,0.0,33.0,17.0,0.0,Arroniz
Tierra_Estella,09/08/2014,0.0,31.0,18.0,0.0,Arroniz
Tierra_Estella,10/08/2014,0.0,33.0,17.5,0.0,Arroniz
Tierra_Estella,11/08/2014,0.0,24.5,16.0,0.0,Arroniz
Tierra_Estella,12/08/2014,0.0,30.0,13.5,0.0,Arroniz
Tierra_Estella,13/08/2014,0.0,21.0,14.0,0.0,Arroniz
Tierra_Estella,14/08/2014,0.0,23.0,11.0,0.0,Arroniz
Tierra_Estella,15/08/2014,0.0,24.0,11.0,0.0,Arroniz
Tierra_Estella,16/08/2014,0.0,20.5,11.0,0.0,Arroniz
Tierra_Estella,17/08/2014,0.0,29.0,10.5,0.0,Arroniz
Tierra_Estella,18/08/2014,0.0,28.0,10.5,0.4,Arroniz
Tierra_Estella,19/08/2014,0.0,24.5,14.0,0.0,Arroniz
Tierra_Estella,20/08/2014,0.0,22.0,12.5,0.0,Arroniz
Tierra_Estella,21/08/2014,0.0,27.0,11.5,0.0,Arroniz
Tierra_Estella,22/08/2014,0.0,16.5,12.0,2.0,Arroniz
Tierra_Estella,23/08/2014,0.0,24.0,11.0,0.0,Arroniz
Tierra_Estella,24/08/2014,0.0,30.0,12.0,0.0,Arroniz
Tierra_Estella,25/08/2014,0.0,33.0,12.5,0.0,Arroniz
Tierra_Estella,26/08/2014,0.0,32.0,16.0,0.0,Arroniz
Tierra_Estella,27/08/2014,0.0,34.0,18.0,0.0,Arroniz
Tierra_Estella,28/08/2014,0.0,29.0,18.5,0.0,Arroniz
Tierra_Estella,29/08/2014,0.0,25.0,17.0,0.0,Arroniz
Tierra_Estella,30/08/2014,0.0,27.0,15.0,0.0,Arroniz
Tierra_Estella,31/08/2014,0.0,29.0,19.5,0.0,Arroniz
Tierra_Estella,01/09/2014,0.0,32.5,14.0,0.0,Arroniz
Tierra_Estella,02/09/2014,0.0,33.0,13.5,0.0,Arroniz
Tierra_Estella,03/09/2014,0.0,33.5,16.0,0.0,Arroniz
Tierra_Estella,04/09/2014,0.0,30.0,17.0,0.0,Arroniz
Tierra_Estella,05/09/2014,0.0,31.0,15.5,0.0,Arroniz
Tierra_Estella,06/09/2014,0.0,33.0,16.0,0.0,Arroniz
Tierra_Estella,07/09/2014,0.0,33.5,17.5,0.0,Arroniz
Tierra_Estella,08/09/2014,0.0,28.0,17.0,6.0,Arroniz
Tierra_Estella,09/09/2014,0.0,30.0,16.0,0.0,Arroniz
Tierra_Estella,10/09/2014,0.0,31.0,16.0,0.0,Arroniz
Tierra_Estella,11/09/2014,0.0,30.0,17.5,0.0,Arroniz
Tierra_Estella,12/09/2014,0.0,31.0,16.5,0.0,Arroniz
Tierra_Estella,13/09/2014,0.0,31.0,16.5,0.0,Arroniz
Tierra_Estella,14/09/2014,0.0,30.0,16.0,20.5,Arroniz
Tierra_Estella,15/09/2014,0.0,26.0,14.0,0.0,Arroniz
Tierra_Estella,16/09/2014,0.0,27.0,14.0,0.0,Arroniz
Tierra_Estella,17/09/2014,0.0,27.0,16.0,0.0,Arroniz
Tierra_Estella,18/09/2014,0.0,26.5,15.5,1.0,Arroniz
Tierra_Estella,19/09/2014,0.0,26.0,14.5,0.0,Arroniz
Tierra_Estella,20/09/2014,0.0,27.5,14.0,3.5,Arroniz
Tierra_Estella,21/09/2014,0.0,28.0,14.5,4.0,Arroniz
Tierra_Estella,22/09/2014,0.0,19.0,15.0,6.5,Arroniz
Tierra_Estella,23/09/2014,0.0,18.0,14.0,0.0,Arroniz
Tierra_Estella,24/09/2014,0.0,19.0,9.0,0.0,Arroniz
Tierra_Estella,25/09/2014,0.0,24.0,10.0,0.0,Arroniz
Tierra_Estella,26/09/2014,0.0,24.0,9.0,0.0,Arroniz
Tierra_Estella,27/09/2014,0.0,24.0,11.0,0.0,Arroniz
Tierra_Estella,28/09/2014,0.0,19.0,14.0,1.0,Arroniz
Tierra_Estella,29/09/2014,0.0,19.0,14.0,0.0,Arroniz
Tierra_Estella,30/09/2014,0.0,23.0,15.0,0.0,Arroniz
Tierra_Estella,01/10/2014,0.0,26.0,13.0,0.0,Arroniz
Tierra_Estella,02/10/2014,0.0,27.0,13.0,0.0,Arroniz
Tierra_Estella,03/10/2014,0.0,26.5,12.5,0.0,Arroniz
Tierra_Estella,04/10/2014,0.0,25.0,13.0,0.0,Arroniz
Tierra_Estella,05/10/2014,0.0,20.0,12.0,0.0,Arroniz
Tierra_Estella,06/10/2014,0.0,23.5,10.0,0.0,Arroniz
Tierra_Estella,07/10/2014,0.0,24.0,11.0,0.0,Arroniz
Tierra_Estella,08/10/2014,0.0,23.0,15.0,9.0,Arroniz
Tierra_Estella,09/10/2014,0.0,19.0,15.0,14.0,Arroniz
Tierra_Estella,10/10/2014,0.0,20.0,14.0,3.0,Arroniz
Tierra_Estella,11/10/2014,0.0,22.0,13.0,2.0,Arroniz
Tierra_Estella,12/10/2014,0.0,19.0,13.0,11.0,Arroniz
Tierra_Estella,13/10/2014,0.0,18.0,12.0,2.0,Arroniz
Tierra_Estella,14/10/2014,0.0,20.0,11.0,0.0,Arroniz
Tierra_Estella,15/10/2014,0.0,18.0,10.0,2.0,Arroniz
Tierra_Estella,16/10/2014,0.0,26.0,11.0,0.0,Arroniz
Tierra_Estella,17/10/2014,0.0,26.0,15.0,0.0,Arroniz
Tierra_Estella,18/10/2014,0.0,25.5,14.0,0.0,Arroniz
Tierra_Estella,19/10/2014,0.0,27.0,14.5,0.0,Arroniz
Tierra_Estella,20/10/2014,0.0,26.0,16.0,0.0,Arroniz
Tierra_Estella,21/10/2014,0.0,27.0,15.0,0.0,Arroniz
Tierra_Estella,22/10/2014,0.0,19.0,11.0,0.0,Arroniz
Tierra_Estella,23/10/2014,0.0,26.0,10.0,0.0,Arroniz
Tierra_Estella,24/10/2014,0.0,27.5,11.0,0.0,Arroniz
Tierra_Estella,25/10/2014,0.0,29.5,15.0,0.0,Arroniz
Tierra_Estella,26/10/2014,0.0,27.0,14.0,0.0,Arroniz
Tierra_Estella,27/10/2014,0.0,16.0,13.0,0.0,Arroniz
Tierra_Estella,28/10/2014,0.0,17.0,13.0,0.0,Arroniz
Tierra_Estella,29/10/2014,0.0,21.0,12.5,0.0,Arroniz
Tierra_Estella,30/10/2014,0.0,18.5,12.0,0.0,Arroniz
Tierra_Estella,31/10/2014,0.0,14.0,12.0,0.0,Arroniz
Tierra_Estella,01/11/2014,0.0,16.5,9.0,1.0,Arroniz
Tierra_Estella,02/11/2014,0.0,15.0,9.0,4.0,Arroniz
Tierra_Estella,03/11/2014,0.0,15.0,9.5,15.0,Arroniz
Tierra_Estella,04/11/2014,0.0,9.0,6.5,9.0,Arroniz
Tierra_Estella,05/11/2014,0.0,8.5,4.5,6.0,Arroniz
Tierra_Estella,06/11/2014,0.0,10.5,3.5,1.5,Arroniz
Tierra_Estella,07/11/2014,0.0,9.5,6.0,5.0,Arroniz
Tierra_Estella,08/11/2014,0.0,12.0,1.5,0.0,Arroniz
Tierra_Estella,09/11/2014,0.0,10.5,2.0,0.0,Arroniz
Tierra_Estella,10/11/2014,0.0,11.0,0.5,5.0,Arroniz
Tierra_Estella,11/11/2014,0.0,10.0,1.0,3.0,Arroniz
Tierra_Estella,12/11/2014,0.0,13.0,4.5,0.0,Arroniz
Tierra_Estella,13/11/2014,0.0,15.0,4.5,12.0,Arroniz
Tierra_Estella,14/11/2014,0.0,13.0,9.5,0.0,Arroniz
Tierra_Estella,15/11/2014,0.0,12.0,6.0,5.0,Arroniz
Tierra_Estella,16/11/2014,0.0,10.5,5.0,20.0,Arroniz
Tierra_Estella,17/11/2014,0.0,9.0,5.0,0.0,Arroniz
Tierra_Estella,18/11/2014,0.0,11.0,2.0,0.0,Arroniz
Tierra_Estella,19/11/2014,0.0,12.0,3.5,0.0,Arroniz
Tierra_Estella,20/11/2014,0.0,16.0,3.5,0.0,Arroniz
Tierra_Estella,21/11/2014,0.0,15.5,4.5,0.0,Arroniz
Tierra_Estella,22/11/2014,0.0,18.0,10.5,0.0,Arroniz
Tierra_Estella,23/11/2014,0.0,18.0,8.0,0.0,Arroniz
Tierra_Estella,24/11/2014,0.0,16.0,9.5,2.0,Arroniz
Tierra_Estella,25/11/2014,0.0,13.0,10.0,2.5,Arroniz
Tierra_Estella,26/11/2014,0.0,12.0,9.0,0.0,Arroniz
Tierra_Estella,27/11/2014,0.0,12.0,8.5,4.0,Arroniz
Tierra_Estella,28/11/2014,0.0,12.0,10.0,21.0,Arroniz
Tierra_Estella,29/11/2014,0.0,11.5,10.0,34.5,Arroniz
Tierra_Estella,30/11/2014,0.0,13.0,9.0,1.5,Arroniz
Tierra_Estella,01/12/2014,0.0,10.0,8.5,8.5,Arroniz
Tierra_Estella,02/12/2014,0.0,7.5,4.5,0.0,Arroniz
Tierra_Estella,03/12/2014,0.0,7.0,3.5,0.0,Arroniz
Tierra_Estella,04/12/2014,0.0,8.0,-2.0,0.0,Arroniz
Tierra_Estella,05/12/2014,0.0,6.5,-1.5,9.5,Arroniz
Tierra_Estella,06/12/2014,0.0,5.0,2.0,8.5,Arroniz
Tierra_Estella,07/12/2014,0.0,7.5,1.0,0.0,Arroniz
Tierra_Estella,08/12/2014,0.0,8.0,1.5,8.0,Arroniz
Tierra_Estella,09/12/2014,0.0,4.5,1.5,1.0,Arroniz
Tierra_Estella,10/12/2014,0.0,8.0,0.5,0.0,Arroniz
Tierra_Estella,11/12/2014,0.0,8.5,4.0,0.0,Arroniz
Tierra_Estella,12/12/2014,0.0,9.0,-1.0,0.0,Arroniz
Tierra_Estella,13/12/2014,0.0,10.5,0.5,7.5,Arroniz
Tierra_Estella,14/12/2014,0.0,7.5,6.0,5.0,Arroniz
Tierra_Estella,15/12/2014,0.0,8.0,5.5,3.5,Arroniz
Tierra_Estella,16/12/2014,0.0,10.0,5.0,1.0,Arroniz
Tierra_Estella,17/12/2014,0.0,10.5,5.0,0.0,Arroniz
Tierra_Estella,18/12/2014,0.0,10.5,7.0,0.0,Arroniz
Tierra_Estella,19/12/2014,0.0,11.0,7.0,0.0,Arroniz
Tierra_Estella,20/12/2014,0.0,11.0,6.5,0.0,Arroniz
Tierra_Estella,21/12/2014,0.0,12.0,5.5,0.0,Arroniz
Tierra_Estella,22/12/2014,0.0,8.5,-1.5,0.0,Arroniz
Tierra_Estella,23/12/2014,0.0,3.0,-3.0,0.0,Arroniz
Tierra_Estella,24/12/2014,0.0,8.0,-3.5,0.0,Arroniz
Tierra_Estella,25/12/2014,0.0,10.0,-3.5,0.0,Arroniz
Tierra_Estella,26/12/2014,0.0,11.5,5.0,0.0,Arroniz
Tierra_Estella,27/12/2014,0.0,9.5,5.5,16.0,Arroniz
