Comarca,Fecha, Temperatura media, Temperatura maxima, Temperatura minima, Precipitacion acumulada,Localidad
Tierra_Estella,01/01/2013,6.7,10.9,2.6,2.9,Bargota
Tierra_Estella,02/01/2013,7.0,10.0,5.1,0.4,Bargota
Tierra_Estella,03/01/2013,6.7,12.5,0.7,0.0,Bargota
Tierra_Estella,04/01/2013,7.1,14.6,-0.1,0.0,Bargota
Tierra_Estella,05/01/2013,9.6,17.1,5.2,0.0,Bargota
Tierra_Estella,06/01/2013,9.2,15.9,5.3,0.0,Bargota
Tierra_Estella,07/01/2013,7.8,14.8,2.1,0.0,Bargota
Tierra_Estella,08/01/2013,4.8,9.6,1.5,0.0,Bargota
Tierra_Estella,09/01/2013,5.5,9.6,0.7,0.4,Bargota
Tierra_Estella,10/01/2013,8.8,14.0,4.8,0.0,Bargota
Tierra_Estella,11/01/2013,5.2,11.7,-0.7,0.0,Bargota
Tierra_Estella,12/01/2013,4.2,10.0,-0.8,0.4,Bargota
Tierra_Estella,13/01/2013,4.4,7.6,2.4,0.4,Bargota
Tierra_Estella,14/01/2013,4.8,6.9,3.5,12.2,Bargota
Tierra_Estella,15/01/2013,6.6,8.3,5.3,5.5,Bargota
Tierra_Estella,16/01/2013,8.4,11.5,5.8,2.7,Bargota
Tierra_Estella,17/01/2013,7.5,9.3,5.5,3.9,Bargota
Tierra_Estella,18/01/2013,8.9,12.6,5.1,5.7,Bargota
Tierra_Estella,19/01/2013,9.0,11.9,4.7,12.4,Bargota
Tierra_Estella,20/01/2013,5.9,9.4,3.4,3.5,Bargota
Tierra_Estella,21/01/2013,5.6,9.0,1.1,2.0,Bargota
Tierra_Estella,22/01/2013,2.3,6.5,-0.9,0.0,Bargota
Tierra_Estella,23/01/2013,3.8,7.2,0.5,5.1,Bargota
Tierra_Estella,24/01/2013,5.8,8.7,3.0,5.3,Bargota
Tierra_Estella,25/01/2013,5.5,8.8,0.5,2.0,Bargota
Tierra_Estella,26/01/2013,8.2,12.4,1.6,0.6,Bargota
Tierra_Estella,27/01/2013,4.5,8.2,1.0,13.3,Bargota
Tierra_Estella,28/01/2013,5.7,10.8,1.4,0.0,Bargota
Tierra_Estella,29/01/2013,5.6,12.5,-0.3,0.0,Bargota
Tierra_Estella,30/01/2013,7.3,15.1,1.7,0.0,Bargota
Tierra_Estella,31/01/2013,11.6,17.4,5.6,0.0,Bargota
Tierra_Estella,01/02/2013,9.7,16.2,3.4,3.1,Bargota
Tierra_Estella,02/02/2013,4.9,8.9,3.3,14.7,Bargota
Tierra_Estella,03/02/2013,5.3,8.8,2.6,0.0,Bargota
Tierra_Estella,04/02/2013,8.5,12.2,4.5,0.0,Bargota
Tierra_Estella,05/02/2013,9.8,14.2,4.8,0.6,Bargota
Tierra_Estella,06/02/2013,4.0,6.3,2.0,14.9,Bargota
Tierra_Estella,07/02/2013,3.6,6.1,1.0,11.6,Bargota
Tierra_Estella,08/02/2013,3.6,6.4,0.4,24.3,Bargota
Tierra_Estella,09/02/2013,5.3,8.2,2.7,0.8,Bargota
Tierra_Estella,10/02/2013,4.3,9.0,0.1,6.7,Bargota
Tierra_Estella,11/02/2013,4.4,7.2,2.2,0.2,Bargota
Tierra_Estella,12/02/2013,4.1,8.8,0.2,31.2,Bargota
Tierra_Estella,13/02/2013,7.5,10.0,4.7,0.2,Bargota
Tierra_Estella,14/02/2013,8.2,11.8,4.7,0.0,Bargota
Tierra_Estella,15/02/2013,8.1,12.6,1.7,0.0,Bargota
Tierra_Estella,16/02/2013,5.2,10.9,-0.9,0.0,Bargota
Tierra_Estella,17/02/2013,4.0,7.3,-1.1,0.2,Bargota
Tierra_Estella,18/02/2013,8.1,13.5,4.5,1.4,Bargota
Tierra_Estella,19/02/2013,8.3,9.6,7.1,0.0,Bargota
Tierra_Estella,20/02/2013,9.4,15.2,4.5,0.0,Bargota
Tierra_Estella,21/02/2013,9.8,13.9,7.1,3.5,Bargota
Tierra_Estella,22/02/2013,6.1,8.8,1.4,3.3,Bargota
Tierra_Estella,23/02/2013,0.9,2.2,-0.7,0.0,Bargota
Tierra_Estella,24/02/2013,1.9,4.5,0.5,0.2,Bargota
Tierra_Estella,25/02/2013,2.1,5.0,0.1,1.4,Bargota
Tierra_Estella,26/02/2013,2.3,4.7,0.9,3.7,Bargota
Tierra_Estella,27/02/2013,3.5,7.9,-0.2,0.0,Bargota
Tierra_Estella,28/02/2013,3.9,9.0,0.7,0.8,Bargota
Tierra_Estella,01/03/2013,6.0,11.0,2.3,0.0,Bargota
Tierra_Estella,02/03/2013,6.0,12.4,1.4,0.0,Bargota
Tierra_Estella,03/03/2013,7.0,13.2,0.5,0.0,Bargota
Tierra_Estella,04/03/2013,7.5,10.4,3.7,4.3,Bargota
Tierra_Estella,05/03/2013,9.8,11.0,8.4,3.7,Bargota
Tierra_Estella,06/03/2013,12.3,17.9,8.8,0.4,Bargota
Tierra_Estella,07/03/2013,11.7,19.6,7.3,4.9,Bargota
Tierra_Estella,08/03/2013,11.5,17.5,6.9,0.6,Bargota
Tierra_Estella,09/03/2013,9.3,15.7,3.5,0.0,Bargota
Tierra_Estella,10/03/2013,9.2,14.8,4.5,0.0,Bargota
Tierra_Estella,11/03/2013,8.8,15.5,4.0,1.4,Bargota
Tierra_Estella,12/03/2013,7.5,12.5,0.2,6.3,Bargota
Tierra_Estella,13/03/2013,2.2,3.9,0.7,0.6,Bargota
Tierra_Estella,14/03/2013,3.4,7.2,0.8,4.9,Bargota
Tierra_Estella,15/03/2013,5.6,10.8,1.5,0.0,Bargota
Tierra_Estella,16/03/2013,6.2,9.9,3.1,0.0,Bargota
Tierra_Estella,17/03/2013,6.7,9.2,3.5,6.9,Bargota
Tierra_Estella,18/03/2013,6.8,12.5,1.0,0.2,Bargota
Tierra_Estella,19/03/2013,5.6,11.6,-0.6,2.0,Bargota
Tierra_Estella,20/03/2013,8.3,14.5,2.9,0.0,Bargota
Tierra_Estella,21/03/2013,7.7,15.5,0.1,0.0,Bargota
Tierra_Estella,22/03/2013,10.3,19.1,4.0,0.8,Bargota
Tierra_Estella,23/03/2013,8.2,16.6,1.0,0.4,Bargota
Tierra_Estella,24/03/2013,10.2,16.2,4.7,0.0,Bargota
Tierra_Estella,25/03/2013,8.6,11.2,5.9,14.3,Bargota
Tierra_Estella,26/03/2013,10.5,15.8,7.2,8.0,Bargota
Tierra_Estella,27/03/2013,11.8,16.1,9.0,16.9,Bargota
Tierra_Estella,28/03/2013,13.2,18.0,9.8,0.6,Bargota
Tierra_Estella,29/03/2013,12.6,16.1,10.4,13.3,Bargota
Tierra_Estella,30/03/2013,10.8,14.6,8.5,21.2,Bargota
Tierra_Estella,31/03/2013,11.8,17.2,6.2,0.8,Bargota
Tierra_Estella,01/04/2013,10.7,16.5,7.6,16.5,Bargota
Tierra_Estella,02/04/2013,10.1,14.8,6.4,1.4,Bargota
Tierra_Estella,03/04/2013,9.6,15.5,3.3,1.2,Bargota
Tierra_Estella,04/04/2013,8.6,14.7,4.2,1.2,Bargota
Tierra_Estella,05/04/2013,5.5,9.6,3.1,0.0,Bargota
Tierra_Estella,06/04/2013,4.6,7.7,2.7,2.0,Bargota
Tierra_Estella,07/04/2013,8.0,12.2,2.9,0.2,Bargota
Tierra_Estella,08/04/2013,10.6,16.7,5.9,0.0,Bargota
Tierra_Estella,09/04/2013,11.2,18.1,6.1,0.0,Bargota
Tierra_Estella,10/04/2013,11.9,20.1,3.7,0.0,Bargota
Tierra_Estella,11/04/2013,12.2,19.9,7.0,2.2,Bargota
Tierra_Estella,12/04/2013,12.4,17.7,6.6,0.0,Bargota
Tierra_Estella,13/04/2013,14.4,22.4,5.4,0.0,Bargota
Tierra_Estella,14/04/2013,17.0,24.6,10.3,0.4,Bargota
Tierra_Estella,15/04/2013,15.9,23.1,9.0,0.0,Bargota
Tierra_Estella,16/04/2013,17.3,25.0,10.6,0.0,Bargota
Tierra_Estella,17/04/2013,18.8,28.1,10.4,0.0,Bargota
Tierra_Estella,18/04/2013,12.9,17.1,9.9,0.0,Bargota
Tierra_Estella,19/04/2013,10.0,14.6,4.8,0.0,Bargota
Tierra_Estella,20/04/2013,8.8,16.0,0.9,0.0,Bargota
Tierra_Estella,21/04/2013,9.1,18.2,0.1,0.0,Bargota
Tierra_Estella,22/04/2013,10.1,15.5,5.7,0.0,Bargota
Tierra_Estella,23/04/2013,11.9,20.4,3.7,0.0,Bargota
Tierra_Estella,24/04/2013,14.2,22.3,5.4,0.0,Bargota
Tierra_Estella,25/04/2013,14.8,23.2,5.9,0.0,Bargota
Tierra_Estella,26/04/2013,12.1,14.2,7.2,3.3,Bargota
Tierra_Estella,27/04/2013,6.7,11.4,3.1,1.6,Bargota
Tierra_Estella,28/04/2013,6.5,11.2,1.9,6.7,Bargota
Tierra_Estella,29/04/2013,7.4,10.6,5.5,7.3,Bargota
Tierra_Estella,30/04/2013,8.4,12.3,5.1,9.2,Bargota
Tierra_Estella,01/05/2013,10.8,16.6,7.4,0.0,Bargota
Tierra_Estella,02/05/2013,9.9,13.4,7.3,2.2,Bargota
Tierra_Estella,03/05/2013,10.1,16.0,5.6,0.0,Bargota
Tierra_Estella,04/05/2013,12.1,20.5,3.3,0.0,Bargota
Tierra_Estella,05/05/2013,14.4,23.6,7.0,0.0,Bargota
Tierra_Estella,06/05/2013,15.2,24.0,5.4,0.0,Bargota
Tierra_Estella,07/05/2013,17.4,23.7,12.0,0.2,Bargota
Tierra_Estella,08/05/2013,16.8,20.8,11.6,0.0,Bargota
Tierra_Estella,09/05/2013,12.8,15.9,9.6,5.1,Bargota
Tierra_Estella,10/05/2013,12.2,17.7,6.3,0.0,Bargota
Tierra_Estella,11/05/2013,11.8,17.7,6.3,0.0,Bargota
Tierra_Estella,12/05/2013,11.2,16.9,5.1,0.0,Bargota
Tierra_Estella,13/05/2013,14.3,24.6,4.9,0.0,Bargota
Tierra_Estella,14/05/2013,13.5,20.1,6.3,4.5,Bargota
Tierra_Estella,15/05/2013,9.7,12.6,5.5,1.0,Bargota
Tierra_Estella,16/05/2013,9.0,16.1,3.5,1.4,Bargota
Tierra_Estella,17/05/2013,8.3,13.4,5.0,8.2,Bargota
Tierra_Estella,18/05/2013,9.4,14.8,6.0,7.8,Bargota
Tierra_Estella,19/05/2013,9.9,14.5,6.4,0.8,Bargota
Tierra_Estella,20/05/2013,9.8,15.2,4.9,0.0,Bargota
Tierra_Estella,21/05/2013,8.2,12.0,2.9,1.4,Bargota
Tierra_Estella,22/05/2013,12.4,16.3,9.7,0.0,Bargota
Tierra_Estella,23/05/2013,10.9,13.0,9.8,0.0,Bargota
Tierra_Estella,24/05/2013,11.0,15.7,7.2,0.0,Bargota
Tierra_Estella,25/05/2013,10.5,15.9,3.3,0.0,Bargota
Tierra_Estella,26/05/2013,10.3,19.1,0.6,4.5,Bargota
Tierra_Estella,27/05/2013,13.3,19.5,9.8,6.7,Bargota
Tierra_Estella,28/05/2013,10.5,14.9,4.4,3.9,Bargota
Tierra_Estella,29/05/2013,9.4,15.6,3.1,0.2,Bargota
Tierra_Estella,30/05/2013,11.2,15.1,7.3,1.2,Bargota
Tierra_Estella,31/05/2013,11.8,14.4,10.4,0.0,Bargota
Tierra_Estella,01/06/2013,12.8,16.0,10.3,0.0,Bargota
Tierra_Estella,02/06/2013,12.9,16.9,9.4,0.0,Bargota
Tierra_Estella,03/06/2013,13.6,20.8,7.5,0.0,Bargota
Tierra_Estella,04/06/2013,16.3,25.6,7.7,0.0,Bargota
Tierra_Estella,05/06/2013,18.4,27.0,8.1,0.0,Bargota
Tierra_Estella,06/06/2013,19.1,25.8,13.2,0.8,Bargota
Tierra_Estella,07/06/2013,16.0,22.5,11.8,8.2,Bargota
Tierra_Estella,08/06/2013,13.1,16.8,10.9,5.7,Bargota
Tierra_Estella,09/06/2013,14.3,17.9,11.5,13.7,Bargota
Tierra_Estella,10/06/2013,17.7,24.3,11.6,0.0,Bargota
Tierra_Estella,11/06/2013,20.3,27.2,13.4,0.0,Bargota
Tierra_Estella,12/06/2013,22.8,31.4,13.2,0.0,Bargota
Tierra_Estella,13/06/2013,17.8,20.6,14.4,0.0,Bargota
Tierra_Estella,14/06/2013,19.5,27.6,10.0,0.0,Bargota
Tierra_Estella,15/06/2013,20.4,28.8,12.4,0.0,Bargota
Tierra_Estella,16/06/2013,23.0,32.6,11.8,0.0,Bargota
Tierra_Estella,17/06/2013,19.6,26.3,13.3,0.0,Bargota
Tierra_Estella,18/06/2013,13.3,18.5,10.2,23.3,Bargota
Tierra_Estella,19/06/2013,12.3,16.1,10.0,2.5,Bargota
Tierra_Estella,20/06/2013,15.1,20.7,10.7,4.5,Bargota
Tierra_Estella,21/06/2013,15.1,18.6,13.2,1.8,Bargota
Tierra_Estella,22/06/2013,18.7,26.8,12.2,0.0,Bargota
Tierra_Estella,23/06/2013,15.3,18.8,10.8,0.0,Bargota
Tierra_Estella,24/06/2013,14.6,21.4,8.0,0.0,Bargota
Tierra_Estella,25/06/2013,15.7,23.8,8.9,0.0,Bargota
Tierra_Estella,26/06/2013,16.0,24.7,7.7,0.0,Bargota
Tierra_Estella,27/06/2013,16.9,23.7,10.4,0.0,Bargota
Tierra_Estella,28/06/2013,17.7,24.8,10.3,0.0,Bargota
Tierra_Estella,29/06/2013,19.2,27.3,10.7,0.0,Bargota
Tierra_Estella,30/06/2013,21.4,31.0,13.2,0.0,Bargota
Tierra_Estella,01/07/2013,21.2,29.6,13.0,0.0,Bargota
Tierra_Estella,02/07/2013,22.7,30.1,16.4,0.0,Bargota
Tierra_Estella,03/07/2013,21.9,28.2,15.5,0.0,Bargota
Tierra_Estella,04/07/2013,23.3,31.1,16.7,0.0,Bargota
Tierra_Estella,05/07/2013,24.2,34.3,15.9,0.0,Bargota
Tierra_Estella,06/07/2013,24.7,35.7,14.6,0.0,Bargota
Tierra_Estella,07/07/2013,24.1,32.9,16.1,0.0,Bargota
Tierra_Estella,08/07/2013,24.9,34.6,15.4,0.0,Bargota
Tierra_Estella,09/07/2013,25.9,33.7,18.6,0.0,Bargota
Tierra_Estella,10/07/2013,25.9,32.6,19.7,0.0,Bargota
Tierra_Estella,11/07/2013,24.9,33.9,15.8,0.0,Bargota
Tierra_Estella,12/07/2013,24.3,32.0,18.1,1.2,Bargota
Tierra_Estella,13/07/2013,23.5,30.8,17.0,1.2,Bargota
Tierra_Estella,14/07/2013,21.5,32.3,16.3,10.6,Bargota
Tierra_Estella,15/07/2013,20.8,29.4,14.0,0.2,Bargota
Tierra_Estella,16/07/2013,21.1,30.6,14.7,14.9,Bargota
Tierra_Estella,17/07/2013,21.6,29.1,15.6,0.2,Bargota
Tierra_Estella,18/07/2013,22.3,30.8,15.2,0.0,Bargota
Tierra_Estella,19/07/2013,22.3,30.2,14.8,0.0,Bargota
Tierra_Estella,20/07/2013,22.4,30.1,17.9,0.2,Bargota
Tierra_Estella,21/07/2013,23.8,31.2,18.1,0.0,Bargota
Tierra_Estella,22/07/2013,23.9,32.8,14.9,2.2,Bargota
Tierra_Estella,23/07/2013,23.4,33.0,17.1,1.4,Bargota
Tierra_Estella,24/07/2013,24.7,32.8,18.4,0.0,Bargota
Tierra_Estella,25/07/2013,26.5,35.2,18.3,0.0,Bargota
Tierra_Estella,26/07/2013,26.4,36.2,17.6,0.0,Bargota
Tierra_Estella,27/07/2013,20.7,25.6,15.6,0.0,Bargota
Tierra_Estella,28/07/2013,20.9,28.0,13.3,0.0,Bargota
Tierra_Estella,29/07/2013,20.2,28.1,12.6,0.0,Bargota
Tierra_Estella,30/07/2013,23.3,34.1,13.4,0.0,Bargota
Tierra_Estella,31/07/2013,26.2,35.5,14.7,0.0,Bargota
Tierra_Estella,01/08/2013,28.3,35.9,20.8,0.0,Bargota
Tierra_Estella,02/08/2013,26.4,36.2,18.7,0.0,Bargota
Tierra_Estella,03/08/2013,22.6,31.5,15.2,0.0,Bargota
Tierra_Estella,04/08/2013,24.3,31.6,19.0,0.0,Bargota
Tierra_Estella,05/08/2013,24.3,31.2,19.5,0.0,Bargota
Tierra_Estella,06/08/2013,22.2,27.9,19.1,0.0,Bargota
Tierra_Estella,07/08/2013,19.1,27.2,12.9,2.5,Bargota
Tierra_Estella,08/08/2013,17.1,22.9,11.9,0.0,Bargota
Tierra_Estella,09/08/2013,19.3,27.7,11.5,0.0,Bargota
Tierra_Estella,10/08/2013,21.2,29.0,12.4,0.0,Bargota
Tierra_Estella,11/08/2013,23.7,33.7,14.8,0.0,Bargota
Tierra_Estella,12/08/2013,22.4,32.2,16.0,2.7,Bargota
Tierra_Estella,13/08/2013,21.3,27.0,15.9,0.0,Bargota
Tierra_Estella,14/08/2013,21.1,30.8,13.6,0.0,Bargota
Tierra_Estella,15/08/2013,22.3,31.0,12.7,0.0,Bargota
Tierra_Estella,16/08/2013,21.8,30.8,14.7,0.0,Bargota
Tierra_Estella,17/08/2013,23.1,30.5,15.5,0.0,Bargota
Tierra_Estella,18/08/2013,23.8,32.0,14.5,0.0,Bargota
Tierra_Estella,19/08/2013,20.7,26.7,13.6,0.0,Bargota
Tierra_Estella,20/08/2013,20.0,30.2,12.1,0.0,Bargota
Tierra_Estella,21/08/2013,21.8,31.6,11.4,0.0,Bargota
Tierra_Estella,22/08/2013,24.1,30.8,18.2,0.0,Bargota
Tierra_Estella,23/08/2013,22.2,30.4,16.7,0.0,Bargota
Tierra_Estella,24/08/2013,19.4,23.7,14.2,0.0,Bargota
Tierra_Estella,25/08/2013,19.1,25.5,13.8,0.0,Bargota
Tierra_Estella,26/08/2013,18.9,24.8,13.9,0.0,Bargota
Tierra_Estella,27/08/2013,18.5,25.0,13.0,0.0,Bargota
Tierra_Estella,28/08/2013,19.0,24.7,14.6,0.0,Bargota
Tierra_Estella,29/08/2013,19.3,26.5,13.7,0.0,Bargota
Tierra_Estella,30/08/2013,18.9,26.6,12.0,0.0,Bargota
Tierra_Estella,31/08/2013,17.9,25.4,12.1,0.0,Bargota
Tierra_Estella,01/09/2013,19.5,27.0,13.1,0.0,Bargota
Tierra_Estella,02/09/2013,19.7,29.4,12.6,0.0,Bargota
Tierra_Estella,03/09/2013,19.9,29.8,9.3,0.0,Bargota
Tierra_Estella,04/09/2013,22.5,30.0,14.1,0.0,Bargota
Tierra_Estella,05/09/2013,20.3,28.3,15.4,5.5,Bargota
Tierra_Estella,06/09/2013,20.3,27.0,14.9,24.9,Bargota
Tierra_Estella,07/09/2013,16.6,21.2,14.0,10.4,Bargota
Tierra_Estella,08/09/2013,15.4,20.1,10.6,0.6,Bargota
Tierra_Estella,09/09/2013,16.2,24.9,8.5,0.2,Bargota
Tierra_Estella,10/09/2013,18.9,23.9,11.7,0.0,Bargota
Tierra_Estella,11/09/2013,14.7,20.1,9.1,0.0,Bargota
Tierra_Estella,12/09/2013,15.7,22.6,9.6,0.0,Bargota
Tierra_Estella,13/09/2013,20.5,26.3,10.7,0.0,Bargota
Tierra_Estella,14/09/2013,18.6,27.4,10.0,0.0,Bargota
Tierra_Estella,15/09/2013,16.9,21.8,10.6,0.0,Bargota
Tierra_Estella,16/09/2013,16.8,25.8,9.0,0.0,Bargota
Tierra_Estella,17/09/2013,15.7,20.3,10.9,0.0,Bargota
Tierra_Estella,18/09/2013,17.4,23.8,9.9,0.0,Bargota
Tierra_Estella,19/09/2013,18.3,21.7,15.1,0.0,Bargota
Tierra_Estella,20/09/2013,19.4,24.4,15.5,0.0,Bargota
Tierra_Estella,21/09/2013,19.0,27.4,11.1,0.0,Bargota
Tierra_Estella,22/09/2013,17.9,27.8,8.1,0.0,Bargota
Tierra_Estella,23/09/2013,19.6,27.0,13.6,0.0,Bargota
Tierra_Estella,24/09/2013,20.2,27.8,15.8,0.0,Bargota
Tierra_Estella,25/09/2013,22.3,29.1,17.0,0.0,Bargota
Tierra_Estella,26/09/2013,23.0,30.1,18.1,0.0,Bargota
Tierra_Estella,27/09/2013,22.6,29.0,18.6,0.0,Bargota
Tierra_Estella,28/09/2013,18.3,25.5,13.0,6.7,Bargota
Tierra_Estella,29/09/2013,16.8,23.5,11.2,0.6,Bargota
Tierra_Estella,30/09/2013,19.1,26.2,14.0,0.0,Bargota
Tierra_Estella,01/10/2013,17.7,21.1,15.9,3.5,Bargota
Tierra_Estella,02/10/2013,20.2,27.0,15.1,3.7,Bargota
Tierra_Estella,03/10/2013,22.2,27.9,17.6,0.0,Bargota
Tierra_Estella,04/10/2013,17.8,23.8,12.2,5.5,Bargota
Tierra_Estella,05/10/2013,15.8,21.9,10.6,0.0,Bargota
Tierra_Estella,06/10/2013,15.5,21.1,9.4,0.0,Bargota
Tierra_Estella,07/10/2013,14.2,21.7,9.1,0.2,Bargota
Tierra_Estella,08/10/2013,13.3,21.6,6.1,0.0,Bargota
Tierra_Estella,09/10/2013,14.7,20.2,9.9,0.0,Bargota
Tierra_Estella,10/10/2013,13.0,19.3,8.0,0.0,Bargota
Tierra_Estella,11/10/2013,11.4,15.8,7.7,0.0,Bargota
Tierra_Estella,12/10/2013,9.5,17.3,1.3,0.0,Bargota
Tierra_Estella,13/10/2013,11.4,20.3,3.0,0.2,Bargota
Tierra_Estella,14/10/2013,14.6,20.6,8.6,0.0,Bargota
Tierra_Estella,15/10/2013,15.2,17.7,12.7,0.8,Bargota
Tierra_Estella,16/10/2013,18.2,24.9,11.3,0.4,Bargota
Tierra_Estella,17/10/2013,17.8,24.8,10.4,0.2,Bargota
Tierra_Estella,18/10/2013,18.8,26.6,14.5,0.0,Bargota
Tierra_Estella,19/10/2013,17.8,24.2,12.6,0.0,Bargota
Tierra_Estella,20/10/2013,16.2,23.4,9.3,0.0,Bargota
Tierra_Estella,21/10/2013,15.4,21.5,6.9,0.0,Bargota
Tierra_Estella,22/10/2013,17.3,18.9,13.4,2.0,Bargota
Tierra_Estella,23/10/2013,14.0,23.3,7.3,0.2,Bargota
Tierra_Estella,24/10/2013,16.1,21.5,8.1,1.6,Bargota
Tierra_Estella,25/10/2013,17.2,22.4,14.8,4.7,Bargota
Tierra_Estella,26/10/2013,15.4,20.3,8.5,0.0,Bargota
Tierra_Estella,27/10/2013,12.4,20.5,5.8,0.2,Bargota
Tierra_Estella,28/10/2013,11.4,17.2,4.5,0.2,Bargota
Tierra_Estella,29/10/2013,10.1,13.3,6.4,0.6,Bargota
Tierra_Estella,30/10/2013,9.4,13.9,6.1,0.2,Bargota
Tierra_Estella,31/10/2013,8.7,17.9,3.3,0.0,Bargota
Tierra_Estella,01/11/2013,8.5,14.4,2.9,0.0,Bargota
Tierra_Estella,02/11/2013,13.5,21.7,6.9,1.4,Bargota
Tierra_Estella,03/11/2013,12.9,17.7,7.7,0.6,Bargota
Tierra_Estella,04/11/2013,11.2,15.8,8.2,10.2,Bargota
Tierra_Estella,05/11/2013,17.0,22.2,11.6,0.4,Bargota
Tierra_Estella,06/11/2013,15.0,22.0,9.2,0.0,Bargota
Tierra_Estella,07/11/2013,12.3,19.9,7.1,0.2,Bargota
Tierra_Estella,08/11/2013,10.9,18.5,6.1,0.4,Bargota
Tierra_Estella,09/11/2013,10.5,16.3,3.1,0.0,Bargota
Tierra_Estella,10/11/2013,13.5,17.9,10.5,0.0,Bargota
Tierra_Estella,11/11/2013,12.9,16.0,11.4,0.0,Bargota
Tierra_Estella,12/11/2013,13.0,16.4,11.5,0.0,Bargota
Tierra_Estella,13/11/2013,13.2,16.7,11.2,0.0,Bargota
Tierra_Estella,14/11/2013,11.0,13.0,9.3,0.0,Bargota
Tierra_Estella,15/11/2013,5.1,8.3,0.0,2.7,Bargota
Tierra_Estella,16/11/2013,4.3,7.7,-0.5,0.2,Bargota
Tierra_Estella,17/11/2013,7.8,8.9,5.9,3.3,Bargota
Tierra_Estella,18/11/2013,8.6,10.2,6.7,6.7,Bargota
Tierra_Estella,19/11/2013,7.9,10.8,3.7,1.4,Bargota
Tierra_Estella,20/11/2013,4.8,6.9,2.7,3.1,Bargota
Tierra_Estella,21/11/2013,5.5,6.7,4.5,1.8,Bargota
Tierra_Estella,22/11/2013,5.1,7.3,3.7,2.5,Bargota
Tierra_Estella,23/11/2013,5.5,8.6,3.5,1.2,Bargota
Tierra_Estella,24/11/2013,6.3,9.2,4.2,0.0,Bargota
Tierra_Estella,25/11/2013,5.8,8.5,4.1,0.0,Bargota
Tierra_Estella,26/11/2013,4.2,7.2,1.1,0.0,Bargota
Tierra_Estella,27/11/2013,2.8,8.0,-2.6,0.0,Bargota
Tierra_Estella,28/11/2013,0.3,6.8,-5.4,0.0,Bargota
Tierra_Estella,29/11/2013,4.5,8.4,0.8,0.0,Bargota
Tierra_Estella,30/11/2013,6.4,8.8,3.3,1.4,Bargota
Tierra_Estella,01/12/2013,4.6,8.5,0.3,0.0,Bargota
Tierra_Estella,02/12/2013,4.3,9.2,-1.3,0.0,Bargota
Tierra_Estella,03/12/2013,2.5,10.8,-3.5,0.0,Bargota
Tierra_Estella,04/12/2013,6.0,14.4,-1.5,0.0,Bargota
Tierra_Estella,05/12/2013,8.1,9.1,6.3,0.0,Bargota
Tierra_Estella,06/12/2013,7.3,12.1,0.0,0.0,Bargota
Tierra_Estella,07/12/2013,4.2,10.4,-0.8,0.0,Bargota
Tierra_Estella,08/12/2013,2.0,10.1,-4.0,0.2,Bargota
Tierra_Estella,09/12/2013,0.8,3.8,-4.3,0.0,Bargota
Tierra_Estella,10/12/2013,2.2,3.7,0.9,0.0,Bargota
Tierra_Estella,11/12/2013,1.7,3.2,-0.1,0.2,Bargota
Tierra_Estella,12/12/2013,1.9,3.5,0.6,0.0,Bargota
Tierra_Estella,13/12/2013,3.6,8.5,0.5,4.3,Bargota
Tierra_Estella,14/12/2013,6.9,13.0,0.5,0.0,Bargota
Tierra_Estella,15/12/2013,1.6,8.2,-3.4,0.0,Bargota
Tierra_Estella,16/12/2013,2.2,4.9,0.1,0.2,Bargota
Tierra_Estella,17/12/2013,5.1,7.8,1.7,0.0,Bargota
Tierra_Estella,18/12/2013,4.8,6.1,3.3,0.6,Bargota
Tierra_Estella,19/12/2013,6.0,8.2,4.3,6.5,Bargota
Tierra_Estella,20/12/2013,5.3,9.8,1.1,0.4,Bargota
Tierra_Estella,21/12/2013,1.9,6.2,-2.6,0.2,Bargota
Tierra_Estella,22/12/2013,2.0,9.9,-3.6,0.0,Bargota
Tierra_Estella,23/12/2013,2.7,7.6,-0.8,0.0,Bargota
Tierra_Estella,24/12/2013,9.3,15.2,2.3,5.3,Bargota
Tierra_Estella,25/12/2013,6.2,8.9,2.3,2.9,Bargota
Tierra_Estella,26/12/2013,5.7,9.9,3.6,0.0,Bargota
Tierra_Estella,27/12/2013,5.9,10.6,0.7,0.0,Bargota
Tierra_Estella,28/12/2013,7.5,10.2,1.8,1.2,Bargota
Tierra_Estella,29/12/2013,3.6,8.8,-1.6,0.0,Bargota
Tierra_Estella,30/12/2013,1.7,7.6,-3.3,0.0,Bargota
Tierra_Estella,31/12/2013,3.0,6.9,0.0,0.0,Bargota
