Comarca,Fecha, Temperatura media, Temperatura maxima, Temperatura minima, Precipitacion acumulada,Localidad
Tierra_Estella,01/01/2015,8.7,17.3,3.1,0.0,Estella
Tierra_Estella,02/01/2015,9.2,16.5,4.5,0.0,Estella
Tierra_Estella,03/01/2015,8.6,18.3,1.6,0.0,Estella
Tierra_Estella,04/01/2015,9.7,14.3,5.2,0.0,Estella
Tierra_Estella,05/01/2015,3.4,10.0,-0.6,0.1,Estella
Tierra_Estella,06/01/2015,5.0,12.4,-1.2,0.2,Estella
Tierra_Estella,07/01/2015,5.9,13.8,0.8,0.0,Estella
Tierra_Estella,08/01/2015,2.7,7.4,-0.9,0.2,Estella
Tierra_Estella,09/01/2015,8.4,17.4,2.0,0.0,Estella
Tierra_Estella,10/01/2015,9.4,17.8,3.7,0.0,Estella
Tierra_Estella,11/01/2015,8.2,12.9,1.4,0.0,Estella
Tierra_Estella,12/01/2015,2.7,10.4,-3.3,0.0,Estella
Tierra_Estella,13/01/2015,3.6,9.7,-1.2,0.1,Estella
Tierra_Estella,14/01/2015,5.9,12.0,1.5,0.0,Estella
Tierra_Estella,15/01/2015,6.8,9.4,3.7,0.9,Estella
Tierra_Estella,16/01/2015,5.4,8.2,3.2,3.5,Estella
Tierra_Estella,17/01/2015,3.7,9.2,-1.1,1.4,Estella
Tierra_Estella,18/01/2015,1.3,3.6,-1.6,2.3,Estella
Tierra_Estella,19/01/2015,2.6,7.6,0.3,8.9,Estella
Tierra_Estella,20/01/2015,1.7,4.3,-0.4,0.5,Estella
Tierra_Estella,21/01/2015,3.1,6.0,1.4,2.4,Estella
Tierra_Estella,22/01/2015,3.1,6.3,1.2,6.8,Estella
Tierra_Estella,23/01/2015,4.4,8.6,2.0,0.1,Estella
Tierra_Estella,24/01/2015,5.2,9.1,1.3,0.2,Estella
Tierra_Estella,25/01/2015,4.1,8.2,1.5,0.0,Estella
Tierra_Estella,26/01/2015,5.5,8.3,3.1,0.0,Estella
Tierra_Estella,27/01/2015,7.1,11.4,4.0,0.5,Estella
Tierra_Estella,28/01/2015,7.1,9.4,4.0,0.0,Estella
Tierra_Estella,29/01/2015,9.1,12.2,4.5,0.1,Estella
Tierra_Estella,30/01/2015,6.5,12.3,4.3,37.9,Estella
Tierra_Estella,31/01/2015,3.6,7.0,1.1,18.9,Estella
Tierra_Estella,01/02/2015,2.0,4.5,0.6,14.2,Estella
Tierra_Estella,02/02/2015,3.6,7.6,1.3,2.5,Estella
Tierra_Estella,03/02/2015,2.3,6.3,-1.3,4.7,Estella
Tierra_Estella,04/02/2015,-0.3,2.4,-3.7,4.8,Estella
Tierra_Estella,05/02/2015,1.1,4.3,-0.9,0.0,Estella
Tierra_Estella,06/02/2015,-1.0,1.1,-3.4,0.2,Estella
Tierra_Estella,07/02/2015,0.5,4.9,-1.5,0.1,Estella
Tierra_Estella,08/02/2015,2.5,7.9,-0.8,0.0,Estella
Tierra_Estella,09/02/2015,3.1,8.5,-1.5,0.0,Estella
Tierra_Estella,10/02/2015,1.7,10.3,-4.7,0.1,Estella
Tierra_Estella,11/02/2015,2.3,8.5,-3.5,0.2,Estella
Tierra_Estella,12/02/2015,6.0,11.0,1.2,0.0,Estella
Tierra_Estella,13/02/2015,7.1,12.5,2.8,0.0,Estella
Tierra_Estella,14/02/2015,6.2,7.9,3.8,3.0,Estella
Tierra_Estella,15/02/2015,7.8,11.5,5.6,5.1,Estella
Tierra_Estella,16/02/2015,7.2,10.7,3.9,1.6,Estella
Tierra_Estella,17/02/2015,5.8,9.8,3.2,1.2,Estella
Tierra_Estella,18/02/2015,4.6,9.8,-0.6,0.0,Estella
Tierra_Estella,19/02/2015,3.6,11.9,-2.6,0.1,Estella
Tierra_Estella,20/02/2015,4.1,9.0,-1.0,3.4,Estella
Tierra_Estella,21/02/2015,4.6,6.5,2.7,18.7,Estella
Tierra_Estella,22/02/2015,5.6,8.9,2.9,3.9,Estella
Tierra_Estella,23/02/2015,8.6,13.2,4.8,6.5,Estella
Tierra_Estella,24/02/2015,4.1,7.0,2.2,11.3,Estella
Tierra_Estella,25/02/2015,7.3,10.0,2.7,12.3,Estella
Tierra_Estella,26/02/2015,10.0,12.3,8.6,3.8,Estella
Tierra_Estella,27/02/2015,5.8,10.0,3.9,5.0,Estella
Tierra_Estella,28/02/2015,8.3,14.1,3.1,0.5,Estella
Tierra_Estella,01/03/2015,13.8,17.7,9.5,0.0,Estella
Tierra_Estella,02/03/2015,13.6,17.1,9.2,2.5,Estella
Tierra_Estella,03/03/2015,12.0,18.6,8.5,0.1,Estella
Tierra_Estella,04/03/2015,6.7,9.8,3.1,5.8,Estella
Tierra_Estella,05/03/2015,5.9,11.3,1.4,0.5,Estella
Tierra_Estella,06/03/2015,9.4,18.0,2.7,0.0,Estella
Tierra_Estella,07/03/2015,11.7,23.7,1.0,0.0,Estella
Tierra_Estella,08/03/2015,14.3,20.3,9.5,0.0,Estella
Tierra_Estella,09/03/2015,13.8,23.4,4.5,0.0,Estella
Tierra_Estella,10/03/2015,14.2,22.5,6.9,0.0,Estella
Tierra_Estella,11/03/2015,13.1,23.0,6.8,0.0,Estella
Tierra_Estella,12/03/2015,11.6,22.4,4.2,0.0,Estella
Tierra_Estella,13/03/2015,8.6,12.3,3.7,0.0,Estella
Tierra_Estella,14/03/2015,4.6,7.3,2.3,3.7,Estella
Tierra_Estella,15/03/2015,5.1,9.4,2.8,0.1,Estella
Tierra_Estella,16/03/2015,6.5,11.9,3.3,0.0,Estella
Tierra_Estella,17/03/2015,7.8,15.1,1.0,0.0,Estella
Tierra_Estella,18/03/2015,8.9,13.5,4.7,3.5,Estella
Tierra_Estella,19/03/2015,10.3,16.8,7.1,8.6,Estella
Tierra_Estella,20/03/2015,8.3,11.9,5.2,1.0,Estella
Tierra_Estella,21/03/2015,7.0,10.2,4.6,6.2,Estella
Tierra_Estella,22/03/2015,6.8,9.3,3.6,6.9,Estella
Tierra_Estella,23/03/2015,4.3,8.2,0.5,38.6,Estella
Tierra_Estella,24/03/2015,7.2,10.1,3.5,2.6,Estella
Tierra_Estella,25/03/2015,4.3,8.9,1.1,8.8,Estella
Tierra_Estella,26/03/2015,7.5,11.8,2.7,1.1,Estella
Tierra_Estella,27/03/2015,12.0,16.9,8.1,0.0,Estella
Tierra_Estella,28/03/2015,13.6,20.0,9.1,0.0,Estella
Tierra_Estella,29/03/2015,13.7,20.8,7.8,0.0,Estella
Tierra_Estella,30/03/2015,13.8,17.1,9.0,0.0,Estella
Tierra_Estella,31/03/2015,13.1,18.0,7.9,0.0,Estella
Tierra_Estella,01/04/2015,10.3,14.2,5.9,0.0,Estella
Tierra_Estella,02/04/2015,12.2,20.2,4.7,0.0,Estella
Tierra_Estella,03/04/2015,13.2,22.5,7.2,0.0,Estella
Tierra_Estella,04/04/2015,9.9,13.4,7.8,0.0,Estella
Tierra_Estella,05/04/2015,10.9,16.4,6.0,0.0,Estella
Tierra_Estella,06/04/2015,10.6,19.2,4.4,0.0,Estella
Tierra_Estella,07/04/2015,11.0,18.5,3.1,0.0,Estella
Tierra_Estella,08/04/2015,10.9,17.3,4.4,0.0,Estella
Tierra_Estella,09/04/2015,11.3,15.7,6.8,0.0,Estella
Tierra_Estella,10/04/2015,12.2,18.3,8.5,0.9,Estella
Tierra_Estella,11/04/2015,12.9,21.0,7.4,0.7,Estella
Tierra_Estella,12/04/2015,12.8,21.0,3.9,0.0,Estella
Tierra_Estella,13/04/2015,13.7,22.1,4.3,0.0,Estella
Tierra_Estella,14/04/2015,16.3,25.8,5.3,0.0,Estella
Tierra_Estella,15/04/2015,12.4,17.1,6.2,0.0,Estella
Tierra_Estella,16/04/2015,11.4,15.9,7.9,2.8,Estella
Tierra_Estella,17/04/2015,13.2,19.1,8.4,0.1,Estella
Tierra_Estella,18/04/2015,11.8,19.3,7.8,3.8,Estella
Tierra_Estella,19/04/2015,10.6,15.4,6.1,3.3,Estella
Tierra_Estella,20/04/2015,11.5,20.0,2.4,0.0,Estella
Tierra_Estella,21/04/2015,14.1,21.6,4.8,0.0,Estella
Tierra_Estella,22/04/2015,13.7,19.1,9.8,0.7,Estella
Tierra_Estella,23/04/2015,13.9,20.7,8.1,0.0,Estella
Tierra_Estella,24/04/2015,14.0,21.6,5.9,0.1,Estella
Tierra_Estella,25/04/2015,15.5,20.2,11.0,2.2,Estella
Tierra_Estella,26/04/2015,11.5,16.1,8.5,13.4,Estella
Tierra_Estella,27/04/2015,11.1,15.4,8.6,0.0,Estella
Tierra_Estella,28/04/2015,9.9,15.3,5.1,0.0,Estella
Tierra_Estella,29/04/2015,11.3,17.4,6.4,0.0,Estella
Tierra_Estella,30/04/2015,13.3,21.7,4.5,0.0,Estella
Tierra_Estella,01/05/2015,14.9,17.8,12.5,1.7,Estella
Tierra_Estella,02/05/2015,16.7,22.1,11.1,0.0,Estella
Tierra_Estella,03/05/2015,17.0,20.3,14.4,0.8,Estella
Tierra_Estella,04/05/2015,19.2,24.2,14.6,0.3,Estella
Tierra_Estella,05/05/2015,16.5,21.9,9.7,0.0,Estella
Tierra_Estella,06/05/2015,13.2,20.8,6.4,0.0,Estella
Tierra_Estella,07/05/2015,16.2,25.6,6.0,0.0,Estella
Tierra_Estella,08/05/2015,17.4,23.7,11.0,0.0,Estella
Tierra_Estella,09/05/2015,16.6,24.1,9.3,0.0,Estella
Tierra_Estella,10/05/2015,19.3,28.6,8.9,0.0,Estella
Tierra_Estella,11/05/2015,22.0,30.1,13.9,0.0,Estella
Tierra_Estella,12/05/2015,22.1,30.4,13.7,0.0,Estella
Tierra_Estella,13/05/2015,22.8,29.9,16.6,0.0,Estella
Tierra_Estella,14/05/2015,16.3,21.7,9.2,0.0,Estella
Tierra_Estella,15/05/2015,10.4,11.9,8.9,0.9,Estella
Tierra_Estella,16/05/2015,12.9,17.1,10.1,0.0,Estella
Tierra_Estella,17/05/2015,14.7,19.2,10.1,0.0,Estella
Tierra_Estella,18/05/2015,14.5,25.9,7.0,0.0,Estella
Tierra_Estella,19/05/2015,11.4,15.6,8.6,0.0,Estella
Tierra_Estella,20/05/2015,10.1,13.2,8.0,0.0,Estella
Tierra_Estella,21/05/2015,10.1,15.4,6.2,0.2,Estella
Tierra_Estella,22/05/2015,11.0,16.1,6.0,0.0,Estella
Tierra_Estella,23/05/2015,12.5,17.5,8.6,0.0,Estella
Tierra_Estella,24/05/2015,15.1,20.0,9.8,0.0,Estella
Tierra_Estella,25/05/2015,14.3,18.4,10.6,0.0,Estella
Tierra_Estella,26/05/2015,12.9,17.8,9.6,0.0,Estella
Tierra_Estella,27/05/2015,15.5,22.3,10.1,0.0,Estella
Tierra_Estella,28/05/2015,16.8,25.8,9.1,0.0,Estella
Tierra_Estella,29/05/2015,14.8,20.0,10.8,0.0,Estella
Tierra_Estella,30/05/2015,16.2,24.5,7.8,0.0,Estella
Tierra_Estella,31/05/2015,18.1,27.6,10.1,0.0,Estella
Tierra_Estella,01/06/2015,18.7,27.5,13.6,0.0,Estella
Tierra_Estella,02/06/2015,20.7,29.9,11.4,0.0,Estella
Tierra_Estella,03/06/2015,22.8,31.3,14.8,0.0,Estella
Tierra_Estella,04/06/2015,23.9,32.0,14.6,0.0,Estella
Tierra_Estella,05/06/2015,22.5,31.2,15.3,0.0,Estella
Tierra_Estella,06/06/2015,19.6,30.5,13.4,0.0,Estella
Tierra_Estella,07/06/2015,21.5,31.7,12.8,0.0,Estella
Tierra_Estella,08/06/2015,22.0,29.8,14.8,0.0,Estella
Tierra_Estella,09/06/2015,18.0,23.7,12.5,1.3,Estella
Tierra_Estella,10/06/2015,13.8,17.5,11.2,44.0,Estella
Tierra_Estella,11/06/2015,15.1,18.1,12.3,39.2,Estella
Tierra_Estella,12/06/2015,16.6,23.9,11.6,2.0,Estella
Tierra_Estella,13/06/2015,15.6,21.3,12.6,7.0,Estella
Tierra_Estella,14/06/2015,15.3,21.9,10.3,6.2,Estella
Tierra_Estella,15/06/2015,15.4,21.8,10.1,0.0,Estella
Tierra_Estella,16/06/2015,14.5,16.9,11.9,0.0,Estella
Tierra_Estella,17/06/2015,15.8,20.8,11.5,0.0,Estella
Tierra_Estella,18/06/2015,17.0,23.1,10.8,0.0,Estella
Tierra_Estella,19/06/2015,16.9,22.0,12.3,0.0,Estella
Tierra_Estella,20/06/2015,19.2,27.4,11.8,0.0,Estella
Tierra_Estella,21/06/2015,20.9,29.7,13.0,0.0,Estella
Tierra_Estella,22/06/2015,20.7,32.4,11.7,8.0,Estella
Tierra_Estella,23/06/2015,19.0,24.6,13.7,0.0,Estella
Tierra_Estella,24/06/2015,19.4,27.1,12.0,0.0,Estella
Tierra_Estella,25/06/2015,21.5,31.1,11.0,0.0,Estella
Tierra_Estella,26/06/2015,23.1,33.4,15.0,0.0,Estella
Tierra_Estella,27/06/2015,22.6,31.5,14.9,0.0,Estella
Tierra_Estella,28/06/2015,23.2,33.2,15.0,0.0,Estella
Tierra_Estella,29/06/2015,25.0,34.7,15.2,0.0,Estella
Tierra_Estella,30/06/2015,28.6,35.9,21.1,0.0,Estella
Tierra_Estella,01/07/2015,28.7,35.4,22.2,0.3,Estella
Tierra_Estella,02/07/2015,24.6,32.2,19.0,0.0,Estella
Tierra_Estella,03/07/2015,26.8,34.2,18.1,0.0,Estella
Tierra_Estella,04/07/2015,27.4,35.0,20.0,0.0,Estella
Tierra_Estella,05/07/2015,22.6,31.6,16.7,0.0,Estella
Tierra_Estella,06/07/2015,25.5,35.9,15.7,0.0,Estella
Tierra_Estella,07/07/2015,24.6,33.6,17.9,0.0,Estella
Tierra_Estella,08/07/2015,18.7,21.7,13.3,0.0,Estella
Tierra_Estella,09/07/2015,19.4,26.8,12.3,0.0,Estella
Tierra_Estella,10/07/2015,22.3,35.4,11.8,0.0,Estella
Tierra_Estella,11/07/2015,19.6,24.8,16.2,0.0,Estella
Tierra_Estella,12/07/2015,20.7,29.3,15.4,0.0,Estella
Tierra_Estella,13/07/2015,22.3,31.6,13.7,0.0,Estella
Tierra_Estella,14/07/2015,23.8,34.7,14.8,0.0,Estella
Tierra_Estella,15/07/2015,26.0,35.6,16.6,0.0,Estella
Tierra_Estella,16/07/2015,25.8,31.7,20.7,0.4,Estella
Tierra_Estella,17/07/2015,24.3,34.0,16.3,1.2,Estella
Tierra_Estella,18/07/2015,23.2,33.0,12.7,17.6,Estella
Tierra_Estella,19/07/2015,23.8,31.5,17.7,0.0,Estella
Tierra_Estella,20/07/2015,25.8,34.2,18.2,0.0,Estella
Tierra_Estella,21/07/2015,23.9,32.2,18.7,6.9,Estella
Tierra_Estella,22/07/2015,21.2,27.0,17.1,0.0,Estella
Tierra_Estella,23/07/2015,23.1,31.8,15.2,0.0,Estella
Tierra_Estella,24/07/2015,22.7,31.9,17.2,0.0,Estella
Tierra_Estella,25/07/2015,17.9,22.1,13.3,0.0,Estella
Tierra_Estella,26/07/2015,20.1,31.3,10.1,0.0,Estella
Tierra_Estella,27/07/2015,20.1,25.6,15.3,0.0,Estella
Tierra_Estella,28/07/2015,21.4,30.7,14.4,0.0,Estella
Tierra_Estella,29/07/2015,20.7,28.1,14.6,0.3,Estella
Tierra_Estella,30/07/2015,15.0,19.1,12.0,16.0,Estella
Tierra_Estella,31/07/2015,16.4,21.3,11.2,4.3,Estella
Tierra_Estella,01/08/2015,17.3,23.0,10.9,0.0,Estella
Tierra_Estella,02/08/2015,21.7,31.0,10.8,0.0,Estella
Tierra_Estella,03/08/2015,24.3,32.1,17.1,7.6,Estella
Tierra_Estella,04/08/2015,20.7,25.9,16.6,0.0,Estella
Tierra_Estella,05/08/2015,23.6,34.2,15.5,0.0,Estella
Tierra_Estella,06/08/2015,24.5,34.0,15.0,0.0,Estella
Tierra_Estella,07/08/2015,21.2,26.1,16.3,0.0,Estella
Tierra_Estella,08/08/2015,16.4,19.4,13.3,0.9,Estella
Tierra_Estella,09/08/2015,17.5,23.1,12.0,0.0,Estella
Tierra_Estella,10/08/2015,21.8,32.8,11.5,0.0,Estella
Tierra_Estella,11/08/2015,23.4,33.3,13.6,0.9,Estella
Tierra_Estella,12/08/2015,25.8,33.7,19.2,0.0,Estella
Tierra_Estella,13/08/2015,20.0,25.8,16.1,1.8,Estella
Tierra_Estella,14/08/2015,17.5,22.2,15.4,0.0,Estella
Tierra_Estella,15/08/2015,17.4,23.4,12.7,0.0,Estella
Tierra_Estella,16/08/2015,18.1,26.4,8.9,0.0,Estella
Tierra_Estella,17/08/2015,18.7,24.8,14.5,0.0,Estella
Tierra_Estella,18/08/2015,18.2,25.0,13.4,0.0,Estella
Tierra_Estella,19/08/2015,19.4,28.0,11.0,0.0,Estella
Tierra_Estella,20/08/2015,21.5,32.2,11.2,0.0,Estella
Tierra_Estella,21/08/2015,24.2,33.3,13.4,0.0,Estella
Tierra_Estella,22/08/2015,23.3,30.2,16.7,3.9,Estella
Tierra_Estella,23/08/2015,20.9,26.6,15.7,0.0,Estella
Tierra_Estella,24/08/2015,17.3,23.9,12.2,0.2,Estella
Tierra_Estella,25/08/2015,18.4,28.0,8.6,0.0,Estella
Tierra_Estella,26/08/2015,23.4,31.9,14.9,0.0,Estella
Tierra_Estella,27/08/2015,24.6,32.8,16.9,0.0,Estella
Tierra_Estella,28/08/2015,25.2,33.7,16.3,0.0,Estella
Tierra_Estella,29/08/2015,27.1,34.0,20.0,0.0,Estella
Tierra_Estella,30/08/2015,25.1,32.4,19.2,5.9,Estella
Tierra_Estella,31/08/2015,19.6,28.5,14.0,53.4,Estella
Tierra_Estella,01/09/2015,17.6,22.7,13.4,0.1,Estella
Tierra_Estella,02/09/2015,16.6,22.7,11.6,3.2,Estella
Tierra_Estella,03/09/2015,15.9,21.6,12.1,0.4,Estella
Tierra_Estella,04/09/2015,14.9,20.0,10.4,0.0,Estella
Tierra_Estella,05/09/2015,14.7,21.5,9.9,0.0,Estella
Tierra_Estella,06/09/2015,15.3,22.8,9.4,0.0,Estella
Tierra_Estella,07/09/2015,15.7,21.8,10.8,0.0,Estella
Tierra_Estella,08/09/2015,16.0,24.1,9.1,0.0,Estella
Tierra_Estella,09/09/2015,17.6,24.9,8.9,0.0,Estella
Tierra_Estella,10/09/2015,18.4,24.0,14.1,0.2,Estella
Tierra_Estella,11/09/2015,19.0,26.1,12.2,0.0,Estella
Tierra_Estella,12/09/2015,20.6,25.7,18.0,1.5,Estella
Tierra_Estella,13/09/2015,17.4,20.6,13.0,0.0,Estella
Tierra_Estella,14/09/2015,16.6,22.3,12.2,0.0,Estella
Tierra_Estella,15/09/2015,14.7,18.0,11.7,0.8,Estella
Tierra_Estella,16/09/2015,18.7,22.6,14.9,2.4,Estella
Tierra_Estella,17/09/2015,13.8,18.6,8.5,1.5,Estella
Tierra_Estella,18/09/2015,13.2,21.6,6.1,0.0,Estella
Tierra_Estella,19/09/2015,14.8,23.0,7.9,0.0,Estella
Tierra_Estella,20/09/2015,16.7,25.8,9.0,0.0,Estella
Tierra_Estella,21/09/2015,16.9,26.8,7.8,0.0,Estella
Tierra_Estella,22/09/2015,15.7,20.8,12.1,0.0,Estella
Tierra_Estella,23/09/2015,13.8,18.0,11.6,0.7,Estella
Tierra_Estella,24/09/2015,16.9,25.2,11.3,0.0,Estella
Tierra_Estella,25/09/2015,18.2,27.0,11.4,0.0,Estella
Tierra_Estella,26/09/2015,17.6,27.2,12.8,0.0,Estella
Tierra_Estella,27/09/2015,15.4,22.4,9.9,0.0,Estella
Tierra_Estella,28/09/2015,15.0,23.1,7.3,0.0,Estella
Tierra_Estella,29/09/2015,14.7,22.3,8.4,4.2,Estella
Tierra_Estella,30/09/2015,15.4,22.4,11.1,3.9,Estella
Tierra_Estella,01/10/2015,15.8,24.5,9.1,0.0,Estella
Tierra_Estella,02/10/2015,12.7,18.1,8.9,0.5,Estella
Tierra_Estella,03/10/2015,12.8,21.2,6.7,0.0,Estella
Tierra_Estella,04/10/2015,12.2,16.1,7.0,1.3,Estella
Tierra_Estella,05/10/2015,20.2,26.3,15.5,0.0,Estella
Tierra_Estella,06/10/2015,17.1,22.4,12.4,0.7,Estella
Tierra_Estella,07/10/2015,13.6,18.3,10.7,0.0,Estella
Tierra_Estella,08/10/2015,13.2,19.5,9.0,0.0,Estella
Tierra_Estella,09/10/2015,12.8,22.3,5.5,0.0,Estella
Tierra_Estella,10/10/2015,13.2,22.2,5.2,0.0,Estella
Tierra_Estella,11/10/2015,14.8,18.0,12.0,0.4,Estella
Tierra_Estella,12/10/2015,14.5,21.5,10.7,4.1,Estella
Tierra_Estella,13/10/2015,11.8,15.9,8.8,0.0,Estella
Tierra_Estella,14/10/2015,9.2,13.6,4.5,0.0,Estella
Tierra_Estella,15/10/2015,9.3,16.3,4.6,0.0,Estella
Tierra_Estella,16/10/2015,8.4,16.9,1.2,0.0,Estella
Tierra_Estella,17/10/2015,10.9,18.4,2.4,2.7,Estella
Tierra_Estella,18/10/2015,14.5,19.1,12.9,0.6,Estella
Tierra_Estella,19/10/2015,14.9,16.5,14.0,5.5,Estella
Tierra_Estella,20/10/2015,12.3,14.7,10.0,4.6,Estella
Tierra_Estella,21/10/2015,10.6,15.2,6.5,0.0,Estella
Tierra_Estella,22/10/2015,11.4,16.1,7.6,0.0,Estella
Tierra_Estella,23/10/2015,12.8,19.7,5.5,0.0,Estella
Tierra_Estella,24/10/2015,14.5,18.4,10.2,0.0,Estella
Tierra_Estella,25/10/2015,15.4,20.6,11.1,0.0,Estella
Tierra_Estella,26/10/2015,14.9,19.8,10.5,0.6,Estella
Tierra_Estella,27/10/2015,12.6,16.3,6.7,14.4,Estella
Tierra_Estella,28/10/2015,10.8,16.9,6.7,1.1,Estella
Tierra_Estella,29/10/2015,14.2,20.5,10.4,0.0,Estella
Tierra_Estella,30/10/2015,14.8,21.3,8.7,0.0,Estella
Tierra_Estella,31/10/2015,13.7,18.5,10.1,0.0,Estella
Tierra_Estella,01/11/2015,13.3,17.3,9.1,0.0,Estella
Tierra_Estella,02/11/2015,11.9,13.5,10.4,24.2,Estella
Tierra_Estella,03/11/2015,11.2,13.4,9.2,8.1,Estella
Tierra_Estella,04/11/2015,12.4,15.9,8.1,0.2,Estella
Tierra_Estella,05/11/2015,13.2,16.0,10.1,0.0,Estella
Tierra_Estella,06/11/2015,14.1,20.3,9.6,0.0,Estella
Tierra_Estella,07/11/2015,13.7,21.1,8.4,0.0,Estella
Tierra_Estella,08/11/2015,14.5,20.3,10.3,0.0,Estella
Tierra_Estella,09/11/2015,13.4,20.5,9.2,0.1,Estella
Tierra_Estella,10/11/2015,10.5,12.7,8.2,0.2,Estella
Tierra_Estella,11/11/2015,9.0,11.6,6.2,0.2,Estella
Tierra_Estella,12/11/2015,8.5,10.4,7.3,0.5,Estella
Tierra_Estella,13/11/2015,11.3,17.3,4.1,0.1,Estella
Tierra_Estella,14/11/2015,12.6,18.3,7.1,0.0,Estella
Tierra_Estella,15/11/2015,7.4,13.1,4.2,0.1,Estella
Tierra_Estella,16/11/2015,7.6,15.7,1.5,0.2,Estella
Tierra_Estella,17/11/2015,10.1,18.4,4.2,0.0,Estella
Tierra_Estella,18/11/2015,12.7,20.6,7.1,0.0,Estella
Tierra_Estella,19/11/2015,13.7,20.8,9.0,0.0,Estella
Tierra_Estella,20/11/2015,12.1,17.2,6.6,0.0,Estella
Tierra_Estella,21/11/2015,7.6,14.0,3.3,19.2,Estella
Tierra_Estella,22/11/2015,3.5,5.8,1.4,13.5,Estella
Tierra_Estella,23/11/2015,2.7,5.1,-0.2,1.3,Estella
Tierra_Estella,24/11/2015,6.2,8.6,2.5,0.6,Estella
Tierra_Estella,25/11/2015,10.3,12.4,7.7,14.1,Estella
Tierra_Estella,26/11/2015,10.8,12.8,9.0,0.1,Estella
Tierra_Estella,27/11/2015,9.5,12.8,7.7,0.1,Estella
Tierra_Estella,28/11/2015,8.2,11.1,4.2,0.2,Estella
Tierra_Estella,29/11/2015,6.9,14.0,2.6,0.0,Estella
Tierra_Estella,30/11/2015,4.6,13.2,-0.4,0.0,Estella
Tierra_Estella,01/12/2015,3.0,11.0,-1.9,0.0,Estella
Tierra_Estella,02/12/2015,4.5,12.7,-0.7,0.0,Estella
Tierra_Estella,03/12/2015,4.6,10.6,-0.0,0.0,Estella
Tierra_Estella,04/12/2015,8.3,16.6,1.9,0.0,Estella
Tierra_Estella,05/12/2015,7.3,13.1,3.3,0.0,Estella
Tierra_Estella,06/12/2015,8.1,10.6,3.1,0.0,Estella
Tierra_Estella,07/12/2015,9.5,12.0,8.3,0.0,Estella
Tierra_Estella,08/12/2015,9.9,11.7,8.8,0.3,Estella
Tierra_Estella,09/12/2015,9.2,15.1,3.2,0.0,Estella
Tierra_Estella,10/12/2015,5.2,7.3,1.8,0.1,Estella
Tierra_Estella,11/12/2015,5.4,5.8,4.5,0.4,Estella
Tierra_Estella,12/12/2015,4.3,5.0,3.7,0.5,Estella
Tierra_Estella,13/12/2015,4.1,4.6,3.5,0.1,Estella
Tierra_Estella,14/12/2015,4.1,6.6,2.7,0.7,Estella
Tierra_Estella,15/12/2015,6.9,10.1,4.9,0.0,Estella
Tierra_Estella,16/12/2015,6.8,12.8,2.7,0.0,Estella
Tierra_Estella,17/12/2015,6.5,13.1,1.6,0.0,Estella
Tierra_Estella,18/12/2015,7.6,14.3,2.3,0.0,Estella
Tierra_Estella,19/12/2015,7.9,14.0,2.4,0.0,Estella
Tierra_Estella,20/12/2015,8.6,12.7,5.8,0.0,Estella
Tierra_Estella,21/12/2015,7.3,12.5,1.2,0.1,Estella
Tierra_Estella,22/12/2015,4.6,8.8,1.3,0.3,Estella
Tierra_Estella,23/12/2015,2.4,4.2,-0.7,0.4,Estella
Tierra_Estella,24/12/2015,5.8,7.4,3.9,0.3,Estella
Tierra_Estella,25/12/2015,6.0,7.0,4.5,0.2,Estella
Tierra_Estella,26/12/2015,3.9,5.5,1.5,0.1,Estella
Tierra_Estella,27/12/2015,3.9,6.6,1.9,0.0,Estella
Tierra_Estella,28/12/2015,8.4,12.7,4.4,0.1,Estella
Tierra_Estella,29/12/2015,7.9,13.1,3.7,1.4,Estella
Tierra_Estella,30/12/2015,5.3,10.4,-0.3,0.0,Estella
Tierra_Estella,31/12/2015,7.6,11.3,2.3,2.1,Estella
