Comarca,Fecha, Temperatura media, Temperatura maxima, Temperatura minima, Precipitacion acumulada,Localidad
Tierra_Estella,01/01/2018,7.8,14.5,0.2,0.2,Sartaguda
Tierra_Estella,02/01/2018,11.0,15.6,5.9,1.9,Sartaguda
Tierra_Estella,03/01/2018,11.9,18.5,4.0,0.2,Sartaguda
Tierra_Estella,04/01/2018,12.0,17.7,4.3,0.0,Sartaguda
Tierra_Estella,05/01/2018,9.2,16.5,4.5,5.5,Sartaguda
Tierra_Estella,06/01/2018,3.2,6.7,0.1,22.0,Sartaguda
Tierra_Estella,07/01/2018,2.4,5.4,0.6,18.0,Sartaguda
Tierra_Estella,08/01/2018,1.9,7.9,-2.4,28.3,Sartaguda
Tierra_Estella,09/01/2018,-0.4,2.8,-3.5,4.0,Sartaguda
Tierra_Estella,10/01/2018,2.4,7.2,-1.7,4.0,Sartaguda
Tierra_Estella,11/01/2018,4.4,9.1,-0.3,3.6,Sartaguda
Tierra_Estella,12/01/2018,6.5,11.0,1.7,7.8,Sartaguda
Tierra_Estella,13/01/2018,3.5,6.8,0.1,1.5,Sartaguda
Tierra_Estella,14/01/2018,5.6,9.1,3.2,5.0,Sartaguda
Tierra_Estella,15/01/2018,6.1,8.9,2.9,0.0,Sartaguda
Tierra_Estella,16/01/2018,8.5,14.5,0.5,0.0,Sartaguda
Tierra_Estella,17/01/2018,9.4,11.7,2.5,0.0,Sartaguda
Tierra_Estella,18/01/2018,4.5,13.2,-0.9,0.0,Sartaguda
Tierra_Estella,19/01/2018,8.1,13.8,2.6,0.2,Sartaguda
Tierra_Estella,20/01/2018,9.0,13.7,2.1,0.0,Sartaguda
Tierra_Estella,21/01/2018,12.6,16.8,8.2,0.0,Sartaguda
Tierra_Estella,22/01/2018,10.5,15.6,4.8,0.0,Sartaguda
Tierra_Estella,23/01/2018,11.2,16.4,5.5,0.0,Sartaguda
Tierra_Estella,24/01/2018,6.4,8.9,2.8,0.0,Sartaguda
Tierra_Estella,25/01/2018,6.8,7.8,5.4,8.2,Sartaguda
Tierra_Estella,26/01/2018,6.4,8.8,5.2,1.5,Sartaguda
Tierra_Estella,27/01/2018,6.6,9.9,2.7,0.2,Sartaguda
Tierra_Estella,28/01/2018,5.2,13.2,0.6,0.0,Sartaguda
Tierra_Estella,29/01/2018,6.3,15.1,-0.4,0.2,Sartaguda
Tierra_Estella,30/01/2018,5.0,13.0,-0.7,0.0,Sartaguda
Tierra_Estella,31/01/2018,3.8,12.0,-1.7,0.2,Sartaguda
Tierra_Estella,01/02/2018,5.7,9.8,2.7,0.2,Sartaguda
Tierra_Estella,02/02/2018,4.2,7.2,2.3,0.4,Sartaguda
Tierra_Estella,03/02/2018,6.3,9.5,3.1,0.6,Sartaguda
Tierra_Estella,04/02/2018,5.5,7.7,3.2,2.9,Sartaguda
Tierra_Estella,05/02/2018,3.9,5.2,2.3,7.3,Sartaguda
Tierra_Estella,06/02/2018,4.0,6.3,2.0,0.0,Sartaguda
Tierra_Estella,07/02/2018,3.3,6.2,1.6,0.0,Sartaguda
Tierra_Estella,08/02/2018,3.2,6.9,-0.2,0.0,Sartaguda
Tierra_Estella,09/02/2018,2.8,8.5,-3.1,0.2,Sartaguda
Tierra_Estella,10/02/2018,5.4,7.4,3.4,0.8,Sartaguda
Tierra_Estella,11/02/2018,9.1,13.1,6.2,0.2,Sartaguda
Tierra_Estella,12/02/2018,5.0,7.7,-0.9,0.4,Sartaguda
Tierra_Estella,13/02/2018,1.1,5.2,-3.6,0.4,Sartaguda
Tierra_Estella,14/02/2018,5.5,9.7,2.7,2.9,Sartaguda
Tierra_Estella,15/02/2018,7.9,14.5,1.9,0.2,Sartaguda
Tierra_Estella,16/02/2018,10.5,17.5,4.3,0.0,Sartaguda
Tierra_Estella,17/02/2018,9.2,12.4,5.8,0.4,Sartaguda
Tierra_Estella,18/02/2018,8.5,12.0,4.3,0.0,Sartaguda
Tierra_Estella,19/02/2018,10.8,13.2,8.5,0.0,Sartaguda
Tierra_Estella,20/02/2018,10.1,12.2,8.2,0.0,Sartaguda
Tierra_Estella,21/02/2018,6.5,8.8,3.7,0.0,Sartaguda
Tierra_Estella,22/02/2018,4.9,8.5,1.8,0.0,Sartaguda
Tierra_Estella,23/02/2018,3.0,8.1,-1.9,0.0,Sartaguda
Tierra_Estella,24/02/2018,3.4,9.1,-0.5,0.0,Sartaguda
Tierra_Estella,25/02/2018,6.3,15.2,-1.5,0.0,Sartaguda
Tierra_Estella,26/02/2018,4.9,11.7,-0.7,0.0,Sartaguda
Tierra_Estella,27/02/2018,0.6,5.7,-3.7,0.0,Sartaguda
Tierra_Estella,28/02/2018,0.5,2.7,-1.9,11.7,Sartaguda
Tierra_Estella,01/03/2018,7.5,11.6,2.5,7.3,Sartaguda
Tierra_Estella,02/03/2018,6.7,11.5,-1.4,2.3,Sartaguda
Tierra_Estella,03/03/2018,10.1,16.3,2.0,2.5,Sartaguda
Tierra_Estella,04/03/2018,10.8,15.6,5.8,0.8,Sartaguda
Tierra_Estella,05/03/2018,8.7,14.5,5.7,2.3,Sartaguda
Tierra_Estella,06/03/2018,7.5,14.4,0.9,2.7,Sartaguda
Tierra_Estella,07/03/2018,7.0,13.5,0.9,0.6,Sartaguda
Tierra_Estella,08/03/2018,9.2,14.0,6.3,0.2,Sartaguda
Tierra_Estella,09/03/2018,12.1,18.1,5.5,0.2,Sartaguda
Tierra_Estella,10/03/2018,13.9,16.7,9.5,0.2,Sartaguda
Tierra_Estella,11/03/2018,11.7,16.6,5.6,0.2,Sartaguda
Tierra_Estella,12/03/2018,10.2,16.4,3.8,0.0,Sartaguda
Tierra_Estella,13/03/2018,8.3,14.0,3.4,3.4,Sartaguda
Tierra_Estella,14/03/2018,7.9,12.3,1.9,6.1,Sartaguda
Tierra_Estella,15/03/2018,9.1,15.9,3.3,0.8,Sartaguda
Tierra_Estella,16/03/2018,7.8,14.1,2.1,0.4,Sartaguda
Tierra_Estella,17/03/2018,5.3,10.7,2.7,3.8,Sartaguda
Tierra_Estella,18/03/2018,6.4,11.6,1.4,2.7,Sartaguda
Tierra_Estella,19/03/2018,4.3,10.1,1.2,6.5,Sartaguda
Tierra_Estella,20/03/2018,4.0,7.1,2.6,1.1,Sartaguda
Tierra_Estella,21/03/2018,5.5,9.3,3.3,0.0,Sartaguda
Tierra_Estella,22/03/2018,6.7,11.1,2.6,0.0,Sartaguda
Tierra_Estella,23/03/2018,9.3,15.4,2.0,3.1,Sartaguda
Tierra_Estella,24/03/2018,8.1,13.1,2.3,5.2,Sartaguda
Tierra_Estella,25/03/2018,8.4,11.9,4.9,0.4,Sartaguda
Tierra_Estella,26/03/2018,9.1,12.9,6.8,0.0,Sartaguda
Tierra_Estella,27/03/2018,12.2,20.0,5.3,0.0,Sartaguda
Tierra_Estella,28/03/2018,11.6,21.3,3.4,2.7,Sartaguda
Tierra_Estella,29/03/2018,10.6,16.5,5.3,0.0,Sartaguda
Tierra_Estella,30/03/2018,9.6,14.5,3.3,0.6,Sartaguda
Tierra_Estella,31/03/2018,8.9,14.5,2.1,0.2,Sartaguda
Tierra_Estella,01/04/2018,9.3,17.4,0.0,0.0,Sartaguda
Tierra_Estella,02/04/2018,13.3,18.7,8.2,0.0,Sartaguda
Tierra_Estella,03/04/2018,14.5,20.9,7.1,0.2,Sartaguda
Tierra_Estella,04/04/2018,12.5,19.4,5.6,0.0,Sartaguda
Tierra_Estella,05/04/2018,13.7,19.3,9.0,0.0,Sartaguda
Tierra_Estella,06/04/2018,13.9,21.1,8.5,6.3,Sartaguda
Tierra_Estella,07/04/2018,9.9,12.2,7.9,25.8,Sartaguda
Tierra_Estella,08/04/2018,10.4,16.7,4.9,0.4,Sartaguda
Tierra_Estella,09/04/2018,6.9,10.8,4.8,1.9,Sartaguda
Tierra_Estella,10/04/2018,7.1,10.1,3.2,16.8,Sartaguda
Tierra_Estella,11/04/2018,7.7,10.6,2.8,9.4,Sartaguda
Tierra_Estella,12/04/2018,11.3,16.4,5.6,0.0,Sartaguda
Tierra_Estella,13/04/2018,10.1,14.8,5.8,3.8,Sartaguda
Tierra_Estella,14/04/2018,11.2,18.0,4.0,0.2,Sartaguda
Tierra_Estella,15/04/2018,12.4,19.1,6.1,9.0,Sartaguda
Tierra_Estella,16/04/2018,10.7,15.9,6.5,16.4,Sartaguda
Tierra_Estella,17/04/2018,12.7,22.2,3.8,0.0,Sartaguda
Tierra_Estella,18/04/2018,15.0,24.1,5.6,0.2,Sartaguda
Tierra_Estella,19/04/2018,16.1,22.7,7.2,0.0,Sartaguda
Tierra_Estella,20/04/2018,15.7,22.5,7.4,0.0,Sartaguda
Tierra_Estella,21/04/2018,14.9,22.0,6.6,0.0,Sartaguda
Tierra_Estella,22/04/2018,15.6,22.0,10.1,0.2,Sartaguda
Tierra_Estella,23/04/2018,15.4,22.4,9.8,0.0,Sartaguda
Tierra_Estella,24/04/2018,16.1,25.0,8.2,0.0,Sartaguda
Tierra_Estella,25/04/2018,15.6,22.0,10.5,0.2,Sartaguda
Tierra_Estella,26/04/2018,14.7,20.7,8.3,0.0,Sartaguda
Tierra_Estella,27/04/2018,14.0,21.1,8.2,3.8,Sartaguda
Tierra_Estella,28/04/2018,13.6,22.4,9.2,0.0,Sartaguda
Tierra_Estella,29/04/2018,10.4,15.4,5.5,4.2,Sartaguda
Tierra_Estella,30/04/2018,8.3,13.4,2.2,3.4,Sartaguda
Tierra_Estella,01/05/2018,9.6,15.6,3.1,0.0,Sartaguda
Tierra_Estella,02/05/2018,10.9,17.6,2.2,1.1,Sartaguda
Tierra_Estella,03/05/2018,11.2,14.9,8.6,0.2,Sartaguda
Tierra_Estella,04/05/2018,12.0,16.3,8.6,0.0,Sartaguda
Tierra_Estella,05/05/2018,15.0,21.4,9.2,0.0,Sartaguda
Tierra_Estella,06/05/2018,16.9,25.6,7.5,0.0,Sartaguda
Tierra_Estella,07/05/2018,18.5,26.6,11.2,0.0,Sartaguda
Tierra_Estella,08/05/2018,17.4,23.4,12.8,0.2,Sartaguda
Tierra_Estella,09/05/2018,16.0,22.4,10.3,0.0,Sartaguda
Tierra_Estella,10/05/2018,13.5,18.3,4.5,0.0,Sartaguda
Tierra_Estella,11/05/2018,14.5,24.9,3.2,0.0,Sartaguda
Tierra_Estella,12/05/2018,11.8,16.1,6.6,4.2,Sartaguda
Tierra_Estella,13/05/2018,10.4,16.6,3.6,0.4,Sartaguda
Tierra_Estella,14/05/2018,12.2,17.7,8.6,0.0,Sartaguda
Tierra_Estella,15/05/2018,13.2,19.2,9.0,0.0,Sartaguda
Tierra_Estella,16/05/2018,14.7,21.9,9.0,0.0,Sartaguda
Tierra_Estella,17/05/2018,15.5,22.0,9.2,0.0,Sartaguda
Tierra_Estella,18/05/2018,16.9,24.5,10.3,0.2,Sartaguda
Tierra_Estella,19/05/2018,18.0,24.5,11.7,0.0,Sartaguda
Tierra_Estella,20/05/2018,17.4,25.9,11.1,0.0,Sartaguda
Tierra_Estella,21/05/2018,17.5,23.9,13.0,1.7,Sartaguda
Tierra_Estella,22/05/2018,18.2,26.4,10.1,0.0,Sartaguda
Tierra_Estella,23/05/2018,15.9,21.5,9.4,1.1,Sartaguda
Tierra_Estella,24/05/2018,18.1,24.7,14.3,10.1,Sartaguda
Tierra_Estella,25/05/2018,17.0,22.3,12.4,6.9,Sartaguda
Tierra_Estella,26/05/2018,17.3,23.9,14.0,14.2,Sartaguda
Tierra_Estella,27/05/2018,18.4,25.6,12.8,0.2,Sartaguda
Tierra_Estella,28/05/2018,15.9,17.7,13.9,11.1,Sartaguda
Tierra_Estella,29/05/2018,16.8,22.2,14.0,0.6,Sartaguda
Tierra_Estella,30/05/2018,16.0,22.2,13.7,8.0,Sartaguda
Tierra_Estella,31/05/2018,17.9,24.0,13.7,0.8,Sartaguda
Tierra_Estella,01/06/2018,18.2,25.9,12.5,0.4,Sartaguda
Tierra_Estella,02/06/2018,19.3,25.9,13.8,0.6,Sartaguda
Tierra_Estella,03/06/2018,18.7,24.3,12.9,0.8,Sartaguda
Tierra_Estella,04/06/2018,17.9,22.4,14.0,0.8,Sartaguda
Tierra_Estella,05/06/2018,16.1,20.3,12.2,0.8,Sartaguda
Tierra_Estella,06/06/2018,15.7,21.3,10.3,0.2,Sartaguda
Tierra_Estella,07/06/2018,17.7,24.7,10.1,0.2,Sartaguda
Tierra_Estella,08/06/2018,19.0,24.2,12.9,0.0,Sartaguda
Tierra_Estella,09/06/2018,18.0,25.2,12.1,0.0,Sartaguda
Tierra_Estella,10/06/2018,16.4,24.2,10.4,0.0,Sartaguda
Tierra_Estella,11/06/2018,16.7,22.1,10.6,0.2,Sartaguda
Tierra_Estella,12/06/2018,16.9,23.1,10.2,0.0,Sartaguda
Tierra_Estella,13/06/2018,16.9,20.2,13.0,0.0,Sartaguda
Tierra_Estella,14/06/2018,17.1,22.7,11.5,0.0,Sartaguda
Tierra_Estella,15/06/2018,19.2,26.1,12.1,0.0,Sartaguda
Tierra_Estella,16/06/2018,19.3,26.3,13.0,0.0,Sartaguda
Tierra_Estella,17/06/2018,19.3,26.7,13.1,0.0,Sartaguda
Tierra_Estella,18/06/2018,19.5,25.4,13.7,0.0,Sartaguda
Tierra_Estella,19/06/2018,22.1,30.6,15.7,0.0,Sartaguda
Tierra_Estella,20/06/2018,23.7,33.5,14.1,0.0,Sartaguda
Tierra_Estella,21/06/2018,24.7,34.7,15.3,0.0,Sartaguda
Tierra_Estella,22/06/2018,23.7,29.5,18.1,0.0,Sartaguda
Tierra_Estella,23/06/2018,22.9,31.8,15.2,0.0,Sartaguda
Tierra_Estella,24/06/2018,23.1,33.4,13.2,0.0,Sartaguda
Tierra_Estella,25/06/2018,24.5,34.5,15.6,0.0,Sartaguda
Tierra_Estella,26/06/2018,24.6,33.7,13.7,0.0,Sartaguda
Tierra_Estella,27/06/2018,23.4,30.1,17.6,0.0,Sartaguda
Tierra_Estella,28/06/2018,22.3,28.7,17.6,0.2,Sartaguda
Tierra_Estella,29/06/2018,22.1,30.3,17.4,4.2,Sartaguda
Tierra_Estella,30/06/2018,22.2,30.4,17.6,4.4,Sartaguda
Tierra_Estella,01/07/2018,24.3,32.4,16.4,0.0,Sartaguda
Tierra_Estella,02/07/2018,23.4,30.5,16.0,0.0,Sartaguda
Tierra_Estella,03/07/2018,24.6,32.3,16.9,0.0,Sartaguda
Tierra_Estella,04/07/2018,22.9,33.2,17.8,0.0,Sartaguda
Tierra_Estella,05/07/2018,21.4,28.0,17.8,0.0,Sartaguda
Tierra_Estella,06/07/2018,22.3,29.9,17.3,0.0,Sartaguda
Tierra_Estella,07/07/2018,22.8,30.8,17.4,4.8,Sartaguda
Tierra_Estella,08/07/2018,23.1,31.0,17.4,17.4,Sartaguda
Tierra_Estella,09/07/2018,24.0,30.6,17.3,0.0,Sartaguda
Tierra_Estella,10/07/2018,23.8,30.6,17.6,0.0,Sartaguda
Tierra_Estella,11/07/2018,23.2,29.5,17.2,0.0,Sartaguda
Tierra_Estella,12/07/2018,23.1,29.7,17.4,0.0,Sartaguda
Tierra_Estella,13/07/2018,22.0,31.3,16.2,10.1,Sartaguda
Tierra_Estella,14/07/2018,24.7,33.4,16.0,0.0,Sartaguda
Tierra_Estella,15/07/2018,24.1,33.6,17.9,0.0,Sartaguda
Tierra_Estella,16/07/2018,20.8,25.0,15.0,0.0,Sartaguda
Tierra_Estella,17/07/2018,22.6,31.4,13.5,0.0,Sartaguda
Tierra_Estella,18/07/2018,21.6,32.2,15.1,7.8,Sartaguda
Tierra_Estella,19/07/2018,23.3,33.0,15.4,0.0,Sartaguda
Tierra_Estella,20/07/2018,21.4,26.2,18.1,0.2,Sartaguda
Tierra_Estella,21/07/2018,20.2,24.0,15.8,0.0,Sartaguda
Tierra_Estella,22/07/2018,21.3,28.5,14.9,0.0,Sartaguda
Tierra_Estella,23/07/2018,24.1,33.3,14.7,0.0,Sartaguda
Tierra_Estella,24/07/2018,25.6,33.3,18.2,0.0,Sartaguda
Tierra_Estella,25/07/2018,26.2,34.2,18.5,0.0,Sartaguda
Tierra_Estella,26/07/2018,26.6,36.4,19.2,0.0,Sartaguda
Tierra_Estella,27/07/2018,25.8,34.0,18.5,0.0,Sartaguda
Tierra_Estella,28/07/2018,24.3,30.5,18.0,0.0,Sartaguda
Tierra_Estella,29/07/2018,24.4,33.6,15.6,0.0,Sartaguda
Tierra_Estella,30/07/2018,25.9,35.0,18.1,0.0,Sartaguda
Tierra_Estella,31/07/2018,25.2,33.6,19.8,0.0,Sartaguda
Tierra_Estella,01/08/2018,25.8,33.8,20.0,0.0,Sartaguda
Tierra_Estella,02/08/2018,26.7,36.5,19.1,0.0,Sartaguda
Tierra_Estella,03/08/2018,28.6,38.8,20.3,0.0,Sartaguda
Tierra_Estella,04/08/2018,27.6,36.0,20.8,0.0,Sartaguda
Tierra_Estella,05/08/2018,27.5,36.4,19.7,0.0,Sartaguda
Tierra_Estella,06/08/2018,27.2,37.9,17.1,0.0,Sartaguda
Tierra_Estella,07/08/2018,26.0,35.9,19.9,0.0,Sartaguda
Tierra_Estella,08/08/2018,25.2,33.1,17.9,0.0,Sartaguda
Tierra_Estella,09/08/2018,20.7,24.8,15.3,0.0,Sartaguda
Tierra_Estella,10/08/2018,21.3,29.7,13.0,0.0,Sartaguda
Tierra_Estella,11/08/2018,23.8,33.1,15.1,0.0,Sartaguda
Tierra_Estella,12/08/2018,24.3,32.4,18.4,6.7,Sartaguda
Tierra_Estella,13/08/2018,22.4,28.2,16.8,0.0,Sartaguda
Tierra_Estella,14/08/2018,21.3,26.0,17.7,0.0,Sartaguda
Tierra_Estella,15/08/2018,22.6,31.5,14.8,0.0,Sartaguda
Tierra_Estella,16/08/2018,21.7,29.0,15.0,0.0,Sartaguda
Tierra_Estella,17/08/2018,20.3,24.7,14.4,0.0,Sartaguda
Tierra_Estella,18/08/2018,19.5,26.9,12.7,0.0,Sartaguda
Tierra_Estella,19/08/2018,22.1,31.8,13.5,0.0,Sartaguda
Tierra_Estella,20/08/2018,23.4,31.8,16.6,0.0,Sartaguda
Tierra_Estella,21/08/2018,24.2,33.8,16.0,0.0,Sartaguda
Tierra_Estella,22/08/2018,25.1,34.2,17.3,0.0,Sartaguda
Tierra_Estella,23/08/2018,23.4,29.3,19.0,0.0,Sartaguda
Tierra_Estella,24/08/2018,20.9,26.6,16.0,0.0,Sartaguda
Tierra_Estella,25/08/2018,18.9,25.7,13.5,0.0,Sartaguda
Tierra_Estella,26/08/2018,21.3,30.7,13.3,0.0,Sartaguda
Tierra_Estella,27/08/2018,22.9,33.8,13.3,0.0,Sartaguda
Tierra_Estella,28/08/2018,25.0,33.9,15.4,0.0,Sartaguda
Tierra_Estella,29/08/2018,22.4,29.2,15.8,0.0,Sartaguda
Tierra_Estella,30/08/2018,21.5,29.5,14.8,0.0,Sartaguda
Tierra_Estella,31/08/2018,21.1,28.6,14.4,0.0,Sartaguda
Tierra_Estella,01/09/2018,22.1,31.7,14.8,0.0,Sartaguda
Tierra_Estella,02/09/2018,22.2,33.8,11.3,0.0,Sartaguda
Tierra_Estella,03/09/2018,21.4,30.3,12.5,0.0,Sartaguda
Tierra_Estella,04/09/2018,22.2,30.4,15.7,0.0,Sartaguda
Tierra_Estella,05/09/2018,19.7,25.8,15.9,0.6,Sartaguda
Tierra_Estella,06/09/2018,20.1,25.6,16.7,0.0,Sartaguda
Tierra_Estella,07/09/2018,20.2,26.6,14.1,0.0,Sartaguda
Tierra_Estella,08/09/2018,19.9,28.3,12.2,3.8,Sartaguda
Tierra_Estella,09/09/2018,20.5,26.6,16.4,2.9,Sartaguda
Tierra_Estella,10/09/2018,21.2,29.1,14.9,0.0,Sartaguda
Tierra_Estella,11/09/2018,20.7,28.9,13.4,0.0,Sartaguda
Tierra_Estella,12/09/2018,21.8,28.7,15.7,0.0,Sartaguda
Tierra_Estella,13/09/2018,21.5,27.9,14.7,0.0,Sartaguda
Tierra_Estella,14/09/2018,20.8,29.1,14.2,0.0,Sartaguda
Tierra_Estella,15/09/2018,20.5,28.6,13.9,0.0,Sartaguda
Tierra_Estella,16/09/2018,21.0,30.4,12.5,0.0,Sartaguda
Tierra_Estella,17/09/2018,21.1,31.1,12.5,0.0,Sartaguda
Tierra_Estella,18/09/2018,21.7,28.9,15.5,0.0,Sartaguda
Tierra_Estella,19/09/2018,22.6,30.9,14.2,0.0,Sartaguda
Tierra_Estella,20/09/2018,22.7,31.6,15.5,0.0,Sartaguda
Tierra_Estella,21/09/2018,22.0,29.7,15.8,0.0,Sartaguda
Tierra_Estella,22/09/2018,21.7,32.2,13.8,0.0,Sartaguda
Tierra_Estella,23/09/2018,23.2,33.8,14.5,0.0,Sartaguda
Tierra_Estella,24/09/2018,19.1,22.7,11.8,0.0,Sartaguda
Tierra_Estella,25/09/2018,15.6,24.0,8.7,0.0,Sartaguda
Tierra_Estella,26/09/2018,19.5,26.3,8.7,0.0,Sartaguda
Tierra_Estella,27/09/2018,19.0,28.0,12.6,0.0,Sartaguda
Tierra_Estella,28/09/2018,21.9,29.7,15.0,0.0,Sartaguda
Tierra_Estella,29/09/2018,19.8,27.2,12.3,0.0,Sartaguda
Tierra_Estella,30/09/2018,16.6,26.2,8.6,0.0,Sartaguda
Tierra_Estella,01/10/2018,15.7,19.8,11.3,0.0,Sartaguda
Tierra_Estella,02/10/2018,14.9,21.6,9.6,0.0,Sartaguda
Tierra_Estella,03/10/2018,17.7,26.7,10.1,0.0,Sartaguda
Tierra_Estella,04/10/2018,16.2,24.7,9.4,0.0,Sartaguda
Tierra_Estella,05/10/2018,15.7,25.1,8.3,0.0,Sartaguda
Tierra_Estella,06/10/2018,16.1,24.3,9.4,0.0,Sartaguda
Tierra_Estella,07/10/2018,13.6,16.2,11.9,0.0,Sartaguda
Tierra_Estella,08/10/2018,13.9,19.4,8.8,0.0,Sartaguda
Tierra_Estella,09/10/2018,11.8,18.8,5.8,0.2,Sartaguda
Tierra_Estella,10/10/2018,14.9,20.0,9.8,0.0,Sartaguda
Tierra_Estella,11/10/2018,17.1,25.0,12.7,0.2,Sartaguda
Tierra_Estella,12/10/2018,18.4,27.6,11.4,0.0,Sartaguda
Tierra_Estella,13/10/2018,19.0,26.7,9.6,0.0,Sartaguda
Tierra_Estella,14/10/2018,16.2,18.9,12.6,3.8,Sartaguda
Tierra_Estella,15/10/2018,14.4,20.1,8.8,0.0,Sartaguda
Tierra_Estella,16/10/2018,14.7,23.3,8.4,0.0,Sartaguda
Tierra_Estella,17/10/2018,13.9,21.7,7.8,0.0,Sartaguda
Tierra_Estella,18/10/2018,16.2,21.0,9.7,0.0,Sartaguda
Tierra_Estella,19/10/2018,18.2,22.5,14.7,0.0,Sartaguda
Tierra_Estella,20/10/2018,16.3,22.3,12.0,6.3,Sartaguda
Tierra_Estella,21/10/2018,15.9,23.7,9.8,0.2,Sartaguda
Tierra_Estella,22/10/2018,15.6,21.0,12.3,0.0,Sartaguda
Tierra_Estella,23/10/2018,15.1,21.1,11.3,0.0,Sartaguda
Tierra_Estella,24/10/2018,15.0,21.9,9.9,0.0,Sartaguda
Tierra_Estella,25/10/2018,14.7,24.9,8.7,0.0,Sartaguda
Tierra_Estella,26/10/2018,13.2,19.7,6.6,0.0,Sartaguda
Tierra_Estella,27/10/2018,9.2,13.8,5.0,0.0,Sartaguda
Tierra_Estella,28/10/2018,6.1,9.2,4.7,0.0,Sartaguda
Tierra_Estella,29/10/2018,5.6,7.9,-0.3,3.4,Sartaguda
Tierra_Estella,30/10/2018,5.6,10.8,-1.5,0.0,Sartaguda
Tierra_Estella,31/10/2018,8.7,10.7,7.7,38.7,Sartaguda
Tierra_Estella,01/11/2018,10.1,14.8,7.3,1.3,Sartaguda
Tierra_Estella,02/11/2018,10.9,16.6,8.4,4.2,Sartaguda
Tierra_Estella,03/11/2018,9.1,15.5,2.1,0.0,Sartaguda
Tierra_Estella,04/11/2018,7.3,14.2,-0.5,0.2,Sartaguda
Tierra_Estella,05/11/2018,8.5,10.9,2.9,8.2,Sartaguda
Tierra_Estella,06/11/2018,9.4,12.8,4.8,2.9,Sartaguda
Tierra_Estella,07/11/2018,11.9,17.0,4.2,0.0,Sartaguda
Tierra_Estella,08/11/2018,9.0,14.4,2.9,4.2,Sartaguda
Tierra_Estella,09/11/2018,10.2,14.2,7.2,0.2,Sartaguda
Tierra_Estella,10/11/2018,10.9,16.8,6.3,0.0,Sartaguda
Tierra_Estella,11/11/2018,13.8,19.0,7.6,0.2,Sartaguda
Tierra_Estella,12/11/2018,14.4,17.7,12.8,1.1,Sartaguda
Tierra_Estella,13/11/2018,12.8,17.8,7.4,0.0,Sartaguda
Tierra_Estella,14/11/2018,11.9,17.4,6.5,0.2,Sartaguda
Tierra_Estella,15/11/2018,13.4,17.3,10.5,0.2,Sartaguda
Tierra_Estella,16/11/2018,12.8,16.7,9.2,0.0,Sartaguda
Tierra_Estella,17/11/2018,12.6,14.8,10.3,0.0,Sartaguda
Tierra_Estella,18/11/2018,10.3,11.8,9.5,1.3,Sartaguda
Tierra_Estella,19/11/2018,11.2,16.2,8.0,1.1,Sartaguda
Tierra_Estella,20/11/2018,7.6,8.7,6.8,7.8,Sartaguda
Tierra_Estella,21/11/2018,7.7,11.1,5.7,0.2,Sartaguda
Tierra_Estella,22/11/2018,8.9,11.0,5.5,0.0,Sartaguda
Tierra_Estella,23/11/2018,7.9,12.8,1.9,9.4,Sartaguda
Tierra_Estella,24/11/2018,6.1,11.4,1.1,0.2,Sartaguda
Tierra_Estella,25/11/2018,8.2,12.7,4.5,3.4,Sartaguda
Tierra_Estella,26/11/2018,8.5,11.5,5.6,4.6,Sartaguda
Tierra_Estella,27/11/2018,7.9,13.1,1.9,0.0,Sartaguda
Tierra_Estella,28/11/2018,4.8,13.8,0.4,0.0,Sartaguda
Tierra_Estella,29/11/2018,4.3,8.6,-1.4,6.3,Sartaguda
Tierra_Estella,30/11/2018,8.7,13.0,5.2,0.2,Sartaguda
Tierra_Estella,01/12/2018,7.8,12.5,3.4,0.0,Sartaguda
Tierra_Estella,02/12/2018,9.1,14.9,4.3,0.0,Sartaguda
Tierra_Estella,03/12/2018,8.6,14.7,2.7,0.2,Sartaguda
Tierra_Estella,04/12/2018,9.1,17.7,4.3,0.2,Sartaguda
Tierra_Estella,05/12/2018,8.0,11.0,4.0,0.2,Sartaguda
Tierra_Estella,06/12/2018,10.7,15.6,6.6,0.0,Sartaguda
Tierra_Estella,07/12/2018,8.7,14.4,-0.3,0.0,Sartaguda
Tierra_Estella,08/12/2018,10.1,14.7,5.3,0.0,Sartaguda
Tierra_Estella,09/12/2018,10.3,15.4,6.0,0.0,Sartaguda
Tierra_Estella,10/12/2018,8.2,13.3,3.2,0.0,Sartaguda
Tierra_Estella,11/12/2018,4.7,9.6,-1.0,0.0,Sartaguda
Tierra_Estella,12/12/2018,8.3,13.0,3.9,0.0,Sartaguda
Tierra_Estella,13/12/2018,7.5,8.8,5.6,6.1,Sartaguda
Tierra_Estella,14/12/2018,8.8,11.7,2.9,0.0,Sartaguda
Tierra_Estella,15/12/2018,7.1,11.8,2.7,0.0,Sartaguda
Tierra_Estella,16/12/2018,8.9,13.1,5.5,8.6,Sartaguda
Tierra_Estella,17/12/2018,5.0,10.3,0.9,0.0,Sartaguda
Tierra_Estella,18/12/2018,4.6,7.8,-0.3,0.6,Sartaguda
Tierra_Estella,19/12/2018,5.4,13.1,-0.4,0.0,Sartaguda
Tierra_Estella,20/12/2018,6.3,14.1,1.5,0.0,Sartaguda
Tierra_Estella,21/12/2018,5.0,10.4,1.5,0.0,Sartaguda
Tierra_Estella,22/12/2018,7.9,16.5,0.9,0.0,Sartaguda
Tierra_Estella,23/12/2018,6.4,13.8,0.6,0.0,Sartaguda
Tierra_Estella,24/12/2018,8.3,15.8,0.6,0.0,Sartaguda
Tierra_Estella,25/12/2018,4.2,8.8,1.3,0.0,Sartaguda
Tierra_Estella,26/12/2018,5.0,6.7,3.7,0.0,Sartaguda
Tierra_Estella,27/12/2018,3.3,6.9,-0.8,0.0,Sartaguda
Tierra_Estella,28/12/2018,7.1,12.1,-0.4,0.0,Sartaguda
Tierra_Estella,29/12/2018,9.1,13.8,4.1,0.0,Sartaguda
Tierra_Estella,30/12/2018,6.9,13.9,2.7,0.0,Sartaguda
Tierra_Estella,31/12/2018,8.9,17.5,1.0,0.0,Sartaguda
