Comarca,Fecha, Temperatura media, Temperatura maxima, Temperatura minima, Precipitacion acumulada,Localidad
Tierra_Estella,01/01/2014,4.3,12.2,-1.7,0.2,Sartaguda
Tierra_Estella,02/01/2014,8.4,12.6,4.3,0.8,Sartaguda
Tierra_Estella,03/01/2014,10.0,13.2,7.5,0.4,Sartaguda
Tierra_Estella,04/01/2014,8.7,14.4,4.1,1.7,Sartaguda
Tierra_Estella,05/01/2014,5.0,9.3,1.0,0.2,Sartaguda
Tierra_Estella,06/01/2014,7.0,13.8,1.5,0.0,Sartaguda
Tierra_Estella,07/01/2014,12.0,16.3,8.6,0.0,Sartaguda
Tierra_Estella,08/01/2014,10.7,15.3,7.8,0.0,Sartaguda
Tierra_Estella,09/01/2014,5.9,10.1,-0.9,0.0,Sartaguda
Tierra_Estella,10/01/2014,2.4,7.8,-2.7,0.2,Sartaguda
Tierra_Estella,11/01/2014,5.4,7.1,3.2,0.0,Sartaguda
Tierra_Estella,12/01/2014,6.5,7.5,5.6,0.2,Sartaguda
Tierra_Estella,13/01/2014,5.9,11.7,0.5,0.8,Sartaguda
Tierra_Estella,14/01/2014,5.8,9.3,1.4,6.3,Sartaguda
Tierra_Estella,15/01/2014,7.5,11.2,3.9,0.0,Sartaguda
Tierra_Estella,16/01/2014,8.0,12.5,1.2,0.6,Sartaguda
Tierra_Estella,17/01/2014,5.8,12.6,-2.5,0.0,Sartaguda
Tierra_Estella,18/01/2014,6.3,8.6,3.7,0.6,Sartaguda
Tierra_Estella,19/01/2014,5.2,9.6,2.0,0.2,Sartaguda
Tierra_Estella,20/01/2014,5.2,8.7,0.7,2.1,Sartaguda
Tierra_Estella,21/01/2014,5.6,9.6,1.7,1.1,Sartaguda
Tierra_Estella,22/01/2014,7.3,11.3,4.8,3.8,Sartaguda
Tierra_Estella,23/01/2014,8.6,12.0,6.6,0.0,Sartaguda
Tierra_Estella,24/01/2014,10.6,14.2,7.7,2.5,Sartaguda
Tierra_Estella,25/01/2014,13.3,16.5,11.5,0.0,Sartaguda
Tierra_Estella,26/01/2014,11.9,15.0,7.3,0.4,Sartaguda
Tierra_Estella,27/01/2014,7.8,12.8,4.3,8.0,Sartaguda
Tierra_Estella,28/01/2014,4.8,10.3,1.6,0.2,Sartaguda
Tierra_Estella,29/01/2014,4.2,10.9,-1.3,2.3,Sartaguda
Tierra_Estella,30/01/2014,6.1,9.7,3.7,1.7,Sartaguda
Tierra_Estella,31/01/2014,6.9,11.0,3.2,0.2,Sartaguda
Tierra_Estella,01/02/2014,4.5,10.7,-0.1,3.8,Sartaguda
Tierra_Estella,02/02/2014,4.0,10.5,-1.1,0.0,Sartaguda
Tierra_Estella,03/02/2014,2.6,10.3,-2.8,0.6,Sartaguda
Tierra_Estella,04/02/2014,4.0,9.8,-2.1,0.2,Sartaguda
Tierra_Estella,05/02/2014,7.4,14.3,0.2,0.0,Sartaguda
Tierra_Estella,06/02/2014,10.0,17.7,0.4,0.0,Sartaguda
Tierra_Estella,07/02/2014,9.4,14.2,3.4,0.0,Sartaguda
Tierra_Estella,08/02/2014,11.5,15.9,6.1,0.2,Sartaguda
Tierra_Estella,09/02/2014,5.0,9.7,1.1,0.6,Sartaguda
Tierra_Estella,10/02/2014,6.6,9.9,3.6,0.4,Sartaguda
Tierra_Estella,11/02/2014,3.1,6.7,-0.9,0.6,Sartaguda
Tierra_Estella,12/02/2014,4.7,10.4,-2.2,0.2,Sartaguda
Tierra_Estella,13/02/2014,8.5,20.0,0.8,0.0,Sartaguda
Tierra_Estella,14/02/2014,13.1,22.3,3.1,0.0,Sartaguda
Tierra_Estella,15/02/2014,9.9,13.2,6.4,0.2,Sartaguda
Tierra_Estella,16/02/2014,6.9,12.7,-0.6,0.0,Sartaguda
Tierra_Estella,17/02/2014,5.2,13.8,-4.2,0.0,Sartaguda
Tierra_Estella,18/02/2014,7.6,11.4,4.7,0.0,Sartaguda
Tierra_Estella,19/02/2014,7.7,13.1,1.2,0.0,Sartaguda
Tierra_Estella,20/02/2014,7.7,18.2,-1.8,1.1,Sartaguda
Tierra_Estella,21/02/2014,7.4,13.2,-0.7,1.1,Sartaguda
Tierra_Estella,22/02/2014,4.6,14.0,-3.8,0.0,Sartaguda
Tierra_Estella,23/02/2014,6.6,15.8,-3.7,0.2,Sartaguda
Tierra_Estella,24/02/2014,8.4,15.3,2.8,0.0,Sartaguda
Tierra_Estella,25/02/2014,6.7,15.9,1.4,4.0,Sartaguda
Tierra_Estella,26/02/2014,4.4,11.0,-0.5,0.0,Sartaguda
Tierra_Estella,27/02/2014,3.9,9.6,-0.5,1.7,Sartaguda
Tierra_Estella,28/02/2014,5.2,8.9,0.9,2.7,Sartaguda
Tierra_Estella,01/03/2014,6.0,7.0,4.3,11.5,Sartaguda
Tierra_Estella,02/03/2014,11.3,16.5,5.8,0.8,Sartaguda
Tierra_Estella,03/03/2014,8.3,14.0,3.1,7.8,Sartaguda
Tierra_Estella,04/03/2014,8.1,12.6,4.6,6.3,Sartaguda
Tierra_Estella,05/03/2014,11.0,14.2,5.5,0.0,Sartaguda
Tierra_Estella,06/03/2014,11.2,18.3,6.0,0.0,Sartaguda
Tierra_Estella,07/03/2014,8.1,17.9,0.4,0.0,Sartaguda
Tierra_Estella,08/03/2014,9.4,19.4,-0.5,0.2,Sartaguda
Tierra_Estella,09/03/2014,10.3,18.5,2.7,0.0,Sartaguda
Tierra_Estella,10/03/2014,10.1,21.0,0.1,0.0,Sartaguda
Tierra_Estella,11/03/2014,12.2,20.1,5.6,0.0,Sartaguda
Tierra_Estella,12/03/2014,9.3,17.7,1.2,0.0,Sartaguda
Tierra_Estella,13/03/2014,8.4,16.1,1.4,0.0,Sartaguda
Tierra_Estella,14/03/2014,10.5,20.6,-0.1,0.0,Sartaguda
Tierra_Estella,15/03/2014,11.2,17.1,5.7,0.0,Sartaguda
Tierra_Estella,16/03/2014,13.7,22.8,6.7,0.0,Sartaguda
Tierra_Estella,17/03/2014,13.7,25.0,3.3,0.0,Sartaguda
Tierra_Estella,18/03/2014,12.3,17.3,7.8,0.0,Sartaguda
Tierra_Estella,19/03/2014,11.8,19.0,6.2,0.0,Sartaguda
Tierra_Estella,20/03/2014,12.4,22.8,2.6,0.0,Sartaguda
Tierra_Estella,21/03/2014,14.1,20.7,8.9,0.0,Sartaguda
Tierra_Estella,22/03/2014,10.1,15.1,3.3,1.9,Sartaguda
Tierra_Estella,23/03/2014,5.8,11.5,-0.1,0.0,Sartaguda
Tierra_Estella,24/03/2014,4.4,8.8,-1.9,7.5,Sartaguda
Tierra_Estella,25/03/2014,7.5,10.8,4.4,6.7,Sartaguda
Tierra_Estella,26/03/2014,6.4,10.1,3.2,8.6,Sartaguda
Tierra_Estella,27/03/2014,7.9,13.2,2.7,0.6,Sartaguda
Tierra_Estella,28/03/2014,9.7,15.0,3.6,0.0,Sartaguda
Tierra_Estella,29/03/2014,10.8,13.0,7.4,0.2,Sartaguda
Tierra_Estella,30/03/2014,11.5,14.6,7.8,0.0,Sartaguda
Tierra_Estella,31/03/2014,13.3,18.5,8.1,0.0,Sartaguda
Tierra_Estella,01/04/2014,14.7,21.7,9.5,0.2,Sartaguda
Tierra_Estella,02/04/2014,12.3,16.5,9.4,1.3,Sartaguda
Tierra_Estella,03/04/2014,11.0,14.0,7.3,0.0,Sartaguda
Tierra_Estella,04/04/2014,13.1,18.8,8.7,0.0,Sartaguda
Tierra_Estella,05/04/2014,16.1,22.5,11.4,0.0,Sartaguda
Tierra_Estella,06/04/2014,16.9,26.6,8.2,0.0,Sartaguda
Tierra_Estella,07/04/2014,17.2,28.0,7.1,0.0,Sartaguda
Tierra_Estella,08/04/2014,14.3,20.1,8.8,0.0,Sartaguda
Tierra_Estella,09/04/2014,13.1,23.0,4.3,0.0,Sartaguda
Tierra_Estella,10/04/2014,15.9,25.5,7.0,1.9,Sartaguda
Tierra_Estella,11/04/2014,16.1,22.8,10.6,0.2,Sartaguda
Tierra_Estella,12/04/2014,14.2,21.0,10.1,0.0,Sartaguda
Tierra_Estella,13/04/2014,15.4,24.9,8.8,0.0,Sartaguda
Tierra_Estella,14/04/2014,16.8,25.1,9.3,0.0,Sartaguda
Tierra_Estella,15/04/2014,18.6,26.9,13.1,0.0,Sartaguda
Tierra_Estella,16/04/2014,18.8,29.4,8.3,0.0,Sartaguda
Tierra_Estella,17/04/2014,17.9,27.9,8.1,0.0,Sartaguda
Tierra_Estella,18/04/2014,17.9,28.1,8.5,0.0,Sartaguda
Tierra_Estella,19/04/2014,15.7,24.3,8.8,8.2,Sartaguda
Tierra_Estella,20/04/2014,10.8,14.9,6.8,19.3,Sartaguda
Tierra_Estella,21/04/2014,10.9,16.2,4.9,0.8,Sartaguda
Tierra_Estella,22/04/2014,13.2,20.1,6.6,0.2,Sartaguda
Tierra_Estella,23/04/2014,12.5,22.0,5.6,1.1,Sartaguda
Tierra_Estella,24/04/2014,11.6,16.0,8.2,7.1,Sartaguda
Tierra_Estella,25/04/2014,12.1,18.1,7.2,0.0,Sartaguda
Tierra_Estella,26/04/2014,12.4,18.0,9.4,2.9,Sartaguda
Tierra_Estella,27/04/2014,12.9,19.3,6.2,0.0,Sartaguda
Tierra_Estella,28/04/2014,13.9,18.6,10.6,0.8,Sartaguda
Tierra_Estella,29/04/2014,15.4,22.3,11.1,0.8,Sartaguda
Tierra_Estella,30/04/2014,15.9,21.3,9.9,0.0,Sartaguda
Tierra_Estella,01/05/2014,14.7,20.5,10.3,0.0,Sartaguda
Tierra_Estella,02/05/2014,13.5,16.8,10.6,0.0,Sartaguda
Tierra_Estella,03/05/2014,13.4,18.6,8.6,0.0,Sartaguda
Tierra_Estella,04/05/2014,14.1,24.5,6.3,0.0,Sartaguda
Tierra_Estella,05/05/2014,16.4,26.8,4.3,0.0,Sartaguda
Tierra_Estella,06/05/2014,17.4,22.7,13.4,0.0,Sartaguda
Tierra_Estella,07/05/2014,18.2,26.4,10.6,0.0,Sartaguda
Tierra_Estella,08/05/2014,17.4,27.1,9.1,0.0,Sartaguda
Tierra_Estella,09/05/2014,17.8,24.5,11.9,0.0,Sartaguda
Tierra_Estella,10/05/2014,18.4,28.3,9.5,0.0,Sartaguda
Tierra_Estella,11/05/2014,15.1,18.8,8.2,0.0,Sartaguda
Tierra_Estella,12/05/2014,13.1,19.9,5.5,0.0,Sartaguda
Tierra_Estella,13/05/2014,13.1,17.1,8.4,0.0,Sartaguda
Tierra_Estella,14/05/2014,13.8,21.2,5.5,0.0,Sartaguda
Tierra_Estella,15/05/2014,16.0,23.5,8.0,0.0,Sartaguda
Tierra_Estella,16/05/2014,16.3,24.3,9.0,0.0,Sartaguda
Tierra_Estella,17/05/2014,16.3,23.6,9.4,0.0,Sartaguda
Tierra_Estella,18/05/2014,17.4,25.2,6.6,0.0,Sartaguda
Tierra_Estella,19/05/2014,17.6,23.7,11.8,1.9,Sartaguda
Tierra_Estella,20/05/2014,16.8,21.8,10.5,0.0,Sartaguda
Tierra_Estella,21/05/2014,17.8,23.2,11.4,0.0,Sartaguda
Tierra_Estella,22/05/2014,14.4,19.2,8.9,0.0,Sartaguda
Tierra_Estella,23/05/2014,14.0,20.6,7.8,0.8,Sartaguda
Tierra_Estella,24/05/2014,12.9,21.4,5.7,31.0,Sartaguda
Tierra_Estella,25/05/2014,12.9,17.3,10.0,24.9,Sartaguda
Tierra_Estella,26/05/2014,13.0,18.3,8.7,0.2,Sartaguda
Tierra_Estella,27/05/2014,15.0,22.6,8.2,0.0,Sartaguda
Tierra_Estella,28/05/2014,13.8,16.2,11.9,5.9,Sartaguda
Tierra_Estella,29/05/2014,15.4,21.3,9.1,4.8,Sartaguda
Tierra_Estella,30/05/2014,14.3,18.0,10.9,0.8,Sartaguda
Tierra_Estella,31/05/2014,14.8,19.6,10.8,0.0,Sartaguda
Tierra_Estella,01/06/2014,16.0,20.1,12.1,0.0,Sartaguda
Tierra_Estella,02/06/2014,15.3,21.0,9.5,0.0,Sartaguda
Tierra_Estella,03/06/2014,18.2,27.5,9.3,0.0,Sartaguda
Tierra_Estella,04/06/2014,14.9,16.5,11.1,0.0,Sartaguda
Tierra_Estella,05/06/2014,19.0,28.8,8.6,0.0,Sartaguda
Tierra_Estella,06/06/2014,23.0,33.1,16.1,0.0,Sartaguda
Tierra_Estella,07/06/2014,24.2,32.0,14.2,0.0,Sartaguda
Tierra_Estella,08/06/2014,24.2,33.4,12.9,0.0,Sartaguda
Tierra_Estella,09/06/2014,23.5,32.3,15.9,0.0,Sartaguda
Tierra_Estella,10/06/2014,20.5,28.4,15.2,0.6,Sartaguda
Tierra_Estella,11/06/2014,20.7,29.3,14.7,0.0,Sartaguda
Tierra_Estella,12/06/2014,23.9,33.3,16.6,0.0,Sartaguda
Tierra_Estella,13/06/2014,24.0,32.3,15.5,0.0,Sartaguda
Tierra_Estella,14/06/2014,21.2,26.2,17.0,0.0,Sartaguda
Tierra_Estella,15/06/2014,20.0,25.7,15.6,0.0,Sartaguda
Tierra_Estella,16/06/2014,18.7,22.6,15.2,0.0,Sartaguda
Tierra_Estella,17/06/2014,19.4,26.0,12.9,0.0,Sartaguda
Tierra_Estella,18/06/2014,19.8,28.9,12.4,0.0,Sartaguda
Tierra_Estella,19/06/2014,20.9,29.4,10.8,0.0,Sartaguda
Tierra_Estella,20/06/2014,23.5,31.7,14.8,0.0,Sartaguda
Tierra_Estella,21/06/2014,24.2,32.2,16.9,3.8,Sartaguda
Tierra_Estella,22/06/2014,22.8,31.8,15.5,3.8,Sartaguda
Tierra_Estella,23/06/2014,20.7,29.6,15.2,1.1,Sartaguda
Tierra_Estella,24/06/2014,18.0,23.3,14.7,59.7,Sartaguda
Tierra_Estella,25/06/2014,19.8,26.0,15.4,0.0,Sartaguda
Tierra_Estella,26/06/2014,18.6,24.5,14.2,0.0,Sartaguda
Tierra_Estella,27/06/2014,20.8,29.8,12.4,0.0,Sartaguda
Tierra_Estella,28/06/2014,20.7,29.4,13.6,0.0,Sartaguda
Tierra_Estella,29/06/2014,18.5,23.8,13.7,0.0,Sartaguda
Tierra_Estella,30/06/2014,19.8,28.6,9.2,0.0,Sartaguda
Tierra_Estella,01/07/2014,19.9,26.8,14.4,20.7,Sartaguda
Tierra_Estella,02/07/2014,18.7,24.9,14.7,1.7,Sartaguda
Tierra_Estella,03/07/2014,16.9,22.3,14.5,44.0,Sartaguda
Tierra_Estella,04/07/2014,19.9,26.4,15.0,0.4,Sartaguda
Tierra_Estella,05/07/2014,22.6,31.0,14.6,0.6,Sartaguda
Tierra_Estella,06/07/2014,19.2,26.1,14.2,17.8,Sartaguda
Tierra_Estella,07/07/2014,16.7,21.7,12.4,1.1,Sartaguda
Tierra_Estella,08/07/2014,18.0,23.4,11.5,0.2,Sartaguda
Tierra_Estella,09/07/2014,17.3,20.8,14.7,0.0,Sartaguda
Tierra_Estella,10/07/2014,16.9,22.0,12.8,0.0,Sartaguda
Tierra_Estella,11/07/2014,18.0,22.1,14.4,0.0,Sartaguda
Tierra_Estella,12/07/2014,18.5,23.2,14.4,0.0,Sartaguda
Tierra_Estella,13/07/2014,20.6,30.2,12.2,0.0,Sartaguda
Tierra_Estella,14/07/2014,21.7,27.5,15.9,0.0,Sartaguda
Tierra_Estella,15/07/2014,22.8,32.2,13.8,0.0,Sartaguda
Tierra_Estella,16/07/2014,25.2,34.9,15.6,0.0,Sartaguda
Tierra_Estella,17/07/2014,27.8,36.1,19.9,0.0,Sartaguda
Tierra_Estella,18/07/2014,26.7,34.8,20.0,0.0,Sartaguda
Tierra_Estella,19/07/2014,21.8,28.2,15.6,0.4,Sartaguda
Tierra_Estella,20/07/2014,19.7,25.7,14.8,0.0,Sartaguda
Tierra_Estella,21/07/2014,20.1,25.6,14.6,0.0,Sartaguda
Tierra_Estella,22/07/2014,21.1,29.6,13.5,0.0,Sartaguda
Tierra_Estella,23/07/2014,23.2,33.3,14.8,0.0,Sartaguda
Tierra_Estella,24/07/2014,23.5,31.0,17.0,0.4,Sartaguda
Tierra_Estella,25/07/2014,23.0,29.6,18.3,0.0,Sartaguda
Tierra_Estella,26/07/2014,23.5,30.7,17.5,0.0,Sartaguda
Tierra_Estella,27/07/2014,23.6,30.8,16.6,0.0,Sartaguda
Tierra_Estella,28/07/2014,21.4,26.7,16.7,0.0,Sartaguda
Tierra_Estella,29/07/2014,19.3,24.2,15.0,0.0,Sartaguda
Tierra_Estella,30/07/2014,19.7,25.3,14.6,0.0,Sartaguda
Tierra_Estella,31/07/2014,22.4,32.8,13.6,0.0,Sartaguda
Tierra_Estella,01/08/2014,20.6,27.3,16.5,1.9,Sartaguda
Tierra_Estella,02/08/2014,21.8,29.0,16.9,0.2,Sartaguda
Tierra_Estella,03/08/2014,21.9,28.4,16.2,0.0,Sartaguda
Tierra_Estella,04/08/2014,22.0,29.4,17.9,0.0,Sartaguda
Tierra_Estella,05/08/2014,22.2,31.2,15.1,0.0,Sartaguda
Tierra_Estella,06/08/2014,22.6,30.9,15.0,0.0,Sartaguda
Tierra_Estella,07/08/2014,24.0,32.8,16.5,0.0,Sartaguda
Tierra_Estella,08/08/2014,24.0,32.7,17.3,0.0,Sartaguda
Tierra_Estella,09/08/2014,23.5,30.3,16.7,0.0,Sartaguda
Tierra_Estella,10/08/2014,24.6,33.7,16.7,0.0,Sartaguda
Tierra_Estella,11/08/2014,21.4,26.8,15.4,0.0,Sartaguda
Tierra_Estella,12/08/2014,21.8,29.7,14.0,0.0,Sartaguda
Tierra_Estella,13/08/2014,18.2,23.7,12.1,2.1,Sartaguda
Tierra_Estella,14/08/2014,17.9,24.8,10.1,0.0,Sartaguda
Tierra_Estella,15/08/2014,19.8,26.0,14.6,0.0,Sartaguda
Tierra_Estella,16/08/2014,18.0,22.8,12.6,0.0,Sartaguda
Tierra_Estella,17/08/2014,17.8,28.0,7.6,0.0,Sartaguda
Tierra_Estella,18/08/2014,18.9,29.1,13.5,12.2,Sartaguda
Tierra_Estella,19/08/2014,19.8,26.2,15.9,0.0,Sartaguda
Tierra_Estella,20/08/2014,18.5,24.2,14.1,0.0,Sartaguda
Tierra_Estella,21/08/2014,18.8,26.2,11.6,0.0,Sartaguda
Tierra_Estella,22/08/2014,16.6,18.1,13.6,1.3,Sartaguda
Tierra_Estella,23/08/2014,18.2,25.9,11.4,0.0,Sartaguda
Tierra_Estella,24/08/2014,19.1,29.2,10.0,0.2,Sartaguda
Tierra_Estella,25/08/2014,21.7,33.0,11.8,0.0,Sartaguda
Tierra_Estella,26/08/2014,24.1,33.1,13.6,0.0,Sartaguda
Tierra_Estella,27/08/2014,23.8,34.1,16.1,0.0,Sartaguda
Tierra_Estella,28/08/2014,24.7,33.8,17.9,0.0,Sartaguda
Tierra_Estella,29/08/2014,22.0,27.0,17.4,0.0,Sartaguda
Tierra_Estella,30/08/2014,21.0,28.3,15.9,0.0,Sartaguda
Tierra_Estella,31/08/2014,21.6,30.0,15.0,0.0,Sartaguda
Tierra_Estella,01/09/2014,22.9,32.9,14.8,0.0,Sartaguda
Tierra_Estella,02/09/2014,23.2,33.4,15.9,0.0,Sartaguda
Tierra_Estella,03/09/2014,23.6,34.7,13.0,0.0,Sartaguda
Tierra_Estella,04/09/2014,22.8,30.6,17.3,0.0,Sartaguda
Tierra_Estella,05/09/2014,22.3,32.6,14.7,0.0,Sartaguda
Tierra_Estella,06/09/2014,22.3,31.5,14.3,0.0,Sartaguda
Tierra_Estella,07/09/2014,24.2,32.2,16.6,0.0,Sartaguda
Tierra_Estella,08/09/2014,21.3,27.7,15.6,0.2,Sartaguda
Tierra_Estella,09/09/2014,21.1,30.0,13.6,0.0,Sartaguda
Tierra_Estella,10/09/2014,22.2,31.7,13.9,0.6,Sartaguda
Tierra_Estella,11/09/2014,23.7,31.4,16.9,0.0,Sartaguda
Tierra_Estella,12/09/2014,22.2,31.1,14.5,0.0,Sartaguda
Tierra_Estella,13/09/2014,20.9,31.4,12.6,1.5,Sartaguda
Tierra_Estella,14/09/2014,19.0,26.3,14.0,5.5,Sartaguda
Tierra_Estella,15/09/2014,18.3,25.9,12.5,1.7,Sartaguda
Tierra_Estella,16/09/2014,20.0,29.1,13.4,0.0,Sartaguda
Tierra_Estella,17/09/2014,21.9,28.9,16.7,0.0,Sartaguda
Tierra_Estella,18/09/2014,21.2,29.5,13.1,0.0,Sartaguda
Tierra_Estella,19/09/2014,20.6,27.0,13.1,0.0,Sartaguda
Tierra_Estella,20/09/2014,18.6,27.3,12.7,3.8,Sartaguda
Tierra_Estella,21/09/2014,20.0,28.8,12.6,0.4,Sartaguda
Tierra_Estella,22/09/2014,17.9,21.5,15.2,17.2,Sartaguda
Tierra_Estella,23/09/2014,16.8,20.4,10.5,0.2,Sartaguda
Tierra_Estella,24/09/2014,15.1,21.6,10.4,0.0,Sartaguda
Tierra_Estella,25/09/2014,15.9,22.4,10.4,0.0,Sartaguda
Tierra_Estella,26/09/2014,15.5,25.2,9.7,0.0,Sartaguda
Tierra_Estella,27/09/2014,16.1,24.2,6.6,0.0,Sartaguda
Tierra_Estella,28/09/2014,17.3,20.4,15.2,3.1,Sartaguda
Tierra_Estella,29/09/2014,16.6,20.0,11.6,0.8,Sartaguda
Tierra_Estella,30/09/2014,17.7,24.4,13.8,0.0,Sartaguda
Tierra_Estella,01/10/2014,18.1,25.9,11.8,0.2,Sartaguda
Tierra_Estella,02/10/2014,18.5,27.0,12.8,0.0,Sartaguda
Tierra_Estella,03/10/2014,16.8,27.3,11.3,0.0,Sartaguda
Tierra_Estella,04/10/2014,17.4,27.1,8.2,0.2,Sartaguda
Tierra_Estella,05/10/2014,15.9,21.0,8.0,0.0,Sartaguda
Tierra_Estella,06/10/2014,14.9,24.7,6.2,0.0,Sartaguda
Tierra_Estella,07/10/2014,17.2,25.7,10.9,0.0,Sartaguda
Tierra_Estella,08/10/2014,20.4,28.1,13.7,1.9,Sartaguda
Tierra_Estella,09/10/2014,16.5,19.9,13.2,2.5,Sartaguda
Tierra_Estella,10/10/2014,15.5,21.9,12.3,5.0,Sartaguda
Tierra_Estella,11/10/2014,15.9,22.4,11.1,9.4,Sartaguda
Tierra_Estella,12/10/2014,17.0,23.9,11.3,1.7,Sartaguda
Tierra_Estella,13/10/2014,14.5,17.4,12.2,2.1,Sartaguda
Tierra_Estella,14/10/2014,13.7,20.8,8.8,0.2,Sartaguda
Tierra_Estella,15/10/2014,12.4,19.0,6.8,1.1,Sartaguda
Tierra_Estella,16/10/2014,19.5,27.8,13.0,0.0,Sartaguda
Tierra_Estella,17/10/2014,19.5,27.7,10.1,0.0,Sartaguda
Tierra_Estella,18/10/2014,18.2,27.6,9.5,0.0,Sartaguda
Tierra_Estella,19/10/2014,17.1,26.3,10.5,0.0,Sartaguda
Tierra_Estella,20/10/2014,16.1,26.5,8.0,0.2,Sartaguda
Tierra_Estella,21/10/2014,19.0,28.8,9.9,0.0,Sartaguda
Tierra_Estella,22/10/2014,15.2,19.8,8.8,0.0,Sartaguda
Tierra_Estella,23/10/2014,15.7,26.5,7.8,0.0,Sartaguda
Tierra_Estella,24/10/2014,18.0,29.1,11.5,0.0,Sartaguda
Tierra_Estella,25/10/2014,16.5,28.7,9.9,0.0,Sartaguda
Tierra_Estella,26/10/2014,15.7,28.3,8.8,0.0,Sartaguda
Tierra_Estella,27/10/2014,11.5,18.9,6.1,0.0,Sartaguda
Tierra_Estella,28/10/2014,13.1,18.1,7.2,0.2,Sartaguda
Tierra_Estella,29/10/2014,13.0,21.1,7.6,0.0,Sartaguda
Tierra_Estella,30/10/2014,10.6,14.7,8.4,0.2,Sartaguda
Tierra_Estella,31/10/2014,11.1,0.0,0.0,0.2,Sartaguda
Tierra_Estella,01/11/2014,12.1,17.4,7.4,0.4,Sartaguda
Tierra_Estella,02/11/2014,12.5,16.1,9.4,3.4,Sartaguda
Tierra_Estella,03/11/2014,13.9,18.9,8.8,2.9,Sartaguda
Tierra_Estella,04/11/2014,9.2,12.8,5.4,2.7,Sartaguda
Tierra_Estella,05/11/2014,8.3,11.7,6.0,5.2,Sartaguda
Tierra_Estella,06/11/2014,8.7,15.0,3.4,0.0,Sartaguda
Tierra_Estella,07/11/2014,7.7,13.7,2.5,1.3,Sartaguda
Tierra_Estella,08/11/2014,6.6,11.9,2.6,0.2,Sartaguda
Tierra_Estella,09/11/2014,8.8,14.6,1.6,0.2,Sartaguda
Tierra_Estella,10/11/2014,7.2,16.7,-1.2,0.4,Sartaguda
Tierra_Estella,11/11/2014,7.6,9.5,6.4,5.9,Sartaguda
Tierra_Estella,12/11/2014,7.1,14.5,2.6,0.0,Sartaguda
Tierra_Estella,13/11/2014,11.7,18.3,3.3,0.2,Sartaguda
Tierra_Estella,14/11/2014,11.0,15.0,4.4,3.8,Sartaguda
Tierra_Estella,15/11/2014,7.9,14.8,3.3,1.3,Sartaguda
Tierra_Estella,16/11/2014,6.4,13.4,0.1,2.3,Sartaguda
Tierra_Estella,17/11/2014,8.2,15.0,1.8,11.5,Sartaguda
Tierra_Estella,18/11/2014,5.1,12.4,-0.5,0.2,Sartaguda
Tierra_Estella,19/11/2014,8.2,15.1,2.0,0.0,Sartaguda
Tierra_Estella,20/11/2014,10.3,15.0,7.1,0.0,Sartaguda
Tierra_Estella,21/11/2014,11.6,14.0,10.1,0.0,Sartaguda
Tierra_Estella,22/11/2014,13.0,15.5,11.7,0.2,Sartaguda
Tierra_Estella,23/11/2014,15.1,18.6,11.7,0.0,Sartaguda
Tierra_Estella,24/11/2014,13.8,19.2,9.2,0.0,Sartaguda
Tierra_Estella,25/11/2014,13.2,17.3,10.8,4.4,Sartaguda
Tierra_Estella,26/11/2014,10.5,14.2,4.1,1.1,Sartaguda
Tierra_Estella,27/11/2014,9.8,13.0,4.1,2.7,Sartaguda
Tierra_Estella,28/11/2014,12.3,13.7,9.1,19.5,Sartaguda
Tierra_Estella,29/11/2014,11.9,12.9,11.3,48.6,Sartaguda
Tierra_Estella,30/11/2014,13.8,17.2,11.0,6.7,Sartaguda
Tierra_Estella,01/12/2014,11.6,14.5,6.3,8.0,Sartaguda
Tierra_Estella,02/12/2014,10.9,13.6,9.3,0.0,Sartaguda
Tierra_Estella,03/12/2014,8.3,9.9,6.4,0.0,Sartaguda
Tierra_Estella,04/12/2014,6.4,11.5,2.2,0.0,Sartaguda
Tierra_Estella,05/12/2014,7.3,12.1,2.5,0.2,Sartaguda
Tierra_Estella,06/12/2014,5.4,7.8,4.0,5.9,Sartaguda
Tierra_Estella,07/12/2014,7.3,9.6,3.6,0.0,Sartaguda
Tierra_Estella,08/12/2014,10.1,14.2,8.1,1.1,Sartaguda
Tierra_Estella,09/12/2014,7.2,9.5,4.5,0.6,Sartaguda
Tierra_Estella,10/12/2014,9.7,13.9,6.4,0.0,Sartaguda
Tierra_Estella,11/12/2014,8.0,13.9,0.4,0.0,Sartaguda
Tierra_Estella,12/12/2014,2.3,5.8,-0.7,0.2,Sartaguda
Tierra_Estella,13/12/2014,6.9,10.1,2.4,1.7,Sartaguda
Tierra_Estella,14/12/2014,7.6,8.7,6.4,5.7,Sartaguda
Tierra_Estella,15/12/2014,8.1,10.9,5.1,6.7,Sartaguda
Tierra_Estella,16/12/2014,9.7,13.6,6.2,3.8,Sartaguda
Tierra_Estella,17/12/2014,11.4,15.4,8.8,0.0,Sartaguda
Tierra_Estella,18/12/2014,10.4,15.0,7.6,0.0,Sartaguda
Tierra_Estella,19/12/2014,8.3,11.0,4.2,0.0,Sartaguda
Tierra_Estella,20/12/2014,9.7,14.8,3.9,0.0,Sartaguda
Tierra_Estella,21/12/2014,8.4,14.2,0.7,0.2,Sartaguda
Tierra_Estella,22/12/2014,1.4,2.7,-2.4,0.2,Sartaguda
Tierra_Estella,23/12/2014,2.2,3.2,1.4,0.2,Sartaguda
Tierra_Estella,24/12/2014,4.8,12.6,0.6,0.0,Sartaguda
Tierra_Estella,25/12/2014,8.4,13.0,4.2,0.0,Sartaguda
Tierra_Estella,26/12/2014,10.6,14.2,8.4,0.0,Sartaguda
Tierra_Estella,27/12/2014,9.3,11.1,7.8,5.7,Sartaguda
Tierra_Estella,28/12/2014,6.1,8.9,2.9,1.9,Sartaguda
Tierra_Estella,29/12/2014,3.2,7.1,0.8,0.0,Sartaguda
Tierra_Estella,30/12/2014,3.6,8.4,0.6,0.0,Sartaguda
Tierra_Estella,31/12/2014,5.5,13.6,1.0,0.0,Sartaguda
