Comarca,Fecha, Temperatura media, Temperatura maxima, Temperatura minima, Precipitacion acumulada,Localidad
Tierra_Estella,01/01/2011,8.5,14.0,4.4,0.0,Sartaguda
Tierra_Estella,02/01/2011,9.0,12.3,4.9,0.0,Sartaguda
Tierra_Estella,03/01/2011,3.4,7.7,-1.5,0.0,Sartaguda
Tierra_Estella,04/01/2011,2.8,6.4,-1.7,1.9,Sartaguda
Tierra_Estella,05/01/2011,5.1,6.4,3.7,3.8,Sartaguda
Tierra_Estella,06/01/2011,10.0,13.6,5.5,0.2,Sartaguda
Tierra_Estella,07/01/2011,14.6,16.8,11.1,0.2,Sartaguda
Tierra_Estella,08/01/2011,13.8,16.5,11.3,0.0,Sartaguda
Tierra_Estella,09/01/2011,9.3,12.3,2.6,0.0,Sartaguda
Tierra_Estella,10/01/2011,5.3,11.4,-0.2,0.0,Sartaguda
Tierra_Estella,11/01/2011,9.4,16.2,1.1,0.4,Sartaguda
Tierra_Estella,12/01/2011,12.4,15.8,7.8,0.0,Sartaguda
Tierra_Estella,13/01/2011,9.7,14.3,5.3,0.0,Sartaguda
Tierra_Estella,14/01/2011,7.1,15.2,-1.3,0.0,Sartaguda
Tierra_Estella,15/01/2011,5.8,11.6,0.4,0.0,Sartaguda
Tierra_Estella,16/01/2011,4.3,5.7,1.8,0.4,Sartaguda
Tierra_Estella,17/01/2011,5.4,13.6,1.4,0.0,Sartaguda
Tierra_Estella,18/01/2011,2.8,6.7,-0.3,0.2,Sartaguda
Tierra_Estella,19/01/2011,6.4,9.2,3.7,0.2,Sartaguda
Tierra_Estella,20/01/2011,6.6,13.4,0.6,0.0,Sartaguda
Tierra_Estella,21/01/2011,2.1,6.5,-1.5,0.0,Sartaguda
Tierra_Estella,22/01/2011,1.7,6.5,-2.2,0.0,Sartaguda
Tierra_Estella,23/01/2011,1.2,6.5,-2.5,0.0,Sartaguda
Tierra_Estella,24/01/2011,2.1,7.4,-2.2,2.1,Sartaguda
Tierra_Estella,25/01/2011,1.7,7.6,-3.0,0.0,Sartaguda
Tierra_Estella,26/01/2011,0.5,8.6,-5.3,0.0,Sartaguda
Tierra_Estella,27/01/2011,1.0,4.4,-5.5,1.5,Sartaguda
Tierra_Estella,28/01/2011,3.7,4.9,2.4,4.0,Sartaguda
Tierra_Estella,29/01/2011,5.2,8.2,3.6,0.4,Sartaguda
Tierra_Estella,30/01/2011,5.5,7.8,4.4,2.9,Sartaguda
Tierra_Estella,31/01/2011,4.2,7.1,1.6,0.0,Sartaguda
Tierra_Estella,01/02/2011,5.3,8.2,2.4,0.0,Sartaguda
Tierra_Estella,02/02/2011,6.5,9.7,3.3,0.0,Sartaguda
Tierra_Estella,03/02/2011,7.8,12.3,4.1,0.0,Sartaguda
Tierra_Estella,04/02/2011,7.7,15.3,2.4,0.0,Sartaguda
Tierra_Estella,05/02/2011,10.1,19.8,3.9,0.0,Sartaguda
Tierra_Estella,06/02/2011,6.0,18.0,-1.5,0.0,Sartaguda
Tierra_Estella,07/02/2011,5.2,16.4,-1.8,0.0,Sartaguda
Tierra_Estella,08/02/2011,4.5,14.4,-1.6,0.0,Sartaguda
Tierra_Estella,09/02/2011,4.0,14.5,-2.9,0.2,Sartaguda
Tierra_Estella,10/02/2011,4.4,13.5,-3.4,0.0,Sartaguda
Tierra_Estella,11/02/2011,4.6,13.4,-1.3,0.2,Sartaguda
Tierra_Estella,12/02/2011,5.5,15.4,-1.9,0.2,Sartaguda
Tierra_Estella,13/02/2011,4.3,12.6,-3.7,1.3,Sartaguda
Tierra_Estella,14/02/2011,7.1,11.4,2.7,1.3,Sartaguda
Tierra_Estella,15/02/2011,5.5,7.2,1.7,6.1,Sartaguda
Tierra_Estella,16/02/2011,5.8,12.8,-1.7,0.6,Sartaguda
Tierra_Estella,17/02/2011,7.0,11.1,3.8,0.4,Sartaguda
Tierra_Estella,18/02/2011,9.0,14.3,3.7,0.0,Sartaguda
Tierra_Estella,19/02/2011,7.1,10.2,2.6,2.7,Sartaguda
Tierra_Estella,20/02/2011,8.5,15.7,2.6,0.2,Sartaguda
Tierra_Estella,21/02/2011,8.6,12.2,4.9,4.0,Sartaguda
Tierra_Estella,22/02/2011,12.1,13.8,10.2,2.5,Sartaguda
Tierra_Estella,23/02/2011,12.0,16.3,7.0,0.0,Sartaguda
Tierra_Estella,24/02/2011,11.3,15.5,7.8,0.0,Sartaguda
Tierra_Estella,25/02/2011,12.3,21.5,5.6,0.0,Sartaguda
Tierra_Estella,26/02/2011,11.9,16.9,6.8,0.2,Sartaguda
Tierra_Estella,27/02/2011,8.1,11.5,6.0,0.6,Sartaguda
Tierra_Estella,28/02/2011,5.9,9.5,3.4,6.9,Sartaguda
Tierra_Estella,01/03/2011,6.1,9.6,3.1,0.0,Sartaguda
Tierra_Estella,02/03/2011,6.6,9.4,4.7,0.2,Sartaguda
Tierra_Estella,03/03/2011,4.5,7.4,1.7,2.7,Sartaguda
Tierra_Estella,04/03/2011,3.6,6.6,1.8,1.1,Sartaguda
Tierra_Estella,05/03/2011,6.6,13.2,1.9,0.0,Sartaguda
Tierra_Estella,06/03/2011,7.1,16.2,0.5,0.2,Sartaguda
Tierra_Estella,07/03/2011,7.9,16.8,-1.1,0.0,Sartaguda
Tierra_Estella,08/03/2011,8.5,11.6,4.1,0.2,Sartaguda
Tierra_Estella,09/03/2011,8.0,14.3,1.5,0.0,Sartaguda
Tierra_Estella,10/03/2011,7.8,17.0,-0.1,0.0,Sartaguda
Tierra_Estella,11/03/2011,8.8,17.7,-0.7,2.5,Sartaguda
Tierra_Estella,12/03/2011,9.3,12.8,7.0,2.9,Sartaguda
Tierra_Estella,13/03/2011,10.5,16.6,3.9,0.0,Sartaguda
Tierra_Estella,14/03/2011,11.1,12.6,8.9,1.7,Sartaguda
Tierra_Estella,15/03/2011,10.3,11.1,9.4,26.4,Sartaguda
Tierra_Estella,16/03/2011,11.6,13.6,10.1,2.1,Sartaguda
Tierra_Estella,17/03/2011,11.5,13.8,8.8,0.0,Sartaguda
Tierra_Estella,18/03/2011,10.9,17.9,6.2,0.0,Sartaguda
Tierra_Estella,19/03/2011,10.2,15.5,5.1,0.0,Sartaguda
Tierra_Estella,20/03/2011,10.4,18.3,4.7,0.0,Sartaguda
Tierra_Estella,21/03/2011,9.4,16.2,3.9,0.0,Sartaguda
Tierra_Estella,22/03/2011,8.3,11.5,5.1,0.0,Sartaguda
Tierra_Estella,23/03/2011,8.9,15.0,1.5,0.2,Sartaguda
Tierra_Estella,24/03/2011,8.0,10.9,3.1,10.5,Sartaguda
Tierra_Estella,25/03/2011,11.6,17.0,8.2,0.0,Sartaguda
Tierra_Estella,26/03/2011,12.8,20.1,5.6,0.4,Sartaguda
Tierra_Estella,27/03/2011,10.7,16.7,5.7,6.9,Sartaguda
Tierra_Estella,28/03/2011,11.9,17.1,6.8,0.6,Sartaguda
Tierra_Estella,29/03/2011,12.6,18.1,7.2,2.9,Sartaguda
Tierra_Estella,30/03/2011,12.6,17.1,7.8,2.9,Sartaguda
Tierra_Estella,31/03/2011,16.0,23.6,9.7,0.0,Sartaguda
Tierra_Estella,01/04/2011,16.5,26.1,6.5,0.0,Sartaguda
Tierra_Estella,02/04/2011,17.9,25.5,11.7,0.0,Sartaguda
Tierra_Estella,03/04/2011,12.1,14.8,9.5,3.6,Sartaguda
Tierra_Estella,04/04/2011,12.3,17.9,8.2,0.2,Sartaguda
Tierra_Estella,05/04/2011,14.8,24.8,6.3,0.0,Sartaguda
Tierra_Estella,06/04/2011,17.4,27.5,7.6,0.2,Sartaguda
Tierra_Estella,07/04/2011,17.2,27.9,7.7,0.0,Sartaguda
Tierra_Estella,08/04/2011,18.7,31.5,8.2,0.0,Sartaguda
Tierra_Estella,09/04/2011,20.3,31.6,10.3,0.0,Sartaguda
Tierra_Estella,10/04/2011,15.4,20.1,13.0,0.0,Sartaguda
Tierra_Estella,11/04/2011,14.5,18.7,13.2,0.0,Sartaguda
Tierra_Estella,12/04/2011,13.9,18.2,9.1,0.0,Sartaguda
Tierra_Estella,13/04/2011,14.5,25.5,5.5,0.0,Sartaguda
Tierra_Estella,14/04/2011,14.0,22.4,6.4,0.0,Sartaguda
Tierra_Estella,15/04/2011,13.1,19.4,7.3,0.0,Sartaguda
Tierra_Estella,16/04/2011,13.2,21.3,7.1,0.0,Sartaguda
Tierra_Estella,17/04/2011,16.2,23.7,7.0,0.0,Sartaguda
Tierra_Estella,18/04/2011,16.5,23.2,9.7,0.0,Sartaguda
Tierra_Estella,19/04/2011,14.9,20.3,10.8,0.0,Sartaguda
Tierra_Estella,20/04/2011,14.4,18.9,10.8,1.5,Sartaguda
Tierra_Estella,21/04/2011,14.9,19.1,12.3,2.3,Sartaguda
Tierra_Estella,22/04/2011,13.2,16.5,10.5,3.1,Sartaguda
Tierra_Estella,23/04/2011,14.1,20.5,8.6,33.3,Sartaguda
Tierra_Estella,24/04/2011,14.2,18.9,11.7,11.1,Sartaguda
Tierra_Estella,25/04/2011,15.6,18.9,13.1,0.2,Sartaguda
Tierra_Estella,26/04/2011,16.2,20.8,12.9,0.0,Sartaguda
Tierra_Estella,27/04/2011,16.7,22.8,10.7,0.0,Sartaguda
Tierra_Estella,28/04/2011,15.6,22.3,9.7,0.0,Sartaguda
Tierra_Estella,29/04/2011,14.8,21.9,7.2,0.0,Sartaguda
Tierra_Estella,30/04/2011,15.7,21.9,11.6,2.3,Sartaguda
Tierra_Estella,01/05/2011,17.3,23.2,12.5,0.8,Sartaguda
Tierra_Estella,02/05/2011,17.0,24.2,10.1,0.0,Sartaguda
Tierra_Estella,03/05/2011,16.4,21.4,10.9,0.0,Sartaguda
Tierra_Estella,04/05/2011,16.1,23.4,8.3,0.0,Sartaguda
Tierra_Estella,05/05/2011,17.6,25.5,9.5,0.0,Sartaguda
Tierra_Estella,06/05/2011,19.3,25.8,14.2,0.8,Sartaguda
Tierra_Estella,07/05/2011,14.1,15.9,12.3,22.2,Sartaguda
Tierra_Estella,08/05/2011,16.8,24.4,11.7,0.0,Sartaguda
Tierra_Estella,09/05/2011,18.7,27.1,11.2,0.2,Sartaguda
Tierra_Estella,10/05/2011,19.9,26.7,12.8,0.0,Sartaguda
Tierra_Estella,11/05/2011,20.2,28.0,12.0,0.0,Sartaguda
Tierra_Estella,12/05/2011,18.7,24.1,15.0,0.0,Sartaguda
Tierra_Estella,13/05/2011,18.4,24.5,13.4,0.0,Sartaguda
Tierra_Estella,14/05/2011,14.9,17.3,10.3,0.6,Sartaguda
Tierra_Estella,15/05/2011,14.3,20.1,10.2,0.0,Sartaguda
Tierra_Estella,16/05/2011,16.3,25.8,7.4,0.0,Sartaguda
Tierra_Estella,17/05/2011,19.2,28.1,8.1,0.0,Sartaguda
Tierra_Estella,18/05/2011,19.7,26.2,10.5,0.0,Sartaguda
Tierra_Estella,19/05/2011,19.3,25.6,12.1,0.0,Sartaguda
Tierra_Estella,20/05/2011,18.2,25.9,10.2,0.0,Sartaguda
Tierra_Estella,21/05/2011,19.6,28.9,11.7,0.0,Sartaguda
Tierra_Estella,22/05/2011,19.0,24.8,14.4,0.0,Sartaguda
Tierra_Estella,23/05/2011,21.0,31.8,10.5,0.0,Sartaguda
Tierra_Estella,24/05/2011,21.1,28.7,14.2,0.0,Sartaguda
Tierra_Estella,25/05/2011,22.4,33.1,13.4,0.2,Sartaguda
Tierra_Estella,26/05/2011,18.5,23.8,14.8,3.4,Sartaguda
Tierra_Estella,27/05/2011,15.2,18.3,10.5,0.0,Sartaguda
Tierra_Estella,28/05/2011,17.5,28.1,8.5,0.0,Sartaguda
Tierra_Estella,29/05/2011,19.6,28.2,10.7,0.0,Sartaguda
Tierra_Estella,30/05/2011,19.3,24.6,16.5,2.3,Sartaguda
Tierra_Estella,31/05/2011,15.4,17.9,11.4,0.6,Sartaguda
Tierra_Estella,01/06/2011,14.5,19.2,9.8,0.0,Sartaguda
Tierra_Estella,02/06/2011,16.7,21.0,13.2,0.0,Sartaguda
Tierra_Estella,03/06/2011,18.9,26.7,11.4,0.0,Sartaguda
Tierra_Estella,04/06/2011,18.2,26.1,13.4,1.7,Sartaguda
Tierra_Estella,05/06/2011,18.1,26.3,12.1,8.6,Sartaguda
Tierra_Estella,06/06/2011,17.1,23.5,13.9,2.7,Sartaguda
Tierra_Estella,07/06/2011,15.1,17.9,11.5,0.6,Sartaguda
Tierra_Estella,08/06/2011,16.2,21.2,12.5,0.0,Sartaguda
Tierra_Estella,09/06/2011,17.2,24.1,12.1,8.6,Sartaguda
Tierra_Estella,10/06/2011,15.7,19.7,11.9,0.8,Sartaguda
Tierra_Estella,11/06/2011,17.1,24.0,9.1,0.0,Sartaguda
Tierra_Estella,12/06/2011,21.3,29.9,12.4,0.0,Sartaguda
Tierra_Estella,13/06/2011,22.3,29.8,15.1,0.0,Sartaguda
Tierra_Estella,14/06/2011,23.1,31.6,15.2,0.0,Sartaguda
Tierra_Estella,15/06/2011,24.2,32.5,17.4,0.0,Sartaguda
Tierra_Estella,16/06/2011,20.2,23.7,15.7,0.0,Sartaguda
Tierra_Estella,17/06/2011,21.2,30.6,13.2,0.0,Sartaguda
Tierra_Estella,18/06/2011,18.0,23.4,13.4,0.0,Sartaguda
Tierra_Estella,19/06/2011,20.8,30.2,10.9,0.0,Sartaguda
Tierra_Estella,20/06/2011,25.0,34.4,14.2,0.0,Sartaguda
Tierra_Estella,21/06/2011,25.4,35.1,18.3,0.0,Sartaguda
Tierra_Estella,22/06/2011,21.3,27.1,16.8,0.0,Sartaguda
Tierra_Estella,23/06/2011,18.6,25.2,13.2,0.0,Sartaguda
Tierra_Estella,24/06/2011,19.9,30.3,11.2,0.0,Sartaguda
Tierra_Estella,25/06/2011,24.0,34.9,14.0,0.0,Sartaguda
Tierra_Estella,26/06/2011,28.1,37.7,17.3,0.0,Sartaguda
Tierra_Estella,27/06/2011,28.2,35.7,19.3,1.9,Sartaguda
Tierra_Estella,28/06/2011,22.6,30.5,16.7,1.1,Sartaguda
Tierra_Estella,29/06/2011,16.5,19.3,12.9,0.0,Sartaguda
Tierra_Estella,30/06/2011,17.6,23.6,11.3,0.0,Sartaguda
Tierra_Estella,01/07/2011,20.9,30.1,12.6,0.0,Sartaguda
Tierra_Estella,02/07/2011,24.1,35.1,13.6,0.0,Sartaguda
Tierra_Estella,03/07/2011,23.3,31.2,17.9,2.3,Sartaguda
Tierra_Estella,04/07/2011,22.4,29.9,15.0,0.0,Sartaguda
Tierra_Estella,05/07/2011,23.4,34.4,13.6,0.0,Sartaguda
Tierra_Estella,06/07/2011,21.0,28.2,15.9,0.0,Sartaguda
Tierra_Estella,07/07/2011,18.9,27.1,12.6,0.0,Sartaguda
Tierra_Estella,08/07/2011,21.0,30.4,10.9,0.0,Sartaguda
Tierra_Estella,09/07/2011,24.3,32.6,15.5,0.0,Sartaguda
Tierra_Estella,10/07/2011,23.3,29.9,18.5,0.0,Sartaguda
Tierra_Estella,11/07/2011,25.7,34.5,16.5,0.0,Sartaguda
Tierra_Estella,12/07/2011,21.4,31.0,16.2,0.4,Sartaguda
Tierra_Estella,13/07/2011,18.1,22.2,15.4,0.0,Sartaguda
Tierra_Estella,14/07/2011,19.4,25.1,14.9,0.0,Sartaguda
Tierra_Estella,15/07/2011,21.4,30.3,11.8,0.0,Sartaguda
Tierra_Estella,16/07/2011,24.4,33.6,16.4,0.0,Sartaguda
Tierra_Estella,17/07/2011,19.0,22.2,15.7,0.0,Sartaguda
Tierra_Estella,18/07/2011,20.5,27.5,11.3,0.0,Sartaguda
Tierra_Estella,19/07/2011,17.9,22.2,13.6,3.1,Sartaguda
Tierra_Estella,20/07/2011,19.9,28.3,11.4,0.0,Sartaguda
Tierra_Estella,21/07/2011,19.5,24.3,16.0,0.8,Sartaguda
Tierra_Estella,22/07/2011,17.8,22.3,13.8,0.0,Sartaguda
Tierra_Estella,23/07/2011,17.8,23.9,11.5,0.0,Sartaguda
Tierra_Estella,24/07/2011,19.6,24.3,15.3,0.0,Sartaguda
Tierra_Estella,25/07/2011,22.1,27.2,19.0,0.0,Sartaguda
Tierra_Estella,26/07/2011,21.6,25.2,17.2,0.0,Sartaguda
Tierra_Estella,27/07/2011,20.4,25.4,16.1,0.0,Sartaguda
Tierra_Estella,28/07/2011,20.8,28.3,14.1,0.0,Sartaguda
Tierra_Estella,29/07/2011,21.8,31.0,13.8,3.4,Sartaguda
Tierra_Estella,30/07/2011,22.7,29.0,17.0,0.0,Sartaguda
Tierra_Estella,31/07/2011,22.7,31.9,14.6,0.0,Sartaguda
Tierra_Estella,01/08/2011,24.5,33.1,13.4,2.9,Sartaguda
Tierra_Estella,02/08/2011,24.3,31.5,19.9,0.2,Sartaguda
Tierra_Estella,03/08/2011,23.5,29.5,17.0,0.0,Sartaguda
Tierra_Estella,04/08/2011,24.2,34.2,15.9,0.0,Sartaguda
Tierra_Estella,05/08/2011,24.1,32.1,18.2,0.0,Sartaguda
Tierra_Estella,06/08/2011,23.8,33.6,17.4,0.0,Sartaguda
Tierra_Estella,07/08/2011,23.0,30.2,17.8,0.0,Sartaguda
Tierra_Estella,08/08/2011,19.4,23.8,14.2,0.0,Sartaguda
Tierra_Estella,09/08/2011,18.1,24.0,11.4,0.0,Sartaguda
Tierra_Estella,10/08/2011,20.6,30.4,11.9,0.0,Sartaguda
Tierra_Estella,11/08/2011,21.8,34.1,12.1,0.0,Sartaguda
Tierra_Estella,12/08/2011,23.6,33.7,16.3,0.0,Sartaguda
Tierra_Estella,13/08/2011,25.5,34.6,17.3,0.0,Sartaguda
Tierra_Estella,14/08/2011,24.7,31.7,18.5,0.0,Sartaguda
Tierra_Estella,15/08/2011,24.5,31.3,19.4,0.0,Sartaguda
Tierra_Estella,16/08/2011,25.3,34.6,16.3,0.0,Sartaguda
Tierra_Estella,17/08/2011,26.8,36.7,19.6,0.0,Sartaguda
Tierra_Estella,18/08/2011,22.8,31.2,16.9,0.2,Sartaguda
Tierra_Estella,19/08/2011,26.1,36.0,17.4,0.4,Sartaguda
Tierra_Estella,20/08/2011,28.9,39.4,17.7,0.0,Sartaguda
Tierra_Estella,21/08/2011,27.6,37.7,18.3,3.1,Sartaguda
Tierra_Estella,22/08/2011,26.1,34.3,19.3,0.0,Sartaguda
Tierra_Estella,23/08/2011,24.7,33.5,18.2,0.0,Sartaguda
Tierra_Estella,24/08/2011,23.7,29.7,17.5,0.0,Sartaguda
Tierra_Estella,25/08/2011,24.4,33.7,15.3,0.0,Sartaguda
Tierra_Estella,26/08/2011,21.5,26.1,15.9,0.0,Sartaguda
Tierra_Estella,27/08/2011,18.0,25.4,10.0,0.0,Sartaguda
Tierra_Estella,28/08/2011,19.5,31.5,8.5,0.0,Sartaguda
Tierra_Estella,29/08/2011,21.5,31.2,15.1,0.0,Sartaguda
Tierra_Estella,30/08/2011,20.9,31.9,13.4,0.0,Sartaguda
Tierra_Estella,31/08/2011,21.0,28.7,13.4,0.4,Sartaguda
Tierra_Estella,01/09/2011,23.7,31.2,16.3,0.0,Sartaguda
Tierra_Estella,02/09/2011,22.7,29.8,15.6,10.1,Sartaguda
Tierra_Estella,03/09/2011,20.8,26.3,18.0,6.1,Sartaguda
Tierra_Estella,04/09/2011,20.3,25.5,16.5,0.2,Sartaguda
Tierra_Estella,05/09/2011,18.1,25.0,11.9,0.0,Sartaguda
Tierra_Estella,06/09/2011,19.1,30.3,10.1,0.0,Sartaguda
Tierra_Estella,07/09/2011,20.9,30.4,12.9,0.0,Sartaguda
Tierra_Estella,08/09/2011,22.3,34.4,13.6,0.0,Sartaguda
Tierra_Estella,09/09/2011,21.9,33.5,12.5,0.2,Sartaguda
Tierra_Estella,10/09/2011,24.1,34.9,14.2,0.0,Sartaguda
Tierra_Estella,11/09/2011,20.4,27.3,14.0,0.0,Sartaguda
Tierra_Estella,12/09/2011,22.1,32.8,12.6,0.0,Sartaguda
Tierra_Estella,13/09/2011,22.2,33.7,13.1,0.0,Sartaguda
Tierra_Estella,14/09/2011,23.6,29.7,19.1,0.0,Sartaguda
Tierra_Estella,15/09/2011,23.9,33.4,17.4,0.0,Sartaguda
Tierra_Estella,16/09/2011,0.0,0.0,0.0,0.0,Sartaguda
Tierra_Estella,17/09/2011,0.0,0.0,0.0,0.0,Sartaguda
Tierra_Estella,18/09/2011,0.0,0.0,0.0,0.0,Sartaguda
Tierra_Estella,19/09/2011,0.0,0.0,0.0,0.0,Sartaguda
Tierra_Estella,20/09/2011,0.0,0.0,0.0,0.0,Sartaguda
Tierra_Estella,21/09/2011,0.0,0.0,0.0,0.0,Sartaguda
Tierra_Estella,22/09/2011,20.6,28.0,15.6,0.0,Sartaguda
Tierra_Estella,23/09/2011,18.8,26.7,12.3,18.0,Sartaguda
Tierra_Estella,24/09/2011,0.0,0.0,0.0,0.0,Sartaguda
Tierra_Estella,25/09/2011,18.6,27.5,11.8,0.2,Sartaguda
Tierra_Estella,26/09/2011,0.0,0.0,0.0,0.0,Sartaguda
Tierra_Estella,27/09/2011,18.9,30.1,10.9,0.2,Sartaguda
Tierra_Estella,28/09/2011,0.0,0.0,0.0,0.0,Sartaguda
Tierra_Estella,29/09/2011,0.0,0.0,0.0,0.0,Sartaguda
Tierra_Estella,30/09/2011,0.0,0.0,0.0,0.0,Sartaguda
Tierra_Estella,01/10/2011,0.0,0.0,0.0,0.0,Sartaguda
Tierra_Estella,02/10/2011,15.6,28.2,6.8,0.0,Sartaguda
Tierra_Estella,03/10/2011,18.4,31.6,6.6,0.0,Sartaguda
Tierra_Estella,04/10/2011,20.7,30.2,13.2,0.0,Sartaguda
Tierra_Estella,05/10/2011,0.0,0.0,0.0,0.0,Sartaguda
Tierra_Estella,06/10/2011,0.0,0.0,0.0,0.0,Sartaguda
Tierra_Estella,07/10/2011,0.0,0.0,0.0,0.0,Sartaguda
Tierra_Estella,08/10/2011,0.0,0.0,0.0,0.0,Sartaguda
Tierra_Estella,09/10/2011,0.0,0.0,0.0,0.0,Sartaguda
Tierra_Estella,10/10/2011,0.0,0.0,0.0,0.0,Sartaguda
Tierra_Estella,11/10/2011,0.0,0.0,0.0,0.0,Sartaguda
Tierra_Estella,12/10/2011,0.0,0.0,0.0,0.0,Sartaguda
Tierra_Estella,13/10/2011,0.0,0.0,0.0,0.0,Sartaguda
Tierra_Estella,14/10/2011,0.0,0.0,0.0,0.0,Sartaguda
Tierra_Estella,15/10/2011,0.0,0.0,0.0,0.0,Sartaguda
Tierra_Estella,16/10/2011,0.0,0.0,0.0,0.0,Sartaguda
Tierra_Estella,17/10/2011,0.0,0.0,0.0,0.0,Sartaguda
Tierra_Estella,18/10/2011,0.0,0.0,0.0,0.0,Sartaguda
Tierra_Estella,19/10/2011,0.0,0.0,0.0,0.0,Sartaguda
Tierra_Estella,20/10/2011,0.0,0.0,0.0,0.0,Sartaguda
Tierra_Estella,21/10/2011,0.0,0.0,0.0,0.0,Sartaguda
Tierra_Estella,22/10/2011,0.0,0.0,0.0,0.0,Sartaguda
Tierra_Estella,23/10/2011,0.0,0.0,0.0,0.0,Sartaguda
Tierra_Estella,24/10/2011,14.0,18.4,4.9,0.0,Sartaguda
Tierra_Estella,25/10/2011,11.5,17.6,0.0,0.0,Sartaguda
Tierra_Estella,26/10/2011,11.0,18.0,0.1,0.0,Sartaguda
Tierra_Estella,27/10/2011,14.5,18.5,10.8,3.1,Sartaguda
Tierra_Estella,28/10/2011,0.0,0.0,0.0,0.0,Sartaguda
Tierra_Estella,29/10/2011,0.0,0.0,0.0,0.0,Sartaguda
Tierra_Estella,30/10/2011,0.0,0.0,0.0,0.0,Sartaguda
Tierra_Estella,31/10/2011,12.4,20.1,4.1,0.4,Sartaguda
Tierra_Estella,01/11/2011,15.4,19.4,11.6,4.2,Sartaguda
Tierra_Estella,02/11/2011,0.0,0.0,0.0,0.0,Sartaguda
Tierra_Estella,03/11/2011,0.0,0.0,0.0,0.0,Sartaguda
Tierra_Estella,04/11/2011,0.0,0.0,0.0,0.0,Sartaguda
Tierra_Estella,05/11/2011,0.0,0.0,0.0,0.0,Sartaguda
Tierra_Estella,06/11/2011,0.0,0.0,0.0,0.0,Sartaguda
Tierra_Estella,07/11/2011,0.0,0.0,0.0,0.0,Sartaguda
Tierra_Estella,08/11/2011,0.0,0.0,0.0,0.0,Sartaguda
Tierra_Estella,09/11/2011,0.0,0.0,0.0,0.0,Sartaguda
Tierra_Estella,10/11/2011,12.8,17.3,8.7,5.7,Sartaguda
Tierra_Estella,11/11/2011,14.2,19.4,10.0,0.2,Sartaguda
Tierra_Estella,12/11/2011,13.6,18.5,7.2,0.0,Sartaguda
Tierra_Estella,13/11/2011,0.0,0.0,0.0,0.0,Sartaguda
Tierra_Estella,14/11/2011,0.0,0.0,0.0,0.0,Sartaguda
Tierra_Estella,15/11/2011,0.0,0.0,0.0,0.0,Sartaguda
Tierra_Estella,16/11/2011,0.0,0.0,0.0,0.0,Sartaguda
Tierra_Estella,17/11/2011,0.0,0.0,0.0,0.0,Sartaguda
Tierra_Estella,18/11/2011,0.0,0.0,0.0,0.0,Sartaguda
Tierra_Estella,19/11/2011,0.0,0.0,0.0,0.0,Sartaguda
Tierra_Estella,20/11/2011,0.0,0.0,0.0,0.0,Sartaguda
Tierra_Estella,21/11/2011,0.0,0.0,0.0,0.0,Sartaguda
Tierra_Estella,22/11/2011,0.0,0.0,0.0,0.0,Sartaguda
Tierra_Estella,23/11/2011,0.0,0.0,0.0,0.0,Sartaguda
Tierra_Estella,24/11/2011,11.0,18.8,4.3,0.0,Sartaguda
Tierra_Estella,25/11/2011,9.1,16.6,2.0,0.2,Sartaguda
Tierra_Estella,26/11/2011,11.1,16.9,6.6,0.0,Sartaguda
Tierra_Estella,27/11/2011,3.7,6.8,1.2,0.2,Sartaguda
Tierra_Estella,28/11/2011,4.2,5.5,2.7,0.2,Sartaguda
Tierra_Estella,29/11/2011,0.0,0.0,0.0,0.0,Sartaguda
Tierra_Estella,30/11/2011,0.0,0.0,0.0,0.0,Sartaguda
Tierra_Estella,01/12/2011,0.0,0.0,0.0,0.0,Sartaguda
Tierra_Estella,02/12/2011,0.0,0.0,0.0,0.0,Sartaguda
Tierra_Estella,03/12/2011,0.0,0.0,0.0,0.0,Sartaguda
Tierra_Estella,04/12/2011,0.0,0.0,0.0,0.0,Sartaguda
Tierra_Estella,05/12/2011,10.6,14.2,6.7,0.4,Sartaguda
Tierra_Estella,06/12/2011,0.0,0.0,0.0,0.0,Sartaguda
Tierra_Estella,07/12/2011,0.0,0.0,0.0,0.0,Sartaguda
Tierra_Estella,08/12/2011,7.1,15.8,2.8,0.0,Sartaguda
Tierra_Estella,09/12/2011,4.8,11.7,1.5,0.2,Sartaguda
Tierra_Estella,10/12/2011,3.8,7.2,1.3,0.2,Sartaguda
Tierra_Estella,11/12/2011,4.7,7.0,3.5,0.0,Sartaguda
Tierra_Estella,12/12/2011,5.9,14.2,2.2,0.8,Sartaguda
Tierra_Estella,13/12/2011,5.3,12.5,0.2,0.2,Sartaguda
Tierra_Estella,14/12/2011,7.6,14.8,2.4,0.2,Sartaguda
Tierra_Estella,15/12/2011,5.1,12.4,0.4,0.0,Sartaguda
Tierra_Estella,16/12/2011,7.7,19.4,2.8,7.3,Sartaguda
Tierra_Estella,17/12/2011,7.3,10.2,5.9,0.0,Sartaguda
Tierra_Estella,18/12/2011,6.0,9.3,4.1,0.2,Sartaguda
Tierra_Estella,19/12/2011,7.0,11.2,3.4,0.0,Sartaguda
Tierra_Estella,20/12/2011,9.1,13.2,3.7,0.0,Sartaguda
Tierra_Estella,21/12/2011,13.0,15.1,11.5,0.0,Sartaguda
Tierra_Estella,22/12/2011,11.0,13.8,6.1,0.0,Sartaguda
Tierra_Estella,23/12/2011,0.0,0.0,0.0,0.0,Sartaguda
Tierra_Estella,24/12/2011,8.0,10.9,3.5,0.0,Sartaguda
Tierra_Estella,25/12/2011,5.5,11.7,0.2,0.0,Sartaguda
Tierra_Estella,26/12/2011,0.8,8.3,-3.3,0.0,Sartaguda
Tierra_Estella,27/12/2011,1.0,9.0,-4.2,0.2,Sartaguda
Tierra_Estella,28/12/2011,5.2,13.0,-4.0,0.0,Sartaguda
Tierra_Estella,29/12/2011,7.6,9.7,5.6,0.2,Sartaguda
Tierra_Estella,30/12/2011,8.0,10.8,4.9,0.0,Sartaguda
Tierra_Estella,31/12/2011,10.3,16.0,7.2,0.0,Sartaguda
