Comarca,Fecha, Temperatura media, Temperatura maxima, Temperatura minima, Precipitacion acumulada,Localidad
Tierra_Estella,01/01/2018,2.4,4.6,-0.9,15.8,Trinidad_de_Iturgoien
Tierra_Estella,02/01/2018,5.3,7.4,3.2,4.2,Trinidad_de_Iturgoien
Tierra_Estella,03/01/2018,8.6,9.8,7.3,0.0,Trinidad_de_Iturgoien
Tierra_Estella,04/01/2018,7.6,9.1,6.6,0.0,Trinidad_de_Iturgoien
Tierra_Estella,05/01/2018,4.3,6.8,-0.6,8.3,Trinidad_de_Iturgoien
Tierra_Estella,06/01/2018,-2.1,-0.7,-2.9,44.4,Trinidad_de_Iturgoien
Tierra_Estella,07/01/2018,-0.4,0.8,-2.3,13.3,Trinidad_de_Iturgoien
Tierra_Estella,08/01/2018,0.5,2.4,-1.2,0.0,Trinidad_de_Iturgoien
Tierra_Estella,09/01/2018,-1.9,0.1,-3.7,0.9,Trinidad_de_Iturgoien
Tierra_Estella,10/01/2018,-0.7,0.4,-1.5,1.3,Trinidad_de_Iturgoien
Tierra_Estella,11/01/2018,-1.4,0.6,-2.2,10.9,Trinidad_de_Iturgoien
Tierra_Estella,12/01/2018,0.7,2.0,-0.4,0.2,Trinidad_de_Iturgoien
Tierra_Estella,13/01/2018,-0.7,-0.0,-1.3,9.0,Trinidad_de_Iturgoien
Tierra_Estella,14/01/2018,-0.9,-0.2,-1.7,3.4,Trinidad_de_Iturgoien
Tierra_Estella,15/01/2018,0.3,1.6,-0.3,0.1,Trinidad_de_Iturgoien
Tierra_Estella,16/01/2018,3.6,6.2,1.5,0.0,Trinidad_de_Iturgoien
Tierra_Estella,17/01/2018,1.6,4.7,0.3,4.4,Trinidad_de_Iturgoien
Tierra_Estella,18/01/2018,4.1,7.7,0.4,0.0,Trinidad_de_Iturgoien
Tierra_Estella,19/01/2018,2.9,3.9,1.4,6.6,Trinidad_de_Iturgoien
Tierra_Estella,20/01/2018,4.1,6.3,1.1,1.1,Trinidad_de_Iturgoien
Tierra_Estella,21/01/2018,6.1,6.6,5.6,9.8,Trinidad_de_Iturgoien
Tierra_Estella,22/01/2018,5.5,6.2,4.5,0.8,Trinidad_de_Iturgoien
Tierra_Estella,23/01/2018,6.1,9.0,4.0,0.0,Trinidad_de_Iturgoien
Tierra_Estella,24/01/2018,4.8,9.2,3.3,0.0,Trinidad_de_Iturgoien
Tierra_Estella,25/01/2018,1.5,4.1,-1.1,18.4,Trinidad_de_Iturgoien
Tierra_Estella,26/01/2018,-0.7,-0.2,-1.4,27.7,Trinidad_de_Iturgoien
Tierra_Estella,27/01/2018,-1.2,-0.4,-2.0,9.8,Trinidad_de_Iturgoien
Tierra_Estella,28/01/2018,4.5,8.5,-2.1,0.0,Trinidad_de_Iturgoien
Tierra_Estella,29/01/2018,5.1,8.1,2.1,0.0,Trinidad_de_Iturgoien
Tierra_Estella,30/01/2018,5.0,8.5,2.0,0.0,Trinidad_de_Iturgoien
Tierra_Estella,31/01/2018,3.8,5.7,1.8,0.0,Trinidad_de_Iturgoien
Tierra_Estella,01/02/2018,-0.8,2.9,-3.0,5.6,Trinidad_de_Iturgoien
Tierra_Estella,02/02/2018,-3.4,-2.7,-4.5,8.9,Trinidad_de_Iturgoien
Tierra_Estella,03/02/2018,-1.7,-0.4,-3.0,12.5,Trinidad_de_Iturgoien
Tierra_Estella,04/02/2018,-1.9,-0.7,-2.8,3.6,Trinidad_de_Iturgoien
Tierra_Estella,05/02/2018,-2.5,-2.3,-3.0,4.3,Trinidad_de_Iturgoien
Tierra_Estella,06/02/2018,-4.4,-3.0,-6.1,0.3,Trinidad_de_Iturgoien
Tierra_Estella,07/02/2018,-5.0,-3.8,-5.9,1.4,Trinidad_de_Iturgoien
Tierra_Estella,08/02/2018,-4.3,-2.9,-5.8,0.3,Trinidad_de_Iturgoien
Tierra_Estella,09/02/2018,-3.0,-0.1,-5.6,8.0,Trinidad_de_Iturgoien
Tierra_Estella,10/02/2018,-2.0,-0.1,-3.6,6.9,Trinidad_de_Iturgoien
Tierra_Estella,11/02/2018,2.1,4.3,-0.5,17.5,Trinidad_de_Iturgoien
Tierra_Estella,12/02/2018,-3.2,-0.6,-5.6,0.7,Trinidad_de_Iturgoien
Tierra_Estella,13/02/2018,-3.0,-0.5,-5.8,0.3,Trinidad_de_Iturgoien
Tierra_Estella,14/02/2018,3.0,5.2,-0.7,12.1,Trinidad_de_Iturgoien
Tierra_Estella,15/02/2018,6.6,8.3,4.9,0.0,Trinidad_de_Iturgoien
Tierra_Estella,16/02/2018,7.4,9.0,6.3,0.0,Trinidad_de_Iturgoien
Tierra_Estella,17/02/2018,2.0,7.0,-0.6,1.9,Trinidad_de_Iturgoien
Tierra_Estella,18/02/2018,0.8,2.4,-0.7,1.3,Trinidad_de_Iturgoien
Tierra_Estella,19/02/2018,3.3,4.2,1.8,12.8,Trinidad_de_Iturgoien
Tierra_Estella,20/02/2018,2.1,4.0,0.7,10.8,Trinidad_de_Iturgoien
Tierra_Estella,21/02/2018,-2.1,1.1,-3.5,1.8,Trinidad_de_Iturgoien
Tierra_Estella,22/02/2018,-3.9,-2.0,-4.9,0.0,Trinidad_de_Iturgoien
Tierra_Estella,23/02/2018,-4.8,-3.5,-6.0,0.0,Trinidad_de_Iturgoien
Tierra_Estella,24/02/2018,-1.9,2.4,-6.8,0.0,Trinidad_de_Iturgoien
Tierra_Estella,25/02/2018,0.5,4.3,-3.0,0.0,Trinidad_de_Iturgoien
Tierra_Estella,26/02/2018,-3.8,0.1,-8.8,0.0,Trinidad_de_Iturgoien
Tierra_Estella,27/02/2018,-7.9,-4.9,-10.9,0.0,Trinidad_de_Iturgoien
Tierra_Estella,28/02/2018,-4.1,-0.3,-7.7,36.0,Trinidad_de_Iturgoien
Tierra_Estella,01/03/2018,2.5,4.5,-0.2,11.5,Trinidad_de_Iturgoien
Tierra_Estella,02/03/2018,-0.4,1.9,-2.4,7.5,Trinidad_de_Iturgoien
Tierra_Estella,03/03/2018,3.5,6.4,0.5,6.4,Trinidad_de_Iturgoien
Tierra_Estella,04/03/2018,4.1,6.9,1.5,7.3,Trinidad_de_Iturgoien
Tierra_Estella,05/03/2018,1.5,5.3,-0.6,6.7,Trinidad_de_Iturgoien
Tierra_Estella,06/03/2018,0.2,5.0,-2.4,3.5,Trinidad_de_Iturgoien
Tierra_Estella,07/03/2018,0.5,4.6,-2.7,0.0,Trinidad_de_Iturgoien
Tierra_Estella,08/03/2018,2.1,5.4,-0.7,0.0,Trinidad_de_Iturgoien
Tierra_Estella,09/03/2018,5.6,7.9,3.6,7.8,Trinidad_de_Iturgoien
Tierra_Estella,10/03/2018,6.2,7.2,3.2,0.6,Trinidad_de_Iturgoien
Tierra_Estella,11/03/2018,3.6,6.9,2.0,0.0,Trinidad_de_Iturgoien
Tierra_Estella,12/03/2018,2.8,5.3,1.1,1.4,Trinidad_de_Iturgoien
Tierra_Estella,13/03/2018,2.4,4.8,-0.2,0.4,Trinidad_de_Iturgoien
Tierra_Estella,14/03/2018,3.2,5.0,1.5,16.1,Trinidad_de_Iturgoien
Tierra_Estella,15/03/2018,2.8,6.4,0.8,1.4,Trinidad_de_Iturgoien
Tierra_Estella,16/03/2018,1.5,4.6,0.0,1.6,Trinidad_de_Iturgoien
Tierra_Estella,17/03/2018,-0.5,1.3,-1.9,2.2,Trinidad_de_Iturgoien
Tierra_Estella,18/03/2018,-1.0,0.1,-2.1,2.1,Trinidad_de_Iturgoien
Tierra_Estella,19/03/2018,-2.6,-0.0,-4.9,6.3,Trinidad_de_Iturgoien
Tierra_Estella,20/03/2018,-3.9,-2.0,-5.2,7.5,Trinidad_de_Iturgoien
Tierra_Estella,21/03/2018,-3.6,-1.5,-6.3,0.0,Trinidad_de_Iturgoien
Tierra_Estella,22/03/2018,-2.1,-0.1,-3.5,0.0,Trinidad_de_Iturgoien
Tierra_Estella,23/03/2018,2.6,6.4,-0.3,13.3,Trinidad_de_Iturgoien
Tierra_Estella,24/03/2018,-0.5,2.4,-2.7,6.5,Trinidad_de_Iturgoien
Tierra_Estella,25/03/2018,-0.1,1.4,-1.2,3.6,Trinidad_de_Iturgoien
Tierra_Estella,26/03/2018,0.5,1.4,-0.4,10.0,Trinidad_de_Iturgoien
Tierra_Estella,27/03/2018,4.8,7.2,1.4,1.7,Trinidad_de_Iturgoien
Tierra_Estella,28/03/2018,7.2,15.2,2.5,1.2,Trinidad_de_Iturgoien
Tierra_Estella,29/03/2018,0.0,0.0,0.0,0.3,Trinidad_de_Iturgoien
Tierra_Estella,30/03/2018,0.0,0.0,0.0,0.3,Trinidad_de_Iturgoien
Tierra_Estella,31/03/2018,0.0,0.0,0.0,5.4,Trinidad_de_Iturgoien
Tierra_Estella,01/04/2018,0.0,0.0,0.0,0.0,Trinidad_de_Iturgoien
Tierra_Estella,02/04/2018,0.0,0.0,0.0,0.0,Trinidad_de_Iturgoien
Tierra_Estella,03/04/2018,0.0,0.0,0.0,1.1,Trinidad_de_Iturgoien
Tierra_Estella,04/04/2018,0.0,0.0,0.0,4.9,Trinidad_de_Iturgoien
Tierra_Estella,05/04/2018,0.0,0.0,0.0,0.1,Trinidad_de_Iturgoien
Tierra_Estella,06/04/2018,0.0,0.0,0.0,12.0,Trinidad_de_Iturgoien
Tierra_Estella,07/04/2018,0.0,0.0,0.0,31.3,Trinidad_de_Iturgoien
Tierra_Estella,08/04/2018,0.0,0.0,0.0,10.1,Trinidad_de_Iturgoien
Tierra_Estella,09/04/2018,0.0,0.0,0.0,7.0,Trinidad_de_Iturgoien
Tierra_Estella,10/04/2018,0.0,0.0,0.0,22.7,Trinidad_de_Iturgoien
Tierra_Estella,11/04/2018,0.0,0.0,0.0,52.4,Trinidad_de_Iturgoien
Tierra_Estella,12/04/2018,0.0,0.0,0.0,9.9,Trinidad_de_Iturgoien
Tierra_Estella,13/04/2018,0.0,0.0,0.0,10.4,Trinidad_de_Iturgoien
Tierra_Estella,14/04/2018,0.0,0.0,0.0,0.0,Trinidad_de_Iturgoien
Tierra_Estella,15/04/2018,0.0,0.0,0.0,1.0,Trinidad_de_Iturgoien
Tierra_Estella,16/04/2018,0.0,0.0,0.0,13.6,Trinidad_de_Iturgoien
Tierra_Estella,17/04/2018,0.0,0.0,0.0,0.0,Trinidad_de_Iturgoien
Tierra_Estella,18/04/2018,0.0,0.0,0.0,0.0,Trinidad_de_Iturgoien
Tierra_Estella,19/04/2018,12.1,15.4,9.1,0.0,Trinidad_de_Iturgoien
Tierra_Estella,20/04/2018,11.0,14.9,8.3,0.0,Trinidad_de_Iturgoien
Tierra_Estella,21/04/2018,10.8,14.5,7.3,0.0,Trinidad_de_Iturgoien
Tierra_Estella,22/04/2018,12.0,15.6,9.0,0.0,Trinidad_de_Iturgoien
Tierra_Estella,23/04/2018,12.3,15.9,10.1,0.0,Trinidad_de_Iturgoien
Tierra_Estella,24/04/2018,14.0,18.0,9.8,0.0,Trinidad_de_Iturgoien
Tierra_Estella,25/04/2018,8.9,14.7,5.3,0.0,Trinidad_de_Iturgoien
Tierra_Estella,26/04/2018,7.3,11.9,2.7,0.0,Trinidad_de_Iturgoien
Tierra_Estella,27/04/2018,7.4,13.3,2.5,0.2,Trinidad_de_Iturgoien
Tierra_Estella,28/04/2018,5.5,12.7,2.5,0.2,Trinidad_de_Iturgoien
Tierra_Estella,29/04/2018,3.1,6.4,0.8,3.4,Trinidad_de_Iturgoien
Tierra_Estella,30/04/2018,1.5,5.5,-0.6,0.0,Trinidad_de_Iturgoien
Tierra_Estella,01/05/2018,1.9,5.2,-0.5,0.7,Trinidad_de_Iturgoien
Tierra_Estella,02/05/2018,5.3,7.8,2.4,5.2,Trinidad_de_Iturgoien
Tierra_Estella,03/05/2018,2.2,5.9,0.9,3.3,Trinidad_de_Iturgoien
Tierra_Estella,04/05/2018,3.5,5.9,0.7,0.0,Trinidad_de_Iturgoien
Tierra_Estella,05/05/2018,6.8,11.0,2.8,0.1,Trinidad_de_Iturgoien
Tierra_Estella,06/05/2018,13.2,18.6,8.5,0.0,Trinidad_de_Iturgoien
Tierra_Estella,07/05/2018,14.2,18.2,10.9,0.0,Trinidad_de_Iturgoien
Tierra_Estella,08/05/2018,9.1,11.9,5.3,0.2,Trinidad_de_Iturgoien
Tierra_Estella,09/05/2018,6.6,9.4,4.3,0.1,Trinidad_de_Iturgoien
Tierra_Estella,10/05/2018,4.4,6.0,2.3,2.0,Trinidad_de_Iturgoien
Tierra_Estella,11/05/2018,10.2,16.3,4.3,0.0,Trinidad_de_Iturgoien
Tierra_Estella,12/05/2018,4.4,12.5,-0.4,0.5,Trinidad_de_Iturgoien
Tierra_Estella,13/05/2018,1.2,4.1,-1.0,5.4,Trinidad_de_Iturgoien
Tierra_Estella,14/05/2018,2.7,5.2,0.9,2.7,Trinidad_de_Iturgoien
Tierra_Estella,15/05/2018,3.6,6.7,1.5,0.0,Trinidad_de_Iturgoien
Tierra_Estella,16/05/2018,5.4,8.0,2.3,0.0,Trinidad_de_Iturgoien
Tierra_Estella,17/05/2018,7.6,11.7,4.5,0.0,Trinidad_de_Iturgoien
Tierra_Estella,18/05/2018,9.8,13.1,6.8,0.0,Trinidad_de_Iturgoien
Tierra_Estella,19/05/2018,10.4,14.3,6.4,0.0,Trinidad_de_Iturgoien
Tierra_Estella,20/05/2018,10.9,14.6,6.3,0.0,Trinidad_de_Iturgoien
Tierra_Estella,21/05/2018,10.9,16.0,8.7,5.8,Trinidad_de_Iturgoien
Tierra_Estella,22/05/2018,10.7,15.0,7.2,0.0,Trinidad_de_Iturgoien
Tierra_Estella,23/05/2018,11.5,14.7,8.5,0.7,Trinidad_de_Iturgoien
Tierra_Estella,24/05/2018,12.8,16.5,10.0,2.9,Trinidad_de_Iturgoien
Tierra_Estella,25/05/2018,12.1,15.2,8.9,10.0,Trinidad_de_Iturgoien
Tierra_Estella,26/05/2018,11.3,14.6,8.4,19.8,Trinidad_de_Iturgoien
Tierra_Estella,27/05/2018,11.9,16.4,9.3,1.7,Trinidad_de_Iturgoien
Tierra_Estella,28/05/2018,8.8,9.5,8.4,5.5,Trinidad_de_Iturgoien
Tierra_Estella,29/05/2018,10.0,13.3,8.2,1.7,Trinidad_de_Iturgoien
Tierra_Estella,30/05/2018,9.7,13.0,8.5,3.2,Trinidad_de_Iturgoien
Tierra_Estella,31/05/2018,10.9,14.7,8.0,2.2,Trinidad_de_Iturgoien
Tierra_Estella,01/06/2018,12.6,17.4,10.4,0.9,Trinidad_de_Iturgoien
Tierra_Estella,02/06/2018,13.7,17.8,10.0,2.6,Trinidad_de_Iturgoien
Tierra_Estella,03/06/2018,12.8,16.7,10.6,2.7,Trinidad_de_Iturgoien
Tierra_Estella,04/06/2018,10.9,13.2,8.7,4.4,Trinidad_de_Iturgoien
Tierra_Estella,05/06/2018,8.3,10.3,6.3,6.4,Trinidad_de_Iturgoien
Tierra_Estella,06/06/2018,8.3,12.1,5.9,0.0,Trinidad_de_Iturgoien
Tierra_Estella,07/06/2018,11.9,15.6,8.3,0.0,Trinidad_de_Iturgoien
Tierra_Estella,08/06/2018,13.1,16.5,10.7,1.1,Trinidad_de_Iturgoien
Tierra_Estella,09/06/2018,11.5,15.5,8.9,2.3,Trinidad_de_Iturgoien
Tierra_Estella,10/06/2018,10.8,15.9,8.0,3.8,Trinidad_de_Iturgoien
Tierra_Estella,11/06/2018,9.5,11.6,8.0,0.0,Trinidad_de_Iturgoien
Tierra_Estella,12/06/2018,9.0,10.8,7.8,2.9,Trinidad_de_Iturgoien
Tierra_Estella,13/06/2018,7.7,9.2,6.6,0.7,Trinidad_de_Iturgoien
Tierra_Estella,14/06/2018,8.2,11.3,6.2,0.0,Trinidad_de_Iturgoien
Tierra_Estella,15/06/2018,9.5,12.4,6.6,0.0,Trinidad_de_Iturgoien
Tierra_Estella,16/06/2018,9.9,12.6,7.1,0.0,Trinidad_de_Iturgoien
Tierra_Estella,17/06/2018,9.7,13.7,7.0,0.0,Trinidad_de_Iturgoien
Tierra_Estella,18/06/2018,10.4,13.5,8.0,0.0,Trinidad_de_Iturgoien
Tierra_Estella,19/06/2018,14.7,20.9,8.9,0.0,Trinidad_de_Iturgoien
Tierra_Estella,20/06/2018,19.9,24.3,15.9,0.0,Trinidad_de_Iturgoien
Tierra_Estella,21/06/2018,18.2,23.6,13.6,0.0,Trinidad_de_Iturgoien
Tierra_Estella,22/06/2018,14.2,17.3,10.2,0.0,Trinidad_de_Iturgoien
Tierra_Estella,23/06/2018,14.8,19.1,10.4,0.0,Trinidad_de_Iturgoien
Tierra_Estella,24/06/2018,17.5,23.0,12.7,0.0,Trinidad_de_Iturgoien
Tierra_Estella,25/06/2018,18.2,22.4,14.7,0.0,Trinidad_de_Iturgoien
Tierra_Estella,26/06/2018,18.7,25.3,14.3,0.0,Trinidad_de_Iturgoien
Tierra_Estella,27/06/2018,16.9,23.0,12.4,0.0,Trinidad_de_Iturgoien
Tierra_Estella,28/06/2018,13.5,16.7,11.9,0.0,Trinidad_de_Iturgoien
Tierra_Estella,29/06/2018,16.4,23.1,12.1,0.7,Trinidad_de_Iturgoien
Tierra_Estella,30/06/2018,17.0,23.8,12.8,12.4,Trinidad_de_Iturgoien
Tierra_Estella,01/07/2018,17.8,23.8,14.4,0.0,Trinidad_de_Iturgoien
Tierra_Estella,02/07/2018,16.6,21.0,11.8,0.0,Trinidad_de_Iturgoien
Tierra_Estella,03/07/2018,17.2,22.1,14.4,0.0,Trinidad_de_Iturgoien
Tierra_Estella,04/07/2018,15.3,22.4,11.0,21.5,Trinidad_de_Iturgoien
Tierra_Estella,05/07/2018,11.5,14.8,10.1,0.2,Trinidad_de_Iturgoien
Tierra_Estella,06/07/2018,12.9,16.9,9.8,0.0,Trinidad_de_Iturgoien
Tierra_Estella,07/07/2018,16.4,22.5,11.0,0.6,Trinidad_de_Iturgoien
Tierra_Estella,08/07/2018,17.8,22.1,13.7,6.7,Trinidad_de_Iturgoien
Tierra_Estella,09/07/2018,16.7,19.8,13.7,0.0,Trinidad_de_Iturgoien
Tierra_Estella,10/07/2018,15.7,19.5,13.1,0.0,Trinidad_de_Iturgoien
Tierra_Estella,11/07/2018,15.1,18.4,11.4,0.0,Trinidad_de_Iturgoien
Tierra_Estella,12/07/2018,14.6,17.8,11.7,0.0,Trinidad_de_Iturgoien
Tierra_Estella,13/07/2018,16.9,22.2,13.6,7.8,Trinidad_de_Iturgoien
Tierra_Estella,14/07/2018,18.5,25.0,11.9,8.7,Trinidad_de_Iturgoien
Tierra_Estella,15/07/2018,17.4,22.7,12.4,0.0,Trinidad_de_Iturgoien
Tierra_Estella,16/07/2018,11.9,13.0,10.4,1.7,Trinidad_de_Iturgoien
Tierra_Estella,17/07/2018,15.4,20.1,10.5,0.1,Trinidad_de_Iturgoien
Tierra_Estella,18/07/2018,17.9,23.0,13.3,1.9,Trinidad_de_Iturgoien
Tierra_Estella,19/07/2018,17.4,23.7,13.0,0.1,Trinidad_de_Iturgoien
Tierra_Estella,20/07/2018,12.2,13.4,9.3,0.3,Trinidad_de_Iturgoien
Tierra_Estella,21/07/2018,11.1,13.8,9.0,0.1,Trinidad_de_Iturgoien
Tierra_Estella,22/07/2018,12.8,16.7,9.7,0.1,Trinidad_de_Iturgoien
Tierra_Estella,23/07/2018,18.6,24.8,11.2,0.1,Trinidad_de_Iturgoien
Tierra_Estella,24/07/2018,18.4,21.2,13.7,0.0,Trinidad_de_Iturgoien
Tierra_Estella,25/07/2018,18.9,25.9,13.4,0.1,Trinidad_de_Iturgoien
Tierra_Estella,26/07/2018,19.1,26.6,13.9,0.0,Trinidad_de_Iturgoien
Tierra_Estella,27/07/2018,17.8,24.6,13.6,0.0,Trinidad_de_Iturgoien
Tierra_Estella,28/07/2018,15.6,19.3,13.4,0.0,Trinidad_de_Iturgoien
Tierra_Estella,29/07/2018,17.9,23.9,13.8,0.0,Trinidad_de_Iturgoien
Tierra_Estella,30/07/2018,20.0,26.1,14.3,0.0,Trinidad_de_Iturgoien
Tierra_Estella,31/07/2018,16.6,20.0,14.5,0.0,Trinidad_de_Iturgoien
Tierra_Estella,01/08/2018,17.1,25.0,14.2,0.0,Trinidad_de_Iturgoien
Tierra_Estella,02/08/2018,22.1,27.9,18.4,0.0,Trinidad_de_Iturgoien
Tierra_Estella,03/08/2018,21.9,25.9,17.9,0.0,Trinidad_de_Iturgoien
Tierra_Estella,04/08/2018,19.9,24.4,16.5,0.0,Trinidad_de_Iturgoien
Tierra_Estella,05/08/2018,20.4,24.5,16.7,0.0,Trinidad_de_Iturgoien
Tierra_Estella,06/08/2018,23.6,29.3,17.6,0.0,Trinidad_de_Iturgoien
Tierra_Estella,07/08/2018,17.5,24.4,11.9,0.0,Trinidad_de_Iturgoien
Tierra_Estella,08/08/2018,16.9,25.5,11.0,7.0,Trinidad_de_Iturgoien
Tierra_Estella,09/08/2018,10.9,16.8,8.6,0.2,Trinidad_de_Iturgoien
Tierra_Estella,10/08/2018,13.6,20.7,8.5,0.0,Trinidad_de_Iturgoien
Tierra_Estella,11/08/2018,19.4,25.4,14.9,0.0,Trinidad_de_Iturgoien
Tierra_Estella,12/08/2018,18.5,26.6,13.0,1.3,Trinidad_de_Iturgoien
Tierra_Estella,13/08/2018,13.9,16.0,11.1,0.1,Trinidad_de_Iturgoien
Tierra_Estella,14/08/2018,11.7,14.7,10.3,0.8,Trinidad_de_Iturgoien
Tierra_Estella,15/08/2018,16.2,22.7,9.8,0.0,Trinidad_de_Iturgoien
Tierra_Estella,16/08/2018,15.5,19.2,12.3,0.1,Trinidad_de_Iturgoien
Tierra_Estella,17/08/2018,10.7,13.4,7.9,0.1,Trinidad_de_Iturgoien
Tierra_Estella,18/08/2018,11.4,15.8,7.5,0.0,Trinidad_de_Iturgoien
Tierra_Estella,19/08/2018,15.2,19.7,10.7,0.0,Trinidad_de_Iturgoien
Tierra_Estella,20/08/2018,15.9,20.9,11.3,0.0,Trinidad_de_Iturgoien
Tierra_Estella,21/08/2018,18.9,25.0,13.9,0.0,Trinidad_de_Iturgoien
Tierra_Estella,22/08/2018,19.8,25.9,15.2,0.0,Trinidad_de_Iturgoien
Tierra_Estella,23/08/2018,15.1,18.9,12.6,0.2,Trinidad_de_Iturgoien
Tierra_Estella,24/08/2018,12.0,13.9,9.6,0.9,Trinidad_de_Iturgoien
Tierra_Estella,25/08/2018,10.0,12.6,8.6,0.0,Trinidad_de_Iturgoien
Tierra_Estella,26/08/2018,14.5,20.9,8.5,0.0,Trinidad_de_Iturgoien
Tierra_Estella,27/08/2018,20.3,26.4,13.8,0.0,Trinidad_de_Iturgoien
Tierra_Estella,28/08/2018,20.0,25.8,15.4,0.1,Trinidad_de_Iturgoien
Tierra_Estella,29/08/2018,14.3,18.6,11.1,0.0,Trinidad_de_Iturgoien
Tierra_Estella,30/08/2018,12.9,17.7,10.2,0.1,Trinidad_de_Iturgoien
Tierra_Estella,31/08/2018,12.7,16.5,9.9,0.0,Trinidad_de_Iturgoien
Tierra_Estella,01/09/2018,15.3,20.7,10.8,0.1,Trinidad_de_Iturgoien
Tierra_Estella,02/09/2018,19.1,25.3,14.8,0.0,Trinidad_de_Iturgoien
Tierra_Estella,03/09/2018,17.0,21.5,10.7,3.5,Trinidad_de_Iturgoien
Tierra_Estella,04/09/2018,14.4,18.7,10.2,0.0,Trinidad_de_Iturgoien
Tierra_Estella,05/09/2018,13.6,17.7,11.4,2.9,Trinidad_de_Iturgoien
Tierra_Estella,06/09/2018,11.8,14.8,10.7,0.2,Trinidad_de_Iturgoien
Tierra_Estella,07/09/2018,12.1,14.9,10.0,0.1,Trinidad_de_Iturgoien
Tierra_Estella,08/09/2018,15.8,22.5,12.8,1.1,Trinidad_de_Iturgoien
Tierra_Estella,09/09/2018,14.7,19.8,12.2,0.9,Trinidad_de_Iturgoien
Tierra_Estella,10/09/2018,14.3,18.9,11.8,0.0,Trinidad_de_Iturgoien
Tierra_Estella,11/09/2018,17.3,22.5,13.9,0.0,Trinidad_de_Iturgoien
Tierra_Estella,12/09/2018,16.1,21.0,12.9,0.0,Trinidad_de_Iturgoien
Tierra_Estella,13/09/2018,12.6,16.2,10.8,0.0,Trinidad_de_Iturgoien
Tierra_Estella,14/09/2018,13.3,18.9,10.3,0.0,Trinidad_de_Iturgoien
Tierra_Estella,15/09/2018,15.7,22.9,9.5,0.1,Trinidad_de_Iturgoien
Tierra_Estella,16/09/2018,17.9,24.9,13.1,0.0,Trinidad_de_Iturgoien
Tierra_Estella,17/09/2018,18.1,23.6,14.3,0.0,Trinidad_de_Iturgoien
Tierra_Estella,18/09/2018,16.9,23.1,14.4,0.4,Trinidad_de_Iturgoien
Tierra_Estella,19/09/2018,17.7,23.2,14.2,0.0,Trinidad_de_Iturgoien
Tierra_Estella,20/09/2018,20.2,24.6,15.6,0.0,Trinidad_de_Iturgoien
Tierra_Estella,21/09/2018,15.7,19.7,12.1,0.0,Trinidad_de_Iturgoien
Tierra_Estella,22/09/2018,17.0,22.0,11.4,0.0,Trinidad_de_Iturgoien
Tierra_Estella,23/09/2018,18.5,24.8,13.2,0.0,Trinidad_de_Iturgoien
Tierra_Estella,24/09/2018,9.1,14.1,4.1,0.0,Trinidad_de_Iturgoien
Tierra_Estella,25/09/2018,10.2,16.6,4.4,0.0,Trinidad_de_Iturgoien
Tierra_Estella,26/09/2018,13.6,18.6,10.5,0.0,Trinidad_de_Iturgoien
Tierra_Estella,27/09/2018,15.9,22.1,11.5,0.2,Trinidad_de_Iturgoien
Tierra_Estella,28/09/2018,16.4,20.3,13.5,0.0,Trinidad_de_Iturgoien
Tierra_Estella,29/09/2018,12.9,16.2,9.0,0.0,Trinidad_de_Iturgoien
Tierra_Estella,30/09/2018,11.1,15.0,7.4,0.0,Trinidad_de_Iturgoien
Tierra_Estella,01/10/2018,6.5,8.5,3.8,0.0,Trinidad_de_Iturgoien
Tierra_Estella,02/10/2018,6.4,12.0,2.8,0.0,Trinidad_de_Iturgoien
Tierra_Estella,03/10/2018,12.4,17.1,5.4,0.0,Trinidad_de_Iturgoien
Tierra_Estella,04/10/2018,14.7,19.6,9.1,0.0,Trinidad_de_Iturgoien
Tierra_Estella,05/10/2018,14.1,18.5,10.4,0.0,Trinidad_de_Iturgoien
Tierra_Estella,06/10/2018,10.2,17.2,4.5,0.4,Trinidad_de_Iturgoien
Tierra_Estella,07/10/2018,5.0,6.8,3.8,6.4,Trinidad_de_Iturgoien
Tierra_Estella,08/10/2018,7.2,10.1,5.2,0.7,Trinidad_de_Iturgoien
Tierra_Estella,09/10/2018,9.0,11.5,5.3,0.0,Trinidad_de_Iturgoien
Tierra_Estella,10/10/2018,9.3,11.1,8.0,3.5,Trinidad_de_Iturgoien
Tierra_Estella,11/10/2018,11.8,14.1,9.9,3.8,Trinidad_de_Iturgoien
Tierra_Estella,12/10/2018,14.2,18.0,11.9,0.3,Trinidad_de_Iturgoien
Tierra_Estella,13/10/2018,14.2,18.3,11.7,0.6,Trinidad_de_Iturgoien
Tierra_Estella,14/10/2018,9.3,12.7,5.0,22.7,Trinidad_de_Iturgoien
Tierra_Estella,15/10/2018,8.7,12.7,5.0,0.0,Trinidad_de_Iturgoien
Tierra_Estella,16/10/2018,10.1,13.5,7.6,0.0,Trinidad_de_Iturgoien
Tierra_Estella,17/10/2018,10.6,15.7,5.9,0.0,Trinidad_de_Iturgoien
Tierra_Estella,18/10/2018,10.3,12.7,7.3,0.0,Trinidad_de_Iturgoien
Tierra_Estella,19/10/2018,11.1,14.4,9.7,0.0,Trinidad_de_Iturgoien
Tierra_Estella,20/10/2018,12.2,15.8,9.2,0.0,Trinidad_de_Iturgoien
Tierra_Estella,21/10/2018,12.8,17.2,9.1,0.0,Trinidad_de_Iturgoien
Tierra_Estella,22/10/2018,7.4,10.0,4.8,0.0,Trinidad_de_Iturgoien
Tierra_Estella,23/10/2018,7.1,10.6,5.0,0.0,Trinidad_de_Iturgoien
Tierra_Estella,24/10/2018,10.1,15.2,5.7,0.0,Trinidad_de_Iturgoien
Tierra_Estella,25/10/2018,14.8,19.1,11.0,0.0,Trinidad_de_Iturgoien
Tierra_Estella,26/10/2018,10.6,14.6,5.3,0.2,Trinidad_de_Iturgoien
Tierra_Estella,27/10/2018,1.0,5.1,-1.6,3.4,Trinidad_de_Iturgoien
Tierra_Estella,28/10/2018,-2.0,-0.9,-2.8,3.3,Trinidad_de_Iturgoien
Tierra_Estella,29/10/2018,-1.7,-1.0,-2.7,16.7,Trinidad_de_Iturgoien
Tierra_Estella,30/10/2018,-0.1,2.1,-2.2,2.0,Trinidad_de_Iturgoien
Tierra_Estella,31/10/2018,2.5,3.4,1.6,30.8,Trinidad_de_Iturgoien
Tierra_Estella,01/11/2018,3.5,5.1,1.6,6.2,Trinidad_de_Iturgoien
Tierra_Estella,02/11/2018,3.9,5.6,2.3,8.1,Trinidad_de_Iturgoien
Tierra_Estella,03/11/2018,3.2,6.5,0.8,0.0,Trinidad_de_Iturgoien
Tierra_Estella,04/11/2018,6.3,8.7,4.1,0.0,Trinidad_de_Iturgoien
Tierra_Estella,05/11/2018,4.0,5.7,2.0,20.1,Trinidad_de_Iturgoien
Tierra_Estella,06/11/2018,2.8,5.1,0.9,3.2,Trinidad_de_Iturgoien
Tierra_Estella,07/11/2018,4.6,8.1,2.6,3.0,Trinidad_de_Iturgoien
Tierra_Estella,08/11/2018,4.2,6.3,2.7,12.9,Trinidad_de_Iturgoien
Tierra_Estella,09/11/2018,4.1,6.7,2.5,0.6,Trinidad_de_Iturgoien
Tierra_Estella,10/11/2018,6.1,7.9,3.2,5.0,Trinidad_de_Iturgoien
Tierra_Estella,11/11/2018,7.7,9.1,5.4,2.4,Trinidad_de_Iturgoien
Tierra_Estella,12/11/2018,8.4,9.6,6.4,8.2,Trinidad_de_Iturgoien
Tierra_Estella,13/11/2018,7.9,10.9,5.7,0.9,Trinidad_de_Iturgoien
Tierra_Estella,14/11/2018,8.5,9.3,8.0,1.9,Trinidad_de_Iturgoien
Tierra_Estella,15/11/2018,8.5,9.5,8.0,6.5,Trinidad_de_Iturgoien
Tierra_Estella,16/11/2018,7.9,8.5,6.9,1.2,Trinidad_de_Iturgoien
Tierra_Estella,17/11/2018,7.1,8.1,6.1,3.4,Trinidad_de_Iturgoien
Tierra_Estella,18/11/2018,4.5,6.6,3.4,37.3,Trinidad_de_Iturgoien
Tierra_Estella,19/11/2018,4.4,7.6,0.7,0.1,Trinidad_de_Iturgoien
Tierra_Estella,20/11/2018,0.5,1.3,-0.7,5.0,Trinidad_de_Iturgoien
Tierra_Estella,21/11/2018,2.9,5.8,0.4,2.3,Trinidad_de_Iturgoien
Tierra_Estella,22/11/2018,2.8,3.9,1.3,0.3,Trinidad_de_Iturgoien
Tierra_Estella,23/11/2018,2.5,3.7,0.6,11.2,Trinidad_de_Iturgoien
Tierra_Estella,24/11/2018,2.2,4.9,0.2,0.2,Trinidad_de_Iturgoien
Tierra_Estella,25/11/2018,2.1,3.8,0.9,9.4,Trinidad_de_Iturgoien
Tierra_Estella,26/11/2018,1.1,2.2,-0.4,15.8,Trinidad_de_Iturgoien
Tierra_Estella,27/11/2018,4.4,8.0,1.9,1.2,Trinidad_de_Iturgoien
Tierra_Estella,28/11/2018,6.6,9.8,3.3,0.0,Trinidad_de_Iturgoien
Tierra_Estella,29/11/2018,3.4,5.5,1.5,3.6,Trinidad_de_Iturgoien
Tierra_Estella,30/11/2018,3.2,4.6,2.3,1.6,Trinidad_de_Iturgoien
Tierra_Estella,01/12/2018,3.9,5.9,2.4,1.2,Trinidad_de_Iturgoien
Tierra_Estella,02/12/2018,6.7,9.0,4.9,0.1,Trinidad_de_Iturgoien
Tierra_Estella,03/12/2018,8.2,9.9,6.5,0.5,Trinidad_de_Iturgoien
Tierra_Estella,04/12/2018,9.8,12.3,8.0,0.0,Trinidad_de_Iturgoien
Tierra_Estella,05/12/2018,9.7,13.0,6.5,0.0,Trinidad_de_Iturgoien
Tierra_Estella,06/12/2018,5.6,9.3,3.0,0.0,Trinidad_de_Iturgoien
Tierra_Estella,07/12/2018,5.1,10.4,1.7,0.6,Trinidad_de_Iturgoien
Tierra_Estella,08/12/2018,4.4,7.5,1.8,0.0,Trinidad_de_Iturgoien
Tierra_Estella,09/12/2018,4.9,7.2,3.1,0.0,Trinidad_de_Iturgoien
Tierra_Estella,10/12/2018,3.3,7.0,1.4,0.0,Trinidad_de_Iturgoien
Tierra_Estella,11/12/2018,8.2,10.8,4.0,0.0,Trinidad_de_Iturgoien
Tierra_Estella,12/12/2018,4.1,4.9,3.1,0.0,Trinidad_de_Iturgoien
Tierra_Estella,13/12/2018,2.3,4.1,0.7,16.7,Trinidad_de_Iturgoien
Tierra_Estella,14/12/2018,1.8,2.3,1.0,8.1,Trinidad_de_Iturgoien
Tierra_Estella,15/12/2018,5.6,8.4,2.5,0.4,Trinidad_de_Iturgoien
Tierra_Estella,16/12/2018,4.1,6.9,1.0,21.5,Trinidad_de_Iturgoien
Tierra_Estella,17/12/2018,1.6,4.3,-0.2,0.0,Trinidad_de_Iturgoien
Tierra_Estella,18/12/2018,0.9,2.3,-0.4,1.0,Trinidad_de_Iturgoien
Tierra_Estella,19/12/2018,2.5,5.0,0.9,0.0,Trinidad_de_Iturgoien
Tierra_Estella,20/12/2018,3.4,6.0,1.3,0.0,Trinidad_de_Iturgoien
Tierra_Estella,21/12/2018,4.7,6.5,2.6,0.0,Trinidad_de_Iturgoien
Tierra_Estella,22/12/2018,7.8,10.4,5.6,0.0,Trinidad_de_Iturgoien
Tierra_Estella,23/12/2018,8.6,10.8,6.3,0.1,Trinidad_de_Iturgoien
Tierra_Estella,24/12/2018,7.7,10.8,4.6,0.0,Trinidad_de_Iturgoien
Tierra_Estella,25/12/2018,8.4,11.1,4.8,0.0,Trinidad_de_Iturgoien
Tierra_Estella,26/12/2018,6.0,8.5,3.3,0.0,Trinidad_de_Iturgoien
Tierra_Estella,27/12/2018,7.2,10.1,3.4,0.0,Trinidad_de_Iturgoien
Tierra_Estella,28/12/2018,3.8,4.5,3.0,0.1,Trinidad_de_Iturgoien
Tierra_Estella,29/12/2018,2.5,7.4,-0.1,0.0,Trinidad_de_Iturgoien
Tierra_Estella,30/12/2018,8.5,11.8,5.2,0.0,Trinidad_de_Iturgoien
Tierra_Estella,31/12/2018,9.5,12.2,7.0,0.0,Trinidad_de_Iturgoien
