Comarca,Fecha, Temperatura media, Temperatura maxima, Temperatura minima, Precipitacion acumulada,Localidad
Tierra_Estella,01/01/2016,3.2,5.1,1.1,3.1,Trinidad_de_Iturgoien
Tierra_Estella,02/01/2016,2.2,3.8,0.3,0.6,Trinidad_de_Iturgoien
Tierra_Estella,03/01/2016,1.5,6.1,-0.9,22.3,Trinidad_de_Iturgoien
Tierra_Estella,04/01/2016,2.9,4.5,1.6,15.9,Trinidad_de_Iturgoien
Tierra_Estella,05/01/2016,-0.4,1.7,-1.3,1.7,Trinidad_de_Iturgoien
Tierra_Estella,06/01/2016,0.4,5.7,-1.4,3.0,Trinidad_de_Iturgoien
Tierra_Estella,07/01/2016,8.2,9.5,5.8,0.0,Trinidad_de_Iturgoien
Tierra_Estella,08/01/2016,8.0,9.7,5.3,3.4,Trinidad_de_Iturgoien
Tierra_Estella,09/01/2016,5.2,6.7,4.0,0.4,Trinidad_de_Iturgoien
Tierra_Estella,10/01/2016,4.5,5.8,3.4,18.9,Trinidad_de_Iturgoien
Tierra_Estella,11/01/2016,3.3,6.6,0.6,3.8,Trinidad_de_Iturgoien
Tierra_Estella,12/01/2016,0.1,2.8,-1.1,0.0,Trinidad_de_Iturgoien
Tierra_Estella,13/01/2016,-0.5,0.8,-1.5,2.1,Trinidad_de_Iturgoien
Tierra_Estella,14/01/2016,1.5,3.2,-0.3,9.1,Trinidad_de_Iturgoien
Tierra_Estella,15/01/2016,-1.6,-0.4,-3.0,18.4,Trinidad_de_Iturgoien
Tierra_Estella,16/01/2016,-2.6,-1.6,-3.7,9.2,Trinidad_de_Iturgoien
Tierra_Estella,17/01/2016,-0.7,1.7,-2.6,0.3,Trinidad_de_Iturgoien
Tierra_Estella,18/01/2016,0.0,1.6,-0.8,1.8,Trinidad_de_Iturgoien
Tierra_Estella,19/01/2016,1.0,3.2,-0.4,0.0,Trinidad_de_Iturgoien
Tierra_Estella,20/01/2016,1.3,3.6,-0.7,0.0,Trinidad_de_Iturgoien
Tierra_Estella,21/01/2016,3.9,7.1,0.9,0.0,Trinidad_de_Iturgoien
Tierra_Estella,22/01/2016,6.1,8.4,3.3,0.6,Trinidad_de_Iturgoien
Tierra_Estella,23/01/2016,9.0,11.1,7.9,0.0,Trinidad_de_Iturgoien
Tierra_Estella,24/01/2016,7.5,9.8,5.6,0.0,Trinidad_de_Iturgoien
Tierra_Estella,25/01/2016,7.0,10.1,4.5,0.3,Trinidad_de_Iturgoien
Tierra_Estella,26/01/2016,6.1,8.1,3.0,0.0,Trinidad_de_Iturgoien
Tierra_Estella,27/01/2016,3.1,5.4,1.7,1.0,Trinidad_de_Iturgoien
Tierra_Estella,28/01/2016,2.4,3.7,1.5,5.7,Trinidad_de_Iturgoien
Tierra_Estella,29/01/2016,2.2,3.5,1.6,0.3,Trinidad_de_Iturgoien
Tierra_Estella,30/01/2016,2.9,5.7,1.4,0.1,Trinidad_de_Iturgoien
Tierra_Estella,31/01/2016,5.4,7.3,2.8,0.4,Trinidad_de_Iturgoien
Tierra_Estella,01/02/2016,5.5,12.4,3.1,0.0,Trinidad_de_Iturgoien
Tierra_Estella,02/02/2016,4.6,11.6,2.7,0.0,Trinidad_de_Iturgoien
Tierra_Estella,03/02/2016,1.2,4.6,-1.5,9.3,Trinidad_de_Iturgoien
Tierra_Estella,04/02/2016,0.4,3.0,-1.1,2.0,Trinidad_de_Iturgoien
Tierra_Estella,05/02/2016,2.9,6.1,0.6,0.0,Trinidad_de_Iturgoien
Tierra_Estella,06/02/2016,2.2,4.6,-0.3,3.8,Trinidad_de_Iturgoien
Tierra_Estella,07/02/2016,0.9,2.6,-1.6,0.6,Trinidad_de_Iturgoien
Tierra_Estella,08/02/2016,5.6,8.6,2.3,0.0,Trinidad_de_Iturgoien
Tierra_Estella,09/02/2016,4.5,7.8,-0.1,9.7,Trinidad_de_Iturgoien
Tierra_Estella,10/02/2016,1.1,4.4,-0.3,8.7,Trinidad_de_Iturgoien
Tierra_Estella,11/02/2016,2.6,3.8,1.4,3.0,Trinidad_de_Iturgoien
Tierra_Estella,12/02/2016,6.1,7.6,3.9,11.8,Trinidad_de_Iturgoien
Tierra_Estella,13/02/2016,7.9,9.7,6.4,12.8,Trinidad_de_Iturgoien
Tierra_Estella,14/02/2016,0.1,5.1,-1.9,13.2,Trinidad_de_Iturgoien
Tierra_Estella,15/02/2016,-3.1,-1.6,-4.6,10.2,Trinidad_de_Iturgoien
Tierra_Estella,16/02/2016,-4.6,-3.7,-5.4,0.7,Trinidad_de_Iturgoien
Tierra_Estella,17/02/2016,-2.9,0.4,-6.2,0.0,Trinidad_de_Iturgoien
Tierra_Estella,18/02/2016,-1.6,-0.8,-2.9,5.1,Trinidad_de_Iturgoien
Tierra_Estella,19/02/2016,-1.0,0.6,-2.9,0.1,Trinidad_de_Iturgoien
Tierra_Estella,20/02/2016,3.7,7.4,-0.3,0.0,Trinidad_de_Iturgoien
Tierra_Estella,21/02/2016,5.2,8.4,2.1,0.0,Trinidad_de_Iturgoien
Tierra_Estella,22/02/2016,5.1,8.8,2.7,0.0,Trinidad_de_Iturgoien
Tierra_Estella,23/02/2016,3.0,5.0,1.4,0.2,Trinidad_de_Iturgoien
Tierra_Estella,24/02/2016,3.7,6.8,1.3,1.9,Trinidad_de_Iturgoien
Tierra_Estella,25/02/2016,1.9,3.3,0.4,2.3,Trinidad_de_Iturgoien
Tierra_Estella,26/02/2016,1.3,3.6,-0.3,16.9,Trinidad_de_Iturgoien
Tierra_Estella,27/02/2016,-1.6,-0.2,-2.4,47.0,Trinidad_de_Iturgoien
Tierra_Estella,28/02/2016,-0.1,0.9,-1.5,21.3,Trinidad_de_Iturgoien
Tierra_Estella,29/02/2016,-1.3,-0.9,-1.7,11.4,Trinidad_de_Iturgoien
Tierra_Estella,01/03/2016,0.4,3.7,-1.5,0.0,Trinidad_de_Iturgoien
Tierra_Estella,02/03/2016,2.3,4.6,-0.2,5.4,Trinidad_de_Iturgoien
Tierra_Estella,03/03/2016,-0.9,2.1,-4.0,3.1,Trinidad_de_Iturgoien
Tierra_Estella,04/03/2016,1.7,4.8,-1.9,9.0,Trinidad_de_Iturgoien
Tierra_Estella,05/03/2016,-2.0,-1.2,-2.8,15.5,Trinidad_de_Iturgoien
Tierra_Estella,06/03/2016,-1.8,-0.9,-2.6,11.1,Trinidad_de_Iturgoien
Tierra_Estella,07/03/2016,-1.2,-0.0,-2.5,9.7,Trinidad_de_Iturgoien
Tierra_Estella,08/03/2016,-1.7,-0.1,-4.5,9.1,Trinidad_de_Iturgoien
Tierra_Estella,09/03/2016,-0.7,0.6,-2.1,18.8,Trinidad_de_Iturgoien
Tierra_Estella,10/03/2016,-1.2,-0.1,-2.6,35.5,Trinidad_de_Iturgoien
Tierra_Estella,11/03/2016,-1.1,-0.2,-1.8,7.1,Trinidad_de_Iturgoien
Tierra_Estella,12/03/2016,-1.9,-0.5,-2.8,0.3,Trinidad_de_Iturgoien
Tierra_Estella,13/03/2016,-0.9,1.1,-2.8,1.0,Trinidad_de_Iturgoien
Tierra_Estella,14/03/2016,-1.7,-0.3,-2.7,4.9,Trinidad_de_Iturgoien
Tierra_Estella,15/03/2016,-0.2,2.7,-2.4,0.0,Trinidad_de_Iturgoien
Tierra_Estella,16/03/2016,0.0,0.0,0.0,6.6,Trinidad_de_Iturgoien
Tierra_Estella,17/03/2016,-1.3,1.0,-4.4,0.0,Trinidad_de_Iturgoien
Tierra_Estella,18/03/2016,1.6,3.4,-0.3,1.2,Trinidad_de_Iturgoien
Tierra_Estella,19/03/2016,2.3,3.2,1.3,37.9,Trinidad_de_Iturgoien
Tierra_Estella,20/03/2016,3.1,5.8,2.0,4.8,Trinidad_de_Iturgoien
Tierra_Estella,21/03/2016,3.4,6.1,1.7,0.0,Trinidad_de_Iturgoien
Tierra_Estella,22/03/2016,-0.9,2.6,-3.8,0.1,Trinidad_de_Iturgoien
Tierra_Estella,23/03/2016,0.5,2.5,-1.6,0.0,Trinidad_de_Iturgoien
Tierra_Estella,24/03/2016,2.0,4.6,-0.5,0.0,Trinidad_de_Iturgoien
Tierra_Estella,25/03/2016,4.0,7.5,1.5,0.0,Trinidad_de_Iturgoien
Tierra_Estella,26/03/2016,9.0,12.8,2.4,4.0,Trinidad_de_Iturgoien
Tierra_Estella,27/03/2016,3.9,7.4,0.5,2.4,Trinidad_de_Iturgoien
Tierra_Estella,28/03/2016,5.4,7.6,3.2,6.2,Trinidad_de_Iturgoien
Tierra_Estella,29/03/2016,7.3,10.1,5.5,3.6,Trinidad_de_Iturgoien
Tierra_Estella,30/03/2016,8.5,14.4,4.6,0.0,Trinidad_de_Iturgoien
Tierra_Estella,31/03/2016,1.7,7.8,-1.0,21.5,Trinidad_de_Iturgoien
Tierra_Estella,01/04/2016,-0.7,0.7,-1.6,6.1,Trinidad_de_Iturgoien
Tierra_Estella,02/04/2016,0.0,0.0,0.0,0.0,Trinidad_de_Iturgoien
Tierra_Estella,03/04/2016,4.7,8.2,2.7,1.0,Trinidad_de_Iturgoien
Tierra_Estella,04/04/2016,2.9,4.3,1.6,40.1,Trinidad_de_Iturgoien
Tierra_Estella,05/04/2016,2.3,4.0,0.7,1.1,Trinidad_de_Iturgoien
Tierra_Estella,06/04/2016,2.6,5.8,0.9,0.0,Trinidad_de_Iturgoien
Tierra_Estella,07/04/2016,1.3,3.3,-1.6,8.4,Trinidad_de_Iturgoien
Tierra_Estella,08/04/2016,-0.8,-0.1,-1.9,12.5,Trinidad_de_Iturgoien
Tierra_Estella,09/04/2016,2.3,5.4,-1.6,0.1,Trinidad_de_Iturgoien
Tierra_Estella,10/04/2016,5.6,10.9,1.2,2.0,Trinidad_de_Iturgoien
Tierra_Estella,11/04/2016,3.1,7.6,0.4,1.8,Trinidad_de_Iturgoien
Tierra_Estella,12/04/2016,4.5,7.1,2.1,3.8,Trinidad_de_Iturgoien
Tierra_Estella,13/04/2016,6.0,9.9,2.9,0.0,Trinidad_de_Iturgoien
Tierra_Estella,14/04/2016,7.1,11.3,4.2,3.8,Trinidad_de_Iturgoien
Tierra_Estella,15/04/2016,9.2,14.4,6.2,0.0,Trinidad_de_Iturgoien
Tierra_Estella,16/04/2016,7.1,9.0,4.8,9.1,Trinidad_de_Iturgoien
Tierra_Estella,17/04/2016,5.1,9.9,1.7,0.0,Trinidad_de_Iturgoien
Tierra_Estella,18/04/2016,5.8,10.4,0.3,0.0,Trinidad_de_Iturgoien
Tierra_Estella,19/04/2016,7.7,9.5,4.9,0.1,Trinidad_de_Iturgoien
Tierra_Estella,20/04/2016,5.7,8.4,3.0,8.6,Trinidad_de_Iturgoien
Tierra_Estella,21/04/2016,7.3,10.2,5.4,2.0,Trinidad_de_Iturgoien
Tierra_Estella,22/04/2016,6.7,9.4,4.0,2.9,Trinidad_de_Iturgoien
Tierra_Estella,23/04/2016,4.8,8.3,2.9,0.4,Trinidad_de_Iturgoien
Tierra_Estella,24/04/2016,2.0,3.4,-1.0,2.2,Trinidad_de_Iturgoien
Tierra_Estella,25/04/2016,1.5,4.8,-1.1,0.0,Trinidad_de_Iturgoien
Tierra_Estella,26/04/2016,3.1,7.8,0.0,0.0,Trinidad_de_Iturgoien
Tierra_Estella,27/04/2016,2.8,6.0,0.7,0.0,Trinidad_de_Iturgoien
Tierra_Estella,28/04/2016,1.8,5.4,-0.7,0.0,Trinidad_de_Iturgoien
Tierra_Estella,29/04/2016,5.0,11.6,-1.2,0.0,Trinidad_de_Iturgoien
Tierra_Estella,30/04/2016,0.8,3.3,-0.9,2.9,Trinidad_de_Iturgoien
Tierra_Estella,01/05/2016,0.5,3.7,-0.9,0.2,Trinidad_de_Iturgoien
Tierra_Estella,02/05/2016,3.9,9.5,-1.3,0.0,Trinidad_de_Iturgoien
Tierra_Estella,03/05/2016,4.9,9.4,0.9,0.0,Trinidad_de_Iturgoien
Tierra_Estella,04/05/2016,12.1,17.8,3.9,0.0,Trinidad_de_Iturgoien
Tierra_Estella,05/05/2016,12.7,16.2,8.6,0.0,Trinidad_de_Iturgoien
Tierra_Estella,06/05/2016,7.6,9.6,5.9,4.1,Trinidad_de_Iturgoien
Tierra_Estella,07/05/2016,7.4,9.1,6.0,52.8,Trinidad_de_Iturgoien
Tierra_Estella,08/05/2016,7.0,8.8,5.3,23.4,Trinidad_de_Iturgoien
Tierra_Estella,09/05/2016,8.0,12.1,6.0,16.2,Trinidad_de_Iturgoien
Tierra_Estella,10/05/2016,7.2,10.4,4.5,3.8,Trinidad_de_Iturgoien
Tierra_Estella,11/05/2016,7.8,11.6,4.6,4.2,Trinidad_de_Iturgoien
Tierra_Estella,12/05/2016,6.8,10.0,4.1,3.8,Trinidad_de_Iturgoien
Tierra_Estella,13/05/2016,5.3,6.5,3.9,2.4,Trinidad_de_Iturgoien
Tierra_Estella,14/05/2016,6.4,7.8,5.5,2.1,Trinidad_de_Iturgoien
Tierra_Estella,15/05/2016,6.3,8.3,4.8,1.8,Trinidad_de_Iturgoien
Tierra_Estella,16/05/2016,6.2,9.3,4.3,0.0,Trinidad_de_Iturgoien
Tierra_Estella,17/05/2016,8.7,13.5,3.4,0.0,Trinidad_de_Iturgoien
Tierra_Estella,18/05/2016,9.3,14.6,5.0,0.0,Trinidad_de_Iturgoien
Tierra_Estella,19/05/2016,6.5,7.5,4.9,1.3,Trinidad_de_Iturgoien
Tierra_Estella,20/05/2016,13.2,18.7,5.7,0.0,Trinidad_de_Iturgoien
Tierra_Estella,21/05/2016,15.0,20.3,11.5,0.0,Trinidad_de_Iturgoien
Tierra_Estella,22/05/2016,6.3,11.4,2.6,8.0,Trinidad_de_Iturgoien
Tierra_Estella,23/05/2016,5.9,9.7,2.2,0.0,Trinidad_de_Iturgoien
Tierra_Estella,24/05/2016,10.9,15.4,7.2,0.0,Trinidad_de_Iturgoien
Tierra_Estella,25/05/2016,12.0,16.3,8.9,0.0,Trinidad_de_Iturgoien
Tierra_Estella,26/05/2016,12.9,18.3,9.9,3.7,Trinidad_de_Iturgoien
Tierra_Estella,27/05/2016,14.1,19.9,10.8,0.6,Trinidad_de_Iturgoien
Tierra_Estella,28/05/2016,11.5,16.7,7.3,9.4,Trinidad_de_Iturgoien
Tierra_Estella,29/05/2016,8.2,11.3,6.1,3.7,Trinidad_de_Iturgoien
Tierra_Estella,30/05/2016,7.2,10.1,5.7,0.7,Trinidad_de_Iturgoien
Tierra_Estella,31/05/2016,7.3,10.1,5.1,0.2,Trinidad_de_Iturgoien
Tierra_Estella,01/06/2016,7.6,11.8,4.8,0.0,Trinidad_de_Iturgoien
Tierra_Estella,02/06/2016,9.4,13.3,6.4,0.0,Trinidad_de_Iturgoien
Tierra_Estella,03/06/2016,14.0,19.4,7.6,9.1,Trinidad_de_Iturgoien
Tierra_Estella,04/06/2016,11.7,14.9,8.8,0.3,Trinidad_de_Iturgoien
Tierra_Estella,05/06/2016,14.5,19.9,7.7,0.1,Trinidad_de_Iturgoien
Tierra_Estella,06/06/2016,14.5,19.6,11.1,10.5,Trinidad_de_Iturgoien
Tierra_Estella,07/06/2016,15.9,21.2,10.0,0.0,Trinidad_de_Iturgoien
Tierra_Estella,08/06/2016,18.8,25.6,13.9,0.0,Trinidad_de_Iturgoien
Tierra_Estella,09/06/2016,16.5,19.8,13.5,0.0,Trinidad_de_Iturgoien
Tierra_Estella,10/06/2016,10.5,13.2,7.1,0.1,Trinidad_de_Iturgoien
Tierra_Estella,11/06/2016,8.9,11.0,7.1,0.0,Trinidad_de_Iturgoien
Tierra_Estella,12/06/2016,12.1,16.6,8.3,0.0,Trinidad_de_Iturgoien
Tierra_Estella,13/06/2016,11.4,15.0,8.0,0.2,Trinidad_de_Iturgoien
Tierra_Estella,14/06/2016,10.4,16.0,6.6,2.3,Trinidad_de_Iturgoien
Tierra_Estella,15/06/2016,8.2,12.9,5.2,2.6,Trinidad_de_Iturgoien
Tierra_Estella,16/06/2016,6.7,10.6,4.8,3.2,Trinidad_de_Iturgoien
Tierra_Estella,17/06/2016,6.9,11.2,4.6,10.0,Trinidad_de_Iturgoien
Tierra_Estella,18/06/2016,5.8,7.3,4.8,2.0,Trinidad_de_Iturgoien
Tierra_Estella,19/06/2016,7.5,11.0,5.1,0.0,Trinidad_de_Iturgoien
Tierra_Estella,20/06/2016,13.1,18.3,5.7,0.0,Trinidad_de_Iturgoien
Tierra_Estella,21/06/2016,20.2,24.9,15.4,0.0,Trinidad_de_Iturgoien
Tierra_Estella,22/06/2016,20.8,25.8,16.5,0.0,Trinidad_de_Iturgoien
Tierra_Estella,23/06/2016,17.7,26.0,13.0,0.0,Trinidad_de_Iturgoien
Tierra_Estella,24/06/2016,12.9,15.1,11.0,12.3,Trinidad_de_Iturgoien
Tierra_Estella,25/06/2016,9.4,11.0,7.6,0.2,Trinidad_de_Iturgoien
Tierra_Estella,26/06/2016,8.3,11.2,6.7,0.0,Trinidad_de_Iturgoien
Tierra_Estella,27/06/2016,11.3,16.0,6.4,0.0,Trinidad_de_Iturgoien
Tierra_Estella,28/06/2016,15.8,22.5,9.2,0.0,Trinidad_de_Iturgoien
Tierra_Estella,29/06/2016,12.2,20.1,8.8,0.1,Trinidad_de_Iturgoien
Tierra_Estella,30/06/2016,14.3,19.3,9.5,0.0,Trinidad_de_Iturgoien
Tierra_Estella,01/07/2016,14.3,21.3,10.9,0.0,Trinidad_de_Iturgoien
Tierra_Estella,02/07/2016,10.4,11.7,8.2,0.4,Trinidad_de_Iturgoien
Tierra_Estella,03/07/2016,12.8,18.1,7.1,0.0,Trinidad_de_Iturgoien
Tierra_Estella,04/07/2016,17.0,24.3,12.5,12.3,Trinidad_de_Iturgoien
Tierra_Estella,05/07/2016,13.4,15.1,12.3,0.2,Trinidad_de_Iturgoien
Tierra_Estella,06/07/2016,17.4,24.6,11.7,0.2,Trinidad_de_Iturgoien
Tierra_Estella,07/07/2016,20.0,25.1,14.3,2.6,Trinidad_de_Iturgoien
Tierra_Estella,08/07/2016,17.1,23.4,11.3,0.0,Trinidad_de_Iturgoien
Tierra_Estella,09/07/2016,20.4,26.9,11.2,0.0,Trinidad_de_Iturgoien
Tierra_Estella,10/07/2016,19.5,26.6,11.4,1.1,Trinidad_de_Iturgoien
Tierra_Estella,11/07/2016,12.7,15.6,10.6,0.3,Trinidad_de_Iturgoien
Tierra_Estella,12/07/2016,10.0,12.2,7.5,0.5,Trinidad_de_Iturgoien
Tierra_Estella,13/07/2016,7.9,11.0,6.5,1.1,Trinidad_de_Iturgoien
Tierra_Estella,14/07/2016,8.0,11.4,6.0,0.1,Trinidad_de_Iturgoien
Tierra_Estella,15/07/2016,11.3,16.4,5.7,0.0,Trinidad_de_Iturgoien
Tierra_Estella,16/07/2016,16.9,21.8,10.7,0.0,Trinidad_de_Iturgoien
Tierra_Estella,17/07/2016,21.3,27.0,15.5,0.0,Trinidad_de_Iturgoien
Tierra_Estella,18/07/2016,22.0,27.8,15.5,0.0,Trinidad_de_Iturgoien
Tierra_Estella,19/07/2016,23.8,30.1,17.5,0.0,Trinidad_de_Iturgoien
Tierra_Estella,20/07/2016,18.9,24.9,12.8,1.7,Trinidad_de_Iturgoien
Tierra_Estella,21/07/2016,14.1,21.8,11.3,0.4,Trinidad_de_Iturgoien
Tierra_Estella,22/07/2016,11.5,12.7,10.6,1.1,Trinidad_de_Iturgoien
Tierra_Estella,23/07/2016,11.7,13.5,10.1,5.5,Trinidad_de_Iturgoien
Tierra_Estella,24/07/2016,12.1,15.7,9.6,0.0,Trinidad_de_Iturgoien
Tierra_Estella,25/07/2016,14.1,20.9,10.0,0.0,Trinidad_de_Iturgoien
Tierra_Estella,26/07/2016,14.8,19.8,12.4,0.1,Trinidad_de_Iturgoien
Tierra_Estella,27/07/2016,12.6,16.2,9.8,0.0,Trinidad_de_Iturgoien
Tierra_Estella,28/07/2016,15.2,21.4,9.6,0.1,Trinidad_de_Iturgoien
Tierra_Estella,29/07/2016,22.0,26.3,17.5,0.0,Trinidad_de_Iturgoien
Tierra_Estella,30/07/2016,18.9,27.6,13.0,0.0,Trinidad_de_Iturgoien
Tierra_Estella,31/07/2016,12.5,15.4,10.0,1.3,Trinidad_de_Iturgoien
Tierra_Estella,01/08/2016,12.1,16.4,9.0,0.0,Trinidad_de_Iturgoien
Tierra_Estella,02/08/2016,18.9,23.6,9.0,0.0,Trinidad_de_Iturgoien
Tierra_Estella,03/08/2016,19.6,27.3,12.9,0.0,Trinidad_de_Iturgoien
Tierra_Estella,04/08/2016,15.9,19.7,11.7,0.1,Trinidad_de_Iturgoien
Tierra_Estella,05/08/2016,12.2,16.0,9.7,1.5,Trinidad_de_Iturgoien
Tierra_Estella,06/08/2016,13.7,18.1,9.8,0.0,Trinidad_de_Iturgoien
Tierra_Estella,07/08/2016,17.5,24.4,12.1,0.0,Trinidad_de_Iturgoien
Tierra_Estella,08/08/2016,16.2,20.3,11.2,0.0,Trinidad_de_Iturgoien
Tierra_Estella,09/08/2016,12.0,16.2,8.0,0.5,Trinidad_de_Iturgoien
Tierra_Estella,10/08/2016,9.9,13.8,7.3,0.0,Trinidad_de_Iturgoien
Tierra_Estella,11/08/2016,10.0,14.1,6.6,0.0,Trinidad_de_Iturgoien
Tierra_Estella,12/08/2016,17.9,25.3,9.0,0.0,Trinidad_de_Iturgoien
Tierra_Estella,13/08/2016,21.0,27.2,15.6,0.0,Trinidad_de_Iturgoien
Tierra_Estella,14/08/2016,21.8,26.8,16.9,0.0,Trinidad_de_Iturgoien
Tierra_Estella,15/08/2016,20.6,26.6,16.1,0.0,Trinidad_de_Iturgoien
Tierra_Estella,16/08/2016,20.1,26.7,15.3,0.0,Trinidad_de_Iturgoien
Tierra_Estella,17/08/2016,17.4,24.2,12.6,0.0,Trinidad_de_Iturgoien
Tierra_Estella,18/08/2016,15.1,19.1,11.7,0.2,Trinidad_de_Iturgoien
Tierra_Estella,19/08/2016,17.8,25.1,13.5,0.0,Trinidad_de_Iturgoien
Tierra_Estella,20/08/2016,11.4,13.5,9.3,0.2,Trinidad_de_Iturgoien
Tierra_Estella,21/08/2016,11.8,15.6,8.4,0.0,Trinidad_de_Iturgoien
Tierra_Estella,22/08/2016,20.9,28.0,11.9,0.0,Trinidad_de_Iturgoien
Tierra_Estella,23/08/2016,23.0,30.0,17.9,0.0,Trinidad_de_Iturgoien
Tierra_Estella,24/08/2016,22.3,27.5,18.6,0.0,Trinidad_de_Iturgoien
Tierra_Estella,25/08/2016,21.7,27.8,16.7,0.0,Trinidad_de_Iturgoien
Tierra_Estella,26/08/2016,21.6,27.1,17.8,0.0,Trinidad_de_Iturgoien
Tierra_Estella,27/08/2016,20.4,27.7,14.9,0.0,Trinidad_de_Iturgoien
Tierra_Estella,28/08/2016,15.5,20.5,12.1,0.1,Trinidad_de_Iturgoien
Tierra_Estella,29/08/2016,11.8,14.4,10.3,0.2,Trinidad_de_Iturgoien
Tierra_Estella,30/08/2016,13.3,17.9,10.3,0.0,Trinidad_de_Iturgoien
Tierra_Estella,31/08/2016,14.7,19.1,11.3,0.0,Trinidad_de_Iturgoien
Tierra_Estella,01/09/2016,17.9,24.4,11.8,0.0,Trinidad_de_Iturgoien
Tierra_Estella,02/09/2016,20.6,26.6,16.0,0.0,Trinidad_de_Iturgoien
Tierra_Estella,03/09/2016,22.6,28.3,18.7,0.0,Trinidad_de_Iturgoien
Tierra_Estella,04/09/2016,23.0,28.4,17.1,0.0,Trinidad_de_Iturgoien
Tierra_Estella,05/09/2016,18.6,22.1,15.4,0.0,Trinidad_de_Iturgoien
Tierra_Estella,06/09/2016,22.6,28.6,15.2,0.0,Trinidad_de_Iturgoien
Tierra_Estella,07/09/2016,21.8,26.8,13.4,0.0,Trinidad_de_Iturgoien
Tierra_Estella,08/09/2016,13.6,15.7,12.4,0.1,Trinidad_de_Iturgoien
Tierra_Estella,09/09/2016,13.3,19.3,10.0,0.3,Trinidad_de_Iturgoien
Tierra_Estella,10/09/2016,15.1,21.0,9.6,0.2,Trinidad_de_Iturgoien
Tierra_Estella,11/09/2016,18.9,25.2,11.4,0.0,Trinidad_de_Iturgoien
Tierra_Estella,12/09/2016,20.4,26.7,15.7,0.0,Trinidad_de_Iturgoien
Tierra_Estella,13/09/2016,13.4,19.1,7.9,8.7,Trinidad_de_Iturgoien
Tierra_Estella,14/09/2016,8.8,11.8,7.1,0.0,Trinidad_de_Iturgoien
Tierra_Estella,15/09/2016,7.6,11.1,4.9,30.3,Trinidad_de_Iturgoien
Tierra_Estella,16/09/2016,9.1,12.0,7.6,8.7,Trinidad_de_Iturgoien
Tierra_Estella,17/09/2016,7.5,8.7,6.8,15.7,Trinidad_de_Iturgoien
Tierra_Estella,18/09/2016,7.7,9.0,6.6,6.9,Trinidad_de_Iturgoien
Tierra_Estella,19/09/2016,8.4,10.1,6.4,0.1,Trinidad_de_Iturgoien
Tierra_Estella,20/09/2016,9.9,12.5,7.9,0.3,Trinidad_de_Iturgoien
Tierra_Estella,21/09/2016,12.5,18.2,7.3,0.1,Trinidad_de_Iturgoien
Tierra_Estella,22/09/2016,14.0,19.0,10.0,0.0,Trinidad_de_Iturgoien
Tierra_Estella,23/09/2016,13.4,19.1,10.8,0.1,Trinidad_de_Iturgoien
Tierra_Estella,24/09/2016,14.3,19.3,10.6,0.0,Trinidad_de_Iturgoien
Tierra_Estella,25/09/2016,11.0,13.8,8.6,0.0,Trinidad_de_Iturgoien
Tierra_Estella,26/09/2016,11.8,16.7,8.6,0.0,Trinidad_de_Iturgoien
Tierra_Estella,27/09/2016,10.9,13.4,8.4,2.6,Trinidad_de_Iturgoien
Tierra_Estella,28/09/2016,13.7,18.0,9.8,0.8,Trinidad_de_Iturgoien
Tierra_Estella,29/09/2016,14.8,19.8,10.3,0.0,Trinidad_de_Iturgoien
Tierra_Estella,30/09/2016,14.7,19.4,11.0,0.1,Trinidad_de_Iturgoien
Tierra_Estella,01/10/2016,10.8,13.7,7.9,2.6,Trinidad_de_Iturgoien
Tierra_Estella,02/10/2016,11.1,15.9,6.8,0.2,Trinidad_de_Iturgoien
Tierra_Estella,03/10/2016,14.5,19.2,12.0,0.2,Trinidad_de_Iturgoien
Tierra_Estella,04/10/2016,13.6,20.4,8.9,0.0,Trinidad_de_Iturgoien
Tierra_Estella,05/10/2016,10.8,15.0,8.5,0.3,Trinidad_de_Iturgoien
Tierra_Estella,06/10/2016,9.9,13.0,6.8,0.0,Trinidad_de_Iturgoien
Tierra_Estella,07/10/2016,10.2,15.5,6.7,0.0,Trinidad_de_Iturgoien
Tierra_Estella,08/10/2016,7.6,10.3,6.1,0.2,Trinidad_de_Iturgoien
Tierra_Estella,09/10/2016,6.5,9.3,4.5,0.0,Trinidad_de_Iturgoien
Tierra_Estella,10/10/2016,6.0,9.7,3.4,0.0,Trinidad_de_Iturgoien
Tierra_Estella,11/10/2016,7.8,11.9,2.6,0.0,Trinidad_de_Iturgoien
Tierra_Estella,12/10/2016,7.8,8.7,7.1,23.0,Trinidad_de_Iturgoien
Tierra_Estella,13/10/2016,8.3,9.6,7.5,18.9,Trinidad_de_Iturgoien
Tierra_Estella,14/10/2016,6.8,8.0,5.7,6.6,Trinidad_de_Iturgoien
Tierra_Estella,15/10/2016,8.4,13.1,5.1,0.0,Trinidad_de_Iturgoien
Tierra_Estella,16/10/2016,10.0,12.2,7.8,0.1,Trinidad_de_Iturgoien
Tierra_Estella,17/10/2016,10.7,13.0,9.1,1.8,Trinidad_de_Iturgoien
Tierra_Estella,18/10/2016,8.7,11.5,6.3,0.0,Trinidad_de_Iturgoien
Tierra_Estella,19/10/2016,6.4,9.9,3.9,0.1,Trinidad_de_Iturgoien
Tierra_Estella,20/10/2016,4.2,6.3,2.0,0.0,Trinidad_de_Iturgoien
Tierra_Estella,21/10/2016,5.2,9.9,1.4,0.0,Trinidad_de_Iturgoien
Tierra_Estella,22/10/2016,7.3,9.9,4.6,4.1,Trinidad_de_Iturgoien
Tierra_Estella,23/10/2016,10.0,11.3,7.4,14.8,Trinidad_de_Iturgoien
Tierra_Estella,24/10/2016,8.4,9.7,7.2,3.8,Trinidad_de_Iturgoien
Tierra_Estella,25/10/2016,11.6,13.8,9.2,4.7,Trinidad_de_Iturgoien
Tierra_Estella,26/10/2016,12.5,15.0,8.2,0.0,Trinidad_de_Iturgoien
Tierra_Estella,27/10/2016,11.2,14.6,7.6,0.0,Trinidad_de_Iturgoien
Tierra_Estella,28/10/2016,14.0,17.5,9.4,0.0,Trinidad_de_Iturgoien
Tierra_Estella,29/10/2016,17.3,21.5,12.9,0.0,Trinidad_de_Iturgoien
Tierra_Estella,30/10/2016,16.8,20.0,10.9,0.0,Trinidad_de_Iturgoien
Tierra_Estella,31/10/2016,10.2,13.6,6.4,0.0,Trinidad_de_Iturgoien
Tierra_Estella,01/11/2016,9.2,14.1,7.0,0.1,Trinidad_de_Iturgoien
Tierra_Estella,02/11/2016,12.4,15.3,10.4,0.0,Trinidad_de_Iturgoien
Tierra_Estella,03/11/2016,13.2,16.6,9.2,0.0,Trinidad_de_Iturgoien
Tierra_Estella,04/11/2016,7.7,11.1,6.6,11.3,Trinidad_de_Iturgoien
Tierra_Estella,05/11/2016,4.8,8.0,1.7,30.9,Trinidad_de_Iturgoien
Tierra_Estella,06/11/2016,0.6,1.7,-0.8,2.2,Trinidad_de_Iturgoien
Tierra_Estella,07/11/2016,-0.8,0.1,-1.5,0.0,Trinidad_de_Iturgoien
Tierra_Estella,08/11/2016,0.3,2.8,-1.4,8.0,Trinidad_de_Iturgoien
Tierra_Estella,09/11/2016,2.9,3.7,1.6,13.1,Trinidad_de_Iturgoien
Tierra_Estella,10/11/2016,3.8,6.2,2.3,0.3,Trinidad_de_Iturgoien
Tierra_Estella,11/11/2016,4.4,5.3,3.8,3.3,Trinidad_de_Iturgoien
Tierra_Estella,12/11/2016,6.3,8.9,3.2,5.5,Trinidad_de_Iturgoien
Tierra_Estella,13/11/2016,5.8,8.1,3.2,7.9,Trinidad_de_Iturgoien
Tierra_Estella,14/11/2016,2.8,4.0,1.4,0.3,Trinidad_de_Iturgoien
Tierra_Estella,15/11/2016,3.0,6.7,0.1,0.0,Trinidad_de_Iturgoien
Tierra_Estella,16/11/2016,7.1,11.2,3.6,0.0,Trinidad_de_Iturgoien
Tierra_Estella,17/11/2016,8.8,13.4,5.4,0.0,Trinidad_de_Iturgoien
Tierra_Estella,18/11/2016,5.9,7.0,4.7,0.0,Trinidad_de_Iturgoien
Tierra_Estella,19/11/2016,3.4,5.3,1.8,0.0,Trinidad_de_Iturgoien
Tierra_Estella,20/11/2016,3.9,5.2,2.8,11.3,Trinidad_de_Iturgoien
Tierra_Estella,21/11/2016,5.6,8.4,3.7,13.9,Trinidad_de_Iturgoien
Tierra_Estella,22/11/2016,2.5,3.8,0.5,11.1,Trinidad_de_Iturgoien
Tierra_Estella,23/11/2016,-0.3,1.4,-1.6,35.7,Trinidad_de_Iturgoien
Tierra_Estella,24/11/2016,0.2,1.0,-0.7,0.2,Trinidad_de_Iturgoien
Tierra_Estella,25/11/2016,0.4,1.4,-0.7,0.0,Trinidad_de_Iturgoien
Tierra_Estella,26/11/2016,1.1,2.9,-0.7,6.1,Trinidad_de_Iturgoien
Tierra_Estella,27/11/2016,4.8,7.3,3.0,0.4,Trinidad_de_Iturgoien
Tierra_Estella,28/11/2016,3.6,6.1,1.5,0.0,Trinidad_de_Iturgoien
Tierra_Estella,29/11/2016,2.9,3.7,1.8,0.0,Trinidad_de_Iturgoien
Tierra_Estella,30/11/2016,3.3,4.2,2.2,0.0,Trinidad_de_Iturgoien
Tierra_Estella,01/12/2016,3.8,7.7,1.6,0.1,Trinidad_de_Iturgoien
Tierra_Estella,02/12/2016,5.0,7.9,2.4,0.0,Trinidad_de_Iturgoien
Tierra_Estella,03/12/2016,3.3,5.5,1.0,0.3,Trinidad_de_Iturgoien
Tierra_Estella,04/12/2016,4.1,5.6,2.1,9.5,Trinidad_de_Iturgoien
Tierra_Estella,05/12/2016,5.7,7.6,4.5,1.2,Trinidad_de_Iturgoien
Tierra_Estella,06/12/2016,8.1,11.5,5.3,0.1,Trinidad_de_Iturgoien
Tierra_Estella,07/12/2016,4.9,8.8,3.3,0.0,Trinidad_de_Iturgoien
Tierra_Estella,08/12/2016,2.9,3.6,2.0,0.0,Trinidad_de_Iturgoien
Tierra_Estella,09/12/2016,3.9,6.3,2.0,0.0,Trinidad_de_Iturgoien
Tierra_Estella,10/12/2016,6.3,9.0,3.3,0.0,Trinidad_de_Iturgoien
Tierra_Estella,11/12/2016,6.4,8.1,4.5,0.0,Trinidad_de_Iturgoien
Tierra_Estella,12/12/2016,6.5,8.8,4.2,0.0,Trinidad_de_Iturgoien
Tierra_Estella,13/12/2016,3.7,6.6,0.3,0.0,Trinidad_de_Iturgoien
Tierra_Estella,14/12/2016,1.3,3.4,-0.2,0.0,Trinidad_de_Iturgoien
Tierra_Estella,15/12/2016,1.9,2.7,1.3,0.0,Trinidad_de_Iturgoien
Tierra_Estella,16/12/2016,3.4,5.4,1.6,2.9,Trinidad_de_Iturgoien
Tierra_Estella,17/12/2016,4.4,7.3,2.0,0.0,Trinidad_de_Iturgoien
Tierra_Estella,18/12/2016,2.9,6.0,1.4,0.0,Trinidad_de_Iturgoien
Tierra_Estella,19/12/2016,0.5,1.6,-1.5,0.2,Trinidad_de_Iturgoien
Tierra_Estella,20/12/2016,0.2,1.1,-0.2,0.2,Trinidad_de_Iturgoien
Tierra_Estella,21/12/2016,2.7,3.5,1.0,0.7,Trinidad_de_Iturgoien
Tierra_Estella,22/12/2016,5.6,6.4,3.1,1.6,Trinidad_de_Iturgoien
Tierra_Estella,23/12/2016,5.7,7.1,4.9,0.0,Trinidad_de_Iturgoien
Tierra_Estella,24/12/2016,5.3,6.0,4.7,1.7,Trinidad_de_Iturgoien
Tierra_Estella,25/12/2016,9.2,13.6,3.1,0.1,Trinidad_de_Iturgoien
Tierra_Estella,26/12/2016,4.7,11.8,0.6,0.0,Trinidad_de_Iturgoien
Tierra_Estella,27/12/2016,9.5,12.5,5.9,0.0,Trinidad_de_Iturgoien
Tierra_Estella,28/12/2016,7.4,9.7,5.0,0.0,Trinidad_de_Iturgoien
Tierra_Estella,29/12/2016,9.8,12.9,6.6,0.0,Trinidad_de_Iturgoien
Tierra_Estella,30/12/2016,6.3,10.1,0.7,0.0,Trinidad_de_Iturgoien
Tierra_Estella,31/12/2016,0.1,2.2,-1.7,1.0,Trinidad_de_Iturgoien
