Comarca,Fecha, Temperatura media, Temperatura maxima, Temperatura minima, Precipitacion acumulada,Localidad
Tierra_Estella,01/01/2019,8.2,16.9,1.1,0.0,Villanueva_de_Yerri
Tierra_Estella,02/01/2019,5.0,11.5,-1.1,0.0,Villanueva_de_Yerri
Tierra_Estella,03/01/2019,6.6,13.8,-1.3,0.0,Villanueva_de_Yerri
Tierra_Estella,04/01/2019,7.1,17.0,0.8,0.0,Villanueva_de_Yerri
Tierra_Estella,05/01/2019,6.2,16.2,-1.8,0.0,Villanueva_de_Yerri
Tierra_Estella,06/01/2019,5.9,16.2,-2.3,0.0,Villanueva_de_Yerri
Tierra_Estella,07/01/2019,2.2,8.9,-2.3,0.0,Villanueva_de_Yerri
Tierra_Estella,08/01/2019,4.6,10.3,-2.2,0.0,Villanueva_de_Yerri
Tierra_Estella,09/01/2019,6.6,10.0,3.6,0.1,Villanueva_de_Yerri
Tierra_Estella,10/01/2019,2.4,6.3,-2.7,0.0,Villanueva_de_Yerri
Tierra_Estella,11/01/2019,2.1,7.4,-3.2,0.0,Villanueva_de_Yerri
Tierra_Estella,12/01/2019,5.9,9.6,2.6,0.0,Villanueva_de_Yerri
Tierra_Estella,13/01/2019,7.6,10.8,5.7,0.0,Villanueva_de_Yerri
Tierra_Estella,14/01/2019,8.3,11.8,4.7,0.0,Villanueva_de_Yerri
Tierra_Estella,15/01/2019,4.2,12.9,-1.3,0.0,Villanueva_de_Yerri
Tierra_Estella,16/01/2019,1.3,7.8,-2.6,0.0,Villanueva_de_Yerri
Tierra_Estella,17/01/2019,4.4,11.0,-0.7,0.0,Villanueva_de_Yerri
Tierra_Estella,18/01/2019,2.3,8.4,-1.6,0.0,Villanueva_de_Yerri
Tierra_Estella,19/01/2019,4.0,7.3,-0.8,3.3,Villanueva_de_Yerri
Tierra_Estella,20/01/2019,5.0,9.2,2.2,2.0,Villanueva_de_Yerri
Tierra_Estella,21/01/2019,3.9,7.6,1.7,2.6,Villanueva_de_Yerri
Tierra_Estella,22/01/2019,3.0,4.9,0.9,7.4,Villanueva_de_Yerri
Tierra_Estella,23/01/2019,4.6,6.7,2.5,34.0,Villanueva_de_Yerri
Tierra_Estella,24/01/2019,3.6,6.3,1.9,8.5,Villanueva_de_Yerri
Tierra_Estella,25/01/2019,8.5,11.5,6.2,0.0,Villanueva_de_Yerri
Tierra_Estella,26/01/2019,7.6,13.6,1.1,0.0,Villanueva_de_Yerri
Tierra_Estella,27/01/2019,4.3,8.6,0.6,6.6,Villanueva_de_Yerri
Tierra_Estella,28/01/2019,4.7,6.7,2.4,18.3,Villanueva_de_Yerri
Tierra_Estella,29/01/2019,4.8,8.0,2.5,5.9,Villanueva_de_Yerri
Tierra_Estella,30/01/2019,4.5,9.5,1.6,9.0,Villanueva_de_Yerri
Tierra_Estella,31/01/2019,4.7,7.6,2.2,28.6,Villanueva_de_Yerri
Tierra_Estella,01/02/2019,5.8,11.1,1.4,1.1,Villanueva_de_Yerri
Tierra_Estella,02/02/2019,2.4,5.0,0.7,18.4,Villanueva_de_Yerri
Tierra_Estella,03/02/2019,2.3,6.0,0.1,3.4,Villanueva_de_Yerri
Tierra_Estella,04/02/2019,4.6,11.1,-1.7,0.0,Villanueva_de_Yerri
Tierra_Estella,05/02/2019,8.0,14.7,2.8,0.0,Villanueva_de_Yerri
Tierra_Estella,06/02/2019,6.8,16.1,0.3,0.0,Villanueva_de_Yerri
Tierra_Estella,07/02/2019,6.0,12.3,0.5,0.0,Villanueva_de_Yerri
Tierra_Estella,08/02/2019,4.9,12.6,-0.8,0.0,Villanueva_de_Yerri
Tierra_Estella,09/02/2019,6.8,13.3,0.4,0.0,Villanueva_de_Yerri
Tierra_Estella,10/02/2019,6.5,11.6,2.8,2.3,Villanueva_de_Yerri
Tierra_Estella,11/02/2019,5.9,10.0,3.0,1.5,Villanueva_de_Yerri
Tierra_Estella,12/02/2019,4.9,13.9,-1.6,0.0,Villanueva_de_Yerri
Tierra_Estella,13/02/2019,4.5,13.3,-1.7,0.0,Villanueva_de_Yerri
Tierra_Estella,14/02/2019,5.1,13.2,0.3,0.0,Villanueva_de_Yerri
Tierra_Estella,15/02/2019,4.8,13.7,-1.5,0.0,Villanueva_de_Yerri
Tierra_Estella,16/02/2019,6.1,13.8,-1.1,0.0,Villanueva_de_Yerri
Tierra_Estella,17/02/2019,6.6,16.1,-2.3,0.0,Villanueva_de_Yerri
Tierra_Estella,18/02/2019,5.3,13.6,-1.8,0.0,Villanueva_de_Yerri
Tierra_Estella,19/02/2019,5.8,13.1,0.8,0.0,Villanueva_de_Yerri
Tierra_Estella,20/02/2019,5.0,13.3,-0.8,0.0,Villanueva_de_Yerri
Tierra_Estella,21/02/2019,6.4,16.4,0.1,0.0,Villanueva_de_Yerri
Tierra_Estella,22/02/2019,8.4,21.0,0.1,0.0,Villanueva_de_Yerri
Tierra_Estella,23/02/2019,10.0,22.5,-0.8,0.0,Villanueva_de_Yerri
Tierra_Estella,24/02/2019,7.9,17.3,0.7,0.0,Villanueva_de_Yerri
Tierra_Estella,25/02/2019,7.6,17.7,0.3,0.0,Villanueva_de_Yerri
Tierra_Estella,26/02/2019,8.8,19.7,1.1,0.0,Villanueva_de_Yerri
Tierra_Estella,27/02/2019,10.2,22.2,1.2,0.0,Villanueva_de_Yerri
Tierra_Estella,28/02/2019,9.0,17.1,1.0,0.0,Villanueva_de_Yerri
Tierra_Estella,01/03/2019,7.8,18.3,-1.1,0.0,Villanueva_de_Yerri
Tierra_Estella,02/03/2019,10.7,18.9,3.4,0.0,Villanueva_de_Yerri
Tierra_Estella,03/03/2019,7.5,14.7,1.6,0.0,Villanueva_de_Yerri
Tierra_Estella,04/03/2019,10.2,17.8,2.4,0.0,Villanueva_de_Yerri
Tierra_Estella,05/03/2019,9.5,16.6,0.3,0.0,Villanueva_de_Yerri
Tierra_Estella,06/03/2019,10.3,13.4,4.3,7.0,Villanueva_de_Yerri
Tierra_Estella,07/03/2019,6.6,13.8,-0.4,0.1,Villanueva_de_Yerri
Tierra_Estella,08/03/2019,7.4,14.7,2.2,0.0,Villanueva_de_Yerri
Tierra_Estella,09/03/2019,9.2,17.9,1.7,0.0,Villanueva_de_Yerri
Tierra_Estella,10/03/2019,9.8,17.9,3.2,0.0,Villanueva_de_Yerri
Tierra_Estella,11/03/2019,8.3,15.0,-0.6,0.0,Villanueva_de_Yerri
Tierra_Estella,12/03/2019,7.1,16.2,-2.0,0.0,Villanueva_de_Yerri
Tierra_Estella,13/03/2019,6.2,10.3,3.4,2.5,Villanueva_de_Yerri
Tierra_Estella,14/03/2019,7.2,12.0,2.9,0.4,Villanueva_de_Yerri
Tierra_Estella,15/03/2019,9.3,18.0,1.7,0.0,Villanueva_de_Yerri
Tierra_Estella,16/03/2019,8.8,22.3,-1.2,0.0,Villanueva_de_Yerri
Tierra_Estella,17/03/2019,7.1,13.4,2.8,0.0,Villanueva_de_Yerri
Tierra_Estella,18/03/2019,6.7,12.8,0.9,0.2,Villanueva_de_Yerri
Tierra_Estella,19/03/2019,6.2,9.9,3.3,1.7,Villanueva_de_Yerri
Tierra_Estella,20/03/2019,7.3,13.8,1.8,0.1,Villanueva_de_Yerri
Tierra_Estella,21/03/2019,6.7,16.2,-1.4,0.0,Villanueva_de_Yerri
Tierra_Estella,22/03/2019,7.4,18.1,-2.1,0.0,Villanueva_de_Yerri
Tierra_Estella,23/03/2019,10.5,22.0,0.8,0.0,Villanueva_de_Yerri
Tierra_Estella,24/03/2019,12.4,22.6,2.7,0.0,Villanueva_de_Yerri
Tierra_Estella,25/03/2019,9.8,15.5,3.4,0.0,Villanueva_de_Yerri
Tierra_Estella,26/03/2019,9.8,17.0,3.8,0.0,Villanueva_de_Yerri
Tierra_Estella,27/03/2019,9.8,18.7,-0.1,0.0,Villanueva_de_Yerri
Tierra_Estella,28/03/2019,9.7,19.5,0.8,0.0,Villanueva_de_Yerri
Tierra_Estella,29/03/2019,9.4,18.1,-0.1,0.0,Villanueva_de_Yerri
Tierra_Estella,30/03/2019,8.1,17.6,-0.3,0.0,Villanueva_de_Yerri
Tierra_Estella,31/03/2019,8.4,15.8,0.2,0.8,Villanueva_de_Yerri
Tierra_Estella,01/04/2019,9.1,15.3,4.4,1.1,Villanueva_de_Yerri
Tierra_Estella,02/04/2019,10.2,19.0,1.8,0.3,Villanueva_de_Yerri
Tierra_Estella,03/04/2019,6.3,11.2,0.5,0.2,Villanueva_de_Yerri
Tierra_Estella,04/04/2019,6.7,13.7,-0.8,0.0,Villanueva_de_Yerri
Tierra_Estella,05/04/2019,7.6,11.0,3.4,1.9,Villanueva_de_Yerri
Tierra_Estella,06/04/2019,6.2,11.9,0.9,3.5,Villanueva_de_Yerri
Tierra_Estella,07/04/2019,7.8,15.7,2.0,0.1,Villanueva_de_Yerri
Tierra_Estella,08/04/2019,8.0,14.0,2.8,6.6,Villanueva_de_Yerri
Tierra_Estella,09/04/2019,8.6,17.7,0.6,0.9,Villanueva_de_Yerri
Tierra_Estella,10/04/2019,8.2,15.4,2.8,0.3,Villanueva_de_Yerri
Tierra_Estella,11/04/2019,8.2,13.2,4.8,0.2,Villanueva_de_Yerri
Tierra_Estella,12/04/2019,9.4,16.5,1.7,0.0,Villanueva_de_Yerri
Tierra_Estella,13/04/2019,10.0,22.6,-2.9,0.0,Villanueva_de_Yerri
Tierra_Estella,14/04/2019,13.8,23.7,5.6,0.0,Villanueva_de_Yerri
Tierra_Estella,15/04/2019,12.4,21.1,6.4,22.9,Villanueva_de_Yerri
Tierra_Estella,16/04/2019,12.0,18.7,4.5,0.1,Villanueva_de_Yerri
Tierra_Estella,17/04/2019,13.2,18.2,7.2,0.0,Villanueva_de_Yerri
Tierra_Estella,18/04/2019,12.6,17.8,10.1,0.0,Villanueva_de_Yerri
Tierra_Estella,19/04/2019,13.2,20.0,7.4,0.9,Villanueva_de_Yerri
Tierra_Estella,20/04/2019,13.3,21.6,4.3,0.5,Villanueva_de_Yerri
Tierra_Estella,21/04/2019,10.5,14.4,6.8,0.0,Villanueva_de_Yerri
Tierra_Estella,22/04/2019,12.8,18.7,6.1,0.0,Villanueva_de_Yerri
Tierra_Estella,23/04/2019,10.9,17.3,6.2,2.1,Villanueva_de_Yerri
Tierra_Estella,24/04/2019,7.8,10.5,1.9,10.7,Villanueva_de_Yerri
Tierra_Estella,25/04/2019,10.0,16.9,3.0,3.4,Villanueva_de_Yerri
Tierra_Estella,26/04/2019,9.9,16.6,3.5,0.1,Villanueva_de_Yerri
Tierra_Estella,27/04/2019,9.8,17.8,1.8,0.0,Villanueva_de_Yerri
Tierra_Estella,28/04/2019,11.1,20.2,3.5,0.0,Villanueva_de_Yerri
Tierra_Estella,29/04/2019,12.4,23.3,1.8,0.0,Villanueva_de_Yerri
Tierra_Estella,30/04/2019,12.7,23.0,3.0,0.0,Villanueva_de_Yerri
Tierra_Estella,01/05/2019,11.4,22.4,1.9,0.0,Villanueva_de_Yerri
Tierra_Estella,02/05/2019,9.9,16.3,4.0,0.0,Villanueva_de_Yerri
Tierra_Estella,03/05/2019,9.2,15.1,3.6,0.4,Villanueva_de_Yerri
Tierra_Estella,04/05/2019,9.7,16.0,3.0,0.8,Villanueva_de_Yerri
Tierra_Estella,05/05/2019,6.9,15.4,-1.1,0.0,Villanueva_de_Yerri
Tierra_Estella,06/05/2019,10.5,22.7,-1.5,0.0,Villanueva_de_Yerri
Tierra_Estella,07/05/2019,13.7,22.5,4.0,0.0,Villanueva_de_Yerri
Tierra_Estella,08/05/2019,16.4,21.6,11.5,0.2,Villanueva_de_Yerri
Tierra_Estella,09/05/2019,12.0,20.4,3.9,16.6,Villanueva_de_Yerri
Tierra_Estella,10/05/2019,16.0,24.6,10.8,9.6,Villanueva_de_Yerri
Tierra_Estella,11/05/2019,12.7,18.0,5.7,0.0,Villanueva_de_Yerri
Tierra_Estella,12/05/2019,11.9,19.8,2.5,0.0,Villanueva_de_Yerri
Tierra_Estella,13/05/2019,14.0,21.5,3.3,0.0,Villanueva_de_Yerri
Tierra_Estella,14/05/2019,14.5,27.1,3.0,0.0,Villanueva_de_Yerri
Tierra_Estella,15/05/2019,15.7,26.7,3.9,0.0,Villanueva_de_Yerri
Tierra_Estella,16/05/2019,13.6,24.9,5.8,3.2,Villanueva_de_Yerri
Tierra_Estella,17/05/2019,9.0,11.6,6.5,12.7,Villanueva_de_Yerri
Tierra_Estella,18/05/2019,8.3,14.2,2.6,1.3,Villanueva_de_Yerri
Tierra_Estella,19/05/2019,9.3,12.3,6.3,2.7,Villanueva_de_Yerri
Tierra_Estella,20/05/2019,10.7,19.1,2.4,0.0,Villanueva_de_Yerri
Tierra_Estella,21/05/2019,12.3,21.5,3.2,0.0,Villanueva_de_Yerri
Tierra_Estella,22/05/2019,14.6,24.5,5.4,0.0,Villanueva_de_Yerri
Tierra_Estella,23/05/2019,15.0,24.4,6.8,4.6,Villanueva_de_Yerri
Tierra_Estella,24/05/2019,12.7,17.1,10.6,6.3,Villanueva_de_Yerri
Tierra_Estella,25/05/2019,12.8,17.7,9.9,0.0,Villanueva_de_Yerri
Tierra_Estella,26/05/2019,12.9,17.8,10.1,0.0,Villanueva_de_Yerri
Tierra_Estella,27/05/2019,13.4,19.4,9.4,0.0,Villanueva_de_Yerri
Tierra_Estella,28/05/2019,11.5,16.5,7.2,0.0,Villanueva_de_Yerri
Tierra_Estella,29/05/2019,12.8,18.9,6.2,0.0,Villanueva_de_Yerri
Tierra_Estella,30/05/2019,16.2,27.3,3.8,0.0,Villanueva_de_Yerri
Tierra_Estella,31/05/2019,18.4,29.3,7.9,0.0,Villanueva_de_Yerri
Tierra_Estella,01/06/2019,18.9,30.7,9.0,0.0,Villanueva_de_Yerri
Tierra_Estella,02/06/2019,20.5,31.4,9.4,0.0,Villanueva_de_Yerri
Tierra_Estella,03/06/2019,20.2,30.0,11.6,0.0,Villanueva_de_Yerri
Tierra_Estella,04/06/2019,17.3,31.1,9.5,1.1,Villanueva_de_Yerri
Tierra_Estella,05/06/2019,11.6,16.5,8.4,16.0,Villanueva_de_Yerri
Tierra_Estella,06/06/2019,15.5,23.6,6.3,0.0,Villanueva_de_Yerri
Tierra_Estella,07/06/2019,13.6,21.4,6.4,2.1,Villanueva_de_Yerri
Tierra_Estella,08/06/2019,15.2,25.0,4.2,0.0,Villanueva_de_Yerri
Tierra_Estella,09/06/2019,16.6,25.9,10.3,0.1,Villanueva_de_Yerri
Tierra_Estella,10/06/2019,12.6,18.8,8.6,0.0,Villanueva_de_Yerri
Tierra_Estella,11/06/2019,11.0,16.4,5.0,0.2,Villanueva_de_Yerri
Tierra_Estella,12/06/2019,11.8,21.5,1.7,0.0,Villanueva_de_Yerri
Tierra_Estella,13/06/2019,15.8,25.8,5.1,0.0,Villanueva_de_Yerri
Tierra_Estella,14/06/2019,16.3,25.5,7.4,0.2,Villanueva_de_Yerri
Tierra_Estella,15/06/2019,15.2,22.8,8.0,0.0,Villanueva_de_Yerri
Tierra_Estella,16/06/2019,17.3,28.7,5.2,0.0,Villanueva_de_Yerri
Tierra_Estella,17/06/2019,21.4,32.3,10.4,0.0,Villanueva_de_Yerri
Tierra_Estella,18/06/2019,23.8,33.8,13.1,0.0,Villanueva_de_Yerri
Tierra_Estella,19/06/2019,20.1,29.0,12.3,0.0,Villanueva_de_Yerri
Tierra_Estella,20/06/2019,16.6,22.8,12.2,5.9,Villanueva_de_Yerri
Tierra_Estella,21/06/2019,14.8,20.3,8.3,2.8,Villanueva_de_Yerri
Tierra_Estella,22/06/2019,18.2,29.3,5.7,0.0,Villanueva_de_Yerri
Tierra_Estella,23/06/2019,24.2,33.5,16.5,0.0,Villanueva_de_Yerri
Tierra_Estella,24/06/2019,23.4,31.6,13.8,0.0,Villanueva_de_Yerri
Tierra_Estella,25/06/2019,24.4,34.3,14.8,0.0,Villanueva_de_Yerri
Tierra_Estella,26/06/2019,27.9,35.9,17.4,0.0,Villanueva_de_Yerri
Tierra_Estella,27/06/2019,26.9,38.5,15.7,0.0,Villanueva_de_Yerri
Tierra_Estella,28/06/2019,27.7,40.0,14.9,0.0,Villanueva_de_Yerri
Tierra_Estella,29/06/2019,28.5,40.9,15.0,0.0,Villanueva_de_Yerri
Tierra_Estella,30/06/2019,25.9,39.9,13.4,0.0,Villanueva_de_Yerri
Tierra_Estella,01/07/2019,20.1,27.6,14.0,0.8,Villanueva_de_Yerri
Tierra_Estella,02/07/2019,21.0,31.2,14.8,0.0,Villanueva_de_Yerri
Tierra_Estella,03/07/2019,24.9,34.0,14.8,0.0,Villanueva_de_Yerri
Tierra_Estella,04/07/2019,26.1,34.8,16.3,0.0,Villanueva_de_Yerri
Tierra_Estella,05/07/2019,25.4,35.3,16.3,0.0,Villanueva_de_Yerri
Tierra_Estella,06/07/2019,24.8,35.3,15.8,0.0,Villanueva_de_Yerri
Tierra_Estella,07/07/2019,23.8,33.2,17.6,0.0,Villanueva_de_Yerri
Tierra_Estella,08/07/2019,20.9,29.8,15.0,21.4,Villanueva_de_Yerri
Tierra_Estella,09/07/2019,17.1,22.4,13.4,0.0,Villanueva_de_Yerri
Tierra_Estella,10/07/2019,20.6,29.6,12.0,0.0,Villanueva_de_Yerri
Tierra_Estella,11/07/2019,22.3,33.4,10.8,0.0,Villanueva_de_Yerri
Tierra_Estella,12/07/2019,23.6,34.1,11.9,0.0,Villanueva_de_Yerri
Tierra_Estella,13/07/2019,22.7,30.8,14.7,0.0,Villanueva_de_Yerri
Tierra_Estella,14/07/2019,21.9,27.1,15.4,0.2,Villanueva_de_Yerri
Tierra_Estella,15/07/2019,20.2,27.6,13.0,0.0,Villanueva_de_Yerri
Tierra_Estella,16/07/2019,21.3,30.4,12.0,0.0,Villanueva_de_Yerri
Tierra_Estella,17/07/2019,21.1,28.3,15.9,0.1,Villanueva_de_Yerri
Tierra_Estella,18/07/2019,19.7,27.6,12.6,0.0,Villanueva_de_Yerri
Tierra_Estella,19/07/2019,22.7,33.1,9.5,0.0,Villanueva_de_Yerri
Tierra_Estella,20/07/2019,24.0,33.3,16.8,0.0,Villanueva_de_Yerri
Tierra_Estella,21/07/2019,24.3,33.9,16.0,6.2,Villanueva_de_Yerri
Tierra_Estella,22/07/2019,26.9,36.9,19.1,0.0,Villanueva_de_Yerri
Tierra_Estella,23/07/2019,27.4,37.9,16.2,0.0,Villanueva_de_Yerri
Tierra_Estella,24/07/2019,28.0,37.9,17.4,0.0,Villanueva_de_Yerri
Tierra_Estella,25/07/2019,26.9,37.6,17.5,0.0,Villanueva_de_Yerri
Tierra_Estella,26/07/2019,20.6,26.0,17.1,1.3,Villanueva_de_Yerri
Tierra_Estella,27/07/2019,16.1,19.0,13.8,4.7,Villanueva_de_Yerri
Tierra_Estella,28/07/2019,17.9,25.1,11.3,0.0,Villanueva_de_Yerri
Tierra_Estella,29/07/2019,19.5,31.9,9.6,0.0,Villanueva_de_Yerri
Tierra_Estella,30/07/2019,17.7,24.1,11.0,0.0,Villanueva_de_Yerri
Tierra_Estella,31/07/2019,18.2,27.6,7.7,0.0,Villanueva_de_Yerri
Tierra_Estella,01/08/2019,20.5,29.5,15.6,13.6,Villanueva_de_Yerri
Tierra_Estella,02/08/2019,21.0,30.7,13.1,0.0,Villanueva_de_Yerri
Tierra_Estella,03/08/2019,23.4,34.7,12.1,0.0,Villanueva_de_Yerri
Tierra_Estella,04/08/2019,23.5,34.3,16.3,0.0,Villanueva_de_Yerri
Tierra_Estella,05/08/2019,22.7,33.5,14.4,0.0,Villanueva_de_Yerri
Tierra_Estella,06/08/2019,23.5,33.3,15.8,0.0,Villanueva_de_Yerri
Tierra_Estella,07/08/2019,24.0,31.4,18.3,0.0,Villanueva_de_Yerri
Tierra_Estella,08/08/2019,25.7,33.5,16.7,0.0,Villanueva_de_Yerri
Tierra_Estella,09/08/2019,24.8,34.5,14.3,2.3,Villanueva_de_Yerri
Tierra_Estella,10/08/2019,19.6,27.8,12.2,1.3,Villanueva_de_Yerri
Tierra_Estella,11/08/2019,19.0,25.0,15.3,1.4,Villanueva_de_Yerri
Tierra_Estella,12/08/2019,16.7,22.0,13.0,0.0,Villanueva_de_Yerri
Tierra_Estella,13/08/2019,17.0,23.6,9.9,0.0,Villanueva_de_Yerri
Tierra_Estella,14/08/2019,19.7,30.9,8.0,0.0,Villanueva_de_Yerri
Tierra_Estella,15/08/2019,19.5,25.9,11.1,0.0,Villanueva_de_Yerri
Tierra_Estella,16/08/2019,20.5,32.7,7.7,0.0,Villanueva_de_Yerri
Tierra_Estella,17/08/2019,24.3,34.9,13.1,0.0,Villanueva_de_Yerri
Tierra_Estella,18/08/2019,22.4,30.4,15.6,0.0,Villanueva_de_Yerri
Tierra_Estella,19/08/2019,18.2,22.4,15.4,0.0,Villanueva_de_Yerri
Tierra_Estella,20/08/2019,18.0,24.2,14.4,0.5,Villanueva_de_Yerri
Tierra_Estella,21/08/2019,19.5,28.7,12.4,0.0,Villanueva_de_Yerri
Tierra_Estella,22/08/2019,20.7,30.3,10.5,0.0,Villanueva_de_Yerri
Tierra_Estella,23/08/2019,21.2,32.4,9.1,0.0,Villanueva_de_Yerri
Tierra_Estella,24/08/2019,23.7,33.9,13.5,0.0,Villanueva_de_Yerri
Tierra_Estella,25/08/2019,24.5,34.3,15.2,0.0,Villanueva_de_Yerri
Tierra_Estella,26/08/2019,21.7,30.3,14.7,10.2,Villanueva_de_Yerri
Tierra_Estella,27/08/2019,19.9,27.6,14.9,1.0,Villanueva_de_Yerri
Tierra_Estella,28/08/2019,21.8,30.8,13.7,0.0,Villanueva_de_Yerri
Tierra_Estella,29/08/2019,23.3,33.1,14.8,0.0,Villanueva_de_Yerri
Tierra_Estella,30/08/2019,24.5,34.3,15.6,0.0,Villanueva_de_Yerri
Tierra_Estella,31/08/2019,23.6,34.5,16.3,0.0,Villanueva_de_Yerri
Tierra_Estella,01/09/2019,19.7,25.8,14.7,0.0,Villanueva_de_Yerri
Tierra_Estella,02/09/2019,17.2,22.8,13.7,0.0,Villanueva_de_Yerri
Tierra_Estella,03/09/2019,18.8,28.5,10.5,0.0,Villanueva_de_Yerri
Tierra_Estella,04/09/2019,17.2,26.2,8.4,0.0,Villanueva_de_Yerri
Tierra_Estella,05/09/2019,16.1,20.7,12.7,0.0,Villanueva_de_Yerri
Tierra_Estella,06/09/2019,15.8,20.7,10.8,0.0,Villanueva_de_Yerri
Tierra_Estella,07/09/2019,16.7,23.6,10.1,0.0,Villanueva_de_Yerri
Tierra_Estella,08/09/2019,15.3,23.2,6.9,0.0,Villanueva_de_Yerri
Tierra_Estella,09/09/2019,14.5,24.1,4.3,0.0,Villanueva_de_Yerri
Tierra_Estella,10/09/2019,13.4,17.8,8.9,2.0,Villanueva_de_Yerri
Tierra_Estella,11/09/2019,17.5,22.6,13.6,0.0,Villanueva_de_Yerri
Tierra_Estella,12/09/2019,19.5,29.6,9.1,0.0,Villanueva_de_Yerri
Tierra_Estella,13/09/2019,18.9,29.3,10.9,0.0,Villanueva_de_Yerri
Tierra_Estella,14/09/2019,20.3,28.7,12.5,0.7,Villanueva_de_Yerri
Tierra_Estella,15/09/2019,18.6,27.0,14.5,8.8,Villanueva_de_Yerri
Tierra_Estella,16/09/2019,21.3,28.7,16.0,0.0,Villanueva_de_Yerri
Tierra_Estella,17/09/2019,21.5,30.2,14.4,0.0,Villanueva_de_Yerri
Tierra_Estella,18/09/2019,19.4,27.3,14.3,10.4,Villanueva_de_Yerri
Tierra_Estella,19/09/2019,19.5,27.5,11.7,0.0,Villanueva_de_Yerri
Tierra_Estella,20/09/2019,20.3,27.0,13.3,0.0,Villanueva_de_Yerri
Tierra_Estella,21/09/2019,20.0,24.4,15.8,4.8,Villanueva_de_Yerri
Tierra_Estella,22/09/2019,17.9,23.2,10.5,1.6,Villanueva_de_Yerri
Tierra_Estella,23/09/2019,15.5,22.9,8.7,0.0,Villanueva_de_Yerri
Tierra_Estella,24/09/2019,17.8,27.1,10.0,0.0,Villanueva_de_Yerri
Tierra_Estella,25/09/2019,17.6,23.2,12.4,0.0,Villanueva_de_Yerri
Tierra_Estella,26/09/2019,17.4,27.5,9.6,0.0,Villanueva_de_Yerri
Tierra_Estella,27/09/2019,18.3,28.1,10.3,0.0,Villanueva_de_Yerri
Tierra_Estella,28/09/2019,17.2,26.4,9.5,0.0,Villanueva_de_Yerri
Tierra_Estella,29/09/2019,19.4,29.8,10.8,0.0,Villanueva_de_Yerri
Tierra_Estella,30/09/2019,19.1,29.2,10.5,0.0,Villanueva_de_Yerri
Tierra_Estella,01/10/2019,17.9,25.8,11.0,0.0,Villanueva_de_Yerri
Tierra_Estella,02/10/2019,15.5,19.8,12.6,0.1,Villanueva_de_Yerri
Tierra_Estella,03/10/2019,15.4,23.6,7.2,0.0,Villanueva_de_Yerri
Tierra_Estella,04/10/2019,16.0,23.6,10.4,0.0,Villanueva_de_Yerri
Tierra_Estella,05/10/2019,16.1,25.2,8.3,0.0,Villanueva_de_Yerri
Tierra_Estella,06/10/2019,14.8,19.4,9.8,0.0,Villanueva_de_Yerri
Tierra_Estella,07/10/2019,15.6,23.9,8.1,0.0,Villanueva_de_Yerri
Tierra_Estella,08/10/2019,17.2,28.6,7.7,0.0,Villanueva_de_Yerri
Tierra_Estella,09/10/2019,14.4,19.9,8.6,0.0,Villanueva_de_Yerri
Tierra_Estella,10/10/2019,13.7,23.1,5.6,0.0,Villanueva_de_Yerri
Tierra_Estella,11/10/2019,16.5,25.4,7.4,0.0,Villanueva_de_Yerri
Tierra_Estella,12/10/2019,20.5,26.3,17.5,0.0,Villanueva_de_Yerri
Tierra_Estella,13/10/2019,20.8,26.9,16.8,0.0,Villanueva_de_Yerri
Tierra_Estella,14/10/2019,16.4,21.2,8.3,7.1,Villanueva_de_Yerri
Tierra_Estella,15/10/2019,10.3,18.7,4.8,2.2,Villanueva_de_Yerri
Tierra_Estella,16/10/2019,12.1,20.9,5.4,0.0,Villanueva_de_Yerri
Tierra_Estella,17/10/2019,14.0,20.7,10.8,0.6,Villanueva_de_Yerri
Tierra_Estella,18/10/2019,15.2,19.2,12.6,2.3,Villanueva_de_Yerri
Tierra_Estella,19/10/2019,15.3,20.0,11.0,1.6,Villanueva_de_Yerri
Tierra_Estella,20/10/2019,11.6,16.0,8.1,10.2,Villanueva_de_Yerri
Tierra_Estella,21/10/2019,9.5,15.1,4.8,0.0,Villanueva_de_Yerri
Tierra_Estella,22/10/2019,8.4,12.0,4.4,10.9,Villanueva_de_Yerri
Tierra_Estella,23/10/2019,11.0,13.9,8.2,2.2,Villanueva_de_Yerri
Tierra_Estella,24/10/2019,10.1,15.8,7.5,4.7,Villanueva_de_Yerri
Tierra_Estella,25/10/2019,12.2,22.2,5.6,0.0,Villanueva_de_Yerri
Tierra_Estella,26/10/2019,12.5,20.8,6.8,0.0,Villanueva_de_Yerri
Tierra_Estella,27/10/2019,12.7,19.2,7.4,0.0,Villanueva_de_Yerri
Tierra_Estella,28/10/2019,13.8,20.7,9.7,0.0,Villanueva_de_Yerri
Tierra_Estella,29/10/2019,14.1,22.6,8.5,0.0,Villanueva_de_Yerri
Tierra_Estella,30/10/2019,14.5,19.5,7.3,0.0,Villanueva_de_Yerri
Tierra_Estella,31/10/2019,15.5,20.4,11.2,0.0,Villanueva_de_Yerri
Tierra_Estella,01/11/2019,14.8,19.0,11.2,7.5,Villanueva_de_Yerri
Tierra_Estella,02/11/2019,15.5,19.0,13.0,1.6,Villanueva_de_Yerri
Tierra_Estella,03/11/2019,11.9,14.9,8.1,2.9,Villanueva_de_Yerri
Tierra_Estella,04/11/2019,12.7,19.8,5.4,3.0,Villanueva_de_Yerri
Tierra_Estella,05/11/2019,8.0,12.1,4.8,15.4,Villanueva_de_Yerri
Tierra_Estella,06/11/2019,9.6,15.0,7.3,4.0,Villanueva_de_Yerri
Tierra_Estella,07/11/2019,7.0,12.9,1.1,4.1,Villanueva_de_Yerri
Tierra_Estella,08/11/2019,4.2,5.8,0.7,40.5,Villanueva_de_Yerri
Tierra_Estella,09/11/2019,6.9,11.1,4.3,8.6,Villanueva_de_Yerri
Tierra_Estella,10/11/2019,3.8,5.7,2.1,20.2,Villanueva_de_Yerri
Tierra_Estella,11/11/2019,5.5,8.5,2.0,6.8,Villanueva_de_Yerri
Tierra_Estella,12/11/2019,8.2,12.2,3.8,1.0,Villanueva_de_Yerri
Tierra_Estella,13/11/2019,8.2,12.9,5.8,3.8,Villanueva_de_Yerri
Tierra_Estella,14/11/2019,5.6,9.8,2.9,4.3,Villanueva_de_Yerri
Tierra_Estella,15/11/2019,3.6,7.2,1.3,5.4,Villanueva_de_Yerri
Tierra_Estella,16/11/2019,3.2,6.3,0.1,1.8,Villanueva_de_Yerri
Tierra_Estella,17/11/2019,5.8,10.0,3.7,0.6,Villanueva_de_Yerri
Tierra_Estella,18/11/2019,4.8,8.7,0.3,1.4,Villanueva_de_Yerri
Tierra_Estella,19/11/2019,4.1,12.8,-0.8,0.0,Villanueva_de_Yerri
Tierra_Estella,20/11/2019,4.1,9.3,-0.7,1.8,Villanueva_de_Yerri
Tierra_Estella,21/11/2019,6.1,10.1,2.3,0.1,Villanueva_de_Yerri
Tierra_Estella,22/11/2019,7.5,9.5,4.4,6.3,Villanueva_de_Yerri
Tierra_Estella,23/11/2019,6.7,9.2,5.3,11.5,Villanueva_de_Yerri
Tierra_Estella,24/11/2019,7.2,10.8,4.3,3.4,Villanueva_de_Yerri
Tierra_Estella,25/11/2019,8.2,15.1,4.5,0.4,Villanueva_de_Yerri
Tierra_Estella,26/11/2019,9.8,14.2,3.9,7.1,Villanueva_de_Yerri
Tierra_Estella,27/11/2019,10.6,14.6,8.9,3.1,Villanueva_de_Yerri
Tierra_Estella,28/11/2019,10.8,12.5,9.5,2.2,Villanueva_de_Yerri
Tierra_Estella,29/11/2019,10.2,16.5,4.0,0.4,Villanueva_de_Yerri
Tierra_Estella,30/11/2019,7.6,12.6,3.0,9.7,Villanueva_de_Yerri
Tierra_Estella,01/12/2019,0.0,0.0,0.0,0.0,Villanueva_de_Yerri
Tierra_Estella,02/12/2019,0.0,0.0,0.0,0.0,Villanueva_de_Yerri
Tierra_Estella,03/12/2019,0.0,0.0,0.0,0.0,Villanueva_de_Yerri
Tierra_Estella,04/12/2019,0.0,0.0,0.0,0.0,Villanueva_de_Yerri
Tierra_Estella,05/12/2019,0.0,0.0,0.0,0.0,Villanueva_de_Yerri
Tierra_Estella,06/12/2019,0.0,0.0,0.0,0.0,Villanueva_de_Yerri
Tierra_Estella,07/12/2019,0.0,0.0,0.0,0.0,Villanueva_de_Yerri
Tierra_Estella,08/12/2019,0.0,0.0,0.0,0.0,Villanueva_de_Yerri
Tierra_Estella,09/12/2019,0.0,0.0,0.0,0.0,Villanueva_de_Yerri
Tierra_Estella,10/12/2019,0.0,0.0,0.0,0.0,Villanueva_de_Yerri
Tierra_Estella,11/12/2019,0.0,0.0,0.0,0.0,Villanueva_de_Yerri
Tierra_Estella,12/12/2019,0.0,0.0,0.0,0.0,Villanueva_de_Yerri
Tierra_Estella,13/12/2019,0.0,0.0,0.0,0.0,Villanueva_de_Yerri
Tierra_Estella,14/12/2019,0.0,0.0,0.0,0.0,Villanueva_de_Yerri
Tierra_Estella,15/12/2019,0.0,0.0,0.0,0.0,Villanueva_de_Yerri
Tierra_Estella,16/12/2019,0.0,0.0,0.0,0.0,Villanueva_de_Yerri
Tierra_Estella,17/12/2019,0.0,0.0,0.0,0.0,Villanueva_de_Yerri
Tierra_Estella,18/12/2019,0.0,0.0,0.0,0.0,Villanueva_de_Yerri
Tierra_Estella,19/12/2019,0.0,0.0,0.0,0.0,Villanueva_de_Yerri
Tierra_Estella,20/12/2019,0.0,0.0,0.0,0.0,Villanueva_de_Yerri
Tierra_Estella,21/12/2019,0.0,0.0,0.0,0.0,Villanueva_de_Yerri
Tierra_Estella,22/12/2019,0.0,0.0,0.0,0.0,Villanueva_de_Yerri
Tierra_Estella,23/12/2019,0.0,0.0,0.0,0.0,Villanueva_de_Yerri
Tierra_Estella,24/12/2019,0.0,0.0,0.0,0.0,Villanueva_de_Yerri
Tierra_Estella,25/12/2019,0.0,0.0,0.0,0.0,Villanueva_de_Yerri
Tierra_Estella,26/12/2019,0.0,0.0,0.0,0.0,Villanueva_de_Yerri
Tierra_Estella,27/12/2019,0.0,0.0,0.0,0.0,Villanueva_de_Yerri
Tierra_Estella,28/12/2019,0.0,0.0,0.0,0.0,Villanueva_de_Yerri
Tierra_Estella,29/12/2019,0.0,0.0,0.0,0.0,Villanueva_de_Yerri
Tierra_Estella,30/12/2019,0.0,0.0,0.0,0.0,Villanueva_de_Yerri
Tierra_Estella,31/12/2019,0.0,0.0,0.0,0.0,Villanueva_de_Yerri
