Comarca,Fecha, Temperatura media, Temperatura maxima, Temperatura minima, Precipitacion acumulada,Localidad
Navarra_Media_Oriental,01/01/2012,6.7,13.6,0.3,0.0,Artajona
Navarra_Media_Oriental,02/01/2012,7.0,12.2,0.2,0.5,Artajona
Navarra_Media_Oriental,03/01/2012,3.5,13.0,-3.0,0.0,Artajona
Navarra_Media_Oriental,04/01/2012,7.2,14.9,0.1,0.0,Artajona
Navarra_Media_Oriental,05/01/2012,7.1,15.0,-2.5,0.0,Artajona
Navarra_Media_Oriental,06/01/2012,9.6,12.8,1.1,0.0,Artajona
Navarra_Media_Oriental,07/01/2012,8.2,13.9,0.7,0.0,Artajona
Navarra_Media_Oriental,08/01/2012,9.9,13.2,7.5,0.0,Artajona
Navarra_Media_Oriental,09/01/2012,6.6,10.9,0.6,0.0,Artajona
Navarra_Media_Oriental,10/01/2012,0.3,9.7,-5.6,0.0,Artajona
Navarra_Media_Oriental,11/01/2012,-0.8,1.9,-5.4,0.1,Artajona
Navarra_Media_Oriental,12/01/2012,0.7,2.3,-1.2,0.1,Artajona
Navarra_Media_Oriental,13/01/2012,3.2,9.2,-1.8,0.0,Artajona
Navarra_Media_Oriental,14/01/2012,2.7,8.0,-4.0,0.0,Artajona
Navarra_Media_Oriental,15/01/2012,-0.4,5.4,-6.9,0.4,Artajona
Navarra_Media_Oriental,16/01/2012,2.5,8.8,-2.1,9.4,Artajona
Navarra_Media_Oriental,17/01/2012,2.0,10.8,-4.1,0.1,Artajona
Navarra_Media_Oriental,18/01/2012,3.9,13.8,-4.6,0.1,Artajona
Navarra_Media_Oriental,19/01/2012,9.8,16.1,3.8,0.0,Artajona
Navarra_Media_Oriental,20/01/2012,9.8,15.5,2.9,0.0,Artajona
Navarra_Media_Oriental,21/01/2012,8.6,14.2,1.5,0.0,Artajona
Navarra_Media_Oriental,22/01/2012,9.9,13.5,6.0,0.0,Artajona
Navarra_Media_Oriental,23/01/2012,10.4,14.2,7.8,0.0,Artajona
Navarra_Media_Oriental,24/01/2012,7.8,11.5,1.5,0.0,Artajona
Navarra_Media_Oriental,25/01/2012,1.9,11.0,-4.4,0.0,Artajona
Navarra_Media_Oriental,26/01/2012,3.9,12.8,-5.2,0.0,Artajona
Navarra_Media_Oriental,27/01/2012,5.2,7.6,-0.1,2.1,Artajona
Navarra_Media_Oriental,28/01/2012,3.9,9.2,-1.7,3.4,Artajona
Navarra_Media_Oriental,29/01/2012,3.3,6.5,1.6,2.8,Artajona
Navarra_Media_Oriental,30/01/2012,3.4,9.5,-2.0,0.0,Artajona
Navarra_Media_Oriental,31/01/2012,4.2,10.8,-2.6,0.0,Artajona
Navarra_Media_Oriental,01/02/2012,4.7,9.4,0.3,1.1,Artajona
Navarra_Media_Oriental,02/02/2012,-0.9,1.8,-3.6,0.0,Artajona
Navarra_Media_Oriental,03/02/2012,-1.9,0.8,-4.1,0.0,Artajona
Navarra_Media_Oriental,04/02/2012,-0.5,4.1,-4.6,0.0,Artajona
Navarra_Media_Oriental,05/02/2012,3.0,8.8,-1.9,5.9,Artajona
Navarra_Media_Oriental,06/02/2012,4.0,6.2,1.1,0.0,Artajona
Navarra_Media_Oriental,07/02/2012,1.4,4.9,-2.0,0.0,Artajona
Navarra_Media_Oriental,08/02/2012,-2.1,0.7,-3.8,0.0,Artajona
Navarra_Media_Oriental,09/02/2012,-0.1,2.7,-2.9,0.0,Artajona
Navarra_Media_Oriental,10/02/2012,1.5,6.1,-2.4,0.0,Artajona
Navarra_Media_Oriental,11/02/2012,-1.1,3.5,-7.9,0.0,Artajona
Navarra_Media_Oriental,12/02/2012,-1.3,2.8,-7.1,0.0,Artajona
Navarra_Media_Oriental,13/02/2012,2.0,5.3,-4.3,0.0,Artajona
Navarra_Media_Oriental,14/02/2012,3.8,7.3,1.3,2.4,Artajona
Navarra_Media_Oriental,15/02/2012,5.3,10.8,0.8,0.1,Artajona
Navarra_Media_Oriental,16/02/2012,6.3,9.2,4.6,0.1,Artajona
Navarra_Media_Oriental,17/02/2012,5.4,10.8,-3.6,0.0,Artajona
Navarra_Media_Oriental,18/02/2012,3.0,13.1,-7.0,0.0,Artajona
Navarra_Media_Oriental,19/02/2012,6.0,10.3,1.5,0.0,Artajona
Navarra_Media_Oriental,20/02/2012,4.1,8.8,-0.6,0.0,Artajona
Navarra_Media_Oriental,21/02/2012,4.2,10.3,-1.7,0.0,Artajona
Navarra_Media_Oriental,22/02/2012,5.2,14.4,-7.6,0.0,Artajona
Navarra_Media_Oriental,23/02/2012,9.5,16.7,-0.9,0.0,Artajona
Navarra_Media_Oriental,24/02/2012,10.4,19.9,-0.3,0.0,Artajona
Navarra_Media_Oriental,25/02/2012,8.5,15.5,-0.2,0.0,Artajona
Navarra_Media_Oriental,26/02/2012,11.1,14.4,8.7,0.0,Artajona
Navarra_Media_Oriental,27/02/2012,10.2,15.0,7.1,0.0,Artajona
Navarra_Media_Oriental,28/02/2012,7.3,18.1,-2.0,0.0,Artajona
Navarra_Media_Oriental,29/02/2012,8.5,20.5,-2.9,0.0,Artajona
Navarra_Media_Oriental,01/03/2012,7.6,19.5,-1.2,0.0,Artajona
Navarra_Media_Oriental,02/03/2012,8.3,18.0,-3.1,0.0,Artajona
Navarra_Media_Oriental,03/03/2012,9.4,18.6,0.1,0.0,Artajona
Navarra_Media_Oriental,04/03/2012,8.1,15.9,2.9,1.6,Artajona
Navarra_Media_Oriental,05/03/2012,5.5,9.7,0.9,0.0,Artajona
Navarra_Media_Oriental,06/03/2012,5.0,9.9,0.4,0.4,Artajona
Navarra_Media_Oriental,07/03/2012,7.1,13.3,-3.0,0.0,Artajona
Navarra_Media_Oriental,08/03/2012,8.7,11.2,5.6,0.0,Artajona
Navarra_Media_Oriental,09/03/2012,8.5,13.8,4.7,0.0,Artajona
Navarra_Media_Oriental,10/03/2012,8.2,15.7,-1.3,0.0,Artajona
Navarra_Media_Oriental,11/03/2012,9.7,14.0,6.0,0.0,Artajona
Navarra_Media_Oriental,12/03/2012,11.6,19.7,3.9,0.0,Artajona
Navarra_Media_Oriental,13/03/2012,11.3,25.5,-0.8,0.0,Artajona
Navarra_Media_Oriental,14/03/2012,12.1,26.4,0.7,0.0,Artajona
Navarra_Media_Oriental,15/03/2012,12.1,24.4,1.2,0.0,Artajona
Navarra_Media_Oriental,16/03/2012,12.1,21.7,0.5,0.0,Artajona
Navarra_Media_Oriental,17/03/2012,11.1,20.1,1.3,0.3,Artajona
Navarra_Media_Oriental,18/03/2012,8.0,14.4,1.1,0.0,Artajona
Navarra_Media_Oriental,19/03/2012,6.4,11.9,-0.5,0.0,Artajona
Navarra_Media_Oriental,20/03/2012,7.7,11.7,4.3,0.0,Artajona
Navarra_Media_Oriental,21/03/2012,6.2,7.7,3.8,23.6,Artajona
Navarra_Media_Oriental,22/03/2012,6.3,15.3,-1.0,0.1,Artajona
Navarra_Media_Oriental,23/03/2012,7.2,16.9,-1.7,0.1,Artajona
Navarra_Media_Oriental,24/03/2012,9.8,20.2,0.7,0.0,Artajona
Navarra_Media_Oriental,25/03/2012,10.9,22.3,-0.3,0.0,Artajona
Navarra_Media_Oriental,26/03/2012,12.4,21.9,0.7,0.0,Artajona
Navarra_Media_Oriental,27/03/2012,11.5,21.3,1.4,0.0,Artajona
Navarra_Media_Oriental,28/03/2012,11.3,22.9,-0.1,0.0,Artajona
Navarra_Media_Oriental,29/03/2012,13.1,23.4,0.9,0.0,Artajona
Navarra_Media_Oriental,30/03/2012,15.2,23.1,3.3,0.0,Artajona
Navarra_Media_Oriental,31/03/2012,13.9,23.4,2.7,0.0,Artajona
Navarra_Media_Oriental,01/04/2012,12.9,21.9,3.2,0.0,Artajona
Navarra_Media_Oriental,02/04/2012,13.8,22.6,3.2,0.0,Artajona
Navarra_Media_Oriental,03/04/2012,10.1,11.1,8.3,3.2,Artajona
Navarra_Media_Oriental,04/04/2012,10.4,15.5,7.8,0.3,Artajona
Navarra_Media_Oriental,05/04/2012,9.6,12.9,7.4,3.7,Artajona
Navarra_Media_Oriental,06/04/2012,8.1,12.9,1.9,4.7,Artajona
Navarra_Media_Oriental,07/04/2012,6.1,10.8,-1.0,0.2,Artajona
Navarra_Media_Oriental,08/04/2012,10.0,14.9,5.8,0.0,Artajona
Navarra_Media_Oriental,09/04/2012,13.2,21.3,5.0,0.0,Artajona
Navarra_Media_Oriental,10/04/2012,11.6,18.2,2.7,2.8,Artajona
Navarra_Media_Oriental,11/04/2012,8.7,14.5,0.3,0.0,Artajona
Navarra_Media_Oriental,12/04/2012,8.4,13.7,2.3,5.0,Artajona
Navarra_Media_Oriental,13/04/2012,7.5,12.9,0.4,0.0,Artajona
Navarra_Media_Oriental,14/04/2012,7.4,10.9,4.6,6.9,Artajona
Navarra_Media_Oriental,15/04/2012,6.5,10.3,1.7,1.1,Artajona
Navarra_Media_Oriental,16/04/2012,5.9,9.4,1.6,0.6,Artajona
Navarra_Media_Oriental,17/04/2012,8.1,16.9,-0.3,6.3,Artajona
Navarra_Media_Oriental,18/04/2012,8.6,12.5,3.1,5.2,Artajona
Navarra_Media_Oriental,19/04/2012,9.2,13.2,6.4,0.4,Artajona
Navarra_Media_Oriental,20/04/2012,10.1,15.3,6.1,2.6,Artajona
Navarra_Media_Oriental,21/04/2012,9.9,18.3,5.3,1.4,Artajona
Navarra_Media_Oriental,22/04/2012,10.0,15.2,5.1,0.7,Artajona
Navarra_Media_Oriental,23/04/2012,8.9,17.1,2.2,0.1,Artajona
Navarra_Media_Oriental,24/04/2012,9.4,15.5,2.0,0.0,Artajona
Navarra_Media_Oriental,25/04/2012,14.6,21.8,9.6,0.0,Artajona
Navarra_Media_Oriental,26/04/2012,11.7,16.9,8.2,0.4,Artajona
Navarra_Media_Oriental,27/04/2012,13.1,22.5,4.7,0.4,Artajona
Navarra_Media_Oriental,28/04/2012,9.0,10.4,7.1,0.9,Artajona
Navarra_Media_Oriental,29/04/2012,9.6,14.5,6.9,0.1,Artajona
Navarra_Media_Oriental,30/04/2012,9.7,16.2,4.5,0.0,Artajona
Navarra_Media_Oriental,01/05/2012,11.1,17.7,4.0,0.1,Artajona
Navarra_Media_Oriental,02/05/2012,13.7,20.9,4.0,0.0,Artajona
Navarra_Media_Oriental,03/05/2012,15.8,22.7,8.6,0.0,Artajona
Navarra_Media_Oriental,04/05/2012,12.8,19.1,6.7,0.0,Artajona
Navarra_Media_Oriental,05/05/2012,11.3,17.3,4.7,0.0,Artajona
Navarra_Media_Oriental,06/05/2012,11.9,18.1,5.0,0.0,Artajona
Navarra_Media_Oriental,07/05/2012,14.4,23.7,2.8,0.4,Artajona
Navarra_Media_Oriental,08/05/2012,17.5,23.1,12.5,0.6,Artajona
Navarra_Media_Oriental,09/05/2012,20.0,28.0,10.7,0.0,Artajona
Navarra_Media_Oriental,10/05/2012,22.6,30.6,13.3,0.0,Artajona
Navarra_Media_Oriental,11/05/2012,22.1,32.1,10.7,0.0,Artajona
Navarra_Media_Oriental,12/05/2012,19.3,24.6,14.5,0.0,Artajona
Navarra_Media_Oriental,13/05/2012,16.3,20.3,12.1,0.0,Artajona
Navarra_Media_Oriental,14/05/2012,15.6,24.6,7.0,0.0,Artajona
Navarra_Media_Oriental,15/05/2012,12.3,19.4,4.6,0.0,Artajona
Navarra_Media_Oriental,16/05/2012,14.4,24.2,6.8,0.0,Artajona
Navarra_Media_Oriental,17/05/2012,16.7,24.8,8.9,0.0,Artajona
Navarra_Media_Oriental,18/05/2012,16.7,24.9,11.8,2.4,Artajona
Navarra_Media_Oriental,19/05/2012,13.6,18.4,10.7,4.0,Artajona
Navarra_Media_Oriental,20/05/2012,10.4,12.5,8.1,4.0,Artajona
Navarra_Media_Oriental,21/05/2012,10.5,11.9,8.2,0.0,Artajona
Navarra_Media_Oriental,22/05/2012,13.7,19.1,8.4,0.2,Artajona
Navarra_Media_Oriental,23/05/2012,17.0,25.5,7.4,0.0,Artajona
Navarra_Media_Oriental,24/05/2012,21.0,30.0,11.1,0.0,Artajona
Navarra_Media_Oriental,25/05/2012,22.8,31.9,10.2,0.1,Artajona
Navarra_Media_Oriental,26/05/2012,18.7,26.1,11.8,0.0,Artajona
Navarra_Media_Oriental,27/05/2012,18.6,27.2,9.7,0.0,Artajona
Navarra_Media_Oriental,28/05/2012,19.5,27.6,11.2,0.0,Artajona
Navarra_Media_Oriental,29/05/2012,21.4,30.6,12.8,0.2,Artajona
Navarra_Media_Oriental,30/05/2012,21.7,32.5,13.3,0.0,Artajona
Navarra_Media_Oriental,31/05/2012,22.6,32.9,14.3,0.0,Artajona
Navarra_Media_Oriental,01/06/2012,25.0,36.5,13.2,0.0,Artajona
Navarra_Media_Oriental,02/06/2012,22.6,35.3,13.8,5.9,Artajona
Navarra_Media_Oriental,03/06/2012,16.5,20.0,13.7,3.6,Artajona
Navarra_Media_Oriental,04/06/2012,17.2,22.9,11.4,0.0,Artajona
Navarra_Media_Oriental,05/06/2012,20.5,31.0,8.8,0.8,Artajona
Navarra_Media_Oriental,06/06/2012,21.8,29.8,14.7,1.7,Artajona
Navarra_Media_Oriental,07/06/2012,21.6,28.3,14.7,0.0,Artajona
Navarra_Media_Oriental,08/06/2012,15.7,19.9,11.3,0.0,Artajona
Navarra_Media_Oriental,09/06/2012,15.7,23.3,6.0,1.0,Artajona
Navarra_Media_Oriental,10/06/2012,18.3,24.8,15.1,3.2,Artajona
Navarra_Media_Oriental,11/06/2012,15.7,24.0,10.5,3.5,Artajona
Navarra_Media_Oriental,12/06/2012,14.2,20.5,8.0,1.6,Artajona
Navarra_Media_Oriental,13/06/2012,16.1,21.8,10.9,0.1,Artajona
Navarra_Media_Oriental,14/06/2012,21.5,31.4,8.6,0.0,Artajona
Navarra_Media_Oriental,15/06/2012,23.0,33.8,11.6,0.0,Artajona
Navarra_Media_Oriental,16/06/2012,21.0,32.9,11.9,0.2,Artajona
Navarra_Media_Oriental,17/06/2012,23.3,33.3,11.8,0.0,Artajona
Navarra_Media_Oriental,18/06/2012,18.8,23.1,15.9,2.2,Artajona
Navarra_Media_Oriental,19/06/2012,18.7,23.9,14.9,8.6,Artajona
Navarra_Media_Oriental,20/06/2012,22.9,31.5,13.6,0.0,Artajona
Navarra_Media_Oriental,21/06/2012,19.3,29.6,13.5,0.0,Artajona
Navarra_Media_Oriental,22/06/2012,17.4,24.8,10.2,0.0,Artajona
Navarra_Media_Oriental,23/06/2012,21.1,31.0,12.0,0.0,Artajona
Navarra_Media_Oriental,24/06/2012,22.8,32.5,14.7,0.0,Artajona
Navarra_Media_Oriental,25/06/2012,23.4,32.2,11.3,0.0,Artajona
Navarra_Media_Oriental,26/06/2012,26.8,36.4,16.7,0.0,Artajona
Navarra_Media_Oriental,27/06/2012,27.6,37.1,15.6,1.5,Artajona
Navarra_Media_Oriental,28/06/2012,24.9,37.5,17.2,0.0,Artajona
Navarra_Media_Oriental,29/06/2012,21.9,33.5,14.8,0.0,Artajona
Navarra_Media_Oriental,30/06/2012,18.8,29.0,11.9,0.0,Artajona
Navarra_Media_Oriental,01/07/2012,15.7,19.7,10.5,0.0,Artajona
Navarra_Media_Oriental,02/07/2012,18.2,27.0,7.3,0.0,Artajona
Navarra_Media_Oriental,03/07/2012,23.1,33.5,11.9,0.0,Artajona
Navarra_Media_Oriental,04/07/2012,21.5,28.6,16.3,0.0,Artajona
Navarra_Media_Oriental,05/07/2012,18.4,23.0,12.0,0.0,Artajona
Navarra_Media_Oriental,06/07/2012,19.2,27.0,10.9,0.0,Artajona
Navarra_Media_Oriental,07/07/2012,22.5,32.2,15.2,0.0,Artajona
Navarra_Media_Oriental,08/07/2012,19.7,26.0,12.0,0.0,Artajona
Navarra_Media_Oriental,09/07/2012,20.3,29.4,15.3,0.0,Artajona
Navarra_Media_Oriental,10/07/2012,18.9,24.6,15.4,0.0,Artajona
Navarra_Media_Oriental,11/07/2012,17.8,22.9,11.0,0.3,Artajona
Navarra_Media_Oriental,12/07/2012,19.7,31.8,9.9,0.0,Artajona
Navarra_Media_Oriental,13/07/2012,22.0,34.4,12.3,0.0,Artajona
Navarra_Media_Oriental,14/07/2012,18.7,23.3,15.7,0.3,Artajona
Navarra_Media_Oriental,15/07/2012,18.0,24.4,11.3,0.0,Artajona
Navarra_Media_Oriental,16/07/2012,19.9,29.0,9.2,0.0,Artajona
Navarra_Media_Oriental,17/07/2012,25.2,35.2,13.2,0.0,Artajona
Navarra_Media_Oriental,18/07/2012,25.2,38.3,11.7,0.0,Artajona
Navarra_Media_Oriental,19/07/2012,20.0,26.1,15.7,0.0,Artajona
Navarra_Media_Oriental,20/07/2012,19.2,25.0,13.2,0.0,Artajona
Navarra_Media_Oriental,21/07/2012,19.0,24.2,14.1,0.0,Artajona
Navarra_Media_Oriental,22/07/2012,20.3,26.0,16.1,0.0,Artajona
Navarra_Media_Oriental,23/07/2012,22.3,30.0,14.9,0.0,Artajona
Navarra_Media_Oriental,24/07/2012,23.8,32.6,12.7,0.0,Artajona
Navarra_Media_Oriental,25/07/2012,30.2,35.6,14.3,0.1,Artajona
Navarra_Media_Oriental,26/07/2012,27.2,36.8,19.1,0.0,Artajona
Navarra_Media_Oriental,27/07/2012,22.1,32.4,15.7,1.9,Artajona
Navarra_Media_Oriental,28/07/2012,20.1,25.6,16.0,0.0,Artajona
Navarra_Media_Oriental,29/07/2012,20.3,28.2,14.5,0.0,Artajona
Navarra_Media_Oriental,30/07/2012,21.9,32.4,13.5,0.0,Artajona
Navarra_Media_Oriental,31/07/2012,25.7,35.8,14.3,0.0,Artajona
Navarra_Media_Oriental,01/08/2012,23.8,34.3,15.5,0.0,Artajona
Navarra_Media_Oriental,02/08/2012,21.3,28.7,16.3,0.0,Artajona
Navarra_Media_Oriental,03/08/2012,21.0,28.3,15.3,0.0,Artajona
Navarra_Media_Oriental,04/08/2012,21.3,29.6,15.6,0.0,Artajona
Navarra_Media_Oriental,05/08/2012,17.7,26.0,13.7,1.4,Artajona
Navarra_Media_Oriental,06/08/2012,18.3,26.1,10.0,0.1,Artajona
Navarra_Media_Oriental,07/08/2012,22.3,32.4,10.9,0.0,Artajona
Navarra_Media_Oriental,08/08/2012,23.8,34.9,12.8,0.0,Artajona
Navarra_Media_Oriental,09/08/2012,26.2,39.4,13.3,0.0,Artajona
Navarra_Media_Oriental,10/08/2012,28.0,40.3,16.0,0.0,Artajona
Navarra_Media_Oriental,11/08/2012,24.8,33.8,18.3,0.0,Artajona
Navarra_Media_Oriental,12/08/2012,21.5,27.2,16.9,0.0,Artajona
Navarra_Media_Oriental,13/08/2012,22.5,32.7,12.9,0.0,Artajona
Navarra_Media_Oriental,14/08/2012,25.7,34.6,14.5,0.0,Artajona
Navarra_Media_Oriental,15/08/2012,22.1,27.5,12.8,0.0,Artajona
Navarra_Media_Oriental,16/08/2012,21.9,34.8,9.6,0.0,Artajona
Navarra_Media_Oriental,17/08/2012,27.1,38.3,15.9,0.0,Artajona
Navarra_Media_Oriental,18/08/2012,28.8,38.7,16.9,0.0,Artajona
Navarra_Media_Oriental,19/08/2012,27.8,37.6,18.3,0.0,Artajona
Navarra_Media_Oriental,20/08/2012,27.6,38.5,17.1,0.0,Artajona
Navarra_Media_Oriental,21/08/2012,25.7,38.5,16.9,0.0,Artajona
Navarra_Media_Oriental,22/08/2012,23.8,33.6,18.6,0.0,Artajona
Navarra_Media_Oriental,23/08/2012,23.8,35.8,16.9,0.0,Artajona
Navarra_Media_Oriental,24/08/2012,22.9,32.3,13.9,0.0,Artajona
Navarra_Media_Oriental,25/08/2012,19.6,24.2,15.4,0.0,Artajona
Navarra_Media_Oriental,26/08/2012,19.2,27.5,9.2,0.0,Artajona
Navarra_Media_Oriental,27/08/2012,22.9,34.2,10.2,0.0,Artajona
Navarra_Media_Oriental,28/08/2012,24.0,34.2,14.3,0.0,Artajona
Navarra_Media_Oriental,29/08/2012,22.7,31.9,17.9,0.0,Artajona
Navarra_Media_Oriental,30/08/2012,18.0,22.3,12.4,0.0,Artajona
Navarra_Media_Oriental,31/08/2012,15.5,21.4,10.0,0.0,Artajona
Navarra_Media_Oriental,01/09/2012,15.2,20.4,10.0,0.0,Artajona
Navarra_Media_Oriental,02/09/2012,16.5,22.4,11.5,0.0,Artajona
Navarra_Media_Oriental,03/09/2012,17.7,22.7,12.4,0.0,Artajona
Navarra_Media_Oriental,04/09/2012,18.3,23.4,11.9,0.0,Artajona
Navarra_Media_Oriental,05/09/2012,20.4,26.0,14.9,0.0,Artajona
Navarra_Media_Oriental,06/09/2012,21.0,30.2,10.3,0.0,Artajona
Navarra_Media_Oriental,07/09/2012,21.4,33.2,11.0,0.0,Artajona
Navarra_Media_Oriental,08/09/2012,21.2,32.8,12.0,0.0,Artajona
Navarra_Media_Oriental,09/09/2012,21.5,33.5,10.6,0.0,Artajona
Navarra_Media_Oriental,10/09/2012,21.9,30.5,13.5,0.0,Artajona
Navarra_Media_Oriental,11/09/2012,21.5,31.8,12.9,0.0,Artajona
Navarra_Media_Oriental,12/09/2012,18.3,24.4,13.8,0.0,Artajona
Navarra_Media_Oriental,13/09/2012,16.1,21.6,10.2,0.0,Artajona
Navarra_Media_Oriental,14/09/2012,16.7,23.7,9.8,0.0,Artajona
Navarra_Media_Oriental,15/09/2012,18.9,28.8,10.9,0.0,Artajona
Navarra_Media_Oriental,16/09/2012,18.3,31.2,6.6,0.0,Artajona
Navarra_Media_Oriental,17/09/2012,21.0,30.1,12.8,0.0,Artajona
Navarra_Media_Oriental,18/09/2012,18.7,22.8,15.8,0.0,Artajona
Navarra_Media_Oriental,19/09/2012,16.7,21.9,7.8,0.0,Artajona
Navarra_Media_Oriental,20/09/2012,16.9,28.1,6.0,0.0,Artajona
Navarra_Media_Oriental,21/09/2012,21.2,29.7,14.9,0.0,Artajona
Navarra_Media_Oriental,22/09/2012,20.9,29.9,12.4,0.0,Artajona
Navarra_Media_Oriental,23/09/2012,22.4,31.6,18.8,0.0,Artajona
Navarra_Media_Oriental,24/09/2012,18.7,25.9,10.6,0.0,Artajona
Navarra_Media_Oriental,25/09/2012,15.5,21.9,9.0,2.4,Artajona
Navarra_Media_Oriental,26/09/2012,13.7,20.1,7.6,1.7,Artajona
Navarra_Media_Oriental,27/09/2012,14.1,22.7,5.1,0.0,Artajona
Navarra_Media_Oriental,28/09/2012,15.9,20.5,10.7,3.6,Artajona
Navarra_Media_Oriental,29/09/2012,14.0,16.5,11.4,8.4,Artajona
Navarra_Media_Oriental,30/09/2012,13.8,18.9,6.8,0.0,Artajona
Navarra_Media_Oriental,01/10/2012,11.9,22.9,2.3,0.0,Artajona
Navarra_Media_Oriental,02/10/2012,14.7,25.5,3.8,0.0,Artajona
Navarra_Media_Oriental,03/10/2012,15.2,26.1,5.7,0.0,Artajona
Navarra_Media_Oriental,04/10/2012,15.1,25.4,7.2,0.0,Artajona
Navarra_Media_Oriental,05/10/2012,15.6,27.0,7.4,0.0,Artajona
Navarra_Media_Oriental,06/10/2012,16.5,26.5,7.2,0.0,Artajona
Navarra_Media_Oriental,07/10/2012,19.2,27.1,12.3,0.0,Artajona
Navarra_Media_Oriental,08/10/2012,19.4,30.4,11.8,0.0,Artajona
Navarra_Media_Oriental,09/10/2012,19.5,29.1,11.2,0.0,Artajona
Navarra_Media_Oriental,10/10/2012,19.6,26.9,14.9,16.2,Artajona
Navarra_Media_Oriental,11/10/2012,16.4,24.5,12.7,8.7,Artajona
Navarra_Media_Oriental,12/10/2012,13.3,17.3,8.4,2.5,Artajona
Navarra_Media_Oriental,13/10/2012,11.0,19.5,4.1,0.0,Artajona
Navarra_Media_Oriental,14/10/2012,10.1,18.5,4.7,7.8,Artajona
Navarra_Media_Oriental,15/10/2012,10.3,16.9,5.2,0.0,Artajona
Navarra_Media_Oriental,16/10/2012,12.1,19.5,4.8,0.1,Artajona
Navarra_Media_Oriental,17/10/2012,16.8,22.2,12.4,0.0,Artajona
Navarra_Media_Oriental,18/10/2012,19.3,21.7,17.1,0.0,Artajona
Navarra_Media_Oriental,19/10/2012,14.5,21.4,12.0,30.4,Artajona
Navarra_Media_Oriental,20/10/2012,12.6,13.4,11.8,34.1,Artajona
Navarra_Media_Oriental,21/10/2012,13.8,17.1,10.6,13.1,Artajona
Navarra_Media_Oriental,22/10/2012,13.7,20.3,8.7,2.9,Artajona
Navarra_Media_Oriental,23/10/2012,12.5,21.6,6.9,0.1,Artajona
Navarra_Media_Oriental,24/10/2012,13.6,21.0,6.4,1.8,Artajona
Navarra_Media_Oriental,25/10/2012,15.7,18.8,13.6,20.6,Artajona
Navarra_Media_Oriental,26/10/2012,14.5,16.8,11.7,3.8,Artajona
Navarra_Media_Oriental,27/10/2012,8.9,13.7,3.2,6.0,Artajona
Navarra_Media_Oriental,28/10/2012,5.1,8.9,0.7,0.1,Artajona
Navarra_Media_Oriental,29/10/2012,4.8,13.8,-1.6,0.1,Artajona
Navarra_Media_Oriental,30/10/2012,5.3,11.9,-2.0,0.0,Artajona
Navarra_Media_Oriental,31/10/2012,8.8,16.6,2.0,0.0,Artajona
Navarra_Media_Oriental,01/11/2012,8.9,16.5,1.6,0.6,Artajona
Navarra_Media_Oriental,02/11/2012,12.8,19.9,7.9,0.0,Artajona
Navarra_Media_Oriental,03/11/2012,13.8,15.7,12.2,0.8,Artajona
Navarra_Media_Oriental,04/11/2012,11.3,13.2,6.3,6.0,Artajona
Navarra_Media_Oriental,05/11/2012,7.2,14.3,1.5,0.1,Artajona
Navarra_Media_Oriental,06/11/2012,6.4,12.2,2.0,0.1,Artajona
Navarra_Media_Oriental,07/11/2012,5.3,11.4,-2.0,0.3,Artajona
Navarra_Media_Oriental,08/11/2012,9.8,13.1,6.9,1.0,Artajona
Navarra_Media_Oriental,09/11/2012,12.2,15.5,9.3,1.4,Artajona
Navarra_Media_Oriental,10/11/2012,11.1,15.6,7.4,1.8,Artajona
Navarra_Media_Oriental,11/11/2012,8.0,11.9,4.7,0.0,Artajona
Navarra_Media_Oriental,12/11/2012,8.0,12.6,2.5,0.0,Artajona
Navarra_Media_Oriental,13/11/2012,6.2,16.0,-1.7,0.0,Artajona
Navarra_Media_Oriental,14/11/2012,8.9,18.7,1.9,0.0,Artajona
Navarra_Media_Oriental,15/11/2012,9.3,17.9,3.3,0.0,Artajona
Navarra_Media_Oriental,16/11/2012,9.8,16.3,4.4,0.0,Artajona
Navarra_Media_Oriental,17/11/2012,12.5,16.3,10.5,1.9,Artajona
Navarra_Media_Oriental,18/11/2012,10.4,14.7,3.5,10.8,Artajona
Navarra_Media_Oriental,19/11/2012,5.8,14.4,0.5,0.0,Artajona
Navarra_Media_Oriental,20/11/2012,6.4,13.5,0.2,0.0,Artajona
Navarra_Media_Oriental,21/11/2012,9.9,13.1,4.0,0.1,Artajona
Navarra_Media_Oriental,22/11/2012,5.2,13.4,-0.8,0.0,Artajona
Navarra_Media_Oriental,23/11/2012,6.5,14.8,-0.4,0.1,Artajona
Navarra_Media_Oriental,24/11/2012,11.1,14.3,6.7,0.0,Artajona
Navarra_Media_Oriental,25/11/2012,11.5,14.5,8.8,0.9,Artajona
Navarra_Media_Oriental,26/11/2012,8.8,12.5,3.9,10.1,Artajona
Navarra_Media_Oriental,27/11/2012,6.0,10.0,3.3,0.0,Artajona
Navarra_Media_Oriental,28/11/2012,4.6,7.0,2.7,29.0,Artajona
Navarra_Media_Oriental,29/11/2012,3.9,6.0,1.8,9.4,Artajona
Navarra_Media_Oriental,30/11/2012,3.6,5.7,1.6,0.8,Artajona
Navarra_Media_Oriental,01/12/2012,3.1,6.2,0.7,0.0,Artajona
Navarra_Media_Oriental,02/12/2012,5.3,11.1,-2.0,0.0,Artajona
Navarra_Media_Oriental,03/12/2012,8.3,14.4,3.9,0.0,Artajona
Navarra_Media_Oriental,04/12/2012,6.9,9.1,3.0,0.2,Artajona
Navarra_Media_Oriental,05/12/2012,5.0,9.2,0.5,0.5,Artajona
Navarra_Media_Oriental,06/12/2012,4.1,11.2,-1.1,0.0,Artajona
Navarra_Media_Oriental,07/12/2012,5.8,11.3,-0.6,0.1,Artajona
Navarra_Media_Oriental,08/12/2012,6.9,10.8,3.4,0.2,Artajona
Navarra_Media_Oriental,09/12/2012,4.8,10.4,-1.8,0.0,Artajona
Navarra_Media_Oriental,10/12/2012,3.6,9.8,-3.8,0.0,Artajona
Navarra_Media_Oriental,11/12/2012,5.3,10.8,-2.7,0.0,Artajona
Navarra_Media_Oriental,12/12/2012,0.1,4.6,-4.4,0.0,Artajona
Navarra_Media_Oriental,13/12/2012,4.5,8.4,-0.1,1.7,Artajona
Navarra_Media_Oriental,14/12/2012,9.7,11.4,8.1,3.4,Artajona
Navarra_Media_Oriental,15/12/2012,9.1,14.6,4.6,0.1,Artajona
Navarra_Media_Oriental,16/12/2012,8.8,14.0,2.7,1.9,Artajona
Navarra_Media_Oriental,17/12/2012,7.1,13.8,0.7,0.1,Artajona
Navarra_Media_Oriental,18/12/2012,4.9,10.0,-1.6,0.4,Artajona
Navarra_Media_Oriental,19/12/2012,8.4,10.8,5.8,0.0,Artajona
Navarra_Media_Oriental,20/12/2012,10.9,15.1,8.3,0.1,Artajona
Navarra_Media_Oriental,21/12/2012,10.5,17.4,4.8,0.1,Artajona
Navarra_Media_Oriental,22/12/2012,7.1,15.1,1.3,0.0,Artajona
Navarra_Media_Oriental,23/12/2012,4.6,7.6,0.8,0.1,Artajona
Navarra_Media_Oriental,24/12/2012,7.9,14.3,1.9,0.1,Artajona
Navarra_Media_Oriental,25/12/2012,10.0,14.3,6.4,0.3,Artajona
Navarra_Media_Oriental,26/12/2012,7.2,13.5,-0.6,0.0,Artajona
Navarra_Media_Oriental,27/12/2012,4.2,13.0,-2.4,0.1,Artajona
Navarra_Media_Oriental,28/12/2012,5.6,13.8,-1.0,0.0,Artajona
Navarra_Media_Oriental,29/12/2012,3.0,8.3,-2.4,0.0,Artajona
Navarra_Media_Oriental,30/12/2012,2.7,11.5,-2.4,0.1,Artajona
Navarra_Media_Oriental,31/12/2012,2.5,8.7,-3.5,1.2,Artajona
