Comarca,Fecha, Temperatura media, Temperatura maxima, Temperatura minima, Precipitacion acumulada,Localidad
Navarra_Media_Oriental,01/01/2010,6.1,10.2,1.1,0.0,Artajona
Navarra_Media_Oriental,02/01/2010,3.5,9.2,-1.0,0.0,Artajona
Navarra_Media_Oriental,03/01/2010,6.0,6.8,5.0,16.0,Artajona
Navarra_Media_Oriental,04/01/2010,5.0,6.6,2.7,1.2,Artajona
Navarra_Media_Oriental,05/01/2010,5.6,8.6,2.4,0.8,Artajona
Navarra_Media_Oriental,06/01/2010,2.6,8.4,-1.4,0.0,Artajona
Navarra_Media_Oriental,07/01/2010,1.3,4.3,-2.4,0.2,Artajona
Navarra_Media_Oriental,08/01/2010,0.1,1.9,-1.7,0.0,Artajona
Navarra_Media_Oriental,09/01/2010,-2.0,0.5,-5.9,0.2,Artajona
Navarra_Media_Oriental,10/01/2010,-2.5,2.3,-7.9,0.2,Artajona
Navarra_Media_Oriental,11/01/2010,-0.3,5.3,-4.2,0.0,Artajona
Navarra_Media_Oriental,12/01/2010,0.0,5.2,-4.9,4.8,Artajona
Navarra_Media_Oriental,13/01/2010,3.1,8.2,-2.4,8.6,Artajona
Navarra_Media_Oriental,14/01/2010,6.9,7.9,5.5,13.6,Artajona
Navarra_Media_Oriental,15/01/2010,6.0,11.9,2.0,0.2,Artajona
Navarra_Media_Oriental,16/01/2010,6.0,9.0,2.3,3.0,Artajona
Navarra_Media_Oriental,17/01/2010,8.4,11.5,5.5,0.0,Artajona
Navarra_Media_Oriental,18/01/2010,7.7,11.1,3.1,0.0,Artajona
Navarra_Media_Oriental,19/01/2010,10.1,12.1,8.7,0.0,Artajona
Navarra_Media_Oriental,20/01/2010,8.5,12.3,4.2,0.2,Artajona
Navarra_Media_Oriental,21/01/2010,4.3,11.0,-0.2,0.0,Artajona
Navarra_Media_Oriental,22/01/2010,4.5,14.0,-1.7,0.2,Artajona
Navarra_Media_Oriental,23/01/2010,6.9,8.8,5.1,0.2,Artajona
Navarra_Media_Oriental,24/01/2010,7.1,10.1,4.7,0.4,Artajona
Navarra_Media_Oriental,25/01/2010,4.4,7.5,2.0,0.2,Artajona
Navarra_Media_Oriental,26/01/2010,3.2,6.5,-1.1,0.0,Artajona
Navarra_Media_Oriental,27/01/2010,0.7,4.5,-3.0,0.0,Artajona
Navarra_Media_Oriental,28/01/2010,3.0,7.8,-3.6,0.0,Artajona
Navarra_Media_Oriental,29/01/2010,6.4,10.5,3.9,1.6,Artajona
Navarra_Media_Oriental,30/01/2010,5.2,6.9,3.3,3.2,Artajona
Navarra_Media_Oriental,31/01/2010,3.0,6.5,0.1,0.8,Artajona
Navarra_Media_Oriental,01/02/2010,2.4,8.2,-2.5,0.2,Artajona
Navarra_Media_Oriental,02/02/2010,1.2,8.6,-3.3,0.0,Artajona
Navarra_Media_Oriental,03/02/2010,1.1,9.0,-5.3,0.2,Artajona
Navarra_Media_Oriental,04/02/2010,5.4,8.6,0.2,5.0,Artajona
Navarra_Media_Oriental,05/02/2010,8.1,13.2,3.3,2.2,Artajona
Navarra_Media_Oriental,06/02/2010,8.9,11.8,5.2,0.0,Artajona
Navarra_Media_Oriental,07/02/2010,6.7,10.4,2.6,0.2,Artajona
Navarra_Media_Oriental,08/02/2010,4.7,6.8,0.7,7.0,Artajona
Navarra_Media_Oriental,09/02/2010,4.6,8.0,2.1,0.0,Artajona
Navarra_Media_Oriental,10/02/2010,2.7,6.5,-1.9,0.0,Artajona
Navarra_Media_Oriental,11/02/2010,-1.3,0.9,-4.1,0.2,Artajona
Navarra_Media_Oriental,12/02/2010,-1.3,1.9,-3.6,0.2,Artajona
Navarra_Media_Oriental,13/02/2010,-1.1,1.1,-2.7,0.0,Artajona
Navarra_Media_Oriental,14/02/2010,-0.3,2.0,-3.4,0.0,Artajona
Navarra_Media_Oriental,15/02/2010,-0.4,3.7,-5.1,0.2,Artajona
Navarra_Media_Oriental,16/02/2010,1.9,4.3,-0.4,13.6,Artajona
Navarra_Media_Oriental,17/02/2010,6.7,8.7,4.0,7.6,Artajona
Navarra_Media_Oriental,18/02/2010,6.0,10.6,-0.5,0.2,Artajona
Navarra_Media_Oriental,19/02/2010,5.6,9.6,-1.2,0.0,Artajona
Navarra_Media_Oriental,20/02/2010,2.8,10.5,-3.3,0.2,Artajona
Navarra_Media_Oriental,21/02/2010,4.4,7.8,-1.9,5.0,Artajona
Navarra_Media_Oriental,22/02/2010,9.1,12.9,5.2,0.4,Artajona
Navarra_Media_Oriental,23/02/2010,10.1,15.6,6.2,0.2,Artajona
Navarra_Media_Oriental,24/02/2010,10.1,14.0,6.0,0.2,Artajona
Navarra_Media_Oriental,25/02/2010,12.0,17.4,8.0,0.2,Artajona
Navarra_Media_Oriental,26/02/2010,9.2,14.5,2.9,0.0,Artajona
Navarra_Media_Oriental,27/02/2010,11.2,17.5,7.0,3.4,Artajona
Navarra_Media_Oriental,28/02/2010,10.5,15.1,3.2,0.0,Artajona
Navarra_Media_Oriental,01/03/2010,9.4,15.1,2.6,3.0,Artajona
Navarra_Media_Oriental,02/03/2010,7.9,15.2,-1.2,0.0,Artajona
Navarra_Media_Oriental,03/03/2010,6.6,9.9,5.4,5.2,Artajona
Navarra_Media_Oriental,04/03/2010,8.3,13.3,4.5,0.0,Artajona
Navarra_Media_Oriental,05/03/2010,6.7,11.8,2.3,0.0,Artajona
Navarra_Media_Oriental,06/03/2010,7.3,11.6,3.4,0.0,Artajona
Navarra_Media_Oriental,07/03/2010,3.9,10.3,-1.8,0.0,Artajona
Navarra_Media_Oriental,08/03/2010,0.6,4.1,-4.4,0.0,Artajona
Navarra_Media_Oriental,09/03/2010,2.5,6.5,-1.4,0.0,Artajona
Navarra_Media_Oriental,10/03/2010,0.5,2.7,-1.7,0.0,Artajona
Navarra_Media_Oriental,11/03/2010,1.8,4.7,-0.3,0.8,Artajona
Navarra_Media_Oriental,12/03/2010,3.2,6.9,1.1,0.0,Artajona
Navarra_Media_Oriental,13/03/2010,6.0,10.4,3.1,0.0,Artajona
Navarra_Media_Oriental,14/03/2010,5.5,9.7,2.7,0.0,Artajona
Navarra_Media_Oriental,15/03/2010,7.2,15.3,1.7,0.0,Artajona
Navarra_Media_Oriental,16/03/2010,5.4,16.0,-3.8,0.0,Artajona
Navarra_Media_Oriental,17/03/2010,8.7,18.9,-2.4,0.0,Artajona
Navarra_Media_Oriental,18/03/2010,9.2,16.3,3.4,0.0,Artajona
Navarra_Media_Oriental,19/03/2010,10.7,17.9,2.0,1.2,Artajona
Navarra_Media_Oriental,20/03/2010,15.8,19.9,12.0,0.0,Artajona
Navarra_Media_Oriental,21/03/2010,12.6,17.2,8.2,0.0,Artajona
Navarra_Media_Oriental,22/03/2010,12.7,20.6,6.4,0.0,Artajona
Navarra_Media_Oriental,23/03/2010,11.5,19.0,0.4,0.0,Artajona
Navarra_Media_Oriental,24/03/2010,13.2,17.5,10.2,19.2,Artajona
Navarra_Media_Oriental,25/03/2010,11.0,16.0,7.4,5.4,Artajona
Navarra_Media_Oriental,26/03/2010,8.9,15.2,2.1,0.2,Artajona
Navarra_Media_Oriental,27/03/2010,10.2,16.8,4.3,0.2,Artajona
Navarra_Media_Oriental,28/03/2010,9.8,16.7,3.7,0.0,Artajona
Navarra_Media_Oriental,29/03/2010,11.7,18.5,3.1,2.4,Artajona
Navarra_Media_Oriental,30/03/2010,9.5,14.2,5.4,2.2,Artajona
Navarra_Media_Oriental,31/03/2010,8.5,14.3,2.3,0.8,Artajona
Navarra_Media_Oriental,01/04/2010,6.7,13.1,0.4,0.0,Artajona
Navarra_Media_Oriental,02/04/2010,7.8,15.8,-0.5,0.0,Artajona
Navarra_Media_Oriental,03/04/2010,10.2,15.0,6.4,0.6,Artajona
Navarra_Media_Oriental,04/04/2010,7.9,13.7,2.3,0.2,Artajona
Navarra_Media_Oriental,05/04/2010,8.2,17.5,-2.0,0.0,Artajona
Navarra_Media_Oriental,06/04/2010,10.6,19.1,2.0,0.0,Artajona
Navarra_Media_Oriental,07/04/2010,9.8,13.6,3.8,1.0,Artajona
Navarra_Media_Oriental,08/04/2010,9.5,14.6,4.1,0.2,Artajona
Navarra_Media_Oriental,09/04/2010,12.0,20.3,4.5,0.0,Artajona
Navarra_Media_Oriental,10/04/2010,12.2,21.8,1.3,0.0,Artajona
Navarra_Media_Oriental,11/04/2010,11.8,19.6,3.1,0.0,Artajona
Navarra_Media_Oriental,12/04/2010,9.7,13.8,4.3,0.0,Artajona
Navarra_Media_Oriental,13/04/2010,9.0,16.0,0.6,0.0,Artajona
Navarra_Media_Oriental,14/04/2010,9.5,13.0,5.8,0.0,Artajona
Navarra_Media_Oriental,15/04/2010,10.0,12.8,5.9,0.0,Artajona
Navarra_Media_Oriental,16/04/2010,13.2,19.1,6.7,0.0,Artajona
Navarra_Media_Oriental,17/04/2010,12.0,18.1,6.2,0.0,Artajona
Navarra_Media_Oriental,18/04/2010,12.1,17.5,8.5,0.8,Artajona
Navarra_Media_Oriental,19/04/2010,13.1,20.5,6.6,0.2,Artajona
Navarra_Media_Oriental,20/04/2010,15.5,23.8,7.5,0.0,Artajona
Navarra_Media_Oriental,21/04/2010,16.0,23.6,6.4,0.2,Artajona
Navarra_Media_Oriental,22/04/2010,14.0,16.7,11.7,9.8,Artajona
Navarra_Media_Oriental,23/04/2010,13.4,18.3,8.3,0.0,Artajona
Navarra_Media_Oriental,24/04/2010,14.9,24.3,5.6,0.2,Artajona
Navarra_Media_Oriental,25/04/2010,16.6,24.0,9.0,0.0,Artajona
Navarra_Media_Oriental,26/04/2010,17.7,26.3,8.2,0.0,Artajona
Navarra_Media_Oriental,27/04/2010,18.2,26.8,9.2,0.0,Artajona
Navarra_Media_Oriental,28/04/2010,17.8,27.4,7.0,0.0,Artajona
Navarra_Media_Oriental,29/04/2010,16.9,26.0,11.0,32.0,Artajona
Navarra_Media_Oriental,30/04/2010,15.2,22.3,10.5,4.6,Artajona
Navarra_Media_Oriental,01/05/2010,12.7,16.5,8.4,0.6,Artajona
Navarra_Media_Oriental,02/05/2010,10.1,13.8,6.1,0.2,Artajona
Navarra_Media_Oriental,03/05/2010,8.7,12.2,6.0,1.4,Artajona
Navarra_Media_Oriental,04/05/2010,6.3,7.0,4.8,4.6,Artajona
Navarra_Media_Oriental,05/05/2010,7.3,9.9,5.7,0.6,Artajona
Navarra_Media_Oriental,06/05/2010,8.4,13.1,3.1,0.0,Artajona
Navarra_Media_Oriental,07/05/2010,8.3,13.8,0.8,0.8,Artajona
Navarra_Media_Oriental,08/05/2010,12.3,18.3,6.0,0.8,Artajona
Navarra_Media_Oriental,09/05/2010,13.5,19.6,8.3,21.0,Artajona
Navarra_Media_Oriental,10/05/2010,12.5,19.7,4.7,2.4,Artajona
Navarra_Media_Oriental,11/05/2010,11.2,17.4,5.3,0.2,Artajona
Navarra_Media_Oriental,12/05/2010,10.4,15.8,6.8,2.0,Artajona
Navarra_Media_Oriental,13/05/2010,8.9,12.0,6.8,0.0,Artajona
Navarra_Media_Oriental,14/05/2010,9.3,14.9,4.0,0.4,Artajona
Navarra_Media_Oriental,15/05/2010,9.4,13.1,5.3,0.2,Artajona
Navarra_Media_Oriental,16/05/2010,9.6,15.2,3.5,0.0,Artajona
Navarra_Media_Oriental,17/05/2010,11.2,17.7,3.6,0.0,Artajona
Navarra_Media_Oriental,18/05/2010,14.4,22.4,5.2,0.0,Artajona
Navarra_Media_Oriental,19/05/2010,13.4,18.1,7.0,0.0,Artajona
Navarra_Media_Oriental,20/05/2010,16.3,22.7,9.7,0.0,Artajona
Navarra_Media_Oriental,21/05/2010,17.9,27.3,5.8,0.0,Artajona
Navarra_Media_Oriental,22/05/2010,19.4,28.7,8.0,0.0,Artajona
Navarra_Media_Oriental,23/05/2010,20.1,28.8,9.7,0.0,Artajona
Navarra_Media_Oriental,24/05/2010,20.7,29.1,10.0,0.0,Artajona
Navarra_Media_Oriental,25/05/2010,21.3,29.1,13.8,0.0,Artajona
Navarra_Media_Oriental,26/05/2010,17.9,25.3,11.6,0.0,Artajona
Navarra_Media_Oriental,27/05/2010,16.6,23.8,8.6,0.0,Artajona
Navarra_Media_Oriental,28/05/2010,15.0,19.2,8.9,0.0,Artajona
Navarra_Media_Oriental,29/05/2010,16.0,24.0,5.4,0.0,Artajona
Navarra_Media_Oriental,30/05/2010,18.4,25.2,10.0,0.0,Artajona
Navarra_Media_Oriental,31/05/2010,20.0,25.2,14.2,0.0,Artajona
Navarra_Media_Oriental,01/06/2010,18.4,26.4,10.5,0.0,Artajona
Navarra_Media_Oriental,02/06/2010,17.7,23.1,11.2,0.0,Artajona
Navarra_Media_Oriental,03/06/2010,19.0,28.3,8.8,0.0,Artajona
Navarra_Media_Oriental,04/06/2010,20.8,28.8,11.1,0.0,Artajona
Navarra_Media_Oriental,05/06/2010,22.4,33.5,11.8,1.6,Artajona
Navarra_Media_Oriental,06/06/2010,16.6,19.9,13.5,1.0,Artajona
Navarra_Media_Oriental,07/06/2010,19.8,28.5,10.8,0.0,Artajona
Navarra_Media_Oriental,08/06/2010,18.8,28.0,14.1,1.0,Artajona
Navarra_Media_Oriental,09/06/2010,17.5,21.2,14.4,2.2,Artajona
Navarra_Media_Oriental,10/06/2010,18.0,23.4,13.3,0.4,Artajona
Navarra_Media_Oriental,11/06/2010,0.0,0.0,0.0,0.0,Artajona
Navarra_Media_Oriental,12/06/2010,15.6,19.5,13.1,4.8,Artajona
Navarra_Media_Oriental,13/06/2010,17.5,22.8,12.5,0.0,Artajona
Navarra_Media_Oriental,14/06/2010,14.9,19.9,10.0,0.0,Artajona
Navarra_Media_Oriental,15/06/2010,13.0,18.6,6.9,1.8,Artajona
Navarra_Media_Oriental,16/06/2010,12.5,15.7,9.7,7.2,Artajona
Navarra_Media_Oriental,17/06/2010,12.9,16.9,9.4,0.0,Artajona
Navarra_Media_Oriental,18/06/2010,14.8,21.0,7.8,0.0,Artajona
Navarra_Media_Oriental,19/06/2010,16.3,21.7,12.9,0.0,Artajona
Navarra_Media_Oriental,20/06/2010,13.9,18.1,11.2,0.8,Artajona
Navarra_Media_Oriental,21/06/2010,15.3,21.5,8.1,0.0,Artajona
Navarra_Media_Oriental,22/06/2010,18.3,25.5,12.0,0.0,Artajona
Navarra_Media_Oriental,23/06/2010,18.8,27.5,7.8,0.0,Artajona
Navarra_Media_Oriental,24/06/2010,21.3,31.0,11.0,0.0,Artajona
Navarra_Media_Oriental,25/06/2010,23.2,32.8,12.2,0.0,Artajona
Navarra_Media_Oriental,26/06/2010,22.9,32.2,16.3,2.0,Artajona
Navarra_Media_Oriental,27/06/2010,22.0,30.2,15.5,18.6,Artajona
Navarra_Media_Oriental,28/06/2010,21.8,29.5,16.4,0.2,Artajona
Navarra_Media_Oriental,29/06/2010,22.4,28.8,15.1,0.0,Artajona
Navarra_Media_Oriental,30/06/2010,23.2,31.3,14.7,0.0,Artajona
Navarra_Media_Oriental,01/07/2010,26.1,35.4,14.5,0.0,Artajona
Navarra_Media_Oriental,02/07/2010,23.2,32.4,17.3,3.0,Artajona
Navarra_Media_Oriental,03/07/2010,22.9,30.8,17.3,0.0,Artajona
Navarra_Media_Oriental,04/07/2010,22.0,27.7,17.4,0.0,Artajona
Navarra_Media_Oriental,05/07/2010,20.7,27.0,16.2,0.0,Artajona
Navarra_Media_Oriental,06/07/2010,21.2,27.6,17.1,0.0,Artajona
Navarra_Media_Oriental,07/07/2010,25.4,36.7,14.0,0.0,Artajona
Navarra_Media_Oriental,08/07/2010,29.3,37.2,17.7,0.0,Artajona
Navarra_Media_Oriental,09/07/2010,25.7,33.2,18.7,0.0,Artajona
Navarra_Media_Oriental,10/07/2010,26.7,36.3,16.3,0.0,Artajona
Navarra_Media_Oriental,11/07/2010,28.8,37.8,19.9,2.0,Artajona
Navarra_Media_Oriental,12/07/2010,24.5,32.0,17.9,1.0,Artajona
Navarra_Media_Oriental,13/07/2010,25.4,35.7,16.1,0.0,Artajona
Navarra_Media_Oriental,14/07/2010,22.7,32.9,16.7,0.0,Artajona
Navarra_Media_Oriental,15/07/2010,22.8,32.6,13.6,0.0,Artajona
Navarra_Media_Oriental,16/07/2010,21.9,28.4,15.4,0.0,Artajona
Navarra_Media_Oriental,17/07/2010,19.5,24.6,15.6,0.0,Artajona
Navarra_Media_Oriental,18/07/2010,23.2,33.5,12.7,0.0,Artajona
Navarra_Media_Oriental,19/07/2010,25.0,34.4,17.1,0.0,Artajona
Navarra_Media_Oriental,20/07/2010,23.7,34.8,17.5,10.0,Artajona
Navarra_Media_Oriental,21/07/2010,18.5,23.4,15.5,2.0,Artajona
Navarra_Media_Oriental,22/07/2010,17.5,21.6,13.9,7.8,Artajona
Navarra_Media_Oriental,23/07/2010,17.5,22.8,11.3,0.0,Artajona
Navarra_Media_Oriental,24/07/2010,17.8,24.1,10.5,0.0,Artajona
Navarra_Media_Oriental,25/07/2010,18.2,23.1,11.8,0.0,Artajona
Navarra_Media_Oriental,26/07/2010,19.2,24.6,13.5,0.0,Artajona
Navarra_Media_Oriental,27/07/2010,21.4,29.7,14.6,0.0,Artajona
Navarra_Media_Oriental,28/07/2010,23.3,31.9,13.7,0.0,Artajona
Navarra_Media_Oriental,29/07/2010,20.7,25.1,14.7,0.0,Artajona
Navarra_Media_Oriental,30/07/2010,20.4,26.8,12.8,0.0,Artajona
Navarra_Media_Oriental,31/07/2010,24.0,34.8,12.9,0.0,Artajona
Navarra_Media_Oriental,01/08/2010,23.0,31.8,18.3,0.0,Artajona
Navarra_Media_Oriental,02/08/2010,18.7,21.8,14.8,0.0,Artajona
Navarra_Media_Oriental,03/08/2010,18.3,24.2,12.3,0.0,Artajona
Navarra_Media_Oriental,04/08/2010,18.8,24.8,11.6,0.0,Artajona
Navarra_Media_Oriental,05/08/2010,18.7,23.5,11.7,0.0,Artajona
Navarra_Media_Oriental,06/08/2010,19.3,27.0,10.4,0.0,Artajona
Navarra_Media_Oriental,07/08/2010,22.5,35.1,10.7,0.0,Artajona
Navarra_Media_Oriental,08/08/2010,23.0,30.0,16.8,0.2,Artajona
Navarra_Media_Oriental,09/08/2010,20.7,25.0,16.2,1.5,Artajona
Navarra_Media_Oriental,10/08/2010,22.1,32.9,13.5,0.0,Artajona
Navarra_Media_Oriental,11/08/2010,21.5,29.4,13.6,0.0,Artajona
Navarra_Media_Oriental,12/08/2010,19.5,23.7,16.1,0.0,Artajona
Navarra_Media_Oriental,13/08/2010,17.8,22.9,13.6,0.0,Artajona
Navarra_Media_Oriental,14/08/2010,16.8,22.1,10.5,0.0,Artajona
Navarra_Media_Oriental,15/08/2010,16.2,22.8,9.1,0.0,Artajona
Navarra_Media_Oriental,16/08/2010,17.6,25.9,7.7,0.0,Artajona
Navarra_Media_Oriental,17/08/2010,21.4,32.6,10.0,0.0,Artajona
Navarra_Media_Oriental,18/08/2010,22.3,31.5,14.5,0.0,Artajona
Navarra_Media_Oriental,19/08/2010,22.6,28.7,16.5,0.2,Artajona
Navarra_Media_Oriental,20/08/2010,23.6,34.4,14.2,0.0,Artajona
Navarra_Media_Oriental,21/08/2010,26.2,37.6,15.7,0.0,Artajona
Navarra_Media_Oriental,22/08/2010,27.3,36.8,17.4,0.0,Artajona
Navarra_Media_Oriental,23/08/2010,25.7,34.9,16.0,0.0,Artajona
Navarra_Media_Oriental,24/08/2010,21.7,25.7,16.1,0.0,Artajona
Navarra_Media_Oriental,25/08/2010,24.0,35.9,12.9,0.0,Artajona
Navarra_Media_Oriental,26/08/2010,26.9,38.5,17.3,0.0,Artajona
Navarra_Media_Oriental,27/08/2010,22.6,30.4,16.2,0.0,Artajona
Navarra_Media_Oriental,28/08/2010,19.5,24.0,15.7,0.0,Artajona
Navarra_Media_Oriental,29/08/2010,18.8,25.4,12.2,0.0,Artajona
Navarra_Media_Oriental,30/08/2010,16.7,23.3,8.4,0.0,Artajona
Navarra_Media_Oriental,31/08/2010,18.6,28.6,8.5,2.6,Artajona
Navarra_Media_Oriental,01/09/2010,19.7,29.0,11.3,0.0,Artajona
Navarra_Media_Oriental,02/09/2010,20.0,26.6,15.6,4.5,Artajona
Navarra_Media_Oriental,03/09/2010,21.1,31.0,12.7,0.0,Artajona
Navarra_Media_Oriental,04/09/2010,21.2,30.7,13.4,0.0,Artajona
Navarra_Media_Oriental,05/09/2010,22.8,34.4,11.0,0.0,Artajona
Navarra_Media_Oriental,06/09/2010,24.1,33.2,16.8,0.0,Artajona
Navarra_Media_Oriental,07/09/2010,19.0,25.4,13.1,0.9,Artajona
Navarra_Media_Oriental,08/09/2010,16.9,24.0,9.4,0.0,Artajona
Navarra_Media_Oriental,09/09/2010,17.0,22.6,11.3,0.0,Artajona
Navarra_Media_Oriental,10/09/2010,17.8,27.6,7.5,0.0,Artajona
Navarra_Media_Oriental,11/09/2010,20.0,30.8,8.9,0.0,Artajona
Navarra_Media_Oriental,12/09/2010,19.0,23.6,13.6,0.0,Artajona
Navarra_Media_Oriental,13/09/2010,17.7,23.9,11.1,0.0,Artajona
Navarra_Media_Oriental,14/09/2010,20.5,28.9,13.5,0.0,Artajona
Navarra_Media_Oriental,15/09/2010,20.1,30.4,9.8,0.0,Artajona
Navarra_Media_Oriental,16/09/2010,18.9,21.4,16.1,0.1,Artajona
Navarra_Media_Oriental,17/09/2010,16.5,20.5,14.3,1.1,Artajona
Navarra_Media_Oriental,18/09/2010,15.9,20.4,9.1,0.0,Artajona
Navarra_Media_Oriental,19/09/2010,15.0,26.1,3.8,0.0,Artajona
Navarra_Media_Oriental,20/09/2010,18.7,25.9,8.2,0.0,Artajona
Navarra_Media_Oriental,21/09/2010,20.7,29.1,13.2,0.0,Artajona
Navarra_Media_Oriental,22/09/2010,20.2,28.4,11.3,0.0,Artajona
Navarra_Media_Oriental,23/09/2010,19.4,24.9,14.3,0.0,Artajona
Navarra_Media_Oriental,24/09/2010,15.5,20.0,9.9,0.0,Artajona
Navarra_Media_Oriental,25/09/2010,13.5,18.5,8.8,0.2,Artajona
Navarra_Media_Oriental,26/09/2010,12.1,17.1,6.2,0.0,Artajona
Navarra_Media_Oriental,27/09/2010,12.5,19.5,5.2,0.0,Artajona
Navarra_Media_Oriental,28/09/2010,12.9,20.5,5.4,0.0,Artajona
Navarra_Media_Oriental,29/09/2010,16.2,27.0,4.2,0.0,Artajona
Navarra_Media_Oriental,30/09/2010,14.7,20.7,8.4,0.0,Artajona
Navarra_Media_Oriental,01/10/2010,15.8,25.3,8.1,0.0,Artajona
Navarra_Media_Oriental,02/10/2010,19.8,27.5,11.2,0.0,Artajona
Navarra_Media_Oriental,03/10/2010,18.5,24.7,15.4,2.9,Artajona
Navarra_Media_Oriental,04/10/2010,15.0,19.3,7.9,1.2,Artajona
Navarra_Media_Oriental,05/10/2010,14.0,23.6,3.9,0.0,Artajona
Navarra_Media_Oriental,06/10/2010,17.1,25.7,6.9,0.0,Artajona
Navarra_Media_Oriental,07/10/2010,18.0,24.6,9.7,0.0,Artajona
Navarra_Media_Oriental,08/10/2010,21.2,27.2,17.2,0.0,Artajona
Navarra_Media_Oriental,09/10/2010,19.1,21.1,15.9,1.5,Artajona
Navarra_Media_Oriental,10/10/2010,12.8,15.9,11.3,3.5,Artajona
Navarra_Media_Oriental,11/10/2010,14.3,19.3,11.5,1.3,Artajona
Navarra_Media_Oriental,12/10/2010,15.3,19.3,11.2,1.1,Artajona
Navarra_Media_Oriental,13/10/2010,14.9,19.1,8.6,0.7,Artajona
Navarra_Media_Oriental,14/10/2010,10.3,17.7,3.9,0.5,Artajona
Navarra_Media_Oriental,15/10/2010,10.3,17.0,4.4,0.5,Artajona
Navarra_Media_Oriental,16/10/2010,10.0,16.3,4.1,0.3,Artajona
Navarra_Media_Oriental,17/10/2010,9.5,14.4,5.1,0.4,Artajona
Navarra_Media_Oriental,18/10/2010,9.2,13.8,5.9,0.2,Artajona
Navarra_Media_Oriental,19/10/2010,10.0,16.1,4.8,0.3,Artajona
Navarra_Media_Oriental,20/10/2010,9.1,15.2,3.7,0.2,Artajona
Navarra_Media_Oriental,21/10/2010,7.7,17.5,0.3,0.1,Artajona
Navarra_Media_Oriental,22/10/2010,8.0,16.0,-0.3,0.8,Artajona
Navarra_Media_Oriental,23/10/2010,12.2,19.4,6.1,0.0,Artajona
Navarra_Media_Oriental,24/10/2010,11.4,18.6,6.2,1.0,Artajona
Navarra_Media_Oriental,25/10/2010,8.1,12.0,3.9,1.0,Artajona
Navarra_Media_Oriental,26/10/2010,8.3,15.3,1.9,0.0,Artajona
Navarra_Media_Oriental,27/10/2010,10.1,22.4,-1.2,0.0,Artajona
Navarra_Media_Oriental,28/10/2010,11.6,21.7,3.2,0.0,Artajona
Navarra_Media_Oriental,29/10/2010,12.9,18.5,4.3,3.8,Artajona
Navarra_Media_Oriental,30/10/2010,10.6,13.4,4.7,0.1,Artajona
Navarra_Media_Oriental,31/10/2010,11.8,16.7,9.7,1.0,Artajona
Navarra_Media_Oriental,01/11/2010,12.6,16.8,9.4,1.1,Artajona
Navarra_Media_Oriental,02/11/2010,11.7,15.9,9.2,0.4,Artajona
Navarra_Media_Oriental,03/11/2010,13.1,19.1,8.6,0.3,Artajona
Navarra_Media_Oriental,04/11/2010,14.9,22.1,8.6,0.3,Artajona
Navarra_Media_Oriental,05/11/2010,11.6,19.5,6.4,0.2,Artajona
Navarra_Media_Oriental,06/11/2010,9.8,17.2,4.5,0.2,Artajona
Navarra_Media_Oriental,07/11/2010,9.6,13.0,4.3,0.2,Artajona
Navarra_Media_Oriental,08/11/2010,7.1,10.2,4.4,0.2,Artajona
Navarra_Media_Oriental,09/11/2010,9.6,14.3,4.5,0.2,Artajona
Navarra_Media_Oriental,10/11/2010,7.9,11.4,4.4,0.2,Artajona
Navarra_Media_Oriental,11/11/2010,7.0,11.6,1.3,0.2,Artajona
Navarra_Media_Oriental,12/11/2010,11.8,20.1,5.4,0.2,Artajona
Navarra_Media_Oriental,13/11/2010,9.9,16.8,2.3,0.2,Artajona
Navarra_Media_Oriental,14/11/2010,10.4,12.5,6.5,0.2,Artajona
Navarra_Media_Oriental,15/11/2010,7.4,12.8,2.5,0.1,Artajona
Navarra_Media_Oriental,16/11/2010,6.9,12.8,0.7,0.2,Artajona
Navarra_Media_Oriental,17/11/2010,4.1,8.7,0.5,0.1,Artajona
Navarra_Media_Oriental,18/11/2010,5.2,12.9,-0.6,7.4,Artajona
Navarra_Media_Oriental,19/11/2010,5.4,9.2,-0.1,0.9,Artajona
Navarra_Media_Oriental,20/11/2010,9.3,12.2,7.0,1.3,Artajona
Navarra_Media_Oriental,21/11/2010,7.9,10.8,5.9,0.3,Artajona
Navarra_Media_Oriental,22/11/2010,6.7,10.8,3.5,0.2,Artajona
Navarra_Media_Oriental,23/11/2010,6.0,11.8,1.4,0.2,Artajona
Navarra_Media_Oriental,24/11/2010,4.9,10.0,0.2,0.1,Artajona
Navarra_Media_Oriental,25/11/2010,3.7,10.9,-2.0,4.7,Artajona
Navarra_Media_Oriental,26/11/2010,2.6,8.4,-2.4,0.0,Artajona
Navarra_Media_Oriental,27/11/2010,-0.2,5.0,-4.5,0.1,Artajona
Navarra_Media_Oriental,28/11/2010,-0.3,8.0,-4.4,0.1,Artajona
Navarra_Media_Oriental,29/11/2010,-1.6,3.1,-6.1,0.1,Artajona
Navarra_Media_Oriental,30/11/2010,4.2,5.8,0.0,0.3,Artajona
Navarra_Media_Oriental,01/12/2010,3.5,6.9,0.8,1.0,Artajona
Navarra_Media_Oriental,02/12/2010,1.0,5.8,-1.3,2.6,Artajona
Navarra_Media_Oriental,03/12/2010,1.2,6.0,-2.8,0.1,Artajona
Navarra_Media_Oriental,04/12/2010,1.6,6.6,-4.4,0.0,Artajona
Navarra_Media_Oriental,05/12/2010,6.0,9.8,3.1,1.5,Artajona
Navarra_Media_Oriental,06/12/2010,11.2,14.9,9.4,1.8,Artajona
Navarra_Media_Oriental,07/12/2010,13.5,15.4,12.4,0.8,Artajona
Navarra_Media_Oriental,08/12/2010,13.5,19.1,9.6,5.8,Artajona
Navarra_Media_Oriental,09/12/2010,6.9,9.6,1.5,2.0,Artajona
Navarra_Media_Oriental,10/12/2010,4.9,11.2,-1.4,0.0,Artajona
Navarra_Media_Oriental,11/12/2010,0.6,6.8,-3.3,0.0,Artajona
Navarra_Media_Oriental,12/12/2010,4.4,15.1,-1.8,0.1,Artajona
Navarra_Media_Oriental,13/12/2010,8.4,12.6,4.8,0.0,Artajona
Navarra_Media_Oriental,14/12/2010,3.8,8.6,-0.3,0.0,Artajona
Navarra_Media_Oriental,15/12/2010,1.0,3.8,-3.8,0.0,Artajona
Navarra_Media_Oriental,16/12/2010,-1.0,4.6,-5.2,0.0,Artajona
Navarra_Media_Oriental,17/12/2010,0.8,6.5,-5.0,0.0,Artajona
Navarra_Media_Oriental,18/12/2010,0.9,7.3,-4.3,0.0,Artajona
Navarra_Media_Oriental,19/12/2010,1.7,8.9,-3.9,0.0,Artajona
Navarra_Media_Oriental,20/12/2010,1.0,10.4,-4.6,0.1,Artajona
Navarra_Media_Oriental,21/12/2010,5.7,9.2,2.7,5.7,Artajona
Navarra_Media_Oriental,22/12/2010,9.3,12.9,6.6,9.2,Artajona
Navarra_Media_Oriental,23/12/2010,6.7,8.9,3.7,2.7,Artajona
Navarra_Media_Oriental,24/12/2010,3.3,6.4,0.9,0.8,Artajona
Navarra_Media_Oriental,25/12/2010,0.7,2.9,-2.2,0.0,Artajona
Navarra_Media_Oriental,26/12/2010,0.1,6.2,-4.6,0.0,Artajona
Navarra_Media_Oriental,27/12/2010,-1.3,5.7,-6.7,0.0,Artajona
Navarra_Media_Oriental,28/12/2010,1.4,8.4,-3.7,0.0,Artajona
Navarra_Media_Oriental,29/12/2010,3.9,10.9,-0.8,0.0,Artajona
Navarra_Media_Oriental,30/12/2010,5.4,8.5,0.3,0.0,Artajona
Navarra_Media_Oriental,31/12/2010,7.6,12.3,4.1,0.0,Artajona
