Comarca,Fecha, Temperatura media, Temperatura maxima, Temperatura minima, Precipitacion acumulada,Localidad
Navarra_Media_Oriental,01/01/2013,5.4,8.4,3.7,2.9,Carrascal
Navarra_Media_Oriental,02/01/2013,5.2,6.6,3.6,2.0,Carrascal
Navarra_Media_Oriental,03/01/2013,5.3,10.7,2.1,0.0,Carrascal
Navarra_Media_Oriental,04/01/2013,6.1,14.3,-0.8,0.0,Carrascal
Navarra_Media_Oriental,05/01/2013,10.5,15.8,7.1,0.0,Carrascal
Navarra_Media_Oriental,06/01/2013,8.4,13.9,2.9,0.0,Carrascal
Navarra_Media_Oriental,07/01/2013,4.6,11.2,-0.9,0.0,Carrascal
Navarra_Media_Oriental,08/01/2013,3.6,10.3,-0.6,0.0,Carrascal
Navarra_Media_Oriental,09/01/2013,1.1,3.8,-2.8,3.5,Carrascal
Navarra_Media_Oriental,10/01/2013,6.9,11.8,3.1,0.1,Carrascal
Navarra_Media_Oriental,11/01/2013,5.1,8.7,1.4,0.0,Carrascal
Navarra_Media_Oriental,12/01/2013,5.1,10.0,1.4,5.4,Carrascal
Navarra_Media_Oriental,13/01/2013,3.1,5.1,1.1,3.9,Carrascal
Navarra_Media_Oriental,14/01/2013,1.4,3.0,-0.0,20.7,Carrascal
Navarra_Media_Oriental,15/01/2013,3.0,5.4,0.4,39.5,Carrascal
Navarra_Media_Oriental,16/01/2013,6.3,8.2,3.9,12.8,Carrascal
Navarra_Media_Oriental,17/01/2013,3.2,8.2,1.0,2.6,Carrascal
Navarra_Media_Oriental,18/01/2013,6.2,12.3,1.8,14.5,Carrascal
Navarra_Media_Oriental,19/01/2013,8.6,11.1,3.8,21.4,Carrascal
Navarra_Media_Oriental,20/01/2013,4.2,6.2,2.5,12.0,Carrascal
Navarra_Media_Oriental,21/01/2013,3.8,6.7,0.7,2.1,Carrascal
Navarra_Media_Oriental,22/01/2013,2.4,5.1,-0.9,0.1,Carrascal
Navarra_Media_Oriental,23/01/2013,1.5,3.6,-0.7,16.0,Carrascal
Navarra_Media_Oriental,24/01/2013,2.5,5.8,-0.2,24.0,Carrascal
Navarra_Media_Oriental,25/01/2013,3.2,7.3,-0.4,4.6,Carrascal
Navarra_Media_Oriental,26/01/2013,5.9,8.8,2.0,4.6,Carrascal
Navarra_Media_Oriental,27/01/2013,4.4,7.7,1.7,8.5,Carrascal
Navarra_Media_Oriental,28/01/2013,5.3,9.6,1.9,1.6,Carrascal
Navarra_Media_Oriental,29/01/2013,6.3,11.9,1.5,0.0,Carrascal
Navarra_Media_Oriental,30/01/2013,7.4,13.0,2.7,0.0,Carrascal
Navarra_Media_Oriental,31/01/2013,9.7,17.0,4.1,0.0,Carrascal
Navarra_Media_Oriental,01/02/2013,9.5,12.6,6.7,5.6,Carrascal
Navarra_Media_Oriental,02/02/2013,3.2,7.3,0.8,21.6,Carrascal
Navarra_Media_Oriental,03/02/2013,2.3,4.6,-0.0,0.1,Carrascal
Navarra_Media_Oriental,04/02/2013,6.9,10.3,3.3,0.0,Carrascal
Navarra_Media_Oriental,05/02/2013,7.6,12.9,1.1,2.0,Carrascal
Navarra_Media_Oriental,06/02/2013,2.2,4.9,0.4,24.8,Carrascal
Navarra_Media_Oriental,07/02/2013,0.4,2.0,-0.5,10.4,Carrascal
Navarra_Media_Oriental,08/02/2013,0.8,2.1,-0.1,22.3,Carrascal
Navarra_Media_Oriental,09/02/2013,2.1,5.2,-0.2,4.2,Carrascal
Navarra_Media_Oriental,10/02/2013,3.5,8.5,0.4,3.9,Carrascal
Navarra_Media_Oriental,11/02/2013,2.1,4.8,-0.1,2.1,Carrascal
Navarra_Media_Oriental,12/02/2013,1.6,3.7,-0.3,18.1,Carrascal
Navarra_Media_Oriental,13/02/2013,5.0,7.8,2.5,2.1,Carrascal
Navarra_Media_Oriental,14/02/2013,7.6,9.1,5.7,0.0,Carrascal
Navarra_Media_Oriental,15/02/2013,6.6,9.2,3.6,0.2,Carrascal
Navarra_Media_Oriental,16/02/2013,4.4,11.2,-1.3,0.0,Carrascal
Navarra_Media_Oriental,17/02/2013,4.4,9.0,0.3,0.0,Carrascal
Navarra_Media_Oriental,18/02/2013,7.3,10.4,4.4,1.8,Carrascal
Navarra_Media_Oriental,19/02/2013,9.2,12.5,6.8,0.0,Carrascal
Navarra_Media_Oriental,20/02/2013,8.7,14.5,4.3,0.0,Carrascal
Navarra_Media_Oriental,21/02/2013,8.5,12.4,5.2,0.0,Carrascal
Navarra_Media_Oriental,22/02/2013,4.3,7.8,-1.3,0.0,Carrascal
Navarra_Media_Oriental,23/02/2013,-2.9,-1.3,-4.5,0.0,Carrascal
Navarra_Media_Oriental,24/02/2013,-1.4,0.6,-2.5,0.2,Carrascal
Navarra_Media_Oriental,25/02/2013,-1.1,1.4,-2.6,0.1,Carrascal
Navarra_Media_Oriental,26/02/2013,-0.1,2.1,-1.7,0.1,Carrascal
Navarra_Media_Oriental,27/02/2013,1.3,8.9,-3.4,0.1,Carrascal
Navarra_Media_Oriental,28/02/2013,2.4,7.5,-1.4,0.0,Carrascal
Navarra_Media_Oriental,01/03/2013,4.9,8.9,2.3,0.0,Carrascal
Navarra_Media_Oriental,02/03/2013,5.4,13.5,1.1,0.0,Carrascal
Navarra_Media_Oriental,03/03/2013,7.6,14.7,-0.2,0.0,Carrascal
Navarra_Media_Oriental,04/03/2013,9.0,12.1,3.5,0.9,Carrascal
Navarra_Media_Oriental,05/03/2013,10.4,11.6,9.0,0.9,Carrascal
Navarra_Media_Oriental,06/03/2013,11.8,18.4,7.1,5.9,Carrascal
Navarra_Media_Oriental,07/03/2013,11.9,15.3,8.2,9.3,Carrascal
Navarra_Media_Oriental,08/03/2013,10.7,15.9,6.4,7.1,Carrascal
Navarra_Media_Oriental,09/03/2013,8.9,14.1,4.2,0.0,Carrascal
Navarra_Media_Oriental,10/03/2013,9.2,13.0,5.5,0.0,Carrascal
Navarra_Media_Oriental,11/03/2013,7.6,11.8,5.4,2.0,Carrascal
Navarra_Media_Oriental,12/03/2013,5.4,11.1,-0.4,2.2,Carrascal
Navarra_Media_Oriental,13/03/2013,-0.8,-0.2,-2.0,0.2,Carrascal
Navarra_Media_Oriental,14/03/2013,0.2,1.9,-1.4,3.3,Carrascal
Navarra_Media_Oriental,15/03/2013,2.4,6.6,-0.7,0.0,Carrascal
Navarra_Media_Oriental,16/03/2013,5.2,8.3,0.4,0.1,Carrascal
Navarra_Media_Oriental,17/03/2013,5.9,8.2,3.1,5.0,Carrascal
Navarra_Media_Oriental,18/03/2013,4.6,10.6,0.1,0.0,Carrascal
Navarra_Media_Oriental,19/03/2013,5.5,11.7,-0.6,4.9,Carrascal
Navarra_Media_Oriental,20/03/2013,6.5,10.7,2.9,0.1,Carrascal
Navarra_Media_Oriental,21/03/2013,9.1,15.2,0.2,0.0,Carrascal
Navarra_Media_Oriental,22/03/2013,10.7,17.5,4.2,3.2,Carrascal
Navarra_Media_Oriental,23/03/2013,8.5,16.3,2.0,0.0,Carrascal
Navarra_Media_Oriental,24/03/2013,9.5,16.5,3.3,0.0,Carrascal
Navarra_Media_Oriental,25/03/2013,7.6,10.6,4.2,20.0,Carrascal
Navarra_Media_Oriental,26/03/2013,9.5,14.5,5.6,6.1,Carrascal
Navarra_Media_Oriental,27/03/2013,9.9,13.7,7.9,20.5,Carrascal
Navarra_Media_Oriental,28/03/2013,10.9,13.5,8.9,1.5,Carrascal
Navarra_Media_Oriental,29/03/2013,11.9,16.8,10.1,17.4,Carrascal
Navarra_Media_Oriental,30/03/2013,9.2,12.4,5.3,1.6,Carrascal
Navarra_Media_Oriental,31/03/2013,10.5,17.1,3.9,0.0,Carrascal
Navarra_Media_Oriental,01/04/2013,8.6,12.6,5.7,9.8,Carrascal
Navarra_Media_Oriental,02/04/2013,7.9,13.2,4.2,0.4,Carrascal
Navarra_Media_Oriental,03/04/2013,8.8,16.5,1.3,8.9,Carrascal
Navarra_Media_Oriental,04/04/2013,6.6,12.0,2.8,2.3,Carrascal
Navarra_Media_Oriental,05/04/2013,2.9,7.4,1.0,0.2,Carrascal
Navarra_Media_Oriental,06/04/2013,2.5,5.9,-0.3,10.1,Carrascal
Navarra_Media_Oriental,07/04/2013,7.0,10.9,2.4,0.0,Carrascal
Navarra_Media_Oriental,08/04/2013,9.6,14.3,6.9,0.7,Carrascal
Navarra_Media_Oriental,09/04/2013,9.2,12.0,5.5,0.0,Carrascal
Navarra_Media_Oriental,10/04/2013,12.3,18.5,3.8,0.0,Carrascal
Navarra_Media_Oriental,11/04/2013,13.4,18.0,9.7,1.0,Carrascal
Navarra_Media_Oriental,12/04/2013,11.5,16.1,5.6,0.0,Carrascal
Navarra_Media_Oriental,13/04/2013,14.8,21.5,7.1,0.0,Carrascal
Navarra_Media_Oriental,14/04/2013,17.4,25.0,8.4,0.0,Carrascal
Navarra_Media_Oriental,15/04/2013,15.3,23.2,8.2,0.0,Carrascal
Navarra_Media_Oriental,16/04/2013,16.4,24.2,10.0,0.0,Carrascal
Navarra_Media_Oriental,17/04/2013,18.3,27.4,10.5,0.0,Carrascal
Navarra_Media_Oriental,18/04/2013,11.2,16.1,8.0,0.0,Carrascal
Navarra_Media_Oriental,19/04/2013,8.0,11.4,4.8,0.0,Carrascal
Navarra_Media_Oriental,20/04/2013,7.9,12.9,4.0,0.0,Carrascal
Navarra_Media_Oriental,21/04/2013,8.3,13.7,2.9,0.0,Carrascal
Navarra_Media_Oriental,22/04/2013,8.2,12.1,5.3,0.0,Carrascal
Navarra_Media_Oriental,23/04/2013,10.9,17.0,5.6,0.0,Carrascal
Navarra_Media_Oriental,24/04/2013,13.6,20.7,5.5,0.0,Carrascal
Navarra_Media_Oriental,25/04/2013,14.8,22.0,8.1,0.0,Carrascal
Navarra_Media_Oriental,26/04/2013,10.6,12.7,6.3,5.1,Carrascal
Navarra_Media_Oriental,27/04/2013,4.4,7.8,1.2,1.6,Carrascal
Navarra_Media_Oriental,28/04/2013,4.5,8.1,0.6,2.4,Carrascal
Navarra_Media_Oriental,29/04/2013,6.2,9.1,4.6,8.8,Carrascal
Navarra_Media_Oriental,30/04/2013,8.0,12.6,5.3,6.7,Carrascal
Navarra_Media_Oriental,01/05/2013,9.4,14.7,6.0,1.1,Carrascal
Navarra_Media_Oriental,02/05/2013,8.1,10.8,6.1,2.8,Carrascal
Navarra_Media_Oriental,03/05/2013,8.7,12.2,6.3,0.0,Carrascal
Navarra_Media_Oriental,04/05/2013,11.7,17.9,6.8,0.0,Carrascal
Navarra_Media_Oriental,05/05/2013,13.8,20.2,7.9,0.0,Carrascal
Navarra_Media_Oriental,06/05/2013,14.1,24.1,4.5,1.1,Carrascal
Navarra_Media_Oriental,07/05/2013,16.5,20.9,12.7,0.0,Carrascal
Navarra_Media_Oriental,08/05/2013,15.6,17.9,12.0,0.0,Carrascal
Navarra_Media_Oriental,09/05/2013,11.6,14.3,8.8,4.3,Carrascal
Navarra_Media_Oriental,10/05/2013,10.0,13.7,6.5,0.0,Carrascal
Navarra_Media_Oriental,11/05/2013,9.5,13.7,5.8,0.0,Carrascal
Navarra_Media_Oriental,12/05/2013,9.0,12.3,6.3,0.0,Carrascal
Navarra_Media_Oriental,13/05/2013,11.7,19.2,5.7,0.0,Carrascal
Navarra_Media_Oriental,14/05/2013,12.4,21.5,5.8,5.1,Carrascal
Navarra_Media_Oriental,15/05/2013,7.4,9.8,5.2,2.3,Carrascal
Navarra_Media_Oriental,16/05/2013,6.8,11.5,3.5,1.3,Carrascal
Navarra_Media_Oriental,17/05/2013,7.8,13.1,4.7,15.9,Carrascal
Navarra_Media_Oriental,18/05/2013,6.7,10.6,2.5,12.3,Carrascal
Navarra_Media_Oriental,19/05/2013,8.2,11.6,5.1,0.0,Carrascal
Navarra_Media_Oriental,20/05/2013,8.5,13.6,3.6,0.0,Carrascal
Navarra_Media_Oriental,21/05/2013,6.7,10.1,1.9,0.1,Carrascal
Navarra_Media_Oriental,22/05/2013,10.4,13.8,8.2,0.0,Carrascal
Navarra_Media_Oriental,23/05/2013,8.7,9.8,7.2,0.1,Carrascal
Navarra_Media_Oriental,24/05/2013,7.7,10.8,5.2,1.0,Carrascal
Navarra_Media_Oriental,25/05/2013,7.6,12.9,3.7,0.1,Carrascal
Navarra_Media_Oriental,26/05/2013,10.5,21.3,1.2,0.0,Carrascal
Navarra_Media_Oriental,27/05/2013,12.3,18.6,9.6,2.9,Carrascal
Navarra_Media_Oriental,28/05/2013,8.9,12.4,6.4,4.0,Carrascal
Navarra_Media_Oriental,29/05/2013,7.4,12.9,3.1,0.9,Carrascal
Navarra_Media_Oriental,30/05/2013,8.7,10.7,5.8,2.7,Carrascal
Navarra_Media_Oriental,31/05/2013,10.0,11.7,8.4,2.2,Carrascal
Navarra_Media_Oriental,01/06/2013,9.9,11.7,8.9,0.0,Carrascal
Navarra_Media_Oriental,02/06/2013,10.4,13.5,8.3,0.0,Carrascal
Navarra_Media_Oriental,03/06/2013,12.1,17.0,7.6,0.0,Carrascal
Navarra_Media_Oriental,04/06/2013,14.5,22.1,6.3,0.0,Carrascal
Navarra_Media_Oriental,05/06/2013,17.7,25.6,8.1,0.0,Carrascal
Navarra_Media_Oriental,06/06/2013,19.4,27.0,13.1,0.0,Carrascal
Navarra_Media_Oriental,07/06/2013,17.2,23.0,12.1,41.0,Carrascal
Navarra_Media_Oriental,08/06/2013,11.0,12.6,9.7,21.4,Carrascal
Navarra_Media_Oriental,09/06/2013,12.4,15.8,10.3,24.0,Carrascal
Navarra_Media_Oriental,10/06/2013,15.4,20.2,11.6,0.0,Carrascal
Navarra_Media_Oriental,11/06/2013,18.5,23.0,13.1,0.0,Carrascal
Navarra_Media_Oriental,12/06/2013,21.9,29.7,12.9,0.0,Carrascal
Navarra_Media_Oriental,13/06/2013,16.1,18.7,13.4,0.0,Carrascal
Navarra_Media_Oriental,14/06/2013,18.7,27.6,11.1,0.0,Carrascal
Navarra_Media_Oriental,15/06/2013,16.8,23.5,12.7,0.0,Carrascal
Navarra_Media_Oriental,16/06/2013,22.8,31.9,11.1,0.0,Carrascal
Navarra_Media_Oriental,17/06/2013,20.0,27.4,12.6,0.0,Carrascal
Navarra_Media_Oriental,18/06/2013,12.2,14.5,9.5,7.2,Carrascal
Navarra_Media_Oriental,19/06/2013,11.6,16.4,9.4,5.3,Carrascal
Navarra_Media_Oriental,20/06/2013,13.1,17.0,9.8,1.0,Carrascal
Navarra_Media_Oriental,21/06/2013,13.1,17.2,10.9,5.3,Carrascal
Navarra_Media_Oriental,22/06/2013,16.0,22.9,8.6,0.0,Carrascal
Navarra_Media_Oriental,23/06/2013,13.0,15.6,9.6,0.0,Carrascal
Navarra_Media_Oriental,24/06/2013,12.0,16.2,8.8,0.0,Carrascal
Navarra_Media_Oriental,25/06/2013,13.2,18.0,8.9,0.0,Carrascal
Navarra_Media_Oriental,26/06/2013,15.4,20.7,10.9,0.0,Carrascal
Navarra_Media_Oriental,27/06/2013,14.9,20.1,11.8,0.0,Carrascal
Navarra_Media_Oriental,28/06/2013,14.7,20.3,10.6,0.0,Carrascal
Navarra_Media_Oriental,29/06/2013,15.2,20.7,10.0,0.0,Carrascal
Navarra_Media_Oriental,30/06/2013,17.5,24.2,11.9,0.0,Carrascal
Navarra_Media_Oriental,01/07/2013,19.0,27.0,12.8,0.0,Carrascal
Navarra_Media_Oriental,02/07/2013,21.0,30.4,13.3,0.0,Carrascal
Navarra_Media_Oriental,03/07/2013,18.8,23.3,15.9,0.0,Carrascal
Navarra_Media_Oriental,04/07/2013,18.7,22.9,15.3,0.0,Carrascal
Navarra_Media_Oriental,05/07/2013,21.3,30.2,13.7,0.0,Carrascal
Navarra_Media_Oriental,06/07/2013,22.3,30.8,14.5,0.0,Carrascal
Navarra_Media_Oriental,07/07/2013,21.6,28.6,15.2,0.0,Carrascal
Navarra_Media_Oriental,08/07/2013,23.7,33.2,14.6,0.0,Carrascal
Navarra_Media_Oriental,09/07/2013,24.8,32.8,16.2,0.0,Carrascal
Navarra_Media_Oriental,10/07/2013,24.1,33.3,16.4,0.0,Carrascal
Navarra_Media_Oriental,11/07/2013,23.2,29.8,15.4,0.0,Carrascal
Navarra_Media_Oriental,12/07/2013,24.4,32.8,16.8,0.0,Carrascal
Navarra_Media_Oriental,13/07/2013,23.1,29.8,16.7,0.0,Carrascal
Navarra_Media_Oriental,14/07/2013,21.3,28.3,15.6,0.6,Carrascal
Navarra_Media_Oriental,15/07/2013,21.0,30.7,14.5,4.5,Carrascal
Navarra_Media_Oriental,16/07/2013,21.5,27.8,15.9,15.4,Carrascal
Navarra_Media_Oriental,17/07/2013,20.5,26.8,16.1,0.0,Carrascal
Navarra_Media_Oriental,18/07/2013,20.7,27.4,15.2,0.0,Carrascal
Navarra_Media_Oriental,19/07/2013,22.7,31.7,14.9,0.1,Carrascal
Navarra_Media_Oriental,20/07/2013,23.7,32.0,15.5,0.0,Carrascal
Navarra_Media_Oriental,21/07/2013,25.3,32.1,18.4,0.0,Carrascal
Navarra_Media_Oriental,22/07/2013,24.7,32.8,15.6,0.9,Carrascal
Navarra_Media_Oriental,23/07/2013,22.2,32.1,17.1,2.2,Carrascal
Navarra_Media_Oriental,24/07/2013,24.5,32.5,16.3,0.0,Carrascal
Navarra_Media_Oriental,25/07/2013,26.5,35.5,18.5,0.0,Carrascal
Navarra_Media_Oriental,26/07/2013,26.1,34.2,18.0,0.0,Carrascal
Navarra_Media_Oriental,27/07/2013,22.5,28.3,15.7,0.0,Carrascal
Navarra_Media_Oriental,28/07/2013,20.6,27.7,15.0,5.6,Carrascal
Navarra_Media_Oriental,29/07/2013,18.9,26.6,11.6,0.0,Carrascal
Navarra_Media_Oriental,30/07/2013,22.0,30.9,13.4,0.0,Carrascal
Navarra_Media_Oriental,31/07/2013,26.0,35.1,14.7,0.0,Carrascal
Navarra_Media_Oriental,01/08/2013,28.2,35.4,18.5,0.0,Carrascal
Navarra_Media_Oriental,02/08/2013,24.7,34.8,17.4,0.0,Carrascal
Navarra_Media_Oriental,03/08/2013,20.5,28.0,15.6,0.0,Carrascal
Navarra_Media_Oriental,04/08/2013,23.2,32.7,16.1,0.0,Carrascal
Navarra_Media_Oriental,05/08/2013,20.4,26.4,16.2,0.0,Carrascal
Navarra_Media_Oriental,06/08/2013,19.7,27.2,16.3,0.0,Carrascal
Navarra_Media_Oriental,07/08/2013,17.1,24.2,12.8,2.4,Carrascal
Navarra_Media_Oriental,08/08/2013,15.9,20.7,12.0,0.0,Carrascal
Navarra_Media_Oriental,09/08/2013,17.3,23.6,11.9,0.0,Carrascal
Navarra_Media_Oriental,10/08/2013,18.7,24.6,13.5,0.0,Carrascal
Navarra_Media_Oriental,11/08/2013,22.1,31.9,13.6,0.0,Carrascal
Navarra_Media_Oriental,12/08/2013,21.2,30.3,16.0,3.0,Carrascal
Navarra_Media_Oriental,13/08/2013,18.9,23.9,15.0,0.0,Carrascal
Navarra_Media_Oriental,14/08/2013,18.8,25.7,13.8,0.0,Carrascal
Navarra_Media_Oriental,15/08/2013,21.2,30.2,11.2,0.0,Carrascal
Navarra_Media_Oriental,16/08/2013,20.2,28.4,15.0,0.0,Carrascal
Navarra_Media_Oriental,17/08/2013,20.9,28.3,15.6,0.0,Carrascal
Navarra_Media_Oriental,18/08/2013,22.2,33.3,13.0,0.0,Carrascal
Navarra_Media_Oriental,19/08/2013,18.6,23.3,14.9,0.0,Carrascal
Navarra_Media_Oriental,20/08/2013,19.3,26.3,13.1,0.0,Carrascal
Navarra_Media_Oriental,21/08/2013,22.7,33.1,11.4,0.0,Carrascal
Navarra_Media_Oriental,22/08/2013,22.7,32.3,15.8,0.0,Carrascal
Navarra_Media_Oriental,23/08/2013,20.1,29.2,16.9,0.0,Carrascal
Navarra_Media_Oriental,24/08/2013,17.2,21.3,13.3,0.0,Carrascal
Navarra_Media_Oriental,25/08/2013,16.5,22.5,11.9,0.0,Carrascal
Navarra_Media_Oriental,26/08/2013,16.1,21.9,11.7,0.0,Carrascal
Navarra_Media_Oriental,27/08/2013,17.0,23.0,12.7,0.0,Carrascal
Navarra_Media_Oriental,28/08/2013,17.4,23.2,13.7,0.0,Carrascal
Navarra_Media_Oriental,29/08/2013,17.5,23.8,13.0,0.0,Carrascal
Navarra_Media_Oriental,30/08/2013,17.7,24.1,13.6,0.0,Carrascal
Navarra_Media_Oriental,31/08/2013,17.2,23.2,13.1,0.0,Carrascal
Navarra_Media_Oriental,01/09/2013,17.9,23.2,14.0,0.0,Carrascal
Navarra_Media_Oriental,02/09/2013,19.1,25.3,14.5,0.0,Carrascal
Navarra_Media_Oriental,03/09/2013,21.2,31.5,10.5,0.0,Carrascal
Navarra_Media_Oriental,04/09/2013,23.6,30.5,15.2,0.0,Carrascal
Navarra_Media_Oriental,05/09/2013,20.6,29.5,13.0,10.0,Carrascal
Navarra_Media_Oriental,06/09/2013,17.9,25.4,14.4,23.7,Carrascal
Navarra_Media_Oriental,07/09/2013,15.0,19.3,13.3,6.7,Carrascal
Navarra_Media_Oriental,08/09/2013,14.1,18.3,11.2,0.0,Carrascal
Navarra_Media_Oriental,09/09/2013,14.9,22.5,8.0,0.0,Carrascal
Navarra_Media_Oriental,10/09/2013,15.8,19.4,11.6,0.0,Carrascal
Navarra_Media_Oriental,11/09/2013,13.3,18.6,9.4,0.0,Carrascal
Navarra_Media_Oriental,12/09/2013,14.0,18.8,10.4,0.0,Carrascal
Navarra_Media_Oriental,13/09/2013,17.1,22.6,13.3,0.0,Carrascal
Navarra_Media_Oriental,14/09/2013,17.1,25.5,10.4,0.0,Carrascal
Navarra_Media_Oriental,15/09/2013,14.5,17.5,11.6,0.0,Carrascal
Navarra_Media_Oriental,16/09/2013,14.4,24.0,7.4,0.0,Carrascal
Navarra_Media_Oriental,17/09/2013,13.8,16.6,11.7,0.0,Carrascal
Navarra_Media_Oriental,18/09/2013,15.8,19.6,12.1,0.0,Carrascal
Navarra_Media_Oriental,19/09/2013,14.9,17.7,13.0,1.5,Carrascal
Navarra_Media_Oriental,20/09/2013,16.7,21.4,13.6,0.0,Carrascal
Navarra_Media_Oriental,21/09/2013,16.8,23.8,12.3,0.0,Carrascal
Navarra_Media_Oriental,22/09/2013,18.2,29.3,8.7,0.0,Carrascal
Navarra_Media_Oriental,23/09/2013,20.3,28.0,11.1,0.0,Carrascal
Navarra_Media_Oriental,24/09/2013,20.3,28.5,12.8,0.0,Carrascal
Navarra_Media_Oriental,25/09/2013,23.9,30.8,14.6,0.0,Carrascal
Navarra_Media_Oriental,26/09/2013,23.9,30.9,16.1,0.0,Carrascal
Navarra_Media_Oriental,27/09/2013,22.8,29.5,16.0,0.0,Carrascal
Navarra_Media_Oriental,28/09/2013,19.1,25.0,15.2,2.7,Carrascal
Navarra_Media_Oriental,29/09/2013,16.8,21.9,13.5,0.0,Carrascal
Navarra_Media_Oriental,30/09/2013,18.7,26.1,12.9,0.0,Carrascal
Navarra_Media_Oriental,01/10/2013,18.4,22.7,15.9,1.8,Carrascal
Navarra_Media_Oriental,02/10/2013,21.4,28.0,16.1,0.5,Carrascal
Navarra_Media_Oriental,03/10/2013,21.4,25.6,16.3,9.9,Carrascal
Navarra_Media_Oriental,04/10/2013,17.2,22.2,12.7,23.2,Carrascal
Navarra_Media_Oriental,05/10/2013,13.6,17.9,9.8,0.0,Carrascal
Navarra_Media_Oriental,06/10/2013,13.8,17.8,11.2,0.0,Carrascal
Navarra_Media_Oriental,07/10/2013,13.4,18.5,10.2,0.0,Carrascal
Navarra_Media_Oriental,08/10/2013,13.1,18.0,9.3,0.0,Carrascal
Navarra_Media_Oriental,09/10/2013,13.1,16.5,10.6,0.0,Carrascal
Navarra_Media_Oriental,10/10/2013,11.3,16.0,7.9,0.3,Carrascal
Navarra_Media_Oriental,11/10/2013,7.2,13.1,3.2,0.0,Carrascal
Navarra_Media_Oriental,12/10/2013,8.2,16.7,0.8,0.0,Carrascal
Navarra_Media_Oriental,13/10/2013,10.8,18.8,3.4,0.0,Carrascal
Navarra_Media_Oriental,14/10/2013,14.7,20.3,8.5,1.3,Carrascal
Navarra_Media_Oriental,15/10/2013,15.2,16.8,13.3,0.0,Carrascal
Navarra_Media_Oriental,16/10/2013,17.5,25.3,12.5,0.0,Carrascal
Navarra_Media_Oriental,17/10/2013,17.2,23.9,11.4,0.0,Carrascal
Navarra_Media_Oriental,18/10/2013,19.8,25.8,12.4,0.0,Carrascal
Navarra_Media_Oriental,19/10/2013,19.1,21.8,16.3,0.1,Carrascal
Navarra_Media_Oriental,20/10/2013,17.4,22.0,13.3,0.0,Carrascal
Navarra_Media_Oriental,21/10/2013,17.4,20.8,11.8,0.0,Carrascal
Navarra_Media_Oriental,22/10/2013,16.3,19.2,13.8,4.2,Carrascal
Navarra_Media_Oriental,23/10/2013,15.9,21.2,12.5,0.0,Carrascal
Navarra_Media_Oriental,24/10/2013,17.3,20.3,13.3,1.0,Carrascal
Navarra_Media_Oriental,25/10/2013,18.3,22.5,15.3,11.7,Carrascal
Navarra_Media_Oriental,26/10/2013,17.1,19.6,11.8,0.0,Carrascal
Navarra_Media_Oriental,27/10/2013,14.8,18.5,8.6,0.0,Carrascal
Navarra_Media_Oriental,28/10/2013,14.9,19.0,10.6,0.0,Carrascal
Navarra_Media_Oriental,29/10/2013,8.7,11.6,6.4,0.3,Carrascal
Navarra_Media_Oriental,30/10/2013,8.6,12.3,6.1,0.1,Carrascal
Navarra_Media_Oriental,31/10/2013,8.9,14.5,4.3,0.0,Carrascal
Navarra_Media_Oriental,01/11/2013,8.6,14.2,3.1,0.3,Carrascal
Navarra_Media_Oriental,02/11/2013,14.4,20.9,9.3,1.4,Carrascal
Navarra_Media_Oriental,03/11/2013,11.4,13.5,8.5,0.0,Carrascal
Navarra_Media_Oriental,04/11/2013,10.0,12.3,8.6,15.2,Carrascal
Navarra_Media_Oriental,05/11/2013,14.1,17.0,9.9,2.9,Carrascal
Navarra_Media_Oriental,06/11/2013,15.2,20.0,11.2,0.0,Carrascal
Navarra_Media_Oriental,07/11/2013,13.4,18.6,10.0,0.0,Carrascal
Navarra_Media_Oriental,08/11/2013,10.9,18.3,7.8,5.8,Carrascal
Navarra_Media_Oriental,09/11/2013,9.0,13.4,3.6,1.0,Carrascal
Navarra_Media_Oriental,10/11/2013,11.0,12.2,9.1,1.9,Carrascal
Navarra_Media_Oriental,11/11/2013,10.9,12.1,10.3,0.1,Carrascal
Navarra_Media_Oriental,12/11/2013,11.4,13.3,10.1,0.0,Carrascal
Navarra_Media_Oriental,13/11/2013,11.3,13.4,9.2,0.1,Carrascal
Navarra_Media_Oriental,14/11/2013,8.3,9.6,6.4,0.0,Carrascal
Navarra_Media_Oriental,15/11/2013,3.6,6.5,1.6,10.5,Carrascal
Navarra_Media_Oriental,16/11/2013,3.9,7.0,0.5,0.0,Carrascal
Navarra_Media_Oriental,17/11/2013,5.7,7.0,4.9,1.5,Carrascal
Navarra_Media_Oriental,18/11/2013,7.1,8.3,5.2,2.4,Carrascal
Navarra_Media_Oriental,19/11/2013,5.7,7.6,2.3,4.4,Carrascal
Navarra_Media_Oriental,20/11/2013,2.4,4.6,-0.1,3.6,Carrascal
Navarra_Media_Oriental,21/11/2013,3.6,5.3,2.6,18.5,Carrascal
Navarra_Media_Oriental,22/11/2013,2.4,4.3,1.1,4.1,Carrascal
Navarra_Media_Oriental,23/11/2013,2.8,5.0,1.2,0.0,Carrascal
Navarra_Media_Oriental,24/11/2013,2.8,3.5,2.2,0.0,Carrascal
Navarra_Media_Oriental,25/11/2013,3.0,4.8,1.5,0.0,Carrascal
Navarra_Media_Oriental,26/11/2013,1.6,3.5,-0.4,0.0,Carrascal
Navarra_Media_Oriental,27/11/2013,0.5,3.4,-2.8,0.0,Carrascal
Navarra_Media_Oriental,28/11/2013,-0.5,4.6,-5.2,0.0,Carrascal
Navarra_Media_Oriental,29/11/2013,2.8,5.0,0.7,0.0,Carrascal
Navarra_Media_Oriental,30/11/2013,4.6,6.6,2.5,1.4,Carrascal
Navarra_Media_Oriental,01/12/2013,2.0,4.1,0.5,0.0,Carrascal
Navarra_Media_Oriental,02/12/2013,2.2,4.8,-1.5,0.0,Carrascal
Navarra_Media_Oriental,03/12/2013,2.5,12.1,-2.7,0.0,Carrascal
Navarra_Media_Oriental,04/12/2013,4.8,11.5,-0.9,0.0,Carrascal
Navarra_Media_Oriental,05/12/2013,6.0,7.2,3.6,0.0,Carrascal
Navarra_Media_Oriental,06/12/2013,4.3,7.7,2.3,0.0,Carrascal
Navarra_Media_Oriental,07/12/2013,4.1,9.5,0.1,0.0,Carrascal
Navarra_Media_Oriental,08/12/2013,2.0,9.3,-2.8,0.0,Carrascal
Navarra_Media_Oriental,09/12/2013,2.0,6.3,-1.3,0.0,Carrascal
Navarra_Media_Oriental,10/12/2013,0.8,3.6,-1.4,0.0,Carrascal
Navarra_Media_Oriental,11/12/2013,0.9,3.3,-1.9,0.0,Carrascal
Navarra_Media_Oriental,12/12/2013,1.3,2.9,-0.9,0.2,Carrascal
Navarra_Media_Oriental,13/12/2013,1.2,6.9,-2.1,0.3,Carrascal
Navarra_Media_Oriental,14/12/2013,6.9,12.8,2.5,0.1,Carrascal
Navarra_Media_Oriental,15/12/2013,2.3,7.7,-1.9,0.0,Carrascal
Navarra_Media_Oriental,16/12/2013,0.6,6.1,-1.9,0.2,Carrascal
Navarra_Media_Oriental,17/12/2013,5.4,9.8,2.6,0.1,Carrascal
Navarra_Media_Oriental,18/12/2013,5.0,7.4,3.4,0.3,Carrascal
Navarra_Media_Oriental,19/12/2013,6.6,9.2,4.1,7.1,Carrascal
Navarra_Media_Oriental,20/12/2013,4.1,6.7,0.7,2.3,Carrascal
Navarra_Media_Oriental,21/12/2013,1.6,7.0,-2.4,0.0,Carrascal
Navarra_Media_Oriental,22/12/2013,3.0,8.9,-1.0,0.0,Carrascal
Navarra_Media_Oriental,23/12/2013,5.2,10.4,-0.4,0.0,Carrascal
Navarra_Media_Oriental,24/12/2013,8.8,10.3,7.9,4.0,Carrascal
Navarra_Media_Oriental,25/12/2013,5.9,9.3,2.5,3.4,Carrascal
Navarra_Media_Oriental,26/12/2013,4.0,6.5,1.8,0.0,Carrascal
Navarra_Media_Oriental,27/12/2013,7.7,12.8,2.3,0.0,Carrascal
Navarra_Media_Oriental,28/12/2013,6.5,11.7,0.9,4.8,Carrascal
Navarra_Media_Oriental,29/12/2013,1.9,6.6,-1.1,0.0,Carrascal
Navarra_Media_Oriental,30/12/2013,1.9,6.7,-2.1,0.0,Carrascal
Navarra_Media_Oriental,31/12/2013,3.6,7.2,0.7,0.0,Carrascal
