Comarca,Fecha, Temperatura media, Temperatura maxima, Temperatura minima, Precipitacion acumulada,Localidad
Navarra_Media_Oriental,01/01/2009,6.3,11.5,2.5,0.2,Getadar
Navarra_Media_Oriental,02/01/2009,6.5,10.8,3.7,0.0,Getadar
Navarra_Media_Oriental,03/01/2009,2.1,5.8,-0.1,0.2,Getadar
Navarra_Media_Oriental,04/01/2009,1.3,5.2,-1.0,0.0,Getadar
Navarra_Media_Oriental,05/01/2009,1.1,3.7,-1.3,0.2,Getadar
Navarra_Media_Oriental,06/01/2009,-0.9,1.0,-3.6,0.2,Getadar
Navarra_Media_Oriental,07/01/2009,-4.9,-3.1,-6.8,0.0,Getadar
Navarra_Media_Oriental,08/01/2009,-4.5,-1.6,-6.4,0.0,Getadar
Navarra_Media_Oriental,09/01/2009,-1.1,4.1,-5.8,0.0,Getadar
Navarra_Media_Oriental,10/01/2009,-0.4,2.3,-2.2,1.1,Getadar
Navarra_Media_Oriental,11/01/2009,-1.1,4.0,-3.8,0.2,Getadar
Navarra_Media_Oriental,12/01/2009,-0.9,4.2,-3.9,0.2,Getadar
Navarra_Media_Oriental,13/01/2009,-0.7,3.0,-3.9,4.2,Getadar
Navarra_Media_Oriental,14/01/2009,2.2,5.7,-1.9,0.9,Getadar
Navarra_Media_Oriental,15/01/2009,0.2,5.4,-3.2,0.2,Getadar
Navarra_Media_Oriental,16/01/2009,1.0,5.9,-2.7,0.0,Getadar
Navarra_Media_Oriental,17/01/2009,2.5,8.5,-0.6,0.0,Getadar
Navarra_Media_Oriental,18/01/2009,3.0,7.8,-2.0,0.2,Getadar
Navarra_Media_Oriental,19/01/2009,5.6,8.7,-0.3,5.7,Getadar
Navarra_Media_Oriental,20/01/2009,-0.6,3.4,-3.4,0.9,Getadar
Navarra_Media_Oriental,21/01/2009,-0.2,3.0,-3.5,1.3,Getadar
Navarra_Media_Oriental,22/01/2009,-0.0,7.3,-2.2,16.1,Getadar
Navarra_Media_Oriental,23/01/2009,8.6,13.1,2.6,12.1,Getadar
Navarra_Media_Oriental,24/01/2009,2.9,9.7,-0.7,21.3,Getadar
Navarra_Media_Oriental,25/01/2009,0.2,3.2,-1.5,2.0,Getadar
Navarra_Media_Oriental,26/01/2009,-0.2,1.1,-1.5,28.6,Getadar
Navarra_Media_Oriental,27/01/2009,1.4,3.9,-0.4,31.7,Getadar
Navarra_Media_Oriental,28/01/2009,5.3,9.1,1.8,0.7,Getadar
Navarra_Media_Oriental,29/01/2009,5.6,10.3,2.6,2.9,Getadar
Navarra_Media_Oriental,30/01/2009,6.0,11.1,2.5,0.2,Getadar
Navarra_Media_Oriental,31/01/2009,5.1,6.5,3.0,4.0,Getadar
Navarra_Media_Oriental,01/02/2009,2.5,4.2,0.1,11.7,Getadar
Navarra_Media_Oriental,02/02/2009,1.6,3.4,-0.2,6.8,Getadar
Navarra_Media_Oriental,03/02/2009,1.8,6.2,-1.5,0.4,Getadar
Navarra_Media_Oriental,04/02/2009,3.7,6.9,1.4,2.6,Getadar
Navarra_Media_Oriental,05/02/2009,2.5,3.6,1.0,1.8,Getadar
Navarra_Media_Oriental,06/02/2009,0.5,2.7,-1.1,11.7,Getadar
Navarra_Media_Oriental,07/02/2009,-1.8,-0.0,-3.0,5.3,Getadar
Navarra_Media_Oriental,08/02/2009,-0.3,1.8,-2.3,13.6,Getadar
Navarra_Media_Oriental,09/02/2009,4.6,7.9,0.8,0.0,Getadar
Navarra_Media_Oriental,10/02/2009,2.8,7.5,-1.2,4.8,Getadar
Navarra_Media_Oriental,11/02/2009,2.6,4.9,-1.0,13.0,Getadar
Navarra_Media_Oriental,12/02/2009,2.2,4.5,-0.6,3.7,Getadar
Navarra_Media_Oriental,13/02/2009,0.7,5.2,-2.6,0.0,Getadar
Navarra_Media_Oriental,14/02/2009,1.6,5.8,-1.5,0.0,Getadar
Navarra_Media_Oriental,15/02/2009,0.5,8.0,-4.3,0.0,Getadar
Navarra_Media_Oriental,16/02/2009,0.2,6.1,-4.7,0.0,Getadar
Navarra_Media_Oriental,17/02/2009,1.4,7.6,-3.6,0.0,Getadar
Navarra_Media_Oriental,18/02/2009,1.4,5.9,-0.5,0.0,Getadar
Navarra_Media_Oriental,19/02/2009,2.7,8.3,-0.2,0.0,Getadar
Navarra_Media_Oriental,20/02/2009,0.9,6.0,-3.2,0.0,Getadar
Navarra_Media_Oriental,21/02/2009,1.7,6.0,-1.0,0.0,Getadar
Navarra_Media_Oriental,22/02/2009,2.0,6.1,0.1,0.0,Getadar
Navarra_Media_Oriental,23/02/2009,2.1,5.4,0.5,0.0,Getadar
Navarra_Media_Oriental,24/02/2009,3.1,7.0,0.5,0.0,Getadar
Navarra_Media_Oriental,25/02/2009,2.6,8.2,-2.9,0.0,Getadar
Navarra_Media_Oriental,26/02/2009,4.5,11.1,-0.5,0.0,Getadar
Navarra_Media_Oriental,27/02/2009,5.3,12.9,-0.1,0.0,Getadar
Navarra_Media_Oriental,28/02/2009,6.4,10.1,2.1,0.0,Getadar
Navarra_Media_Oriental,01/03/2009,6.7,10.2,4.1,0.0,Getadar
Navarra_Media_Oriental,02/03/2009,5.5,9.0,1.9,0.0,Getadar
Navarra_Media_Oriental,03/03/2009,4.4,9.1,0.5,0.0,Getadar
Navarra_Media_Oriental,04/03/2009,1.7,4.2,-1.2,14.1,Getadar
Navarra_Media_Oriental,05/03/2009,-0.5,1.2,-1.4,5.3,Getadar
Navarra_Media_Oriental,06/03/2009,1.2,3.7,-0.6,13.2,Getadar
Navarra_Media_Oriental,07/03/2009,5.4,8.4,1.3,1.8,Getadar
Navarra_Media_Oriental,08/03/2009,7.1,10.3,5.1,0.0,Getadar
Navarra_Media_Oriental,09/03/2009,5.0,7.8,2.4,0.0,Getadar
Navarra_Media_Oriental,10/03/2009,5.8,13.7,-2.0,0.0,Getadar
Navarra_Media_Oriental,11/03/2009,6.9,11.6,3.4,0.0,Getadar
Navarra_Media_Oriental,12/03/2009,9.0,16.5,1.5,0.0,Getadar
Navarra_Media_Oriental,13/03/2009,12.0,21.1,4.0,0.0,Getadar
Navarra_Media_Oriental,14/03/2009,12.5,18.4,7.1,0.0,Getadar
Navarra_Media_Oriental,15/03/2009,10.1,17.3,6.3,0.0,Getadar
Navarra_Media_Oriental,16/03/2009,11.5,21.2,4.3,0.0,Getadar
Navarra_Media_Oriental,17/03/2009,9.6,15.4,4.2,0.0,Getadar
Navarra_Media_Oriental,18/03/2009,10.0,18.2,2.7,0.0,Getadar
Navarra_Media_Oriental,19/03/2009,12.0,20.6,3.5,0.0,Getadar
Navarra_Media_Oriental,20/03/2009,13.3,20.7,8.1,0.0,Getadar
Navarra_Media_Oriental,21/03/2009,8.2,15.1,1.7,0.0,Getadar
Navarra_Media_Oriental,22/03/2009,7.6,13.5,3.4,0.0,Getadar
Navarra_Media_Oriental,23/03/2009,9.3,17.0,3.5,0.0,Getadar
Navarra_Media_Oriental,24/03/2009,5.4,9.7,1.8,0.2,Getadar
Navarra_Media_Oriental,25/03/2009,5.8,12.6,-0.4,0.0,Getadar
Navarra_Media_Oriental,26/03/2009,10.5,19.1,3.6,0.0,Getadar
Navarra_Media_Oriental,27/03/2009,11.7,19.4,3.5,0.0,Getadar
Navarra_Media_Oriental,28/03/2009,4.9,10.0,2.8,0.0,Getadar
Navarra_Media_Oriental,29/03/2009,4.5,8.8,2.0,0.0,Getadar
Navarra_Media_Oriental,30/03/2009,4.9,9.7,1.8,0.0,Getadar
Navarra_Media_Oriental,31/03/2009,5.6,11.0,2.3,0.0,Getadar
Navarra_Media_Oriental,01/04/2009,5.6,9.4,3.5,0.0,Getadar
Navarra_Media_Oriental,02/04/2009,5.9,10.3,3.1,0.0,Getadar
Navarra_Media_Oriental,03/04/2009,7.7,13.1,4.0,0.0,Getadar
Navarra_Media_Oriental,04/04/2009,9.1,16.0,2.7,0.0,Getadar
Navarra_Media_Oriental,05/04/2009,11.7,17.8,6.8,0.0,Getadar
Navarra_Media_Oriental,06/04/2009,11.3,19.2,6.2,29.5,Getadar
Navarra_Media_Oriental,07/04/2009,4.9,8.3,3.6,3.1,Getadar
Navarra_Media_Oriental,08/04/2009,7.4,12.8,3.2,0.0,Getadar
Navarra_Media_Oriental,09/04/2009,10.2,16.3,2.9,0.0,Getadar
Navarra_Media_Oriental,10/04/2009,5.3,10.2,0.9,20.2,Getadar
Navarra_Media_Oriental,11/04/2009,2.6,5.0,1.1,9.0,Getadar
Navarra_Media_Oriental,12/04/2009,4.7,8.4,1.7,0.4,Getadar
Navarra_Media_Oriental,13/04/2009,8.5,15.8,3.4,0.0,Getadar
Navarra_Media_Oriental,14/04/2009,8.3,15.3,4.4,8.6,Getadar
Navarra_Media_Oriental,15/04/2009,7.1,11.1,4.2,5.5,Getadar
Navarra_Media_Oriental,16/04/2009,5.7,10.6,2.4,4.2,Getadar
Navarra_Media_Oriental,17/04/2009,7.2,13.0,2.7,0.7,Getadar
Navarra_Media_Oriental,18/04/2009,7.8,14.4,1.5,0.0,Getadar
Navarra_Media_Oriental,19/04/2009,8.1,13.3,4.1,0.0,Getadar
Navarra_Media_Oriental,20/04/2009,6.9,10.3,4.1,2.6,Getadar
Navarra_Media_Oriental,21/04/2009,8.3,11.9,6.4,0.0,Getadar
Navarra_Media_Oriental,22/04/2009,10.7,15.6,6.4,0.0,Getadar
Navarra_Media_Oriental,23/04/2009,14.5,25.1,4.2,0.0,Getadar
Navarra_Media_Oriental,24/04/2009,14.4,23.7,8.2,0.0,Getadar
Navarra_Media_Oriental,25/04/2009,6.3,8.3,3.8,0.7,Getadar
Navarra_Media_Oriental,26/04/2009,4.2,6.3,2.5,13.2,Getadar
Navarra_Media_Oriental,27/04/2009,7.8,13.2,3.8,4.2,Getadar
Navarra_Media_Oriental,28/04/2009,8.1,13.0,4.7,2.4,Getadar
Navarra_Media_Oriental,29/04/2009,8.7,13.9,5.3,0.4,Getadar
Navarra_Media_Oriental,30/04/2009,9.5,14.3,5.2,0.0,Getadar
Navarra_Media_Oriental,01/05/2009,7.5,11.5,4.3,0.0,Getadar
Navarra_Media_Oriental,02/05/2009,11.4,17.5,5.8,0.0,Getadar
Navarra_Media_Oriental,03/05/2009,12.8,19.1,7.9,0.0,Getadar
Navarra_Media_Oriental,04/05/2009,9.6,14.4,5.7,0.0,Getadar
Navarra_Media_Oriental,05/05/2009,11.9,18.2,6.0,0.0,Getadar
Navarra_Media_Oriental,06/05/2009,17.3,25.6,7.8,0.0,Getadar
Navarra_Media_Oriental,07/05/2009,19.0,26.0,13.0,0.0,Getadar
Navarra_Media_Oriental,08/05/2009,16.9,23.7,12.7,0.4,Getadar
Navarra_Media_Oriental,09/05/2009,16.0,22.4,11.3,1.8,Getadar
Navarra_Media_Oriental,10/05/2009,14.7,19.6,11.3,9.9,Getadar
Navarra_Media_Oriental,11/05/2009,16.2,23.0,10.0,0.2,Getadar
Navarra_Media_Oriental,12/05/2009,16.0,22.6,9.0,0.0,Getadar
Navarra_Media_Oriental,13/05/2009,15.5,20.8,11.4,0.2,Getadar
Navarra_Media_Oriental,14/05/2009,9.8,12.2,6.4,0.2,Getadar
Navarra_Media_Oriental,15/05/2009,7.7,12.0,5.0,0.0,Getadar
Navarra_Media_Oriental,16/05/2009,13.8,22.0,4.4,0.0,Getadar
Navarra_Media_Oriental,17/05/2009,14.1,20.6,9.1,1.5,Getadar
Navarra_Media_Oriental,18/05/2009,13.7,20.8,8.1,0.0,Getadar
Navarra_Media_Oriental,19/05/2009,15.6,24.1,8.8,0.0,Getadar
Navarra_Media_Oriental,20/05/2009,18.7,26.4,12.0,1.5,Getadar
Navarra_Media_Oriental,21/05/2009,18.1,24.9,12.6,0.0,Getadar
Navarra_Media_Oriental,22/05/2009,19.6,27.7,12.0,0.0,Getadar
Navarra_Media_Oriental,23/05/2009,18.5,24.4,13.9,1.5,Getadar
Navarra_Media_Oriental,24/05/2009,16.4,23.1,11.2,13.9,Getadar
Navarra_Media_Oriental,25/05/2009,15.1,20.4,11.2,0.9,Getadar
Navarra_Media_Oriental,26/05/2009,10.7,13.7,7.5,0.4,Getadar
Navarra_Media_Oriental,27/05/2009,10.8,16.6,5.8,0.0,Getadar
Navarra_Media_Oriental,28/05/2009,16.7,24.5,8.5,0.0,Getadar
Navarra_Media_Oriental,29/05/2009,19.7,27.8,10.9,0.0,Getadar
Navarra_Media_Oriental,30/05/2009,20.0,27.7,13.2,0.0,Getadar
Navarra_Media_Oriental,31/05/2009,17.5,23.7,11.8,0.0,Getadar
Navarra_Media_Oriental,01/06/2009,16.5,23.1,10.0,0.0,Getadar
Navarra_Media_Oriental,02/06/2009,18.4,24.8,11.9,0.0,Getadar
Navarra_Media_Oriental,03/06/2009,19.5,27.3,11.4,0.0,Getadar
Navarra_Media_Oriental,04/06/2009,18.9,26.5,13.9,0.7,Getadar
Navarra_Media_Oriental,05/06/2009,14.7,19.9,9.0,5.7,Getadar
Navarra_Media_Oriental,06/06/2009,11.8,19.2,8.3,15.0,Getadar
Navarra_Media_Oriental,07/06/2009,13.5,18.7,9.1,0.2,Getadar
Navarra_Media_Oriental,08/06/2009,13.8,17.8,7.8,3.5,Getadar
Navarra_Media_Oriental,09/06/2009,13.8,19.0,6.9,0.0,Getadar
Navarra_Media_Oriental,10/06/2009,18.2,24.2,11.8,0.0,Getadar
Navarra_Media_Oriental,11/06/2009,18.7,24.9,13.4,0.0,Getadar
Navarra_Media_Oriental,12/06/2009,21.8,30.9,11.5,0.0,Getadar
Navarra_Media_Oriental,13/06/2009,25.1,33.8,16.4,0.0,Getadar
Navarra_Media_Oriental,14/06/2009,22.8,28.8,16.9,5.5,Getadar
Navarra_Media_Oriental,15/06/2009,18.9,25.5,13.6,0.2,Getadar
Navarra_Media_Oriental,16/06/2009,17.2,21.5,12.1,0.7,Getadar
Navarra_Media_Oriental,17/06/2009,21.7,29.2,16.1,10.1,Getadar
Navarra_Media_Oriental,18/06/2009,22.8,31.2,15.6,7.9,Getadar
Navarra_Media_Oriental,19/06/2009,16.9,21.0,12.8,0.4,Getadar
Navarra_Media_Oriental,20/06/2009,13.9,18.8,9.3,0.0,Getadar
Navarra_Media_Oriental,21/06/2009,13.6,19.0,8.9,0.0,Getadar
Navarra_Media_Oriental,22/06/2009,17.1,23.6,10.8,0.0,Getadar
Navarra_Media_Oriental,23/06/2009,19.2,26.7,10.5,0.0,Getadar
Navarra_Media_Oriental,24/06/2009,19.3,28.5,11.7,0.0,Getadar
Navarra_Media_Oriental,25/06/2009,18.8,25.9,12.2,0.0,Getadar
Navarra_Media_Oriental,26/06/2009,17.9,24.6,13.0,0.2,Getadar
Navarra_Media_Oriental,27/06/2009,19.1,27.0,11.2,0.0,Getadar
Navarra_Media_Oriental,28/06/2009,22.1,30.5,14.6,0.0,Getadar
Navarra_Media_Oriental,29/06/2009,23.4,31.2,14.9,0.0,Getadar
Navarra_Media_Oriental,30/06/2009,24.7,32.6,17.8,0.2,Getadar
Navarra_Media_Oriental,01/07/2009,24.8,32.7,17.6,0.0,Getadar
Navarra_Media_Oriental,02/07/2009,21.3,27.8,16.6,0.0,Getadar
Navarra_Media_Oriental,03/07/2009,22.0,30.1,15.5,0.0,Getadar
Navarra_Media_Oriental,04/07/2009,20.5,27.9,16.0,0.0,Getadar
Navarra_Media_Oriental,05/07/2009,20.3,27.1,15.5,0.0,Getadar
Navarra_Media_Oriental,06/07/2009,17.0,22.2,12.8,0.0,Getadar
Navarra_Media_Oriental,07/07/2009,15.2,21.2,11.4,0.0,Getadar
Navarra_Media_Oriental,08/07/2009,15.9,22.7,11.2,0.0,Getadar
Navarra_Media_Oriental,09/07/2009,16.0,22.4,11.3,0.0,Getadar
Navarra_Media_Oriental,10/07/2009,17.1,25.4,11.0,0.0,Getadar
Navarra_Media_Oriental,11/07/2009,20.9,30.8,10.1,0.0,Getadar
Navarra_Media_Oriental,12/07/2009,24.3,32.9,16.3,0.0,Getadar
Navarra_Media_Oriental,13/07/2009,23.2,34.1,16.0,0.0,Getadar
Navarra_Media_Oriental,14/07/2009,20.0,28.6,14.2,0.0,Getadar
Navarra_Media_Oriental,15/07/2009,21.3,30.6,13.5,0.0,Getadar
Navarra_Media_Oriental,16/07/2009,22.3,33.3,14.7,3.1,Getadar
Navarra_Media_Oriental,17/07/2009,14.2,19.4,10.4,0.4,Getadar
Navarra_Media_Oriental,18/07/2009,15.7,23.2,10.0,0.2,Getadar
Navarra_Media_Oriental,19/07/2009,20.1,29.2,12.2,0.0,Getadar
Navarra_Media_Oriental,20/07/2009,20.6,32.1,15.0,2.4,Getadar
Navarra_Media_Oriental,21/07/2009,24.3,33.8,15.1,0.0,Getadar
Navarra_Media_Oriental,22/07/2009,26.5,34.0,18.6,0.0,Getadar
Navarra_Media_Oriental,23/07/2009,23.2,28.0,15.3,0.0,Getadar
Navarra_Media_Oriental,24/07/2009,19.1,27.3,13.1,0.0,Getadar
Navarra_Media_Oriental,25/07/2009,20.2,29.3,12.3,0.0,Getadar
Navarra_Media_Oriental,26/07/2009,24.5,34.2,14.7,0.0,Getadar
Navarra_Media_Oriental,27/07/2009,18.8,22.9,14.2,0.0,Getadar
Navarra_Media_Oriental,28/07/2009,21.4,31.1,12.6,0.0,Getadar
Navarra_Media_Oriental,29/07/2009,22.0,33.1,15.1,0.0,Getadar
Navarra_Media_Oriental,30/07/2009,18.9,25.3,14.2,0.0,Getadar
Navarra_Media_Oriental,31/07/2009,22.0,31.8,12.0,0.0,Getadar
Navarra_Media_Oriental,01/08/2009,18.1,27.9,12.8,2.9,Getadar
Navarra_Media_Oriental,02/08/2009,16.6,23.0,12.0,0.0,Getadar
Navarra_Media_Oriental,03/08/2009,19.1,26.9,12.8,0.0,Getadar
Navarra_Media_Oriental,04/08/2009,22.7,31.5,12.8,0.0,Getadar
Navarra_Media_Oriental,05/08/2009,23.9,34.4,17.1,6.4,Getadar
Navarra_Media_Oriental,06/08/2009,20.0,30.2,15.5,2.4,Getadar
Navarra_Media_Oriental,07/08/2009,16.6,21.5,13.7,0.0,Getadar
Navarra_Media_Oriental,08/08/2009,16.6,23.8,13.0,7.9,Getadar
Navarra_Media_Oriental,09/08/2009,15.4,20.1,13.3,1.3,Getadar
Navarra_Media_Oriental,10/08/2009,18.4,25.8,13.1,0.0,Getadar
Navarra_Media_Oriental,11/08/2009,20.4,30.9,13.7,0.0,Getadar
Navarra_Media_Oriental,12/08/2009,21.3,29.7,15.0,0.0,Getadar
Navarra_Media_Oriental,13/08/2009,22.1,30.6,15.5,0.0,Getadar
Navarra_Media_Oriental,14/08/2009,24.0,32.4,15.8,0.0,Getadar
Navarra_Media_Oriental,15/08/2009,26.2,33.6,18.2,0.0,Getadar
Navarra_Media_Oriental,16/08/2009,25.8,34.5,19.4,0.0,Getadar
Navarra_Media_Oriental,17/08/2009,25.8,35.3,19.5,0.0,Getadar
Navarra_Media_Oriental,18/08/2009,27.0,35.1,18.5,0.0,Getadar
Navarra_Media_Oriental,19/08/2009,27.8,34.4,20.7,0.0,Getadar
Navarra_Media_Oriental,20/08/2009,24.1,33.7,17.3,0.0,Getadar
Navarra_Media_Oriental,21/08/2009,20.1,27.7,15.4,0.0,Getadar
Navarra_Media_Oriental,22/08/2009,21.6,31.2,14.0,0.0,Getadar
Navarra_Media_Oriental,23/08/2009,24.9,33.8,15.8,0.0,Getadar
Navarra_Media_Oriental,24/08/2009,22.5,30.0,16.5,0.0,Getadar
Navarra_Media_Oriental,25/08/2009,16.9,21.7,14.0,5.9,Getadar
Navarra_Media_Oriental,26/08/2009,20.4,30.2,13.1,0.0,Getadar
Navarra_Media_Oriental,27/08/2009,22.7,32.1,15.1,0.0,Getadar
Navarra_Media_Oriental,28/08/2009,18.7,23.2,14.1,0.0,Getadar
Navarra_Media_Oriental,29/08/2009,15.4,21.3,11.4,0.0,Getadar
Navarra_Media_Oriental,30/08/2009,18.5,27.8,11.0,0.0,Getadar
Navarra_Media_Oriental,31/08/2009,22.3,30.1,14.6,0.7,Getadar
Navarra_Media_Oriental,01/09/2009,20.3,27.9,15.1,0.0,Getadar
Navarra_Media_Oriental,02/09/2009,19.8,27.9,14.6,0.0,Getadar
Navarra_Media_Oriental,03/09/2009,19.5,24.9,15.0,0.0,Getadar
Navarra_Media_Oriental,04/09/2009,15.9,19.9,11.6,0.0,Getadar
Navarra_Media_Oriental,05/09/2009,14.7,21.9,9.6,0.0,Getadar
Navarra_Media_Oriental,06/09/2009,18.9,28.0,9.5,0.0,Getadar
Navarra_Media_Oriental,07/09/2009,21.6,27.7,15.8,0.0,Getadar
Navarra_Media_Oriental,08/09/2009,21.5,28.7,14.7,0.0,Getadar
Navarra_Media_Oriental,09/09/2009,20.5,28.1,14.7,0.0,Getadar
Navarra_Media_Oriental,10/09/2009,21.0,29.6,13.5,0.0,Getadar
Navarra_Media_Oriental,11/09/2009,20.3,27.8,14.4,0.0,Getadar
Navarra_Media_Oriental,12/09/2009,18.0,25.2,12.8,0.0,Getadar
Navarra_Media_Oriental,13/09/2009,16.6,23.7,12.2,0.0,Getadar
Navarra_Media_Oriental,14/09/2009,13.8,18.3,11.4,0.0,Getadar
Navarra_Media_Oriental,15/09/2009,12.9,18.3,9.0,0.0,Getadar
Navarra_Media_Oriental,16/09/2009,11.2,16.8,6.3,0.0,Getadar
Navarra_Media_Oriental,17/09/2009,11.7,20.3,6.8,7.9,Getadar
Navarra_Media_Oriental,18/09/2009,10.2,11.6,9.2,32.6,Getadar
Navarra_Media_Oriental,19/09/2009,12.0,15.3,9.0,0.9,Getadar
Navarra_Media_Oriental,20/09/2009,12.9,17.0,10.2,0.0,Getadar
Navarra_Media_Oriental,21/09/2009,14.7,19.3,11.2,0.2,Getadar
Navarra_Media_Oriental,22/09/2009,16.4,22.8,12.3,0.0,Getadar
Navarra_Media_Oriental,23/09/2009,17.6,24.8,11.2,0.0,Getadar
Navarra_Media_Oriental,24/09/2009,17.2,23.7,12.3,0.0,Getadar
Navarra_Media_Oriental,25/09/2009,15.5,20.9,11.9,0.0,Getadar
Navarra_Media_Oriental,26/09/2009,16.0,23.3,10.2,0.0,Getadar
Navarra_Media_Oriental,27/09/2009,16.6,23.7,11.0,0.0,Getadar
Navarra_Media_Oriental,28/09/2009,16.6,23.1,12.0,0.0,Getadar
Navarra_Media_Oriental,29/09/2009,16.6,24.0,10.9,0.0,Getadar
Navarra_Media_Oriental,30/09/2009,16.9,22.4,12.7,0.0,Getadar
Navarra_Media_Oriental,01/10/2009,16.3,21.7,12.1,0.0,Getadar
Navarra_Media_Oriental,02/10/2009,13.7,18.6,10.6,0.0,Getadar
Navarra_Media_Oriental,03/10/2009,14.5,21.4,8.7,0.0,Getadar
Navarra_Media_Oriental,04/10/2009,17.3,25.4,8.9,0.0,Getadar
Navarra_Media_Oriental,05/10/2009,21.0,27.3,13.9,0.0,Getadar
Navarra_Media_Oriental,06/10/2009,21.9,26.3,18.4,0.0,Getadar
Navarra_Media_Oriental,07/10/2009,19.2,24.1,15.1,7.2,Getadar
Navarra_Media_Oriental,08/10/2009,16.0,21.4,13.0,1.1,Getadar
Navarra_Media_Oriental,09/10/2009,15.2,21.0,11.1,0.2,Getadar
Navarra_Media_Oriental,10/10/2009,14.6,18.9,12.5,0.0,Getadar
Navarra_Media_Oriental,11/10/2009,14.6,17.2,12.7,1.5,Getadar
Navarra_Media_Oriental,12/10/2009,13.6,18.3,10.4,0.2,Getadar
Navarra_Media_Oriental,13/10/2009,12.7,19.6,8.2,0.0,Getadar
Navarra_Media_Oriental,14/10/2009,12.9,19.8,8.9,0.0,Getadar
Navarra_Media_Oriental,15/10/2009,8.5,14.1,3.1,0.0,Getadar
Navarra_Media_Oriental,16/10/2009,6.6,14.2,2.0,0.0,Getadar
Navarra_Media_Oriental,17/10/2009,8.7,14.1,4.7,0.0,Getadar
Navarra_Media_Oriental,18/10/2009,7.5,14.7,2.5,0.0,Getadar
Navarra_Media_Oriental,19/10/2009,8.0,14.6,1.1,0.0,Getadar
Navarra_Media_Oriental,20/10/2009,11.5,15.9,8.3,25.9,Getadar
Navarra_Media_Oriental,21/10/2009,9.5,13.5,6.9,0.7,Getadar
Navarra_Media_Oriental,22/10/2009,8.4,10.3,6.5,30.3,Getadar
Navarra_Media_Oriental,23/10/2009,10.7,14.2,7.5,3.3,Getadar
Navarra_Media_Oriental,24/10/2009,15.3,20.6,11.1,0.2,Getadar
Navarra_Media_Oriental,25/10/2009,14.9,18.1,10.6,0.2,Getadar
Navarra_Media_Oriental,26/10/2009,13.4,20.7,9.1,0.0,Getadar
Navarra_Media_Oriental,27/10/2009,13.4,21.4,7.7,0.2,Getadar
Navarra_Media_Oriental,28/10/2009,13.7,18.9,9.7,0.0,Getadar
Navarra_Media_Oriental,29/10/2009,14.4,22.9,10.0,0.2,Getadar
Navarra_Media_Oriental,30/10/2009,15.5,23.2,10.1,0.0,Getadar
Navarra_Media_Oriental,31/10/2009,16.2,21.1,12.4,0.0,Getadar
Navarra_Media_Oriental,01/11/2009,13.9,18.4,10.1,13.8,Getadar
Navarra_Media_Oriental,02/11/2009,8.5,11.5,7.0,0.2,Getadar
Navarra_Media_Oriental,03/11/2009,10.8,14.6,7.9,0.0,Getadar
Navarra_Media_Oriental,04/11/2009,8.6,11.8,3.0,4.2,Getadar
Navarra_Media_Oriental,05/11/2009,4.5,6.8,2.3,3.7,Getadar
Navarra_Media_Oriental,06/11/2009,5.7,8.3,2.6,9.9,Getadar
Navarra_Media_Oriental,07/11/2009,5.8,10.3,2.8,7.9,Getadar
Navarra_Media_Oriental,08/11/2009,3.9,5.1,2.6,64.4,Getadar
Navarra_Media_Oriental,09/11/2009,3.8,7.4,0.9,33.4,Getadar
Navarra_Media_Oriental,10/11/2009,6.4,10.2,2.7,1.3,Getadar
Navarra_Media_Oriental,11/11/2009,9.4,13.8,6.8,1.8,Getadar
Navarra_Media_Oriental,12/11/2009,9.1,14.6,5.6,0.2,Getadar
Navarra_Media_Oriental,13/11/2009,10.3,13.8,6.3,0.0,Getadar
Navarra_Media_Oriental,14/11/2009,12.1,14.8,9.2,0.0,Getadar
Navarra_Media_Oriental,15/11/2009,13.0,16.0,9.5,0.0,Getadar
Navarra_Media_Oriental,16/11/2009,14.5,17.1,10.5,0.0,Getadar
Navarra_Media_Oriental,17/11/2009,13.5,16.9,8.6,0.0,Getadar
Navarra_Media_Oriental,18/11/2009,10.2,15.1,6.2,0.0,Getadar
Navarra_Media_Oriental,19/11/2009,11.2,16.0,6.9,0.0,Getadar
Navarra_Media_Oriental,20/11/2009,10.9,15.1,7.7,0.0,Getadar
Navarra_Media_Oriental,21/11/2009,11.8,16.1,8.8,1.1,Getadar
Navarra_Media_Oriental,22/11/2009,8.9,13.1,5.1,1.1,Getadar
Navarra_Media_Oriental,23/11/2009,7.3,13.4,4.0,0.0,Getadar
Navarra_Media_Oriental,24/11/2009,6.9,13.8,2.1,0.2,Getadar
Navarra_Media_Oriental,25/11/2009,8.1,10.1,4.9,0.0,Getadar
Navarra_Media_Oriental,26/11/2009,8.9,12.4,5.6,3.1,Getadar
Navarra_Media_Oriental,27/11/2009,5.2,10.3,1.3,0.0,Getadar
Navarra_Media_Oriental,28/11/2009,4.3,7.2,0.6,0.2,Getadar
Navarra_Media_Oriental,29/11/2009,3.9,7.1,-0.1,11.0,Getadar
Navarra_Media_Oriental,30/11/2009,0.5,2.3,-0.7,16.7,Getadar
Navarra_Media_Oriental,01/12/2009,2.6,6.1,-0.1,20.9,Getadar
Navarra_Media_Oriental,02/12/2009,4.8,7.5,2.4,1.8,Getadar
Navarra_Media_Oriental,03/12/2009,5.4,7.7,4.1,9.0,Getadar
Navarra_Media_Oriental,04/12/2009,6.2,8.4,3.0,1.8,Getadar
Navarra_Media_Oriental,05/12/2009,6.0,9.3,2.9,0.0,Getadar
Navarra_Media_Oriental,06/12/2009,7.3,8.0,5.5,0.0,Getadar
Navarra_Media_Oriental,07/12/2009,7.7,9.7,5.3,0.9,Getadar
Navarra_Media_Oriental,08/12/2009,6.2,11.4,3.1,0.0,Getadar
Navarra_Media_Oriental,09/12/2009,6.5,12.3,3.6,0.2,Getadar
Navarra_Media_Oriental,10/12/2009,5.9,10.7,-0.2,0.0,Getadar
Navarra_Media_Oriental,11/12/2009,5.5,11.9,2.4,0.2,Getadar
Navarra_Media_Oriental,12/12/2009,4.9,9.7,0.8,0.0,Getadar
Navarra_Media_Oriental,13/12/2009,-1.2,0.8,-2.7,0.0,Getadar
Navarra_Media_Oriental,14/12/2009,-2.3,0.6,-3.9,0.0,Getadar
Navarra_Media_Oriental,15/12/2009,-1.8,0.7,-4.2,0.0,Getadar
Navarra_Media_Oriental,16/12/2009,-2.2,-0.9,-3.5,0.0,Getadar
Navarra_Media_Oriental,17/12/2009,-2.3,-0.1,-4.6,2.6,Getadar
Navarra_Media_Oriental,18/12/2009,-2.6,1.0,-6.3,0.2,Getadar
Navarra_Media_Oriental,19/12/2009,-4.9,-2.5,-6.7,0.4,Getadar
Navarra_Media_Oriental,20/12/2009,-2.2,3.4,-6.4,0.0,Getadar
Navarra_Media_Oriental,21/12/2009,0.4,5.1,-3.5,3.1,Getadar
Navarra_Media_Oriental,22/12/2009,5.9,8.2,3.8,4.0,Getadar
Navarra_Media_Oriental,23/12/2009,2.6,5.7,-0.1,17.8,Getadar
Navarra_Media_Oriental,24/12/2009,7.3,10.3,2.8,2.9,Getadar
Navarra_Media_Oriental,25/12/2009,3.2,6.4,1.0,0.4,Getadar
Navarra_Media_Oriental,26/12/2009,3.0,3.9,2.4,21.5,Getadar
Navarra_Media_Oriental,27/12/2009,2.9,6.9,-1.5,0.0,Getadar
Navarra_Media_Oriental,28/12/2009,4.3,6.7,2.5,6.6,Getadar
Navarra_Media_Oriental,29/12/2009,8.7,10.2,6.7,0.9,Getadar
Navarra_Media_Oriental,30/12/2009,8.0,11.2,4.3,7.5,Getadar
Navarra_Media_Oriental,31/12/2009,5.3,6.9,2.2,7.5,Getadar
