Comarca,Fecha, Temperatura media, Temperatura maxima, Temperatura minima, Precipitacion acumulada,Localidad
Navarra_Media_Oriental,01/01/2015,8.1,13.3,3.0,0.0,Getadar
Navarra_Media_Oriental,02/01/2015,8.5,13.4,3.3,0.0,Getadar
Navarra_Media_Oriental,03/01/2015,8.2,15.7,3.5,0.0,Getadar
Navarra_Media_Oriental,04/01/2015,8.2,11.0,5.7,0.0,Getadar
Navarra_Media_Oriental,05/01/2015,4.7,10.6,0.9,0.0,Getadar
Navarra_Media_Oriental,06/01/2015,5.9,10.2,1.3,0.2,Getadar
Navarra_Media_Oriental,07/01/2015,4.3,9.4,0.3,0.0,Getadar
Navarra_Media_Oriental,08/01/2015,2.7,8.8,-3.7,0.2,Getadar
Navarra_Media_Oriental,09/01/2015,8.9,14.8,2.1,0.0,Getadar
Navarra_Media_Oriental,10/01/2015,11.2,18.6,6.3,0.0,Getadar
Navarra_Media_Oriental,11/01/2015,6.1,9.7,-1.0,0.0,Getadar
Navarra_Media_Oriental,12/01/2015,5.0,11.2,-0.8,0.0,Getadar
Navarra_Media_Oriental,13/01/2015,6.4,11.0,2.2,0.0,Getadar
Navarra_Media_Oriental,14/01/2015,6.3,10.4,2.6,0.0,Getadar
Navarra_Media_Oriental,15/01/2015,6.1,8.9,3.1,3.0,Getadar
Navarra_Media_Oriental,16/01/2015,3.3,6.4,0.2,7.6,Getadar
Navarra_Media_Oriental,17/01/2015,1.2,5.9,-1.4,9.2,Getadar
Navarra_Media_Oriental,18/01/2015,-0.1,2.6,-2.3,0.5,Getadar
Navarra_Media_Oriental,19/01/2015,0.5,2.8,-0.9,4.6,Getadar
Navarra_Media_Oriental,20/01/2015,0.3,3.0,-1.7,0.2,Getadar
Navarra_Media_Oriental,21/01/2015,0.6,3.1,-0.9,3.2,Getadar
Navarra_Media_Oriental,22/01/2015,1.1,4.6,-1.1,2.1,Getadar
Navarra_Media_Oriental,23/01/2015,1.0,4.0,-0.3,0.2,Getadar
Navarra_Media_Oriental,24/01/2015,2.7,5.7,0.3,0.0,Getadar
Navarra_Media_Oriental,25/01/2015,1.0,4.5,-0.8,0.0,Getadar
Navarra_Media_Oriental,26/01/2015,1.9,4.1,-0.0,0.0,Getadar
Navarra_Media_Oriental,27/01/2015,4.2,6.5,2.4,1.8,Getadar
Navarra_Media_Oriental,28/01/2015,4.1,6.8,2.1,1.6,Getadar
Navarra_Media_Oriental,29/01/2015,6.3,8.9,1.9,2.1,Getadar
Navarra_Media_Oriental,30/01/2015,3.2,8.4,0.2,50.4,Getadar
Navarra_Media_Oriental,31/01/2015,0.8,3.3,-0.7,21.3,Getadar
Navarra_Media_Oriental,01/02/2015,-0.7,1.5,-1.4,21.4,Getadar
Navarra_Media_Oriental,02/02/2015,-0.2,2.7,-1.9,12.9,Getadar
Navarra_Media_Oriental,03/02/2015,-0.5,2.1,-3.1,16.5,Getadar
Navarra_Media_Oriental,04/02/2015,-3.3,-1.5,-4.2,1.2,Getadar
Navarra_Media_Oriental,05/02/2015,-3.4,0.1,-5.2,0.0,Getadar
Navarra_Media_Oriental,06/02/2015,-4.4,-1.7,-6.0,0.0,Getadar
Navarra_Media_Oriental,07/02/2015,-2.7,2.2,-5.5,0.0,Getadar
Navarra_Media_Oriental,08/02/2015,-1.5,0.5,-3.8,0.0,Getadar
Navarra_Media_Oriental,09/02/2015,0.7,5.8,-2.2,0.0,Getadar
Navarra_Media_Oriental,10/02/2015,1.2,7.2,-3.8,0.2,Getadar
Navarra_Media_Oriental,11/02/2015,2.2,5.7,-1.4,1.6,Getadar
Navarra_Media_Oriental,12/02/2015,3.3,7.1,1.4,5.1,Getadar
Navarra_Media_Oriental,13/02/2015,4.1,8.7,0.2,0.2,Getadar
Navarra_Media_Oriental,14/02/2015,3.6,5.3,1.6,18.3,Getadar
Navarra_Media_Oriental,15/02/2015,4.3,7.6,2.0,9.2,Getadar
Navarra_Media_Oriental,16/02/2015,4.3,7.7,2.3,5.7,Getadar
Navarra_Media_Oriental,17/02/2015,3.3,6.2,1.5,1.6,Getadar
Navarra_Media_Oriental,18/02/2015,2.7,7.7,-1.0,0.0,Getadar
Navarra_Media_Oriental,19/02/2015,3.3,10.4,-1.4,0.2,Getadar
Navarra_Media_Oriental,20/02/2015,3.9,9.0,-0.9,4.3,Getadar
Navarra_Media_Oriental,21/02/2015,1.9,4.0,0.0,17.9,Getadar
Navarra_Media_Oriental,22/02/2015,2.7,5.8,0.0,15.3,Getadar
Navarra_Media_Oriental,23/02/2015,5.8,10.8,2.1,6.9,Getadar
Navarra_Media_Oriental,24/02/2015,1.1,2.5,0.1,17.9,Getadar
Navarra_Media_Oriental,25/02/2015,4.9,7.9,1.1,33.7,Getadar
Navarra_Media_Oriental,26/02/2015,7.8,9.7,6.8,3.2,Getadar
Navarra_Media_Oriental,27/02/2015,3.1,7.8,1.3,8.0,Getadar
Navarra_Media_Oriental,28/02/2015,5.5,10.1,1.2,0.9,Getadar
Navarra_Media_Oriental,01/03/2015,10.5,14.2,8.2,1.1,Getadar
Navarra_Media_Oriental,02/03/2015,10.7,13.5,8.2,0.2,Getadar
Navarra_Media_Oriental,03/03/2015,10.6,16.3,7.7,0.2,Getadar
Navarra_Media_Oriental,04/03/2015,3.6,7.9,0.5,3.0,Getadar
Navarra_Media_Oriental,05/03/2015,3.2,7.0,0.2,0.7,Getadar
Navarra_Media_Oriental,06/03/2015,8.5,17.4,1.5,0.0,Getadar
Navarra_Media_Oriental,07/03/2015,11.7,21.6,2.3,0.0,Getadar
Navarra_Media_Oriental,08/03/2015,11.9,17.0,7.9,0.0,Getadar
Navarra_Media_Oriental,09/03/2015,12.2,19.8,5.4,0.0,Getadar
Navarra_Media_Oriental,10/03/2015,12.6,20.5,4.3,0.0,Getadar
Navarra_Media_Oriental,11/03/2015,11.8,19.5,7.0,0.0,Getadar
Navarra_Media_Oriental,12/03/2015,10.7,20.5,4.6,0.0,Getadar
Navarra_Media_Oriental,13/03/2015,5.7,9.3,1.5,0.2,Getadar
Navarra_Media_Oriental,14/03/2015,1.3,3.4,-0.2,7.3,Getadar
Navarra_Media_Oriental,15/03/2015,3.0,7.0,0.5,0.7,Getadar
Navarra_Media_Oriental,16/03/2015,4.5,9.0,1.4,0.0,Getadar
Navarra_Media_Oriental,17/03/2015,6.8,12.5,1.3,0.0,Getadar
Navarra_Media_Oriental,18/03/2015,7.2,9.7,5.0,0.4,Getadar
Navarra_Media_Oriental,19/03/2015,9.0,15.4,5.5,9.3,Getadar
Navarra_Media_Oriental,20/03/2015,6.5,10.9,3.1,4.8,Getadar
Navarra_Media_Oriental,21/03/2015,4.7,7.8,2.7,8.2,Getadar
Navarra_Media_Oriental,22/03/2015,4.1,5.9,0.5,15.8,Getadar
Navarra_Media_Oriental,23/03/2015,4.1,6.8,-0.0,34.7,Getadar
Navarra_Media_Oriental,24/03/2015,4.6,7.2,1.1,5.8,Getadar
Navarra_Media_Oriental,25/03/2015,2.1,5.6,-0.2,1.1,Getadar
Navarra_Media_Oriental,26/03/2015,5.3,8.8,0.1,1.1,Getadar
Navarra_Media_Oriental,27/03/2015,8.5,12.0,5.3,0.0,Getadar
Navarra_Media_Oriental,28/03/2015,10.0,14.6,7.2,0.0,Getadar
Navarra_Media_Oriental,29/03/2015,11.0,16.0,7.8,0.0,Getadar
Navarra_Media_Oriental,30/03/2015,10.9,13.1,9.0,0.0,Getadar
Navarra_Media_Oriental,31/03/2015,10.7,14.1,8.4,0.0,Getadar
Navarra_Media_Oriental,01/04/2015,7.1,10.5,3.7,0.0,Getadar
Navarra_Media_Oriental,02/04/2015,10.1,17.6,3.6,0.0,Getadar
Navarra_Media_Oriental,03/04/2015,11.0,18.7,6.2,0.0,Getadar
Navarra_Media_Oriental,04/04/2015,7.3,10.5,4.7,0.0,Getadar
Navarra_Media_Oriental,05/04/2015,8.2,12.7,5.1,0.0,Getadar
Navarra_Media_Oriental,06/04/2015,9.8,17.4,2.8,0.0,Getadar
Navarra_Media_Oriental,07/04/2015,10.1,15.6,4.1,0.0,Getadar
Navarra_Media_Oriental,08/04/2015,9.3,15.7,3.5,0.0,Getadar
Navarra_Media_Oriental,09/04/2015,10.0,14.7,6.2,0.4,Getadar
Navarra_Media_Oriental,10/04/2015,10.2,15.5,6.1,0.9,Getadar
Navarra_Media_Oriental,11/04/2015,11.6,18.1,6.9,0.0,Getadar
Navarra_Media_Oriental,12/04/2015,13.0,20.0,6.0,0.0,Getadar
Navarra_Media_Oriental,13/04/2015,14.9,21.2,7.5,0.0,Getadar
Navarra_Media_Oriental,14/04/2015,16.5,23.8,9.2,0.0,Getadar
Navarra_Media_Oriental,15/04/2015,13.3,15.4,10.5,0.0,Getadar
Navarra_Media_Oriental,16/04/2015,10.1,14.1,7.7,14.7,Getadar
Navarra_Media_Oriental,17/04/2015,11.6,16.8,6.7,0.2,Getadar
Navarra_Media_Oriental,18/04/2015,11.0,17.2,8.2,9.1,Getadar
Navarra_Media_Oriental,19/04/2015,9.1,14.2,6.1,0.0,Getadar
Navarra_Media_Oriental,20/04/2015,11.0,18.3,3.2,0.0,Getadar
Navarra_Media_Oriental,21/04/2015,13.4,19.5,6.3,0.0,Getadar
Navarra_Media_Oriental,22/04/2015,12.9,17.5,8.9,0.0,Getadar
Navarra_Media_Oriental,23/04/2015,13.2,19.2,7.8,0.0,Getadar
Navarra_Media_Oriental,24/04/2015,13.1,19.5,6.4,1.1,Getadar
Navarra_Media_Oriental,25/04/2015,14.2,18.5,8.9,0.0,Getadar
Navarra_Media_Oriental,26/04/2015,10.5,13.1,7.1,9.5,Getadar
Navarra_Media_Oriental,27/04/2015,8.7,12.5,6.1,1.9,Getadar
Navarra_Media_Oriental,28/04/2015,8.2,13.1,4.5,0.0,Getadar
Navarra_Media_Oriental,29/04/2015,10.3,16.9,4.6,0.0,Getadar
Navarra_Media_Oriental,30/04/2015,12.0,18.9,4.7,0.0,Getadar
Navarra_Media_Oriental,01/05/2015,13.9,17.6,10.8,1.3,Getadar
Navarra_Media_Oriental,02/05/2015,16.2,20.7,10.9,0.0,Getadar
Navarra_Media_Oriental,03/05/2015,16.0,19.1,13.0,3.5,Getadar
Navarra_Media_Oriental,04/05/2015,18.0,23.3,12.9,0.9,Getadar
Navarra_Media_Oriental,05/05/2015,14.9,19.6,9.5,0.0,Getadar
Navarra_Media_Oriental,06/05/2015,12.4,18.3,6.3,0.0,Getadar
Navarra_Media_Oriental,07/05/2015,15.7,24.0,6.9,0.0,Getadar
Navarra_Media_Oriental,08/05/2015,16.3,21.1,11.5,0.0,Getadar
Navarra_Media_Oriental,09/05/2015,15.8,22.1,9.8,0.0,Getadar
Navarra_Media_Oriental,10/05/2015,19.1,27.1,10.4,0.0,Getadar
Navarra_Media_Oriental,11/05/2015,21.5,28.5,13.8,0.0,Getadar
Navarra_Media_Oriental,12/05/2015,22.4,29.7,14.5,0.0,Getadar
Navarra_Media_Oriental,13/05/2015,23.4,30.4,18.1,0.0,Getadar
Navarra_Media_Oriental,14/05/2015,14.9,22.4,6.8,0.0,Getadar
Navarra_Media_Oriental,15/05/2015,8.1,10.7,6.5,1.9,Getadar
Navarra_Media_Oriental,16/05/2015,10.0,13.5,6.9,0.4,Getadar
Navarra_Media_Oriental,17/05/2015,13.4,19.0,9.2,0.0,Getadar
Navarra_Media_Oriental,18/05/2015,14.3,25.4,7.0,0.0,Getadar
Navarra_Media_Oriental,19/05/2015,8.9,12.3,6.0,0.2,Getadar
Navarra_Media_Oriental,20/05/2015,7.5,11.8,5.4,1.7,Getadar
Navarra_Media_Oriental,21/05/2015,8.2,13.2,4.6,0.2,Getadar
Navarra_Media_Oriental,22/05/2015,9.7,15.3,5.5,0.0,Getadar
Navarra_Media_Oriental,23/05/2015,10.5,15.5,7.2,0.0,Getadar
Navarra_Media_Oriental,24/05/2015,13.6,19.6,9.1,0.0,Getadar
Navarra_Media_Oriental,25/05/2015,12.6,16.6,10.1,0.0,Getadar
Navarra_Media_Oriental,26/05/2015,10.8,15.7,7.2,0.0,Getadar
Navarra_Media_Oriental,27/05/2015,14.1,20.3,9.3,0.0,Getadar
Navarra_Media_Oriental,28/05/2015,16.1,25.7,7.7,0.0,Getadar
Navarra_Media_Oriental,29/05/2015,14.1,21.4,9.7,0.0,Getadar
Navarra_Media_Oriental,30/05/2015,15.1,22.6,7.5,0.0,Getadar
Navarra_Media_Oriental,31/05/2015,17.3,26.3,9.2,0.0,Getadar
Navarra_Media_Oriental,01/06/2015,18.0,26.4,12.5,0.0,Getadar
Navarra_Media_Oriental,02/06/2015,20.3,28.3,11.9,0.0,Getadar
Navarra_Media_Oriental,03/06/2015,22.2,29.8,15.2,0.0,Getadar
Navarra_Media_Oriental,04/06/2015,22.9,29.5,15.2,0.0,Getadar
Navarra_Media_Oriental,05/06/2015,21.7,28.9,15.0,0.0,Getadar
Navarra_Media_Oriental,06/06/2015,19.5,29.6,12.9,0.0,Getadar
Navarra_Media_Oriental,07/06/2015,20.8,30.2,12.0,0.0,Getadar
Navarra_Media_Oriental,08/06/2015,21.5,29.0,15.2,0.0,Getadar
Navarra_Media_Oriental,09/06/2015,17.2,24.1,13.2,0.0,Getadar
Navarra_Media_Oriental,10/06/2015,13.9,17.9,11.7,26.1,Getadar
Navarra_Media_Oriental,11/06/2015,14.2,18.7,11.1,41.6,Getadar
Navarra_Media_Oriental,12/06/2015,15.8,22.6,9.9,0.0,Getadar
Navarra_Media_Oriental,13/06/2015,14.3,20.4,11.2,7.8,Getadar
Navarra_Media_Oriental,14/06/2015,14.4,19.7,10.0,0.0,Getadar
Navarra_Media_Oriental,15/06/2015,14.5,20.6,10.3,0.0,Getadar
Navarra_Media_Oriental,16/06/2015,12.6,15.4,10.7,0.0,Getadar
Navarra_Media_Oriental,17/06/2015,14.1,19.4,10.3,0.0,Getadar
Navarra_Media_Oriental,18/06/2015,16.0,22.0,11.1,0.0,Getadar
Navarra_Media_Oriental,19/06/2015,15.1,20.6,11.2,0.0,Getadar
Navarra_Media_Oriental,20/06/2015,17.8,24.8,11.7,0.0,Getadar
Navarra_Media_Oriental,21/06/2015,20.1,28.2,12.8,0.0,Getadar
Navarra_Media_Oriental,22/06/2015,20.9,30.5,13.5,3.2,Getadar
Navarra_Media_Oriental,23/06/2015,17.8,23.2,12.3,0.0,Getadar
Navarra_Media_Oriental,24/06/2015,18.3,26.1,11.3,0.0,Getadar
Navarra_Media_Oriental,25/06/2015,21.2,29.3,12.5,0.0,Getadar
Navarra_Media_Oriental,26/06/2015,23.1,32.2,15.2,0.0,Getadar
Navarra_Media_Oriental,27/06/2015,22.1,30.2,15.0,0.0,Getadar
Navarra_Media_Oriental,28/06/2015,23.2,32.3,16.0,0.0,Getadar
Navarra_Media_Oriental,29/06/2015,24.4,34.5,14.3,0.0,Getadar
Navarra_Media_Oriental,30/06/2015,27.3,35.2,18.2,0.0,Getadar
Navarra_Media_Oriental,01/07/2015,27.8,33.8,20.2,0.0,Getadar
Navarra_Media_Oriental,02/07/2015,25.3,31.1,20.7,0.0,Getadar
Navarra_Media_Oriental,03/07/2015,26.9,33.0,20.9,0.0,Getadar
Navarra_Media_Oriental,04/07/2015,27.6,33.9,21.3,0.0,Getadar
Navarra_Media_Oriental,05/07/2015,23.9,33.2,16.3,0.0,Getadar
Navarra_Media_Oriental,06/07/2015,25.8,35.5,15.1,0.0,Getadar
Navarra_Media_Oriental,07/07/2015,25.0,35.0,16.2,0.0,Getadar
Navarra_Media_Oriental,08/07/2015,17.1,20.2,12.8,0.0,Getadar
Navarra_Media_Oriental,09/07/2015,18.1,25.6,12.2,0.0,Getadar
Navarra_Media_Oriental,10/07/2015,22.9,35.2,14.4,0.0,Getadar
Navarra_Media_Oriental,11/07/2015,19.1,26.1,15.1,0.0,Getadar
Navarra_Media_Oriental,12/07/2015,19.8,28.0,13.7,0.0,Getadar
Navarra_Media_Oriental,13/07/2015,21.0,30.2,12.9,0.0,Getadar
Navarra_Media_Oriental,14/07/2015,23.3,33.2,13.9,0.0,Getadar
Navarra_Media_Oriental,15/07/2015,25.8,35.1,15.7,0.0,Getadar
Navarra_Media_Oriental,16/07/2015,25.8,34.0,19.4,0.0,Getadar
Navarra_Media_Oriental,17/07/2015,24.9,33.7,18.6,1.1,Getadar
Navarra_Media_Oriental,18/07/2015,22.8,31.5,18.0,1.5,Getadar
Navarra_Media_Oriental,19/07/2015,23.3,30.6,17.1,0.0,Getadar
Navarra_Media_Oriental,20/07/2015,25.4,33.7,18.9,0.0,Getadar
Navarra_Media_Oriental,21/07/2015,23.9,33.8,16.9,4.5,Getadar
Navarra_Media_Oriental,22/07/2015,20.1,26.4,16.0,0.2,Getadar
Navarra_Media_Oriental,23/07/2015,22.8,32.5,15.4,0.0,Getadar
Navarra_Media_Oriental,24/07/2015,21.9,30.3,15.3,0.0,Getadar
Navarra_Media_Oriental,25/07/2015,16.1,20.4,11.6,0.2,Getadar
Navarra_Media_Oriental,26/07/2015,19.9,30.8,9.5,0.0,Getadar
Navarra_Media_Oriental,27/07/2015,18.7,24.4,14.4,0.0,Getadar
Navarra_Media_Oriental,28/07/2015,20.6,29.8,13.7,0.0,Getadar
Navarra_Media_Oriental,29/07/2015,20.2,27.2,13.7,0.0,Getadar
Navarra_Media_Oriental,30/07/2015,12.9,16.7,10.4,9.7,Getadar
Navarra_Media_Oriental,31/07/2015,14.6,17.6,12.3,21.8,Getadar
Navarra_Media_Oriental,01/08/2015,15.8,21.3,11.1,0.0,Getadar
Navarra_Media_Oriental,02/08/2015,21.0,29.6,11.5,0.0,Getadar
Navarra_Media_Oriental,03/08/2015,23.5,31.3,16.3,12.3,Getadar
Navarra_Media_Oriental,04/08/2015,20.0,26.3,15.3,0.0,Getadar
Navarra_Media_Oriental,05/08/2015,23.6,32.4,17.6,0.0,Getadar
Navarra_Media_Oriental,06/08/2015,24.8,33.6,16.0,0.0,Getadar
Navarra_Media_Oriental,07/08/2015,20.8,26.8,15.7,0.0,Getadar
Navarra_Media_Oriental,08/08/2015,14.4,17.2,12.1,3.9,Getadar
Navarra_Media_Oriental,09/08/2015,15.4,20.3,12.0,0.0,Getadar
Navarra_Media_Oriental,10/08/2015,20.4,28.9,12.9,0.0,Getadar
Navarra_Media_Oriental,11/08/2015,23.2,32.1,15.6,2.2,Getadar
Navarra_Media_Oriental,12/08/2015,24.4,32.6,17.4,0.0,Getadar
Navarra_Media_Oriental,13/08/2015,18.6,24.0,15.2,3.5,Getadar
Navarra_Media_Oriental,14/08/2015,15.1,19.9,13.2,0.0,Getadar
Navarra_Media_Oriental,15/08/2015,15.1,20.5,11.7,1.3,Getadar
Navarra_Media_Oriental,16/08/2015,17.2,25.0,8.8,0.2,Getadar
Navarra_Media_Oriental,17/08/2015,17.4,22.8,13.7,0.0,Getadar
Navarra_Media_Oriental,18/08/2015,16.4,22.6,12.2,0.0,Getadar
Navarra_Media_Oriental,19/08/2015,17.7,26.4,10.8,0.0,Getadar
Navarra_Media_Oriental,20/08/2015,20.7,30.7,11.0,0.0,Getadar
Navarra_Media_Oriental,21/08/2015,23.7,32.1,15.2,0.0,Getadar
Navarra_Media_Oriental,22/08/2015,22.4,28.1,16.9,2.2,Getadar
Navarra_Media_Oriental,23/08/2015,19.4,24.2,15.6,0.0,Getadar
Navarra_Media_Oriental,24/08/2015,16.5,21.5,11.3,0.0,Getadar
Navarra_Media_Oriental,25/08/2015,17.7,26.4,8.9,0.0,Getadar
Navarra_Media_Oriental,26/08/2015,22.8,30.0,16.0,0.0,Getadar
Navarra_Media_Oriental,27/08/2015,24.2,30.6,18.6,0.0,Getadar
Navarra_Media_Oriental,28/08/2015,25.1,32.2,18.4,0.0,Getadar
Navarra_Media_Oriental,29/08/2015,26.1,32.6,20.0,0.0,Getadar
Navarra_Media_Oriental,30/08/2015,24.6,31.1,17.2,3.7,Getadar
Navarra_Media_Oriental,31/08/2015,19.1,28.3,14.4,14.0,Getadar
Navarra_Media_Oriental,01/09/2015,16.0,19.8,12.6,0.4,Getadar
Navarra_Media_Oriental,02/09/2015,15.5,21.8,10.8,3.0,Getadar
Navarra_Media_Oriental,03/09/2015,14.4,19.2,11.0,1.7,Getadar
Navarra_Media_Oriental,04/09/2015,12.9,18.5,9.6,0.0,Getadar
Navarra_Media_Oriental,05/09/2015,13.0,18.5,8.7,0.0,Getadar
Navarra_Media_Oriental,06/09/2015,14.2,21.7,8.2,0.0,Getadar
Navarra_Media_Oriental,07/09/2015,14.6,21.4,9.9,0.0,Getadar
Navarra_Media_Oriental,08/09/2015,15.2,22.4,8.7,0.0,Getadar
Navarra_Media_Oriental,09/09/2015,17.6,25.1,9.4,0.0,Getadar
Navarra_Media_Oriental,10/09/2015,17.0,21.2,13.8,4.3,Getadar
Navarra_Media_Oriental,11/09/2015,18.3,25.1,13.0,0.0,Getadar
Navarra_Media_Oriental,12/09/2015,19.1,23.1,16.1,6.0,Getadar
Navarra_Media_Oriental,13/09/2015,16.8,19.1,12.2,0.0,Getadar
Navarra_Media_Oriental,14/09/2015,14.8,20.2,11.3,0.0,Getadar
Navarra_Media_Oriental,15/09/2015,13.9,16.8,12.1,5.6,Getadar
Navarra_Media_Oriental,16/09/2015,17.4,23.1,12.4,2.2,Getadar
Navarra_Media_Oriental,17/09/2015,12.3,16.6,8.7,0.2,Getadar
Navarra_Media_Oriental,18/09/2015,13.3,19.3,8.2,0.0,Getadar
Navarra_Media_Oriental,19/09/2015,14.2,20.6,8.7,0.0,Getadar
Navarra_Media_Oriental,20/09/2015,15.6,23.3,9.8,0.0,Getadar
Navarra_Media_Oriental,21/09/2015,16.2,24.1,9.5,0.0,Getadar
Navarra_Media_Oriental,22/09/2015,13.8,18.5,10.4,0.0,Getadar
Navarra_Media_Oriental,23/09/2015,11.1,14.2,9.3,5.8,Getadar
Navarra_Media_Oriental,24/09/2015,14.6,22.0,9.5,0.0,Getadar
Navarra_Media_Oriental,25/09/2015,18.0,25.4,13.0,0.0,Getadar
Navarra_Media_Oriental,26/09/2015,16.7,24.3,11.5,0.0,Getadar
Navarra_Media_Oriental,27/09/2015,14.6,21.4,9.3,0.0,Getadar
Navarra_Media_Oriental,28/09/2015,14.6,21.7,8.5,0.0,Getadar
Navarra_Media_Oriental,29/09/2015,14.3,20.3,9.4,13.4,Getadar
Navarra_Media_Oriental,30/09/2015,14.1,20.5,9.7,0.7,Getadar
Navarra_Media_Oriental,01/10/2015,14.4,21.5,8.8,0.0,Getadar
Navarra_Media_Oriental,02/10/2015,11.3,16.1,8.6,0.2,Getadar
Navarra_Media_Oriental,03/10/2015,12.1,18.3,6.4,0.0,Getadar
Navarra_Media_Oriental,04/10/2015,11.6,14.4,8.0,2.8,Getadar
Navarra_Media_Oriental,05/10/2015,17.5,20.7,13.8,5.8,Getadar
Navarra_Media_Oriental,06/10/2015,15.1,20.5,10.5,1.3,Getadar
Navarra_Media_Oriental,07/10/2015,11.0,15.1,9.2,0.0,Getadar
Navarra_Media_Oriental,08/10/2015,11.9,17.6,8.8,0.2,Getadar
Navarra_Media_Oriental,09/10/2015,12.0,20.3,6.4,0.0,Getadar
Navarra_Media_Oriental,10/10/2015,12.9,20.5,6.5,0.0,Getadar
Navarra_Media_Oriental,11/10/2015,13.9,16.7,10.4,0.2,Getadar
Navarra_Media_Oriental,12/10/2015,14.0,20.3,10.0,26.3,Getadar
Navarra_Media_Oriental,13/10/2015,9.7,13.5,7.6,0.7,Getadar
Navarra_Media_Oriental,14/10/2015,6.7,10.6,3.1,0.0,Getadar
Navarra_Media_Oriental,15/10/2015,7.2,13.7,2.7,0.0,Getadar
Navarra_Media_Oriental,16/10/2015,7.5,15.8,1.4,0.0,Getadar
Navarra_Media_Oriental,17/10/2015,10.7,17.8,3.6,3.7,Getadar
Navarra_Media_Oriental,18/10/2015,13.6,17.3,11.3,0.9,Getadar
Navarra_Media_Oriental,19/10/2015,14.0,15.7,12.5,4.8,Getadar
Navarra_Media_Oriental,20/10/2015,10.0,12.8,7.6,0.2,Getadar
Navarra_Media_Oriental,21/10/2015,7.8,10.6,6.0,0.0,Getadar
Navarra_Media_Oriental,22/10/2015,9.2,12.5,6.8,0.0,Getadar
Navarra_Media_Oriental,23/10/2015,12.8,18.1,7.0,0.0,Getadar
Navarra_Media_Oriental,24/10/2015,14.4,18.9,11.6,0.0,Getadar
Navarra_Media_Oriental,25/10/2015,14.0,18.3,11.2,0.0,Getadar
Navarra_Media_Oriental,26/10/2015,13.5,17.7,10.2,0.0,Getadar
Navarra_Media_Oriental,27/10/2015,11.8,15.4,6.6,3.2,Getadar
Navarra_Media_Oriental,28/10/2015,9.0,12.4,6.4,3.0,Getadar
Navarra_Media_Oriental,29/10/2015,11.6,17.3,8.3,0.0,Getadar
Navarra_Media_Oriental,30/10/2015,13.8,19.6,9.1,0.0,Getadar
Navarra_Media_Oriental,31/10/2015,12.9,17.4,10.7,0.0,Getadar
Navarra_Media_Oriental,01/11/2015,12.2,16.2,9.2,0.0,Getadar
Navarra_Media_Oriental,02/11/2015,11.2,14.5,9.2,36.2,Getadar
Navarra_Media_Oriental,03/11/2015,9.9,11.6,8.3,13.2,Getadar
Navarra_Media_Oriental,04/11/2015,11.4,15.8,7.8,0.2,Getadar
Navarra_Media_Oriental,05/11/2015,12.5,15.7,9.0,0.0,Getadar
Navarra_Media_Oriental,06/11/2015,13.7,20.2,9.4,0.0,Getadar
Navarra_Media_Oriental,07/11/2015,14.7,21.6,10.9,0.2,Getadar
Navarra_Media_Oriental,08/11/2015,14.9,20.1,11.6,0.2,Getadar
Navarra_Media_Oriental,09/11/2015,13.4,19.7,10.1,0.0,Getadar
Navarra_Media_Oriental,10/11/2015,11.2,17.2,7.3,0.2,Getadar
Navarra_Media_Oriental,11/11/2015,10.4,17.9,5.7,0.2,Getadar
Navarra_Media_Oriental,12/11/2015,8.0,13.9,4.7,0.2,Getadar
Navarra_Media_Oriental,13/11/2015,10.6,14.6,5.3,0.2,Getadar
Navarra_Media_Oriental,14/11/2015,11.1,17.2,7.6,0.0,Getadar
Navarra_Media_Oriental,15/11/2015,8.2,14.1,5.2,0.0,Getadar
Navarra_Media_Oriental,16/11/2015,7.5,14.6,1.0,0.2,Getadar
Navarra_Media_Oriental,17/11/2015,9.4,17.3,1.0,0.0,Getadar
Navarra_Media_Oriental,18/11/2015,14.3,19.1,10.9,0.0,Getadar
Navarra_Media_Oriental,19/11/2015,13.3,17.2,10.1,0.0,Getadar
Navarra_Media_Oriental,20/11/2015,12.0,16.6,8.5,0.0,Getadar
Navarra_Media_Oriental,21/11/2015,5.1,12.3,0.4,35.4,Getadar
Navarra_Media_Oriental,22/11/2015,1.1,4.1,-0.2,19.7,Getadar
Navarra_Media_Oriental,23/11/2015,0.6,4.9,-2.1,1.3,Getadar
Navarra_Media_Oriental,24/11/2015,3.4,7.4,-0.8,1.1,Getadar
Navarra_Media_Oriental,25/11/2015,8.1,9.8,6.0,22.7,Getadar
Navarra_Media_Oriental,26/11/2015,8.1,9.7,6.3,0.9,Getadar
Navarra_Media_Oriental,27/11/2015,6.8,8.5,4.7,0.2,Getadar
Navarra_Media_Oriental,28/11/2015,6.3,8.7,3.7,1.3,Getadar
Navarra_Media_Oriental,29/11/2015,6.6,11.0,3.2,0.0,Getadar
Navarra_Media_Oriental,30/11/2015,5.8,14.1,1.2,0.0,Getadar
Navarra_Media_Oriental,01/12/2015,5.1,12.1,0.5,0.0,Getadar
Navarra_Media_Oriental,02/12/2015,6.5,13.2,2.1,0.0,Getadar
Navarra_Media_Oriental,03/12/2015,6.6,12.6,2.3,0.0,Getadar
Navarra_Media_Oriental,04/12/2015,9.7,14.4,4.8,0.0,Getadar
Navarra_Media_Oriental,05/12/2015,8.8,13.3,5.5,0.0,Getadar
Navarra_Media_Oriental,06/12/2015,7.5,10.3,4.2,0.2,Getadar
Navarra_Media_Oriental,07/12/2015,8.2,11.6,6.5,0.0,Getadar
Navarra_Media_Oriental,08/12/2015,8.9,11.3,6.7,0.0,Getadar
Navarra_Media_Oriental,09/12/2015,8.2,12.8,5.5,0.0,Getadar
Navarra_Media_Oriental,10/12/2015,5.8,10.0,2.3,0.0,Getadar
Navarra_Media_Oriental,11/12/2015,3.9,9.0,0.9,0.2,Getadar
Navarra_Media_Oriental,12/12/2015,3.1,7.1,-0.2,0.2,Getadar
Navarra_Media_Oriental,13/12/2015,3.1,7.5,1.0,0.0,Getadar
Navarra_Media_Oriental,14/12/2015,4.7,8.2,1.2,0.2,Getadar
Navarra_Media_Oriental,15/12/2015,8.1,12.4,5.3,0.0,Getadar
Navarra_Media_Oriental,16/12/2015,8.8,14.2,5.3,0.0,Getadar
Navarra_Media_Oriental,17/12/2015,9.2,14.5,6.2,0.0,Getadar
Navarra_Media_Oriental,18/12/2015,9.6,15.7,5.8,0.0,Getadar
Navarra_Media_Oriental,19/12/2015,10.1,14.4,6.3,0.0,Getadar
Navarra_Media_Oriental,20/12/2015,9.6,14.7,6.1,0.0,Getadar
Navarra_Media_Oriental,21/12/2015,7.0,11.7,3.3,0.0,Getadar
Navarra_Media_Oriental,22/12/2015,6.1,11.8,1.6,0.2,Getadar
Navarra_Media_Oriental,23/12/2015,5.2,10.9,2.6,0.2,Getadar
Navarra_Media_Oriental,24/12/2015,5.8,8.6,4.2,0.0,Getadar
Navarra_Media_Oriental,25/12/2015,5.5,11.1,2.3,0.2,Getadar
Navarra_Media_Oriental,26/12/2015,6.2,11.5,2.5,0.2,Getadar
Navarra_Media_Oriental,27/12/2015,7.3,12.4,2.8,0.0,Getadar
Navarra_Media_Oriental,28/12/2015,8.5,11.5,6.1,0.0,Getadar
Navarra_Media_Oriental,29/12/2015,7.5,10.6,4.5,0.9,Getadar
Navarra_Media_Oriental,30/12/2015,6.1,10.5,2.2,0.0,Getadar
Navarra_Media_Oriental,31/12/2015,6.4,9.4,2.6,1.3,Getadar
