Comarca,Fecha, Temperatura media, Temperatura maxima, Temperatura minima, Precipitacion acumulada,Localidad
Navarra_Media_Oriental,01/01/2018,0.0,9.0,-0.2,5.0,Javier
Navarra_Media_Oriental,02/01/2018,0.0,11.5,4.2,1.8,Javier
Navarra_Media_Oriental,03/01/2018,0.0,16.0,7.5,0.0,Javier
Navarra_Media_Oriental,04/01/2018,0.0,16.0,6.5,0.0,Javier
Navarra_Media_Oriental,05/01/2018,0.0,12.5,5.0,18.8,Javier
Navarra_Media_Oriental,06/01/2018,0.0,3.5,1.0,33.0,Javier
Navarra_Media_Oriental,07/01/2018,0.0,6.5,2.0,2.6,Javier
Navarra_Media_Oriental,08/01/2018,0.0,5.5,2.5,0.0,Javier
Navarra_Media_Oriental,09/01/2018,0.0,6.0,-3.0,3.0,Javier
Navarra_Media_Oriental,10/01/2018,0.0,9.0,1.0,2.0,Javier
Navarra_Media_Oriental,11/01/2018,0.0,5.0,-0.5,1.0,Javier
Navarra_Media_Oriental,12/01/2018,0.0,9.5,1.0,0.0,Javier
Navarra_Media_Oriental,13/01/2018,0.0,9.0,0.0,14.5,Javier
Navarra_Media_Oriental,14/01/2018,0.0,6.0,2.8,0.2,Javier
Navarra_Media_Oriental,15/01/2018,0.0,9.5,2.5,0.0,Javier
Navarra_Media_Oriental,16/01/2018,0.0,10.5,2.8,0.5,Javier
Navarra_Media_Oriental,17/01/2018,0.0,9.0,5.0,0.0,Javier
Navarra_Media_Oriental,18/01/2018,0.0,12.0,-1.0,0.0,Javier
Navarra_Media_Oriental,19/01/2018,0.0,12.0,0.0,0.5,Javier
Navarra_Media_Oriental,20/01/2018,0.0,12.0,3.5,0.1,Javier
Navarra_Media_Oriental,21/01/2018,0.0,13.9,9.0,0.0,Javier
Navarra_Media_Oriental,22/01/2018,0.0,15.0,7.9,0.0,Javier
Navarra_Media_Oriental,23/01/2018,0.0,16.5,9.0,0.0,Javier
Navarra_Media_Oriental,24/01/2018,0.0,15.5,2.8,0.2,Javier
Navarra_Media_Oriental,25/01/2018,0.0,11.0,3.0,4.0,Javier
Navarra_Media_Oriental,26/01/2018,0.0,7.8,4.0,0.2,Javier
Navarra_Media_Oriental,27/01/2018,0.0,9.0,4.8,0.0,Javier
Navarra_Media_Oriental,28/01/2018,0.0,14.0,-3.0,0.0,Javier
Navarra_Media_Oriental,29/01/2018,0.0,14.0,-2.5,0.0,Javier
Navarra_Media_Oriental,30/01/2018,0.0,13.5,-1.5,0.0,Javier
Navarra_Media_Oriental,31/01/2018,0.0,13.2,-2.0,0.1,Javier
Navarra_Media_Oriental,01/02/2018,0.0,7.5,-1.2,0.0,Javier
Navarra_Media_Oriental,02/02/2018,0.0,6.5,1.0,0.2,Javier
Navarra_Media_Oriental,03/02/2018,0.0,5.5,1.5,3.3,Javier
Navarra_Media_Oriental,04/02/2018,0.0,7.0,2.5,3.5,Javier
Navarra_Media_Oriental,05/02/2018,0.0,3.0,2.5,3.0,Javier
Navarra_Media_Oriental,06/02/2018,0.0,5.0,1.5,0.0,Javier
Navarra_Media_Oriental,07/02/2018,0.0,5.7,0.0,0.0,Javier
Navarra_Media_Oriental,08/02/2018,0.0,4.0,0.7,0.0,Javier
Navarra_Media_Oriental,09/02/2018,0.0,6.5,-5.0,0.0,Javier
Navarra_Media_Oriental,10/02/2018,0.0,7.2,-3.5,1.2,Javier
Navarra_Media_Oriental,11/02/2018,0.0,11.0,3.3,1.6,Javier
Navarra_Media_Oriental,12/02/2018,0.0,7.0,2.5,0.0,Javier
Navarra_Media_Oriental,13/02/2018,0.0,2.0,-4.0,0.0,Javier
Navarra_Media_Oriental,14/02/2018,0.0,5.8,-1.5,6.5,Javier
Navarra_Media_Oriental,15/02/2018,0.0,14.5,2.8,0.0,Javier
Navarra_Media_Oriental,16/02/2018,0.0,18.5,5.0,0.0,Javier
Navarra_Media_Oriental,17/02/2018,0.0,11.0,7.0,0.0,Javier
Navarra_Media_Oriental,18/02/2018,0.0,12.3,4.5,0.0,Javier
Navarra_Media_Oriental,19/02/2018,0.0,14.4,7.2,0.0,Javier
Navarra_Media_Oriental,20/02/2018,0.0,10.2,8.5,0.1,Javier
Navarra_Media_Oriental,21/02/2018,0.0,7.2,3.8,0.0,Javier
Navarra_Media_Oriental,22/02/2018,0.0,7.5,0.3,0.0,Javier
Navarra_Media_Oriental,23/02/2018,0.0,5.5,-0.2,0.0,Javier
Navarra_Media_Oriental,24/02/2018,0.0,7.5,-6.0,0.0,Javier
Navarra_Media_Oriental,25/02/2018,0.0,14.8,-4.0,0.0,Javier
Navarra_Media_Oriental,26/02/2018,0.0,11.0,-1.2,0.0,Javier
Navarra_Media_Oriental,27/02/2018,0.0,7.0,-8.0,9.0,Javier
Navarra_Media_Oriental,28/02/2018,0.0,8.0,-3.8,12.0,Javier
Navarra_Media_Oriental,01/03/2018,0.0,12.0,0.5,2.8,Javier
Navarra_Media_Oriental,02/03/2018,0.0,10.0,1.2,3.0,Javier
Navarra_Media_Oriental,03/03/2018,0.0,16.0,2.0,5.0,Javier
Navarra_Media_Oriental,04/03/2018,0.0,14.3,8.0,13.0,Javier
Navarra_Media_Oriental,05/03/2018,0.0,14.5,3.8,2.0,Javier
Navarra_Media_Oriental,06/03/2018,0.0,13.0,3.0,2.8,Javier
Navarra_Media_Oriental,07/03/2018,0.0,12.5,-0.2,0.0,Javier
Navarra_Media_Oriental,08/03/2018,0.0,15.2,0.0,0.0,Javier
Navarra_Media_Oriental,09/03/2018,0.0,16.0,6.8,2.6,Javier
Navarra_Media_Oriental,10/03/2018,0.0,15.2,11.0,11.6,Javier
Navarra_Media_Oriental,11/03/2018,0.0,14.2,9.3,0.1,Javier
Navarra_Media_Oriental,12/03/2018,0.0,12.2,6.7,0.6,Javier
Navarra_Media_Oriental,13/03/2018,0.0,12.5,3.8,2.0,Javier
Navarra_Media_Oriental,14/03/2018,0.0,12.2,2.0,13.4,Javier
Navarra_Media_Oriental,15/03/2018,0.0,14.5,2.8,0.9,Javier
Navarra_Media_Oriental,16/03/2018,0.0,13.0,2.9,0.6,Javier
Navarra_Media_Oriental,17/03/2018,0.0,9.8,2.0,1.7,Javier
Navarra_Media_Oriental,18/03/2018,0.0,8.9,-0.2,1.9,Javier
Navarra_Media_Oriental,19/03/2018,0.0,9.4,0.2,4.3,Javier
Navarra_Media_Oriental,20/03/2018,0.0,6.0,0.2,0.1,Javier
Navarra_Media_Oriental,21/03/2018,0.0,7.5,1.5,0.0,Javier
Navarra_Media_Oriental,22/03/2018,0.0,9.5,2.0,0.0,Javier
Navarra_Media_Oriental,23/03/2018,0.0,12.8,-3.0,13.0,Javier
Navarra_Media_Oriental,24/03/2018,0.0,10.8,3.3,0.3,Javier
Navarra_Media_Oriental,25/03/2018,0.0,11.0,3.8,0.2,Javier
Navarra_Media_Oriental,26/03/2018,0.0,11.4,3.8,0.5,Javier
Navarra_Media_Oriental,27/03/2018,0.0,13.2,6.2,0.1,Javier
Navarra_Media_Oriental,28/03/2018,0.0,19.4,3.0,0.0,Javier
Navarra_Media_Oriental,29/03/2018,0.0,16.5,5.7,0.1,Javier
Navarra_Media_Oriental,30/03/2018,0.0,14.0,4.0,1.5,Javier
Navarra_Media_Oriental,31/03/2018,0.0,12.0,3.0,3.8,Javier
Navarra_Media_Oriental,01/04/2018,0.0,17.8,-1.0,0.0,Javier
Navarra_Media_Oriental,02/04/2018,0.0,19.6,9.6,0.0,Javier
Navarra_Media_Oriental,03/04/2018,0.0,19.8,10.5,0.0,Javier
Navarra_Media_Oriental,04/04/2018,0.0,16.8,9.5,3.2,Javier
Navarra_Media_Oriental,05/04/2018,0.0,20.5,5.7,0.0,Javier
Navarra_Media_Oriental,06/04/2018,0.0,21.3,6.5,0.0,Javier
Navarra_Media_Oriental,07/04/2018,0.0,13.8,8.7,52.0,Javier
Navarra_Media_Oriental,08/04/2018,0.0,14.0,6.0,5.0,Javier
Navarra_Media_Oriental,09/04/2018,0.0,12.5,2.5,6.8,Javier
Navarra_Media_Oriental,10/04/2018,0.0,6.5,4.0,18.0,Javier
Navarra_Media_Oriental,11/04/2018,0.0,10.0,5.5,37.0,Javier
Navarra_Media_Oriental,12/04/2018,0.0,15.0,3.0,3.2,Javier
Navarra_Media_Oriental,13/04/2018,0.0,14.0,5.0,4.5,Javier
Navarra_Media_Oriental,14/04/2018,0.0,18.5,3.8,0.0,Javier
Navarra_Media_Oriental,15/04/2018,0.0,20.0,5.3,10.0,Javier
Navarra_Media_Oriental,16/04/2018,0.0,17.0,9.5,0.0,Javier
Navarra_Media_Oriental,17/04/2018,0.0,23.5,3.5,0.0,Javier
Navarra_Media_Oriental,18/04/2018,0.0,26.0,5.0,0.0,Javier
Navarra_Media_Oriental,19/04/2018,0.0,25.1,9.5,0.0,Javier
Navarra_Media_Oriental,20/04/2018,0.0,24.5,9.6,0.0,Javier
Navarra_Media_Oriental,21/04/2018,0.0,24.6,8.5,0.0,Javier
Navarra_Media_Oriental,22/04/2018,0.0,23.0,9.8,1.0,Javier
Navarra_Media_Oriental,23/04/2018,0.0,24.1,9.9,0.0,Javier
Navarra_Media_Oriental,24/04/2018,0.0,26.5,7.8,0.0,Javier
Navarra_Media_Oriental,25/04/2018,0.0,24.5,9.5,0.0,Javier
Navarra_Media_Oriental,26/04/2018,0.0,21.8,9.5,0.0,Javier
Navarra_Media_Oriental,27/04/2018,0.0,22.5,6.8,0.0,Javier
Navarra_Media_Oriental,28/04/2018,0.0,20.1,10.0,4.6,Javier
Navarra_Media_Oriental,29/04/2018,0.0,12.2,7.5,12.0,Javier
Navarra_Media_Oriental,30/04/2018,0.0,15.6,5.8,0.0,Javier
Navarra_Media_Oriental,01/05/2018,0.0,14.5,4.8,0.0,Javier
Navarra_Media_Oriental,02/05/2018,0.0,17.5,0.0,0.0,Javier
Navarra_Media_Oriental,03/05/2018,0.0,12.0,2.0,0.0,Javier
Navarra_Media_Oriental,04/05/2018,0.0,18.5,7.0,0.0,Javier
Navarra_Media_Oriental,05/05/2018,0.0,23.5,5.5,0.0,Javier
Navarra_Media_Oriental,06/05/2018,0.0,27.0,7.0,0.0,Javier
Navarra_Media_Oriental,07/05/2018,0.0,26.4,10.3,1.9,Javier
Navarra_Media_Oriental,08/05/2018,0.0,22.8,9.9,0.0,Javier
Navarra_Media_Oriental,09/05/2018,0.0,21.0,10.8,0.0,Javier
Navarra_Media_Oriental,10/05/2018,0.0,19.0,11.0,0.0,Javier
Navarra_Media_Oriental,11/05/2018,0.0,26.0,3.2,0.6,Javier
Navarra_Media_Oriental,12/05/2018,0.0,14.0,12.0,0.0,Javier
Navarra_Media_Oriental,13/05/2018,0.0,13.8,4.5,0.0,Javier
Navarra_Media_Oriental,14/05/2018,0.0,12.2,6.2,0.0,Javier
Navarra_Media_Oriental,15/05/2018,0.0,16.0,9.8,0.0,Javier
Navarra_Media_Oriental,16/05/2018,0.0,23.8,5.5,0.0,Javier
Navarra_Media_Oriental,17/05/2018,0.0,24.6,5.7,0.0,Javier
Navarra_Media_Oriental,18/05/2018,0.0,25.3,7.8,0.0,Javier
Navarra_Media_Oriental,19/05/2018,0.0,25.0,7.3,0.0,Javier
Navarra_Media_Oriental,20/05/2018,0.0,25.8,7.0,1.0,Javier
Navarra_Media_Oriental,21/05/2018,0.0,23.0,13.2,7.3,Javier
Navarra_Media_Oriental,22/05/2018,0.0,25.0,10.3,0.0,Javier
Navarra_Media_Oriental,23/05/2018,0.0,23.8,8.0,2.9,Javier
Navarra_Media_Oriental,24/05/2018,0.0,27.4,10.0,1.0,Javier
Navarra_Media_Oriental,25/05/2018,0.0,25.0,12.9,7.4,Javier
Navarra_Media_Oriental,26/05/2018,0.0,21.0,14.0,15.7,Javier
Navarra_Media_Oriental,27/05/2018,0.0,26.3,11.3,4.0,Javier
Navarra_Media_Oriental,28/05/2018,0.0,21.9,13.8,2.0,Javier
Navarra_Media_Oriental,29/05/2018,0.0,22.8,13.2,26.0,Javier
Navarra_Media_Oriental,30/05/2018,0.0,19.0,12.8,2.5,Javier
Navarra_Media_Oriental,31/05/2018,0.0,24.5,11.0,17.0,Javier
Navarra_Media_Oriental,01/06/2018,0.0,28.2,13.5,8.0,Javier
Navarra_Media_Oriental,02/06/2018,0.0,26.0,13.9,4.0,Javier
Navarra_Media_Oriental,03/06/2018,0.0,25.5,12.0,4.2,Javier
Navarra_Media_Oriental,04/06/2018,0.0,24.0,13.5,0.0,Javier
Navarra_Media_Oriental,05/06/2018,0.0,22.2,13.2,0.0,Javier
Navarra_Media_Oriental,06/06/2018,0.0,20.0,10.8,0.1,Javier
Navarra_Media_Oriental,07/06/2018,0.0,24.8,10.5,0.0,Javier
Navarra_Media_Oriental,08/06/2018,0.0,24.5,11.0,24.0,Javier
Navarra_Media_Oriental,09/06/2018,0.0,22.0,15.0,9.8,Javier
Navarra_Media_Oriental,10/06/2018,0.0,24.2,12.5,0.3,Javier
Navarra_Media_Oriental,11/06/2018,0.0,22.5,11.8,0.4,Javier
Navarra_Media_Oriental,12/06/2018,0.0,16.0,10.0,3.8,Javier
Navarra_Media_Oriental,13/06/2018,0.0,16.8,11.8,0.1,Javier
Navarra_Media_Oriental,14/06/2018,0.0,22.0,13.2,0.0,Javier
Navarra_Media_Oriental,15/06/2018,0.0,25.0,10.0,0.0,Javier
Navarra_Media_Oriental,16/06/2018,0.0,24.0,11.0,0.0,Javier
Navarra_Media_Oriental,17/06/2018,0.0,22.0,10.0,0.0,Javier
Navarra_Media_Oriental,18/06/2018,0.0,23.0,11.0,0.0,Javier
Navarra_Media_Oriental,19/06/2018,0.0,32.0,11.0,0.0,Javier
Navarra_Media_Oriental,20/06/2018,0.0,30.5,14.0,0.0,Javier
Navarra_Media_Oriental,21/06/2018,0.0,33.0,16.0,0.0,Javier
Navarra_Media_Oriental,22/06/2018,0.0,30.0,16.0,0.0,Javier
Navarra_Media_Oriental,23/06/2018,0.0,31.0,12.0,0.0,Javier
Navarra_Media_Oriental,24/06/2018,0.0,32.0,11.0,0.0,Javier
Navarra_Media_Oriental,25/06/2018,0.0,33.4,12.0,0.0,Javier
Navarra_Media_Oriental,26/06/2018,0.0,32.0,13.3,0.0,Javier
Navarra_Media_Oriental,27/06/2018,0.0,33.8,16.8,0.0,Javier
Navarra_Media_Oriental,28/06/2018,0.0,30.0,15.0,0.0,Javier
Navarra_Media_Oriental,29/06/2018,0.0,33.0,16.8,1.3,Javier
Navarra_Media_Oriental,30/06/2018,0.0,33.0,17.0,0.0,Javier
Navarra_Media_Oriental,01/07/2018,0.0,33.0,16.8,9.6,Javier
Navarra_Media_Oriental,02/07/2018,0.0,30.0,16.2,0.0,Javier
Navarra_Media_Oriental,03/07/2018,0.0,32.8,14.5,0.0,Javier
Navarra_Media_Oriental,04/07/2018,0.0,32.2,16.7,0.1,Javier
Navarra_Media_Oriental,05/07/2018,0.0,25.5,16.8,0.0,Javier
Navarra_Media_Oriental,06/07/2018,0.0,28.9,12.0,0.0,Javier
Navarra_Media_Oriental,07/07/2018,0.0,32.5,13.7,3.6,Javier
Navarra_Media_Oriental,08/07/2018,0.0,33.3,15.5,0.0,Javier
Navarra_Media_Oriental,09/07/2018,0.0,31.0,17.0,0.0,Javier
Navarra_Media_Oriental,10/07/2018,0.0,30.5,15.8,0.0,Javier
Navarra_Media_Oriental,11/07/2018,0.0,31.2,14.0,0.0,Javier
Navarra_Media_Oriental,12/07/2018,0.0,29.5,16.8,0.0,Javier
Navarra_Media_Oriental,13/07/2018,0.0,34.0,16.5,9.0,Javier
Navarra_Media_Oriental,14/07/2018,0.0,33.5,17.0,0.0,Javier
Navarra_Media_Oriental,15/07/2018,0.0,33.0,14.5,0.0,Javier
Navarra_Media_Oriental,16/07/2018,0.0,24.3,20.0,0.0,Javier
Navarra_Media_Oriental,17/07/2018,0.0,32.2,12.3,0.0,Javier
Navarra_Media_Oriental,18/07/2018,0.0,33.6,16.8,7.5,Javier
Navarra_Media_Oriental,19/07/2018,0.0,34.0,13.4,0.0,Javier
Navarra_Media_Oriental,20/07/2018,0.0,26.8,16.8,0.0,Javier
Navarra_Media_Oriental,21/07/2018,0.0,24.0,16.9,0.0,Javier
Navarra_Media_Oriental,22/07/2018,0.0,29.0,13.0,0.0,Javier
Navarra_Media_Oriental,23/07/2018,0.0,34.0,12.0,0.0,Javier
Navarra_Media_Oriental,24/07/2018,0.0,35.5,17.0,0.0,Javier
Navarra_Media_Oriental,25/07/2018,0.0,35.5,16.0,0.0,Javier
Navarra_Media_Oriental,26/07/2018,0.0,39.0,18.5,0.0,Javier
Navarra_Media_Oriental,27/07/2018,0.0,37.0,17.0,0.0,Javier
Navarra_Media_Oriental,28/07/2018,0.0,31.8,17.4,0.0,Javier
Navarra_Media_Oriental,29/07/2018,0.0,35.3,15.0,0.0,Javier
Navarra_Media_Oriental,30/07/2018,0.0,37.0,16.0,0.0,Javier
Navarra_Media_Oriental,31/07/2018,0.0,33.4,18.8,0.0,Javier
Navarra_Media_Oriental,01/08/2018,0.0,36.0,16.8,0.0,Javier
Navarra_Media_Oriental,02/08/2018,0.0,39.0,17.0,0.0,Javier
Navarra_Media_Oriental,03/08/2018,0.0,38.5,17.2,0.0,Javier
Navarra_Media_Oriental,04/08/2018,0.0,36.0,17.0,0.0,Javier
Navarra_Media_Oriental,05/08/2018,0.0,38.0,16.5,0.0,Javier
Navarra_Media_Oriental,06/08/2018,0.0,38.5,16.5,0.0,Javier
Navarra_Media_Oriental,07/08/2018,0.0,38.5,23.8,3.8,Javier
Navarra_Media_Oriental,08/08/2018,0.0,33.0,17.0,1.8,Javier
Navarra_Media_Oriental,09/08/2018,0.0,23.8,17.0,0.0,Javier
Navarra_Media_Oriental,10/08/2018,0.0,31.0,13.0,0.0,Javier
Navarra_Media_Oriental,11/08/2018,0.0,34.2,13.8,0.0,Javier
Navarra_Media_Oriental,12/08/2018,0.0,35.0,20.0,0.0,Javier
Navarra_Media_Oriental,13/08/2018,0.0,29.8,14.6,0.0,Javier
Navarra_Media_Oriental,14/08/2018,0.0,26.0,17.2,0.0,Javier
Navarra_Media_Oriental,15/08/2018,0.0,33.0,11.0,0.0,Javier
Navarra_Media_Oriental,16/08/2018,0.0,32.8,12.0,0.0,Javier
Navarra_Media_Oriental,17/08/2018,0.0,26.0,19.5,0.0,Javier
Navarra_Media_Oriental,18/08/2018,0.0,28.8,10.0,0.0,Javier
Navarra_Media_Oriental,19/08/2018,0.0,31.8,10.8,0.0,Javier
Navarra_Media_Oriental,20/08/2018,0.0,32.8,12.9,0.0,Javier
Navarra_Media_Oriental,21/08/2018,0.0,35.2,13.8,0.0,Javier
Navarra_Media_Oriental,22/08/2018,0.0,35.2,16.3,1.4,Javier
Navarra_Media_Oriental,23/08/2018,0.0,30.5,15.0,0.0,Javier
Navarra_Media_Oriental,24/08/2018,0.0,26.0,16.0,0.0,Javier
Navarra_Media_Oriental,25/08/2018,0.0,24.0,16.4,0.0,Javier
Navarra_Media_Oriental,26/08/2018,0.0,30.0,10.0,0.0,Javier
Navarra_Media_Oriental,27/08/2018,0.0,35.0,12.9,0.0,Javier
Navarra_Media_Oriental,28/08/2018,0.0,36.3,17.0,0.0,Javier
Navarra_Media_Oriental,29/08/2018,0.0,29.5,14.2,0.0,Javier
Navarra_Media_Oriental,30/08/2018,0.0,29.7,13.0,0.0,Javier
Navarra_Media_Oriental,31/08/2018,0.0,27.0,10.7,0.0,Javier
Navarra_Media_Oriental,01/09/2018,0.0,28.0,12.0,0.0,Javier
Navarra_Media_Oriental,02/09/2018,0.0,29.3,10.0,0.0,Javier
Navarra_Media_Oriental,03/09/2018,0.0,31.2,12.2,4.9,Javier
Navarra_Media_Oriental,04/09/2018,0.0,31.0,13.8,0.2,Javier
Navarra_Media_Oriental,05/09/2018,0.0,29.0,15.8,2.0,Javier
Navarra_Media_Oriental,06/09/2018,0.0,25.0,14.0,0.0,Javier
Navarra_Media_Oriental,07/09/2018,0.0,26.8,12.2,0.0,Javier
Navarra_Media_Oriental,08/09/2018,0.0,28.0,13.8,13.0,Javier
Navarra_Media_Oriental,09/09/2018,0.0,26.2,14.8,0.0,Javier
Navarra_Media_Oriental,10/09/2018,0.0,29.0,14.0,0.0,Javier
Navarra_Media_Oriental,11/09/2018,0.0,29.0,13.8,0.0,Javier
Navarra_Media_Oriental,12/09/2018,0.0,27.8,13.0,0.1,Javier
Navarra_Media_Oriental,13/09/2018,0.0,26.0,13.8,0.0,Javier
Navarra_Media_Oriental,14/09/2018,0.0,29.0,10.5,0.0,Javier
Navarra_Media_Oriental,15/09/2018,0.0,26.2,10.2,0.0,Javier
Navarra_Media_Oriental,16/09/2018,0.0,31.5,13.3,0.0,Javier
Navarra_Media_Oriental,17/09/2018,0.0,33.8,14.6,0.0,Javier
Navarra_Media_Oriental,18/09/2018,0.0,25.0,16.8,0.0,Javier
Navarra_Media_Oriental,19/09/2018,0.0,32.0,14.2,0.0,Javier
Navarra_Media_Oriental,20/09/2018,0.0,34.0,14.0,0.0,Javier
Navarra_Media_Oriental,21/09/2018,0.0,29.0,16.0,0.0,Javier
Navarra_Media_Oriental,22/09/2018,0.0,31.5,13.0,0.0,Javier
Navarra_Media_Oriental,23/09/2018,0.0,34.0,13.0,0.0,Javier
Navarra_Media_Oriental,24/09/2018,0.0,23.0,19.5,0.0,Javier
Navarra_Media_Oriental,25/09/2018,0.0,25.0,6.0,0.0,Javier
Navarra_Media_Oriental,26/09/2018,0.0,27.5,13.0,0.0,Javier
Navarra_Media_Oriental,27/09/2018,0.0,29.0,13.0,0.0,Javier
Navarra_Media_Oriental,28/09/2018,0.0,32.0,11.5,0.0,Javier
Navarra_Media_Oriental,29/09/2018,0.0,27.0,12.0,0.0,Javier
Navarra_Media_Oriental,30/09/2018,0.0,25.5,6.2,0.0,Javier
Navarra_Media_Oriental,01/10/2018,0.0,16.0,13.5,0.0,Javier
Navarra_Media_Oriental,02/10/2018,0.0,22.5,10.3,0.0,Javier
Navarra_Media_Oriental,03/10/2018,0.0,29.5,6.5,0.0,Javier
Navarra_Media_Oriental,04/10/2018,0.0,28.5,6.0,0.0,Javier
Navarra_Media_Oriental,05/10/2018,0.0,27.6,9.5,0.0,Javier
Navarra_Media_Oriental,06/10/2018,0.0,28.0,9.8,1.1,Javier
Navarra_Media_Oriental,07/10/2018,0.0,14.2,10.0,2.2,Javier
Navarra_Media_Oriental,08/10/2018,0.0,21.2,10.3,0.0,Javier
Navarra_Media_Oriental,09/10/2018,0.0,17.2,5.0,1.8,Javier
Navarra_Media_Oriental,10/10/2018,0.0,19.0,13.8,1.4,Javier
Navarra_Media_Oriental,11/10/2018,0.0,23.0,12.5,0.5,Javier
Navarra_Media_Oriental,12/10/2018,0.0,25.5,16.5,0.0,Javier
Navarra_Media_Oriental,13/10/2018,0.0,26.0,13.8,0.0,Javier
Navarra_Media_Oriental,14/10/2018,0.0,21.0,19.0,33.5,Javier
Navarra_Media_Oriental,15/10/2018,0.0,20.4,12.0,0.0,Javier
Navarra_Media_Oriental,16/10/2018,0.0,22.5,7.6,0.0,Javier
Navarra_Media_Oriental,17/10/2018,0.0,22.5,7.2,0.0,Javier
Navarra_Media_Oriental,18/10/2018,0.0,21.8,7.0,0.0,Javier
Navarra_Media_Oriental,19/10/2018,0.0,22.0,10.8,5.7,Javier
Navarra_Media_Oriental,20/10/2018,0.0,22.0,11.0,0.0,Javier
Navarra_Media_Oriental,21/10/2018,0.0,23.0,10.5,0.0,Javier
Navarra_Media_Oriental,22/10/2018,0.0,22.0,8.0,0.0,Javier
Navarra_Media_Oriental,23/10/2018,0.0,21.5,5.0,0.0,Javier
Navarra_Media_Oriental,24/10/2018,0.0,24.0,3.5,0.0,Javier
Navarra_Media_Oriental,25/10/2018,0.0,23.5,4.0,0.0,Javier
Navarra_Media_Oriental,26/10/2018,0.0,18.8,6.5,0.0,Javier
Navarra_Media_Oriental,27/10/2018,0.0,10.5,6.8,0.0,Javier
Navarra_Media_Oriental,28/10/2018,0.0,6.5,4.0,0.2,Javier
Navarra_Media_Oriental,29/10/2018,0.0,7.0,3.0,0.8,Javier
Navarra_Media_Oriental,30/10/2018,0.0,11.0,0.0,4.0,Javier
Navarra_Media_Oriental,31/10/2018,0.0,11.5,6.5,5.5,Javier
Navarra_Media_Oriental,01/11/2018,0.0,11.5,5.0,8.3,Javier
Navarra_Media_Oriental,02/11/2018,0.0,13.0,6.5,0.0,Javier
Navarra_Media_Oriental,03/11/2018,0.0,15.0,7.0,0.0,Javier
Navarra_Media_Oriental,04/11/2018,0.0,17.0,0.0,0.0,Javier
Navarra_Media_Oriental,05/11/2018,0.0,14.0,9.8,8.7,Javier
Navarra_Media_Oriental,06/11/2018,0.0,10.2,6.2,0.4,Javier
Navarra_Media_Oriental,07/11/2018,0.0,15.8,6.8,0.7,Javier
Navarra_Media_Oriental,08/11/2018,0.0,13.0,3.8,6.5,Javier
Navarra_Media_Oriental,09/11/2018,0.0,13.8,5.5,0.3,Javier
Navarra_Media_Oriental,10/11/2018,0.0,14.0,7.0,1.6,Javier
Navarra_Media_Oriental,11/11/2018,0.0,15.5,9.9,0.0,Javier
Navarra_Media_Oriental,12/11/2018,0.0,19.0,9.0,0.0,Javier
Navarra_Media_Oriental,13/11/2018,0.0,18.8,10.0,0.0,Javier
Navarra_Media_Oriental,14/11/2018,0.0,15.0,8.0,0.0,Javier
Navarra_Media_Oriental,15/11/2018,0.0,19.0,8.5,0.0,Javier
Navarra_Media_Oriental,16/11/2018,0.0,18.2,9.0,0.0,Javier
Navarra_Media_Oriental,17/11/2018,0.0,16.2,6.3,2.4,Javier
Navarra_Media_Oriental,18/11/2018,0.0,9.8,6.2,7.2,Javier
Navarra_Media_Oriental,19/11/2018,0.0,14.3,6.4,0.0,Javier
Navarra_Media_Oriental,20/11/2018,0.0,9.0,3.2,5.8,Javier
Navarra_Media_Oriental,21/11/2018,0.0,13.8,5.0,0.0,Javier
Navarra_Media_Oriental,22/11/2018,0.0,12.0,3.2,1.5,Javier
Navarra_Media_Oriental,23/11/2018,0.0,11.0,4.0,6.0,Javier
Navarra_Media_Oriental,24/11/2018,0.0,12.5,0.0,3.5,Javier
Navarra_Media_Oriental,25/11/2018,0.0,11.0,4.0,3.0,Javier
Navarra_Media_Oriental,26/11/2018,0.0,8.7,4.7,1.5,Javier
Navarra_Media_Oriental,27/11/2018,0.0,13.0,6.3,0.0,Javier
Navarra_Media_Oriental,28/11/2018,0.0,13.9,0.0,0.0,Javier
Navarra_Media_Oriental,29/11/2018,0.0,12.0,-0.2,3.4,Javier
Navarra_Media_Oriental,30/11/2018,0.0,12.4,1.0,1.0,Javier
Navarra_Media_Oriental,01/12/2018,0.0,10.2,3.0,0.0,Javier
Navarra_Media_Oriental,02/12/2018,0.0,10.2,3.0,0.0,Javier
Navarra_Media_Oriental,03/12/2018,0.0,13.0,5.3,0.2,Javier
Navarra_Media_Oriental,04/12/2018,0.0,11.0,4.0,0.1,Javier
Navarra_Media_Oriental,05/12/2018,0.0,9.2,4.5,0.2,Javier
Navarra_Media_Oriental,06/12/2018,0.0,14.5,4.8,0.0,Javier
Navarra_Media_Oriental,07/12/2018,0.0,13.0,0.0,0.0,Javier
Navarra_Media_Oriental,08/12/2018,0.0,12.8,7.8,0.0,Javier
Navarra_Media_Oriental,09/12/2018,0.0,14.2,2.8,0.0,Javier
Navarra_Media_Oriental,10/12/2018,0.0,13.2,8.2,0.0,Javier
Navarra_Media_Oriental,11/12/2018,0.0,12.5,-1.2,0.0,Javier
Navarra_Media_Oriental,12/12/2018,0.0,12.5,-0.2,4.6,Javier
Navarra_Media_Oriental,13/12/2018,0.0,8.5,6.5,6.0,Javier
Navarra_Media_Oriental,14/12/2018,0.0,9.5,7.0,0.3,Javier
Navarra_Media_Oriental,15/12/2018,0.0,10.0,3.0,3.8,Javier
Navarra_Media_Oriental,16/12/2018,0.0,12.5,6.5,4.4,Javier
Navarra_Media_Oriental,17/12/2018,0.0,9.0,1.0,0.0,Javier
Navarra_Media_Oriental,18/12/2018,0.0,9.7,0.0,0.0,Javier
Navarra_Media_Oriental,19/12/2018,0.0,11.9,0.3,0.0,Javier
Navarra_Media_Oriental,20/12/2018,0.0,13.0,2.5,0.0,Javier
Navarra_Media_Oriental,21/12/2018,0.0,13.0,3.0,0.0,Javier
Navarra_Media_Oriental,22/12/2018,0.0,15.0,4.5,0.1,Javier
Navarra_Media_Oriental,23/12/2018,0.0,9.0,4.0,0.3,Javier
Navarra_Media_Oriental,24/12/2018,0.0,7.0,4.0,0.2,Javier
Navarra_Media_Oriental,25/12/2018,0.0,9.0,1.0,0.0,Javier
Navarra_Media_Oriental,26/12/2018,0.0,6.0,2.5,0.0,Javier
Navarra_Media_Oriental,27/12/2018,0.0,4.0,3.0,0.0,Javier
