Comarca,Fecha, Temperatura media, Temperatura maxima, Temperatura minima, Precipitacion acumulada,Localidad
Navarra_Media_Oriental,01/01/2015,7.4,13.6,2.2,0.0,San_Martin_de_Unx
Navarra_Media_Oriental,02/01/2015,6.1,15.0,-0.3,0.0,San_Martin_de_Unx
Navarra_Media_Oriental,03/01/2015,8.5,17.3,1.2,0.0,San_Martin_de_Unx
Navarra_Media_Oriental,04/01/2015,9.8,14.2,3.5,0.0,San_Martin_de_Unx
Navarra_Media_Oriental,05/01/2015,2.7,5.4,0.1,0.1,San_Martin_de_Unx
Navarra_Media_Oriental,06/01/2015,4.6,11.0,-2.3,0.1,San_Martin_de_Unx
Navarra_Media_Oriental,07/01/2015,2.8,8.4,-2.1,0.0,San_Martin_de_Unx
Navarra_Media_Oriental,08/01/2015,3.2,9.2,0.1,0.1,San_Martin_de_Unx
Navarra_Media_Oriental,09/01/2015,8.4,16.3,1.7,0.1,San_Martin_de_Unx
Navarra_Media_Oriental,10/01/2015,9.4,17.2,3.4,0.0,San_Martin_de_Unx
Navarra_Media_Oriental,11/01/2015,7.8,12.3,0.9,0.0,San_Martin_de_Unx
Navarra_Media_Oriental,12/01/2015,4.3,13.2,-1.7,0.0,San_Martin_de_Unx
Navarra_Media_Oriental,13/01/2015,4.3,11.8,-0.8,0.0,San_Martin_de_Unx
Navarra_Media_Oriental,14/01/2015,6.8,13.0,1.4,0.0,San_Martin_de_Unx
Navarra_Media_Oriental,15/01/2015,8.7,11.3,6.7,0.2,San_Martin_de_Unx
Navarra_Media_Oriental,16/01/2015,5.7,9.2,1.3,3.8,San_Martin_de_Unx
Navarra_Media_Oriental,17/01/2015,3.3,8.9,-0.3,2.7,San_Martin_de_Unx
Navarra_Media_Oriental,18/01/2015,3.3,4.7,1.5,0.8,San_Martin_de_Unx
Navarra_Media_Oriental,19/01/2015,2.6,6.9,-0.4,3.5,San_Martin_de_Unx
Navarra_Media_Oriental,20/01/2015,1.5,4.2,-1.0,0.0,San_Martin_de_Unx
Navarra_Media_Oriental,21/01/2015,2.8,5.7,0.7,1.4,San_Martin_de_Unx
Navarra_Media_Oriental,22/01/2015,2.9,7.0,-0.0,0.6,San_Martin_de_Unx
Navarra_Media_Oriental,23/01/2015,3.8,7.2,2.2,0.0,San_Martin_de_Unx
Navarra_Media_Oriental,24/01/2015,4.8,8.5,0.8,0.0,San_Martin_de_Unx
Navarra_Media_Oriental,25/01/2015,3.6,6.8,2.0,0.0,San_Martin_de_Unx
Navarra_Media_Oriental,26/01/2015,4.7,7.0,2.6,0.0,San_Martin_de_Unx
Navarra_Media_Oriental,27/01/2015,6.3,10.3,4.3,0.5,San_Martin_de_Unx
Navarra_Media_Oriental,28/01/2015,6.8,10.4,4.1,0.0,San_Martin_de_Unx
Navarra_Media_Oriental,29/01/2015,8.8,12.2,3.1,0.0,San_Martin_de_Unx
Navarra_Media_Oriental,30/01/2015,6.4,11.5,4.2,37.8,San_Martin_de_Unx
Navarra_Media_Oriental,31/01/2015,3.0,5.9,0.2,21.8,San_Martin_de_Unx
Navarra_Media_Oriental,01/02/2015,0.8,3.0,-0.2,20.8,San_Martin_de_Unx
Navarra_Media_Oriental,02/02/2015,3.0,6.1,0.0,2.4,San_Martin_de_Unx
Navarra_Media_Oriental,03/02/2015,2.4,6.1,-0.8,4.1,San_Martin_de_Unx
Navarra_Media_Oriental,04/02/2015,-0.2,2.0,-2.2,0.0,San_Martin_de_Unx
Navarra_Media_Oriental,05/02/2015,-0.3,3.0,-2.3,0.0,San_Martin_de_Unx
Navarra_Media_Oriental,06/02/2015,-1.5,0.6,-2.9,0.0,San_Martin_de_Unx
Navarra_Media_Oriental,07/02/2015,0.2,4.3,-2.7,0.0,San_Martin_de_Unx
Navarra_Media_Oriental,08/02/2015,1.6,4.2,-1.1,0.0,San_Martin_de_Unx
Navarra_Media_Oriental,09/02/2015,2.6,9.0,-1.3,0.0,San_Martin_de_Unx
Navarra_Media_Oriental,10/02/2015,2.9,10.5,-2.9,0.0,San_Martin_de_Unx
Navarra_Media_Oriental,11/02/2015,3.9,9.2,-1.2,0.6,San_Martin_de_Unx
Navarra_Media_Oriental,12/02/2015,6.4,11.3,3.5,1.0,San_Martin_de_Unx
Navarra_Media_Oriental,13/02/2015,7.2,12.8,1.6,0.0,San_Martin_de_Unx
Navarra_Media_Oriental,14/02/2015,5.9,8.3,2.4,12.4,San_Martin_de_Unx
Navarra_Media_Oriental,15/02/2015,7.4,11.7,5.2,7.1,San_Martin_de_Unx
Navarra_Media_Oriental,16/02/2015,7.3,12.0,4.7,3.1,San_Martin_de_Unx
Navarra_Media_Oriental,17/02/2015,6.0,9.2,3.9,0.0,San_Martin_de_Unx
Navarra_Media_Oriental,18/02/2015,4.9,9.2,0.8,0.0,San_Martin_de_Unx
Navarra_Media_Oriental,19/02/2015,4.7,12.2,-1.8,0.0,San_Martin_de_Unx
Navarra_Media_Oriental,20/02/2015,6.0,11.3,0.5,3.3,San_Martin_de_Unx
Navarra_Media_Oriental,21/02/2015,4.8,7.9,1.9,9.9,San_Martin_de_Unx
Navarra_Media_Oriental,22/02/2015,5.3,8.8,2.2,5.8,San_Martin_de_Unx
Navarra_Media_Oriental,23/02/2015,8.2,13.8,4.9,3.6,San_Martin_de_Unx
Navarra_Media_Oriental,24/02/2015,3.2,5.9,1.1,11.0,San_Martin_de_Unx
Navarra_Media_Oriental,25/02/2015,6.9,10.6,2.4,8.7,San_Martin_de_Unx
Navarra_Media_Oriental,26/02/2015,10.2,13.7,8.8,0.7,San_Martin_de_Unx
Navarra_Media_Oriental,27/02/2015,5.9,9.5,3.2,1.8,San_Martin_de_Unx
Navarra_Media_Oriental,28/02/2015,7.7,13.0,2.6,0.0,San_Martin_de_Unx
Navarra_Media_Oriental,01/03/2015,12.5,17.9,8.7,0.2,San_Martin_de_Unx
Navarra_Media_Oriental,02/03/2015,13.0,17.2,9.7,0.5,San_Martin_de_Unx
Navarra_Media_Oriental,03/03/2015,12.7,20.0,8.0,0.2,San_Martin_de_Unx
Navarra_Media_Oriental,04/03/2015,6.5,11.9,2.9,1.7,San_Martin_de_Unx
Navarra_Media_Oriental,05/03/2015,5.9,9.7,2.2,0.0,San_Martin_de_Unx
Navarra_Media_Oriental,06/03/2015,8.4,17.4,-0.4,0.0,San_Martin_de_Unx
Navarra_Media_Oriental,07/03/2015,12.7,21.9,2.6,0.0,San_Martin_de_Unx
Navarra_Media_Oriental,08/03/2015,12.5,18.9,5.2,0.0,San_Martin_de_Unx
Navarra_Media_Oriental,09/03/2015,13.2,21.7,4.1,0.0,San_Martin_de_Unx
Navarra_Media_Oriental,10/03/2015,13.1,21.2,5.3,0.0,San_Martin_de_Unx
Navarra_Media_Oriental,11/03/2015,12.6,21.6,5.5,0.0,San_Martin_de_Unx
Navarra_Media_Oriental,12/03/2015,11.8,22.0,3.8,0.0,San_Martin_de_Unx
Navarra_Media_Oriental,13/03/2015,8.4,12.3,4.1,0.0,San_Martin_de_Unx
Navarra_Media_Oriental,14/03/2015,3.8,7.1,1.0,3.5,San_Martin_de_Unx
Navarra_Media_Oriental,15/03/2015,5.1,9.4,3.2,0.2,San_Martin_de_Unx
Navarra_Media_Oriental,16/03/2015,7.2,13.0,2.2,0.0,San_Martin_de_Unx
Navarra_Media_Oriental,17/03/2015,9.3,15.0,1.5,0.0,San_Martin_de_Unx
Navarra_Media_Oriental,18/03/2015,9.4,13.2,7.0,4.9,San_Martin_de_Unx
Navarra_Media_Oriental,19/03/2015,10.9,17.2,7.1,11.5,San_Martin_de_Unx
Navarra_Media_Oriental,20/03/2015,8.8,13.7,5.1,5.6,San_Martin_de_Unx
Navarra_Media_Oriental,21/03/2015,8.2,12.5,6.0,12.6,San_Martin_de_Unx
Navarra_Media_Oriental,22/03/2015,6.9,9.0,2.8,9.0,San_Martin_de_Unx
Navarra_Media_Oriental,23/03/2015,5.0,8.9,2.2,30.2,San_Martin_de_Unx
Navarra_Media_Oriental,24/03/2015,7.2,9.9,3.7,2.2,San_Martin_de_Unx
Navarra_Media_Oriental,25/03/2015,4.7,8.5,1.6,1.4,San_Martin_de_Unx
Navarra_Media_Oriental,26/03/2015,7.4,10.6,3.0,0.0,San_Martin_de_Unx
Navarra_Media_Oriental,27/03/2015,10.9,15.3,7.4,0.0,San_Martin_de_Unx
Navarra_Media_Oriental,28/03/2015,12.6,17.9,9.0,0.0,San_Martin_de_Unx
Navarra_Media_Oriental,29/03/2015,12.7,19.1,6.7,0.0,San_Martin_de_Unx
Navarra_Media_Oriental,30/03/2015,13.9,17.1,9.0,0.0,San_Martin_de_Unx
Navarra_Media_Oriental,31/03/2015,12.4,17.4,8.5,0.0,San_Martin_de_Unx
Navarra_Media_Oriental,01/04/2015,9.6,13.2,5.5,0.0,San_Martin_de_Unx
Navarra_Media_Oriental,02/04/2015,11.6,19.6,3.7,0.0,San_Martin_de_Unx
Navarra_Media_Oriental,03/04/2015,13.0,21.2,5.1,0.0,San_Martin_de_Unx
Navarra_Media_Oriental,04/04/2015,9.8,14.6,6.8,0.1,San_Martin_de_Unx
Navarra_Media_Oriental,05/04/2015,10.6,15.9,5.1,0.0,San_Martin_de_Unx
Navarra_Media_Oriental,06/04/2015,12.1,18.8,4.9,0.0,San_Martin_de_Unx
Navarra_Media_Oriental,07/04/2015,12.2,18.3,4.5,0.0,San_Martin_de_Unx
Navarra_Media_Oriental,08/04/2015,11.8,17.3,7.0,0.0,San_Martin_de_Unx
Navarra_Media_Oriental,09/04/2015,11.4,17.4,6.3,0.2,San_Martin_de_Unx
Navarra_Media_Oriental,10/04/2015,12.6,18.7,7.7,0.2,San_Martin_de_Unx
Navarra_Media_Oriental,11/04/2015,13.7,20.8,7.2,0.2,San_Martin_de_Unx
Navarra_Media_Oriental,12/04/2015,15.2,22.3,7.8,0.0,San_Martin_de_Unx
Navarra_Media_Oriental,13/04/2015,16.2,23.6,7.0,0.0,San_Martin_de_Unx
Navarra_Media_Oriental,14/04/2015,18.1,25.8,8.0,0.0,San_Martin_de_Unx
Navarra_Media_Oriental,15/04/2015,13.9,18.7,9.6,0.0,San_Martin_de_Unx
Navarra_Media_Oriental,16/04/2015,12.3,17.3,9.0,13.3,San_Martin_de_Unx
Navarra_Media_Oriental,17/04/2015,13.6,19.6,7.7,0.0,San_Martin_de_Unx
Navarra_Media_Oriental,18/04/2015,13.7,19.6,9.7,7.9,San_Martin_de_Unx
Navarra_Media_Oriental,19/04/2015,11.5,16.9,6.4,0.0,San_Martin_de_Unx
Navarra_Media_Oriental,20/04/2015,13.2,21.1,4.8,0.0,San_Martin_de_Unx
Navarra_Media_Oriental,21/04/2015,15.8,22.4,8.0,0.0,San_Martin_de_Unx
Navarra_Media_Oriental,22/04/2015,14.5,20.0,9.7,0.0,San_Martin_de_Unx
Navarra_Media_Oriental,23/04/2015,14.8,21.5,7.5,0.0,San_Martin_de_Unx
Navarra_Media_Oriental,24/04/2015,15.8,22.5,8.9,0.1,San_Martin_de_Unx
Navarra_Media_Oriental,25/04/2015,16.5,20.6,11.1,0.0,San_Martin_de_Unx
Navarra_Media_Oriental,26/04/2015,12.8,16.9,9.5,22.2,San_Martin_de_Unx
Navarra_Media_Oriental,27/04/2015,11.2,16.0,8.8,0.0,San_Martin_de_Unx
Navarra_Media_Oriental,28/04/2015,10.5,15.5,5.2,0.0,San_Martin_de_Unx
Navarra_Media_Oriental,29/04/2015,12.5,19.0,6.3,0.0,San_Martin_de_Unx
Navarra_Media_Oriental,30/04/2015,14.6,22.6,5.9,0.0,San_Martin_de_Unx
Navarra_Media_Oriental,01/05/2015,16.7,20.5,12.8,0.2,San_Martin_de_Unx
Navarra_Media_Oriental,02/05/2015,19.3,24.2,12.7,0.0,San_Martin_de_Unx
Navarra_Media_Oriental,03/05/2015,18.5,22.3,15.9,4.6,San_Martin_de_Unx
Navarra_Media_Oriental,04/05/2015,20.2,25.8,14.8,0.1,San_Martin_de_Unx
Navarra_Media_Oriental,05/05/2015,17.2,22.0,13.4,0.0,San_Martin_de_Unx
Navarra_Media_Oriental,06/05/2015,14.6,21.5,7.6,0.0,San_Martin_de_Unx
Navarra_Media_Oriental,07/05/2015,17.9,26.3,7.8,0.0,San_Martin_de_Unx
Navarra_Media_Oriental,08/05/2015,18.7,24.1,12.1,0.0,San_Martin_de_Unx
Navarra_Media_Oriental,09/05/2015,17.6,25.2,9.8,0.0,San_Martin_de_Unx
Navarra_Media_Oriental,10/05/2015,21.4,29.8,10.4,0.0,San_Martin_de_Unx
Navarra_Media_Oriental,11/05/2015,23.9,31.2,13.8,0.0,San_Martin_de_Unx
Navarra_Media_Oriental,12/05/2015,23.4,32.0,13.0,0.0,San_Martin_de_Unx
Navarra_Media_Oriental,13/05/2015,24.5,32.2,16.8,0.0,San_Martin_de_Unx
Navarra_Media_Oriental,14/05/2015,17.5,24.6,9.4,0.0,San_Martin_de_Unx
Navarra_Media_Oriental,15/05/2015,10.7,14.4,8.9,0.2,San_Martin_de_Unx
Navarra_Media_Oriental,16/05/2015,12.3,16.1,9.3,0.2,San_Martin_de_Unx
Navarra_Media_Oriental,17/05/2015,15.6,20.7,10.1,0.0,San_Martin_de_Unx
Navarra_Media_Oriental,18/05/2015,15.6,27.5,7.1,0.0,San_Martin_de_Unx
Navarra_Media_Oriental,19/05/2015,11.5,15.7,8.7,0.8,San_Martin_de_Unx
Navarra_Media_Oriental,20/05/2015,10.7,14.6,7.7,0.0,San_Martin_de_Unx
Navarra_Media_Oriental,21/05/2015,10.8,15.5,6.8,0.0,San_Martin_de_Unx
Navarra_Media_Oriental,22/05/2015,12.2,18.3,7.4,0.0,San_Martin_de_Unx
Navarra_Media_Oriental,23/05/2015,13.2,18.1,10.1,0.0,San_Martin_de_Unx
Navarra_Media_Oriental,24/05/2015,16.4,21.3,10.0,0.0,San_Martin_de_Unx
Navarra_Media_Oriental,25/05/2015,15.2,18.9,12.2,0.0,San_Martin_de_Unx
Navarra_Media_Oriental,26/05/2015,13.2,17.7,9.4,0.0,San_Martin_de_Unx
Navarra_Media_Oriental,27/05/2015,16.7,23.2,9.9,0.0,San_Martin_de_Unx
Navarra_Media_Oriental,28/05/2015,17.4,28.1,6.9,0.0,San_Martin_de_Unx
Navarra_Media_Oriental,29/05/2015,16.1,23.5,10.3,0.0,San_Martin_de_Unx
Navarra_Media_Oriental,30/05/2015,16.8,25.6,7.0,0.0,San_Martin_de_Unx
Navarra_Media_Oriental,31/05/2015,19.5,28.6,10.1,0.0,San_Martin_de_Unx
Navarra_Media_Oriental,01/06/2015,20.3,29.3,12.5,0.0,San_Martin_de_Unx
Navarra_Media_Oriental,02/06/2015,22.4,30.4,12.7,0.0,San_Martin_de_Unx
Navarra_Media_Oriental,03/06/2015,24.4,32.4,16.0,0.0,San_Martin_de_Unx
Navarra_Media_Oriental,04/06/2015,25.6,31.8,15.8,0.0,San_Martin_de_Unx
Navarra_Media_Oriental,05/06/2015,24.4,31.4,14.7,0.0,San_Martin_de_Unx
Navarra_Media_Oriental,06/06/2015,22.0,31.4,13.3,0.0,San_Martin_de_Unx
Navarra_Media_Oriental,07/06/2015,22.7,31.6,12.5,0.0,San_Martin_de_Unx
Navarra_Media_Oriental,08/06/2015,23.4,32.9,14.3,0.0,San_Martin_de_Unx
Navarra_Media_Oriental,09/06/2015,19.4,26.2,13.4,0.0,San_Martin_de_Unx
Navarra_Media_Oriental,10/06/2015,15.3,19.2,12.9,12.7,San_Martin_de_Unx
Navarra_Media_Oriental,11/06/2015,15.7,20.3,13.0,75.2,San_Martin_de_Unx
Navarra_Media_Oriental,12/06/2015,17.9,24.9,11.0,0.0,San_Martin_de_Unx
Navarra_Media_Oriental,13/06/2015,16.4,22.9,12.1,18.7,San_Martin_de_Unx
Navarra_Media_Oriental,14/06/2015,16.9,23.5,11.3,0.0,San_Martin_de_Unx
Navarra_Media_Oriental,15/06/2015,16.0,23.5,9.5,0.2,San_Martin_de_Unx
Navarra_Media_Oriental,16/06/2015,15.0,18.1,11.9,0.0,San_Martin_de_Unx
Navarra_Media_Oriental,17/06/2015,16.2,21.1,11.1,0.0,San_Martin_de_Unx
Navarra_Media_Oriental,18/06/2015,18.3,24.7,12.7,0.0,San_Martin_de_Unx
Navarra_Media_Oriental,19/06/2015,17.5,23.1,12.9,0.0,San_Martin_de_Unx
Navarra_Media_Oriental,20/06/2015,20.2,27.8,13.1,0.0,San_Martin_de_Unx
Navarra_Media_Oriental,21/06/2015,21.6,30.6,11.3,0.0,San_Martin_de_Unx
Navarra_Media_Oriental,22/06/2015,23.1,33.0,13.5,3.2,San_Martin_de_Unx
Navarra_Media_Oriental,23/06/2015,20.0,25.8,14.6,0.7,San_Martin_de_Unx
Navarra_Media_Oriental,24/06/2015,20.8,28.5,11.8,0.0,San_Martin_de_Unx
Navarra_Media_Oriental,25/06/2015,23.6,32.2,13.3,0.0,San_Martin_de_Unx
Navarra_Media_Oriental,26/06/2015,25.6,34.6,16.0,0.0,San_Martin_de_Unx
Navarra_Media_Oriental,27/06/2015,24.0,32.0,15.2,0.0,San_Martin_de_Unx
Navarra_Media_Oriental,28/06/2015,24.7,34.7,16.3,0.0,San_Martin_de_Unx
Navarra_Media_Oriental,29/06/2015,26.1,36.4,15.0,0.0,San_Martin_de_Unx
Navarra_Media_Oriental,30/06/2015,29.3,37.0,19.4,0.0,San_Martin_de_Unx
Navarra_Media_Oriental,01/07/2015,30.2,35.9,24.3,0.0,San_Martin_de_Unx
Navarra_Media_Oriental,02/07/2015,28.1,33.1,24.9,0.0,San_Martin_de_Unx
Navarra_Media_Oriental,03/07/2015,28.1,34.7,20.1,0.0,San_Martin_de_Unx
Navarra_Media_Oriental,04/07/2015,29.1,35.3,21.1,0.0,San_Martin_de_Unx
Navarra_Media_Oriental,05/07/2015,25.5,35.5,19.1,0.0,San_Martin_de_Unx
Navarra_Media_Oriental,06/07/2015,27.3,36.7,15.9,0.0,San_Martin_de_Unx
Navarra_Media_Oriental,07/07/2015,26.8,36.4,18.9,0.0,San_Martin_de_Unx
Navarra_Media_Oriental,08/07/2015,19.4,22.8,14.9,0.0,San_Martin_de_Unx
Navarra_Media_Oriental,09/07/2015,20.2,28.3,14.5,0.0,San_Martin_de_Unx
Navarra_Media_Oriental,10/07/2015,24.4,36.4,13.7,0.0,San_Martin_de_Unx
Navarra_Media_Oriental,11/07/2015,21.4,28.0,17.0,0.0,San_Martin_de_Unx
Navarra_Media_Oriental,12/07/2015,22.0,30.8,14.4,0.0,San_Martin_de_Unx
Navarra_Media_Oriental,13/07/2015,23.0,32.4,13.3,0.0,San_Martin_de_Unx
Navarra_Media_Oriental,14/07/2015,24.7,35.3,14.0,0.0,San_Martin_de_Unx
Navarra_Media_Oriental,15/07/2015,27.0,36.4,16.7,0.0,San_Martin_de_Unx
Navarra_Media_Oriental,16/07/2015,25.7,34.3,19.6,1.9,San_Martin_de_Unx
Navarra_Media_Oriental,17/07/2015,25.3,34.1,18.8,0.7,San_Martin_de_Unx
Navarra_Media_Oriental,18/07/2015,24.1,33.5,18.3,9.5,San_Martin_de_Unx
Navarra_Media_Oriental,19/07/2015,24.8,32.2,17.1,0.0,San_Martin_de_Unx
Navarra_Media_Oriental,20/07/2015,26.8,35.3,17.3,0.0,San_Martin_de_Unx
Navarra_Media_Oriental,21/07/2015,25.8,35.6,18.6,5.2,San_Martin_de_Unx
Navarra_Media_Oriental,22/07/2015,22.0,28.5,17.3,0.0,San_Martin_de_Unx
Navarra_Media_Oriental,23/07/2015,24.8,33.0,16.8,0.0,San_Martin_de_Unx
Navarra_Media_Oriental,24/07/2015,23.4,32.9,17.7,0.0,San_Martin_de_Unx
Navarra_Media_Oriental,25/07/2015,18.7,23.1,14.3,0.0,San_Martin_de_Unx
Navarra_Media_Oriental,26/07/2015,21.6,32.5,10.5,0.0,San_Martin_de_Unx
Navarra_Media_Oriental,27/07/2015,21.5,26.7,17.0,0.0,San_Martin_de_Unx
Navarra_Media_Oriental,28/07/2015,22.7,32.1,14.9,0.0,San_Martin_de_Unx
Navarra_Media_Oriental,29/07/2015,21.7,29.5,15.4,0.0,San_Martin_de_Unx
Navarra_Media_Oriental,30/07/2015,16.3,22.1,13.3,2.7,San_Martin_de_Unx
Navarra_Media_Oriental,31/07/2015,16.7,21.8,14.6,8.8,San_Martin_de_Unx
Navarra_Media_Oriental,01/08/2015,18.1,23.8,12.9,0.0,San_Martin_de_Unx
Navarra_Media_Oriental,02/08/2015,23.1,31.2,12.0,0.0,San_Martin_de_Unx
Navarra_Media_Oriental,03/08/2015,25.5,32.4,18.7,4.5,San_Martin_de_Unx
Navarra_Media_Oriental,04/08/2015,23.0,28.8,18.5,0.0,San_Martin_de_Unx
Navarra_Media_Oriental,05/08/2015,25.8,34.2,17.9,0.0,San_Martin_de_Unx
Navarra_Media_Oriental,06/08/2015,26.1,34.9,16.4,0.0,San_Martin_de_Unx
Navarra_Media_Oriental,07/08/2015,23.2,29.0,18.3,0.0,San_Martin_de_Unx
Navarra_Media_Oriental,08/08/2015,17.1,20.6,12.8,2.0,San_Martin_de_Unx
Navarra_Media_Oriental,09/08/2015,17.9,23.5,11.5,0.0,San_Martin_de_Unx
Navarra_Media_Oriental,10/08/2015,22.3,31.8,13.5,0.0,San_Martin_de_Unx
Navarra_Media_Oriental,11/08/2015,25.7,33.6,16.6,0.1,San_Martin_de_Unx
Navarra_Media_Oriental,12/08/2015,26.6,34.1,19.2,0.0,San_Martin_de_Unx
Navarra_Media_Oriental,13/08/2015,21.6,27.2,17.1,0.9,San_Martin_de_Unx
Navarra_Media_Oriental,14/08/2015,18.0,23.3,15.1,0.0,San_Martin_de_Unx
Navarra_Media_Oriental,15/08/2015,17.8,23.7,12.7,0.0,San_Martin_de_Unx
Navarra_Media_Oriental,16/08/2015,19.3,27.5,8.8,0.0,San_Martin_de_Unx
Navarra_Media_Oriental,17/08/2015,20.0,26.0,15.4,0.1,San_Martin_de_Unx
Navarra_Media_Oriental,18/08/2015,18.8,25.5,12.8,0.0,San_Martin_de_Unx
Navarra_Media_Oriental,19/08/2015,20.1,28.8,10.3,0.0,San_Martin_de_Unx
Navarra_Media_Oriental,20/08/2015,22.5,32.5,12.6,0.0,San_Martin_de_Unx
Navarra_Media_Oriental,21/08/2015,25.4,33.0,17.6,0.1,San_Martin_de_Unx
Navarra_Media_Oriental,22/08/2015,24.1,30.3,18.8,3.3,San_Martin_de_Unx
Navarra_Media_Oriental,23/08/2015,21.5,27.1,17.2,0.0,San_Martin_de_Unx
Navarra_Media_Oriental,24/08/2015,18.8,25.1,12.7,0.0,San_Martin_de_Unx
Navarra_Media_Oriental,25/08/2015,19.9,28.1,10.2,0.0,San_Martin_de_Unx
Navarra_Media_Oriental,26/08/2015,25.3,31.6,17.9,0.0,San_Martin_de_Unx
Navarra_Media_Oriental,27/08/2015,25.8,33.4,19.8,0.0,San_Martin_de_Unx
Navarra_Media_Oriental,28/08/2015,26.7,33.9,18.5,0.0,San_Martin_de_Unx
Navarra_Media_Oriental,29/08/2015,27.9,33.8,19.3,0.0,San_Martin_de_Unx
Navarra_Media_Oriental,30/08/2015,26.1,32.5,18.5,2.6,San_Martin_de_Unx
Navarra_Media_Oriental,31/08/2015,21.0,30.3,15.7,9.1,San_Martin_de_Unx
Navarra_Media_Oriental,01/09/2015,18.2,22.9,14.2,0.1,San_Martin_de_Unx
Navarra_Media_Oriental,02/09/2015,17.6,24.1,11.6,2.5,San_Martin_de_Unx
Navarra_Media_Oriental,03/09/2015,17.0,22.2,12.7,0.1,San_Martin_de_Unx
Navarra_Media_Oriental,04/09/2015,15.4,21.3,11.1,0.4,San_Martin_de_Unx
Navarra_Media_Oriental,05/09/2015,15.4,21.3,9.9,0.0,San_Martin_de_Unx
Navarra_Media_Oriental,06/09/2015,16.2,23.8,7.6,0.0,San_Martin_de_Unx
Navarra_Media_Oriental,07/09/2015,16.2,24.4,8.3,0.0,San_Martin_de_Unx
Navarra_Media_Oriental,08/09/2015,16.2,24.4,8.3,0.0,San_Martin_de_Unx
Navarra_Media_Oriental,09/09/2015,19.7,26.1,11.4,0.0,San_Martin_de_Unx
Navarra_Media_Oriental,10/09/2015,20.0,25.6,15.7,0.2,San_Martin_de_Unx
Navarra_Media_Oriental,11/09/2015,21.2,27.2,15.5,0.0,San_Martin_de_Unx
Navarra_Media_Oriental,12/09/2015,21.7,25.5,18.1,1.8,San_Martin_de_Unx
Navarra_Media_Oriental,13/09/2015,19.0,22.0,14.2,0.0,San_Martin_de_Unx
Navarra_Media_Oriental,14/09/2015,17.8,23.0,13.3,0.0,San_Martin_de_Unx
Navarra_Media_Oriental,15/09/2015,16.6,19.4,14.4,2.8,San_Martin_de_Unx
Navarra_Media_Oriental,16/09/2015,20.3,26.2,16.1,0.0,San_Martin_de_Unx
Navarra_Media_Oriental,17/09/2015,15.0,20.8,8.6,0.0,San_Martin_de_Unx
Navarra_Media_Oriental,18/09/2015,15.0,22.7,5.7,0.0,San_Martin_de_Unx
Navarra_Media_Oriental,19/09/2015,16.0,23.5,8.2,0.0,San_Martin_de_Unx
Navarra_Media_Oriental,20/09/2015,17.1,25.7,9.4,0.0,San_Martin_de_Unx
Navarra_Media_Oriental,21/09/2015,18.2,27.2,8.2,0.0,San_Martin_de_Unx
Navarra_Media_Oriental,22/09/2015,16.4,22.2,11.1,0.0,San_Martin_de_Unx
Navarra_Media_Oriental,23/09/2015,14.0,18.2,11.5,0.0,San_Martin_de_Unx
Navarra_Media_Oriental,24/09/2015,16.7,24.6,11.5,0.0,San_Martin_de_Unx
Navarra_Media_Oriental,25/09/2015,19.6,29.1,11.3,0.0,San_Martin_de_Unx
Navarra_Media_Oriental,26/09/2015,18.2,27.4,10.9,0.0,San_Martin_de_Unx
Navarra_Media_Oriental,27/09/2015,16.5,23.7,9.9,0.0,San_Martin_de_Unx
Navarra_Media_Oriental,28/09/2015,15.9,23.6,8.2,0.0,San_Martin_de_Unx
Navarra_Media_Oriental,29/09/2015,15.9,24.1,8.4,28.1,San_Martin_de_Unx
Navarra_Media_Oriental,30/09/2015,12.9,21.6,5.3,7.6,San_Martin_de_Unx
Navarra_Media_Oriental,01/10/2015,15.4,23.8,8.7,0.0,San_Martin_de_Unx
Navarra_Media_Oriental,02/10/2015,12.9,18.4,9.3,0.0,San_Martin_de_Unx
Navarra_Media_Oriental,03/10/2015,13.5,20.7,5.7,0.0,San_Martin_de_Unx
Navarra_Media_Oriental,04/10/2015,15.3,19.6,10.3,0.8,San_Martin_de_Unx
Navarra_Media_Oriental,05/10/2015,20.8,24.5,16.7,0.2,San_Martin_de_Unx
Navarra_Media_Oriental,06/10/2015,17.6,22.7,12.8,1.2,San_Martin_de_Unx
Navarra_Media_Oriental,07/10/2015,13.6,18.1,11.2,0.0,San_Martin_de_Unx
Navarra_Media_Oriental,08/10/2015,13.3,20.1,6.5,0.0,San_Martin_de_Unx
Navarra_Media_Oriental,09/10/2015,13.1,22.7,5.4,0.0,San_Martin_de_Unx
Navarra_Media_Oriental,10/10/2015,15.8,23.8,7.7,0.0,San_Martin_de_Unx
Navarra_Media_Oriental,11/10/2015,15.6,18.2,11.7,0.4,San_Martin_de_Unx
Navarra_Media_Oriental,12/10/2015,13.9,23.8,8.3,18.2,San_Martin_de_Unx
Navarra_Media_Oriental,13/10/2015,10.6,15.5,7.6,0.2,San_Martin_de_Unx
Navarra_Media_Oriental,14/10/2015,9.1,13.3,5.9,0.0,San_Martin_de_Unx
Navarra_Media_Oriental,15/10/2015,9.2,16.1,4.2,0.0,San_Martin_de_Unx
Navarra_Media_Oriental,16/10/2015,8.8,16.5,2.0,0.0,San_Martin_de_Unx
Navarra_Media_Oriental,17/10/2015,12.7,19.6,5.5,3.7,San_Martin_de_Unx
Navarra_Media_Oriental,18/10/2015,14.5,20.6,9.5,0.3,San_Martin_de_Unx
Navarra_Media_Oriental,19/10/2015,13.5,17.3,9.2,4.5,San_Martin_de_Unx
Navarra_Media_Oriental,20/10/2015,11.3,13.4,9.6,0.0,San_Martin_de_Unx
Navarra_Media_Oriental,21/10/2015,10.2,13.6,7.9,0.0,San_Martin_de_Unx
Navarra_Media_Oriental,22/10/2015,11.4,14.0,8.8,0.0,San_Martin_de_Unx
Navarra_Media_Oriental,23/10/2015,13.0,19.4,5.7,0.0,San_Martin_de_Unx
Navarra_Media_Oriental,24/10/2015,15.3,19.8,11.5,0.0,San_Martin_de_Unx
Navarra_Media_Oriental,25/10/2015,15.3,20.7,11.3,0.0,San_Martin_de_Unx
Navarra_Media_Oriental,26/10/2015,16.2,20.1,13.7,0.0,San_Martin_de_Unx
Navarra_Media_Oriental,27/10/2015,13.4,18.8,7.9,5.5,San_Martin_de_Unx
Navarra_Media_Oriental,28/10/2015,11.4,16.7,8.4,0.8,San_Martin_de_Unx
Navarra_Media_Oriental,29/10/2015,14.1,19.8,10.4,0.0,San_Martin_de_Unx
Navarra_Media_Oriental,30/10/2015,15.8,21.3,9.2,0.0,San_Martin_de_Unx
Navarra_Media_Oriental,31/10/2015,14.6,18.9,11.8,0.0,San_Martin_de_Unx
Navarra_Media_Oriental,01/11/2015,13.9,18.0,10.1,0.0,San_Martin_de_Unx
Navarra_Media_Oriental,02/11/2015,13.4,16.6,10.7,30.8,San_Martin_de_Unx
Navarra_Media_Oriental,03/11/2015,8.1,13.8,-1.7,8.9,San_Martin_de_Unx
Navarra_Media_Oriental,04/11/2015,13.4,17.9,9.1,0.1,San_Martin_de_Unx
Navarra_Media_Oriental,05/11/2015,13.3,17.5,8.7,0.0,San_Martin_de_Unx
Navarra_Media_Oriental,06/11/2015,13.8,21.4,8.0,0.0,San_Martin_de_Unx
Navarra_Media_Oriental,07/11/2015,14.2,21.0,9.1,0.0,San_Martin_de_Unx
Navarra_Media_Oriental,08/11/2015,13.9,21.7,8.4,0.3,San_Martin_de_Unx
Navarra_Media_Oriental,09/11/2015,11.3,19.8,6.9,0.1,San_Martin_de_Unx
Navarra_Media_Oriental,10/11/2015,9.6,14.1,7.9,0.1,San_Martin_de_Unx
Navarra_Media_Oriental,11/11/2015,10.0,10.9,8.7,0.4,San_Martin_de_Unx
Navarra_Media_Oriental,12/11/2015,9.2,10.6,7.8,0.1,San_Martin_de_Unx
Navarra_Media_Oriental,13/11/2015,11.4,17.3,6.6,0.0,San_Martin_de_Unx
Navarra_Media_Oriental,14/11/2015,11.4,17.1,7.2,0.0,San_Martin_de_Unx
Navarra_Media_Oriental,15/11/2015,8.3,10.4,6.1,0.4,San_Martin_de_Unx
Navarra_Media_Oriental,16/11/2015,6.7,14.1,1.8,0.1,San_Martin_de_Unx
Navarra_Media_Oriental,17/11/2015,8.8,16.7,2.4,0.2,San_Martin_de_Unx
Navarra_Media_Oriental,18/11/2015,12.7,20.2,6.5,0.1,San_Martin_de_Unx
Navarra_Media_Oriental,19/11/2015,13.9,19.4,9.2,0.0,San_Martin_de_Unx
Navarra_Media_Oriental,20/11/2015,12.0,16.1,6.5,0.0,San_Martin_de_Unx
Navarra_Media_Oriental,21/11/2015,7.9,14.5,3.1,13.4,San_Martin_de_Unx
Navarra_Media_Oriental,22/11/2015,4.1,7.2,2.0,6.8,San_Martin_de_Unx
Navarra_Media_Oriental,23/11/2015,3.2,7.6,-0.2,0.9,San_Martin_de_Unx
Navarra_Media_Oriental,24/11/2015,3.2,7.6,-0.2,0.9,San_Martin_de_Unx
Navarra_Media_Oriental,25/11/2015,10.1,12.9,7.3,3.7,San_Martin_de_Unx
Navarra_Media_Oriental,26/11/2015,10.8,13.0,8.6,0.0,San_Martin_de_Unx
Navarra_Media_Oriental,27/11/2015,9.1,10.9,7.5,0.0,San_Martin_de_Unx
Navarra_Media_Oriental,28/11/2015,8.3,10.9,3.2,0.9,San_Martin_de_Unx
Navarra_Media_Oriental,29/11/2015,7.0,12.7,3.2,0.0,San_Martin_de_Unx
Navarra_Media_Oriental,30/11/2015,5.9,13.6,1.0,0.0,San_Martin_de_Unx
Navarra_Media_Oriental,01/12/2015,4.5,11.8,-0.9,0.0,San_Martin_de_Unx
Navarra_Media_Oriental,02/12/2015,6.0,14.1,0.2,0.0,San_Martin_de_Unx
Navarra_Media_Oriental,03/12/2015,6.0,12.7,1.9,0.0,San_Martin_de_Unx
Navarra_Media_Oriental,04/12/2015,9.2,16.0,3.6,0.0,San_Martin_de_Unx
Navarra_Media_Oriental,05/12/2015,8.5,14.2,4.8,0.0,San_Martin_de_Unx
Navarra_Media_Oriental,06/12/2015,9.0,12.3,5.0,0.0,San_Martin_de_Unx
Navarra_Media_Oriental,07/12/2015,10.3,13.7,8.4,0.0,San_Martin_de_Unx
Navarra_Media_Oriental,08/12/2015,10.1,12.3,7.3,0.0,San_Martin_de_Unx
Navarra_Media_Oriental,09/12/2015,9.8,15.7,5.7,0.0,San_Martin_de_Unx
Navarra_Media_Oriental,10/12/2015,6.0,7.2,4.0,0.0,San_Martin_de_Unx
Navarra_Media_Oriental,11/12/2015,5.6,6.6,4.7,0.1,San_Martin_de_Unx
Navarra_Media_Oriental,12/12/2015,4.6,5.5,3.4,0.0,San_Martin_de_Unx
Navarra_Media_Oriental,13/12/2015,4.5,5.3,3.1,0.0,San_Martin_de_Unx
Navarra_Media_Oriental,14/12/2015,4.2,7.6,2.3,0.1,San_Martin_de_Unx
Navarra_Media_Oriental,15/12/2015,5.9,10.5,3.0,0.0,San_Martin_de_Unx
Navarra_Media_Oriental,16/12/2015,8.8,15.6,4.1,0.1,San_Martin_de_Unx
Navarra_Media_Oriental,17/12/2015,8.2,13.6,4.4,0.0,San_Martin_de_Unx
Navarra_Media_Oriental,18/12/2015,8.4,15.8,3.8,0.0,San_Martin_de_Unx
Navarra_Media_Oriental,19/12/2015,9.9,15.3,5.0,0.0,San_Martin_de_Unx
Navarra_Media_Oriental,20/12/2015,9.7,14.9,6.0,0.0,San_Martin_de_Unx
Navarra_Media_Oriental,21/12/2015,8.5,13.7,4.0,0.0,San_Martin_de_Unx
Navarra_Media_Oriental,22/12/2015,4.7,7.6,1.8,0.1,San_Martin_de_Unx
Navarra_Media_Oriental,23/12/2015,3.7,5.3,1.9,0.3,San_Martin_de_Unx
Navarra_Media_Oriental,24/12/2015,6.2,8.0,4.6,0.1,San_Martin_de_Unx
Navarra_Media_Oriental,25/12/2015,5.9,6.8,3.4,0.1,San_Martin_de_Unx
Navarra_Media_Oriental,26/12/2015,4.0,6.8,2.4,0.1,San_Martin_de_Unx
Navarra_Media_Oriental,27/12/2015,3.2,6.5,1.2,0.1,San_Martin_de_Unx
Navarra_Media_Oriental,28/12/2015,10.5,13.6,4.9,0.0,San_Martin_de_Unx
Navarra_Media_Oriental,29/12/2015,9.0,13.2,5.9,0.4,San_Martin_de_Unx
Navarra_Media_Oriental,30/12/2015,7.7,11.7,3.2,0.0,San_Martin_de_Unx
Navarra_Media_Oriental,31/12/2015,8.1,11.2,3.4,1.3,San_Martin_de_Unx
