Comarca,Fecha, Temperatura media, Temperatura maxima, Temperatura minima, Precipitacion acumulada,Localidad
Navarra_Media_Oriental,01/01/2009,7.4,11.7,3.8,0.0,San_Martin_de_Unx
Navarra_Media_Oriental,02/01/2009,7.9,12.5,3.4,0.0,San_Martin_de_Unx
Navarra_Media_Oriental,03/01/2009,2.9,4.3,-0.2,0.2,San_Martin_de_Unx
Navarra_Media_Oriental,04/01/2009,2.9,7.4,-1.1,0.0,San_Martin_de_Unx
Navarra_Media_Oriental,05/01/2009,1.8,5.8,-3.2,0.2,San_Martin_de_Unx
Navarra_Media_Oriental,06/01/2009,1.2,4.1,-1.5,0.0,San_Martin_de_Unx
Navarra_Media_Oriental,07/01/2009,-1.8,0.0,-3.5,0.2,San_Martin_de_Unx
Navarra_Media_Oriental,08/01/2009,-1.9,0.6,-4.1,0.0,San_Martin_de_Unx
Navarra_Media_Oriental,09/01/2009,0.0,5.7,-4.9,0.0,San_Martin_de_Unx
Navarra_Media_Oriental,10/01/2009,1.3,4.8,-1.6,2.2,San_Martin_de_Unx
Navarra_Media_Oriental,11/01/2009,-1.2,3.1,-4.1,0.0,San_Martin_de_Unx
Navarra_Media_Oriental,12/01/2009,-2.6,-0.2,-4.9,0.2,San_Martin_de_Unx
Navarra_Media_Oriental,13/01/2009,-0.2,3.7,-2.1,0.6,San_Martin_de_Unx
Navarra_Media_Oriental,14/01/2009,3.5,8.5,-2.1,0.0,San_Martin_de_Unx
Navarra_Media_Oriental,15/01/2009,1.0,6.4,-2.9,0.2,San_Martin_de_Unx
Navarra_Media_Oriental,16/01/2009,2.0,7.2,-1.7,0.0,San_Martin_de_Unx
Navarra_Media_Oriental,17/01/2009,3.5,10.4,-1.0,0.0,San_Martin_de_Unx
Navarra_Media_Oriental,18/01/2009,5.3,10.5,-0.2,0.0,San_Martin_de_Unx
Navarra_Media_Oriental,19/01/2009,8.8,13.3,1.6,9.2,San_Martin_de_Unx
Navarra_Media_Oriental,20/01/2009,2.1,6.7,-1.6,0.4,San_Martin_de_Unx
Navarra_Media_Oriental,21/01/2009,1.8,6.6,-1.6,0.0,San_Martin_de_Unx
Navarra_Media_Oriental,22/01/2009,3.7,6.2,0.6,9.0,San_Martin_de_Unx
Navarra_Media_Oriental,23/01/2009,10.2,16.2,4.3,9.2,San_Martin_de_Unx
Navarra_Media_Oriental,24/01/2009,6.2,12.4,1.2,5.0,San_Martin_de_Unx
Navarra_Media_Oriental,25/01/2009,4.1,8.4,0.9,0.2,San_Martin_de_Unx
Navarra_Media_Oriental,26/01/2009,2.6,4.5,0.8,8.6,San_Martin_de_Unx
Navarra_Media_Oriental,27/01/2009,3.9,6.1,1.4,24.4,San_Martin_de_Unx
Navarra_Media_Oriental,28/01/2009,8.2,12.4,3.8,2.2,San_Martin_de_Unx
Navarra_Media_Oriental,29/01/2009,8.6,13.9,5.5,1.6,San_Martin_de_Unx
Navarra_Media_Oriental,30/01/2009,10.1,14.6,5.4,0.0,San_Martin_de_Unx
Navarra_Media_Oriental,31/01/2009,8.1,10.5,6.3,3.4,San_Martin_de_Unx
Navarra_Media_Oriental,01/02/2009,5.2,7.1,3.6,5.4,San_Martin_de_Unx
Navarra_Media_Oriental,02/02/2009,4.5,6.0,3.1,5.4,San_Martin_de_Unx
Navarra_Media_Oriental,03/02/2009,4.7,9.2,-0.8,0.0,San_Martin_de_Unx
Navarra_Media_Oriental,04/02/2009,7.2,10.9,4.7,2.0,San_Martin_de_Unx
Navarra_Media_Oriental,05/02/2009,6.2,8.9,5.0,0.0,San_Martin_de_Unx
Navarra_Media_Oriental,06/02/2009,3.9,5.8,0.8,11.6,San_Martin_de_Unx
Navarra_Media_Oriental,07/02/2009,1.5,4.3,-0.5,4.0,San_Martin_de_Unx
Navarra_Media_Oriental,08/02/2009,4.0,8.4,0.2,3.4,San_Martin_de_Unx
Navarra_Media_Oriental,09/02/2009,9.2,13.9,5.0,0.0,San_Martin_de_Unx
Navarra_Media_Oriental,10/02/2009,7.1,11.4,3.3,1.4,San_Martin_de_Unx
Navarra_Media_Oriental,11/02/2009,6.9,9.5,3.5,1.2,San_Martin_de_Unx
Navarra_Media_Oriental,12/02/2009,6.8,8.7,3.6,3.0,San_Martin_de_Unx
Navarra_Media_Oriental,13/02/2009,5.0,9.8,1.7,0.0,San_Martin_de_Unx
Navarra_Media_Oriental,14/02/2009,5.5,9.8,0.8,0.0,San_Martin_de_Unx
Navarra_Media_Oriental,15/02/2009,3.8,11.3,-1.3,0.0,San_Martin_de_Unx
Navarra_Media_Oriental,16/02/2009,4.1,10.6,-1.5,0.0,San_Martin_de_Unx
Navarra_Media_Oriental,17/02/2009,4.8,12.0,-1.6,0.0,San_Martin_de_Unx
Navarra_Media_Oriental,18/02/2009,6.5,11.2,4.0,0.0,San_Martin_de_Unx
Navarra_Media_Oriental,19/02/2009,6.7,13.7,-0.3,0.0,San_Martin_de_Unx
Navarra_Media_Oriental,20/02/2009,4.2,11.3,-0.8,0.0,San_Martin_de_Unx
Navarra_Media_Oriental,21/02/2009,6.3,11.9,0.6,1.4,San_Martin_de_Unx
Navarra_Media_Oriental,22/02/2009,7.2,12.0,4.9,0.0,San_Martin_de_Unx
Navarra_Media_Oriental,23/02/2009,6.8,9.9,4.7,0.0,San_Martin_de_Unx
Navarra_Media_Oriental,24/02/2009,7.3,11.5,1.0,0.0,San_Martin_de_Unx
Navarra_Media_Oriental,25/02/2009,6.5,12.9,-0.4,0.0,San_Martin_de_Unx
Navarra_Media_Oriental,26/02/2009,6.6,13.0,1.3,0.0,San_Martin_de_Unx
Navarra_Media_Oriental,27/02/2009,6.6,15.4,-2.4,0.0,San_Martin_de_Unx
Navarra_Media_Oriental,28/02/2009,8.0,13.0,3.5,0.0,San_Martin_de_Unx
Navarra_Media_Oriental,01/03/2009,9.2,13.5,5.6,0.2,San_Martin_de_Unx
Navarra_Media_Oriental,02/03/2009,7.9,11.7,4.6,1.0,San_Martin_de_Unx
Navarra_Media_Oriental,03/03/2009,7.0,12.1,2.2,0.0,San_Martin_de_Unx
Navarra_Media_Oriental,04/03/2009,4.3,7.2,1.1,8.8,San_Martin_de_Unx
Navarra_Media_Oriental,05/03/2009,1.8,4.1,-0.2,19.0,San_Martin_de_Unx
Navarra_Media_Oriental,06/03/2009,4.3,7.1,1.0,7.0,San_Martin_de_Unx
Navarra_Media_Oriental,07/03/2009,8.4,11.5,3.7,0.2,San_Martin_de_Unx
Navarra_Media_Oriental,08/03/2009,9.6,12.8,6.1,0.0,San_Martin_de_Unx
Navarra_Media_Oriental,09/03/2009,7.7,11.4,2.1,0.0,San_Martin_de_Unx
Navarra_Media_Oriental,10/03/2009,8.2,16.7,-0.4,0.0,San_Martin_de_Unx
Navarra_Media_Oriental,11/03/2009,9.1,14.1,4.3,0.0,San_Martin_de_Unx
Navarra_Media_Oriental,12/03/2009,10.0,18.1,3.6,0.0,San_Martin_de_Unx
Navarra_Media_Oriental,13/03/2009,13.4,21.0,5.9,0.0,San_Martin_de_Unx
Navarra_Media_Oriental,14/03/2009,13.1,19.7,6.7,0.0,San_Martin_de_Unx
Navarra_Media_Oriental,15/03/2009,11.5,18.3,4.3,0.0,San_Martin_de_Unx
Navarra_Media_Oriental,16/03/2009,12.5,22.2,2.5,0.0,San_Martin_de_Unx
Navarra_Media_Oriental,17/03/2009,12.0,18.5,3.8,0.0,San_Martin_de_Unx
Navarra_Media_Oriental,18/03/2009,11.8,19.6,4.3,0.0,San_Martin_de_Unx
Navarra_Media_Oriental,19/03/2009,13.4,20.7,4.7,0.0,San_Martin_de_Unx
Navarra_Media_Oriental,20/03/2009,14.1,23.0,4.9,0.0,San_Martin_de_Unx
Navarra_Media_Oriental,21/03/2009,9.4,17.1,2.8,0.0,San_Martin_de_Unx
Navarra_Media_Oriental,22/03/2009,9.2,15.7,1.6,0.0,San_Martin_de_Unx
Navarra_Media_Oriental,23/03/2009,9.9,18.0,0.4,0.0,San_Martin_de_Unx
Navarra_Media_Oriental,24/03/2009,7.2,11.9,3.6,0.0,San_Martin_de_Unx
Navarra_Media_Oriental,25/03/2009,8.1,15.1,0.4,0.2,San_Martin_de_Unx
Navarra_Media_Oriental,26/03/2009,12.1,20.9,3.0,0.0,San_Martin_de_Unx
Navarra_Media_Oriental,27/03/2009,12.7,21.3,3.7,0.0,San_Martin_de_Unx
Navarra_Media_Oriental,28/03/2009,7.4,11.5,4.8,0.0,San_Martin_de_Unx
Navarra_Media_Oriental,29/03/2009,7.0,11.0,4.6,0.0,San_Martin_de_Unx
Navarra_Media_Oriental,30/03/2009,7.5,12.4,4.0,0.0,San_Martin_de_Unx
Navarra_Media_Oriental,31/03/2009,8.2,13.6,3.3,0.0,San_Martin_de_Unx
Navarra_Media_Oriental,01/04/2009,7.9,11.1,5.7,0.0,San_Martin_de_Unx
Navarra_Media_Oriental,02/04/2009,8.4,13.4,4.9,0.0,San_Martin_de_Unx
Navarra_Media_Oriental,03/04/2009,9.1,16.0,2.0,0.0,San_Martin_de_Unx
Navarra_Media_Oriental,04/04/2009,11.0,18.4,2.7,0.0,San_Martin_de_Unx
Navarra_Media_Oriental,05/04/2009,14.3,20.6,6.7,0.0,San_Martin_de_Unx
Navarra_Media_Oriental,06/04/2009,13.0,20.9,6.9,39.4,San_Martin_de_Unx
Navarra_Media_Oriental,07/04/2009,7.8,10.3,6.2,0.2,San_Martin_de_Unx
Navarra_Media_Oriental,08/04/2009,9.3,14.2,4.5,0.0,San_Martin_de_Unx
Navarra_Media_Oriental,09/04/2009,12.4,18.3,5.0,0.0,San_Martin_de_Unx
Navarra_Media_Oriental,10/04/2009,8.3,12.3,2.9,13.4,San_Martin_de_Unx
Navarra_Media_Oriental,11/04/2009,5.5,7.4,3.7,4.8,San_Martin_de_Unx
Navarra_Media_Oriental,12/04/2009,7.2,11.3,3.4,0.0,San_Martin_de_Unx
Navarra_Media_Oriental,13/04/2009,10.4,17.9,5.4,0.0,San_Martin_de_Unx
Navarra_Media_Oriental,14/04/2009,10.8,17.1,5.7,9.2,San_Martin_de_Unx
Navarra_Media_Oriental,15/04/2009,10.0,13.9,6.1,3.8,San_Martin_de_Unx
Navarra_Media_Oriental,16/04/2009,8.8,14.0,4.7,2.4,San_Martin_de_Unx
Navarra_Media_Oriental,17/04/2009,10.3,15.9,3.9,0.2,San_Martin_de_Unx
Navarra_Media_Oriental,18/04/2009,10.1,17.3,2.8,0.0,San_Martin_de_Unx
Navarra_Media_Oriental,19/04/2009,10.5,15.3,5.1,0.0,San_Martin_de_Unx
Navarra_Media_Oriental,20/04/2009,9.5,12.8,7.0,0.8,San_Martin_de_Unx
Navarra_Media_Oriental,21/04/2009,0.0,0.0,0.0,0.0,San_Martin_de_Unx
Navarra_Media_Oriental,22/04/2009,12.7,18.4,5.8,0.0,San_Martin_de_Unx
Navarra_Media_Oriental,23/04/2009,15.5,25.8,3.6,0.0,San_Martin_de_Unx
Navarra_Media_Oriental,24/04/2009,16.4,26.0,8.6,0.2,San_Martin_de_Unx
Navarra_Media_Oriental,25/04/2009,9.2,11.7,5.9,1.8,San_Martin_de_Unx
Navarra_Media_Oriental,26/04/2009,6.9,9.0,5.2,1.0,San_Martin_de_Unx
Navarra_Media_Oriental,27/04/2009,10.2,16.7,4.5,2.8,San_Martin_de_Unx
Navarra_Media_Oriental,28/04/2009,10.9,16.2,6.7,1.4,San_Martin_de_Unx
Navarra_Media_Oriental,29/04/2009,11.5,16.9,5.9,0.0,San_Martin_de_Unx
Navarra_Media_Oriental,30/04/2009,11.6,17.3,6.7,2.6,San_Martin_de_Unx
Navarra_Media_Oriental,01/05/2009,9.9,13.8,6.9,1.6,San_Martin_de_Unx
Navarra_Media_Oriental,02/05/2009,13.6,19.9,8.2,0.0,San_Martin_de_Unx
Navarra_Media_Oriental,03/05/2009,14.1,20.6,5.4,0.0,San_Martin_de_Unx
Navarra_Media_Oriental,04/05/2009,12.3,16.8,7.7,0.2,San_Martin_de_Unx
Navarra_Media_Oriental,05/05/2009,14.1,21.9,8.3,0.2,San_Martin_de_Unx
Navarra_Media_Oriental,06/05/2009,18.1,28.3,7.2,0.0,San_Martin_de_Unx
Navarra_Media_Oriental,07/05/2009,20.6,28.4,13.6,0.4,San_Martin_de_Unx
Navarra_Media_Oriental,08/05/2009,18.6,25.8,12.5,0.2,San_Martin_de_Unx
Navarra_Media_Oriental,09/05/2009,18.2,25.4,11.7,0.0,San_Martin_de_Unx
Navarra_Media_Oriental,10/05/2009,17.3,22.8,13.1,5.4,San_Martin_de_Unx
Navarra_Media_Oriental,11/05/2009,18.5,25.2,11.5,2.8,San_Martin_de_Unx
Navarra_Media_Oriental,12/05/2009,18.5,25.2,11.6,0.4,San_Martin_de_Unx
Navarra_Media_Oriental,13/05/2009,17.7,24.8,12.5,16.2,San_Martin_de_Unx
Navarra_Media_Oriental,14/05/2009,12.3,14.7,8.3,0.4,San_Martin_de_Unx
Navarra_Media_Oriental,15/05/2009,10.8,15.7,7.4,0.2,San_Martin_de_Unx
Navarra_Media_Oriental,16/05/2009,16.7,24.6,5.5,0.0,San_Martin_de_Unx
Navarra_Media_Oriental,17/05/2009,16.8,23.9,9.9,0.6,San_Martin_de_Unx
Navarra_Media_Oriental,18/05/2009,16.4,23.5,9.0,0.0,San_Martin_de_Unx
Navarra_Media_Oriental,19/05/2009,17.9,26.6,9.2,0.0,San_Martin_de_Unx
Navarra_Media_Oriental,20/05/2009,20.5,29.0,11.9,3.2,San_Martin_de_Unx
Navarra_Media_Oriental,21/05/2009,20.2,27.1,13.6,0.0,San_Martin_de_Unx
Navarra_Media_Oriental,22/05/2009,20.7,29.5,11.9,0.0,San_Martin_de_Unx
Navarra_Media_Oriental,23/05/2009,20.4,26.9,16.0,1.8,San_Martin_de_Unx
Navarra_Media_Oriental,24/05/2009,18.1,24.8,13.0,13.2,San_Martin_de_Unx
Navarra_Media_Oriental,25/05/2009,16.2,22.3,12.0,2.2,San_Martin_de_Unx
Navarra_Media_Oriental,26/05/2009,13.2,17.2,9.8,0.0,San_Martin_de_Unx
Navarra_Media_Oriental,27/05/2009,13.3,19.2,8.0,0.0,San_Martin_de_Unx
Navarra_Media_Oriental,28/05/2009,17.5,26.2,6.5,0.0,San_Martin_de_Unx
Navarra_Media_Oriental,29/05/2009,21.2,29.9,11.4,0.0,San_Martin_de_Unx
Navarra_Media_Oriental,30/05/2009,21.7,29.5,14.5,0.0,San_Martin_de_Unx
Navarra_Media_Oriental,31/05/2009,19.5,25.9,12.3,0.0,San_Martin_de_Unx
Navarra_Media_Oriental,01/06/2009,18.7,25.7,10.0,0.0,San_Martin_de_Unx
Navarra_Media_Oriental,02/06/2009,20.0,27.9,10.3,0.0,San_Martin_de_Unx
Navarra_Media_Oriental,03/06/2009,20.8,29.2,11.3,0.0,San_Martin_de_Unx
Navarra_Media_Oriental,04/06/2009,21.0,28.8,12.5,0.2,San_Martin_de_Unx
Navarra_Media_Oriental,05/06/2009,16.8,23.0,11.1,4.4,San_Martin_de_Unx
Navarra_Media_Oriental,06/06/2009,14.4,22.3,10.2,2.6,San_Martin_de_Unx
Navarra_Media_Oriental,07/06/2009,17.0,22.9,10.4,0.0,San_Martin_de_Unx
Navarra_Media_Oriental,08/06/2009,16.3,21.0,10.3,1.0,San_Martin_de_Unx
Navarra_Media_Oriental,09/06/2009,16.5,22.5,8.8,0.0,San_Martin_de_Unx
Navarra_Media_Oriental,10/06/2009,21.5,29.1,14.2,0.0,San_Martin_de_Unx
Navarra_Media_Oriental,11/06/2009,21.6,27.9,13.8,0.0,San_Martin_de_Unx
Navarra_Media_Oriental,12/06/2009,24.0,33.5,12.1,0.0,San_Martin_de_Unx
Navarra_Media_Oriental,13/06/2009,26.9,36.1,16.9,0.0,San_Martin_de_Unx
Navarra_Media_Oriental,14/06/2009,25.4,31.7,18.8,1.8,San_Martin_de_Unx
Navarra_Media_Oriental,15/06/2009,21.8,29.3,16.2,0.0,San_Martin_de_Unx
Navarra_Media_Oriental,16/06/2009,18.8,22.9,12.0,1.2,San_Martin_de_Unx
Navarra_Media_Oriental,17/06/2009,24.0,31.6,17.6,7.0,San_Martin_de_Unx
Navarra_Media_Oriental,18/06/2009,24.7,33.3,17.0,9.8,San_Martin_de_Unx
Navarra_Media_Oriental,19/06/2009,19.8,24.5,14.8,0.0,San_Martin_de_Unx
Navarra_Media_Oriental,20/06/2009,16.4,21.5,11.9,0.0,San_Martin_de_Unx
Navarra_Media_Oriental,21/06/2009,16.0,21.7,10.9,0.0,San_Martin_de_Unx
Navarra_Media_Oriental,22/06/2009,19.5,27.1,9.9,0.0,San_Martin_de_Unx
Navarra_Media_Oriental,23/06/2009,21.1,29.8,11.4,0.0,San_Martin_de_Unx
Navarra_Media_Oriental,24/06/2009,21.6,30.6,13.5,0.0,San_Martin_de_Unx
Navarra_Media_Oriental,25/06/2009,21.4,29.7,14.1,0.2,San_Martin_de_Unx
Navarra_Media_Oriental,26/06/2009,20.5,26.8,14.7,0.0,San_Martin_de_Unx
Navarra_Media_Oriental,27/06/2009,21.6,30.1,10.7,0.0,San_Martin_de_Unx
Navarra_Media_Oriental,28/06/2009,24.8,33.8,15.8,0.0,San_Martin_de_Unx
Navarra_Media_Oriental,29/06/2009,25.9,34.2,15.2,0.0,San_Martin_de_Unx
Navarra_Media_Oriental,30/06/2009,27.5,35.6,19.2,0.0,San_Martin_de_Unx
Navarra_Media_Oriental,01/07/2009,27.6,35.7,20.6,0.4,San_Martin_de_Unx
Navarra_Media_Oriental,02/07/2009,24.0,30.5,18.7,0.0,San_Martin_de_Unx
Navarra_Media_Oriental,03/07/2009,25.0,34.0,16.2,0.0,San_Martin_de_Unx
Navarra_Media_Oriental,04/07/2009,23.4,30.3,18.3,0.0,San_Martin_de_Unx
Navarra_Media_Oriental,05/07/2009,23.0,30.4,15.7,0.0,San_Martin_de_Unx
Navarra_Media_Oriental,06/07/2009,20.1,25.9,14.6,0.0,San_Martin_de_Unx
Navarra_Media_Oriental,07/07/2009,17.7,23.5,13.2,0.0,San_Martin_de_Unx
Navarra_Media_Oriental,08/07/2009,18.0,25.0,10.9,0.0,San_Martin_de_Unx
Navarra_Media_Oriental,09/07/2009,18.5,24.8,12.3,0.0,San_Martin_de_Unx
Navarra_Media_Oriental,10/07/2009,19.5,27.8,11.3,0.0,San_Martin_de_Unx
Navarra_Media_Oriental,11/07/2009,22.7,33.2,10.3,0.0,San_Martin_de_Unx
Navarra_Media_Oriental,12/07/2009,26.8,35.6,17.9,0.0,San_Martin_de_Unx
Navarra_Media_Oriental,13/07/2009,25.9,36.6,17.9,0.0,San_Martin_de_Unx
Navarra_Media_Oriental,14/07/2009,22.5,30.7,15.8,0.0,San_Martin_de_Unx
Navarra_Media_Oriental,15/07/2009,23.9,32.9,14.0,0.0,San_Martin_de_Unx
Navarra_Media_Oriental,16/07/2009,24.8,36.3,16.6,0.6,San_Martin_de_Unx
Navarra_Media_Oriental,17/07/2009,17.4,22.5,13.8,0.0,San_Martin_de_Unx
Navarra_Media_Oriental,18/07/2009,18.3,25.8,10.1,0.0,San_Martin_de_Unx
Navarra_Media_Oriental,19/07/2009,22.6,31.6,12.5,0.0,San_Martin_de_Unx
Navarra_Media_Oriental,20/07/2009,22.6,33.5,16.5,2.2,San_Martin_de_Unx
Navarra_Media_Oriental,21/07/2009,26.1,35.0,14.9,0.0,San_Martin_de_Unx
Navarra_Media_Oriental,22/07/2009,27.7,36.9,17.7,0.0,San_Martin_de_Unx
Navarra_Media_Oriental,23/07/2009,24.7,31.0,17.3,0.0,San_Martin_de_Unx
Navarra_Media_Oriental,24/07/2009,21.4,29.5,13.4,0.0,San_Martin_de_Unx
Navarra_Media_Oriental,25/07/2009,22.7,31.4,14.2,0.0,San_Martin_de_Unx
Navarra_Media_Oriental,26/07/2009,26.7,35.9,16.0,0.0,San_Martin_de_Unx
Navarra_Media_Oriental,27/07/2009,21.2,26.2,15.8,0.0,San_Martin_de_Unx
Navarra_Media_Oriental,28/07/2009,23.9,32.9,13.3,0.0,San_Martin_de_Unx
Navarra_Media_Oriental,29/07/2009,24.4,34.9,17.9,0.0,San_Martin_de_Unx
Navarra_Media_Oriental,30/07/2009,21.0,28.0,13.8,0.0,San_Martin_de_Unx
Navarra_Media_Oriental,31/07/2009,23.9,34.4,12.6,0.0,San_Martin_de_Unx
Navarra_Media_Oriental,01/08/2009,20.3,30.6,15.0,0.6,San_Martin_de_Unx
Navarra_Media_Oriental,02/08/2009,19.9,25.9,15.2,0.0,San_Martin_de_Unx
Navarra_Media_Oriental,03/08/2009,22.1,29.5,14.8,0.0,San_Martin_de_Unx
Navarra_Media_Oriental,04/08/2009,24.8,33.7,13.6,0.0,San_Martin_de_Unx
Navarra_Media_Oriental,05/08/2009,26.2,36.4,16.1,10.6,San_Martin_de_Unx
Navarra_Media_Oriental,06/08/2009,22.1,32.8,16.6,2.6,San_Martin_de_Unx
Navarra_Media_Oriental,07/08/2009,19.3,24.3,16.0,0.0,San_Martin_de_Unx
Navarra_Media_Oriental,08/08/2009,19.0,26.0,13.5,11.2,San_Martin_de_Unx
Navarra_Media_Oriental,09/08/2009,18.0,22.5,14.8,0.6,San_Martin_de_Unx
Navarra_Media_Oriental,10/08/2009,20.8,29.0,13.1,0.0,San_Martin_de_Unx
Navarra_Media_Oriental,11/08/2009,22.6,32.0,14.0,0.0,San_Martin_de_Unx
Navarra_Media_Oriental,12/08/2009,23.0,32.5,14.8,0.0,San_Martin_de_Unx
Navarra_Media_Oriental,13/08/2009,23.6,32.6,14.4,0.0,San_Martin_de_Unx
Navarra_Media_Oriental,14/08/2009,25.9,34.5,16.1,0.0,San_Martin_de_Unx
Navarra_Media_Oriental,15/08/2009,29.2,36.4,20.6,0.0,San_Martin_de_Unx
Navarra_Media_Oriental,16/08/2009,28.5,36.3,21.6,0.0,San_Martin_de_Unx
Navarra_Media_Oriental,17/08/2009,28.9,37.0,20.5,0.0,San_Martin_de_Unx
Navarra_Media_Oriental,18/08/2009,28.5,37.2,19.1,0.0,San_Martin_de_Unx
Navarra_Media_Oriental,19/08/2009,29.2,36.0,19.7,0.0,San_Martin_de_Unx
Navarra_Media_Oriental,20/08/2009,25.9,35.9,18.8,0.0,San_Martin_de_Unx
Navarra_Media_Oriental,21/08/2009,22.7,29.3,16.0,0.0,San_Martin_de_Unx
Navarra_Media_Oriental,22/08/2009,23.4,33.1,13.8,0.0,San_Martin_de_Unx
Navarra_Media_Oriental,23/08/2009,26.8,35.5,16.6,0.0,San_Martin_de_Unx
Navarra_Media_Oriental,24/08/2009,24.6,31.7,18.1,0.0,San_Martin_de_Unx
Navarra_Media_Oriental,25/08/2009,19.7,25.6,14.8,0.0,San_Martin_de_Unx
Navarra_Media_Oriental,26/08/2009,22.8,32.3,14.2,0.0,San_Martin_de_Unx
Navarra_Media_Oriental,27/08/2009,25.3,34.5,16.0,0.0,San_Martin_de_Unx
Navarra_Media_Oriental,28/08/2009,21.5,26.1,15.9,0.2,San_Martin_de_Unx
Navarra_Media_Oriental,29/08/2009,17.9,23.7,13.1,0.0,San_Martin_de_Unx
Navarra_Media_Oriental,30/08/2009,20.6,29.9,11.7,0.0,San_Martin_de_Unx
Navarra_Media_Oriental,31/08/2009,24.4,32.0,15.1,0.0,San_Martin_de_Unx
Navarra_Media_Oriental,01/09/2009,23.0,30.6,17.4,0.0,San_Martin_de_Unx
Navarra_Media_Oriental,02/09/2009,22.1,30.0,17.7,0.0,San_Martin_de_Unx
Navarra_Media_Oriental,03/09/2009,22.0,27.2,16.0,0.0,San_Martin_de_Unx
Navarra_Media_Oriental,04/09/2009,17.8,22.6,13.6,0.0,San_Martin_de_Unx
Navarra_Media_Oriental,05/09/2009,17.2,24.4,12.0,0.0,San_Martin_de_Unx
Navarra_Media_Oriental,06/09/2009,20.4,30.2,8.2,0.0,San_Martin_de_Unx
Navarra_Media_Oriental,07/09/2009,24.1,29.9,18.1,0.0,San_Martin_de_Unx
Navarra_Media_Oriental,08/09/2009,23.2,30.9,15.5,0.0,San_Martin_de_Unx
Navarra_Media_Oriental,09/09/2009,22.5,30.8,14.9,0.0,San_Martin_de_Unx
Navarra_Media_Oriental,10/09/2009,22.5,32.0,14.4,0.0,San_Martin_de_Unx
Navarra_Media_Oriental,11/09/2009,21.9,30.0,15.4,0.0,San_Martin_de_Unx
Navarra_Media_Oriental,12/09/2009,20.8,28.8,15.8,0.0,San_Martin_de_Unx
Navarra_Media_Oriental,13/09/2009,18.7,26.0,13.3,0.0,San_Martin_de_Unx
Navarra_Media_Oriental,14/09/2009,16.2,20.3,13.6,0.0,San_Martin_de_Unx
Navarra_Media_Oriental,15/09/2009,15.4,21.0,10.8,0.0,San_Martin_de_Unx
Navarra_Media_Oriental,16/09/2009,13.5,18.9,8.2,0.0,San_Martin_de_Unx
Navarra_Media_Oriental,17/09/2009,14.4,23.4,7.4,2.8,San_Martin_de_Unx
Navarra_Media_Oriental,18/09/2009,12.3,14.4,10.9,37.2,San_Martin_de_Unx
Navarra_Media_Oriental,19/09/2009,14.4,18.9,10.3,0.4,San_Martin_de_Unx
Navarra_Media_Oriental,20/09/2009,15.5,20.0,12.3,0.0,San_Martin_de_Unx
Navarra_Media_Oriental,21/09/2009,17.1,21.9,12.9,0.0,San_Martin_de_Unx
Navarra_Media_Oriental,22/09/2009,18.6,24.6,13.1,0.0,San_Martin_de_Unx
Navarra_Media_Oriental,23/09/2009,18.9,27.0,11.9,0.0,San_Martin_de_Unx
Navarra_Media_Oriental,24/09/2009,18.5,25.8,11.9,0.0,San_Martin_de_Unx
Navarra_Media_Oriental,25/09/2009,17.5,23.8,11.3,0.0,San_Martin_de_Unx
Navarra_Media_Oriental,26/09/2009,17.3,25.6,9.7,0.0,San_Martin_de_Unx
Navarra_Media_Oriental,27/09/2009,19.3,25.7,13.6,0.0,San_Martin_de_Unx
Navarra_Media_Oriental,28/09/2009,18.8,24.9,13.8,0.0,San_Martin_de_Unx
Navarra_Media_Oriental,29/09/2009,18.6,26.0,12.2,0.0,San_Martin_de_Unx
Navarra_Media_Oriental,30/09/2009,19.4,25.2,14.0,0.0,San_Martin_de_Unx
Navarra_Media_Oriental,01/10/2009,18.5,24.0,14.1,0.0,San_Martin_de_Unx
Navarra_Media_Oriental,02/10/2009,15.8,20.2,11.2,0.0,San_Martin_de_Unx
Navarra_Media_Oriental,03/10/2009,15.9,23.6,9.0,0.0,San_Martin_de_Unx
Navarra_Media_Oriental,04/10/2009,19.1,27.5,10.5,0.0,San_Martin_de_Unx
Navarra_Media_Oriental,05/10/2009,23.6,29.8,15.7,0.0,San_Martin_de_Unx
Navarra_Media_Oriental,06/10/2009,23.4,28.9,17.8,0.0,San_Martin_de_Unx
Navarra_Media_Oriental,07/10/2009,21.4,26.9,17.3,1.6,San_Martin_de_Unx
Navarra_Media_Oriental,08/10/2009,18.6,23.8,14.1,1.6,San_Martin_de_Unx
Navarra_Media_Oriental,09/10/2009,17.5,23.7,11.2,0.0,San_Martin_de_Unx
Navarra_Media_Oriental,10/10/2009,17.3,22.3,14.2,0.0,San_Martin_de_Unx
Navarra_Media_Oriental,11/10/2009,17.3,21.7,14.5,0.2,San_Martin_de_Unx
Navarra_Media_Oriental,12/10/2009,16.1,21.3,12.2,0.0,San_Martin_de_Unx
Navarra_Media_Oriental,13/10/2009,14.3,22.8,7.2,0.0,San_Martin_de_Unx
Navarra_Media_Oriental,14/10/2009,13.9,22.3,7.7,0.2,San_Martin_de_Unx
Navarra_Media_Oriental,15/10/2009,10.4,16.1,5.9,0.0,San_Martin_de_Unx
Navarra_Media_Oriental,16/10/2009,8.7,15.7,3.5,0.0,San_Martin_de_Unx
Navarra_Media_Oriental,17/10/2009,10.7,16.9,6.7,0.4,San_Martin_de_Unx
Navarra_Media_Oriental,18/10/2009,9.7,16.5,3.2,0.0,San_Martin_de_Unx
Navarra_Media_Oriental,19/10/2009,9.9,16.8,1.6,0.0,San_Martin_de_Unx
Navarra_Media_Oriental,20/10/2009,14.0,17.5,9.8,16.0,San_Martin_de_Unx
Navarra_Media_Oriental,21/10/2009,11.8,16.3,8.2,0.2,San_Martin_de_Unx
Navarra_Media_Oriental,22/10/2009,11.2,15.0,8.9,21.0,San_Martin_de_Unx
Navarra_Media_Oriental,23/10/2009,12.2,16.0,7.0,3.6,San_Martin_de_Unx
Navarra_Media_Oriental,24/10/2009,16.8,22.2,10.5,0.0,San_Martin_de_Unx
Navarra_Media_Oriental,25/10/2009,17.1,20.3,12.4,0.0,San_Martin_de_Unx
Navarra_Media_Oriental,26/10/2009,15.2,21.5,9.7,0.0,San_Martin_de_Unx
Navarra_Media_Oriental,27/10/2009,15.2,22.7,8.6,0.0,San_Martin_de_Unx
Navarra_Media_Oriental,28/10/2009,13.3,17.7,11.2,0.2,San_Martin_de_Unx
Navarra_Media_Oriental,29/10/2009,15.4,21.8,11.5,0.0,San_Martin_de_Unx
Navarra_Media_Oriental,30/10/2009,16.1,22.9,10.2,0.0,San_Martin_de_Unx
Navarra_Media_Oriental,31/10/2009,17.5,23.0,12.8,0.0,San_Martin_de_Unx
Navarra_Media_Oriental,01/11/2009,15.5,21.0,11.5,12.6,San_Martin_de_Unx
Navarra_Media_Oriental,02/11/2009,11.1,13.6,9.0,0.0,San_Martin_de_Unx
Navarra_Media_Oriental,03/11/2009,12.2,17.1,8.8,0.0,San_Martin_de_Unx
Navarra_Media_Oriental,04/11/2009,10.5,14.8,6.1,5.6,San_Martin_de_Unx
Navarra_Media_Oriental,05/11/2009,7.2,9.7,4.9,1.4,San_Martin_de_Unx
Navarra_Media_Oriental,06/11/2009,8.1,11.8,5.2,6.4,San_Martin_de_Unx
Navarra_Media_Oriental,07/11/2009,7.7,12.0,4.8,3.8,San_Martin_de_Unx
Navarra_Media_Oriental,08/11/2009,6.3,7.3,5.5,32.6,San_Martin_de_Unx
Navarra_Media_Oriental,09/11/2009,6.4,9.6,4.1,27.4,San_Martin_de_Unx
Navarra_Media_Oriental,10/11/2009,8.9,12.0,5.3,0.2,San_Martin_de_Unx
Navarra_Media_Oriental,11/11/2009,11.7,17.3,8.7,0.2,San_Martin_de_Unx
Navarra_Media_Oriental,12/11/2009,11.5,17.1,6.2,0.0,San_Martin_de_Unx
Navarra_Media_Oriental,13/11/2009,14.0,15.9,11.4,0.2,San_Martin_de_Unx
Navarra_Media_Oriental,14/11/2009,14.5,18.0,11.9,0.0,San_Martin_de_Unx
Navarra_Media_Oriental,15/11/2009,15.1,17.8,11.5,0.0,San_Martin_de_Unx
Navarra_Media_Oriental,16/11/2009,16.8,19.4,13.8,0.0,San_Martin_de_Unx
Navarra_Media_Oriental,17/11/2009,15.3,19.2,9.5,0.0,San_Martin_de_Unx
Navarra_Media_Oriental,18/11/2009,10.7,16.3,6.1,0.0,San_Martin_de_Unx
Navarra_Media_Oriental,19/11/2009,11.8,17.8,7.5,0.0,San_Martin_de_Unx
Navarra_Media_Oriental,20/11/2009,10.8,17.5,6.9,0.0,San_Martin_de_Unx
Navarra_Media_Oriental,21/11/2009,12.9,15.6,8.9,0.6,San_Martin_de_Unx
Navarra_Media_Oriental,22/11/2009,10.8,15.0,6.2,0.2,San_Martin_de_Unx
Navarra_Media_Oriental,23/11/2009,9.0,15.1,4.7,0.0,San_Martin_de_Unx
Navarra_Media_Oriental,24/11/2009,7.7,13.7,2.8,0.2,San_Martin_de_Unx
Navarra_Media_Oriental,25/11/2009,8.0,10.6,3.1,0.0,San_Martin_de_Unx
Navarra_Media_Oriental,26/11/2009,9.7,14.6,5.4,2.0,San_Martin_de_Unx
Navarra_Media_Oriental,27/11/2009,7.5,12.3,2.9,0.2,San_Martin_de_Unx
Navarra_Media_Oriental,28/11/2009,7.0,10.1,1.7,0.0,San_Martin_de_Unx
Navarra_Media_Oriental,29/11/2009,6.1,9.2,1.8,8.4,San_Martin_de_Unx
Navarra_Media_Oriental,30/11/2009,3.0,6.0,0.1,18.4,San_Martin_de_Unx
Navarra_Media_Oriental,01/12/2009,5.6,9.5,1.0,3.8,San_Martin_de_Unx
Navarra_Media_Oriental,02/12/2009,8.3,13.5,2.9,0.4,San_Martin_de_Unx
Navarra_Media_Oriental,03/12/2009,8.0,10.7,5.6,8.6,San_Martin_de_Unx
Navarra_Media_Oriental,04/12/2009,8.4,11.6,5.2,0.0,San_Martin_de_Unx
Navarra_Media_Oriental,05/12/2009,8.6,13.0,3.5,0.0,San_Martin_de_Unx
Navarra_Media_Oriental,06/12/2009,10.3,11.7,8.4,0.0,San_Martin_de_Unx
Navarra_Media_Oriental,07/12/2009,10.8,14.0,6.5,1.2,San_Martin_de_Unx
Navarra_Media_Oriental,08/12/2009,7.9,13.4,3.8,0.0,San_Martin_de_Unx
Navarra_Media_Oriental,09/12/2009,7.8,14.8,3.6,0.2,San_Martin_de_Unx
Navarra_Media_Oriental,10/12/2009,7.3,13.0,3.2,0.0,San_Martin_de_Unx
Navarra_Media_Oriental,11/12/2009,3.8,6.6,-0.2,0.4,San_Martin_de_Unx
Navarra_Media_Oriental,12/12/2009,3.8,10.3,-2.3,0.2,San_Martin_de_Unx
Navarra_Media_Oriental,13/12/2009,1.7,3.7,0.4,0.0,San_Martin_de_Unx
Navarra_Media_Oriental,14/12/2009,0.7,3.3,-1.2,0.0,San_Martin_de_Unx
Navarra_Media_Oriental,15/12/2009,1.0,3.3,-1.3,0.0,San_Martin_de_Unx
Navarra_Media_Oriental,16/12/2009,0.2,2.3,-1.3,0.0,San_Martin_de_Unx
Navarra_Media_Oriental,17/12/2009,-0.6,2.1,-4.6,1.8,San_Martin_de_Unx
Navarra_Media_Oriental,18/12/2009,-1.0,3.9,-4.9,0.2,San_Martin_de_Unx
Navarra_Media_Oriental,19/12/2009,-2.3,0.3,-5.6,0.0,San_Martin_de_Unx
Navarra_Media_Oriental,20/12/2009,-0.1,5.1,-5.4,0.0,San_Martin_de_Unx
Navarra_Media_Oriental,21/12/2009,3.2,7.5,-0.4,2.4,San_Martin_de_Unx
Navarra_Media_Oriental,22/12/2009,8.2,10.8,3.9,1.4,San_Martin_de_Unx
Navarra_Media_Oriental,23/12/2009,4.7,9.3,1.1,4.8,San_Martin_de_Unx
Navarra_Media_Oriental,24/12/2009,10.0,13.8,3.2,1.4,San_Martin_de_Unx
Navarra_Media_Oriental,25/12/2009,5.5,9.7,1.8,0.6,San_Martin_de_Unx
Navarra_Media_Oriental,26/12/2009,5.5,6.7,3.5,13.0,San_Martin_de_Unx
Navarra_Media_Oriental,27/12/2009,5.4,9.0,0.8,0.2,San_Martin_de_Unx
Navarra_Media_Oriental,28/12/2009,8.6,12.3,5.8,2.0,San_Martin_de_Unx
Navarra_Media_Oriental,29/12/2009,12.0,14.7,9.2,0.0,San_Martin_de_Unx
Navarra_Media_Oriental,30/12/2009,10.4,14.8,6.8,5.6,San_Martin_de_Unx
Navarra_Media_Oriental,31/12/2009,8.1,9.5,4.6,2.0,San_Martin_de_Unx
