Comarca,Fecha, Temperatura media, Temperatura maxima, Temperatura minima, Precipitacion acumulada,Localidad
Navarra_Media_Oriental,01/01/2017,0.4,1.0,-0.6,0.2,San_Martin_de_Unx
Navarra_Media_Oriental,02/01/2017,0.0,1.7,-1.3,0.0,San_Martin_de_Unx
Navarra_Media_Oriental,03/01/2017,3.2,10.1,-4.3,0.0,San_Martin_de_Unx
Navarra_Media_Oriental,04/01/2017,6.5,11.5,2.0,0.1,San_Martin_de_Unx
Navarra_Media_Oriental,05/01/2017,4.3,6.4,2.8,0.0,San_Martin_de_Unx
Navarra_Media_Oriental,06/01/2017,2.4,11.3,-3.2,0.0,San_Martin_de_Unx
Navarra_Media_Oriental,07/01/2017,1.9,10.3,-3.2,0.0,San_Martin_de_Unx
Navarra_Media_Oriental,08/01/2017,4.6,12.4,-1.9,0.0,San_Martin_de_Unx
Navarra_Media_Oriental,09/01/2017,7.0,10.7,4.5,0.0,San_Martin_de_Unx
Navarra_Media_Oriental,10/01/2017,6.9,9.3,4.8,5.1,San_Martin_de_Unx
Navarra_Media_Oriental,11/01/2017,10.4,14.4,6.0,0.2,San_Martin_de_Unx
Navarra_Media_Oriental,12/01/2017,9.1,13.4,5.5,0.0,San_Martin_de_Unx
Navarra_Media_Oriental,13/01/2017,4.1,8.8,1.4,7.1,San_Martin_de_Unx
Navarra_Media_Oriental,14/01/2017,2.6,5.5,0.4,4.5,San_Martin_de_Unx
Navarra_Media_Oriental,15/01/2017,4.2,6.3,1.9,6.1,San_Martin_de_Unx
Navarra_Media_Oriental,16/01/2017,7.4,9.8,5.7,4.3,San_Martin_de_Unx
Navarra_Media_Oriental,17/01/2017,1.0,6.0,-2.9,0.0,San_Martin_de_Unx
Navarra_Media_Oriental,18/01/2017,-3.0,-0.4,-5.2,0.0,San_Martin_de_Unx
Navarra_Media_Oriental,19/01/2017,-1.0,6.2,-6.2,0.0,San_Martin_de_Unx
Navarra_Media_Oriental,20/01/2017,0.4,5.5,-3.9,0.0,San_Martin_de_Unx
Navarra_Media_Oriental,21/01/2017,3.2,10.7,-3.7,0.0,San_Martin_de_Unx
Navarra_Media_Oriental,22/01/2017,4.9,8.1,-0.2,0.0,San_Martin_de_Unx
Navarra_Media_Oriental,23/01/2017,5.8,9.3,3.4,0.0,San_Martin_de_Unx
Navarra_Media_Oriental,24/01/2017,5.1,9.9,1.8,0.0,San_Martin_de_Unx
Navarra_Media_Oriental,25/01/2017,2.2,7.3,-2.6,0.0,San_Martin_de_Unx
Navarra_Media_Oriental,26/01/2017,2.1,6.9,-3.7,0.0,San_Martin_de_Unx
Navarra_Media_Oriental,27/01/2017,6.9,9.3,5.1,6.6,San_Martin_de_Unx
Navarra_Media_Oriental,28/01/2017,6.6,11.6,2.2,0.1,San_Martin_de_Unx
Navarra_Media_Oriental,29/01/2017,6.3,11.5,0.6,0.0,San_Martin_de_Unx
Navarra_Media_Oriental,30/01/2017,9.4,14.2,6.0,0.0,San_Martin_de_Unx
Navarra_Media_Oriental,31/01/2017,11.3,15.3,7.6,0.0,San_Martin_de_Unx
Navarra_Media_Oriental,01/02/2017,12.0,15.7,8.2,0.0,San_Martin_de_Unx
Navarra_Media_Oriental,02/02/2017,8.1,11.0,3.0,8.2,San_Martin_de_Unx
Navarra_Media_Oriental,03/02/2017,8.7,13.2,2.6,2.0,San_Martin_de_Unx
Navarra_Media_Oriental,04/02/2017,10.2,14.0,8.1,4.1,San_Martin_de_Unx
Navarra_Media_Oriental,05/02/2017,6.7,11.9,3.4,3.0,San_Martin_de_Unx
Navarra_Media_Oriental,06/02/2017,7.4,11.7,3.3,0.7,San_Martin_de_Unx
Navarra_Media_Oriental,07/02/2017,8.7,12.3,3.7,2.0,San_Martin_de_Unx
Navarra_Media_Oriental,08/02/2017,3.7,7.1,0.9,14.7,San_Martin_de_Unx
Navarra_Media_Oriental,09/02/2017,5.5,12.0,0.8,0.0,San_Martin_de_Unx
Navarra_Media_Oriental,10/02/2017,6.0,11.0,-0.6,0.0,San_Martin_de_Unx
Navarra_Media_Oriental,11/02/2017,5.7,9.1,2.1,4.7,San_Martin_de_Unx
Navarra_Media_Oriental,12/02/2017,10.1,12.7,5.6,0.6,San_Martin_de_Unx
Navarra_Media_Oriental,13/02/2017,9.6,11.3,5.5,13.9,San_Martin_de_Unx
Navarra_Media_Oriental,14/02/2017,8.3,12.9,3.1,0.1,San_Martin_de_Unx
Navarra_Media_Oriental,15/02/2017,9.5,14.7,6.0,0.0,San_Martin_de_Unx
Navarra_Media_Oriental,16/02/2017,9.5,15.0,5.3,0.0,San_Martin_de_Unx
Navarra_Media_Oriental,17/02/2017,8.6,15.2,3.9,0.0,San_Martin_de_Unx
Navarra_Media_Oriental,18/02/2017,7.5,14.9,2.8,0.0,San_Martin_de_Unx
Navarra_Media_Oriental,19/02/2017,8.2,14.9,3.6,0.0,San_Martin_de_Unx
Navarra_Media_Oriental,20/02/2017,8.7,14.2,2.3,0.0,San_Martin_de_Unx
Navarra_Media_Oriental,21/02/2017,8.2,16.6,1.5,0.0,San_Martin_de_Unx
Navarra_Media_Oriental,22/02/2017,9.0,16.8,3.2,0.0,San_Martin_de_Unx
Navarra_Media_Oriental,23/02/2017,9.6,13.6,5.7,0.0,San_Martin_de_Unx
Navarra_Media_Oriental,24/02/2017,7.9,10.1,4.3,0.0,San_Martin_de_Unx
Navarra_Media_Oriental,25/02/2017,9.1,19.2,1.4,0.0,San_Martin_de_Unx
Navarra_Media_Oriental,26/02/2017,8.8,16.6,2.9,0.0,San_Martin_de_Unx
Navarra_Media_Oriental,27/02/2017,10.8,17.2,5.4,0.0,San_Martin_de_Unx
Navarra_Media_Oriental,28/02/2017,7.8,12.6,1.6,1.1,San_Martin_de_Unx
Navarra_Media_Oriental,01/03/2017,8.0,15.3,0.4,0.0,San_Martin_de_Unx
Navarra_Media_Oriental,02/03/2017,11.5,17.3,4.7,0.0,San_Martin_de_Unx
Navarra_Media_Oriental,03/03/2017,11.0,15.7,4.5,29.6,San_Martin_de_Unx
Navarra_Media_Oriental,04/03/2017,5.8,11.4,2.6,1.7,San_Martin_de_Unx
Navarra_Media_Oriental,05/03/2017,7.9,12.5,4.2,0.6,San_Martin_de_Unx
Navarra_Media_Oriental,06/03/2017,11.4,18.3,7.7,0.2,San_Martin_de_Unx
Navarra_Media_Oriental,07/03/2017,11.1,15.6,7.6,0.0,San_Martin_de_Unx
Navarra_Media_Oriental,08/03/2017,13.9,20.7,8.6,0.0,San_Martin_de_Unx
Navarra_Media_Oriental,09/03/2017,15.1,23.5,6.3,0.0,San_Martin_de_Unx
Navarra_Media_Oriental,10/03/2017,16.6,26.7,7.3,0.0,San_Martin_de_Unx
Navarra_Media_Oriental,11/03/2017,15.2,24.2,8.4,0.0,San_Martin_de_Unx
Navarra_Media_Oriental,12/03/2017,10.3,15.2,6.4,2.4,San_Martin_de_Unx
Navarra_Media_Oriental,13/03/2017,9.9,13.3,6.7,0.2,San_Martin_de_Unx
Navarra_Media_Oriental,14/03/2017,11.6,18.6,5.5,0.0,San_Martin_de_Unx
Navarra_Media_Oriental,15/03/2017,11.2,19.6,3.8,0.0,San_Martin_de_Unx
Navarra_Media_Oriental,16/03/2017,13.7,20.6,7.0,0.0,San_Martin_de_Unx
Navarra_Media_Oriental,17/03/2017,13.9,22.1,7.0,0.0,San_Martin_de_Unx
Navarra_Media_Oriental,18/03/2017,11.2,19.2,3.9,0.0,San_Martin_de_Unx
Navarra_Media_Oriental,19/03/2017,12.3,21.7,4.4,0.0,San_Martin_de_Unx
Navarra_Media_Oriental,20/03/2017,12.3,21.9,5.5,0.0,San_Martin_de_Unx
Navarra_Media_Oriental,21/03/2017,9.0,13.8,5.1,0.0,San_Martin_de_Unx
Navarra_Media_Oriental,22/03/2017,6.4,13.8,2.3,12.7,San_Martin_de_Unx
Navarra_Media_Oriental,23/03/2017,5.5,10.1,0.3,1.6,San_Martin_de_Unx
Navarra_Media_Oriental,24/03/2017,7.2,12.3,2.6,1.8,San_Martin_de_Unx
Navarra_Media_Oriental,25/03/2017,3.7,6.8,0.9,39.0,San_Martin_de_Unx
Navarra_Media_Oriental,26/03/2017,10.8,15.6,5.5,0.0,San_Martin_de_Unx
Navarra_Media_Oriental,27/03/2017,9.8,13.2,7.3,1.6,San_Martin_de_Unx
Navarra_Media_Oriental,28/03/2017,11.7,18.2,5.8,0.0,San_Martin_de_Unx
Navarra_Media_Oriental,29/03/2017,12.8,20.2,6.0,0.0,San_Martin_de_Unx
Navarra_Media_Oriental,30/03/2017,15.1,21.1,7.5,0.0,San_Martin_de_Unx
Navarra_Media_Oriental,31/03/2017,13.1,19.3,8.4,3.0,San_Martin_de_Unx
Navarra_Media_Oriental,01/04/2017,9.9,14.4,6.1,0.3,San_Martin_de_Unx
Navarra_Media_Oriental,02/04/2017,8.8,13.0,6.2,1.0,San_Martin_de_Unx
Navarra_Media_Oriental,03/04/2017,11.2,19.1,2.2,0.0,San_Martin_de_Unx
Navarra_Media_Oriental,04/04/2017,11.6,16.1,8.4,0.0,San_Martin_de_Unx
Navarra_Media_Oriental,05/04/2017,10.9,15.2,7.0,0.0,San_Martin_de_Unx
Navarra_Media_Oriental,06/04/2017,11.9,17.3,7.7,0.0,San_Martin_de_Unx
Navarra_Media_Oriental,07/04/2017,12.6,20.8,3.1,0.0,San_Martin_de_Unx
Navarra_Media_Oriental,08/04/2017,16.7,24.0,8.0,0.0,San_Martin_de_Unx
Navarra_Media_Oriental,09/04/2017,16.1,23.4,7.1,0.0,San_Martin_de_Unx
Navarra_Media_Oriental,10/04/2017,17.1,25.6,8.5,0.0,San_Martin_de_Unx
Navarra_Media_Oriental,11/04/2017,13.2,19.7,6.7,0.0,San_Martin_de_Unx
Navarra_Media_Oriental,12/04/2017,14.8,23.7,5.5,0.0,San_Martin_de_Unx
Navarra_Media_Oriental,13/04/2017,16.6,25.8,6.3,0.0,San_Martin_de_Unx
Navarra_Media_Oriental,14/04/2017,16.0,24.3,8.2,0.0,San_Martin_de_Unx
Navarra_Media_Oriental,15/04/2017,12.6,17.3,8.8,0.0,San_Martin_de_Unx
Navarra_Media_Oriental,16/04/2017,13.3,21.0,6.4,0.0,San_Martin_de_Unx
Navarra_Media_Oriental,17/04/2017,14.4,24.1,5.4,0.0,San_Martin_de_Unx
Navarra_Media_Oriental,18/04/2017,14.0,20.2,9.5,0.0,San_Martin_de_Unx
Navarra_Media_Oriental,19/04/2017,11.6,18.1,5.5,0.0,San_Martin_de_Unx
Navarra_Media_Oriental,20/04/2017,12.4,19.4,4.3,0.0,San_Martin_de_Unx
Navarra_Media_Oriental,21/04/2017,13.4,19.9,4.9,0.0,San_Martin_de_Unx
Navarra_Media_Oriental,22/04/2017,14.0,22.6,3.6,0.0,San_Martin_de_Unx
Navarra_Media_Oriental,23/04/2017,16.6,25.9,7.7,0.0,San_Martin_de_Unx
Navarra_Media_Oriental,24/04/2017,18.0,25.8,7.6,0.0,San_Martin_de_Unx
Navarra_Media_Oriental,25/04/2017,14.1,20.7,8.8,11.3,San_Martin_de_Unx
Navarra_Media_Oriental,26/04/2017,8.1,12.3,4.7,0.1,San_Martin_de_Unx
Navarra_Media_Oriental,27/04/2017,7.4,12.4,4.1,0.0,San_Martin_de_Unx
Navarra_Media_Oriental,28/04/2017,9.2,16.8,1.0,0.0,San_Martin_de_Unx
Navarra_Media_Oriental,29/04/2017,10.8,15.3,3.0,0.5,San_Martin_de_Unx
Navarra_Media_Oriental,30/04/2017,9.9,15.4,2.5,7.4,San_Martin_de_Unx
Navarra_Media_Oriental,01/05/2017,9.7,16.8,1.0,0.1,San_Martin_de_Unx
Navarra_Media_Oriental,02/05/2017,13.4,19.1,9.3,0.1,San_Martin_de_Unx
Navarra_Media_Oriental,03/05/2017,14.6,22.6,7.1,0.0,San_Martin_de_Unx
Navarra_Media_Oriental,04/05/2017,17.0,23.7,8.1,0.0,San_Martin_de_Unx
Navarra_Media_Oriental,05/05/2017,16.7,25.0,10.5,14.2,San_Martin_de_Unx
Navarra_Media_Oriental,06/05/2017,14.5,21.1,7.6,0.9,San_Martin_de_Unx
Navarra_Media_Oriental,07/05/2017,14.8,22.1,6.8,0.0,San_Martin_de_Unx
Navarra_Media_Oriental,08/05/2017,14.8,22.3,7.2,0.0,San_Martin_de_Unx
Navarra_Media_Oriental,09/05/2017,15.7,23.3,7.8,0.9,San_Martin_de_Unx
Navarra_Media_Oriental,10/05/2017,16.6,24.0,11.5,1.3,San_Martin_de_Unx
Navarra_Media_Oriental,11/05/2017,14.5,20.3,10.1,0.9,San_Martin_de_Unx
Navarra_Media_Oriental,12/05/2017,14.2,20.6,9.8,0.3,San_Martin_de_Unx
Navarra_Media_Oriental,13/05/2017,15.8,21.9,9.9,0.2,San_Martin_de_Unx
Navarra_Media_Oriental,14/05/2017,18.0,24.4,10.5,0.0,San_Martin_de_Unx
Navarra_Media_Oriental,15/05/2017,19.6,27.0,11.4,0.0,San_Martin_de_Unx
Navarra_Media_Oriental,16/05/2017,22.1,29.4,14.1,0.0,San_Martin_de_Unx
Navarra_Media_Oriental,17/05/2017,20.5,26.1,14.6,0.0,San_Martin_de_Unx
Navarra_Media_Oriental,18/05/2017,11.2,15.5,8.5,7.0,San_Martin_de_Unx
Navarra_Media_Oriental,19/05/2017,11.9,18.2,5.3,0.0,San_Martin_de_Unx
Navarra_Media_Oriental,20/05/2017,14.2,22.1,5.1,0.0,San_Martin_de_Unx
Navarra_Media_Oriental,21/05/2017,18.9,25.8,9.1,0.0,San_Martin_de_Unx
Navarra_Media_Oriental,22/05/2017,20.2,29.3,13.1,0.0,San_Martin_de_Unx
Navarra_Media_Oriental,23/05/2017,20.1,29.1,11.1,0.0,San_Martin_de_Unx
Navarra_Media_Oriental,24/05/2017,22.4,31.1,13.4,0.0,San_Martin_de_Unx
Navarra_Media_Oriental,25/05/2017,25.1,33.3,15.7,0.0,San_Martin_de_Unx
Navarra_Media_Oriental,26/05/2017,24.0,32.9,15.7,1.5,San_Martin_de_Unx
Navarra_Media_Oriental,27/05/2017,24.2,31.6,15.1,0.0,San_Martin_de_Unx
Navarra_Media_Oriental,28/05/2017,23.7,29.3,17.0,0.0,San_Martin_de_Unx
Navarra_Media_Oriental,29/05/2017,18.0,22.1,14.0,10.4,San_Martin_de_Unx
Navarra_Media_Oriental,30/05/2017,18.0,23.0,13.1,0.0,San_Martin_de_Unx
Navarra_Media_Oriental,31/05/2017,19.9,27.3,12.3,0.0,San_Martin_de_Unx
Navarra_Media_Oriental,01/06/2017,22.2,30.4,14.0,0.0,San_Martin_de_Unx
Navarra_Media_Oriental,02/06/2017,20.1,27.7,14.7,4.0,San_Martin_de_Unx
Navarra_Media_Oriental,03/06/2017,16.9,22.9,11.7,4.8,San_Martin_de_Unx
Navarra_Media_Oriental,04/06/2017,12.4,16.6,9.4,13.7,San_Martin_de_Unx
Navarra_Media_Oriental,05/06/2017,16.7,24.0,11.1,0.0,San_Martin_de_Unx
Navarra_Media_Oriental,06/06/2017,15.8,19.7,11.0,0.0,San_Martin_de_Unx
Navarra_Media_Oriental,07/06/2017,18.3,27.7,8.5,0.0,San_Martin_de_Unx
Navarra_Media_Oriental,08/06/2017,21.2,30.4,13.5,41.8,San_Martin_de_Unx
Navarra_Media_Oriental,09/06/2017,22.1,29.5,15.6,0.0,San_Martin_de_Unx
Navarra_Media_Oriental,10/06/2017,24.1,32.4,15.6,0.0,San_Martin_de_Unx
Navarra_Media_Oriental,11/06/2017,25.6,34.8,17.7,0.0,San_Martin_de_Unx
Navarra_Media_Oriental,12/06/2017,24.5,33.3,15.3,0.0,San_Martin_de_Unx
Navarra_Media_Oriental,13/06/2017,26.6,34.1,17.5,0.0,San_Martin_de_Unx
Navarra_Media_Oriental,14/06/2017,27.5,36.6,18.4,0.0,San_Martin_de_Unx
Navarra_Media_Oriental,15/06/2017,23.2,30.3,17.3,0.0,San_Martin_de_Unx
Navarra_Media_Oriental,16/06/2017,22.8,31.8,14.5,0.0,San_Martin_de_Unx
Navarra_Media_Oriental,17/06/2017,25.3,34.4,14.6,0.0,San_Martin_de_Unx
Navarra_Media_Oriental,18/06/2017,27.0,35.1,16.9,0.0,San_Martin_de_Unx
Navarra_Media_Oriental,19/06/2017,27.2,34.6,19.1,0.8,San_Martin_de_Unx
Navarra_Media_Oriental,20/06/2017,25.2,33.2,18.4,0.3,San_Martin_de_Unx
Navarra_Media_Oriental,21/06/2017,27.5,34.8,18.9,0.0,San_Martin_de_Unx
Navarra_Media_Oriental,22/06/2017,28.4,37.0,20.6,0.0,San_Martin_de_Unx
Navarra_Media_Oriental,23/06/2017,24.6,34.5,17.4,0.0,San_Martin_de_Unx
Navarra_Media_Oriental,24/06/2017,21.5,29.0,14.9,0.0,San_Martin_de_Unx
Navarra_Media_Oriental,25/06/2017,22.5,29.8,16.4,0.2,San_Martin_de_Unx
Navarra_Media_Oriental,26/06/2017,21.1,27.2,17.9,0.5,San_Martin_de_Unx
Navarra_Media_Oriental,27/06/2017,20.0,27.5,14.8,0.2,San_Martin_de_Unx
Navarra_Media_Oriental,28/06/2017,17.6,25.6,13.5,11.8,San_Martin_de_Unx
Navarra_Media_Oriental,29/06/2017,15.8,21.9,10.6,0.1,San_Martin_de_Unx
Navarra_Media_Oriental,30/06/2017,13.4,18.3,8.9,0.3,San_Martin_de_Unx
Navarra_Media_Oriental,01/07/2017,13.4,17.1,9.7,0.1,San_Martin_de_Unx
Navarra_Media_Oriental,02/07/2017,16.2,22.0,10.6,0.0,San_Martin_de_Unx
Navarra_Media_Oriental,03/07/2017,21.0,29.2,12.3,0.0,San_Martin_de_Unx
Navarra_Media_Oriental,04/07/2017,25.3,33.3,13.4,0.0,San_Martin_de_Unx
Navarra_Media_Oriental,05/07/2017,26.3,33.7,15.2,0.0,San_Martin_de_Unx
Navarra_Media_Oriental,06/07/2017,24.9,31.1,18.7,0.0,San_Martin_de_Unx
Navarra_Media_Oriental,07/07/2017,25.3,33.0,16.4,0.0,San_Martin_de_Unx
Navarra_Media_Oriental,08/07/2017,23.1,32.0,17.9,0.0,San_Martin_de_Unx
Navarra_Media_Oriental,09/07/2017,23.0,31.0,16.0,1.0,San_Martin_de_Unx
Navarra_Media_Oriental,10/07/2017,19.9,25.8,15.6,0.2,San_Martin_de_Unx
Navarra_Media_Oriental,11/07/2017,23.1,32.2,13.7,0.0,San_Martin_de_Unx
Navarra_Media_Oriental,12/07/2017,24.1,31.6,16.1,0.0,San_Martin_de_Unx
Navarra_Media_Oriental,13/07/2017,22.2,31.4,14.7,0.0,San_Martin_de_Unx
Navarra_Media_Oriental,14/07/2017,20.0,26.1,15.8,0.0,San_Martin_de_Unx
Navarra_Media_Oriental,15/07/2017,22.3,30.3,14.0,0.0,San_Martin_de_Unx
Navarra_Media_Oriental,16/07/2017,24.9,34.9,13.1,0.0,San_Martin_de_Unx
Navarra_Media_Oriental,17/07/2017,27.7,34.3,20.0,0.0,San_Martin_de_Unx
Navarra_Media_Oriental,18/07/2017,27.1,34.7,18.7,1.1,San_Martin_de_Unx
Navarra_Media_Oriental,19/07/2017,25.1,33.0,19.2,0.0,San_Martin_de_Unx
Navarra_Media_Oriental,20/07/2017,20.8,27.1,16.8,0.0,San_Martin_de_Unx
Navarra_Media_Oriental,21/07/2017,21.4,30.0,14.5,0.0,San_Martin_de_Unx
Navarra_Media_Oriental,22/07/2017,21.8,31.8,15.6,0.0,San_Martin_de_Unx
Navarra_Media_Oriental,23/07/2017,21.3,28.5,14.7,0.0,San_Martin_de_Unx
Navarra_Media_Oriental,24/07/2017,19.6,24.3,15.7,0.0,San_Martin_de_Unx
Navarra_Media_Oriental,25/07/2017,17.5,22.2,14.8,0.0,San_Martin_de_Unx
Navarra_Media_Oriental,26/07/2017,20.8,28.1,13.3,0.0,San_Martin_de_Unx
Navarra_Media_Oriental,27/07/2017,24.3,34.1,14.8,0.0,San_Martin_de_Unx
Navarra_Media_Oriental,28/07/2017,25.4,34.4,15.8,0.0,San_Martin_de_Unx
Navarra_Media_Oriental,29/07/2017,26.5,35.2,16.9,0.0,San_Martin_de_Unx
Navarra_Media_Oriental,30/07/2017,26.0,35.7,19.6,0.0,San_Martin_de_Unx
Navarra_Media_Oriental,31/07/2017,22.9,33.5,15.6,0.0,San_Martin_de_Unx
Navarra_Media_Oriental,01/08/2017,22.6,31.2,16.9,0.0,San_Martin_de_Unx
Navarra_Media_Oriental,02/08/2017,26.2,34.7,16.2,0.0,San_Martin_de_Unx
Navarra_Media_Oriental,03/08/2017,27.9,37.0,19.8,0.0,San_Martin_de_Unx
Navarra_Media_Oriental,04/08/2017,26.4,34.5,17.5,0.0,San_Martin_de_Unx
Navarra_Media_Oriental,05/08/2017,22.7,29.3,17.3,0.0,San_Martin_de_Unx
Navarra_Media_Oriental,06/08/2017,20.6,27.2,15.4,0.2,San_Martin_de_Unx
Navarra_Media_Oriental,07/08/2017,22.8,32.7,16.8,0.0,San_Martin_de_Unx
Navarra_Media_Oriental,08/08/2017,18.1,24.5,14.1,0.0,San_Martin_de_Unx
Navarra_Media_Oriental,09/08/2017,15.9,20.7,11.3,0.0,San_Martin_de_Unx
Navarra_Media_Oriental,10/08/2017,15.0,20.2,11.8,0.1,San_Martin_de_Unx
Navarra_Media_Oriental,11/08/2017,16.4,22.7,10.0,0.0,San_Martin_de_Unx
Navarra_Media_Oriental,12/08/2017,20.0,29.7,11.9,0.0,San_Martin_de_Unx
Navarra_Media_Oriental,13/08/2017,22.9,33.1,13.1,0.0,San_Martin_de_Unx
Navarra_Media_Oriental,14/08/2017,25.0,34.4,16.9,5.6,San_Martin_de_Unx
Navarra_Media_Oriental,15/08/2017,23.1,32.6,16.6,1.5,San_Martin_de_Unx
Navarra_Media_Oriental,16/08/2017,21.8,30.6,15.6,0.0,San_Martin_de_Unx
Navarra_Media_Oriental,17/08/2017,24.8,35.2,14.5,0.0,San_Martin_de_Unx
Navarra_Media_Oriental,18/08/2017,22.4,27.9,17.3,0.0,San_Martin_de_Unx
Navarra_Media_Oriental,19/08/2017,20.0,27.3,14.8,0.0,San_Martin_de_Unx
Navarra_Media_Oriental,20/08/2017,20.0,27.5,13.9,0.0,San_Martin_de_Unx
Navarra_Media_Oriental,21/08/2017,24.8,34.7,13.1,0.0,San_Martin_de_Unx
Navarra_Media_Oriental,22/08/2017,27.8,37.2,17.9,0.0,San_Martin_de_Unx
Navarra_Media_Oriental,23/08/2017,24.4,33.9,17.2,0.4,San_Martin_de_Unx
Navarra_Media_Oriental,24/08/2017,25.2,33.7,16.3,0.0,San_Martin_de_Unx
Navarra_Media_Oriental,25/08/2017,26.1,34.3,16.8,0.0,San_Martin_de_Unx
Navarra_Media_Oriental,26/08/2017,26.6,33.1,18.8,0.0,San_Martin_de_Unx
Navarra_Media_Oriental,27/08/2017,21.9,30.5,16.9,3.0,San_Martin_de_Unx
Navarra_Media_Oriental,28/08/2017,20.4,30.3,16.0,12.3,San_Martin_de_Unx
Navarra_Media_Oriental,29/08/2017,18.9,26.1,14.0,4.7,San_Martin_de_Unx
Navarra_Media_Oriental,30/08/2017,19.7,25.6,15.4,4.6,San_Martin_de_Unx
Navarra_Media_Oriental,31/08/2017,16.9,22.7,12.3,1.0,San_Martin_de_Unx
Navarra_Media_Oriental,01/09/2017,16.0,22.4,10.9,0.0,San_Martin_de_Unx
Navarra_Media_Oriental,02/09/2017,16.0,22.0,9.8,0.0,San_Martin_de_Unx
Navarra_Media_Oriental,03/09/2017,18.8,28.0,11.1,0.0,San_Martin_de_Unx
Navarra_Media_Oriental,04/09/2017,21.5,27.7,15.6,0.0,San_Martin_de_Unx
Navarra_Media_Oriental,05/09/2017,21.9,31.8,15.4,0.0,San_Martin_de_Unx
Navarra_Media_Oriental,06/09/2017,19.0,24.5,14.8,0.0,San_Martin_de_Unx
Navarra_Media_Oriental,07/09/2017,16.7,21.9,13.1,0.0,San_Martin_de_Unx
Navarra_Media_Oriental,08/09/2017,18.2,27.9,8.4,0.0,San_Martin_de_Unx
Navarra_Media_Oriental,09/09/2017,15.9,20.1,10.7,2.1,San_Martin_de_Unx
Navarra_Media_Oriental,10/09/2017,14.7,20.8,10.1,1.6,San_Martin_de_Unx
Navarra_Media_Oriental,11/09/2017,17.2,22.3,13.6,0.0,San_Martin_de_Unx
Navarra_Media_Oriental,12/09/2017,17.0,23.3,12.9,0.0,San_Martin_de_Unx
Navarra_Media_Oriental,13/09/2017,20.2,29.1,11.5,0.0,San_Martin_de_Unx
Navarra_Media_Oriental,14/09/2017,16.1,19.3,11.9,0.0,San_Martin_de_Unx
Navarra_Media_Oriental,15/09/2017,13.5,19.4,8.8,0.0,San_Martin_de_Unx
Navarra_Media_Oriental,16/09/2017,11.2,18.5,5.4,1.0,San_Martin_de_Unx
Navarra_Media_Oriental,17/09/2017,13.6,22.1,6.3,0.0,San_Martin_de_Unx
Navarra_Media_Oriental,18/09/2017,14.5,19.6,10.9,2.1,San_Martin_de_Unx
Navarra_Media_Oriental,19/09/2017,14.4,20.2,7.9,0.0,San_Martin_de_Unx
Navarra_Media_Oriental,20/09/2017,16.1,27.2,6.2,0.0,San_Martin_de_Unx
Navarra_Media_Oriental,21/09/2017,18.5,27.4,9.6,0.0,San_Martin_de_Unx
Navarra_Media_Oriental,22/09/2017,15.3,19.7,11.9,30.9,San_Martin_de_Unx
Navarra_Media_Oriental,23/09/2017,17.9,24.8,12.2,0.0,San_Martin_de_Unx
Navarra_Media_Oriental,24/09/2017,20.0,28.7,12.6,0.0,San_Martin_de_Unx
Navarra_Media_Oriental,25/09/2017,18.0,22.4,13.9,0.0,San_Martin_de_Unx
Navarra_Media_Oriental,26/09/2017,17.0,24.2,10.5,0.0,San_Martin_de_Unx
Navarra_Media_Oriental,27/09/2017,17.9,25.2,10.7,0.0,San_Martin_de_Unx
Navarra_Media_Oriental,28/09/2017,19.6,26.7,12.4,0.0,San_Martin_de_Unx
Navarra_Media_Oriental,29/09/2017,19.9,26.7,12.9,0.0,San_Martin_de_Unx
Navarra_Media_Oriental,30/09/2017,16.8,21.2,13.2,2.0,San_Martin_de_Unx
Navarra_Media_Oriental,01/10/2017,17.0,21.1,12.4,0.1,San_Martin_de_Unx
Navarra_Media_Oriental,02/10/2017,19.3,24.8,14.8,0.0,San_Martin_de_Unx
Navarra_Media_Oriental,03/10/2017,18.9,25.2,13.4,0.0,San_Martin_de_Unx
Navarra_Media_Oriental,04/10/2017,18.9,26.9,11.9,0.0,San_Martin_de_Unx
Navarra_Media_Oriental,05/10/2017,19.0,26.4,12.9,0.0,San_Martin_de_Unx
Navarra_Media_Oriental,06/10/2017,15.6,21.1,10.8,0.0,San_Martin_de_Unx
Navarra_Media_Oriental,07/10/2017,14.6,23.1,6.5,0.0,San_Martin_de_Unx
Navarra_Media_Oriental,08/10/2017,15.3,24.3,6.3,0.0,San_Martin_de_Unx
Navarra_Media_Oriental,09/10/2017,16.8,25.6,7.2,0.0,San_Martin_de_Unx
Navarra_Media_Oriental,10/10/2017,16.4,27.4,7.6,0.0,San_Martin_de_Unx
Navarra_Media_Oriental,11/10/2017,17.0,25.4,9.6,0.0,San_Martin_de_Unx
Navarra_Media_Oriental,12/10/2017,17.5,25.9,9.6,0.0,San_Martin_de_Unx
Navarra_Media_Oriental,13/10/2017,19.0,27.3,12.0,0.0,San_Martin_de_Unx
Navarra_Media_Oriental,14/10/2017,19.1,25.7,13.4,0.0,San_Martin_de_Unx
Navarra_Media_Oriental,15/10/2017,18.3,23.6,12.7,0.0,San_Martin_de_Unx
Navarra_Media_Oriental,16/10/2017,18.8,24.9,13.6,0.0,San_Martin_de_Unx
Navarra_Media_Oriental,17/10/2017,17.6,22.5,11.8,0.2,San_Martin_de_Unx
Navarra_Media_Oriental,18/10/2017,14.8,17.5,10.6,26.4,San_Martin_de_Unx
Navarra_Media_Oriental,19/10/2017,13.4,19.5,10.1,0.4,San_Martin_de_Unx
Navarra_Media_Oriental,20/10/2017,14.4,21.2,8.8,0.0,San_Martin_de_Unx
Navarra_Media_Oriental,21/10/2017,13.8,17.3,10.3,0.0,San_Martin_de_Unx
Navarra_Media_Oriental,22/10/2017,10.9,15.4,7.4,0.0,San_Martin_de_Unx
Navarra_Media_Oriental,23/10/2017,13.4,21.4,5.9,0.0,San_Martin_de_Unx
Navarra_Media_Oriental,24/10/2017,15.2,24.9,8.0,0.0,San_Martin_de_Unx
Navarra_Media_Oriental,25/10/2017,16.4,25.2,10.2,0.0,San_Martin_de_Unx
Navarra_Media_Oriental,26/10/2017,17.4,26.5,10.3,0.0,San_Martin_de_Unx
Navarra_Media_Oriental,27/10/2017,15.5,19.4,10.3,0.0,San_Martin_de_Unx
Navarra_Media_Oriental,28/10/2017,14.0,17.8,11.1,0.0,San_Martin_de_Unx
Navarra_Media_Oriental,29/10/2017,13.0,17.6,10.5,0.0,San_Martin_de_Unx
Navarra_Media_Oriental,30/10/2017,12.5,17.0,7.6,0.0,San_Martin_de_Unx
Navarra_Media_Oriental,31/10/2017,10.1,17.0,3.0,0.0,San_Martin_de_Unx
Navarra_Media_Oriental,01/11/2017,13.1,18.8,6.7,0.0,San_Martin_de_Unx
Navarra_Media_Oriental,02/11/2017,14.3,19.8,9.6,0.0,San_Martin_de_Unx
Navarra_Media_Oriental,03/11/2017,14.8,19.8,10.5,0.0,San_Martin_de_Unx
Navarra_Media_Oriental,04/11/2017,13.0,17.3,10.8,13.2,San_Martin_de_Unx
Navarra_Media_Oriental,05/11/2017,9.6,12.6,7.2,1.9,San_Martin_de_Unx
Navarra_Media_Oriental,06/11/2017,7.2,11.2,4.4,1.1,San_Martin_de_Unx
Navarra_Media_Oriental,07/11/2017,7.3,12.0,3.2,0.1,San_Martin_de_Unx
Navarra_Media_Oriental,08/11/2017,6.3,9.3,2.0,3.2,San_Martin_de_Unx
Navarra_Media_Oriental,09/11/2017,6.3,9.6,2.8,1.5,San_Martin_de_Unx
Navarra_Media_Oriental,10/11/2017,9.3,12.6,4.8,0.1,San_Martin_de_Unx
Navarra_Media_Oriental,11/11/2017,11.1,14.6,7.6,0.0,San_Martin_de_Unx
Navarra_Media_Oriental,12/11/2017,11.4,15.9,7.6,0.1,San_Martin_de_Unx
Navarra_Media_Oriental,13/11/2017,6.8,10.3,4.3,0.9,San_Martin_de_Unx
Navarra_Media_Oriental,14/11/2017,6.0,10.3,3.6,0.0,San_Martin_de_Unx
Navarra_Media_Oriental,15/11/2017,5.9,15.1,-1.2,0.0,San_Martin_de_Unx
Navarra_Media_Oriental,16/11/2017,8.1,15.1,2.2,0.0,San_Martin_de_Unx
Navarra_Media_Oriental,17/11/2017,10.0,18.3,3.2,0.0,San_Martin_de_Unx
Navarra_Media_Oriental,18/11/2017,9.6,14.5,3.1,0.0,San_Martin_de_Unx
Navarra_Media_Oriental,19/11/2017,7.1,16.3,0.3,0.0,San_Martin_de_Unx
Navarra_Media_Oriental,20/11/2017,7.3,15.3,1.5,0.0,San_Martin_de_Unx
Navarra_Media_Oriental,21/11/2017,7.3,15.3,2.2,0.0,San_Martin_de_Unx
Navarra_Media_Oriental,22/11/2017,8.2,15.5,0.9,0.0,San_Martin_de_Unx
Navarra_Media_Oriental,23/11/2017,14.0,18.6,11.7,0.0,San_Martin_de_Unx
Navarra_Media_Oriental,24/11/2017,12.9,15.0,10.3,0.3,San_Martin_de_Unx
Navarra_Media_Oriental,25/11/2017,8.5,12.3,2.7,3.0,San_Martin_de_Unx
Navarra_Media_Oriental,26/11/2017,5.5,9.4,2.8,0.0,San_Martin_de_Unx
Navarra_Media_Oriental,27/11/2017,3.6,9.0,-0.6,0.0,San_Martin_de_Unx
Navarra_Media_Oriental,28/11/2017,4.4,11.8,-0.8,0.0,San_Martin_de_Unx
Navarra_Media_Oriental,29/11/2017,5.1,8.8,1.6,0.0,San_Martin_de_Unx
Navarra_Media_Oriental,30/11/2017,3.2,7.7,-1.2,0.2,San_Martin_de_Unx
Navarra_Media_Oriental,01/12/2017,1.9,4.2,-0.2,5.8,San_Martin_de_Unx
Navarra_Media_Oriental,02/12/2017,1.0,3.3,-0.8,3.1,San_Martin_de_Unx
Navarra_Media_Oriental,03/12/2017,1.9,4.9,-1.4,0.0,San_Martin_de_Unx
Navarra_Media_Oriental,04/12/2017,5.7,10.7,1.7,0.0,San_Martin_de_Unx
Navarra_Media_Oriental,05/12/2017,3.2,10.1,-1.4,0.0,San_Martin_de_Unx
Navarra_Media_Oriental,06/12/2017,1.9,7.8,-2.0,0.1,San_Martin_de_Unx
Navarra_Media_Oriental,07/12/2017,2.5,7.8,-1.2,0.1,San_Martin_de_Unx
Navarra_Media_Oriental,08/12/2017,6.3,10.1,3.0,0.0,San_Martin_de_Unx
Navarra_Media_Oriental,09/12/2017,5.7,9.2,2.0,1.3,San_Martin_de_Unx
Navarra_Media_Oriental,10/12/2017,8.7,13.5,4.4,0.4,San_Martin_de_Unx
Navarra_Media_Oriental,11/12/2017,7.5,13.9,3.4,3.3,San_Martin_de_Unx
Navarra_Media_Oriental,12/12/2017,4.0,8.7,-0.4,0.1,San_Martin_de_Unx
Navarra_Media_Oriental,13/12/2017,3.6,8.4,-1.1,0.0,San_Martin_de_Unx
Navarra_Media_Oriental,14/12/2017,7.9,10.1,5.5,7.7,San_Martin_de_Unx
Navarra_Media_Oriental,15/12/2017,5.9,9.0,2.1,0.6,San_Martin_de_Unx
Navarra_Media_Oriental,16/12/2017,3.6,6.7,1.0,5.2,San_Martin_de_Unx
Navarra_Media_Oriental,17/12/2017,4.5,8.6,0.7,0.7,San_Martin_de_Unx
Navarra_Media_Oriental,18/12/2017,7.0,10.3,3.2,0.9,San_Martin_de_Unx
Navarra_Media_Oriental,19/12/2017,5.5,8.4,2.1,0.0,San_Martin_de_Unx
Navarra_Media_Oriental,20/12/2017,6.6,12.4,1.3,0.0,San_Martin_de_Unx
Navarra_Media_Oriental,21/12/2017,9.2,14.8,4.7,0.0,San_Martin_de_Unx
Navarra_Media_Oriental,22/12/2017,7.3,9.4,5.6,0.0,San_Martin_de_Unx
Navarra_Media_Oriental,23/12/2017,7.5,12.9,2.6,0.0,San_Martin_de_Unx
Navarra_Media_Oriental,24/12/2017,2.4,5.0,-0.6,0.1,San_Martin_de_Unx
Navarra_Media_Oriental,25/12/2017,1.6,5.6,0.2,0.4,San_Martin_de_Unx
Navarra_Media_Oriental,26/12/2017,4.9,7.6,2.2,1.6,San_Martin_de_Unx
Navarra_Media_Oriental,27/12/2017,4.6,7.5,1.3,7.9,San_Martin_de_Unx
Navarra_Media_Oriental,28/12/2017,5.6,8.2,3.4,4.8,San_Martin_de_Unx
Navarra_Media_Oriental,29/12/2017,8.1,12.7,5.1,3.1,San_Martin_de_Unx
Navarra_Media_Oriental,30/12/2017,10.2,16.2,5.5,0.1,San_Martin_de_Unx
Navarra_Media_Oriental,31/12/2017,8.3,13.7,2.4,4.1,San_Martin_de_Unx
