Comarca,Fecha, Temperatura media, Temperatura maxima, Temperatura minima, Precipitacion acumulada,Localidad
Navarra_Media_Oriental,01/01/2015,7.8,14.1,1.8,0.0,Tafalla
Navarra_Media_Oriental,02/01/2015,6.5,14.9,-0.6,0.0,Tafalla
Navarra_Media_Oriental,03/01/2015,8.0,16.3,1.2,0.0,Tafalla
Navarra_Media_Oriental,04/01/2015,9.6,13.6,5.0,0.0,Tafalla
Navarra_Media_Oriental,05/01/2015,2.7,5.7,-0.7,0.0,Tafalla
Navarra_Media_Oriental,06/01/2015,4.4,11.0,-1.7,0.1,Tafalla
Navarra_Media_Oriental,07/01/2015,2.7,7.4,-1.5,0.1,Tafalla
Navarra_Media_Oriental,08/01/2015,2.8,7.9,0.2,0.1,Tafalla
Navarra_Media_Oriental,09/01/2015,7.9,15.8,1.8,0.0,Tafalla
Navarra_Media_Oriental,10/01/2015,8.8,15.0,2.5,0.0,Tafalla
Navarra_Media_Oriental,11/01/2015,7.6,11.7,1.1,0.0,Tafalla
Navarra_Media_Oriental,12/01/2015,3.7,11.6,-2.4,0.0,Tafalla
Navarra_Media_Oriental,13/01/2015,2.9,9.3,-1.4,0.0,Tafalla
Navarra_Media_Oriental,14/01/2015,6.3,12.4,0.6,0.0,Tafalla
Navarra_Media_Oriental,15/01/2015,8.1,10.9,5.5,0.0,Tafalla
Navarra_Media_Oriental,16/01/2015,5.6,8.9,1.8,3.2,Tafalla
Navarra_Media_Oriental,17/01/2015,3.2,8.2,-1.0,0.9,Tafalla
Navarra_Media_Oriental,18/01/2015,2.2,4.5,-1.0,1.0,Tafalla
Navarra_Media_Oriental,19/01/2015,2.6,6.4,-0.1,2.4,Tafalla
Navarra_Media_Oriental,20/01/2015,1.1,3.6,-1.0,0.0,Tafalla
Navarra_Media_Oriental,21/01/2015,2.5,5.9,0.4,0.6,Tafalla
Navarra_Media_Oriental,22/01/2015,2.7,6.6,-1.0,0.5,Tafalla
Navarra_Media_Oriental,23/01/2015,3.9,6.8,1.3,0.1,Tafalla
Navarra_Media_Oriental,24/01/2015,4.5,8.2,0.3,0.0,Tafalla
Navarra_Media_Oriental,25/01/2015,3.6,6.7,1.9,0.0,Tafalla
Navarra_Media_Oriental,26/01/2015,4.8,7.4,2.1,0.0,Tafalla
Navarra_Media_Oriental,27/01/2015,6.3,9.9,3.2,0.2,Tafalla
Navarra_Media_Oriental,28/01/2015,6.8,9.5,4.3,0.0,Tafalla
Navarra_Media_Oriental,29/01/2015,8.7,12.4,3.4,0.0,Tafalla
Navarra_Media_Oriental,30/01/2015,6.3,11.8,4.0,32.2,Tafalla
Navarra_Media_Oriental,31/01/2015,3.0,5.9,0.1,16.8,Tafalla
Navarra_Media_Oriental,01/02/2015,0.8,2.9,-0.4,14.9,Tafalla
Navarra_Media_Oriental,02/02/2015,3.2,5.8,0.4,0.5,Tafalla
Navarra_Media_Oriental,03/02/2015,2.3,5.4,-0.7,2.9,Tafalla
Navarra_Media_Oriental,04/02/2015,-0.5,0.8,-2.1,0.7,Tafalla
Navarra_Media_Oriental,05/02/2015,-0.4,2.3,-2.3,0.0,Tafalla
Navarra_Media_Oriental,06/02/2015,-1.7,0.0,-3.1,0.0,Tafalla
Navarra_Media_Oriental,07/02/2015,0.1,3.8,-2.8,0.0,Tafalla
Navarra_Media_Oriental,08/02/2015,1.5,3.7,-2.5,0.0,Tafalla
Navarra_Media_Oriental,09/02/2015,2.7,7.7,-1.0,0.0,Tafalla
Navarra_Media_Oriental,10/02/2015,2.4,9.8,-3.5,0.0,Tafalla
Navarra_Media_Oriental,11/02/2015,3.2,8.5,-2.3,0.1,Tafalla
Navarra_Media_Oriental,12/02/2015,5.7,10.3,2.7,1.0,Tafalla
Navarra_Media_Oriental,13/02/2015,6.5,12.7,1.0,0.0,Tafalla
Navarra_Media_Oriental,14/02/2015,6.0,8.1,2.6,6.7,Tafalla
Navarra_Media_Oriental,15/02/2015,7.4,11.4,5.3,4.4,Tafalla
Navarra_Media_Oriental,16/02/2015,7.0,10.6,4.5,1.9,Tafalla
Navarra_Media_Oriental,17/02/2015,5.9,8.2,4.3,0.1,Tafalla
Navarra_Media_Oriental,18/02/2015,4.9,8.0,0.6,0.0,Tafalla
Navarra_Media_Oriental,19/02/2015,4.4,11.8,-1.7,0.0,Tafalla
Navarra_Media_Oriental,20/02/2015,5.2,10.7,-0.7,2.2,Tafalla
Navarra_Media_Oriental,21/02/2015,4.9,7.5,2.5,8.4,Tafalla
Navarra_Media_Oriental,22/02/2015,5.1,8.4,2.4,2.4,Tafalla
Navarra_Media_Oriental,23/02/2015,8.0,13.3,4.6,3.6,Tafalla
Navarra_Media_Oriental,24/02/2015,3.4,5.6,1.4,17.7,Tafalla
Navarra_Media_Oriental,25/02/2015,7.1,10.5,2.9,7.8,Tafalla
Navarra_Media_Oriental,26/02/2015,10.1,12.8,8.1,0.2,Tafalla
Navarra_Media_Oriental,27/02/2015,6.0,9.4,3.0,0.8,Tafalla
Navarra_Media_Oriental,28/02/2015,7.5,12.2,1.2,0.0,Tafalla
Navarra_Media_Oriental,01/03/2015,12.7,17.1,9.2,0.2,Tafalla
Navarra_Media_Oriental,02/03/2015,12.7,16.2,9.7,0.4,Tafalla
Navarra_Media_Oriental,03/03/2015,12.1,18.7,8.4,0.0,Tafalla
Navarra_Media_Oriental,04/03/2015,6.4,10.1,3.1,0.1,Tafalla
Navarra_Media_Oriental,05/03/2015,5.5,9.1,2.1,0.0,Tafalla
Navarra_Media_Oriental,06/03/2015,8.4,16.5,0.5,0.0,Tafalla
Navarra_Media_Oriental,07/03/2015,11.8,21.0,2.8,0.0,Tafalla
Navarra_Media_Oriental,08/03/2015,13.0,18.7,5.7,0.0,Tafalla
Navarra_Media_Oriental,09/03/2015,13.1,21.2,5.4,0.0,Tafalla
Navarra_Media_Oriental,10/03/2015,13.4,21.2,4.6,0.0,Tafalla
Navarra_Media_Oriental,11/03/2015,11.9,21.2,4.9,0.0,Tafalla
Navarra_Media_Oriental,12/03/2015,11.3,21.3,3.7,0.0,Tafalla
Navarra_Media_Oriental,13/03/2015,8.2,11.1,3.5,0.0,Tafalla
Navarra_Media_Oriental,14/03/2015,3.9,6.4,1.1,2.0,Tafalla
Navarra_Media_Oriental,15/03/2015,4.9,8.6,3.3,0.3,Tafalla
Navarra_Media_Oriental,16/03/2015,6.5,11.3,2.6,0.0,Tafalla
Navarra_Media_Oriental,17/03/2015,8.5,14.1,1.5,0.0,Tafalla
Navarra_Media_Oriental,18/03/2015,9.2,12.7,7.1,3.4,Tafalla
Navarra_Media_Oriental,19/03/2015,10.6,16.0,7.2,7.7,Tafalla
Navarra_Media_Oriental,20/03/2015,8.3,12.1,5.4,3.4,Tafalla
Navarra_Media_Oriental,21/03/2015,6.9,10.1,4.6,7.2,Tafalla
Navarra_Media_Oriental,22/03/2015,6.6,8.8,3.3,4.6,Tafalla
Navarra_Media_Oriental,23/03/2015,4.5,9.1,1.7,24.1,Tafalla
Navarra_Media_Oriental,24/03/2015,7.1,9.8,3.9,1.5,Tafalla
Navarra_Media_Oriental,25/03/2015,4.3,7.7,0.7,0.8,Tafalla
Navarra_Media_Oriental,26/03/2015,7.4,10.9,3.2,0.3,Tafalla
Navarra_Media_Oriental,27/03/2015,11.2,14.9,7.3,0.0,Tafalla
Navarra_Media_Oriental,28/03/2015,12.3,16.9,6.7,0.0,Tafalla
Navarra_Media_Oriental,29/03/2015,12.6,18.8,6.3,0.0,Tafalla
Navarra_Media_Oriental,30/03/2015,13.0,16.2,9.1,0.0,Tafalla
Navarra_Media_Oriental,31/03/2015,12.4,16.7,8.0,0.0,Tafalla
Navarra_Media_Oriental,01/04/2015,9.4,12.1,5.4,0.0,Tafalla
Navarra_Media_Oriental,02/04/2015,11.3,18.7,4.0,0.0,Tafalla
Navarra_Media_Oriental,03/04/2015,12.3,20.2,4.5,0.0,Tafalla
Navarra_Media_Oriental,04/04/2015,9.5,12.5,6.9,0.0,Tafalla
Navarra_Media_Oriental,05/04/2015,10.1,14.4,5.9,0.0,Tafalla
Navarra_Media_Oriental,06/04/2015,11.2,18.9,4.7,0.0,Tafalla
Navarra_Media_Oriental,07/04/2015,11.7,17.2,4.5,0.0,Tafalla
Navarra_Media_Oriental,08/04/2015,10.6,16.2,3.6,0.0,Tafalla
Navarra_Media_Oriental,09/04/2015,10.7,16.2,5.4,0.0,Tafalla
Navarra_Media_Oriental,10/04/2015,12.4,18.0,7.3,0.0,Tafalla
Navarra_Media_Oriental,11/04/2015,13.1,18.5,7.6,0.0,Tafalla
Navarra_Media_Oriental,12/04/2015,14.3,21.2,6.7,0.0,Tafalla
Navarra_Media_Oriental,13/04/2015,15.3,22.7,6.0,0.0,Tafalla
Navarra_Media_Oriental,14/04/2015,16.9,24.7,7.6,0.0,Tafalla
Navarra_Media_Oriental,15/04/2015,13.3,16.7,9.1,0.0,Tafalla
Navarra_Media_Oriental,16/04/2015,11.9,17.7,8.2,18.4,Tafalla
Navarra_Media_Oriental,17/04/2015,13.3,18.6,7.9,0.5,Tafalla
Navarra_Media_Oriental,18/04/2015,13.1,18.7,9.4,5.1,Tafalla
Navarra_Media_Oriental,19/04/2015,11.0,15.6,6.0,0.0,Tafalla
Navarra_Media_Oriental,20/04/2015,12.4,19.7,4.2,0.0,Tafalla
Navarra_Media_Oriental,21/04/2015,15.0,21.2,7.5,0.0,Tafalla
Navarra_Media_Oriental,22/04/2015,13.7,18.6,9.9,0.0,Tafalla
Navarra_Media_Oriental,23/04/2015,14.0,20.3,7.9,0.0,Tafalla
Navarra_Media_Oriental,24/04/2015,15.1,21.5,8.1,0.0,Tafalla
Navarra_Media_Oriental,25/04/2015,16.2,20.7,10.8,0.0,Tafalla
Navarra_Media_Oriental,26/04/2015,12.4,16.4,9.2,9.8,Tafalla
Navarra_Media_Oriental,27/04/2015,11.1,14.9,8.4,0.1,Tafalla
Navarra_Media_Oriental,28/04/2015,10.0,14.4,4.8,0.0,Tafalla
Navarra_Media_Oriental,29/04/2015,11.8,17.4,6.4,0.0,Tafalla
Navarra_Media_Oriental,30/04/2015,14.1,21.8,5.5,0.0,Tafalla
Navarra_Media_Oriental,01/05/2015,16.2,19.5,12.9,0.1,Tafalla
Navarra_Media_Oriental,02/05/2015,18.4,24.0,12.4,0.0,Tafalla
Navarra_Media_Oriental,03/05/2015,18.2,21.3,15.8,1.7,Tafalla
Navarra_Media_Oriental,04/05/2015,19.2,24.5,15.0,0.2,Tafalla
Navarra_Media_Oriental,05/05/2015,16.4,21.8,11.6,0.0,Tafalla
Navarra_Media_Oriental,06/05/2015,13.7,20.5,6.6,0.0,Tafalla
Navarra_Media_Oriental,07/05/2015,16.9,25.1,8.3,0.0,Tafalla
Navarra_Media_Oriental,08/05/2015,17.8,23.6,11.3,0.0,Tafalla
Navarra_Media_Oriental,09/05/2015,16.9,23.5,9.7,0.0,Tafalla
Navarra_Media_Oriental,10/05/2015,20.5,29.0,10.1,0.0,Tafalla
Navarra_Media_Oriental,11/05/2015,22.5,30.2,13.1,0.0,Tafalla
Navarra_Media_Oriental,12/05/2015,22.6,31.6,13.6,0.0,Tafalla
Navarra_Media_Oriental,13/05/2015,23.8,32.1,15.7,0.0,Tafalla
Navarra_Media_Oriental,14/05/2015,16.8,24.1,9.3,0.0,Tafalla
Navarra_Media_Oriental,15/05/2015,10.9,13.3,9.1,0.2,Tafalla
Navarra_Media_Oriental,16/05/2015,12.5,15.4,9.6,0.0,Tafalla
Navarra_Media_Oriental,17/05/2015,15.3,19.7,10.6,0.0,Tafalla
Navarra_Media_Oriental,18/05/2015,15.3,26.8,7.0,0.0,Tafalla
Navarra_Media_Oriental,19/05/2015,11.5,15.2,9.2,0.0,Tafalla
Navarra_Media_Oriental,20/05/2015,10.5,14.1,7.4,0.0,Tafalla
Navarra_Media_Oriental,21/05/2015,10.7,14.6,7.3,0.0,Tafalla
Navarra_Media_Oriental,22/05/2015,11.7,16.7,6.9,0.0,Tafalla
Navarra_Media_Oriental,23/05/2015,12.6,16.3,9.6,0.0,Tafalla
Navarra_Media_Oriental,24/05/2015,15.4,19.9,10.5,0.0,Tafalla
Navarra_Media_Oriental,25/05/2015,14.7,17.7,12.6,0.0,Tafalla
Navarra_Media_Oriental,26/05/2015,13.3,17.6,9.5,0.0,Tafalla
Navarra_Media_Oriental,27/05/2015,16.1,21.9,11.6,0.0,Tafalla
Navarra_Media_Oriental,28/05/2015,17.2,27.0,7.2,0.0,Tafalla
Navarra_Media_Oriental,29/05/2015,16.0,22.0,11.4,0.0,Tafalla
Navarra_Media_Oriental,30/05/2015,16.3,23.7,7.6,0.0,Tafalla
Navarra_Media_Oriental,31/05/2015,19.1,28.2,9.9,0.0,Tafalla
Navarra_Media_Oriental,01/06/2015,19.8,29.4,12.8,0.0,Tafalla
Navarra_Media_Oriental,02/06/2015,22.1,30.7,13.0,0.0,Tafalla
Navarra_Media_Oriental,03/06/2015,24.6,32.5,15.9,0.0,Tafalla
Navarra_Media_Oriental,04/06/2015,25.4,32.7,15.9,0.0,Tafalla
Navarra_Media_Oriental,05/06/2015,23.6,31.7,15.2,0.0,Tafalla
Navarra_Media_Oriental,06/06/2015,21.1,30.5,15.3,0.0,Tafalla
Navarra_Media_Oriental,07/06/2015,22.5,32.4,12.8,0.0,Tafalla
Navarra_Media_Oriental,08/06/2015,23.1,30.7,16.2,0.0,Tafalla
Navarra_Media_Oriental,09/06/2015,19.0,24.6,14.4,0.0,Tafalla
Navarra_Media_Oriental,10/06/2015,14.9,18.3,12.7,18.2,Tafalla
Navarra_Media_Oriental,11/06/2015,15.9,19.7,13.2,72.0,Tafalla
Navarra_Media_Oriental,12/06/2015,17.4,24.9,11.3,0.4,Tafalla
Navarra_Media_Oriental,13/06/2015,16.3,23.2,13.1,13.6,Tafalla
Navarra_Media_Oriental,14/06/2015,16.5,22.9,11.5,0.1,Tafalla
Navarra_Media_Oriental,15/06/2015,16.4,21.8,11.9,0.0,Tafalla
Navarra_Media_Oriental,16/06/2015,15.2,18.8,11.6,0.0,Tafalla
Navarra_Media_Oriental,17/06/2015,16.1,20.8,10.7,0.0,Tafalla
Navarra_Media_Oriental,18/06/2015,17.5,22.4,12.9,0.0,Tafalla
Navarra_Media_Oriental,19/06/2015,17.3,22.4,13.3,0.0,Tafalla
Navarra_Media_Oriental,20/06/2015,19.2,25.7,12.7,0.0,Tafalla
Navarra_Media_Oriental,21/06/2015,21.5,29.5,13.0,0.0,Tafalla
Navarra_Media_Oriental,22/06/2015,22.7,31.9,14.0,4.7,Tafalla
Navarra_Media_Oriental,23/06/2015,19.6,24.5,14.6,0.3,Tafalla
Navarra_Media_Oriental,24/06/2015,20.2,27.4,13.2,0.0,Tafalla
Navarra_Media_Oriental,25/06/2015,23.2,31.4,13.3,0.0,Tafalla
Navarra_Media_Oriental,26/06/2015,24.6,34.2,16.4,0.0,Tafalla
Navarra_Media_Oriental,27/06/2015,23.4,31.1,15.5,0.0,Tafalla
Navarra_Media_Oriental,28/06/2015,24.0,33.3,16.3,0.0,Tafalla
Navarra_Media_Oriental,29/06/2015,26.5,36.1,16.5,0.0,Tafalla
Navarra_Media_Oriental,30/06/2015,29.3,37.7,21.2,0.3,Tafalla
Navarra_Media_Oriental,01/07/2015,29.8,36.4,21.9,0.0,Tafalla
Navarra_Media_Oriental,02/07/2015,27.6,33.5,23.0,0.0,Tafalla
Navarra_Media_Oriental,03/07/2015,28.2,35.2,20.8,0.0,Tafalla
Navarra_Media_Oriental,04/07/2015,28.7,35.7,21.5,0.0,Tafalla
Navarra_Media_Oriental,05/07/2015,24.2,33.5,18.3,0.0,Tafalla
Navarra_Media_Oriental,06/07/2015,26.8,37.1,15.5,0.0,Tafalla
Navarra_Media_Oriental,07/07/2015,26.1,35.6,19.0,0.0,Tafalla
Navarra_Media_Oriental,08/07/2015,19.2,22.1,15.0,0.0,Tafalla
Navarra_Media_Oriental,09/07/2015,19.7,25.9,14.7,0.0,Tafalla
Navarra_Media_Oriental,10/07/2015,23.7,36.3,13.8,0.0,Tafalla
Navarra_Media_Oriental,11/07/2015,20.6,25.6,17.5,0.0,Tafalla
Navarra_Media_Oriental,12/07/2015,21.2,28.5,16.1,0.0,Tafalla
Navarra_Media_Oriental,13/07/2015,22.5,31.2,15.7,0.0,Tafalla
Navarra_Media_Oriental,14/07/2015,24.6,34.3,16.7,0.0,Tafalla
Navarra_Media_Oriental,15/07/2015,27.0,36.5,17.4,0.0,Tafalla
Navarra_Media_Oriental,16/07/2015,26.1,33.9,20.1,4.5,Tafalla
Navarra_Media_Oriental,17/07/2015,25.1,34.4,18.7,1.9,Tafalla
Navarra_Media_Oriental,18/07/2015,24.6,33.6,18.7,3.7,Tafalla
Navarra_Media_Oriental,19/07/2015,24.7,32.0,18.1,0.0,Tafalla
Navarra_Media_Oriental,20/07/2015,27.1,35.3,19.0,0.0,Tafalla
Navarra_Media_Oriental,21/07/2015,25.9,35.3,19.1,2.1,Tafalla
Navarra_Media_Oriental,22/07/2015,22.0,28.2,17.6,0.0,Tafalla
Navarra_Media_Oriental,23/07/2015,24.5,33.3,17.5,0.0,Tafalla
Navarra_Media_Oriental,24/07/2015,23.3,32.1,17.5,0.0,Tafalla
Navarra_Media_Oriental,25/07/2015,18.5,22.0,15.0,0.0,Tafalla
Navarra_Media_Oriental,26/07/2015,21.2,31.7,10.9,0.0,Tafalla
Navarra_Media_Oriental,27/07/2015,20.7,25.2,16.8,0.0,Tafalla
Navarra_Media_Oriental,28/07/2015,22.0,30.7,13.7,0.0,Tafalla
Navarra_Media_Oriental,29/07/2015,21.3,28.4,15.7,0.0,Tafalla
Navarra_Media_Oriental,30/07/2015,15.3,18.7,12.5,9.0,Tafalla
Navarra_Media_Oriental,31/07/2015,16.6,20.8,13.8,5.1,Tafalla
Navarra_Media_Oriental,01/08/2015,18.0,23.0,12.5,0.0,Tafalla
Navarra_Media_Oriental,02/08/2015,23.1,31.3,13.1,0.0,Tafalla
Navarra_Media_Oriental,03/08/2015,25.4,32.7,18.6,5.4,Tafalla
Navarra_Media_Oriental,04/08/2015,22.0,27.2,18.1,0.0,Tafalla
Navarra_Media_Oriental,05/08/2015,25.2,34.5,18.2,0.0,Tafalla
Navarra_Media_Oriental,06/08/2015,26.2,35.9,16.4,0.0,Tafalla
Navarra_Media_Oriental,07/08/2015,22.4,27.6,17.6,0.0,Tafalla
Navarra_Media_Oriental,08/08/2015,16.9,19.7,13.5,1.4,Tafalla
Navarra_Media_Oriental,09/08/2015,17.4,22.5,11.6,0.0,Tafalla
Navarra_Media_Oriental,10/08/2015,22.0,31.1,13.3,0.0,Tafalla
Navarra_Media_Oriental,11/08/2015,25.3,34.3,16.3,0.0,Tafalla
Navarra_Media_Oriental,12/08/2015,26.7,34.4,19.8,0.0,Tafalla
Navarra_Media_Oriental,13/08/2015,21.3,26.1,17.2,10.2,Tafalla
Navarra_Media_Oriental,14/08/2015,17.5,22.3,15.2,0.0,Tafalla
Navarra_Media_Oriental,15/08/2015,17.5,22.5,12.3,0.0,Tafalla
Navarra_Media_Oriental,16/08/2015,19.0,27.0,9.4,0.1,Tafalla
Navarra_Media_Oriental,17/08/2015,19.3,24.4,15.5,0.9,Tafalla
Navarra_Media_Oriental,18/08/2015,18.5,24.4,13.6,0.0,Tafalla
Navarra_Media_Oriental,19/08/2015,19.6,27.2,11.3,0.0,Tafalla
Navarra_Media_Oriental,20/08/2015,22.4,33.2,12.6,0.0,Tafalla
Navarra_Media_Oriental,21/08/2015,25.2,33.1,16.6,0.0,Tafalla
Navarra_Media_Oriental,22/08/2015,24.0,30.4,18.8,0.7,Tafalla
Navarra_Media_Oriental,23/08/2015,21.9,28.0,18.0,0.0,Tafalla
Navarra_Media_Oriental,24/08/2015,18.5,23.2,14.3,0.1,Tafalla
Navarra_Media_Oriental,25/08/2015,19.9,27.8,10.8,0.0,Tafalla
Navarra_Media_Oriental,26/08/2015,24.8,31.9,16.8,0.0,Tafalla
Navarra_Media_Oriental,27/08/2015,26.0,34.6,19.8,0.0,Tafalla
Navarra_Media_Oriental,28/08/2015,26.4,33.7,18.7,0.0,Tafalla
Navarra_Media_Oriental,29/08/2015,27.3,33.6,20.2,0.0,Tafalla
Navarra_Media_Oriental,30/08/2015,26.0,32.4,19.7,1.3,Tafalla
Navarra_Media_Oriental,31/08/2015,20.8,30.1,15.8,7.9,Tafalla
Navarra_Media_Oriental,01/09/2015,18.2,21.8,14.5,0.1,Tafalla
Navarra_Media_Oriental,02/09/2015,17.6,23.9,12.8,8.7,Tafalla
Navarra_Media_Oriental,03/09/2015,16.6,20.6,13.4,0.2,Tafalla
Navarra_Media_Oriental,04/09/2015,15.1,19.8,11.2,0.2,Tafalla
Navarra_Media_Oriental,05/09/2015,14.8,19.9,9.7,0.0,Tafalla
Navarra_Media_Oriental,06/09/2015,15.8,22.4,8.8,0.0,Tafalla
Navarra_Media_Oriental,07/09/2015,15.9,22.5,9.4,0.0,Tafalla
Navarra_Media_Oriental,08/09/2015,16.3,23.8,8.6,0.0,Tafalla
Navarra_Media_Oriental,09/09/2015,19.5,26.0,12.2,0.0,Tafalla
Navarra_Media_Oriental,10/09/2015,19.6,25.3,16.0,0.1,Tafalla
Navarra_Media_Oriental,11/09/2015,20.8,26.8,15.4,0.0,Tafalla
Navarra_Media_Oriental,12/09/2015,21.4,25.0,18.3,3.2,Tafalla
Navarra_Media_Oriental,13/09/2015,18.7,21.6,14.7,0.0,Tafalla
Navarra_Media_Oriental,14/09/2015,17.3,22.1,13.1,0.0,Tafalla
Navarra_Media_Oriental,15/09/2015,16.0,19.2,13.5,2.1,Tafalla
Navarra_Media_Oriental,16/09/2015,20.1,26.1,15.9,0.1,Tafalla
Navarra_Media_Oriental,17/09/2015,14.7,19.3,10.0,0.0,Tafalla
Navarra_Media_Oriental,18/09/2015,14.2,21.6,6.7,0.0,Tafalla
Navarra_Media_Oriental,19/09/2015,15.7,22.4,9.2,0.0,Tafalla
Navarra_Media_Oriental,20/09/2015,17.0,25.2,9.3,0.0,Tafalla
Navarra_Media_Oriental,21/09/2015,17.6,26.3,9.2,0.0,Tafalla
Navarra_Media_Oriental,22/09/2015,16.5,20.9,12.2,0.0,Tafalla
Navarra_Media_Oriental,23/09/2015,14.0,17.4,11.7,0.2,Tafalla
Navarra_Media_Oriental,24/09/2015,17.0,24.0,11.5,0.0,Tafalla
Navarra_Media_Oriental,25/09/2015,19.3,27.0,11.4,0.0,Tafalla
Navarra_Media_Oriental,26/09/2015,18.3,25.8,12.2,0.0,Tafalla
Navarra_Media_Oriental,27/09/2015,16.3,23.3,11.0,0.0,Tafalla
Navarra_Media_Oriental,28/09/2015,16.1,23.3,9.0,0.0,Tafalla
Navarra_Media_Oriental,29/09/2015,16.2,23.2,10.6,21.6,Tafalla
Navarra_Media_Oriental,30/09/2015,16.5,21.9,12.6,0.0,Tafalla
Navarra_Media_Oriental,01/10/2015,16.2,23.9,10.5,0.0,Tafalla
Navarra_Media_Oriental,02/10/2015,13.6,17.4,10.0,0.0,Tafalla
Navarra_Media_Oriental,03/10/2015,13.5,19.9,7.1,0.0,Tafalla
Navarra_Media_Oriental,04/10/2015,14.4,19.0,10.2,2.3,Tafalla
Navarra_Media_Oriental,05/10/2015,20.8,25.2,17.4,0.7,Tafalla
Navarra_Media_Oriental,06/10/2015,17.6,22.3,13.1,2.0,Tafalla
Navarra_Media_Oriental,07/10/2015,13.7,16.9,11.1,0.1,Tafalla
Navarra_Media_Oriental,08/10/2015,13.4,18.8,8.9,0.0,Tafalla
Navarra_Media_Oriental,09/10/2015,13.3,21.4,6.5,0.0,Tafalla
Navarra_Media_Oriental,10/10/2015,15.2,23.0,8.3,0.0,Tafalla
Navarra_Media_Oriental,11/10/2015,15.7,17.4,12.4,0.1,Tafalla
Navarra_Media_Oriental,12/10/2015,15.9,22.5,12.3,23.7,Tafalla
Navarra_Media_Oriental,13/10/2015,11.9,15.0,10.0,0.2,Tafalla
Navarra_Media_Oriental,14/10/2015,9.3,12.8,6.5,0.0,Tafalla
Navarra_Media_Oriental,15/10/2015,9.1,15.0,3.9,0.0,Tafalla
Navarra_Media_Oriental,16/10/2015,9.2,15.5,3.1,0.0,Tafalla
Navarra_Media_Oriental,17/10/2015,12.1,18.5,4.7,2.8,Tafalla
Navarra_Media_Oriental,18/10/2015,15.7,20.6,13.0,0.4,Tafalla
Navarra_Media_Oriental,19/10/2015,15.6,18.0,14.5,4.8,Tafalla
Navarra_Media_Oriental,20/10/2015,12.6,14.9,10.7,0.3,Tafalla
Navarra_Media_Oriental,21/10/2015,10.5,13.0,8.1,0.0,Tafalla
Navarra_Media_Oriental,22/10/2015,11.5,13.7,7.6,0.0,Tafalla
Navarra_Media_Oriental,23/10/2015,13.6,19.0,8.0,0.0,Tafalla
Navarra_Media_Oriental,24/10/2015,15.0,19.0,11.3,0.0,Tafalla
Navarra_Media_Oriental,25/10/2015,15.8,20.2,12.8,0.0,Tafalla
Navarra_Media_Oriental,26/10/2015,15.7,19.6,12.2,0.0,Tafalla
Navarra_Media_Oriental,27/10/2015,14.0,19.2,9.1,23.2,Tafalla
Navarra_Media_Oriental,28/10/2015,11.8,16.4,9.1,0.7,Tafalla
Navarra_Media_Oriental,29/10/2015,14.0,19.8,10.6,0.0,Tafalla
Navarra_Media_Oriental,30/10/2015,14.8,20.7,9.1,0.0,Tafalla
Navarra_Media_Oriental,31/10/2015,14.3,18.6,12.0,0.0,Tafalla
Navarra_Media_Oriental,01/11/2015,13.3,17.0,9.2,0.0,Tafalla
Navarra_Media_Oriental,02/11/2015,13.1,16.3,11.0,21.6,Tafalla
Navarra_Media_Oriental,03/11/2015,12.2,14.4,10.0,7.7,Tafalla
Navarra_Media_Oriental,04/11/2015,13.4,17.1,8.4,0.0,Tafalla
Navarra_Media_Oriental,05/11/2015,13.2,16.8,9.4,0.0,Tafalla
Navarra_Media_Oriental,06/11/2015,14.6,20.7,10.4,0.0,Tafalla
Navarra_Media_Oriental,07/11/2015,14.4,20.1,10.0,0.0,Tafalla
Navarra_Media_Oriental,08/11/2015,14.2,20.8,9.6,0.1,Tafalla
Navarra_Media_Oriental,09/11/2015,14.0,20.6,10.8,0.1,Tafalla
Navarra_Media_Oriental,10/11/2015,12.1,15.1,10.6,0.0,Tafalla
Navarra_Media_Oriental,11/11/2015,10.1,11.5,9.0,0.2,Tafalla
Navarra_Media_Oriental,12/11/2015,9.1,10.1,8.1,0.1,Tafalla
Navarra_Media_Oriental,13/11/2015,11.5,16.5,6.2,0.0,Tafalla
Navarra_Media_Oriental,14/11/2015,11.4,16.9,7.4,0.0,Tafalla
Navarra_Media_Oriental,15/11/2015,8.0,9.9,5.4,0.2,Tafalla
Navarra_Media_Oriental,16/11/2015,6.9,14.5,3.3,0.1,Tafalla
Navarra_Media_Oriental,17/11/2015,8.4,15.8,2.0,0.0,Tafalla
Navarra_Media_Oriental,18/11/2015,11.9,18.9,6.8,0.0,Tafalla
Navarra_Media_Oriental,19/11/2015,13.5,18.9,9.2,0.0,Tafalla
Navarra_Media_Oriental,20/11/2015,11.6,15.1,6.0,0.0,Tafalla
Navarra_Media_Oriental,21/11/2015,8.2,14.9,3.5,11.6,Tafalla
Navarra_Media_Oriental,22/11/2015,4.1,6.8,2.2,7.6,Tafalla
Navarra_Media_Oriental,23/11/2015,3.1,7.3,0.5,0.1,Tafalla
Navarra_Media_Oriental,24/11/2015,5.9,8.2,2.5,0.1,Tafalla
Navarra_Media_Oriental,25/11/2015,10.3,13.2,7.5,2.8,Tafalla
Navarra_Media_Oriental,26/11/2015,10.9,12.6,8.7,0.0,Tafalla
Navarra_Media_Oriental,27/11/2015,9.4,11.5,7.9,0.0,Tafalla
Navarra_Media_Oriental,28/11/2015,8.6,10.5,5.4,0.0,Tafalla
Navarra_Media_Oriental,29/11/2015,7.5,12.1,3.8,0.0,Tafalla
Navarra_Media_Oriental,30/11/2015,5.8,13.2,1.2,0.0,Tafalla
Navarra_Media_Oriental,01/12/2015,4.1,10.7,-0.9,0.0,Tafalla
Navarra_Media_Oriental,02/12/2015,5.6,11.7,0.6,0.0,Tafalla
Navarra_Media_Oriental,03/12/2015,5.6,11.4,1.8,0.0,Tafalla
Navarra_Media_Oriental,04/12/2015,8.7,15.1,2.5,0.0,Tafalla
Navarra_Media_Oriental,05/12/2015,8.0,13.3,4.6,0.0,Tafalla
Navarra_Media_Oriental,06/12/2015,8.4,11.5,4.9,0.0,Tafalla
Navarra_Media_Oriental,07/12/2015,9.5,12.8,8.0,0.0,Tafalla
Navarra_Media_Oriental,08/12/2015,9.4,11.3,7.2,0.0,Tafalla
Navarra_Media_Oriental,09/12/2015,9.7,15.5,5.6,0.0,Tafalla
Navarra_Media_Oriental,10/12/2015,5.6,6.4,3.1,0.1,Tafalla
Navarra_Media_Oriental,11/12/2015,5.4,6.3,4.7,0.0,Tafalla
Navarra_Media_Oriental,12/12/2015,4.4,5.2,3.3,0.1,Tafalla
Navarra_Media_Oriental,13/12/2015,4.3,5.0,3.1,0.0,Tafalla
Navarra_Media_Oriental,14/12/2015,4.0,7.2,2.3,0.0,Tafalla
Navarra_Media_Oriental,15/12/2015,6.1,9.7,3.6,0.0,Tafalla
Navarra_Media_Oriental,16/12/2015,8.4,15.0,4.3,0.0,Tafalla
Navarra_Media_Oriental,17/12/2015,7.4,11.9,3.3,0.0,Tafalla
Navarra_Media_Oriental,18/12/2015,8.1,15.6,3.8,0.0,Tafalla
Navarra_Media_Oriental,19/12/2015,8.3,13.7,4.1,0.0,Tafalla
Navarra_Media_Oriental,20/12/2015,7.9,10.2,5.0,0.0,Tafalla
Navarra_Media_Oriental,21/12/2015,8.0,12.9,3.4,0.0,Tafalla
Navarra_Media_Oriental,22/12/2015,4.3,6.7,1.1,0.0,Tafalla
Navarra_Media_Oriental,23/12/2015,3.5,4.8,1.1,0.2,Tafalla
Navarra_Media_Oriental,24/12/2015,5.8,7.3,4.3,0.2,Tafalla
Navarra_Media_Oriental,25/12/2015,5.9,6.5,4.5,0.2,Tafalla
Navarra_Media_Oriental,26/12/2015,3.8,5.3,2.3,0.0,Tafalla
Navarra_Media_Oriental,27/12/2015,3.1,5.6,1.8,0.1,Tafalla
Navarra_Media_Oriental,28/12/2015,9.6,12.7,5.7,0.0,Tafalla
Navarra_Media_Oriental,29/12/2015,8.7,12.6,5.9,0.7,Tafalla
Navarra_Media_Oriental,30/12/2015,6.7,10.9,2.6,0.0,Tafalla
Navarra_Media_Oriental,31/12/2015,8.3,11.0,3.4,1.2,Tafalla
