Comarca,Fecha, Temperatura media, Temperatura maxima, Temperatura minima, Precipitacion acumulada,Localidad
Navarra_Media_Oriental,01/01/2016,6.4,8.9,3.2,5.2,Ujue
Navarra_Media_Oriental,02/01/2016,5.7,7.8,4.2,0.0,Ujue
Navarra_Media_Oriental,03/01/2016,3.7,6.2,2.2,9.5,Ujue
Navarra_Media_Oriental,04/01/2016,5.5,6.5,3.9,25.4,Ujue
Navarra_Media_Oriental,05/01/2016,3.3,5.8,1.3,2.3,Ujue
Navarra_Media_Oriental,06/01/2016,3.0,5.5,1.0,3.0,Ujue
Navarra_Media_Oriental,07/01/2016,9.7,12.6,2.0,0.0,Ujue
Navarra_Media_Oriental,08/01/2016,10.1,12.4,7.4,2.2,Ujue
Navarra_Media_Oriental,09/01/2016,8.7,12.3,7.1,0.2,Ujue
Navarra_Media_Oriental,10/01/2016,9.6,12.0,7.7,0.0,Ujue
Navarra_Media_Oriental,11/01/2016,6.7,10.5,3.9,3.5,Ujue
Navarra_Media_Oriental,12/01/2016,3.3,7.5,1.2,1.1,Ujue
Navarra_Media_Oriental,13/01/2016,3.0,4.5,1.3,0.3,Ujue
Navarra_Media_Oriental,14/01/2016,4.3,6.3,2.6,4.4,Ujue
Navarra_Media_Oriental,15/01/2016,1.2,3.5,-1.2,5.2,Ujue
Navarra_Media_Oriental,16/01/2016,-1.0,0.4,-2.4,6.5,Ujue
Navarra_Media_Oriental,17/01/2016,2.6,6.2,-0.8,0.0,Ujue
Navarra_Media_Oriental,18/01/2016,2.8,6.2,1.0,1.1,Ujue
Navarra_Media_Oriental,19/01/2016,4.0,7.9,1.8,0.1,Ujue
Navarra_Media_Oriental,20/01/2016,4.3,9.0,0.9,0.0,Ujue
Navarra_Media_Oriental,21/01/2016,5.8,9.8,1.5,0.0,Ujue
Navarra_Media_Oriental,22/01/2016,7.5,11.0,4.6,0.0,Ujue
Navarra_Media_Oriental,23/01/2016,10.9,14.8,9.2,0.0,Ujue
Navarra_Media_Oriental,24/01/2016,9.5,12.9,6.3,0.0,Ujue
Navarra_Media_Oriental,25/01/2016,7.5,10.9,4.9,0.0,Ujue
Navarra_Media_Oriental,26/01/2016,5.8,6.3,5.2,0.6,Ujue
Navarra_Media_Oriental,27/01/2016,5.0,5.6,4.5,0.3,Ujue
Navarra_Media_Oriental,28/01/2016,4.9,5.9,4.1,2.2,Ujue
Navarra_Media_Oriental,29/01/2016,6.1,7.9,4.5,0.0,Ujue
Navarra_Media_Oriental,30/01/2016,5.0,7.7,2.6,0.0,Ujue
Navarra_Media_Oriental,31/01/2016,7.7,10.1,5.0,0.1,Ujue
Navarra_Media_Oriental,01/02/2016,9.4,12.2,7.5,0.0,Ujue
Navarra_Media_Oriental,02/02/2016,7.6,10.8,5.4,0.0,Ujue
Navarra_Media_Oriental,03/02/2016,4.7,7.2,1.3,0.3,Ujue
Navarra_Media_Oriental,04/02/2016,4.0,8.1,0.3,0.0,Ujue
Navarra_Media_Oriental,05/02/2016,5.6,9.5,2.7,0.0,Ujue
Navarra_Media_Oriental,06/02/2016,6.4,8.6,3.5,1.8,Ujue
Navarra_Media_Oriental,07/02/2016,4.0,6.7,1.0,1.2,Ujue
Navarra_Media_Oriental,08/02/2016,8.4,13.2,3.8,0.0,Ujue
Navarra_Media_Oriental,09/02/2016,8.1,11.7,3.7,2.4,Ujue
Navarra_Media_Oriental,10/02/2016,3.9,5.0,2.5,5.2,Ujue
Navarra_Media_Oriental,11/02/2016,5.4,7.5,4.0,5.0,Ujue
Navarra_Media_Oriental,12/02/2016,7.8,9.7,5.1,27.9,Ujue
Navarra_Media_Oriental,13/02/2016,10.1,13.9,8.4,7.9,Ujue
Navarra_Media_Oriental,14/02/2016,3.6,9.0,0.4,0.7,Ujue
Navarra_Media_Oriental,15/02/2016,0.4,2.6,-1.4,0.2,Ujue
Navarra_Media_Oriental,16/02/2016,-1.0,1.3,-2.3,0.0,Ujue
Navarra_Media_Oriental,17/02/2016,-0.1,4.4,-4.6,0.0,Ujue
Navarra_Media_Oriental,18/02/2016,1.1,4.2,-1.0,0.3,Ujue
Navarra_Media_Oriental,19/02/2016,2.8,6.6,-0.9,0.0,Ujue
Navarra_Media_Oriental,20/02/2016,6.4,13.1,1.0,0.0,Ujue
Navarra_Media_Oriental,21/02/2016,8.1,12.1,4.4,0.0,Ujue
Navarra_Media_Oriental,22/02/2016,9.3,12.7,6.2,0.0,Ujue
Navarra_Media_Oriental,23/02/2016,6.9,10.1,4.3,0.0,Ujue
Navarra_Media_Oriental,24/02/2016,7.7,11.9,4.7,0.8,Ujue
Navarra_Media_Oriental,25/02/2016,5.5,9.7,3.6,0.1,Ujue
Navarra_Media_Oriental,26/02/2016,4.7,9.4,2.5,6.9,Ujue
Navarra_Media_Oriental,27/02/2016,0.4,3.0,-1.2,11.3,Ujue
Navarra_Media_Oriental,28/02/2016,3.1,5.7,1.3,0.2,Ujue
Navarra_Media_Oriental,29/02/2016,2.1,4.0,0.8,0.0,Ujue
Navarra_Media_Oriental,01/03/2016,4.7,8.2,0.7,0.0,Ujue
Navarra_Media_Oriental,02/03/2016,6.4,11.1,2.4,0.8,Ujue
Navarra_Media_Oriental,03/03/2016,3.6,5.9,1.7,0.7,Ujue
Navarra_Media_Oriental,04/03/2016,5.7,12.3,1.0,2.6,Ujue
Navarra_Media_Oriental,05/03/2016,1.7,5.5,-0.6,0.0,Ujue
Navarra_Media_Oriental,06/03/2016,0.8,4.4,-0.9,0.4,Ujue
Navarra_Media_Oriental,07/03/2016,1.7,4.9,-0.4,1.8,Ujue
Navarra_Media_Oriental,08/03/2016,1.9,4.8,-1.4,0.0,Ujue
Navarra_Media_Oriental,09/03/2016,1.9,5.4,-1.0,11.0,Ujue
Navarra_Media_Oriental,10/03/2016,0.7,3.4,-1.4,10.5,Ujue
Navarra_Media_Oriental,11/03/2016,2.6,4.2,1.3,0.0,Ujue
Navarra_Media_Oriental,12/03/2016,2.8,7.1,0.9,0.0,Ujue
Navarra_Media_Oriental,13/03/2016,3.5,7.9,0.9,0.0,Ujue
Navarra_Media_Oriental,14/03/2016,-0.2,1.1,-1.0,11.7,Ujue
Navarra_Media_Oriental,15/03/2016,3.3,7.1,-0.2,0.0,Ujue
Navarra_Media_Oriental,16/03/2016,3.5,5.7,1.8,0.2,Ujue
Navarra_Media_Oriental,17/03/2016,3.5,9.4,0.2,0.0,Ujue
Navarra_Media_Oriental,18/03/2016,4.7,9.1,0.3,0.6,Ujue
Navarra_Media_Oriental,19/03/2016,5.1,6.3,4.2,23.1,Ujue
Navarra_Media_Oriental,20/03/2016,7.0,11.6,4.5,0.2,Ujue
Navarra_Media_Oriental,21/03/2016,7.6,12.5,4.1,0.0,Ujue
Navarra_Media_Oriental,22/03/2016,5.5,8.6,2.0,0.0,Ujue
Navarra_Media_Oriental,23/03/2016,4.5,7.6,1.1,0.0,Ujue
Navarra_Media_Oriental,24/03/2016,7.5,12.7,3.5,0.0,Ujue
Navarra_Media_Oriental,25/03/2016,8.2,10.2,5.9,0.0,Ujue
Navarra_Media_Oriental,26/03/2016,13.0,19.2,8.3,0.0,Ujue
Navarra_Media_Oriental,27/03/2016,8.4,13.1,4.1,2.9,Ujue
Navarra_Media_Oriental,28/03/2016,9.1,13.2,6.5,0.0,Ujue
Navarra_Media_Oriental,29/03/2016,11.3,16.0,7.6,0.0,Ujue
Navarra_Media_Oriental,30/03/2016,13.0,17.8,9.0,0.0,Ujue
Navarra_Media_Oriental,31/03/2016,5.9,11.7,1.7,1.5,Ujue
Navarra_Media_Oriental,01/04/2016,3.9,6.9,0.7,0.1,Ujue
Navarra_Media_Oriental,02/04/2016,7.7,12.4,1.8,0.0,Ujue
Navarra_Media_Oriental,03/04/2016,9.2,14.3,6.1,0.3,Ujue
Navarra_Media_Oriental,04/04/2016,5.8,6.7,4.6,11.0,Ujue
Navarra_Media_Oriental,05/04/2016,6.5,9.3,5.2,0.0,Ujue
Navarra_Media_Oriental,06/04/2016,6.9,11.1,4.2,0.0,Ujue
Navarra_Media_Oriental,07/04/2016,5.5,8.0,0.9,0.0,Ujue
Navarra_Media_Oriental,08/04/2016,2.7,6.3,-0.2,0.3,Ujue
Navarra_Media_Oriental,09/04/2016,7.2,13.4,1.8,0.0,Ujue
Navarra_Media_Oriental,10/04/2016,9.9,15.6,4.5,2.1,Ujue
Navarra_Media_Oriental,11/04/2016,7.6,12.3,2.9,0.1,Ujue
Navarra_Media_Oriental,12/04/2016,8.4,13.4,5.9,3.5,Ujue
Navarra_Media_Oriental,13/04/2016,10.1,14.6,5.9,0.3,Ujue
Navarra_Media_Oriental,14/04/2016,11.4,16.1,7.2,0.0,Ujue
Navarra_Media_Oriental,15/04/2016,14.3,20.5,9.8,0.0,Ujue
Navarra_Media_Oriental,16/04/2016,10.2,15.1,7.3,2.1,Ujue
Navarra_Media_Oriental,17/04/2016,10.1,16.3,6.5,0.2,Ujue
Navarra_Media_Oriental,18/04/2016,11.7,19.1,5.1,0.0,Ujue
Navarra_Media_Oriental,19/04/2016,11.4,13.6,7.2,0.0,Ujue
Navarra_Media_Oriental,20/04/2016,8.9,11.9,6.8,3.4,Ujue
Navarra_Media_Oriental,21/04/2016,11.2,16.1,7.5,7.7,Ujue
Navarra_Media_Oriental,22/04/2016,9.7,12.4,7.5,0.0,Ujue
Navarra_Media_Oriental,23/04/2016,9.4,14.2,6.2,0.0,Ujue
Navarra_Media_Oriental,24/04/2016,6.0,8.7,2.4,0.0,Ujue
Navarra_Media_Oriental,25/04/2016,6.6,11.3,2.3,0.0,Ujue
Navarra_Media_Oriental,26/04/2016,8.0,14.6,3.5,0.0,Ujue
Navarra_Media_Oriental,27/04/2016,7.8,14.2,3.8,0.3,Ujue
Navarra_Media_Oriental,28/04/2016,6.6,12.0,3.1,0.0,Ujue
Navarra_Media_Oriental,29/04/2016,9.2,14.8,2.7,0.0,Ujue
Navarra_Media_Oriental,30/04/2016,5.5,10.2,2.5,3.1,Ujue
Navarra_Media_Oriental,01/05/2016,4.8,9.4,1.4,0.0,Ujue
Navarra_Media_Oriental,02/05/2016,9.3,16.3,2.9,0.0,Ujue
Navarra_Media_Oriental,03/05/2016,10.9,16.2,5.4,0.0,Ujue
Navarra_Media_Oriental,04/05/2016,14.8,22.1,7.7,0.0,Ujue
Navarra_Media_Oriental,05/05/2016,15.9,20.9,10.8,0.0,Ujue
Navarra_Media_Oriental,06/05/2016,11.7,15.2,9.3,0.4,Ujue
Navarra_Media_Oriental,07/05/2016,10.4,14.7,8.1,5.2,Ujue
Navarra_Media_Oriental,08/05/2016,10.0,12.8,7.8,12.6,Ujue
Navarra_Media_Oriental,09/05/2016,10.8,14.9,7.8,3.3,Ujue
Navarra_Media_Oriental,10/05/2016,10.4,14.4,7.3,1.9,Ujue
Navarra_Media_Oriental,11/05/2016,11.7,16.7,8.4,0.1,Ujue
Navarra_Media_Oriental,12/05/2016,9.7,15.1,7.4,1.3,Ujue
Navarra_Media_Oriental,13/05/2016,9.2,12.6,6.4,0.0,Ujue
Navarra_Media_Oriental,14/05/2016,10.1,12.9,8.2,1.2,Ujue
Navarra_Media_Oriental,15/05/2016,10.3,13.2,7.7,0.0,Ujue
Navarra_Media_Oriental,16/05/2016,10.3,14.1,7.2,0.0,Ujue
Navarra_Media_Oriental,17/05/2016,13.3,21.3,6.5,0.0,Ujue
Navarra_Media_Oriental,18/05/2016,13.8,20.4,9.2,0.0,Ujue
Navarra_Media_Oriental,19/05/2016,10.6,14.5,8.1,0.0,Ujue
Navarra_Media_Oriental,20/05/2016,16.7,24.1,7.9,0.0,Ujue
Navarra_Media_Oriental,21/05/2016,18.6,24.4,14.6,0.0,Ujue
Navarra_Media_Oriental,22/05/2016,10.3,16.0,5.6,13.1,Ujue
Navarra_Media_Oriental,23/05/2016,9.5,14.5,4.8,0.0,Ujue
Navarra_Media_Oriental,24/05/2016,14.0,19.6,7.3,0.0,Ujue
Navarra_Media_Oriental,25/05/2016,16.5,21.6,11.7,0.0,Ujue
Navarra_Media_Oriental,26/05/2016,17.3,22.3,13.9,0.0,Ujue
Navarra_Media_Oriental,27/05/2016,19.0,24.1,13.9,0.0,Ujue
Navarra_Media_Oriental,28/05/2016,15.8,22.9,11.0,0.0,Ujue
Navarra_Media_Oriental,29/05/2016,12.6,18.6,9.1,1.7,Ujue
Navarra_Media_Oriental,30/05/2016,11.1,15.2,8.9,2.7,Ujue
Navarra_Media_Oriental,31/05/2016,11.1,15.2,8.4,0.0,Ujue
Navarra_Media_Oriental,01/06/2016,11.6,17.0,7.5,0.0,Ujue
Navarra_Media_Oriental,02/06/2016,14.7,21.5,8.0,0.0,Ujue
Navarra_Media_Oriental,03/06/2016,18.1,25.7,11.1,0.0,Ujue
Navarra_Media_Oriental,04/06/2016,16.9,21.2,12.8,0.0,Ujue
Navarra_Media_Oriental,05/06/2016,18.5,25.9,11.1,0.0,Ujue
Navarra_Media_Oriental,06/06/2016,19.4,26.3,15.6,6.0,Ujue
Navarra_Media_Oriental,07/06/2016,20.6,28.4,14.4,0.0,Ujue
Navarra_Media_Oriental,08/06/2016,22.1,27.7,17.0,0.0,Ujue
Navarra_Media_Oriental,09/06/2016,21.1,26.0,15.6,0.0,Ujue
Navarra_Media_Oriental,10/06/2016,16.4,20.4,11.7,0.0,Ujue
Navarra_Media_Oriental,11/06/2016,14.6,19.8,11.2,0.0,Ujue
Navarra_Media_Oriental,12/06/2016,16.1,21.6,11.5,0.0,Ujue
Navarra_Media_Oriental,13/06/2016,16.0,21.2,11.9,0.0,Ujue
Navarra_Media_Oriental,14/06/2016,15.2,22.8,10.7,0.0,Ujue
Navarra_Media_Oriental,15/06/2016,13.5,20.3,9.5,0.8,Ujue
Navarra_Media_Oriental,16/06/2016,11.1,17.3,8.5,0.0,Ujue
Navarra_Media_Oriental,17/06/2016,11.2,17.9,8.1,2.7,Ujue
Navarra_Media_Oriental,18/06/2016,10.0,13.5,7.1,0.0,Ujue
Navarra_Media_Oriental,19/06/2016,11.3,15.6,7.6,0.0,Ujue
Navarra_Media_Oriental,20/06/2016,17.7,24.5,10.0,0.0,Ujue
Navarra_Media_Oriental,21/06/2016,22.9,28.8,16.4,0.0,Ujue
Navarra_Media_Oriental,22/06/2016,24.2,29.2,18.9,0.0,Ujue
Navarra_Media_Oriental,23/06/2016,23.6,29.4,17.5,0.0,Ujue
Navarra_Media_Oriental,24/06/2016,18.8,29.0,14.2,2.3,Ujue
Navarra_Media_Oriental,25/06/2016,14.4,17.7,11.5,0.0,Ujue
Navarra_Media_Oriental,26/06/2016,13.5,18.2,10.3,0.0,Ujue
Navarra_Media_Oriental,27/06/2016,17.3,24.5,10.2,0.0,Ujue
Navarra_Media_Oriental,28/06/2016,20.7,30.2,13.3,0.0,Ujue
Navarra_Media_Oriental,29/06/2016,18.7,25.1,13.6,0.9,Ujue
Navarra_Media_Oriental,30/06/2016,20.3,29.3,13.4,0.0,Ujue
Navarra_Media_Oriental,01/07/2016,21.0,30.4,15.5,0.0,Ujue
Navarra_Media_Oriental,02/07/2016,16.1,20.5,11.9,0.0,Ujue
Navarra_Media_Oriental,03/07/2016,18.7,27.0,10.3,0.0,Ujue
Navarra_Media_Oriental,04/07/2016,21.7,30.7,15.2,8.3,Ujue
Navarra_Media_Oriental,05/07/2016,19.3,24.1,15.7,0.1,Ujue
Navarra_Media_Oriental,06/07/2016,22.3,30.8,14.2,0.0,Ujue
Navarra_Media_Oriental,07/07/2016,23.0,29.9,15.2,3.5,Ujue
Navarra_Media_Oriental,08/07/2016,22.4,29.7,16.9,4.9,Ujue
Navarra_Media_Oriental,09/07/2016,24.0,32.7,15.3,0.0,Ujue
Navarra_Media_Oriental,10/07/2016,25.9,34.0,18.4,1.0,Ujue
Navarra_Media_Oriental,11/07/2016,20.1,29.3,15.6,0.0,Ujue
Navarra_Media_Oriental,12/07/2016,15.2,18.2,11.9,0.0,Ujue
Navarra_Media_Oriental,13/07/2016,12.5,16.0,10.0,0.0,Ujue
Navarra_Media_Oriental,14/07/2016,12.1,16.3,9.1,0.0,Ujue
Navarra_Media_Oriental,15/07/2016,16.1,23.4,9.6,0.0,Ujue
Navarra_Media_Oriental,16/07/2016,21.3,30.2,13.7,0.0,Ujue
Navarra_Media_Oriental,17/07/2016,24.1,30.5,17.9,0.0,Ujue
Navarra_Media_Oriental,18/07/2016,25.1,30.6,18.6,0.0,Ujue
Navarra_Media_Oriental,19/07/2016,26.8,33.5,18.7,0.0,Ujue
Navarra_Media_Oriental,20/07/2016,22.9,26.7,17.4,0.0,Ujue
Navarra_Media_Oriental,21/07/2016,20.4,27.6,14.7,0.0,Ujue
Navarra_Media_Oriental,22/07/2016,16.5,20.7,13.7,0.1,Ujue
Navarra_Media_Oriental,23/07/2016,16.6,21.2,13.9,0.0,Ujue
Navarra_Media_Oriental,24/07/2016,18.6,24.1,13.7,0.0,Ujue
Navarra_Media_Oriental,25/07/2016,21.0,28.6,14.5,0.0,Ujue
Navarra_Media_Oriental,26/07/2016,21.4,28.9,15.5,0.0,Ujue
Navarra_Media_Oriental,27/07/2016,18.7,24.7,14.6,0.0,Ujue
Navarra_Media_Oriental,28/07/2016,20.9,31.0,12.9,0.0,Ujue
Navarra_Media_Oriental,29/07/2016,23.9,29.2,16.8,0.1,Ujue
Navarra_Media_Oriental,30/07/2016,25.2,34.7,16.5,0.0,Ujue
Navarra_Media_Oriental,31/07/2016,17.4,21.3,13.5,0.0,Ujue
Navarra_Media_Oriental,01/08/2016,17.7,25.3,12.5,0.0,Ujue
Navarra_Media_Oriental,02/08/2016,21.9,30.9,12.6,0.0,Ujue
Navarra_Media_Oriental,03/08/2016,24.9,34.4,18.4,0.0,Ujue
Navarra_Media_Oriental,04/08/2016,20.7,27.8,16.3,0.0,Ujue
Navarra_Media_Oriental,05/08/2016,16.6,21.3,12.8,0.0,Ujue
Navarra_Media_Oriental,06/08/2016,18.7,26.1,13.5,0.0,Ujue
Navarra_Media_Oriental,07/08/2016,22.8,29.8,17.4,0.0,Ujue
Navarra_Media_Oriental,08/08/2016,22.5,30.2,16.2,0.0,Ujue
Navarra_Media_Oriental,09/08/2016,16.6,21.9,12.2,0.0,Ujue
Navarra_Media_Oriental,10/08/2016,14.4,19.1,11.1,0.0,Ujue
Navarra_Media_Oriental,11/08/2016,15.0,20.6,10.1,0.0,Ujue
Navarra_Media_Oriental,12/08/2016,20.9,30.0,12.6,0.0,Ujue
Navarra_Media_Oriental,13/08/2016,24.2,31.5,18.0,0.0,Ujue
Navarra_Media_Oriental,14/08/2016,24.9,30.6,19.7,0.0,Ujue
Navarra_Media_Oriental,15/08/2016,23.0,30.4,19.0,0.6,Ujue
Navarra_Media_Oriental,16/08/2016,23.7,31.8,17.3,0.0,Ujue
Navarra_Media_Oriental,17/08/2016,22.4,30.3,17.9,0.0,Ujue
Navarra_Media_Oriental,18/08/2016,21.2,28.7,15.7,0.0,Ujue
Navarra_Media_Oriental,19/08/2016,23.2,32.6,17.4,0.0,Ujue
Navarra_Media_Oriental,20/08/2016,16.8,19.6,13.0,1.9,Ujue
Navarra_Media_Oriental,21/08/2016,16.0,21.0,11.7,0.0,Ujue
Navarra_Media_Oriental,22/08/2016,22.4,29.6,14.1,0.0,Ujue
Navarra_Media_Oriental,23/08/2016,25.9,34.4,20.1,0.0,Ujue
Navarra_Media_Oriental,24/08/2016,25.5,30.1,20.9,0.0,Ujue
Navarra_Media_Oriental,25/08/2016,25.1,30.1,20.6,0.0,Ujue
Navarra_Media_Oriental,26/08/2016,24.7,30.2,19.4,0.0,Ujue
Navarra_Media_Oriental,27/08/2016,24.7,30.0,17.6,0.0,Ujue
Navarra_Media_Oriental,28/08/2016,22.0,30.7,16.3,0.0,Ujue
Navarra_Media_Oriental,29/08/2016,16.8,21.0,13.7,0.0,Ujue
Navarra_Media_Oriental,30/08/2016,18.9,26.9,13.4,0.0,Ujue
Navarra_Media_Oriental,31/08/2016,20.0,27.2,15.5,0.0,Ujue
Navarra_Media_Oriental,01/09/2016,22.3,29.9,16.0,0.0,Ujue
Navarra_Media_Oriental,02/09/2016,24.9,32.1,19.4,0.0,Ujue
Navarra_Media_Oriental,03/09/2016,26.1,33.9,19.5,0.0,Ujue
Navarra_Media_Oriental,04/09/2016,27.6,33.8,22.7,0.0,Ujue
Navarra_Media_Oriental,05/09/2016,24.0,26.8,21.2,0.0,Ujue
Navarra_Media_Oriental,06/09/2016,25.8,33.7,16.9,0.0,Ujue
Navarra_Media_Oriental,07/09/2016,24.2,29.7,19.2,0.0,Ujue
Navarra_Media_Oriental,08/09/2016,19.0,23.8,16.4,0.0,Ujue
Navarra_Media_Oriental,09/09/2016,18.8,26.5,14.8,0.0,Ujue
Navarra_Media_Oriental,10/09/2016,19.6,27.2,12.9,0.0,Ujue
Navarra_Media_Oriental,11/09/2016,21.8,27.7,15.4,0.0,Ujue
Navarra_Media_Oriental,12/09/2016,23.5,28.8,18.7,0.0,Ujue
Navarra_Media_Oriental,13/09/2016,17.2,23.4,11.5,5.6,Ujue
Navarra_Media_Oriental,14/09/2016,12.4,16.9,9.8,4.7,Ujue
Navarra_Media_Oriental,15/09/2016,11.6,16.1,7.9,6.1,Ujue
Navarra_Media_Oriental,16/09/2016,12.2,17.1,9.2,12.2,Ujue
Navarra_Media_Oriental,17/09/2016,10.6,12.9,9.0,2.9,Ujue
Navarra_Media_Oriental,18/09/2016,11.1,15.0,8.0,0.0,Ujue
Navarra_Media_Oriental,19/09/2016,12.9,17.5,9.4,0.0,Ujue
Navarra_Media_Oriental,20/09/2016,14.2,18.8,11.6,0.0,Ujue
Navarra_Media_Oriental,21/09/2016,16.8,23.2,10.9,0.0,Ujue
Navarra_Media_Oriental,22/09/2016,17.8,24.4,13.1,0.0,Ujue
Navarra_Media_Oriental,23/09/2016,17.9,25.5,13.9,0.0,Ujue
Navarra_Media_Oriental,24/09/2016,17.7,22.1,13.1,0.0,Ujue
Navarra_Media_Oriental,25/09/2016,15.5,19.5,12.9,0.0,Ujue
Navarra_Media_Oriental,26/09/2016,16.0,23.2,11.9,0.0,Ujue
Navarra_Media_Oriental,27/09/2016,14.6,18.2,12.3,0.0,Ujue
Navarra_Media_Oriental,28/09/2016,16.9,21.6,12.3,0.0,Ujue
Navarra_Media_Oriental,29/09/2016,18.2,22.7,13.7,0.0,Ujue
Navarra_Media_Oriental,30/09/2016,18.0,22.2,12.8,0.0,Ujue
Navarra_Media_Oriental,01/10/2016,16.5,22.2,12.8,0.0,Ujue
Navarra_Media_Oriental,02/10/2016,15.7,22.8,10.9,0.0,Ujue
Navarra_Media_Oriental,03/10/2016,17.8,22.0,14.0,0.0,Ujue
Navarra_Media_Oriental,04/10/2016,18.3,25.4,14.0,0.0,Ujue
Navarra_Media_Oriental,05/10/2016,15.6,20.2,12.1,0.0,Ujue
Navarra_Media_Oriental,06/10/2016,14.2,17.9,11.1,0.0,Ujue
Navarra_Media_Oriental,07/10/2016,14.3,21.3,9.1,0.0,Ujue
Navarra_Media_Oriental,08/10/2016,11.8,15.8,8.9,0.0,Ujue
Navarra_Media_Oriental,09/10/2016,10.5,14.6,8.1,0.0,Ujue
Navarra_Media_Oriental,10/10/2016,10.6,15.6,7.1,0.0,Ujue
Navarra_Media_Oriental,11/10/2016,12.1,17.4,8.0,0.0,Ujue
Navarra_Media_Oriental,12/10/2016,11.0,13.0,9.7,7.5,Ujue
Navarra_Media_Oriental,13/10/2016,11.0,12.2,10.0,8.7,Ujue
Navarra_Media_Oriental,14/10/2016,10.4,12.6,9.1,0.5,Ujue
Navarra_Media_Oriental,15/10/2016,11.9,15.6,7.9,0.0,Ujue
Navarra_Media_Oriental,16/10/2016,13.9,16.5,10.9,0.0,Ujue
Navarra_Media_Oriental,17/10/2016,14.2,17.4,11.3,0.1,Ujue
Navarra_Media_Oriental,18/10/2016,13.4,16.5,11.0,0.0,Ujue
Navarra_Media_Oriental,19/10/2016,11.1,15.7,7.3,0.0,Ujue
Navarra_Media_Oriental,20/10/2016,7.8,11.0,5.6,0.0,Ujue
Navarra_Media_Oriental,21/10/2016,8.7,15.7,4.4,0.0,Ujue
Navarra_Media_Oriental,22/10/2016,10.6,14.0,8.0,0.0,Ujue
Navarra_Media_Oriental,23/10/2016,12.8,16.0,10.6,6.1,Ujue
Navarra_Media_Oriental,24/10/2016,11.6,12.9,9.9,0.8,Ujue
Navarra_Media_Oriental,25/10/2016,14.9,18.8,11.5,3.5,Ujue
Navarra_Media_Oriental,26/10/2016,16.2,20.5,13.4,0.0,Ujue
Navarra_Media_Oriental,27/10/2016,15.6,21.7,12.2,0.0,Ujue
Navarra_Media_Oriental,28/10/2016,14.5,19.6,11.0,0.0,Ujue
Navarra_Media_Oriental,29/10/2016,15.7,21.7,10.4,0.0,Ujue
Navarra_Media_Oriental,30/10/2016,16.0,20.6,12.2,0.0,Ujue
Navarra_Media_Oriental,31/10/2016,10.7,13.5,9.2,0.0,Ujue
Navarra_Media_Oriental,01/11/2016,10.5,14.4,8.6,0.0,Ujue
Navarra_Media_Oriental,02/11/2016,13.8,19.2,9.3,0.0,Ujue
Navarra_Media_Oriental,03/11/2016,14.8,19.9,11.7,0.0,Ujue
Navarra_Media_Oriental,04/11/2016,10.4,12.3,8.3,4.2,Ujue
Navarra_Media_Oriental,05/11/2016,7.6,10.4,4.0,14.7,Ujue
Navarra_Media_Oriental,06/11/2016,4.1,6.9,2.5,0.0,Ujue
Navarra_Media_Oriental,07/11/2016,2.2,4.8,0.6,0.1,Ujue
Navarra_Media_Oriental,08/11/2016,2.9,5.3,0.5,0.2,Ujue
Navarra_Media_Oriental,09/11/2016,5.9,7.6,3.3,2.1,Ujue
Navarra_Media_Oriental,10/11/2016,7.4,9.9,5.2,0.0,Ujue
Navarra_Media_Oriental,11/11/2016,7.1,8.3,6.0,0.0,Ujue
Navarra_Media_Oriental,12/11/2016,8.6,12.6,6.0,0.3,Ujue
Navarra_Media_Oriental,13/11/2016,8.6,10.6,6.5,0.5,Ujue
Navarra_Media_Oriental,14/11/2016,6.3,7.9,4.9,0.1,Ujue
Navarra_Media_Oriental,15/11/2016,8.2,13.3,3.4,0.0,Ujue
Navarra_Media_Oriental,16/11/2016,9.3,14.0,4.7,0.0,Ujue
Navarra_Media_Oriental,17/11/2016,12.2,17.1,9.6,0.0,Ujue
Navarra_Media_Oriental,18/11/2016,9.5,11.8,8.4,0.0,Ujue
Navarra_Media_Oriental,19/11/2016,7.3,11.4,5.1,0.0,Ujue
Navarra_Media_Oriental,20/11/2016,6.8,7.2,6.4,6.0,Ujue
Navarra_Media_Oriental,21/11/2016,8.5,13.1,6.5,1.4,Ujue
Navarra_Media_Oriental,22/11/2016,6.0,7.3,4.7,9.7,Ujue
Navarra_Media_Oriental,23/11/2016,2.8,4.7,1.0,33.4,Ujue
Navarra_Media_Oriental,24/11/2016,3.1,5.2,1.8,0.9,Ujue
Navarra_Media_Oriental,25/11/2016,3.2,7.3,0.6,0.0,Ujue
Navarra_Media_Oriental,26/11/2016,4.1,6.2,2.5,2.1,Ujue
Navarra_Media_Oriental,27/11/2016,7.8,10.1,5.8,0.3,Ujue
Navarra_Media_Oriental,28/11/2016,7.0,9.2,5.6,0.0,Ujue
Navarra_Media_Oriental,29/11/2016,5.9,7.9,3.1,0.0,Ujue
Navarra_Media_Oriental,30/11/2016,6.5,8.5,4.9,0.0,Ujue
Navarra_Media_Oriental,01/12/2016,6.6,10.5,3.6,0.0,Ujue
Navarra_Media_Oriental,02/12/2016,6.3,8.8,4.3,0.0,Ujue
Navarra_Media_Oriental,03/12/2016,3.8,5.6,0.9,0.0,Ujue
Navarra_Media_Oriental,04/12/2016,7.3,9.1,4.7,0.5,Ujue
Navarra_Media_Oriental,05/12/2016,9.6,12.3,8.0,0.0,Ujue
Navarra_Media_Oriental,06/12/2016,9.4,13.6,6.5,0.0,Ujue
Navarra_Media_Oriental,07/12/2016,6.5,8.9,5.0,0.0,Ujue
Navarra_Media_Oriental,08/12/2016,4.5,5.3,3.2,0.0,Ujue
Navarra_Media_Oriental,09/12/2016,6.4,9.4,4.4,0.0,Ujue
Navarra_Media_Oriental,10/12/2016,7.6,12.2,5.1,0.0,Ujue
Navarra_Media_Oriental,11/12/2016,7.3,10.6,4.8,0.0,Ujue
Navarra_Media_Oriental,12/12/2016,8.5,12.8,5.6,0.0,Ujue
Navarra_Media_Oriental,13/12/2016,4.6,6.5,2.6,0.0,Ujue
Navarra_Media_Oriental,14/12/2016,4.0,6.6,2.1,0.0,Ujue
Navarra_Media_Oriental,15/12/2016,4.4,5.3,2.8,0.0,Ujue
Navarra_Media_Oriental,16/12/2016,6.3,8.3,4.6,3.5,Ujue
Navarra_Media_Oriental,17/12/2016,7.3,11.8,3.8,0.0,Ujue
Navarra_Media_Oriental,18/12/2016,5.1,9.4,2.3,0.0,Ujue
Navarra_Media_Oriental,19/12/2016,3.5,7.5,0.3,0.0,Ujue
Navarra_Media_Oriental,20/12/2016,3.2,4.1,2.6,0.1,Ujue
Navarra_Media_Oriental,21/12/2016,5.5,6.8,2.6,0.0,Ujue
Navarra_Media_Oriental,22/12/2016,6.3,7.6,4.5,1.2,Ujue
Navarra_Media_Oriental,23/12/2016,8.4,10.5,6.9,0.0,Ujue
Navarra_Media_Oriental,24/12/2016,8.1,10.2,6.5,0.0,Ujue
Navarra_Media_Oriental,25/12/2016,8.2,12.3,5.8,0.0,Ujue
Navarra_Media_Oriental,26/12/2016,7.7,12.1,4.5,0.0,Ujue
Navarra_Media_Oriental,27/12/2016,7.0,11.9,3.3,0.0,Ujue
Navarra_Media_Oriental,28/12/2016,7.7,11.4,3.6,0.0,Ujue
Navarra_Media_Oriental,29/12/2016,7.0,12.7,3.6,0.0,Ujue
Navarra_Media_Oriental,30/12/2016,4.5,8.8,0.5,0.0,Ujue
Navarra_Media_Oriental,31/12/2016,0.5,5.4,-2.5,0.0,Ujue
