Comarca,Fecha, Temperatura media, Temperatura maxima, Temperatura minima, Precipitacion acumulada,Localidad
Navarra_Media_Oriental,01/01/2012,8.4,12.0,5.7,0.0,Ujue
Navarra_Media_Oriental,02/01/2012,5.4,7.9,4.0,2.9,Ujue
Navarra_Media_Oriental,03/01/2012,5.4,10.0,3.4,0.0,Ujue
Navarra_Media_Oriental,04/01/2012,5.8,9.9,4.1,0.0,Ujue
Navarra_Media_Oriental,05/01/2012,6.4,9.2,3.9,0.0,Ujue
Navarra_Media_Oriental,06/01/2012,6.5,8.3,4.3,0.4,Ujue
Navarra_Media_Oriental,07/01/2012,6.3,9.2,4.5,0.0,Ujue
Navarra_Media_Oriental,08/01/2012,6.0,10.0,3.9,0.0,Ujue
Navarra_Media_Oriental,09/01/2012,5.4,12.1,2.1,0.0,Ujue
Navarra_Media_Oriental,10/01/2012,4.0,8.3,1.0,0.0,Ujue
Navarra_Media_Oriental,11/01/2012,3.5,6.9,1.4,0.0,Ujue
Navarra_Media_Oriental,12/01/2012,1.4,4.0,-2.8,0.0,Ujue
Navarra_Media_Oriental,13/01/2012,0.1,4.4,-2.9,0.1,Ujue
Navarra_Media_Oriental,14/01/2012,1.1,4.1,-3.4,0.0,Ujue
Navarra_Media_Oriental,15/01/2012,2.5,7.9,-0.9,0.5,Ujue
Navarra_Media_Oriental,16/01/2012,2.1,4.8,-0.0,4.7,Ujue
Navarra_Media_Oriental,17/01/2012,4.2,10.7,0.4,0.0,Ujue
Navarra_Media_Oriental,18/01/2012,5.9,9.9,3.0,0.0,Ujue
Navarra_Media_Oriental,19/01/2012,8.4,11.0,6.0,0.0,Ujue
Navarra_Media_Oriental,20/01/2012,7.3,9.6,5.6,0.0,Ujue
Navarra_Media_Oriental,21/01/2012,7.1,9.6,5.4,0.0,Ujue
Navarra_Media_Oriental,22/01/2012,6.9,9.3,5.6,0.0,Ujue
Navarra_Media_Oriental,23/01/2012,6.7,9.6,4.8,0.0,Ujue
Navarra_Media_Oriental,24/01/2012,4.5,7.8,1.2,0.0,Ujue
Navarra_Media_Oriental,25/01/2012,4.2,7.5,0.3,0.0,Ujue
Navarra_Media_Oriental,26/01/2012,5.3,10.7,2.8,0.0,Ujue
Navarra_Media_Oriental,27/01/2012,2.9,4.0,1.7,0.5,Ujue
Navarra_Media_Oriental,28/01/2012,1.5,5.2,-0.2,0.9,Ujue
Navarra_Media_Oriental,29/01/2012,-0.2,2.0,-1.4,1.9,Ujue
Navarra_Media_Oriental,30/01/2012,1.0,4.5,-1.9,0.0,Ujue
Navarra_Media_Oriental,31/01/2012,3.4,6.8,1.6,0.0,Ujue
Navarra_Media_Oriental,01/02/2012,1.5,4.6,-3.7,1.1,Ujue
Navarra_Media_Oriental,02/02/2012,-5.8,-3.6,-8.5,0.0,Ujue
Navarra_Media_Oriental,03/02/2012,-7.2,-4.7,-9.4,0.0,Ujue
Navarra_Media_Oriental,04/02/2012,-4.6,-2.4,-7.8,0.0,Ujue
Navarra_Media_Oriental,05/02/2012,-0.1,3.3,-2.7,5.7,Ujue
Navarra_Media_Oriental,06/02/2012,-0.5,1.2,-3.0,0.3,Ujue
Navarra_Media_Oriental,07/02/2012,-2.8,0.3,-6.3,0.0,Ujue
Navarra_Media_Oriental,08/02/2012,-6.4,-3.7,-8.6,0.0,Ujue
Navarra_Media_Oriental,09/02/2012,-3.9,1.2,-7.6,0.0,Ujue
Navarra_Media_Oriental,10/02/2012,-2.5,1.2,-5.5,0.0,Ujue
Navarra_Media_Oriental,11/02/2012,-4.9,-1.2,-6.8,0.0,Ujue
Navarra_Media_Oriental,12/02/2012,-5.5,-1.6,-8.9,0.0,Ujue
Navarra_Media_Oriental,13/02/2012,-2.5,1.2,-6.3,0.0,Ujue
Navarra_Media_Oriental,14/02/2012,-0.1,2.0,-1.5,2.8,Ujue
Navarra_Media_Oriental,15/02/2012,1.5,5.1,-1.5,0.1,Ujue
Navarra_Media_Oriental,16/02/2012,2.6,4.7,1.3,0.1,Ujue
Navarra_Media_Oriental,17/02/2012,3.6,9.7,0.3,0.0,Ujue
Navarra_Media_Oriental,18/02/2012,4.0,9.9,-0.4,0.0,Ujue
Navarra_Media_Oriental,19/02/2012,2.9,7.2,0.1,0.0,Ujue
Navarra_Media_Oriental,20/02/2012,1.1,4.4,-1.1,0.0,Ujue
Navarra_Media_Oriental,21/02/2012,3.0,8.5,-1.9,0.0,Ujue
Navarra_Media_Oriental,22/02/2012,6.1,13.6,-1.6,0.0,Ujue
Navarra_Media_Oriental,23/02/2012,9.7,17.5,3.5,0.0,Ujue
Navarra_Media_Oriental,24/02/2012,11.4,18.8,5.8,0.0,Ujue
Navarra_Media_Oriental,25/02/2012,10.9,17.1,6.5,0.0,Ujue
Navarra_Media_Oriental,26/02/2012,9.0,12.9,6.3,0.0,Ujue
Navarra_Media_Oriental,27/02/2012,8.9,13.8,5.8,0.0,Ujue
Navarra_Media_Oriental,28/02/2012,9.5,15.1,4.2,0.0,Ujue
Navarra_Media_Oriental,29/02/2012,11.9,19.3,7.0,0.0,Ujue
Navarra_Media_Oriental,01/03/2012,11.5,17.1,6.4,0.0,Ujue
Navarra_Media_Oriental,02/03/2012,10.4,13.8,6.1,0.0,Ujue
Navarra_Media_Oriental,03/03/2012,10.0,16.1,6.3,0.0,Ujue
Navarra_Media_Oriental,04/03/2012,7.0,10.1,1.0,3.6,Ujue
Navarra_Media_Oriental,05/03/2012,2.2,5.6,0.3,0.2,Ujue
Navarra_Media_Oriental,06/03/2012,1.8,5.6,-0.2,0.4,Ujue
Navarra_Media_Oriental,07/03/2012,4.3,11.1,-1.6,0.0,Ujue
Navarra_Media_Oriental,08/03/2012,4.4,6.9,2.1,0.2,Ujue
Navarra_Media_Oriental,09/03/2012,5.2,10.4,0.9,0.0,Ujue
Navarra_Media_Oriental,10/03/2012,7.2,14.4,3.0,0.0,Ujue
Navarra_Media_Oriental,11/03/2012,7.5,13.4,4.1,0.0,Ujue
Navarra_Media_Oriental,12/03/2012,10.8,17.6,5.2,0.0,Ujue
Navarra_Media_Oriental,13/03/2012,15.2,24.2,8.5,0.0,Ujue
Navarra_Media_Oriental,14/03/2012,17.5,25.5,10.3,0.0,Ujue
Navarra_Media_Oriental,15/03/2012,16.2,21.8,11.4,0.0,Ujue
Navarra_Media_Oriental,16/03/2012,13.1,17.6,7.7,0.0,Ujue
Navarra_Media_Oriental,17/03/2012,11.0,17.3,6.2,0.0,Ujue
Navarra_Media_Oriental,18/03/2012,5.6,11.6,1.5,0.0,Ujue
Navarra_Media_Oriental,19/03/2012,3.5,8.3,0.3,0.0,Ujue
Navarra_Media_Oriental,20/03/2012,4.7,8.7,1.9,0.0,Ujue
Navarra_Media_Oriental,21/03/2012,3.2,4.5,1.5,24.0,Ujue
Navarra_Media_Oriental,22/03/2012,6.4,13.1,0.6,0.0,Ujue
Navarra_Media_Oriental,23/03/2012,9.3,14.5,5.2,0.0,Ujue
Navarra_Media_Oriental,24/03/2012,11.7,16.9,5.1,0.0,Ujue
Navarra_Media_Oriental,25/03/2012,14.4,21.4,8.5,0.0,Ujue
Navarra_Media_Oriental,26/03/2012,13.7,19.3,10.0,0.0,Ujue
Navarra_Media_Oriental,27/03/2012,13.5,18.4,8.7,0.0,Ujue
Navarra_Media_Oriental,28/03/2012,14.6,20.9,9.4,0.0,Ujue
Navarra_Media_Oriental,29/03/2012,15.2,22.2,10.5,0.0,Ujue
Navarra_Media_Oriental,30/03/2012,15.6,23.4,11.7,0.0,Ujue
Navarra_Media_Oriental,31/03/2012,15.1,23.4,9.8,0.0,Ujue
Navarra_Media_Oriental,01/04/2012,14.5,23.2,8.7,0.0,Ujue
Navarra_Media_Oriental,02/04/2012,13.9,21.5,9.1,0.0,Ujue
Navarra_Media_Oriental,03/04/2012,8.2,11.7,5.9,0.0,Ujue
Navarra_Media_Oriental,04/04/2012,7.4,12.9,4.8,0.0,Ujue
Navarra_Media_Oriental,05/04/2012,6.4,10.5,4.1,6.6,Ujue
Navarra_Media_Oriental,06/04/2012,4.6,7.8,2.0,6.3,Ujue
Navarra_Media_Oriental,07/04/2012,4.2,7.2,0.7,0.1,Ujue
Navarra_Media_Oriental,08/04/2012,5.9,10.0,3.4,0.2,Ujue
Navarra_Media_Oriental,09/04/2012,11.1,19.4,3.7,0.1,Ujue
Navarra_Media_Oriental,10/04/2012,8.4,16.5,3.5,4.9,Ujue
Navarra_Media_Oriental,11/04/2012,6.7,11.4,2.5,0.0,Ujue
Navarra_Media_Oriental,12/04/2012,6.6,11.9,2.7,2.2,Ujue
Navarra_Media_Oriental,13/04/2012,4.6,9.4,1.9,0.0,Ujue
Navarra_Media_Oriental,14/04/2012,3.9,7.6,1.9,7.3,Ujue
Navarra_Media_Oriental,15/04/2012,2.8,6.6,0.8,8.3,Ujue
Navarra_Media_Oriental,16/04/2012,2.1,5.2,0.3,0.2,Ujue
Navarra_Media_Oriental,17/04/2012,5.3,13.9,-0.9,1.8,Ujue
Navarra_Media_Oriental,18/04/2012,5.4,10.1,2.6,13.4,Ujue
Navarra_Media_Oriental,19/04/2012,5.4,9.2,3.3,0.8,Ujue
Navarra_Media_Oriental,20/04/2012,6.6,11.3,3.0,2.7,Ujue
Navarra_Media_Oriental,21/04/2012,7.5,15.3,4.7,5.7,Ujue
Navarra_Media_Oriental,22/04/2012,6.9,12.8,3.6,0.0,Ujue
Navarra_Media_Oriental,23/04/2012,7.0,14.5,3.3,1.9,Ujue
Navarra_Media_Oriental,24/04/2012,6.3,12.1,1.5,0.1,Ujue
Navarra_Media_Oriental,25/04/2012,11.4,17.7,6.6,0.0,Ujue
Navarra_Media_Oriental,26/04/2012,10.1,14.5,7.6,1.9,Ujue
Navarra_Media_Oriental,27/04/2012,12.4,17.7,8.1,0.0,Ujue
Navarra_Media_Oriental,28/04/2012,7.1,9.5,3.6,28.8,Ujue
Navarra_Media_Oriental,29/04/2012,6.2,12.0,3.7,8.5,Ujue
Navarra_Media_Oriental,30/04/2012,5.8,11.1,3.2,10.1,Ujue
Navarra_Media_Oriental,01/05/2012,9.4,14.8,4.7,0.0,Ujue
Navarra_Media_Oriental,02/05/2012,12.7,17.3,7.1,0.0,Ujue
Navarra_Media_Oriental,03/05/2012,14.2,20.7,9.0,0.6,Ujue
Navarra_Media_Oriental,04/05/2012,10.2,18.4,6.9,4.7,Ujue
Navarra_Media_Oriental,05/05/2012,10.1,16.0,6.0,0.2,Ujue
Navarra_Media_Oriental,06/05/2012,10.6,15.7,6.7,0.0,Ujue
Navarra_Media_Oriental,07/05/2012,14.0,20.4,8.0,0.6,Ujue
Navarra_Media_Oriental,08/05/2012,14.7,19.4,11.0,2.7,Ujue
Navarra_Media_Oriental,09/05/2012,19.2,24.4,13.8,0.0,Ujue
Navarra_Media_Oriental,10/05/2012,21.5,26.6,15.1,0.0,Ujue
Navarra_Media_Oriental,11/05/2012,23.2,29.1,16.7,0.1,Ujue
Navarra_Media_Oriental,12/05/2012,21.5,29.5,13.8,0.0,Ujue
Navarra_Media_Oriental,13/05/2012,15.3,20.2,11.1,0.4,Ujue
Navarra_Media_Oriental,14/05/2012,14.2,23.9,6.9,0.0,Ujue
Navarra_Media_Oriental,15/05/2012,9.5,15.4,5.6,0.0,Ujue
Navarra_Media_Oriental,16/05/2012,13.5,24.6,4.3,0.0,Ujue
Navarra_Media_Oriental,17/05/2012,14.5,20.5,9.8,3.6,Ujue
Navarra_Media_Oriental,18/05/2012,14.0,20.4,10.5,8.9,Ujue
Navarra_Media_Oriental,19/05/2012,10.7,15.8,7.5,8.9,Ujue
Navarra_Media_Oriental,20/05/2012,6.3,8.0,4.8,8.8,Ujue
Navarra_Media_Oriental,21/05/2012,6.2,7.6,4.3,1.0,Ujue
Navarra_Media_Oriental,22/05/2012,10.1,14.6,7.7,1.3,Ujue
Navarra_Media_Oriental,23/05/2012,15.8,24.5,7.5,0.0,Ujue
Navarra_Media_Oriental,24/05/2012,20.2,29.0,13.4,0.0,Ujue
Navarra_Media_Oriental,25/05/2012,21.7,26.8,15.6,0.0,Ujue
Navarra_Media_Oriental,26/05/2012,18.8,26.5,13.1,0.0,Ujue
Navarra_Media_Oriental,27/05/2012,17.4,25.3,12.0,0.0,Ujue
Navarra_Media_Oriental,28/05/2012,18.3,26.6,12.1,0.0,Ujue
Navarra_Media_Oriental,29/05/2012,20.3,28.4,13.6,0.0,Ujue
Navarra_Media_Oriental,30/05/2012,21.5,30.6,14.1,0.0,Ujue
Navarra_Media_Oriental,31/05/2012,22.0,30.4,13.4,0.0,Ujue
Navarra_Media_Oriental,01/06/2012,25.4,34.2,18.0,0.0,Ujue
Navarra_Media_Oriental,02/06/2012,22.1,31.5,12.2,8.5,Ujue
Navarra_Media_Oriental,03/06/2012,13.9,18.2,11.4,4.4,Ujue
Navarra_Media_Oriental,04/06/2012,14.8,20.0,10.7,0.0,Ujue
Navarra_Media_Oriental,05/06/2012,20.7,30.4,11.8,0.0,Ujue
Navarra_Media_Oriental,06/06/2012,22.2,27.0,17.8,0.0,Ujue
Navarra_Media_Oriental,07/06/2012,21.0,29.2,13.9,0.0,Ujue
Navarra_Media_Oriental,08/06/2012,13.1,17.2,10.0,0.0,Ujue
Navarra_Media_Oriental,09/06/2012,14.9,21.2,8.1,0.0,Ujue
Navarra_Media_Oriental,10/06/2012,16.3,22.6,12.7,0.5,Ujue
Navarra_Media_Oriental,11/06/2012,13.2,24.2,8.7,3.6,Ujue
Navarra_Media_Oriental,12/06/2012,11.4,16.7,8.2,0.8,Ujue
Navarra_Media_Oriental,13/06/2012,13.6,19.9,8.6,0.0,Ujue
Navarra_Media_Oriental,14/06/2012,19.9,26.0,12.9,0.0,Ujue
Navarra_Media_Oriental,15/06/2012,23.1,32.4,15.0,0.0,Ujue
Navarra_Media_Oriental,16/06/2012,22.6,32.9,14.7,0.0,Ujue
Navarra_Media_Oriental,17/06/2012,20.9,28.1,12.3,0.0,Ujue
Navarra_Media_Oriental,18/06/2012,19.3,26.1,15.2,1.7,Ujue
Navarra_Media_Oriental,19/06/2012,15.4,18.3,13.8,13.1,Ujue
Navarra_Media_Oriental,20/06/2012,21.0,27.9,14.0,0.0,Ujue
Navarra_Media_Oriental,21/06/2012,18.9,26.7,11.2,0.0,Ujue
Navarra_Media_Oriental,22/06/2012,17.0,25.0,10.4,0.0,Ujue
Navarra_Media_Oriental,23/06/2012,19.6,25.6,11.5,0.0,Ujue
Navarra_Media_Oriental,24/06/2012,22.5,31.5,16.7,0.0,Ujue
Navarra_Media_Oriental,25/06/2012,23.4,31.4,14.4,0.0,Ujue
Navarra_Media_Oriental,26/06/2012,26.4,35.7,17.5,0.0,Ujue
Navarra_Media_Oriental,27/06/2012,26.9,36.1,21.3,0.0,Ujue
Navarra_Media_Oriental,28/06/2012,27.2,36.0,18.6,0.0,Ujue
Navarra_Media_Oriental,29/06/2012,23.0,33.9,16.2,0.0,Ujue
Navarra_Media_Oriental,30/06/2012,17.5,28.6,11.1,0.0,Ujue
Navarra_Media_Oriental,01/07/2012,12.4,17.1,9.7,0.0,Ujue
Navarra_Media_Oriental,02/07/2012,17.1,26.0,8.7,0.0,Ujue
Navarra_Media_Oriental,03/07/2012,23.0,32.4,15.8,0.0,Ujue
Navarra_Media_Oriental,04/07/2012,20.7,29.5,15.0,0.0,Ujue
Navarra_Media_Oriental,05/07/2012,15.9,22.0,12.2,0.0,Ujue
Navarra_Media_Oriental,06/07/2012,17.2,25.9,11.6,0.0,Ujue
Navarra_Media_Oriental,07/07/2012,20.2,28.7,13.3,0.0,Ujue
Navarra_Media_Oriental,08/07/2012,17.6,25.2,12.3,0.0,Ujue
Navarra_Media_Oriental,09/07/2012,18.6,30.3,12.5,0.2,Ujue
Navarra_Media_Oriental,10/07/2012,17.9,26.6,13.3,0.0,Ujue
Navarra_Media_Oriental,11/07/2012,16.0,23.7,10.9,0.0,Ujue
Navarra_Media_Oriental,12/07/2012,19.7,31.2,9.7,0.0,Ujue
Navarra_Media_Oriental,13/07/2012,21.9,34.6,14.8,0.0,Ujue
Navarra_Media_Oriental,14/07/2012,15.5,21.1,11.8,0.0,Ujue
Navarra_Media_Oriental,15/07/2012,14.5,20.7,11.0,0.0,Ujue
Navarra_Media_Oriental,16/07/2012,18.7,28.3,8.8,0.0,Ujue
Navarra_Media_Oriental,17/07/2012,25.3,35.2,13.8,0.0,Ujue
Navarra_Media_Oriental,18/07/2012,27.5,36.9,19.3,0.0,Ujue
Navarra_Media_Oriental,19/07/2012,21.0,30.3,15.4,0.0,Ujue
Navarra_Media_Oriental,20/07/2012,17.5,26.5,12.7,0.0,Ujue
Navarra_Media_Oriental,21/07/2012,16.5,22.8,12.5,0.0,Ujue
Navarra_Media_Oriental,22/07/2012,17.7,25.3,12.2,0.0,Ujue
Navarra_Media_Oriental,23/07/2012,21.6,31.4,14.7,0.0,Ujue
Navarra_Media_Oriental,24/07/2012,21.9,28.0,15.0,0.0,Ujue
Navarra_Media_Oriental,25/07/2012,26.0,34.3,18.1,0.0,Ujue
Navarra_Media_Oriental,26/07/2012,25.7,32.9,18.8,0.0,Ujue
Navarra_Media_Oriental,27/07/2012,21.2,32.2,15.9,7.7,Ujue
Navarra_Media_Oriental,28/07/2012,17.9,25.7,13.7,0.0,Ujue
Navarra_Media_Oriental,29/07/2012,19.7,29.4,13.4,0.0,Ujue
Navarra_Media_Oriental,30/07/2012,22.6,32.9,15.1,0.0,Ujue
Navarra_Media_Oriental,31/07/2012,24.9,32.7,17.1,0.0,Ujue
Navarra_Media_Oriental,01/08/2012,24.4,33.1,18.2,0.0,Ujue
Navarra_Media_Oriental,02/08/2012,20.0,29.2,14.4,0.0,Ujue
Navarra_Media_Oriental,03/08/2012,20.8,31.0,14.1,0.0,Ujue
Navarra_Media_Oriental,04/08/2012,20.7,30.6,14.7,0.6,Ujue
Navarra_Media_Oriental,05/08/2012,16.7,23.7,11.6,0.9,Ujue
Navarra_Media_Oriental,06/08/2012,17.3,25.3,10.5,0.0,Ujue
Navarra_Media_Oriental,07/08/2012,22.1,30.7,12.9,0.0,Ujue
Navarra_Media_Oriental,08/08/2012,25.4,33.2,16.7,0.0,Ujue
Navarra_Media_Oriental,09/08/2012,28.2,37.5,18.5,0.0,Ujue
Navarra_Media_Oriental,10/08/2012,30.4,39.9,20.5,0.0,Ujue
Navarra_Media_Oriental,11/08/2012,25.5,35.0,17.6,0.0,Ujue
Navarra_Media_Oriental,12/08/2012,20.1,26.4,16.5,0.0,Ujue
Navarra_Media_Oriental,13/08/2012,21.9,31.1,14.6,0.0,Ujue
Navarra_Media_Oriental,14/08/2012,24.7,31.3,18.0,0.0,Ujue
Navarra_Media_Oriental,15/08/2012,21.1,24.9,18.3,0.0,Ujue
Navarra_Media_Oriental,16/08/2012,23.9,32.3,15.7,0.0,Ujue
Navarra_Media_Oriental,17/08/2012,28.6,34.8,22.2,0.0,Ujue
Navarra_Media_Oriental,18/08/2012,29.5,35.9,22.7,0.0,Ujue
Navarra_Media_Oriental,19/08/2012,28.7,35.3,24.3,0.0,Ujue
Navarra_Media_Oriental,20/08/2012,30.3,37.5,25.2,0.0,Ujue
Navarra_Media_Oriental,21/08/2012,29.1,38.3,19.8,0.0,Ujue
Navarra_Media_Oriental,22/08/2012,24.3,33.9,17.6,0.0,Ujue
Navarra_Media_Oriental,23/08/2012,24.3,34.8,16.9,0.0,Ujue
Navarra_Media_Oriental,24/08/2012,24.4,32.7,17.8,0.0,Ujue
Navarra_Media_Oriental,25/08/2012,18.8,23.0,13.6,0.0,Ujue
Navarra_Media_Oriental,26/08/2012,19.1,28.5,11.8,0.0,Ujue
Navarra_Media_Oriental,27/08/2012,23.9,30.3,17.0,0.0,Ujue
Navarra_Media_Oriental,28/08/2012,23.9,31.3,15.7,0.0,Ujue
Navarra_Media_Oriental,29/08/2012,21.6,31.7,15.9,10.3,Ujue
Navarra_Media_Oriental,30/08/2012,15.1,18.2,11.7,0.0,Ujue
Navarra_Media_Oriental,31/08/2012,13.2,18.7,10.4,0.0,Ujue
Navarra_Media_Oriental,01/09/2012,12.4,17.1,9.2,0.0,Ujue
Navarra_Media_Oriental,02/09/2012,14.0,19.5,10.4,0.0,Ujue
Navarra_Media_Oriental,03/09/2012,15.4,19.8,12.8,0.0,Ujue
Navarra_Media_Oriental,04/09/2012,16.5,21.1,12.7,0.0,Ujue
Navarra_Media_Oriental,05/09/2012,19.0,26.5,14.5,0.0,Ujue
Navarra_Media_Oriental,06/09/2012,21.8,29.2,16.2,0.0,Ujue
Navarra_Media_Oriental,07/09/2012,23.9,29.5,17.9,0.0,Ujue
Navarra_Media_Oriental,08/09/2012,24.5,31.0,19.9,0.0,Ujue
Navarra_Media_Oriental,09/09/2012,23.3,32.0,17.8,0.0,Ujue
Navarra_Media_Oriental,10/09/2012,21.8,26.9,17.9,0.0,Ujue
Navarra_Media_Oriental,11/09/2012,21.7,30.8,17.0,0.0,Ujue
Navarra_Media_Oriental,12/09/2012,16.3,20.7,10.4,0.0,Ujue
Navarra_Media_Oriental,13/09/2012,13.2,18.3,10.4,0.1,Ujue
Navarra_Media_Oriental,14/09/2012,16.1,24.3,10.7,0.0,Ujue
Navarra_Media_Oriental,15/09/2012,23.1,30.8,16.4,0.0,Ujue
Navarra_Media_Oriental,16/09/2012,23.3,28.7,17.6,0.0,Ujue
Navarra_Media_Oriental,17/09/2012,22.4,27.5,17.4,0.0,Ujue
Navarra_Media_Oriental,18/09/2012,18.1,23.7,14.0,0.2,Ujue
Navarra_Media_Oriental,19/09/2012,15.4,20.4,12.7,0.0,Ujue
Navarra_Media_Oriental,20/09/2012,18.2,24.3,10.9,0.0,Ujue
Navarra_Media_Oriental,21/09/2012,20.4,25.4,15.9,3.3,Ujue
Navarra_Media_Oriental,22/09/2012,21.8,29.6,15.5,0.0,Ujue
Navarra_Media_Oriental,23/09/2012,20.6,28.5,17.2,0.0,Ujue
Navarra_Media_Oriental,24/09/2012,17.8,23.7,13.6,0.5,Ujue
Navarra_Media_Oriental,25/09/2012,15.7,18.9,13.2,0.0,Ujue
Navarra_Media_Oriental,26/09/2012,12.5,17.2,9.0,1.9,Ujue
Navarra_Media_Oriental,27/09/2012,14.7,20.1,11.0,0.0,Ujue
Navarra_Media_Oriental,28/09/2012,14.5,18.7,11.8,4.6,Ujue
Navarra_Media_Oriental,29/09/2012,11.6,14.1,9.2,11.7,Ujue
Navarra_Media_Oriental,30/09/2012,11.3,16.0,8.8,0.0,Ujue
Navarra_Media_Oriental,01/10/2012,13.3,19.8,8.0,0.0,Ujue
Navarra_Media_Oriental,02/10/2012,17.2,24.5,12.8,0.0,Ujue
Navarra_Media_Oriental,03/10/2012,17.7,23.5,12.9,0.0,Ujue
Navarra_Media_Oriental,04/10/2012,18.3,23.9,13.8,0.0,Ujue
Navarra_Media_Oriental,05/10/2012,19.0,24.3,14.0,0.0,Ujue
Navarra_Media_Oriental,06/10/2012,19.9,25.1,15.9,0.0,Ujue
Navarra_Media_Oriental,07/10/2012,20.2,24.1,17.4,0.0,Ujue
Navarra_Media_Oriental,08/10/2012,21.5,28.4,17.5,0.0,Ujue
Navarra_Media_Oriental,09/10/2012,21.1,27.3,16.5,0.0,Ujue
Navarra_Media_Oriental,10/10/2012,19.4,23.8,13.0,14.4,Ujue
Navarra_Media_Oriental,11/10/2012,15.5,20.4,13.0,11.7,Ujue
Navarra_Media_Oriental,12/10/2012,11.4,14.3,9.7,1.4,Ujue
Navarra_Media_Oriental,13/10/2012,11.6,15.2,7.8,0.0,Ujue
Navarra_Media_Oriental,14/10/2012,10.1,15.4,6.8,7.3,Ujue
Navarra_Media_Oriental,15/10/2012,8.9,13.0,6.0,0.1,Ujue
Navarra_Media_Oriental,16/10/2012,11.8,15.5,8.2,0.0,Ujue
Navarra_Media_Oriental,17/10/2012,14.7,19.3,10.9,0.0,Ujue
Navarra_Media_Oriental,18/10/2012,16.9,18.8,14.5,0.0,Ujue
Navarra_Media_Oriental,19/10/2012,13.4,18.8,10.9,25.3,Ujue
Navarra_Media_Oriental,20/10/2012,11.1,12.5,10.1,60.6,Ujue
Navarra_Media_Oriental,21/10/2012,12.9,15.5,10.7,15.0,Ujue
Navarra_Media_Oriental,22/10/2012,13.9,18.2,10.7,0.9,Ujue
Navarra_Media_Oriental,23/10/2012,14.2,18.5,10.9,0.0,Ujue
Navarra_Media_Oriental,24/10/2012,14.2,17.7,10.7,4.0,Ujue
Navarra_Media_Oriental,25/10/2012,13.3,15.3,12.2,6.1,Ujue
Navarra_Media_Oriental,26/10/2012,12.1,13.1,10.9,12.7,Ujue
Navarra_Media_Oriental,27/10/2012,6.3,10.8,0.7,3.4,Ujue
Navarra_Media_Oriental,28/10/2012,2.7,5.5,0.4,0.0,Ujue
Navarra_Media_Oriental,29/10/2012,5.7,11.5,0.8,0.0,Ujue
Navarra_Media_Oriental,30/10/2012,6.3,8.7,3.2,0.0,Ujue
Navarra_Media_Oriental,31/10/2012,8.0,13.1,4.7,0.1,Ujue
Navarra_Media_Oriental,01/11/2012,9.6,14.6,6.0,2.5,Ujue
Navarra_Media_Oriental,02/11/2012,12.3,18.1,8.6,0.0,Ujue
Navarra_Media_Oriental,03/11/2012,11.2,12.5,9.4,1.1,Ujue
Navarra_Media_Oriental,04/11/2012,9.7,11.7,5.1,8.8,Ujue
Navarra_Media_Oriental,05/11/2012,6.9,10.9,3.7,0.0,Ujue
Navarra_Media_Oriental,06/11/2012,5.7,8.2,2.7,0.1,Ujue
Navarra_Media_Oriental,07/11/2012,5.3,8.9,1.6,0.4,Ujue
Navarra_Media_Oriental,08/11/2012,8.7,10.5,6.5,0.6,Ujue
Navarra_Media_Oriental,09/11/2012,11.3,13.9,9.1,0.0,Ujue
Navarra_Media_Oriental,10/11/2012,9.5,14.6,5.6,3.4,Ujue
Navarra_Media_Oriental,11/11/2012,5.7,7.6,4.2,0.0,Ujue
Navarra_Media_Oriental,12/11/2012,6.3,9.2,4.2,0.0,Ujue
Navarra_Media_Oriental,13/11/2012,8.7,14.2,2.6,0.0,Ujue
Navarra_Media_Oriental,14/11/2012,13.1,16.9,10.3,0.0,Ujue
Navarra_Media_Oriental,15/11/2012,12.4,15.6,10.1,0.0,Ujue
Navarra_Media_Oriental,16/11/2012,11.4,14.5,8.6,0.0,Ujue
Navarra_Media_Oriental,17/11/2012,10.3,13.2,8.6,35.7,Ujue
Navarra_Media_Oriental,18/11/2012,8.9,10.1,6.9,3.8,Ujue
Navarra_Media_Oriental,19/11/2012,8.8,13.0,5.8,0.0,Ujue
Navarra_Media_Oriental,20/11/2012,9.4,12.6,6.5,0.0,Ujue
Navarra_Media_Oriental,21/11/2012,8.3,10.1,5.9,0.2,Ujue
Navarra_Media_Oriental,22/11/2012,7.5,11.1,4.6,0.0,Ujue
Navarra_Media_Oriental,23/11/2012,9.0,11.6,6.5,0.0,Ujue
Navarra_Media_Oriental,24/11/2012,10.0,11.5,7.8,0.0,Ujue
Navarra_Media_Oriental,25/11/2012,10.3,11.9,9.0,0.2,Ujue
Navarra_Media_Oriental,26/11/2012,6.8,9.7,4.0,16.2,Ujue
Navarra_Media_Oriental,27/11/2012,3.1,5.0,1.6,0.9,Ujue
Navarra_Media_Oriental,28/11/2012,1.8,3.7,0.3,9.2,Ujue
Navarra_Media_Oriental,29/11/2012,1.6,3.2,0.7,1.9,Ujue
Navarra_Media_Oriental,30/11/2012,1.0,3.4,-0.0,0.0,Ujue
Navarra_Media_Oriental,01/12/2012,0.6,2.7,-1.5,0.0,Ujue
Navarra_Media_Oriental,02/12/2012,3.0,6.3,-0.6,0.0,Ujue
Navarra_Media_Oriental,03/12/2012,6.6,11.4,3.9,0.0,Ujue
Navarra_Media_Oriental,04/12/2012,4.4,5.7,3.0,3.7,Ujue
Navarra_Media_Oriental,05/12/2012,2.6,4.0,0.9,1.8,Ujue
Navarra_Media_Oriental,06/12/2012,4.3,8.6,1.5,0.1,Ujue
Navarra_Media_Oriental,07/12/2012,5.8,8.2,3.5,0.9,Ujue
Navarra_Media_Oriental,08/12/2012,3.5,5.5,1.5,2.6,Ujue
Navarra_Media_Oriental,09/12/2012,4.3,8.5,0.8,0.0,Ujue
Navarra_Media_Oriental,10/12/2012,4.2,6.3,1.9,0.0,Ujue
Navarra_Media_Oriental,11/12/2012,2.8,5.9,-0.2,0.0,Ujue
Navarra_Media_Oriental,12/12/2012,1.3,3.9,-1.7,0.0,Ujue
Navarra_Media_Oriental,13/12/2012,3.5,4.7,2.3,2.8,Ujue
Navarra_Media_Oriental,14/12/2012,6.5,8.9,4.5,7.3,Ujue
Navarra_Media_Oriental,15/12/2012,9.9,12.0,8.4,0.0,Ujue
Navarra_Media_Oriental,16/12/2012,8.6,11.8,6.9,1.5,Ujue
Navarra_Media_Oriental,17/12/2012,7.5,10.5,6.0,0.2,Ujue
Navarra_Media_Oriental,18/12/2012,7.4,9.9,5.8,0.0,Ujue
Navarra_Media_Oriental,19/12/2012,9.1,11.1,7.4,0.0,Ujue
Navarra_Media_Oriental,20/12/2012,8.3,10.6,6.9,0.5,Ujue
Navarra_Media_Oriental,21/12/2012,8.4,12.5,5.7,0.0,Ujue
Navarra_Media_Oriental,22/12/2012,10.9,15.5,7.0,0.0,Ujue
Navarra_Media_Oriental,23/12/2012,10.2,13.6,7.8,0.0,Ujue
Navarra_Media_Oriental,24/12/2012,11.9,14.5,9.9,0.0,Ujue
Navarra_Media_Oriental,25/12/2012,9.8,12.4,6.0,0.1,Ujue
Navarra_Media_Oriental,26/12/2012,6.5,9.2,4.0,0.0,Ujue
Navarra_Media_Oriental,27/12/2012,6.5,10.2,3.6,0.0,Ujue
Navarra_Media_Oriental,28/12/2012,8.5,13.9,6.3,0.0,Ujue
Navarra_Media_Oriental,29/12/2012,6.9,10.9,5.1,0.0,Ujue
Navarra_Media_Oriental,30/12/2012,5.5,9.1,3.2,0.0,Ujue
Navarra_Media_Oriental,31/12/2012,4.1,5.9,2.1,1.8,Ujue
