Comarca,Fecha, Temperatura media, Temperatura maxima, Temperatura minima, Precipitacion acumulada,Localidad
Navarra_Media_Oriental,01/01/2018,4.2,8.9,-1.1,7.3,Yesa
Navarra_Media_Oriental,02/01/2018,7.4,9.1,5.2,3.1,Yesa
Navarra_Media_Oriental,03/01/2018,11.3,16.4,6.5,0.4,Yesa
Navarra_Media_Oriental,04/01/2018,10.7,17.1,6.2,0.0,Yesa
Navarra_Media_Oriental,05/01/2018,7.5,10.9,5.0,3.1,Yesa
Navarra_Media_Oriental,06/01/2018,3.1,7.5,1.9,43.4,Yesa
Navarra_Media_Oriental,07/01/2018,3.2,7.0,1.2,4.7,Yesa
Navarra_Media_Oriental,08/01/2018,2.8,5.1,-1.6,0.0,Yesa
Navarra_Media_Oriental,09/01/2018,1.5,5.8,-1.8,2.6,Yesa
Navarra_Media_Oriental,10/01/2018,4.2,7.4,1.5,1.8,Yesa
Navarra_Media_Oriental,11/01/2018,2.1,5.4,-0.8,0.7,Yesa
Navarra_Media_Oriental,12/01/2018,4.5,8.6,1.7,0.0,Yesa
Navarra_Media_Oriental,13/01/2018,3.5,8.3,0.3,6.9,Yesa
Navarra_Media_Oriental,14/01/2018,2.9,5.1,0.9,1.8,Yesa
Navarra_Media_Oriental,15/01/2018,4.4,6.7,1.8,0.0,Yesa
Navarra_Media_Oriental,16/01/2018,6.4,9.0,4.6,0.0,Yesa
Navarra_Media_Oriental,17/01/2018,7.9,10.8,4.4,0.3,Yesa
Navarra_Media_Oriental,18/01/2018,4.6,10.8,0.6,0.0,Yesa
Navarra_Media_Oriental,19/01/2018,7.9,12.0,4.7,2.0,Yesa
Navarra_Media_Oriental,20/01/2018,8.8,12.0,4.2,0.5,Yesa
Navarra_Media_Oriental,21/01/2018,12.2,14.1,11.2,0.0,Yesa
Navarra_Media_Oriental,22/01/2018,12.0,14.8,9.1,0.0,Yesa
Navarra_Media_Oriental,23/01/2018,10.2,16.0,4.8,0.0,Yesa
Navarra_Media_Oriental,24/01/2018,6.5,14.7,1.6,0.0,Yesa
Navarra_Media_Oriental,25/01/2018,5.9,10.7,3.7,7.1,Yesa
Navarra_Media_Oriental,26/01/2018,5.3,7.2,4.1,0.7,Yesa
Navarra_Media_Oriental,27/01/2018,5.4,8.7,-0.3,0.1,Yesa
Navarra_Media_Oriental,28/01/2018,3.6,11.9,-1.3,0.0,Yesa
Navarra_Media_Oriental,29/01/2018,4.4,12.2,-0.3,0.0,Yesa
Navarra_Media_Oriental,30/01/2018,4.3,12.7,-0.4,0.0,Yesa
Navarra_Media_Oriental,31/01/2018,3.9,12.3,-0.7,0.0,Yesa
Navarra_Media_Oriental,01/02/2018,3.8,6.9,1.1,0.3,Yesa
Navarra_Media_Oriental,02/02/2018,2.7,6.5,-0.4,0.0,Yesa
Navarra_Media_Oriental,03/02/2018,2.7,4.6,1.0,2.3,Yesa
Navarra_Media_Oriental,04/02/2018,3.5,6.2,1.7,1.9,Yesa
Navarra_Media_Oriental,05/02/2018,1.9,2.8,1.2,1.3,Yesa
Navarra_Media_Oriental,06/02/2018,2.0,4.4,0.5,0.0,Yesa
Navarra_Media_Oriental,07/02/2018,1.7,5.0,-0.3,0.0,Yesa
Navarra_Media_Oriental,08/02/2018,1.2,3.4,-2.8,0.0,Yesa
Navarra_Media_Oriental,09/02/2018,0.5,6.1,-4.1,0.1,Yesa
Navarra_Media_Oriental,10/02/2018,3.8,7.4,1.4,0.0,Yesa
Navarra_Media_Oriental,11/02/2018,5.9,10.7,2.6,2.2,Yesa
Navarra_Media_Oriental,12/02/2018,3.6,6.8,-2.6,0.0,Yesa
Navarra_Media_Oriental,13/02/2018,-1.7,0.3,-4.4,2.0,Yesa
Navarra_Media_Oriental,14/02/2018,2.5,4.9,-0.3,6.1,Yesa
Navarra_Media_Oriental,15/02/2018,8.5,14.4,4.3,0.0,Yesa
Navarra_Media_Oriental,16/02/2018,10.4,16.8,6.8,0.0,Yesa
Navarra_Media_Oriental,17/02/2018,8.5,10.5,6.3,0.0,Yesa
Navarra_Media_Oriental,18/02/2018,7.7,10.5,4.6,0.0,Yesa
Navarra_Media_Oriental,19/02/2018,9.1,11.0,7.3,0.9,Yesa
Navarra_Media_Oriental,20/02/2018,9.1,11.0,7.4,0.1,Yesa
Navarra_Media_Oriental,21/02/2018,4.8,7.8,2.1,1.7,Yesa
Navarra_Media_Oriental,22/02/2018,2.7,7.1,-0.0,0.0,Yesa
Navarra_Media_Oriental,23/02/2018,0.4,5.2,-5.1,0.0,Yesa
Navarra_Media_Oriental,24/02/2018,0.9,9.5,-6.1,0.0,Yesa
Navarra_Media_Oriental,25/02/2018,4.2,13.7,-2.3,0.0,Yesa
Navarra_Media_Oriental,26/02/2018,3.2,10.7,-2.3,0.0,Yesa
Navarra_Media_Oriental,27/02/2018,-1.6,6.2,-8.5,0.0,Yesa
Navarra_Media_Oriental,28/02/2018,1.6,5.4,-3.0,25.9,Yesa
Navarra_Media_Oriental,01/03/2018,8.7,11.5,5.6,5.4,Yesa
Navarra_Media_Oriental,02/03/2018,5.6,10.0,-0.6,3.0,Yesa
Navarra_Media_Oriental,03/03/2018,8.6,14.3,2.9,3.7,Yesa
Navarra_Media_Oriental,04/03/2018,8.8,13.7,5.6,3.7,Yesa
Navarra_Media_Oriental,05/03/2018,6.3,10.7,3.0,17.4,Yesa
Navarra_Media_Oriental,06/03/2018,5.8,12.1,2.0,3.1,Yesa
Navarra_Media_Oriental,07/03/2018,4.5,10.7,-0.9,0.0,Yesa
Navarra_Media_Oriental,08/03/2018,8.5,13.0,4.9,0.0,Yesa
Navarra_Media_Oriental,09/03/2018,11.0,14.3,7.8,9.7,Yesa
Navarra_Media_Oriental,10/03/2018,11.3,14.6,9.2,16.3,Yesa
Navarra_Media_Oriental,11/03/2018,10.0,13.6,6.5,0.0,Yesa
Navarra_Media_Oriental,12/03/2018,8.0,12.7,4.2,0.4,Yesa
Navarra_Media_Oriental,13/03/2018,5.6,9.8,3.8,0.9,Yesa
Navarra_Media_Oriental,14/03/2018,7.0,11.5,2.8,15.7,Yesa
Navarra_Media_Oriental,15/03/2018,8.3,14.0,5.0,0.6,Yesa
Navarra_Media_Oriental,16/03/2018,6.7,12.3,3.7,0.3,Yesa
Navarra_Media_Oriental,17/03/2018,3.7,9.6,1.2,3.7,Yesa
Navarra_Media_Oriental,18/03/2018,3.5,8.2,-0.1,1.8,Yesa
Navarra_Media_Oriental,19/03/2018,2.6,7.5,-0.4,7.7,Yesa
Navarra_Media_Oriental,20/03/2018,1.8,4.8,-0.3,0.0,Yesa
Navarra_Media_Oriental,21/03/2018,3.4,6.7,1.1,0.0,Yesa
Navarra_Media_Oriental,22/03/2018,4.4,8.9,0.9,0.0,Yesa
Navarra_Media_Oriental,23/03/2018,5.9,12.8,-2.3,6.1,Yesa
Navarra_Media_Oriental,24/03/2018,6.3,10.0,2.8,10.1,Yesa
Navarra_Media_Oriental,25/03/2018,6.0,9.5,2.3,0.2,Yesa
Navarra_Media_Oriental,26/03/2018,7.2,10.9,5.5,1.2,Yesa
Navarra_Media_Oriental,27/03/2018,10.5,13.9,5.2,0.0,Yesa
Navarra_Media_Oriental,28/03/2018,11.1,19.4,2.3,0.1,Yesa
Navarra_Media_Oriental,29/03/2018,9.7,15.7,5.6,0.1,Yesa
Navarra_Media_Oriental,30/03/2018,8.9,12.7,3.6,0.3,Yesa
Navarra_Media_Oriental,31/03/2018,5.7,8.9,2.4,5.5,Yesa
Navarra_Media_Oriental,01/04/2018,8.4,16.3,0.2,0.0,Yesa
Navarra_Media_Oriental,02/04/2018,13.6,17.1,9.8,0.0,Yesa
Navarra_Media_Oriental,03/04/2018,14.5,18.5,10.4,0.2,Yesa
Navarra_Media_Oriental,04/04/2018,11.3,17.1,7.9,7.7,Yesa
Navarra_Media_Oriental,05/04/2018,11.9,18.9,5.1,0.0,Yesa
Navarra_Media_Oriental,06/04/2018,13.8,20.7,6.5,4.1,Yesa
Navarra_Media_Oriental,07/04/2018,9.8,12.3,7.8,37.0,Yesa
Navarra_Media_Oriental,08/04/2018,7.6,12.8,3.2,17.4,Yesa
Navarra_Media_Oriental,09/04/2018,5.6,10.2,2.5,4.8,Yesa
Navarra_Media_Oriental,10/04/2018,5.1,5.9,3.8,9.5,Yesa
Navarra_Media_Oriental,11/04/2018,5.5,10.1,1.3,49.3,Yesa
Navarra_Media_Oriental,12/04/2018,7.5,14.5,2.0,1.8,Yesa
Navarra_Media_Oriental,13/04/2018,8.6,12.2,6.6,7.7,Yesa
Navarra_Media_Oriental,14/04/2018,10.7,17.8,5.4,0.1,Yesa
Navarra_Media_Oriental,15/04/2018,11.2,18.8,5.7,0.0,Yesa
Navarra_Media_Oriental,16/04/2018,10.8,16.0,5.3,12.3,Yesa
Navarra_Media_Oriental,17/04/2018,13.1,23.0,5.2,0.0,Yesa
Navarra_Media_Oriental,18/04/2018,16.1,24.8,8.0,0.0,Yesa
Navarra_Media_Oriental,19/04/2018,16.3,23.7,9.6,0.0,Yesa
Navarra_Media_Oriental,20/04/2018,16.4,23.1,10.7,0.0,Yesa
Navarra_Media_Oriental,21/04/2018,16.1,23.2,9.5,0.0,Yesa
Navarra_Media_Oriental,22/04/2018,15.6,22.9,10.5,0.9,Yesa
Navarra_Media_Oriental,23/04/2018,14.8,20.8,10.5,0.0,Yesa
Navarra_Media_Oriental,24/04/2018,16.8,25.7,9.4,0.0,Yesa
Navarra_Media_Oriental,25/04/2018,15.6,24.9,10.1,0.0,Yesa
Navarra_Media_Oriental,26/04/2018,13.9,22.0,7.4,0.0,Yesa
Navarra_Media_Oriental,27/04/2018,13.9,21.2,8.5,0.2,Yesa
Navarra_Media_Oriental,28/04/2018,12.1,19.5,8.7,4.0,Yesa
Navarra_Media_Oriental,29/04/2018,8.3,10.8,6.2,9.9,Yesa
Navarra_Media_Oriental,30/04/2018,8.2,13.6,5.0,0.2,Yesa
Navarra_Media_Oriental,01/05/2018,8.4,13.5,1.0,0.0,Yesa
Navarra_Media_Oriental,02/05/2018,9.1,16.7,0.7,0.0,Yesa
Navarra_Media_Oriental,03/05/2018,10.1,12.8,7.9,0.0,Yesa
Navarra_Media_Oriental,04/05/2018,12.2,16.7,8.3,0.0,Yesa
Navarra_Media_Oriental,05/05/2018,14.1,22.6,5.6,0.0,Yesa
Navarra_Media_Oriental,06/05/2018,16.4,25.9,7.2,0.0,Yesa
Navarra_Media_Oriental,07/05/2018,16.7,25.6,11.6,1.2,Yesa
Navarra_Media_Oriental,08/05/2018,15.9,22.6,10.2,0.0,Yesa
Navarra_Media_Oriental,09/05/2018,15.2,20.3,10.5,0.0,Yesa
Navarra_Media_Oriental,10/05/2018,12.8,18.3,5.2,0.0,Yesa
Navarra_Media_Oriental,11/05/2018,14.8,24.4,4.1,0.7,Yesa
Navarra_Media_Oriental,12/05/2018,11.3,15.5,6.4,0.7,Yesa
Navarra_Media_Oriental,13/05/2018,8.5,13.1,4.7,0.0,Yesa
Navarra_Media_Oriental,14/05/2018,9.4,13.1,6.2,0.0,Yesa
Navarra_Media_Oriental,15/05/2018,11.2,13.9,8.4,0.0,Yesa
Navarra_Media_Oriental,16/05/2018,13.5,21.6,4.0,0.0,Yesa
Navarra_Media_Oriental,17/05/2018,14.1,23.4,5.4,0.0,Yesa
Navarra_Media_Oriental,18/05/2018,14.3,23.2,7.1,0.2,Yesa
Navarra_Media_Oriental,19/05/2018,15.8,24.1,9.4,0.0,Yesa
Navarra_Media_Oriental,20/05/2018,14.9,24.2,6.9,0.4,Yesa
Navarra_Media_Oriental,21/05/2018,14.9,20.8,11.3,6.2,Yesa
Navarra_Media_Oriental,22/05/2018,15.9,23.6,10.5,0.0,Yesa
Navarra_Media_Oriental,23/05/2018,16.5,23.2,10.3,0.0,Yesa
Navarra_Media_Oriental,24/05/2018,19.2,26.3,13.7,3.4,Yesa
Navarra_Media_Oriental,25/05/2018,18.3,24.7,13.4,2.3,Yesa
Navarra_Media_Oriental,26/05/2018,14.5,18.2,11.4,34.8,Yesa
Navarra_Media_Oriental,27/05/2018,17.9,25.8,12.1,0.0,Yesa
Navarra_Media_Oriental,28/05/2018,15.2,21.1,12.9,10.2,Yesa
Navarra_Media_Oriental,29/05/2018,14.9,21.3,12.8,41.7,Yesa
Navarra_Media_Oriental,30/05/2018,14.7,19.3,11.7,4.2,Yesa
Navarra_Media_Oriental,31/05/2018,17.1,23.1,11.4,0.6,Yesa
Navarra_Media_Oriental,01/06/2018,18.0,25.7,13.8,20.2,Yesa
Navarra_Media_Oriental,02/06/2018,17.8,25.0,13.5,12.7,Yesa
Navarra_Media_Oriental,03/06/2018,17.4,24.9,13.1,4.0,Yesa
Navarra_Media_Oriental,04/06/2018,17.3,21.9,13.8,0.0,Yesa
Navarra_Media_Oriental,05/06/2018,15.7,20.8,10.1,0.3,Yesa
Navarra_Media_Oriental,06/06/2018,14.2,19.8,9.8,0.4,Yesa
Navarra_Media_Oriental,07/06/2018,17.5,24.0,10.2,0.0,Yesa
Navarra_Media_Oriental,08/06/2018,17.6,21.6,12.9,20.1,Yesa
Navarra_Media_Oriental,09/06/2018,17.1,23.3,14.5,11.1,Yesa
Navarra_Media_Oriental,10/06/2018,16.3,20.9,11.9,0.2,Yesa
Navarra_Media_Oriental,11/06/2018,16.7,21.9,11.2,0.0,Yesa
Navarra_Media_Oriental,12/06/2018,13.5,16.9,9.1,6.7,Yesa
Navarra_Media_Oriental,13/06/2018,14.1,15.2,13.1,0.4,Yesa
Navarra_Media_Oriental,14/06/2018,17.1,21.5,13.1,0.0,Yesa
Navarra_Media_Oriental,15/06/2018,16.9,23.1,8.9,0.0,Yesa
Navarra_Media_Oriental,16/06/2018,17.2,22.6,11.5,0.0,Yesa
Navarra_Media_Oriental,17/06/2018,16.8,23.0,9.5,0.0,Yesa
Navarra_Media_Oriental,18/06/2018,18.9,23.9,12.5,0.0,Yesa
Navarra_Media_Oriental,19/06/2018,20.3,29.8,11.3,0.0,Yesa
Navarra_Media_Oriental,20/06/2018,24.3,33.2,16.4,0.0,Yesa
Navarra_Media_Oriental,21/06/2018,24.8,32.0,18.4,0.0,Yesa
Navarra_Media_Oriental,22/06/2018,22.2,29.1,15.1,0.0,Yesa
Navarra_Media_Oriental,23/06/2018,20.4,29.3,10.9,0.0,Yesa
Navarra_Media_Oriental,24/06/2018,20.9,31.0,10.5,0.0,Yesa
Navarra_Media_Oriental,25/06/2018,22.3,31.7,14.0,0.0,Yesa
Navarra_Media_Oriental,26/06/2018,23.6,33.5,13.9,0.0,Yesa
Navarra_Media_Oriental,27/06/2018,23.0,31.6,16.6,0.0,Yesa
Navarra_Media_Oriental,28/06/2018,21.4,29.1,15.2,0.0,Yesa
Navarra_Media_Oriental,29/06/2018,22.9,30.7,17.2,10.1,Yesa
Navarra_Media_Oriental,30/06/2018,23.8,31.2,16.8,1.2,Yesa
Navarra_Media_Oriental,01/07/2018,22.6,32.7,15.0,15.6,Yesa
Navarra_Media_Oriental,02/07/2018,21.5,29.5,15.1,0.1,Yesa
Navarra_Media_Oriental,03/07/2018,23.1,31.3,15.6,0.0,Yesa
Navarra_Media_Oriental,04/07/2018,21.8,31.6,14.8,0.0,Yesa
Navarra_Media_Oriental,05/07/2018,19.1,24.1,16.2,0.0,Yesa
Navarra_Media_Oriental,06/07/2018,19.9,27.0,11.8,0.0,Yesa
Navarra_Media_Oriental,07/07/2018,22.4,29.9,14.1,0.0,Yesa
Navarra_Media_Oriental,08/07/2018,24.1,31.6,17.8,2.9,Yesa
Navarra_Media_Oriental,09/07/2018,23.7,29.4,16.4,0.0,Yesa
Navarra_Media_Oriental,10/07/2018,22.7,28.4,16.3,0.0,Yesa
Navarra_Media_Oriental,11/07/2018,21.8,29.1,13.7,0.0,Yesa
Navarra_Media_Oriental,12/07/2018,20.9,28.0,15.3,0.6,Yesa
Navarra_Media_Oriental,13/07/2018,22.2,31.9,15.1,6.0,Yesa
Navarra_Media_Oriental,14/07/2018,24.2,31.8,17.5,0.0,Yesa
Navarra_Media_Oriental,15/07/2018,23.6,31.7,14.2,0.0,Yesa
Navarra_Media_Oriental,16/07/2018,20.3,23.0,17.8,0.0,Yesa
Navarra_Media_Oriental,17/07/2018,21.4,29.7,11.9,0.0,Yesa
Navarra_Media_Oriental,18/07/2018,21.5,30.3,16.4,12.6,Yesa
Navarra_Media_Oriental,19/07/2018,22.3,32.6,14.9,0.0,Yesa
Navarra_Media_Oriental,20/07/2018,20.5,25.6,16.8,0.0,Yesa
Navarra_Media_Oriental,21/07/2018,18.9,22.4,16.0,0.0,Yesa
Navarra_Media_Oriental,22/07/2018,19.6,26.4,11.5,0.0,Yesa
Navarra_Media_Oriental,23/07/2018,22.4,31.7,13.0,0.0,Yesa
Navarra_Media_Oriental,24/07/2018,24.6,31.8,18.1,0.0,Yesa
Navarra_Media_Oriental,25/07/2018,24.3,32.9,15.5,0.0,Yesa
Navarra_Media_Oriental,26/07/2018,25.6,34.2,17.9,0.0,Yesa
Navarra_Media_Oriental,27/07/2018,24.4,33.5,16.7,0.0,Yesa
Navarra_Media_Oriental,28/07/2018,22.7,29.2,16.5,0.0,Yesa
Navarra_Media_Oriental,29/07/2018,23.8,32.5,14.9,0.0,Yesa
Navarra_Media_Oriental,30/07/2018,24.4,33.9,14.6,0.0,Yesa
Navarra_Media_Oriental,31/07/2018,24.0,31.9,17.1,0.0,Yesa
Navarra_Media_Oriental,01/08/2018,24.3,33.9,15.9,0.0,Yesa
Navarra_Media_Oriental,02/08/2018,25.3,35.9,16.3,0.0,Yesa
Navarra_Media_Oriental,03/08/2018,27.0,35.6,18.9,0.0,Yesa
Navarra_Media_Oriental,04/08/2018,26.2,34.3,19.1,0.0,Yesa
Navarra_Media_Oriental,05/08/2018,25.4,34.9,17.5,0.0,Yesa
Navarra_Media_Oriental,06/08/2018,26.9,35.5,17.4,0.0,Yesa
Navarra_Media_Oriental,07/08/2018,24.8,33.8,17.5,3.4,Yesa
Navarra_Media_Oriental,08/08/2018,23.4,31.6,16.1,2.1,Yesa
Navarra_Media_Oriental,09/08/2018,19.9,23.7,15.7,0.0,Yesa
Navarra_Media_Oriental,10/08/2018,20.2,28.7,12.3,0.0,Yesa
Navarra_Media_Oriental,11/08/2018,23.1,32.1,13.6,0.0,Yesa
Navarra_Media_Oriental,12/08/2018,25.3,32.9,18.2,0.0,Yesa
Navarra_Media_Oriental,13/08/2018,21.1,27.8,14.1,0.0,Yesa
Navarra_Media_Oriental,14/08/2018,20.0,24.1,15.7,0.0,Yesa
Navarra_Media_Oriental,15/08/2018,20.8,31.1,11.4,0.0,Yesa
Navarra_Media_Oriental,16/08/2018,22.7,30.5,17.4,0.0,Yesa
Navarra_Media_Oriental,17/08/2018,19.9,25.9,15.5,0.0,Yesa
Navarra_Media_Oriental,18/08/2018,18.3,26.3,8.7,0.0,Yesa
Navarra_Media_Oriental,19/08/2018,20.5,29.3,10.9,0.0,Yesa
Navarra_Media_Oriental,20/08/2018,21.3,31.5,12.5,0.0,Yesa
Navarra_Media_Oriental,21/08/2018,23.1,32.8,13.3,0.0,Yesa
Navarra_Media_Oriental,22/08/2018,23.5,33.6,17.8,2.4,Yesa
Navarra_Media_Oriental,23/08/2018,22.3,29.0,17.0,0.0,Yesa
Navarra_Media_Oriental,24/08/2018,20.2,24.8,15.7,0.0,Yesa
Navarra_Media_Oriental,25/08/2018,18.4,22.9,14.9,0.0,Yesa
Navarra_Media_Oriental,26/08/2018,19.7,29.0,11.7,0.0,Yesa
Navarra_Media_Oriental,27/08/2018,22.9,32.8,14.2,0.0,Yesa
Navarra_Media_Oriental,28/08/2018,25.5,33.3,18.9,0.0,Yesa
Navarra_Media_Oriental,29/08/2018,21.7,28.2,14.3,0.0,Yesa
Navarra_Media_Oriental,30/08/2018,19.6,28.2,12.7,0.0,Yesa
Navarra_Media_Oriental,31/08/2018,19.2,26.5,11.1,0.0,Yesa
Navarra_Media_Oriental,01/09/2018,20.6,29.5,12.2,0.0,Yesa
Navarra_Media_Oriental,02/09/2018,21.0,31.2,12.9,0.0,Yesa
Navarra_Media_Oriental,03/09/2018,21.3,30.0,14.4,2.0,Yesa
Navarra_Media_Oriental,04/09/2018,21.3,29.9,13.2,0.0,Yesa
Navarra_Media_Oriental,05/09/2018,19.6,27.5,15.6,1.9,Yesa
Navarra_Media_Oriental,06/09/2018,18.7,24.7,13.9,0.0,Yesa
Navarra_Media_Oriental,07/09/2018,19.2,26.3,13.3,0.0,Yesa
Navarra_Media_Oriental,08/09/2018,20.8,27.6,13.9,5.1,Yesa
Navarra_Media_Oriental,09/09/2018,19.8,26.8,15.0,5.8,Yesa
Navarra_Media_Oriental,10/09/2018,19.4,27.6,13.6,0.0,Yesa
Navarra_Media_Oriental,11/09/2018,20.2,28.1,13.7,0.3,Yesa
Navarra_Media_Oriental,12/09/2018,19.8,25.3,17.0,0.0,Yesa
Navarra_Media_Oriental,13/09/2018,18.6,24.3,13.3,0.0,Yesa
Navarra_Media_Oriental,14/09/2018,18.3,27.4,10.8,0.0,Yesa
Navarra_Media_Oriental,15/09/2018,17.6,25.6,11.2,0.0,Yesa
Navarra_Media_Oriental,16/09/2018,21.2,29.9,14.7,0.0,Yesa
Navarra_Media_Oriental,17/09/2018,23.0,30.2,16.8,0.0,Yesa
Navarra_Media_Oriental,18/09/2018,22.2,28.9,16.6,0.0,Yesa
Navarra_Media_Oriental,19/09/2018,21.8,30.2,15.4,0.0,Yesa
Navarra_Media_Oriental,20/09/2018,22.6,31.4,15.9,0.0,Yesa
Navarra_Media_Oriental,21/09/2018,21.6,27.7,16.6,0.0,Yesa
Navarra_Media_Oriental,22/09/2018,21.2,30.0,13.1,0.0,Yesa
Navarra_Media_Oriental,23/09/2018,22.2,31.7,14.9,0.0,Yesa
Navarra_Media_Oriental,24/09/2018,18.3,22.7,10.1,0.0,Yesa
Navarra_Media_Oriental,25/09/2018,14.9,23.7,6.4,0.0,Yesa
Navarra_Media_Oriental,26/09/2018,18.9,25.7,11.9,0.0,Yesa
Navarra_Media_Oriental,27/09/2018,19.3,27.6,13.4,0.0,Yesa
Navarra_Media_Oriental,28/09/2018,19.9,29.6,12.9,0.0,Yesa
Navarra_Media_Oriental,29/09/2018,18.0,26.4,9.7,0.0,Yesa
Navarra_Media_Oriental,30/09/2018,15.6,24.3,9.0,0.0,Yesa
Navarra_Media_Oriental,01/10/2018,13.6,16.1,10.3,0.0,Yesa
Navarra_Media_Oriental,02/10/2018,15.0,21.2,9.9,0.0,Yesa
Navarra_Media_Oriental,03/10/2018,15.8,28.3,7.7,0.0,Yesa
Navarra_Media_Oriental,04/10/2018,16.1,26.4,8.5,0.0,Yesa
Navarra_Media_Oriental,05/10/2018,17.4,26.3,11.6,0.0,Yesa
Navarra_Media_Oriental,06/10/2018,16.6,27.1,11.3,0.5,Yesa
Navarra_Media_Oriental,07/10/2018,10.9,13.1,9.6,5.4,Yesa
Navarra_Media_Oriental,08/10/2018,12.9,20.1,7.6,0.2,Yesa
Navarra_Media_Oriental,09/10/2018,11.5,16.1,7.3,2.5,Yesa
Navarra_Media_Oriental,10/10/2018,14.9,18.7,11.8,3.1,Yesa
Navarra_Media_Oriental,11/10/2018,18.5,22.4,15.8,1.4,Yesa
Navarra_Media_Oriental,12/10/2018,19.7,23.9,15.8,0.0,Yesa
Navarra_Media_Oriental,13/10/2018,19.8,25.0,14.3,0.0,Yesa
Navarra_Media_Oriental,14/10/2018,16.2,20.6,11.8,35.3,Yesa
Navarra_Media_Oriental,15/10/2018,13.9,19.7,11.0,0.1,Yesa
Navarra_Media_Oriental,16/10/2018,13.8,21.3,9.2,0.0,Yesa
Navarra_Media_Oriental,17/10/2018,13.1,21.5,8.7,0.0,Yesa
Navarra_Media_Oriental,18/10/2018,14.1,20.9,7.6,0.0,Yesa
Navarra_Media_Oriental,19/10/2018,15.4,21.5,11.4,0.0,Yesa
Navarra_Media_Oriental,20/10/2018,16.2,21.8,13.6,5.5,Yesa
Navarra_Media_Oriental,21/10/2018,15.1,22.0,11.2,0.0,Yesa
Navarra_Media_Oriental,22/10/2018,13.3,21.0,7.4,0.0,Yesa
Navarra_Media_Oriental,23/10/2018,11.7,21.7,6.3,0.0,Yesa
Navarra_Media_Oriental,24/10/2018,11.7,22.6,5.7,0.0,Yesa
Navarra_Media_Oriental,25/10/2018,12.5,21.9,6.5,0.0,Yesa
Navarra_Media_Oriental,26/10/2018,12.8,18.8,8.2,0.0,Yesa
Navarra_Media_Oriental,27/10/2018,9.4,12.9,6.7,0.0,Yesa
Navarra_Media_Oriental,28/10/2018,5.0,6.9,2.3,0.0,Yesa
Navarra_Media_Oriental,29/10/2018,3.7,6.6,2.1,1.7,Yesa
Navarra_Media_Oriental,30/10/2018,6.2,9.8,0.2,0.0,Yesa
Navarra_Media_Oriental,31/10/2018,7.6,9.1,4.7,8.2,Yesa
Navarra_Media_Oriental,01/11/2018,7.9,11.1,5.9,0.0,Yesa
Navarra_Media_Oriental,02/11/2018,9.4,14.4,6.8,8.5,Yesa
Navarra_Media_Oriental,03/11/2018,9.4,14.7,5.0,0.0,Yesa
Navarra_Media_Oriental,04/11/2018,8.8,15.8,2.2,0.0,Yesa
Navarra_Media_Oriental,05/11/2018,10.7,13.6,7.5,3.8,Yesa
Navarra_Media_Oriental,06/11/2018,7.8,9.4,5.8,8.0,Yesa
Navarra_Media_Oriental,07/11/2018,9.7,13.1,6.4,1.1,Yesa
Navarra_Media_Oriental,08/11/2018,8.9,12.9,4.6,2.0,Yesa
Navarra_Media_Oriental,09/11/2018,9.0,12.7,6.8,5.8,Yesa
Navarra_Media_Oriental,10/11/2018,9.9,11.5,7.7,3.0,Yesa
Navarra_Media_Oriental,11/11/2018,13.5,16.6,9.8,0.0,Yesa
Navarra_Media_Oriental,12/11/2018,15.8,18.2,13.3,0.0,Yesa
Navarra_Media_Oriental,13/11/2018,12.3,17.4,8.8,0.0,Yesa
Navarra_Media_Oriental,14/11/2018,10.1,15.0,7.1,0.0,Yesa
Navarra_Media_Oriental,15/11/2018,11.7,16.6,9.4,0.4,Yesa
Navarra_Media_Oriental,16/11/2018,11.0,15.9,8.3,0.0,Yesa
Navarra_Media_Oriental,17/11/2018,10.3,16.2,6.9,0.0,Yesa
Navarra_Media_Oriental,18/11/2018,9.0,11.0,7.3,9.0,Yesa
Navarra_Media_Oriental,19/11/2018,8.9,13.8,2.8,0.1,Yesa
Navarra_Media_Oriental,20/11/2018,4.5,5.7,3.2,4.8,Yesa
Navarra_Media_Oriental,21/11/2018,8.7,13.8,5.4,0.3,Yesa
Navarra_Media_Oriental,22/11/2018,8.7,11.4,4.6,0.0,Yesa
Navarra_Media_Oriental,23/11/2018,7.0,9.0,3.6,7.7,Yesa
Navarra_Media_Oriental,24/11/2018,5.5,11.4,1.7,0.0,Yesa
Navarra_Media_Oriental,25/11/2018,7.0,10.8,3.7,3.9,Yesa
Navarra_Media_Oriental,26/11/2018,6.5,8.6,4.2,4.6,Yesa
Navarra_Media_Oriental,27/11/2018,7.9,13.3,4.3,0.0,Yesa
Navarra_Media_Oriental,28/11/2018,5.2,10.6,2.1,0.0,Yesa
Navarra_Media_Oriental,29/11/2018,5.9,11.9,1.5,1.6,Yesa
Navarra_Media_Oriental,30/11/2018,8.2,11.7,5.9,1.1,Yesa
Navarra_Media_Oriental,01/12/2018,6.1,9.6,2.7,1.2,Yesa
Navarra_Media_Oriental,02/12/2018,7.9,11.7,5.9,0.2,Yesa
Navarra_Media_Oriental,03/12/2018,7.1,10.7,5.1,0.0,Yesa
Navarra_Media_Oriental,04/12/2018,7.0,9.2,5.1,0.0,Yesa
Navarra_Media_Oriental,05/12/2018,0.0,0.0,0.0,0.0,Yesa
Navarra_Media_Oriental,06/12/2018,8.6,14.6,4.3,0.0,Yesa
Navarra_Media_Oriental,07/12/2018,7.3,12.9,1.3,0.0,Yesa
Navarra_Media_Oriental,08/12/2018,8.3,11.8,3.7,0.0,Yesa
Navarra_Media_Oriental,09/12/2018,9.5,13.1,4.2,0.0,Yesa
Navarra_Media_Oriental,10/12/2018,9.0,14.1,3.5,0.0,Yesa
Navarra_Media_Oriental,11/12/2018,3.6,9.1,0.6,0.0,Yesa
Navarra_Media_Oriental,12/12/2018,9.3,12.9,1.6,0.0,Yesa
Navarra_Media_Oriental,13/12/2018,7.6,9.1,6.5,13.2,Yesa
Navarra_Media_Oriental,14/12/2018,8.3,9.7,5.9,2.2,Yesa
Navarra_Media_Oriental,15/12/2018,6.4,9.2,2.9,0.0,Yesa
Navarra_Media_Oriental,16/12/2018,8.4,12.2,6.6,9.6,Yesa
Navarra_Media_Oriental,17/12/2018,5.5,8.6,1.8,0.0,Yesa
Navarra_Media_Oriental,18/12/2018,5.8,8.9,2.0,0.0,Yesa
Navarra_Media_Oriental,19/12/2018,6.9,11.0,3.0,0.0,Yesa
Navarra_Media_Oriental,20/12/2018,6.6,12.2,3.4,0.0,Yesa
Navarra_Media_Oriental,21/12/2018,7.8,11.2,5.4,0.0,Yesa
Navarra_Media_Oriental,22/12/2018,8.8,14.4,5.8,0.0,Yesa
Navarra_Media_Oriental,23/12/2018,6.3,10.4,3.6,0.0,Yesa
Navarra_Media_Oriental,24/12/2018,5.0,7.5,3.6,0.0,Yesa
Navarra_Media_Oriental,25/12/2018,4.4,9.5,1.3,0.0,Yesa
Navarra_Media_Oriental,26/12/2018,4.1,6.1,2.0,0.0,Yesa
Navarra_Media_Oriental,27/12/2018,3.4,4.7,2.5,0.0,Yesa
Navarra_Media_Oriental,28/12/2018,5.7,13.3,0.2,0.0,Yesa
Navarra_Media_Oriental,29/12/2018,5.7,14.1,1.7,0.0,Yesa
Navarra_Media_Oriental,30/12/2018,3.5,11.0,-0.9,0.0,Yesa
Navarra_Media_Oriental,31/12/2018,3.7,11.4,-0.7,0.0,Yesa
