Comarca,Fecha, Temperatura media, Temperatura maxima, Temperatura minima, Precipitacion acumulada,Localidad
Navarra_Media_Oriental,01/01/2017,-1.5,0.1,-3.1,0.0,Yesa
Navarra_Media_Oriental,02/01/2017,-1.1,2.6,-3.2,0.0,Yesa
Navarra_Media_Oriental,03/01/2017,1.3,6.7,-4.0,0.0,Yesa
Navarra_Media_Oriental,04/01/2017,4.1,12.4,-2.7,0.0,Yesa
Navarra_Media_Oriental,05/01/2017,4.8,8.1,-3.0,0.0,Yesa
Navarra_Media_Oriental,06/01/2017,0.3,8.5,-4.0,0.0,Yesa
Navarra_Media_Oriental,07/01/2017,-0.2,7.5,-4.8,0.0,Yesa
Navarra_Media_Oriental,08/01/2017,3.7,14.4,-3.8,0.0,Yesa
Navarra_Media_Oriental,09/01/2017,6.5,11.4,-0.2,0.0,Yesa
Navarra_Media_Oriental,10/01/2017,6.7,8.3,5.4,14.8,Yesa
Navarra_Media_Oriental,11/01/2017,10.6,15.4,5.6,0.0,Yesa
Navarra_Media_Oriental,12/01/2017,8.8,11.8,5.2,1.2,Yesa
Navarra_Media_Oriental,13/01/2017,3.6,8.1,1.5,8.4,Yesa
Navarra_Media_Oriental,14/01/2017,2.9,6.2,1.0,1.3,Yesa
Navarra_Media_Oriental,15/01/2017,3.8,4.9,2.1,9.3,Yesa
Navarra_Media_Oriental,16/01/2017,7.5,10.0,5.1,29.2,Yesa
Navarra_Media_Oriental,17/01/2017,1.5,6.3,-2.0,0.0,Yesa
Navarra_Media_Oriental,18/01/2017,-3.1,1.7,-8.0,0.0,Yesa
Navarra_Media_Oriental,19/01/2017,-2.6,4.4,-8.6,0.0,Yesa
Navarra_Media_Oriental,20/01/2017,-1.6,2.7,-4.0,0.0,Yesa
Navarra_Media_Oriental,21/01/2017,1.1,9.4,-4.2,0.0,Yesa
Navarra_Media_Oriental,22/01/2017,1.6,7.7,-1.9,0.0,Yesa
Navarra_Media_Oriental,23/01/2017,3.4,9.9,-2.0,0.0,Yesa
Navarra_Media_Oriental,24/01/2017,6.6,12.1,1.2,0.0,Yesa
Navarra_Media_Oriental,25/01/2017,1.8,6.5,-3.5,0.0,Yesa
Navarra_Media_Oriental,26/01/2017,1.9,8.1,-5.0,0.0,Yesa
Navarra_Media_Oriental,27/01/2017,6.2,7.7,4.6,2.2,Yesa
Navarra_Media_Oriental,28/01/2017,6.2,10.8,-1.2,2.1,Yesa
Navarra_Media_Oriental,29/01/2017,5.2,11.0,-1.0,0.0,Yesa
Navarra_Media_Oriental,30/01/2017,8.8,12.1,6.2,0.0,Yesa
Navarra_Media_Oriental,31/01/2017,9.0,16.2,4.7,0.0,Yesa
Navarra_Media_Oriental,01/02/2017,9.0,17.0,2.8,0.0,Yesa
Navarra_Media_Oriental,02/02/2017,7.5,11.4,2.7,11.5,Yesa
Navarra_Media_Oriental,03/02/2017,6.4,11.1,2.2,6.7,Yesa
Navarra_Media_Oriental,04/02/2017,8.4,12.2,6.5,7.6,Yesa
Navarra_Media_Oriental,05/02/2017,5.5,8.6,1.7,17.6,Yesa
Navarra_Media_Oriental,06/02/2017,7.1,11.0,2.9,3.9,Yesa
Navarra_Media_Oriental,07/02/2017,8.5,11.7,3.0,1.7,Yesa
Navarra_Media_Oriental,08/02/2017,3.4,6.3,1.0,19.8,Yesa
Navarra_Media_Oriental,09/02/2017,4.2,9.8,0.1,0.0,Yesa
Navarra_Media_Oriental,10/02/2017,5.0,11.4,-0.8,0.0,Yesa
Navarra_Media_Oriental,11/02/2017,4.0,8.3,0.3,1.0,Yesa
Navarra_Media_Oriental,12/02/2017,10.4,12.7,6.5,0.0,Yesa
Navarra_Media_Oriental,13/02/2017,10.0,14.2,6.5,12.7,Yesa
Navarra_Media_Oriental,14/02/2017,6.8,14.1,2.4,0.0,Yesa
Navarra_Media_Oriental,15/02/2017,7.8,15.3,2.4,0.0,Yesa
Navarra_Media_Oriental,16/02/2017,6.8,15.1,2.8,0.0,Yesa
Navarra_Media_Oriental,17/02/2017,6.8,14.4,1.6,0.0,Yesa
Navarra_Media_Oriental,18/02/2017,6.3,14.6,1.3,0.0,Yesa
Navarra_Media_Oriental,19/02/2017,6.8,14.4,1.4,0.0,Yesa
Navarra_Media_Oriental,20/02/2017,5.9,14.5,0.4,0.0,Yesa
Navarra_Media_Oriental,21/02/2017,6.4,15.8,0.4,0.0,Yesa
Navarra_Media_Oriental,22/02/2017,7.8,18.6,1.3,0.0,Yesa
Navarra_Media_Oriental,23/02/2017,7.5,13.1,3.3,0.0,Yesa
Navarra_Media_Oriental,24/02/2017,8.2,10.9,4.1,0.0,Yesa
Navarra_Media_Oriental,25/02/2017,6.8,17.4,-0.4,0.0,Yesa
Navarra_Media_Oriental,26/02/2017,7.4,16.6,0.9,0.0,Yesa
Navarra_Media_Oriental,27/02/2017,8.3,16.3,2.2,0.0,Yesa
Navarra_Media_Oriental,28/02/2017,7.4,11.0,3.0,3.7,Yesa
Navarra_Media_Oriental,01/03/2017,6.9,15.5,-0.2,0.0,Yesa
Navarra_Media_Oriental,02/03/2017,9.7,17.1,3.9,0.0,Yesa
Navarra_Media_Oriental,03/03/2017,10.9,16.1,3.4,26.7,Yesa
Navarra_Media_Oriental,04/03/2017,4.8,9.8,1.5,2.5,Yesa
Navarra_Media_Oriental,05/03/2017,4.7,8.4,2.1,1.8,Yesa
Navarra_Media_Oriental,06/03/2017,9.9,16.3,6.5,0.9,Yesa
Navarra_Media_Oriental,07/03/2017,9.8,12.0,7.2,0.1,Yesa
Navarra_Media_Oriental,08/03/2017,13.1,20.2,6.1,0.0,Yesa
Navarra_Media_Oriental,09/03/2017,11.4,24.7,3.1,0.0,Yesa
Navarra_Media_Oriental,10/03/2017,12.4,26.1,2.9,0.0,Yesa
Navarra_Media_Oriental,11/03/2017,12.3,23.5,3.7,0.0,Yesa
Navarra_Media_Oriental,12/03/2017,9.8,13.7,6.6,4.9,Yesa
Navarra_Media_Oriental,13/03/2017,10.7,14.2,6.6,0.0,Yesa
Navarra_Media_Oriental,14/03/2017,9.7,19.9,3.0,0.0,Yesa
Navarra_Media_Oriental,15/03/2017,10.0,20.1,3.2,0.0,Yesa
Navarra_Media_Oriental,16/03/2017,11.5,21.2,4.6,0.0,Yesa
Navarra_Media_Oriental,17/03/2017,11.9,22.6,3.9,0.0,Yesa
Navarra_Media_Oriental,18/03/2017,10.3,20.7,2.9,0.0,Yesa
Navarra_Media_Oriental,19/03/2017,11.4,21.8,3.8,0.0,Yesa
Navarra_Media_Oriental,20/03/2017,10.6,21.7,2.8,0.0,Yesa
Navarra_Media_Oriental,21/03/2017,7.7,13.6,2.6,0.0,Yesa
Navarra_Media_Oriental,22/03/2017,6.2,12.6,2.4,7.1,Yesa
Navarra_Media_Oriental,23/03/2017,4.8,10.0,0.2,1.0,Yesa
Navarra_Media_Oriental,24/03/2017,6.6,11.9,1.7,4.0,Yesa
Navarra_Media_Oriental,25/03/2017,3.1,5.7,0.2,22.1,Yesa
Navarra_Media_Oriental,26/03/2017,10.4,15.9,5.8,0.0,Yesa
Navarra_Media_Oriental,27/03/2017,9.0,11.5,5.5,1.8,Yesa
Navarra_Media_Oriental,28/03/2017,11.2,18.0,6.7,0.0,Yesa
Navarra_Media_Oriental,29/03/2017,11.1,20.8,3.6,0.0,Yesa
Navarra_Media_Oriental,30/03/2017,14.3,22.1,5.7,0.0,Yesa
Navarra_Media_Oriental,31/03/2017,12.7,19.9,7.9,4.0,Yesa
Navarra_Media_Oriental,01/04/2017,8.5,11.4,6.7,6.0,Yesa
Navarra_Media_Oriental,02/04/2017,8.3,12.0,5.9,7.8,Yesa
Navarra_Media_Oriental,03/04/2017,10.5,19.1,2.2,0.0,Yesa
Navarra_Media_Oriental,04/04/2017,11.3,16.3,5.5,0.0,Yesa
Navarra_Media_Oriental,05/04/2017,11.7,16.0,8.1,0.0,Yesa
Navarra_Media_Oriental,06/04/2017,12.7,16.6,5.8,0.0,Yesa
Navarra_Media_Oriental,07/04/2017,11.5,21.5,3.6,0.0,Yesa
Navarra_Media_Oriental,08/04/2017,13.9,24.2,5.7,0.0,Yesa
Navarra_Media_Oriental,09/04/2017,14.5,23.8,7.2,0.0,Yesa
Navarra_Media_Oriental,10/04/2017,15.8,25.7,6.9,0.0,Yesa
Navarra_Media_Oriental,11/04/2017,12.7,20.2,4.3,0.0,Yesa
Navarra_Media_Oriental,12/04/2017,13.6,24.4,5.0,0.0,Yesa
Navarra_Media_Oriental,13/04/2017,15.3,24.9,6.8,0.0,Yesa
Navarra_Media_Oriental,14/04/2017,14.0,24.3,6.1,0.0,Yesa
Navarra_Media_Oriental,15/04/2017,11.3,16.3,5.2,0.0,Yesa
Navarra_Media_Oriental,16/04/2017,12.5,21.4,2.9,0.0,Yesa
Navarra_Media_Oriental,17/04/2017,13.9,24.0,4.8,0.0,Yesa
Navarra_Media_Oriental,18/04/2017,13.7,20.6,6.1,0.0,Yesa
Navarra_Media_Oriental,19/04/2017,10.9,19.0,1.6,0.0,Yesa
Navarra_Media_Oriental,20/04/2017,10.0,19.7,0.9,0.0,Yesa
Navarra_Media_Oriental,21/04/2017,12.1,20.3,3.9,0.0,Yesa
Navarra_Media_Oriental,22/04/2017,13.0,22.8,5.2,0.0,Yesa
Navarra_Media_Oriental,23/04/2017,15.0,25.3,5.9,0.0,Yesa
Navarra_Media_Oriental,24/04/2017,17.1,26.5,8.6,0.0,Yesa
Navarra_Media_Oriental,25/04/2017,14.1,19.9,8.6,5.3,Yesa
Navarra_Media_Oriental,26/04/2017,8.5,12.4,5.3,0.0,Yesa
Navarra_Media_Oriental,27/04/2017,7.1,11.4,2.9,0.0,Yesa
Navarra_Media_Oriental,28/04/2017,9.2,16.2,2.9,0.0,Yesa
Navarra_Media_Oriental,29/04/2017,9.6,14.1,2.8,0.5,Yesa
Navarra_Media_Oriental,30/04/2017,10.0,14.2,3.8,3.9,Yesa
Navarra_Media_Oriental,01/05/2017,8.6,15.2,-0.2,0.0,Yesa
Navarra_Media_Oriental,02/05/2017,11.7,15.9,7.6,0.0,Yesa
Navarra_Media_Oriental,03/05/2017,12.9,22.1,5.7,0.1,Yesa
Navarra_Media_Oriental,04/05/2017,17.1,24.9,9.8,0.0,Yesa
Navarra_Media_Oriental,05/05/2017,17.7,25.3,10.3,10.6,Yesa
Navarra_Media_Oriental,06/05/2017,13.6,20.3,7.2,0.4,Yesa
Navarra_Media_Oriental,07/05/2017,13.9,21.2,4.9,0.0,Yesa
Navarra_Media_Oriental,08/05/2017,14.3,22.9,6.3,0.0,Yesa
Navarra_Media_Oriental,09/05/2017,15.1,23.2,7.4,0.3,Yesa
Navarra_Media_Oriental,10/05/2017,15.8,23.5,10.2,6.7,Yesa
Navarra_Media_Oriental,11/05/2017,14.4,20.1,11.0,12.2,Yesa
Navarra_Media_Oriental,12/05/2017,14.6,20.6,10.1,0.1,Yesa
Navarra_Media_Oriental,13/05/2017,15.9,20.5,11.2,0.0,Yesa
Navarra_Media_Oriental,14/05/2017,17.0,24.0,11.0,0.0,Yesa
Navarra_Media_Oriental,15/05/2017,18.5,27.2,10.7,0.0,Yesa
Navarra_Media_Oriental,16/05/2017,20.7,29.4,13.5,0.0,Yesa
Navarra_Media_Oriental,17/05/2017,20.0,25.8,14.6,0.0,Yesa
Navarra_Media_Oriental,18/05/2017,10.8,14.6,8.2,12.3,Yesa
Navarra_Media_Oriental,19/05/2017,11.4,16.8,5.4,0.0,Yesa
Navarra_Media_Oriental,20/05/2017,12.8,21.7,4.0,0.0,Yesa
Navarra_Media_Oriental,21/05/2017,17.8,27.4,8.6,0.0,Yesa
Navarra_Media_Oriental,22/05/2017,20.3,28.0,13.9,0.0,Yesa
Navarra_Media_Oriental,23/05/2017,18.7,28.5,8.4,0.0,Yesa
Navarra_Media_Oriental,24/05/2017,21.5,30.8,13.4,0.0,Yesa
Navarra_Media_Oriental,25/05/2017,23.3,32.6,15.8,0.0,Yesa
Navarra_Media_Oriental,26/05/2017,24.1,32.4,15.7,0.1,Yesa
Navarra_Media_Oriental,27/05/2017,24.2,31.6,14.1,0.0,Yesa
Navarra_Media_Oriental,28/05/2017,24.7,29.5,18.6,0.0,Yesa
Navarra_Media_Oriental,29/05/2017,18.7,22.5,14.9,3.6,Yesa
Navarra_Media_Oriental,30/05/2017,17.8,24.4,12.4,0.1,Yesa
Navarra_Media_Oriental,31/05/2017,18.4,27.1,10.5,0.0,Yesa
Navarra_Media_Oriental,01/06/2017,20.9,29.8,13.0,0.0,Yesa
Navarra_Media_Oriental,02/06/2017,21.1,28.1,16.8,0.2,Yesa
Navarra_Media_Oriental,03/06/2017,17.5,23.0,14.5,7.5,Yesa
Navarra_Media_Oriental,04/06/2017,12.6,15.9,9.3,7.9,Yesa
Navarra_Media_Oriental,05/06/2017,17.2,22.9,12.6,0.1,Yesa
Navarra_Media_Oriental,06/06/2017,15.6,19.5,10.4,0.0,Yesa
Navarra_Media_Oriental,07/06/2017,17.8,27.5,8.5,0.0,Yesa
Navarra_Media_Oriental,08/06/2017,21.1,31.0,13.2,16.2,Yesa
Navarra_Media_Oriental,09/06/2017,21.7,30.3,14.6,0.0,Yesa
Navarra_Media_Oriental,10/06/2017,23.2,33.3,13.8,0.0,Yesa
Navarra_Media_Oriental,11/06/2017,24.7,35.0,16.8,0.0,Yesa
Navarra_Media_Oriental,12/06/2017,23.7,34.9,14.3,0.0,Yesa
Navarra_Media_Oriental,13/06/2017,25.8,34.9,16.1,0.0,Yesa
Navarra_Media_Oriental,14/06/2017,27.3,36.5,18.0,0.0,Yesa
Navarra_Media_Oriental,15/06/2017,23.8,31.6,16.7,0.0,Yesa
Navarra_Media_Oriental,16/06/2017,23.2,32.8,13.6,0.0,Yesa
Navarra_Media_Oriental,17/06/2017,24.5,36.3,13.7,0.0,Yesa
Navarra_Media_Oriental,18/06/2017,26.4,35.9,15.3,0.0,Yesa
Navarra_Media_Oriental,19/06/2017,28.5,34.2,22.0,0.0,Yesa
Navarra_Media_Oriental,20/06/2017,24.8,32.6,17.9,0.4,Yesa
Navarra_Media_Oriental,21/06/2017,26.3,35.1,19.7,0.0,Yesa
Navarra_Media_Oriental,22/06/2017,26.8,36.5,18.6,0.0,Yesa
Navarra_Media_Oriental,23/06/2017,24.4,34.9,16.9,0.0,Yesa
Navarra_Media_Oriental,24/06/2017,21.4,30.3,14.2,0.7,Yesa
Navarra_Media_Oriental,25/06/2017,22.3,30.8,15.9,8.7,Yesa
Navarra_Media_Oriental,26/06/2017,19.6,23.0,16.4,10.9,Yesa
Navarra_Media_Oriental,27/06/2017,20.7,29.0,16.2,1.1,Yesa
Navarra_Media_Oriental,28/06/2017,17.1,23.0,13.6,13.4,Yesa
Navarra_Media_Oriental,29/06/2017,15.3,20.2,11.9,0.1,Yesa
Navarra_Media_Oriental,30/06/2017,12.6,16.8,7.4,0.5,Yesa
Navarra_Media_Oriental,01/07/2017,13.3,16.9,10.6,0.0,Yesa
Navarra_Media_Oriental,02/07/2017,17.3,23.1,11.9,0.0,Yesa
Navarra_Media_Oriental,03/07/2017,19.8,29.8,10.0,0.0,Yesa
Navarra_Media_Oriental,04/07/2017,24.2,33.3,14.4,0.0,Yesa
Navarra_Media_Oriental,05/07/2017,26.6,34.8,14.5,0.0,Yesa
Navarra_Media_Oriental,06/07/2017,25.0,31.5,19.5,0.1,Yesa
Navarra_Media_Oriental,07/07/2017,25.9,33.6,18.7,0.0,Yesa
Navarra_Media_Oriental,08/07/2017,22.9,31.0,18.2,0.1,Yesa
Navarra_Media_Oriental,09/07/2017,22.4,29.7,16.7,0.0,Yesa
Navarra_Media_Oriental,10/07/2017,19.7,25.5,15.4,5.4,Yesa
Navarra_Media_Oriental,11/07/2017,22.5,32.3,13.6,0.0,Yesa
Navarra_Media_Oriental,12/07/2017,23.6,31.1,14.7,0.0,Yesa
Navarra_Media_Oriental,13/07/2017,22.4,31.1,13.5,0.0,Yesa
Navarra_Media_Oriental,14/07/2017,20.9,28.0,12.5,0.0,Yesa
Navarra_Media_Oriental,15/07/2017,21.1,30.5,10.3,0.0,Yesa
Navarra_Media_Oriental,16/07/2017,24.4,35.3,12.6,0.0,Yesa
Navarra_Media_Oriental,17/07/2017,27.9,34.4,20.6,0.1,Yesa
Navarra_Media_Oriental,18/07/2017,27.7,35.1,19.3,4.0,Yesa
Navarra_Media_Oriental,19/07/2017,24.8,32.8,16.9,17.7,Yesa
Navarra_Media_Oriental,20/07/2017,20.1,26.6,15.0,0.1,Yesa
Navarra_Media_Oriental,21/07/2017,20.3,27.7,14.6,0.1,Yesa
Navarra_Media_Oriental,22/07/2017,21.2,31.0,14.1,0.0,Yesa
Navarra_Media_Oriental,23/07/2017,20.2,28.6,13.5,0.0,Yesa
Navarra_Media_Oriental,24/07/2017,19.7,23.0,16.4,0.0,Yesa
Navarra_Media_Oriental,25/07/2017,18.5,22.3,15.3,0.0,Yesa
Navarra_Media_Oriental,26/07/2017,20.9,28.1,14.0,0.0,Yesa
Navarra_Media_Oriental,27/07/2017,23.3,33.3,14.6,0.0,Yesa
Navarra_Media_Oriental,28/07/2017,24.1,33.3,14.8,0.0,Yesa
Navarra_Media_Oriental,29/07/2017,25.5,35.8,14.7,0.0,Yesa
Navarra_Media_Oriental,30/07/2017,25.4,35.8,18.4,0.0,Yesa
Navarra_Media_Oriental,31/07/2017,23.4,35.6,14.5,0.0,Yesa
Navarra_Media_Oriental,01/08/2017,22.6,31.3,16.6,0.0,Yesa
Navarra_Media_Oriental,02/08/2017,25.6,34.7,14.5,0.0,Yesa
Navarra_Media_Oriental,03/08/2017,27.3,36.9,16.9,0.0,Yesa
Navarra_Media_Oriental,04/08/2017,25.7,34.0,16.4,0.0,Yesa
Navarra_Media_Oriental,05/08/2017,23.0,30.1,17.2,0.2,Yesa
Navarra_Media_Oriental,06/08/2017,20.6,29.5,14.1,0.1,Yesa
Navarra_Media_Oriental,07/08/2017,22.9,32.2,16.3,12.0,Yesa
Navarra_Media_Oriental,08/08/2017,17.9,21.9,12.1,0.0,Yesa
Navarra_Media_Oriental,09/08/2017,14.8,19.2,9.2,0.0,Yesa
Navarra_Media_Oriental,10/08/2017,15.1,19.0,12.5,0.0,Yesa
Navarra_Media_Oriental,11/08/2017,16.4,22.8,11.5,0.0,Yesa
Navarra_Media_Oriental,12/08/2017,18.7,29.2,9.5,0.0,Yesa
Navarra_Media_Oriental,13/08/2017,21.4,32.4,10.3,0.0,Yesa
Navarra_Media_Oriental,14/08/2017,26.0,34.7,14.5,0.1,Yesa
Navarra_Media_Oriental,15/08/2017,24.4,33.6,17.6,0.0,Yesa
Navarra_Media_Oriental,16/08/2017,21.8,30.5,15.4,0.0,Yesa
Navarra_Media_Oriental,17/08/2017,23.8,35.1,12.5,0.0,Yesa
Navarra_Media_Oriental,18/08/2017,22.5,29.1,16.8,0.0,Yesa
Navarra_Media_Oriental,19/08/2017,20.7,27.1,13.9,0.0,Yesa
Navarra_Media_Oriental,20/08/2017,19.5,29.2,9.5,0.0,Yesa
Navarra_Media_Oriental,21/08/2017,23.7,35.5,12.3,0.0,Yesa
Navarra_Media_Oriental,22/08/2017,26.6,37.3,17.9,0.3,Yesa
Navarra_Media_Oriental,23/08/2017,24.4,34.2,17.4,3.9,Yesa
Navarra_Media_Oriental,24/08/2017,24.8,34.1,18.0,0.0,Yesa
Navarra_Media_Oriental,25/08/2017,25.4,34.6,14.5,0.0,Yesa
Navarra_Media_Oriental,26/08/2017,27.2,34.1,20.9,0.6,Yesa
Navarra_Media_Oriental,27/08/2017,22.1,31.1,18.7,6.3,Yesa
Navarra_Media_Oriental,28/08/2017,21.5,31.3,15.9,20.0,Yesa
Navarra_Media_Oriental,29/08/2017,19.5,27.0,15.8,27.4,Yesa
Navarra_Media_Oriental,30/08/2017,20.0,27.0,15.2,9.2,Yesa
Navarra_Media_Oriental,31/08/2017,17.0,22.3,11.3,1.8,Yesa
Navarra_Media_Oriental,01/09/2017,15.2,21.0,9.8,0.0,Yesa
Navarra_Media_Oriental,02/09/2017,15.1,21.6,10.3,0.0,Yesa
Navarra_Media_Oriental,03/09/2017,17.5,25.7,11.2,0.0,Yesa
Navarra_Media_Oriental,04/09/2017,20.5,26.6,14.4,0.1,Yesa
Navarra_Media_Oriental,05/09/2017,21.1,30.1,15.6,0.0,Yesa
Navarra_Media_Oriental,06/09/2017,19.0,23.8,14.5,0.0,Yesa
Navarra_Media_Oriental,07/09/2017,15.9,22.6,10.8,0.0,Yesa
Navarra_Media_Oriental,08/09/2017,16.5,27.4,8.7,0.0,Yesa
Navarra_Media_Oriental,09/09/2017,15.0,18.9,10.9,3.0,Yesa
Navarra_Media_Oriental,10/09/2017,13.6,17.7,10.0,27.4,Yesa
Navarra_Media_Oriental,11/09/2017,16.1,20.8,12.2,1.0,Yesa
Navarra_Media_Oriental,12/09/2017,16.4,20.8,12.5,0.0,Yesa
Navarra_Media_Oriental,13/09/2017,18.5,28.8,10.1,0.0,Yesa
Navarra_Media_Oriental,14/09/2017,15.0,18.3,11.3,0.0,Yesa
Navarra_Media_Oriental,15/09/2017,13.1,17.6,9.3,0.0,Yesa
Navarra_Media_Oriental,16/09/2017,11.0,15.7,5.7,0.0,Yesa
Navarra_Media_Oriental,17/09/2017,12.0,18.7,5.7,0.0,Yesa
Navarra_Media_Oriental,18/09/2017,13.3,17.5,10.3,5.0,Yesa
Navarra_Media_Oriental,19/09/2017,14.0,18.5,9.8,0.0,Yesa
Navarra_Media_Oriental,20/09/2017,13.9,25.7,5.7,0.0,Yesa
Navarra_Media_Oriental,21/09/2017,16.4,27.5,8.6,0.0,Yesa
Navarra_Media_Oriental,22/09/2017,14.2,18.1,11.9,22.3,Yesa
Navarra_Media_Oriental,23/09/2017,16.2,25.4,9.8,0.0,Yesa
Navarra_Media_Oriental,24/09/2017,18.6,28.1,11.6,0.0,Yesa
Navarra_Media_Oriental,25/09/2017,17.3,21.5,13.7,0.0,Yesa
Navarra_Media_Oriental,26/09/2017,16.0,23.5,10.6,0.0,Yesa
Navarra_Media_Oriental,27/09/2017,17.0,25.7,10.9,0.0,Yesa
Navarra_Media_Oriental,28/09/2017,18.3,27.9,12.0,0.0,Yesa
Navarra_Media_Oriental,29/09/2017,18.2,27.0,12.4,0.0,Yesa
Navarra_Media_Oriental,30/09/2017,15.4,19.4,13.2,3.1,Yesa
Navarra_Media_Oriental,01/10/2017,16.3,19.8,12.6,0.0,Yesa
Navarra_Media_Oriental,02/10/2017,18.7,23.8,13.4,0.0,Yesa
Navarra_Media_Oriental,03/10/2017,18.0,25.2,12.9,0.0,Yesa
Navarra_Media_Oriental,04/10/2017,17.9,26.3,12.1,0.0,Yesa
Navarra_Media_Oriental,05/10/2017,18.0,25.8,11.2,0.0,Yesa
Navarra_Media_Oriental,06/10/2017,16.6,20.4,12.6,0.0,Yesa
Navarra_Media_Oriental,07/10/2017,13.6,23.3,6.3,0.0,Yesa
Navarra_Media_Oriental,08/10/2017,14.1,24.5,6.6,0.0,Yesa
Navarra_Media_Oriental,09/10/2017,14.3,24.6,6.4,0.0,Yesa
Navarra_Media_Oriental,10/10/2017,14.4,25.4,6.9,0.0,Yesa
Navarra_Media_Oriental,11/10/2017,15.1,25.7,8.0,0.0,Yesa
Navarra_Media_Oriental,12/10/2017,15.6,26.0,8.8,0.0,Yesa
Navarra_Media_Oriental,13/10/2017,16.8,27.4,9.7,0.0,Yesa
Navarra_Media_Oriental,14/10/2017,17.2,26.4,10.6,0.0,Yesa
Navarra_Media_Oriental,15/10/2017,17.5,25.3,12.3,0.0,Yesa
Navarra_Media_Oriental,16/10/2017,18.1,26.6,13.0,0.0,Yesa
Navarra_Media_Oriental,17/10/2017,17.4,24.0,10.6,0.0,Yesa
Navarra_Media_Oriental,18/10/2017,14.4,17.5,10.8,31.7,Yesa
Navarra_Media_Oriental,19/10/2017,12.8,18.5,10.1,0.3,Yesa
Navarra_Media_Oriental,20/10/2017,12.8,19.4,8.9,0.0,Yesa
Navarra_Media_Oriental,21/10/2017,12.7,16.2,10.6,0.0,Yesa
Navarra_Media_Oriental,22/10/2017,11.7,14.9,9.5,0.0,Yesa
Navarra_Media_Oriental,23/10/2017,12.5,20.9,5.7,0.0,Yesa
Navarra_Media_Oriental,24/10/2017,13.3,22.9,7.0,0.0,Yesa
Navarra_Media_Oriental,25/10/2017,14.4,25.3,8.2,0.0,Yesa
Navarra_Media_Oriental,26/10/2017,15.0,24.8,8.9,0.0,Yesa
Navarra_Media_Oriental,27/10/2017,14.9,20.1,6.6,0.0,Yesa
Navarra_Media_Oriental,28/10/2017,15.0,19.5,8.2,0.0,Yesa
Navarra_Media_Oriental,29/10/2017,11.2,18.3,4.0,0.0,Yesa
Navarra_Media_Oriental,30/10/2017,13.5,17.3,5.0,0.0,Yesa
Navarra_Media_Oriental,31/10/2017,9.1,17.1,3.9,0.0,Yesa
Navarra_Media_Oriental,01/11/2017,12.4,19.4,7.4,0.0,Yesa
Navarra_Media_Oriental,02/11/2017,13.3,19.0,9.7,0.0,Yesa
Navarra_Media_Oriental,03/11/2017,13.6,19.3,10.6,0.0,Yesa
Navarra_Media_Oriental,04/11/2017,11.4,14.0,9.3,15.9,Yesa
Navarra_Media_Oriental,05/11/2017,9.4,11.9,6.7,5.0,Yesa
Navarra_Media_Oriental,06/11/2017,7.7,10.6,5.3,0.0,Yesa
Navarra_Media_Oriental,07/11/2017,7.1,11.7,2.1,0.2,Yesa
Navarra_Media_Oriental,08/11/2017,6.1,9.0,2.5,2.9,Yesa
Navarra_Media_Oriental,09/11/2017,7.2,9.6,4.5,0.1,Yesa
Navarra_Media_Oriental,10/11/2017,9.9,12.7,6.8,0.2,Yesa
Navarra_Media_Oriental,11/11/2017,11.5,14.2,10.2,0.0,Yesa
Navarra_Media_Oriental,12/11/2017,11.6,13.6,10.1,1.2,Yesa
Navarra_Media_Oriental,13/11/2017,7.0,10.0,5.1,0.0,Yesa
Navarra_Media_Oriental,14/11/2017,6.9,12.7,0.8,0.0,Yesa
Navarra_Media_Oriental,15/11/2017,3.6,10.7,-1.3,0.0,Yesa
Navarra_Media_Oriental,16/11/2017,5.8,14.2,-0.6,0.0,Yesa
Navarra_Media_Oriental,17/11/2017,6.8,15.7,0.9,0.0,Yesa
Navarra_Media_Oriental,18/11/2017,6.0,15.3,0.6,0.0,Yesa
Navarra_Media_Oriental,19/11/2017,4.6,12.9,-0.6,0.0,Yesa
Navarra_Media_Oriental,20/11/2017,4.9,13.7,-0.6,0.0,Yesa
Navarra_Media_Oriental,21/11/2017,5.1,14.6,-0.4,0.0,Yesa
Navarra_Media_Oriental,22/11/2017,5.9,14.8,-0.1,0.0,Yesa
Navarra_Media_Oriental,23/11/2017,9.8,17.1,6.1,0.0,Yesa
Navarra_Media_Oriental,24/11/2017,9.9,14.1,6.7,0.6,Yesa
Navarra_Media_Oriental,25/11/2017,9.0,11.5,5.6,2.4,Yesa
Navarra_Media_Oriental,26/11/2017,6.1,9.1,1.7,0.0,Yesa
Navarra_Media_Oriental,27/11/2017,2.4,9.1,-1.1,0.0,Yesa
Navarra_Media_Oriental,28/11/2017,2.5,9.7,-2.2,0.0,Yesa
Navarra_Media_Oriental,29/11/2017,4.6,9.5,1.2,0.0,Yesa
Navarra_Media_Oriental,30/11/2017,3.6,8.1,-0.6,0.2,Yesa
Navarra_Media_Oriental,01/12/2017,1.2,4.0,-0.9,3.5,Yesa
Navarra_Media_Oriental,02/12/2017,1.3,4.0,-0.7,0.0,Yesa
Navarra_Media_Oriental,03/12/2017,2.9,5.7,1.0,0.0,Yesa
Navarra_Media_Oriental,04/12/2017,3.3,10.9,-1.2,0.0,Yesa
Navarra_Media_Oriental,05/12/2017,0.5,8.5,-3.6,0.0,Yesa
Navarra_Media_Oriental,06/12/2017,0.1,6.6,-3.8,0.0,Yesa
Navarra_Media_Oriental,07/12/2017,1.3,6.2,-2.6,0.0,Yesa
Navarra_Media_Oriental,08/12/2017,5.4,9.9,2.4,0.2,Yesa
Navarra_Media_Oriental,09/12/2017,5.7,9.0,3.8,3.2,Yesa
Navarra_Media_Oriental,10/12/2017,6.4,11.4,3.7,8.4,Yesa
Navarra_Media_Oriental,11/12/2017,6.8,12.4,4.0,7.2,Yesa
Navarra_Media_Oriental,12/12/2017,3.4,7.0,-0.3,0.0,Yesa
Navarra_Media_Oriental,13/12/2017,1.6,4.3,-1.4,0.2,Yesa
Navarra_Media_Oriental,14/12/2017,6.1,8.5,4.0,4.7,Yesa
Navarra_Media_Oriental,15/12/2017,5.1,9.3,2.4,3.9,Yesa
Navarra_Media_Oriental,16/12/2017,3.7,6.2,1.8,11.2,Yesa
Navarra_Media_Oriental,17/12/2017,5.3,8.0,2.8,0.0,Yesa
Navarra_Media_Oriental,18/12/2017,7.5,11.4,4.1,0.3,Yesa
Navarra_Media_Oriental,19/12/2017,4.6,10.0,-0.8,0.0,Yesa
Navarra_Media_Oriental,20/12/2017,4.9,14.1,-1.1,0.0,Yesa
Navarra_Media_Oriental,21/12/2017,6.7,14.9,0.8,0.0,Yesa
Navarra_Media_Oriental,22/12/2017,7.3,11.9,2.0,0.0,Yesa
Navarra_Media_Oriental,23/12/2017,5.2,12.4,1.0,0.0,Yesa
Navarra_Media_Oriental,24/12/2017,2.3,8.0,-0.8,0.0,Yesa
Navarra_Media_Oriental,25/12/2017,1.7,5.7,-1.6,1.0,Yesa
Navarra_Media_Oriental,26/12/2017,4.4,6.6,2.5,4.0,Yesa
Navarra_Media_Oriental,27/12/2017,3.1,5.9,1.2,20.9,Yesa
Navarra_Media_Oriental,28/12/2017,3.8,7.8,2.1,5.6,Yesa
Navarra_Media_Oriental,29/12/2017,6.6,9.3,4.9,3.9,Yesa
Navarra_Media_Oriental,30/12/2017,7.3,15.6,4.0,0.0,Yesa
Navarra_Media_Oriental,31/12/2017,5.2,9.4,2.3,9.0,Yesa
