Comarca,Fecha, Temperatura media, Temperatura maxima, Temperatura minima, Precipitacion acumulada,Localidad
Navarra_Media_Oriental,01/01/2013,6.2,8.6,4.2,2.1,Yesa
Navarra_Media_Oriental,02/01/2013,7.3,9.1,6.0,0.0,Yesa
Navarra_Media_Oriental,03/01/2013,5.4,10.5,1.1,0.0,Yesa
Navarra_Media_Oriental,04/01/2013,4.2,11.3,0.0,0.0,Yesa
Navarra_Media_Oriental,05/01/2013,4.9,11.5,0.3,0.0,Yesa
Navarra_Media_Oriental,06/01/2013,5.2,14.4,0.6,0.0,Yesa
Navarra_Media_Oriental,07/01/2013,4.7,13.4,0.3,0.0,Yesa
Navarra_Media_Oriental,08/01/2013,3.7,10.4,0.0,0.0,Yesa
Navarra_Media_Oriental,09/01/2013,1.2,3.4,-1.1,0.2,Yesa
Navarra_Media_Oriental,10/01/2013,7.6,13.2,2.6,0.0,Yesa
Navarra_Media_Oriental,11/01/2013,6.5,12.2,2.6,0.0,Yesa
Navarra_Media_Oriental,12/01/2013,3.7,7.2,0.8,3.3,Yesa
Navarra_Media_Oriental,13/01/2013,4.3,6.3,2.4,1.1,Yesa
Navarra_Media_Oriental,14/01/2013,3.2,5.0,0.3,9.1,Yesa
Navarra_Media_Oriental,15/01/2013,1.5,3.4,-0.2,52.3,Yesa
Navarra_Media_Oriental,16/01/2013,4.9,8.6,1.3,12.4,Yesa
Navarra_Media_Oriental,17/01/2013,4.8,8.4,1.2,0.5,Yesa
Navarra_Media_Oriental,18/01/2013,5.0,7.8,1.0,16.5,Yesa
Navarra_Media_Oriental,19/01/2013,7.9,10.1,5.1,18.8,Yesa
Navarra_Media_Oriental,20/01/2013,4.2,5.9,2.8,9.9,Yesa
Navarra_Media_Oriental,21/01/2013,3.7,6.7,-1.0,0.9,Yesa
Navarra_Media_Oriental,22/01/2013,1.0,3.0,-0.5,2.5,Yesa
Navarra_Media_Oriental,23/01/2013,1.4,3.5,-0.3,24.5,Yesa
Navarra_Media_Oriental,24/01/2013,2.2,4.8,-0.1,28.0,Yesa
Navarra_Media_Oriental,25/01/2013,2.8,6.5,-1.5,1.4,Yesa
Navarra_Media_Oriental,26/01/2013,5.9,10.1,0.5,13.0,Yesa
Navarra_Media_Oriental,27/01/2013,4.5,7.6,2.2,15.3,Yesa
Navarra_Media_Oriental,28/01/2013,6.2,10.5,0.7,0.1,Yesa
Navarra_Media_Oriental,29/01/2013,4.7,10.9,1.1,0.0,Yesa
Navarra_Media_Oriental,30/01/2013,5.5,10.5,1.8,0.0,Yesa
Navarra_Media_Oriental,31/01/2013,8.1,15.8,3.3,0.0,Yesa
Navarra_Media_Oriental,01/02/2013,7.6,12.7,3.9,8.6,Yesa
Navarra_Media_Oriental,02/02/2013,3.6,8.5,1.1,29.5,Yesa
Navarra_Media_Oriental,03/02/2013,3.7,6.2,0.5,0.0,Yesa
Navarra_Media_Oriental,04/02/2013,8.3,12.1,4.3,0.0,Yesa
Navarra_Media_Oriental,05/02/2013,9.0,11.9,3.0,2.5,Yesa
Navarra_Media_Oriental,06/02/2013,2.7,4.4,0.4,30.9,Yesa
Navarra_Media_Oriental,07/02/2013,2.2,5.6,-0.4,2.0,Yesa
Navarra_Media_Oriental,08/02/2013,2.4,4.0,0.2,4.5,Yesa
Navarra_Media_Oriental,09/02/2013,3.9,7.4,1.8,2.8,Yesa
Navarra_Media_Oriental,10/02/2013,3.8,7.2,0.1,10.5,Yesa
Navarra_Media_Oriental,11/02/2013,2.4,5.3,0.2,6.5,Yesa
Navarra_Media_Oriental,12/02/2013,3.4,5.4,0.1,3.1,Yesa
Navarra_Media_Oriental,13/02/2013,7.0,10.6,3.4,0.0,Yesa
Navarra_Media_Oriental,14/02/2013,9.1,11.6,7.8,0.0,Yesa
Navarra_Media_Oriental,15/02/2013,7.8,12.4,1.9,0.0,Yesa
Navarra_Media_Oriental,16/02/2013,4.6,12.3,-0.4,0.0,Yesa
Navarra_Media_Oriental,17/02/2013,5.7,12.7,0.9,0.0,Yesa
Navarra_Media_Oriental,18/02/2013,6.9,12.1,4.9,0.1,Yesa
Navarra_Media_Oriental,19/02/2013,8.3,11.7,4.6,0.0,Yesa
Navarra_Media_Oriental,20/02/2013,8.6,15.2,4.0,0.0,Yesa
Navarra_Media_Oriental,21/02/2013,7.8,13.1,3.2,0.0,Yesa
Navarra_Media_Oriental,22/02/2013,6.2,9.3,1.3,0.0,Yesa
Navarra_Media_Oriental,23/02/2013,-1.1,1.8,-4.2,0.0,Yesa
Navarra_Media_Oriental,24/02/2013,0.7,4.3,-1.4,0.0,Yesa
Navarra_Media_Oriental,25/02/2013,1.5,6.1,-1.3,0.0,Yesa
Navarra_Media_Oriental,26/02/2013,1.3,4.3,-1.2,0.0,Yesa
Navarra_Media_Oriental,27/02/2013,3.0,9.8,-2.9,0.0,Yesa
Navarra_Media_Oriental,28/02/2013,4.9,11.9,-1.0,0.0,Yesa
Navarra_Media_Oriental,01/03/2013,6.9,13.3,1.5,0.0,Yesa
Navarra_Media_Oriental,02/03/2013,5.5,13.6,-0.5,0.0,Yesa
Navarra_Media_Oriental,03/03/2013,8.2,15.8,1.3,0.0,Yesa
Navarra_Media_Oriental,04/03/2013,10.1,13.6,3.6,0.0,Yesa
Navarra_Media_Oriental,05/03/2013,9.4,10.6,8.0,2.1,Yesa
Navarra_Media_Oriental,06/03/2013,12.1,18.6,7.4,1.8,Yesa
Navarra_Media_Oriental,07/03/2013,11.4,15.2,8.1,6.5,Yesa
Navarra_Media_Oriental,08/03/2013,10.7,16.8,4.8,16.5,Yesa
Navarra_Media_Oriental,09/03/2013,8.8,13.1,4.9,1.7,Yesa
Navarra_Media_Oriental,10/03/2013,8.7,14.0,5.2,0.0,Yesa
Navarra_Media_Oriental,11/03/2013,7.0,11.6,4.6,2.2,Yesa
Navarra_Media_Oriental,12/03/2013,7.0,12.0,1.3,4.0,Yesa
Navarra_Media_Oriental,13/03/2013,1.4,2.8,-0.8,0.1,Yesa
Navarra_Media_Oriental,14/03/2013,2.9,4.9,0.4,0.3,Yesa
Navarra_Media_Oriental,15/03/2013,4.4,8.9,1.0,0.0,Yesa
Navarra_Media_Oriental,16/03/2013,4.8,8.5,1.2,0.8,Yesa
Navarra_Media_Oriental,17/03/2013,5.6,7.4,4.0,8.0,Yesa
Navarra_Media_Oriental,18/03/2013,5.2,11.6,-0.4,0.0,Yesa
Navarra_Media_Oriental,19/03/2013,6.1,12.0,0.8,4.9,Yesa
Navarra_Media_Oriental,20/03/2013,7.7,12.6,3.6,0.5,Yesa
Navarra_Media_Oriental,21/03/2013,8.7,17.2,0.9,0.0,Yesa
Navarra_Media_Oriental,22/03/2013,10.7,18.1,5.2,0.6,Yesa
Navarra_Media_Oriental,23/03/2013,9.2,17.0,3.5,0.0,Yesa
Navarra_Media_Oriental,24/03/2013,10.2,17.1,3.3,0.0,Yesa
Navarra_Media_Oriental,25/03/2013,8.4,12.2,5.7,18.6,Yesa
Navarra_Media_Oriental,26/03/2013,10.0,16.2,5.6,4.5,Yesa
Navarra_Media_Oriental,27/03/2013,10.0,13.3,8.0,7.6,Yesa
Navarra_Media_Oriental,28/03/2013,11.7,16.4,9.1,1.4,Yesa
Navarra_Media_Oriental,29/03/2013,11.4,15.1,10.1,22.3,Yesa
Navarra_Media_Oriental,30/03/2013,10.0,12.9,5.7,8.3,Yesa
Navarra_Media_Oriental,31/03/2013,10.2,16.9,2.9,0.0,Yesa
Navarra_Media_Oriental,01/04/2013,9.4,12.2,7.1,8.8,Yesa
Navarra_Media_Oriental,02/04/2013,9.4,14.6,4.6,1.0,Yesa
Navarra_Media_Oriental,03/04/2013,9.8,17.6,2.5,0.8,Yesa
Navarra_Media_Oriental,04/04/2013,7.7,12.3,4.6,4.7,Yesa
Navarra_Media_Oriental,05/04/2013,4.8,8.6,2.0,0.3,Yesa
Navarra_Media_Oriental,06/04/2013,4.4,8.2,0.1,1.8,Yesa
Navarra_Media_Oriental,07/04/2013,7.7,12.5,1.1,0.0,Yesa
Navarra_Media_Oriental,08/04/2013,10.1,14.3,6.4,0.3,Yesa
Navarra_Media_Oriental,09/04/2013,9.6,14.1,4.1,1.3,Yesa
Navarra_Media_Oriental,10/04/2013,11.8,19.2,4.2,0.0,Yesa
Navarra_Media_Oriental,11/04/2013,13.2,19.0,8.1,2.8,Yesa
Navarra_Media_Oriental,12/04/2013,11.3,17.3,4.4,0.0,Yesa
Navarra_Media_Oriental,13/04/2013,14.5,22.7,6.7,0.0,Yesa
Navarra_Media_Oriental,14/04/2013,18.3,25.7,9.3,0.0,Yesa
Navarra_Media_Oriental,15/04/2013,17.2,25.2,10.4,0.0,Yesa
Navarra_Media_Oriental,16/04/2013,17.0,25.6,10.4,0.0,Yesa
Navarra_Media_Oriental,17/04/2013,18.9,28.2,11.2,0.0,Yesa
Navarra_Media_Oriental,18/04/2013,14.1,21.4,9.4,0.2,Yesa
Navarra_Media_Oriental,19/04/2013,9.9,13.2,7.0,1.5,Yesa
Navarra_Media_Oriental,20/04/2013,10.3,15.1,5.9,0.0,Yesa
Navarra_Media_Oriental,21/04/2013,9.7,16.4,1.8,0.0,Yesa
Navarra_Media_Oriental,22/04/2013,10.4,14.7,6.3,0.0,Yesa
Navarra_Media_Oriental,23/04/2013,11.5,20.7,4.1,0.0,Yesa
Navarra_Media_Oriental,24/04/2013,13.8,21.8,6.9,0.0,Yesa
Navarra_Media_Oriental,25/04/2013,13.9,22.5,7.2,0.2,Yesa
Navarra_Media_Oriental,26/04/2013,12.6,16.6,8.8,2.6,Yesa
Navarra_Media_Oriental,27/04/2013,6.8,10.4,3.8,12.6,Yesa
Navarra_Media_Oriental,28/04/2013,6.4,10.1,4.1,4.7,Yesa
Navarra_Media_Oriental,29/04/2013,6.7,11.0,3.4,6.8,Yesa
Navarra_Media_Oriental,30/04/2013,8.6,14.7,5.6,9.0,Yesa
Navarra_Media_Oriental,01/05/2013,8.7,13.7,4.7,4.9,Yesa
Navarra_Media_Oriental,02/05/2013,8.5,12.7,5.4,2.0,Yesa
Navarra_Media_Oriental,03/05/2013,11.9,16.6,6.4,0.0,Yesa
Navarra_Media_Oriental,04/05/2013,12.5,20.2,3.9,0.0,Yesa
Navarra_Media_Oriental,05/05/2013,13.4,22.2,6.0,0.0,Yesa
Navarra_Media_Oriental,06/05/2013,15.4,24.4,7.3,0.0,Yesa
Navarra_Media_Oriental,07/05/2013,17.1,22.8,12.8,0.0,Yesa
Navarra_Media_Oriental,08/05/2013,16.8,20.9,11.5,0.1,Yesa
Navarra_Media_Oriental,09/05/2013,13.4,17.4,10.3,6.3,Yesa
Navarra_Media_Oriental,10/05/2013,12.3,17.0,5.8,0.0,Yesa
Navarra_Media_Oriental,11/05/2013,11.2,16.4,4.2,0.0,Yesa
Navarra_Media_Oriental,12/05/2013,11.5,15.7,5.2,0.0,Yesa
Navarra_Media_Oriental,13/05/2013,13.2,22.9,3.1,0.0,Yesa
Navarra_Media_Oriental,14/05/2013,13.8,19.9,6.4,10.3,Yesa
Navarra_Media_Oriental,15/05/2013,8.4,10.6,6.0,14.8,Yesa
Navarra_Media_Oriental,16/05/2013,8.8,14.4,4.3,0.0,Yesa
Navarra_Media_Oriental,17/05/2013,8.2,13.3,5.7,24.3,Yesa
Navarra_Media_Oriental,18/05/2013,5.8,8.3,3.0,11.5,Yesa
Navarra_Media_Oriental,19/05/2013,9.7,14.0,5.4,0.0,Yesa
Navarra_Media_Oriental,20/05/2013,9.8,15.9,2.3,0.0,Yesa
Navarra_Media_Oriental,21/05/2013,8.0,12.7,0.6,0.0,Yesa
Navarra_Media_Oriental,22/05/2013,12.1,15.3,9.8,0.7,Yesa
Navarra_Media_Oriental,23/05/2013,10.5,12.9,8.3,0.0,Yesa
Navarra_Media_Oriental,24/05/2013,9.5,13.0,6.3,0.8,Yesa
Navarra_Media_Oriental,25/05/2013,9.3,13.5,5.8,0.4,Yesa
Navarra_Media_Oriental,26/05/2013,11.6,22.0,2.3,0.0,Yesa
Navarra_Media_Oriental,27/05/2013,13.1,20.0,9.8,3.4,Yesa
Navarra_Media_Oriental,28/05/2013,9.9,13.5,7.5,10.0,Yesa
Navarra_Media_Oriental,29/05/2013,8.3,12.8,3.8,1.7,Yesa
Navarra_Media_Oriental,30/05/2013,9.2,11.1,6.4,7.3,Yesa
Navarra_Media_Oriental,31/05/2013,11.2,14.4,8.8,7.6,Yesa
Navarra_Media_Oriental,01/06/2013,12.5,15.0,10.7,0.0,Yesa
Navarra_Media_Oriental,02/06/2013,14.6,18.6,9.0,0.0,Yesa
Navarra_Media_Oriental,03/06/2013,14.2,20.9,5.4,0.0,Yesa
Navarra_Media_Oriental,04/06/2013,15.4,25.1,6.6,0.0,Yesa
Navarra_Media_Oriental,05/06/2013,18.2,26.5,9.3,0.0,Yesa
Navarra_Media_Oriental,06/06/2013,19.2,26.3,13.3,0.0,Yesa
Navarra_Media_Oriental,07/06/2013,18.6,23.9,13.2,0.2,Yesa
Navarra_Media_Oriental,08/06/2013,10.9,13.2,9.8,32.1,Yesa
Navarra_Media_Oriental,09/06/2013,12.4,17.7,9.6,40.0,Yesa
Navarra_Media_Oriental,10/06/2013,16.6,22.9,11.9,0.1,Yesa
Navarra_Media_Oriental,11/06/2013,19.2,25.9,13.0,0.0,Yesa
Navarra_Media_Oriental,12/06/2013,21.3,30.2,12.8,0.0,Yesa
Navarra_Media_Oriental,13/06/2013,19.4,24.5,14.2,0.0,Yesa
Navarra_Media_Oriental,14/06/2013,20.6,29.2,12.4,0.1,Yesa
Navarra_Media_Oriental,15/06/2013,20.6,29.3,12.9,0.0,Yesa
Navarra_Media_Oriental,16/06/2013,23.3,31.9,11.3,0.0,Yesa
Navarra_Media_Oriental,17/06/2013,21.8,27.1,14.3,1.5,Yesa
Navarra_Media_Oriental,18/06/2013,14.1,16.2,11.4,34.3,Yesa
Navarra_Media_Oriental,19/06/2013,12.4,17.0,10.5,9.4,Yesa
Navarra_Media_Oriental,20/06/2013,14.3,18.6,10.7,1.0,Yesa
Navarra_Media_Oriental,21/06/2013,14.5,19.9,10.5,3.8,Yesa
Navarra_Media_Oriental,22/06/2013,17.0,25.0,6.9,0.0,Yesa
Navarra_Media_Oriental,23/06/2013,15.4,17.7,11.8,0.0,Yesa
Navarra_Media_Oriental,24/06/2013,14.9,20.4,10.3,0.0,Yesa
Navarra_Media_Oriental,25/06/2013,15.9,22.8,7.7,0.0,Yesa
Navarra_Media_Oriental,26/06/2013,16.9,24.3,8.7,0.0,Yesa
Navarra_Media_Oriental,27/06/2013,16.7,24.0,8.2,0.0,Yesa
Navarra_Media_Oriental,28/06/2013,18.7,24.2,12.0,0.0,Yesa
Navarra_Media_Oriental,29/06/2013,19.0,25.5,10.1,0.0,Yesa
Navarra_Media_Oriental,30/06/2013,20.2,29.4,10.6,0.0,Yesa
Navarra_Media_Oriental,01/07/2013,21.3,30.2,12.1,0.0,Yesa
Navarra_Media_Oriental,02/07/2013,22.8,29.5,15.9,0.0,Yesa
Navarra_Media_Oriental,03/07/2013,20.8,25.5,17.0,0.0,Yesa
Navarra_Media_Oriental,04/07/2013,22.9,30.6,15.5,0.0,Yesa
Navarra_Media_Oriental,05/07/2013,22.6,33.2,11.7,0.0,Yesa
Navarra_Media_Oriental,06/07/2013,24.5,33.2,16.3,0.0,Yesa
Navarra_Media_Oriental,07/07/2013,22.9,31.7,13.9,0.0,Yesa
Navarra_Media_Oriental,08/07/2013,24.2,33.3,14.1,0.7,Yesa
Navarra_Media_Oriental,09/07/2013,25.6,32.5,18.9,0.0,Yesa
Navarra_Media_Oriental,10/07/2013,24.7,33.1,17.5,4.1,Yesa
Navarra_Media_Oriental,11/07/2013,23.1,31.1,16.3,1.5,Yesa
Navarra_Media_Oriental,12/07/2013,24.4,32.5,17.5,1.6,Yesa
Navarra_Media_Oriental,13/07/2013,24.7,32.3,18.8,0.3,Yesa
Navarra_Media_Oriental,14/07/2013,22.2,31.5,14.8,1.2,Yesa
Navarra_Media_Oriental,15/07/2013,22.3,31.4,14.6,0.0,Yesa
Navarra_Media_Oriental,16/07/2013,22.5,29.8,17.0,5.5,Yesa
Navarra_Media_Oriental,17/07/2013,22.2,29.2,16.2,0.0,Yesa
Navarra_Media_Oriental,18/07/2013,21.5,29.6,13.7,0.0,Yesa
Navarra_Media_Oriental,19/07/2013,24.0,31.6,17.5,0.1,Yesa
Navarra_Media_Oriental,20/07/2013,24.2,31.9,18.1,0.0,Yesa
Navarra_Media_Oriental,21/07/2013,24.2,30.6,20.8,0.0,Yesa
Navarra_Media_Oriental,22/07/2013,24.6,32.4,17.1,0.0,Yesa
Navarra_Media_Oriental,23/07/2013,24.1,31.8,18.7,4.6,Yesa
Navarra_Media_Oriental,24/07/2013,24.2,32.3,17.6,0.1,Yesa
Navarra_Media_Oriental,25/07/2013,27.5,34.9,18.4,0.0,Yesa
Navarra_Media_Oriental,26/07/2013,27.2,33.6,16.4,0.0,Yesa
Navarra_Media_Oriental,27/07/2013,26.1,30.6,20.3,0.0,Yesa
Navarra_Media_Oriental,28/07/2013,20.8,26.6,14.8,9.6,Yesa
Navarra_Media_Oriental,29/07/2013,19.3,27.1,11.6,0.0,Yesa
Navarra_Media_Oriental,30/07/2013,22.2,31.9,13.8,0.0,Yesa
Navarra_Media_Oriental,31/07/2013,25.1,34.4,16.7,0.0,Yesa
Navarra_Media_Oriental,01/08/2013,28.7,34.5,20.8,0.0,Yesa
Navarra_Media_Oriental,02/08/2013,28.4,35.2,19.9,0.0,Yesa
Navarra_Media_Oriental,03/08/2013,23.2,32.8,16.5,0.0,Yesa
Navarra_Media_Oriental,04/08/2013,23.9,32.5,15.0,0.0,Yesa
Navarra_Media_Oriental,05/08/2013,24.8,32.4,17.4,0.0,Yesa
Navarra_Media_Oriental,06/08/2013,21.8,28.3,15.2,0.0,Yesa
Navarra_Media_Oriental,07/08/2013,19.1,27.0,15.0,4.9,Yesa
Navarra_Media_Oriental,08/08/2013,17.7,23.2,12.9,0.0,Yesa
Navarra_Media_Oriental,09/08/2013,20.1,27.1,13.5,0.0,Yesa
Navarra_Media_Oriental,10/08/2013,21.2,29.1,14.5,0.0,Yesa
Navarra_Media_Oriental,11/08/2013,23.3,35.1,13.0,0.0,Yesa
Navarra_Media_Oriental,12/08/2013,24.1,33.3,19.3,0.0,Yesa
Navarra_Media_Oriental,13/08/2013,21.4,28.3,15.5,0.0,Yesa
Navarra_Media_Oriental,14/08/2013,20.7,29.7,12.4,0.0,Yesa
Navarra_Media_Oriental,15/08/2013,22.2,33.1,11.1,0.0,Yesa
Navarra_Media_Oriental,16/08/2013,23.0,32.3,17.2,2.2,Yesa
Navarra_Media_Oriental,17/08/2013,21.5,29.8,15.8,0.1,Yesa
Navarra_Media_Oriental,18/08/2013,24.2,32.5,17.2,0.0,Yesa
Navarra_Media_Oriental,19/08/2013,21.5,27.2,16.2,0.0,Yesa
Navarra_Media_Oriental,20/08/2013,20.3,29.8,13.1,0.0,Yesa
Navarra_Media_Oriental,21/08/2013,22.9,32.4,13.8,0.0,Yesa
Navarra_Media_Oriental,22/08/2013,24.1,32.8,17.8,0.0,Yesa
Navarra_Media_Oriental,23/08/2013,22.4,30.8,15.7,0.0,Yesa
Navarra_Media_Oriental,24/08/2013,19.8,23.6,15.8,0.0,Yesa
Navarra_Media_Oriental,25/08/2013,19.1,25.0,14.9,0.0,Yesa
Navarra_Media_Oriental,26/08/2013,18.9,24.0,12.8,0.0,Yesa
Navarra_Media_Oriental,27/08/2013,19.1,26.1,11.2,0.0,Yesa
Navarra_Media_Oriental,28/08/2013,19.3,26.1,14.7,0.0,Yesa
Navarra_Media_Oriental,29/08/2013,18.9,26.6,10.3,0.0,Yesa
Navarra_Media_Oriental,30/08/2013,19.0,26.5,10.8,0.0,Yesa
Navarra_Media_Oriental,31/08/2013,18.9,27.2,9.7,0.0,Yesa
Navarra_Media_Oriental,01/09/2013,19.6,28.3,10.9,0.0,Yesa
Navarra_Media_Oriental,02/09/2013,19.7,29.8,11.9,0.0,Yesa
Navarra_Media_Oriental,03/09/2013,22.2,31.0,14.8,0.0,Yesa
Navarra_Media_Oriental,04/09/2013,22.3,30.4,15.0,0.0,Yesa
Navarra_Media_Oriental,05/09/2013,21.5,29.6,13.9,0.0,Yesa
Navarra_Media_Oriental,06/09/2013,20.1,27.9,13.6,1.4,Yesa
Navarra_Media_Oriental,07/09/2013,16.1,21.1,13.3,21.0,Yesa
Navarra_Media_Oriental,08/09/2013,15.6,22.1,9.9,2.4,Yesa
Navarra_Media_Oriental,09/09/2013,15.9,25.0,7.5,0.0,Yesa
Navarra_Media_Oriental,10/09/2013,17.9,23.8,13.6,0.0,Yesa
Navarra_Media_Oriental,11/09/2013,16.1,21.2,12.7,0.0,Yesa
Navarra_Media_Oriental,12/09/2013,16.3,22.6,8.3,0.0,Yesa
Navarra_Media_Oriental,13/09/2013,17.7,26.3,11.4,0.0,Yesa
Navarra_Media_Oriental,14/09/2013,19.3,27.5,12.2,0.0,Yesa
Navarra_Media_Oriental,15/09/2013,16.2,20.2,8.5,0.0,Yesa
Navarra_Media_Oriental,16/09/2013,15.8,24.3,7.7,0.0,Yesa
Navarra_Media_Oriental,17/09/2013,15.7,18.7,13.2,0.0,Yesa
Navarra_Media_Oriental,18/09/2013,16.6,21.6,11.2,0.2,Yesa
Navarra_Media_Oriental,19/09/2013,17.2,20.8,14.6,0.0,Yesa
Navarra_Media_Oriental,20/09/2013,19.3,24.1,14.2,0.0,Yesa
Navarra_Media_Oriental,21/09/2013,17.8,28.0,10.6,0.0,Yesa
Navarra_Media_Oriental,22/09/2013,19.0,29.4,11.4,0.0,Yesa
Navarra_Media_Oriental,23/09/2013,20.2,29.8,13.1,0.0,Yesa
Navarra_Media_Oriental,24/09/2013,20.6,29.7,13.9,0.0,Yesa
Navarra_Media_Oriental,25/09/2013,22.6,31.0,16.3,0.0,Yesa
Navarra_Media_Oriental,26/09/2013,23.4,30.8,18.0,0.0,Yesa
Navarra_Media_Oriental,27/09/2013,23.5,29.7,18.5,0.0,Yesa
Navarra_Media_Oriental,28/09/2013,18.6,25.1,15.6,4.9,Yesa
Navarra_Media_Oriental,29/09/2013,17.1,21.0,14.8,0.2,Yesa
Navarra_Media_Oriental,30/09/2013,18.8,25.8,14.3,0.0,Yesa
Navarra_Media_Oriental,01/10/2013,18.3,21.4,15.5,3.6,Yesa
Navarra_Media_Oriental,02/10/2013,21.2,26.8,16.8,0.1,Yesa
Navarra_Media_Oriental,03/10/2013,22.2,25.2,18.3,2.0,Yesa
Navarra_Media_Oriental,04/10/2013,16.6,21.6,12.0,55.5,Yesa
Navarra_Media_Oriental,05/10/2013,15.4,19.9,10.4,0.0,Yesa
Navarra_Media_Oriental,06/10/2013,16.5,21.0,12.2,0.0,Yesa
Navarra_Media_Oriental,07/10/2013,13.7,22.1,8.3,0.0,Yesa
Navarra_Media_Oriental,08/10/2013,13.5,21.1,7.7,0.0,Yesa
Navarra_Media_Oriental,09/10/2013,12.7,20.2,7.6,0.0,Yesa
Navarra_Media_Oriental,10/10/2013,12.0,17.3,7.0,0.0,Yesa
Navarra_Media_Oriental,11/10/2013,9.5,15.2,3.6,0.0,Yesa
Navarra_Media_Oriental,12/10/2013,8.7,16.4,1.8,0.0,Yesa
Navarra_Media_Oriental,13/10/2013,11.4,19.0,5.3,0.0,Yesa
Navarra_Media_Oriental,14/10/2013,14.7,20.4,10.4,1.6,Yesa
Navarra_Media_Oriental,15/10/2013,14.4,16.3,12.8,2.0,Yesa
Navarra_Media_Oriental,16/10/2013,17.5,24.0,13.3,0.0,Yesa
Navarra_Media_Oriental,17/10/2013,16.3,23.4,10.4,0.0,Yesa
Navarra_Media_Oriental,18/10/2013,18.9,25.7,14.0,0.0,Yesa
Navarra_Media_Oriental,19/10/2013,18.6,22.6,13.7,3.3,Yesa
Navarra_Media_Oriental,20/10/2013,15.8,19.4,13.8,15.3,Yesa
Navarra_Media_Oriental,21/10/2013,16.7,21.1,12.1,0.0,Yesa
Navarra_Media_Oriental,22/10/2013,17.0,18.8,14.2,5.6,Yesa
Navarra_Media_Oriental,23/10/2013,15.1,21.1,11.8,2.4,Yesa
Navarra_Media_Oriental,24/10/2013,15.6,20.2,10.5,2.6,Yesa
Navarra_Media_Oriental,25/10/2013,19.6,22.8,14.7,21.3,Yesa
Navarra_Media_Oriental,26/10/2013,17.8,22.7,13.5,0.1,Yesa
Navarra_Media_Oriental,27/10/2013,14.7,20.0,10.9,0.0,Yesa
Navarra_Media_Oriental,28/10/2013,14.7,22.4,10.3,0.3,Yesa
Navarra_Media_Oriental,29/10/2013,10.5,12.7,8.4,0.0,Yesa
Navarra_Media_Oriental,30/10/2013,11.2,15.1,6.0,0.0,Yesa
Navarra_Media_Oriental,31/10/2013,7.7,16.2,2.6,0.0,Yesa
Navarra_Media_Oriental,01/11/2013,9.4,14.3,4.5,0.7,Yesa
Navarra_Media_Oriental,02/11/2013,14.2,20.4,10.1,1.1,Yesa
Navarra_Media_Oriental,03/11/2013,12.7,16.1,9.4,0.1,Yesa
Navarra_Media_Oriental,04/11/2013,10.2,12.7,8.4,22.6,Yesa
Navarra_Media_Oriental,05/11/2013,14.2,16.9,10.1,13.7,Yesa
Navarra_Media_Oriental,06/11/2013,16.2,20.7,11.7,0.0,Yesa
Navarra_Media_Oriental,07/11/2013,12.6,19.4,9.8,0.0,Yesa
Navarra_Media_Oriental,08/11/2013,11.6,15.8,9.6,1.4,Yesa
Navarra_Media_Oriental,09/11/2013,9.7,13.9,5.8,2.5,Yesa
Navarra_Media_Oriental,10/11/2013,12.0,15.1,8.6,1.6,Yesa
Navarra_Media_Oriental,11/11/2013,13.1,15.8,11.4,0.1,Yesa
Navarra_Media_Oriental,12/11/2013,14.6,18.4,12.2,0.0,Yesa
Navarra_Media_Oriental,13/11/2013,14.7,17.9,10.8,0.0,Yesa
Navarra_Media_Oriental,14/11/2013,9.8,11.7,8.2,0.2,Yesa
Navarra_Media_Oriental,15/11/2013,5.4,7.9,1.9,6.0,Yesa
Navarra_Media_Oriental,16/11/2013,3.9,7.7,0.2,0.0,Yesa
Navarra_Media_Oriental,17/11/2013,5.4,8.5,3.6,0.1,Yesa
Navarra_Media_Oriental,18/11/2013,9.2,11.7,6.8,0.1,Yesa
Navarra_Media_Oriental,19/11/2013,8.0,12.1,3.5,4.5,Yesa
Navarra_Media_Oriental,20/11/2013,4.1,7.0,2.2,0.8,Yesa
Navarra_Media_Oriental,21/11/2013,4.0,5.1,3.0,18.4,Yesa
Navarra_Media_Oriental,22/11/2013,4.2,5.8,2.8,1.3,Yesa
Navarra_Media_Oriental,23/11/2013,4.9,6.9,3.5,0.0,Yesa
Navarra_Media_Oriental,24/11/2013,4.6,6.0,3.3,0.0,Yesa
Navarra_Media_Oriental,25/11/2013,4.7,6.6,3.4,0.0,Yesa
Navarra_Media_Oriental,26/11/2013,3.9,6.8,2.3,0.0,Yesa
Navarra_Media_Oriental,27/11/2013,2.5,8.4,-4.6,0.0,Yesa
Navarra_Media_Oriental,28/11/2013,0.3,7.6,-5.3,0.0,Yesa
Navarra_Media_Oriental,29/11/2013,3.4,8.7,-1.4,0.0,Yesa
Navarra_Media_Oriental,30/11/2013,6.4,8.8,3.4,0.1,Yesa
Navarra_Media_Oriental,01/12/2013,3.6,9.4,-2.3,0.0,Yesa
Navarra_Media_Oriental,02/12/2013,1.6,8.5,-3.2,0.0,Yesa
Navarra_Media_Oriental,03/12/2013,3.8,11.7,-0.4,0.0,Yesa
Navarra_Media_Oriental,04/12/2013,4.3,12.6,0.1,0.0,Yesa
Navarra_Media_Oriental,05/12/2013,4.4,11.0,-0.4,0.0,Yesa
Navarra_Media_Oriental,06/12/2013,3.6,12.1,-1.0,0.0,Yesa
Navarra_Media_Oriental,07/12/2013,3.2,10.9,-1.1,0.0,Yesa
Navarra_Media_Oriental,08/12/2013,2.9,8.9,-0.6,0.0,Yesa
Navarra_Media_Oriental,09/12/2013,1.8,6.9,-1.2,0.0,Yesa
Navarra_Media_Oriental,10/12/2013,0.3,4.0,-2.0,0.0,Yesa
Navarra_Media_Oriental,11/12/2013,0.6,3.9,-2.9,0.0,Yesa
Navarra_Media_Oriental,12/12/2013,0.2,2.1,-1.8,0.0,Yesa
Navarra_Media_Oriental,13/12/2013,2.4,11.3,-2.8,0.0,Yesa
Navarra_Media_Oriental,14/12/2013,8.5,14.0,2.9,0.0,Yesa
Navarra_Media_Oriental,15/12/2013,3.9,10.6,0.4,0.0,Yesa
Navarra_Media_Oriental,16/12/2013,3.8,11.4,-0.0,0.0,Yesa
Navarra_Media_Oriental,17/12/2013,6.4,11.2,1.4,0.0,Yesa
Navarra_Media_Oriental,18/12/2013,6.9,11.7,3.3,0.2,Yesa
Navarra_Media_Oriental,19/12/2013,7.3,8.3,5.4,12.0,Yesa
Navarra_Media_Oriental,20/12/2013,5.7,9.0,0.0,0.5,Yesa
Navarra_Media_Oriental,21/12/2013,2.0,7.3,-2.0,0.0,Yesa
Navarra_Media_Oriental,22/12/2013,3.4,8.8,-0.7,0.0,Yesa
Navarra_Media_Oriental,23/12/2013,6.5,11.8,1.5,0.0,Yesa
Navarra_Media_Oriental,24/12/2013,9.1,10.1,7.9,3.2,Yesa
Navarra_Media_Oriental,25/12/2013,6.0,8.9,1.4,6.3,Yesa
Navarra_Media_Oriental,26/12/2013,3.9,7.9,1.1,0.9,Yesa
Navarra_Media_Oriental,27/12/2013,7.2,11.6,1.4,0.2,Yesa
Navarra_Media_Oriental,28/12/2013,7.4,11.5,1.4,6.6,Yesa
Navarra_Media_Oriental,29/12/2013,2.0,6.0,-2.1,0.0,Yesa
Navarra_Media_Oriental,30/12/2013,2.6,7.7,-0.3,0.0,Yesa
Navarra_Media_Oriental,31/12/2013,4.5,7.5,1.7,0.0,Yesa
