Fecha, Temperatura media, Temperatura maxima, Temperatura minima, Precipitacion acumulada
01/01/2011,8.1,13.5,3.8,0.0
02/01/2011,8.7,12.3,3.7,0.0
03/01/2011,3.4,7.6,-0.2,0.0
04/01/2011,2.9,7.9,-2.8,0.8
05/01/2011,5.9,8.1,4.1,2.6
06/01/2011,8.7,11.8,6.2,0.1
07/01/2011,12.4,15.7,8.3,0.0
08/01/2011,12.4,16.7,9.1,0.8
09/01/2011,9.5,13.0,5.0,0.7
10/01/2011,6.5,12.7,1.1,0.0
11/01/2011,8.7,16.1,1.4,0.0
12/01/2011,11.8,16.9,6.2,0.0
13/01/2011,8.3,16.1,2.4,0.0
14/01/2011,6.5,13.6,0.9,0.0
15/01/2011,5.4,11.6,-0.2,0.0
16/01/2011,3.0,5.3,0.5,0.1
17/01/2011,4.4,10.5,0.5,0.0
18/01/2011,2.4,5.1,-1.4,0.1
19/01/2011,6.0,8.2,3.9,0.1
20/01/2011,6.5,12.6,1.7,0.0
21/01/2011,1.9,6.2,-1.3,0.0
22/01/2011,0.9,5.7,-2.2,0.0
23/01/2011,0.2,6.1,-3.9,0.0
24/01/2011,0.2,7.1,-7.7,0.0
25/01/2011,1.2,7.9,-4.3,0.0
26/01/2011,-0.1,7.0,-6.9,0.0
27/01/2011,0.5,5.5,-6.2,0.3
28/01/2011,3.5,6.0,1.8,4.9
29/01/2011,5.0,8.2,2.9,0.1
30/01/2011,5.0,6.5,2.8,0.0
31/01/2011,3.9,5.8,0.6,0.0
01/02/2011,5.0,8.0,2.5,0.0
02/02/2011,6.8,11.0,2.8,0.0
03/02/2011,8.6,12.5,5.9,0.0
04/02/2011,8.7,15.4,2.9,0.0
05/02/2011,8.0,19.8,-0.5,0.0
06/02/2011,7.0,16.4,-1.2,0.0
07/02/2011,-,-,-,-
08/02/2011,-,-,-,-
09/02/2011,4.8,13.5,-2.6,0.0
10/02/2011,5.4,13.8,-2.5,0.0
11/02/2011,5.1,12.6,-0.4,0.0
12/02/2011,6.4,15.0,-1.0,0.0
13/02/2011,8.0,14.6,-1.0,0.0
14/02/2011,7.5,11.0,3.1,1.4
15/02/2011,5.9,9.2,3.3,1.2
16/02/2011,6.9,12.6,0.6,0.9
17/02/2011,7.1,11.0,3.9,1.4
18/02/2011,9.0,15.4,2.4,0.0
19/02/2011,7.4,9.8,4.2,4.5
20/02/2011,8.2,15.2,1.4,0.0
21/02/2011,7.5,11.9,2.7,1.4
22/02/2011,11.6,14.3,8.0,0.1
23/02/2011,12.3,16.4,8.7,0.0
24/02/2011,11.6,15.6,9.2,0.0
25/02/2011,13.1,21.1,6.3,0.0
26/02/2011,11.9,17.7,4.5,0.0
27/02/2011,8.1,10.4,5.8,0.0
28/02/2011,6.1,10.3,3.3,0.5
01/03/2011,5.7,9.8,2.7,0.0
02/03/2011,6.6,9.1,4.5,0.0
03/03/2011,4.4,8.4,0.1,1.3
04/03/2011,3.5,6.5,1.7,2.2
05/03/2011,7.1,13.2,1.4,0.0
06/03/2011,7.2,15.4,-1.0,0.0
07/03/2011,8.4,16.2,-0.4,0.0
08/03/2011,8.6,11.8,5.7,0.0
09/03/2011,8.4,13.9,3.7,0.0
10/03/2011,8.6,16.8,0.5,0.0
11/03/2011,9.4,17.6,1.4,2.7
12/03/2011,8.7,12.3,5.9,6.1
13/03/2011,10.1,17.0,4.5,0.1
14/03/2011,10.6,12.8,7.6,2.6
15/03/2011,10.2,11.2,9.2,20.9
16/03/2011,11.7,13.9,9.6,1.5
17/03/2011,11.1,14.0,8.2,0.0
18/03/2011,10.6,17.4,7.2,0.0
19/03/2011,10.5,16.0,6.2,0.0
20/03/2011,10.4,17.9,4.7,0.0
21/03/2011,8.6,15.7,2.3,0.0
22/03/2011,8.0,11.4,4.9,1.0
23/03/2011,8.1,14.5,2.3,0.0
24/03/2011,8.4,11.6,3.3,5.0
25/03/2011,11.6,16.9,7.8,1.1
26/03/2011,14.2,20.7,8.0,0.0
27/03/2011,12.2,17.3,6.8,1.2
28/03/2011,11.8,17.4,6.0,0.1
29/03/2011,12.6,17.4,7.6,0.1
30/03/2011,13.0,17.6,7.8,3.3
31/03/2011,16.4,23.1,10.2,0.0
01/04/2011,17.0,25.5,7.8,0.0
02/04/2011,18.4,25.3,9.2,0.0
03/04/2011,13.3,18.0,10.2,0.4
04/04/2011,13.0,18.8,8.6,0.1
05/04/2011,15.5,24.4,6.4,0.0
06/04/2011,18.2,26.9,10.2,0.0
07/04/2011,18.2,27.1,9.3,0.0
08/04/2011,19.8,29.6,7.7,0.0
09/04/2011,20.8,32.0,11.3,0.0
10/04/2011,15.4,20.0,12.4,0.0
11/04/2011,14.6,18.5,12.4,0.0
12/04/2011,14.8,19.1,11.0,0.0
13/04/2011,14.5,24.0,4.7,0.0
14/04/2011,14.2,21.5,6.9,0.0
15/04/2011,13.6,19.6,8.8,0.0
16/04/2011,-,-,-,-
17/04/2011,15.5,21.9,9.5,0.0
18/04/2011,15.4,21.8,8.3,0.0
19/04/2011,-,-,-,-
20/04/2011,-,-,-,-
21/04/2011,-,-,-,-
22/04/2011,-,-,-,-
23/04/2011,-,-,-,-
24/04/2011,-,-,-,-
25/04/2011,16.2,20.9,12.8,0.0
26/04/2011,16.5,21.8,11.6,0.1
27/04/2011,16.7,23.7,8.6,0.0
28/04/2011,16.4,23.3,10.0,0.0
29/04/2011,15.1,22.0,7.4,0.0
30/04/2011,14.5,20.7,10.9,5.3
01/05/2011,16.5,22.8,11.9,0.6
02/05/2011,16.7,23.0,8.7,0.3
03/05/2011,16.5,23.4,10.8,0.0
04/05/2011,16.6,23.2,8.4,0.0
05/05/2011,17.4,24.1,9.2,1.6
06/05/2011,18.6,24.9,14.2,0.0
07/05/2011,13.8,17.7,9.5,14.3
08/05/2011,15.7,23.5,8.9,0.1
09/05/2011,18.5,26.3,10.1,0.0
10/05/2011,19.7,25.6,12.8,0.0
11/05/2011,20.3,28.0,13.1,0.2
12/05/2011,19.1,25.5,13.5,0.0
13/05/2011,18.4,24.3,15.1,0.1
14/05/2011,14.7,17.7,10.2,0.4
15/05/2011,14.3,20.4,9.7,0.0
16/05/2011,16.7,25.0,7.9,0.0
17/05/2011,18.7,27.1,9.4,0.0
18/05/2011,19.3,25.6,12.2,0.0
19/05/2011,19.1,25.0,13.1,0.0
20/05/2011,19.3,27.0,10.7,0.0
21/05/2011,20.5,28.4,12.7,0.0
22/05/2011,20.1,26.3,15.3,0.0
23/05/2011,21.7,31.5,11.5,0.0
24/05/2011,21.9,30.1,15.3,0.0
25/05/2011,23.0,33.9,12.1,0.0
26/05/2011,19.7,26.7,14.4,0.1
27/05/2011,15.9,19.8,12.0,1.1
28/05/2011,18.6,27.1,10.4,0.0
29/05/2011,19.1,26.9,11.6,0.0
30/05/2011,17.9,24.1,14.1,32.7
31/05/2011,15.3,18.9,11.0,0.1
01/06/2011,14.3,19.1,10.3,0.0
02/06/2011,16.3,20.7,12.0,0.0
03/06/2011,17.8,26.7,11.2,2.8
04/06/2011,17.2,24.6,13.0,2.9
05/06/2011,18.2,24.3,12.0,0.1
06/06/2011,17.6,22.5,13.6,11.8
07/06/2011,14.9,17.4,11.4,1.8
08/06/2011,15.6,20.5,11.1,0.0
09/06/2011,17.1,24.5,10.0,0.4
10/06/2011,16.4,21.5,11.3,0.0
11/06/2011,17.2,23.0,9.6,0.0
12/06/2011,21.2,30.4,12.2,1.9
13/06/2011,22.7,30.4,16.4,0.0
14/06/2011,23.4,30.9,15.1,0.0
15/06/2011,24.6,32.0,17.5,0.0
16/06/2011,20.6,25.8,15.7,0.0
17/06/2011,21.5,31.3,13.0,0.0
18/06/2011,18.1,23.6,13.0,0.0
19/06/2011,19.9,29.2,10.6,0.0
20/06/2011,24.6,34.0,13.7,0.1
21/06/2011,24.9,34.7,18.6,4.6
22/06/2011,21.0,27.2,16.0,0.0
23/06/2011,18.8,24.8,14.4,0.0
24/06/2011,20.4,29.2,12.1,0.0
25/06/2011,-,-,-,-
26/06/2011,-,-,-,-
27/06/2011,-,-,-,-
28/06/2011,-,-,-,-
29/06/2011,16.7,21.1,-,0.1
30/06/2011,18.5,25.9,12.4,0.0
01/07/2011,21.9,30.3,13.2,0.0
02/07/2011,24.4,34.5,15.8,0.2
03/07/2011,22.9,31.4,18.0,8.3
04/07/2011,22.2,29.6,16.8,0.0
05/07/2011,24.4,34.3,13.6,0.0
06/07/2011,21.8,29.9,16.0,0.0
07/07/2011,19.7,28.1,13.6,0.0
08/07/2011,21.8,30.3,12.2,0.0
09/07/2011,24.6,32.5,16.2,0.0
10/07/2011,23.8,30.9,19.1,0.0
11/07/2011,25.8,34.6,15.6,0.0
12/07/2011,22.7,33.6,15.9,3.3
13/07/2011,18.1,22.7,14.6,0.2
14/07/2011,20.0,26.1,14.9,0.0
15/07/2011,21.9,30.2,12.7,0.0
16/07/2011,24.9,33.7,15.1,0.0
17/07/2011,18.8,22.9,14.6,0.0
18/07/2011,19.8,26.5,11.3,0.0
19/07/2011,18.6,23.2,14.1,4.4
20/07/2011,20.1,27.4,11.3,0.0
21/07/2011,19.5,25.2,14.9,0.0
22/07/2011,18.1,23.9,13.0,0.0
23/07/2011,17.9,24.3,12.5,0.0
24/07/2011,19.8,25.0,15.4,0.0
25/07/2011,22.2,27.2,18.5,0.0
26/07/2011,21.8,27.5,17.0,0.0
27/07/2011,20.8,26.5,15.6,0.0
28/07/2011,-,-,-,-
29/07/2011,22.4,30.8,14.4,0.0
30/07/2011,23.1,29.5,18.1,0.0
31/07/2011,23.1,31.6,13.0,0.0
01/08/2011,24.7,33.0,15.0,0.0
02/08/2011,25.3,34.3,19.5,0.0
03/08/2011,24.3,31.1,18.5,0.0
04/08/2011,25.4,34.3,16.2,0.0
05/08/2011,24.1,31.3,19.2,0.3
06/08/2011,25.4,35.5,15.9,0.0
07/08/2011,23.4,30.4,18.0,0.0
08/08/2011,19.7,24.4,15.2,0.0
09/08/2011,18.8,25.5,13.2,0.0
10/08/2011,20.4,30.4,10.6,0.0
11/08/2011,23.5,33.8,15.0,0.0
12/08/2011,24.4,33.5,15.7,0.0
13/08/2011,25.5,34.5,16.9,0.0
14/08/2011,25.6,31.8,17.6,0.0
15/08/2011,25.5,32.1,20.2,0.0
16/08/2011,26.0,34.8,17.1,0.0
17/08/2011,27.9,37.9,21.3,0.0
18/08/2011,24.6,32.6,17.7,1.6
19/08/2011,27.8,36.3,18.3,0.0
20/08/2011,29.8,39.8,19.7,0.0
21/08/2011,29.0,37.9,19.9,0.0
22/08/2011,27.2,34.8,19.6,0.8
23/08/2011,25.2,33.7,16.1,0.0
24/08/2011,24.0,30.9,18.5,0.0
25/08/2011,24.5,33.3,15.1,0.0
26/08/2011,21.2,26.4,15.0,1.0
27/08/2011,19.0,25.1,12.0,0.0
28/08/2011,21.0,30.8,10.2,0.0
29/08/2011,22.3,30.8,13.5,0.0
30/08/2011,22.3,32.5,12.2,0.0
31/08/2011,23.6,32.1,16.6,0.0
01/09/2011,24.2,32.2,18.2,6.7
02/09/2011,22.1,28.3,16.6,0.1
03/09/2011,21.7,28.0,17.8,0.0
04/09/2011,21.1,27.5,16.1,0.0
05/09/2011,19.2,25.1,14.8,0.0
06/09/2011,19.9,29.0,11.0,0.0
07/09/2011,22.1,30.6,13.2,0.0
08/09/2011,23.5,32.8,14.7,0.0
09/09/2011,24.1,34.5,13.4,0.0
10/09/2011,27.0,36.9,18.8,0.0
11/09/2011,21.5,27.3,15.0,0.0
12/09/2011,22.5,31.8,12.0,0.0
13/09/2011,22.9,33.0,15.0,0.0
14/09/2011,23.0,29.6,17.7,0.0
15/09/2011,24.8,32.7,18.9,0.0
16/09/2011,23.8,32.9,17.5,0.6
17/09/2011,21.5,28.0,16.4,0.0
18/09/2011,16.7,20.1,11.4,0.0
19/09/2011,16.1,21.9,9.0,0.0
20/09/2011,18.2,27.1,10.2,0.0
21/09/2011,19.3,28.9,9.5,0.0
22/09/2011,21.3,28.2,16.2,0.0
23/09/2011,19.3,27.7,13.4,0.3
24/09/2011,18.8,27.0,12.6,0.0
25/09/2011,19.3,27.4,12.2,0.0
26/09/2011,19.9,29.0,11.8,0.0
27/09/2011,20.2,29.7,11.2,0.0
28/09/2011,20.3,29.9,11.5,0.0
29/09/2011,19.3,28.7,11.9,0.0
30/09/2011,18.6,26.8,10.4,0.0
01/10/2011,17.6,26.0,10.3,0.0
02/10/2011,17.7,27.4,9.7,0.0
03/10/2011,19.3,29.9,8.4,0.0
04/10/2011,19.1,29.6,8.3,0.0
05/10/2011,18.8,27.8,10.2,0.0
06/10/2011,19.0,27.6,10.6,0.0
07/10/2011,16.2,18.6,12.9,0.0
08/10/2011,14.5,17.8,11.8,0.0
09/10/2011,16.4,21.5,11.0,0.0
10/10/2011,16.2,26.0,7.1,0.0
11/10/2011,19.9,31.2,8.9,0.0
12/10/2011,19.1,30.4,9.2,0.0
13/10/2011,18.2,27.3,9.9,0.0
14/10/2011,16.3,24.8,9.6,0.0
15/10/2011,16.1,24.2,7.9,0.0
16/10/2011,14.4,22.4,8.4,0.0
17/10/2011,14.1,22.6,5.5,0.0
18/10/2011,14.1,23.2,6.9,0.0
19/10/2011,13.1,21.6,8.2,2.4
20/10/2011,11.5,16.4,8.3,0.1
21/10/2011,8.7,15.8,0.7,0.0
22/10/2011,11.7,20.0,3.2,0.0
23/10/2011,16.2,22.0,11.0,0.0
24/10/2011,13.7,17.0,11.6,2.6
25/10/2011,11.9,17.0,5.7,0.0
26/10/2011,12.1,18.5,3.3,0.0
27/10/2011,13.6,17.4,9.1,2.0
28/10/2011,13.3,16.0,9.2,0.0
29/10/2011,13.2,17.0,10.6,0.0
30/10/2011,13.0,21.2,5.8,0.0
31/10/2011,13.3,20.2,5.4,0.0
01/11/2011,15.0,19.7,11.0,0.8
02/11/2011,14.9,16.9,11.8,1.7
03/11/2011,14.5,16.6,9.6,1.5
04/11/2011,12.6,16.5,8.6,1.3
05/11/2011,10.7,12.5,9.0,1.2
06/11/2011,12.1,13.6,10.6,0.4
07/11/2011,13.3,15.2,10.8,0.3
08/11/2011,12.2,18.6,7.6,0.2
09/11/2011,11.4,16.9,5.8,0.2
10/11/2011,12.2,17.3,8.9,0.2
11/11/2011,12.4,18.7,7.4,0.1
12/11/2011,13.4,17.8,7.1,0.2
13/11/2011,14.6,17.0,12.6,0.1
14/11/2011,13.4,15.2,11.2,0.2
15/11/2011,12.1,15.9,8.9,0.1
16/11/2011,11.8,16.3,7.5,0.1
17/11/2011,9.6,14.1,4.5,0.2
18/11/2011,11.2,14.0,8.2,0.1
19/11/2011,11.8,14.2,9.7,0.1
20/11/2011,12.7,14.6,11.5,0.1
21/11/2011,12.2,16.8,8.0,0.1
22/11/2011,10.8,14.2,6.1,0.2
23/11/2011,13.5,17.8,10.0,0.0
24/11/2011,11.0,17.6,5.9,0.1
25/11/2011,8.9,16.1,2.5,0.1
26/11/2011,9.5,16.3,3.9,0.1
27/11/2011,4.2,6.2,1.3,0.1
28/11/2011,4.4,5.5,2.9,0.0
29/11/2011,5.1,5.7,4.5,0.1
30/11/2011,4.8,6.0,3.2,0.1
01/12/2011,4.5,5.6,3.9,0.0
02/12/2011,6.5,8.9,3.7,0.1
03/12/2011,8.2,11.8,5.8,0.1
04/12/2011,7.9,13.8,1.8,0.0
05/12/2011,9.6,15.1,6.0,0.1
06/12/2011,9.6,14.4,5.7,0.0
07/12/2011,7.8,13.9,2.5,0.0
08/12/2011,6.7,13.8,1.3,0.1
09/12/2011,4.3,9.5,1.0,0.0
10/12/2011,2.9,6.9,0.2,0.1
11/12/2011,4.2,6.3,1.8,0.2
12/12/2011,6.4,12.2,1.5,0.3
13/12/2011,11.6,14.7,6.3,0.0
14/12/2011,11.8,16.0,7.1,0.1
15/12/2011,9.2,12.7,3.9,0.0
16/12/2011,11.4,18.7,6.0,0.0
17/12/2011,6.8,9.2,3.9,0.0
18/12/2011,5.4,8.6,1.5,0.1
19/12/2011,5.6,10.3,0.8,0.0
20/12/2011,7.8,14.3,0.5,0.0
21/12/2011,13.0,16.0,10.4,0.0
22/12/2011,10.8,13.9,4.1,0.0
23/12/2011,6.7,12.1,-0.6,0.0
24/12/2011,8.1,10.8,5.5,0.0
25/12/2011,5.8,11.9,0.2,0.0
26/12/2011,1.3,8.1,-4.1,0.0
27/12/2011,1.3,8.3,-3.8,0.0
28/12/2011,4.4,12.0,-3.3,0.2
29/12/2011,7.4,9.4,3.9,0.0
30/12/2011,6.9,11.6,2.2,0.0
31/12/2011,9.1,15.8,4.5,0.0
