Fecha, Temperatura media, Temperatura maxima, Temperatura minima, Precipitacion acumulada
01/01/2012,7.1,14.1,0.4,0.0
02/01/2012,7.3,13.6,0.5,0.0
03/01/2012,4.5,12.0,-2.4,0.2
04/01/2012,7.0,14.2,-0.8,0.0
05/01/2012,8.2,15.7,-0.1,0.0
06/01/2012,11.0,13.4,6.8,0.0
07/01/2012,9.3,13.6,5.0,0.0
08/01/2012,10.0,13.1,8.1,0.0
09/01/2012,6.8,12.0,-2.2,0.0
10/01/2012,-1.1,6.1,-4.7,0.0
11/01/2012,-0.7,1.4,-3.1,0.2
12/01/2012,0.7,1.9,-0.6,0.2
13/01/2012,3.6,7.9,0.3,0.4
14/01/2012,2.6,8.9,-2.8,0.0
15/01/2012,-0.8,1.6,-4.5,0.4
16/01/2012,2.5,6.7,-0.9,5.6
17/01/2012,2.4,10.2,-2.6,0.0
18/01/2012,4.4,13.4,-4.4,0.2
19/01/2012,9.4,15.9,3.1,0.0
20/01/2012,-,-,-,-
21/01/2012,-,-,-,-
22/01/2012,-,-,-,-
23/01/2012,-,-,-,-
24/01/2012,8.4,11.9,3.9,0.0
25/01/2012,2.7,10.9,-3.0,0.0
26/01/2012,4.1,12.7,-5.0,0.2
27/01/2012,6.3,7.8,4.1,0.8
28/01/2012,5.5,9.5,2.8,0.8
29/01/2012,4.1,7.0,2.3,0.0
30/01/2012,4.2,9.3,-0.7,0.0
31/01/2012,4.3,11.4,-3.6,0.0
01/02/2012,4.9,9.8,1.6,0.4
02/02/2012,-0.4,1.8,-2.7,0.0
03/02/2012,-1.5,1.5,-3.8,0.0
04/02/2012,0.3,4.4,-3.8,0.0
05/02/2012,4.3,8.8,-1.6,1.0
06/02/2012,4.8,7.5,2.0,0.0
07/02/2012,2.4,5.7,-0.8,0.0
08/02/2012,-1.1,1.9,-3.7,0.0
09/02/2012,0.8,5.4,-2.6,0.0
10/02/2012,2.4,6.9,-2.4,0.0
11/02/2012,-0.3,3.9,-3.5,0.0
12/02/2012,-0.3,3.5,-2.8,0.0
13/02/2012,2.5,6.3,-4.0,0.0
14/02/2012,4.6,7.7,2.4,1.0
15/02/2012,5.6,8.6,2.1,0.0
16/02/2012,7.0,10.1,4.3,0.2
17/02/2012,6.1,10.9,-2.3,0.0
18/02/2012,3.8,14.4,-5.6,0.0
19/02/2012,6.9,12.6,3.4,0.0
20/02/2012,5.2,9.4,2.4,0.0
21/02/2012,3.6,10.6,-5.0,0.0
22/02/2012,4.4,15.7,-8.9,0.0
23/02/2012,9.9,17.9,2.6,0.0
24/02/2012,9.0,19.1,0.4,0.0
25/02/2012,8.7,18.2,-0.8,0.0
26/02/2012,11.7,15.6,8.5,0.0
27/02/2012,10.6,16.4,6.1,0.0
28/02/2012,7.3,17.4,-2.1,0.0
29/02/2012,7.5,19.9,-2.5,0.0
01/03/2012,8.2,19.6,-1.7,0.0
02/03/2012,9.7,18.6,-0.4,0.0
03/03/2012,10.9,18.8,3.6,0.0
04/03/2012,7.8,15.9,1.8,2.8
05/03/2012,6.7,10.7,2.7,0.0
06/03/2012,6.2,11.0,2.1,0.2
07/03/2012,8.2,14.0,0.7,0.0
08/03/2012,9.4,11.8,5.9,0.0
09/03/2012,9.3,15.4,5.0,0.0
10/03/2012,9.3,17.5,1.7,0.0
11/03/2012,10.2,16.4,5.8,0.0
12/03/2012,11.6,19.3,3.8,0.0
13/03/2012,11.0,24.6,-0.8,0.0
14/03/2012,12.5,25.2,0.4,0.0
15/03/2012,14.3,24.8,2.2,0.0
16/03/2012,13.7,22.2,3.6,0.0
17/03/2012,13.4,20.7,4.9,0.0
18/03/2012,9.3,15.6,2.1,0.0
19/03/2012,8.0,13.2,2.7,0.0
20/03/2012,8.3,14.4,3.1,0.0
21/03/2012,6.8,9.4,5.1,19.2
22/03/2012,6.7,14.1,0.6,0.2
23/03/2012,8.6,16.5,-0.4,0.0
24/03/2012,11.0,20.3,1.8,0.0
25/03/2012,11.3,22.5,0.7,0.0
26/03/2012,13.0,22.0,2.4,0.0
27/03/2012,12.4,21.1,3.8,0.0
28/03/2012,11.8,22.5,1.4,0.0
29/03/2012,13.0,23.4,1.2,0.0
30/03/2012,15.5,24.8,4.5,0.0
31/03/2012,16.0,24.6,7.2,0.0
01/04/2012,15.7,23.7,9.6,0.0
02/04/2012,14.8,22.8,6.1,0.0
03/04/2012,12.1,14.9,9.5,0.0
04/04/2012,11.2,16.0,8.4,0.8
05/04/2012,10.3,15.3,7.8,7.4
06/04/2012,8.8,13.0,2.0,1.2
07/04/2012,7.2,11.0,-0.2,0.2
08/04/2012,10.8,15.5,7.0,0.0
09/04/2012,13.6,21.3,4.6,0.0
10/04/2012,12.0,20.6,6.3,5.0
11/04/2012,9.5,15.6,1.5,0.0
12/04/2012,9.2,15.3,5.0,0.4
13/04/2012,8.6,14.4,4.6,0.2
14/04/2012,8.5,12.7,5.5,2.4
15/04/2012,7.9,11.6,5.2,0.2
16/04/2012,6.9,10.8,4.3,3.4
17/04/2012,10.0,18.5,2.1,1.4
18/04/2012,9.7,14.7,5.8,1.8
19/04/2012,9.9,14.2,6.1,1.0
20/04/2012,10.5,16.5,6.1,5.2
21/04/2012,11.3,19.8,4.7,0.8
22/04/2012,11.0,16.2,7.1,0.0
23/04/2012,10.6,18.7,3.1,0.6
24/04/2012,10.6,16.5,1.6,0.0
25/04/2012,15.3,23.2,8.9,0.0
26/04/2012,13.5,19.6,8.6,0.0
27/04/2012,13.4,22.9,4.7,0.0
28/04/2012,9.3,10.4,7.8,27.0
29/04/2012,10.0,16.4,4.5,4.4
30/04/2012,10.4,14.1,7.4,11.4
01/05/2012,12.2,17.7,7.2,0.0
02/05/2012,14.6,21.1,6.2,0.0
03/05/2012,16.4,22.9,9.4,0.0
04/05/2012,14.0,19.2,10.7,2.2
05/05/2012,13.7,19.1,8.2,0.0
06/05/2012,13.5,19.4,7.0,0.0
07/05/2012,15.5,23.6,4.5,0.4
08/05/2012,18.3,23.5,13.8,1.4
09/05/2012,21.1,29.0,11.0,0.0
10/05/2012,23.4,31.1,15.3,0.0
11/05/2012,23.6,32.5,14.5,0.2
12/05/2012,21.2,28.0,15.9,0.0
13/05/2012,17.7,22.5,12.7,0.0
14/05/2012,16.9,26.3,9.9,0.0
15/05/2012,13.8,20.6,8.1,0.0
16/05/2012,15.8,25.3,8.7,0.0
17/05/2012,17.3,24.7,12.5,3.6
18/05/2012,17.5,23.5,11.8,0.0
19/05/2012,15.1,20.8,11.3,12.4
20/05/2012,10.9,12.1,9.3,0.6
21/05/2012,11.9,14.1,9.3,0.2
22/05/2012,15.0,20.2,9.8,0.0
23/05/2012,18.1,27.1,9.0,0.0
24/05/2012,21.4,30.6,12.6,0.0
25/05/2012,23.4,32.0,14.5,0.0
26/05/2012,20.0,27.5,13.4,0.0
27/05/2012,19.4,27.1,10.5,0.0
28/05/2012,20.3,28.3,12.4,0.0
29/05/2012,22.7,29.5,15.0,0.0
30/05/2012,22.9,32.8,13.0,0.0
31/05/2012,23.4,33.1,14.8,0.0
01/06/2012,26.3,36.2,16.4,0.0
02/06/2012,24.5,35.4,15.0,1.0
03/06/2012,17.9,22.9,14.6,1.4
04/06/2012,18.8,25.0,13.7,0.0
05/06/2012,21.5,31.7,8.9,0.0
06/06/2012,23.1,29.9,14.2,0.0
07/06/2012,23.5,29.6,15.8,0.0
08/06/2012,17.2,21.3,12.3,0.0
09/06/2012,17.3,24.3,6.6,0.0
10/06/2012,20.1,28.8,12.2,0.0
11/06/2012,17.7,25.7,11.9,0.4
12/06/2012,15.7,21.6,9.5,0.0
13/06/2012,17.0,23.6,8.6,0.0
14/06/2012,23.2,32.1,13.2,0.0
15/06/2012,25.4,34.5,15.4,0.0
16/06/2012,23.3,33.0,14.0,0.0
17/06/2012,23.0,32.4,13.7,0.0
18/06/2012,19.9,25.2,15.9,8.9
19/06/2012,18.2,21.7,14.6,8.2
20/06/2012,23.3,31.6,15.0,0.0
21/06/2012,21.5,30.8,13.6,0.0
22/06/2012,19.2,28.0,12.1,0.0
23/06/2012,21.6,29.9,13.2,0.0
24/06/2012,24.3,34.5,15.1,0.0
25/06/2012,25.4,34.8,15.3,0.0
26/06/2012,27.1,37.9,15.6,0.0
27/06/2012,28.1,36.5,18.1,0.0
28/06/2012,28.2,38.3,18.5,0.0
29/06/2012,23.8,35.0,15.9,0.0
30/06/2012,20.1,29.5,13.8,0.0
01/07/2012,17.2,21.4,13.2,0.0
02/07/2012,19.8,28.5,8.3,0.0
03/07/2012,23.5,33.3,11.2,0.0
04/07/2012,23.0,30.3,16.9,0.0
05/07/2012,20.1,26.0,15.1,0.0
06/07/2012,20.4,27.6,12.2,0.0
07/07/2012,23.9,32.7,15.0,0.2
08/07/2012,21.3,28.2,15.6,0.0
09/07/2012,21.9,31.6,15.2,0.0
10/07/2012,20.6,27.5,15.9,0.0
11/07/2012,19.1,25.3,14.7,0.0
12/07/2012,21.1,30.9,11.4,0.0
13/07/2012,23.5,34.7,12.4,0.0
14/07/2012,20.3,25.0,15.8,0.0
15/07/2012,19.2,25.6,14.7,0.0
16/07/2012,21.1,31.1,11.5,0.0
17/07/2012,25.9,36.6,12.7,0.0
18/07/2012,26.8,38.1,13.4,0.0
19/07/2012,22.3,30.0,16.7,0.0
20/07/2012,20.4,28.1,14.7,0.0
21/07/2012,20.3,26.4,16.0,0.0
22/07/2012,21.1,27.9,15.1,0.0
23/07/2012,23.1,32.1,15.3,0.0
24/07/2012,24.7,32.3,15.1,0.0
25/07/2012,26.9,35.1,17.3,0.0
26/07/2012,27.8,36.2,21.2,0.0
27/07/2012,22.9,32.2,15.8,0.8
28/07/2012,21.6,27.7,17.2,0.2
29/07/2012,21.9,31.0,15.8,0.0
30/07/2012,23.3,34.0,12.5,0.0
31/07/2012,26.4,35.6,15.7,0.0
01/08/2012,26.2,35.1,17.4,0.0
02/08/2012,22.8,31.6,17.1,0.0
03/08/2012,22.7,31.4,15.6,0.0
04/08/2012,22.8,32.0,15.9,0.0
05/08/2012,19.6,28.5,14.1,2.2
06/08/2012,19.7,27.5,11.7,0.0
07/08/2012,22.4,32.3,11.0,0.0
08/08/2012,26.5,34.9,17.8,0.0
09/08/2012,27.7,38.7,16.1,0.0
10/08/2012,28.7,40.7,16.9,0.0
11/08/2012,26.7,38.4,19.3,0.0
12/08/2012,23.1,29.4,18.7,0.0
13/08/2012,23.5,32.3,13.3,0.0
14/08/2012,26.7,34.7,17.0,0.0
15/08/2012,23.0,28.0,15.4,0.0
16/08/2012,23.9,34.8,10.8,0.0
17/08/2012,29.5,38.1,21.0,0.0
18/08/2012,29.8,38.0,17.7,0.0
19/08/2012,29.0,36.6,22.1,0.0
20/08/2012,28.6,38.7,20.2,0.0
21/08/2012,28.2,38.8,17.9,0.0
22/08/2012,25.3,34.0,18.8,0.0
23/08/2012,25.8,36.7,17.2,0.0
24/08/2012,25.0,33.7,14.5,0.0
25/08/2012,21.3,26.6,16.1,0.0
26/08/2012,20.3,29.2,12.6,0.0
27/08/2012,24.9,34.4,12.4,0.0
28/08/2012,25.1,33.2,16.8,0.0
29/08/2012,23.8,32.5,18.4,3.6
30/08/2012,19.0,22.7,15.1,0.0
31/08/2012,17.3,22.9,13.1,0.0
01/09/2012,16.4,21.6,12.5,0.0
02/09/2012,17.6,24.1,12.7,0.0
03/09/2012,19.0,23.6,14.1,0.0
04/09/2012,19.5,24.6,14.9,0.0
05/09/2012,21.1,27.4,15.1,0.0
06/09/2012,21.2,30.5,11.9,0.0
07/09/2012,22.3,32.8,12.1,0.0
08/09/2012,23.4,31.9,15.8,0.0
09/09/2012,22.7,32.5,12.5,0.0
10/09/2012,23.2,30.6,15.6,0.0
11/09/2012,23.0,31.3,14.4,0.0
12/09/2012,20.1,25.4,14.9,0.0
13/09/2012,17.7,23.0,13.3,0.0
14/09/2012,18.6,25.5,13.2,0.0
15/09/2012,20.7,31.9,11.4,0.0
16/09/2012,18.7,30.2,7.3,0.0
17/09/2012,20.9,29.0,13.3,0.0
18/09/2012,19.5,25.4,15.6,0.0
19/09/2012,18.0,23.3,9.9,0.0
20/09/2012,18.6,28.6,7.3,0.0
21/09/2012,23.0,30.0,15.7,0.0
22/09/2012,22.3,30.6,13.7,0.0
23/09/2012,23.3,32.3,18.9,0.2
24/09/2012,20.3,26.3,11.6,0.0
25/09/2012,17.1,22.5,8.1,0.0
26/09/2012,14.7,20.4,8.0,1.8
27/09/2012,13.6,21.5,4.7,0.0
28/09/2012,16.5,20.9,13.3,3.8
29/09/2012,14.6,17.2,12.7,13.8
30/09/2012,14.4,19.3,8.5,0.0
01/10/2012,12.1,22.3,3.6,0.0
02/10/2012,13.6,24.9,4.2,0.0
03/10/2012,15.8,25.8,5.8,0.0
04/10/2012,15.5,25.4,7.5,0.0
05/10/2012,17.3,27.3,8.7,0.0
06/10/2012,17.5,27.0,7.6,0.0
07/10/2012,19.2,27.5,12.0,0.0
08/10/2012,19.9,29.0,11.8,0.0
09/10/2012,20.7,28.2,13.2,0.0
10/10/2012,20.9,26.0,14.9,12.0
11/10/2012,17.2,23.3,13.6,1.0
12/10/2012,14.2,17.9,8.5,1.2
13/10/2012,12.3,19.2,5.8,0.0
14/10/2012,11.2,18.4,6.3,3.9
15/10/2012,11.2,16.7,6.4,0.0
16/10/2012,12.1,20.3,3.4,0.0
17/10/2012,16.9,23.8,10.8,0.0
18/10/2012,19.4,22.0,16.7,0.0
19/10/2012,15.0,20.9,12.4,30.9
20/10/2012,12.7,13.5,11.9,57.7
21/10/2012,14.0,17.2,11.8,18.1
22/10/2012,14.0,19.2,9.4,0.8
23/10/2012,12.9,20.3,8.4,0.2
24/10/2012,14.6,20.0,9.2,4.1
25/10/2012,15.8,18.5,14.0,1.6
26/10/2012,15.2,17.6,13.5,10.8
27/10/2012,10.2,14.2,4.5,1.0
28/10/2012,6.4,9.6,3.5,0.0
29/10/2012,6.1,12.7,-0.4,0.0
30/10/2012,5.9,11.5,-0.4,0.0
31/10/2012,9.1,15.5,3.5,0.0
01/11/2012,9.9,17.9,3.1,0.2
02/11/2012,13.6,20.4,6.4,0.2
03/11/2012,13.6,16.8,11.4,0.0
04/11/2012,12.0,13.4,7.0,8.8
05/11/2012,7.9,14.1,3.6,0.2
06/11/2012,7.1,12.3,3.1,0.2
07/11/2012,5.8,11.1,-0.8,0.0
08/11/2012,9.7,12.2,7.8,1.6
09/11/2012,12.1,14.5,10.3,0.2
10/11/2012,12.2,18.1,8.7,2.0
11/11/2012,8.5,11.5,5.6,0.0
12/11/2012,8.9,12.9,5.9,0.0
13/11/2012,8.0,14.6,1.6,0.0
14/11/2012,9.5,17.9,3.4,0.0
15/11/2012,10.9,18.2,5.1,0.0
16/11/2012,11.1,15.5,7.4,0.0
17/11/2012,12.4,15.5,10.9,4.8
18/11/2012,11.4,14.8,6.7,8.8
19/11/2012,7.3,14.9,1.5,0.0
20/11/2012,7.1,14.8,1.4,0.0
21/11/2012,10.2,13.4,5.9,0.0
22/11/2012,6.0,13.7,0.0,0.0
23/11/2012,7.5,14.2,-0.0,0.0
24/11/2012,10.7,13.7,7.9,0.0
25/11/2012,10.9,13.9,7.8,0.0
26/11/2012,9.6,11.6,6.5,2.2
27/11/2012,6.7,9.1,5.0,0.0
28/11/2012,5.8,8.2,4.7,3.4
29/11/2012,5.0,7.2,3.4,0.0
30/11/2012,4.4,6.5,2.8,0.0
01/12/2012,3.8,6.4,2.2,0.0
02/12/2012,6.4,10.3,2.4,0.0
03/12/2012,8.7,13.3,3.0,0.0
04/12/2012,6.6,10.6,1.7,0.0
05/12/2012,6.6,9.5,4.0,0.0
06/12/2012,5.2,10.8,1.0,0.0
07/12/2012,6.2,12.9,-0.9,0.0
08/12/2012,7.4,10.4,4.4,0.0
09/12/2012,4.8,10.7,-1.7,0.0
10/12/2012,4.7,9.2,-1.7,0.0
11/12/2012,6.0,10.7,-2.6,0.0
12/12/2012,-0.3,5.0,-4.6,0.0
13/12/2012,3.9,8.2,-0.4,0.0
14/12/2012,8.4,12.3,6.7,0.0
15/12/2012,9.9,15.9,6.1,0.0
16/12/2012,8.9,15.4,3.3,0.0
17/12/2012,7.7,13.5,0.7,0.0
18/12/2012,4.9,10.6,-1.8,0.0
19/12/2012,8.5,12.2,5.3,0.0
20/12/2012,9.4,13.4,7.2,0.0
21/12/2012,10.3,16.7,3.5,0.0
22/12/2012,6.7,14.6,1.9,0.0
23/12/2012,4.4,8.0,1.9,0.0
24/12/2012,8.5,15.2,3.1,0.0
25/12/2012,9.3,13.8,7.4,0.0
26/12/2012,8.7,12.8,1.6,0.0
27/12/2012,5.4,13.1,-2.2,0.0
28/12/2012,6.9,13.9,0.9,0.0
29/12/2012,5.3,10.0,-0.5,0.0
30/12/2012,3.3,11.1,-2.5,0.0
31/12/2012,3.1,9.1,-3.3,0.0
