Fecha, Temperatura media, Temperatura maxima, Temperatura minima, Precipitacion acumulada
01/01/2017,1.3,1.7,0.8,0.2
02/01/2017,1.3,4.2,-1.9,0.0
03/01/2017,0.7,9.5,-2.6,0.2
04/01/2017,5.5,14.6,-1.1,0.0
05/01/2017,5.2,10.8,1.3,0.0
06/01/2017,4.0,11.3,-2.1,0.0
07/01/2017,1.1,9.3,-4.4,0.0
08/01/2017,4.2,13.7,-5.3,0.0
09/01/2017,8.1,12.5,5.2,0.0
10/01/2017,9.3,12.1,6.5,1.0
11/01/2017,11.4,15.8,6.9,0.0
12/01/2017,8.8,13.7,2.3,0.0
13/01/2017,6.8,10.7,3.8,0.4
14/01/2017,4.7,7.9,3.2,1.4
15/01/2017,6.9,9.2,4.2,0.6
16/01/2017,8.9,11.4,7.0,5.0
17/01/2017,3.2,7.3,-0.9,0.0
18/01/2017,-1.3,1.8,-4.0,0.0
19/01/2017,-1.3,5.5,-6.8,0.0
20/01/2017,-0.9,3.9,-4.7,0.4
21/01/2017,2.4,12.1,-5.2,0.2
22/01/2017,6.5,9.5,3.9,0.0
23/01/2017,7.0,12.0,3.3,0.0
24/01/2017,6.2,12.0,0.2,0.0
25/01/2017,2.4,9.9,-4.9,0.0
26/01/2017,0.6,8.4,-7.6,0.0
27/01/2017,6.9,11.1,4.6,10.6
28/01/2017,6.5,11.8,-0.3,0.6
29/01/2017,4.8,11.5,-0.7,0.0
30/01/2017,7.9,13.8,3.3,0.0
31/01/2017,8.6,15.6,3.3,0.2
01/02/2017,9.2,14.5,4.2,0.0
02/02/2017,8.3,12.6,2.9,11.2
03/02/2017,10.6,14.7,3.8,1.6
04/02/2017,12.4,16.1,9.6,2.6
05/02/2017,9.2,14.8,6.5,2.8
06/02/2017,9.4,15.1,6.3,0.2
07/02/2017,9.1,13.1,5.2,0.6
08/02/2017,5.8,9.4,3.5,2.0
09/02/2017,6.4,11.5,1.1,0.0
10/02/2017,5.5,10.8,0.2,0.0
11/02/2017,5.3,8.4,0.7,12.6
12/02/2017,9.8,12.8,6.2,3.0
13/02/2017,9.6,11.5,6.1,17.0
14/02/2017,8.7,14.6,4.9,0.0
15/02/2017,8.3,14.7,3.6,0.0
16/02/2017,7.3,15.4,2.6,0.2
17/02/2017,6.2,14.9,1.8,0.2
18/02/2017,5.8,14.4,0.6,0.4
19/02/2017,6.8,15.3,0.5,0.2
20/02/2017,9.2,14.9,3.9,0.0
21/02/2017,7.5,17.6,-0.3,0.0
22/02/2017,6.9,16.6,-0.8,0.2
23/02/2017,7.3,12.5,2.4,0.0
24/02/2017,9.2,12.6,5.0,0.0
25/02/2017,9.2,19.9,2.2,0.0
26/02/2017,7.1,16.4,-1.0,0.2
27/02/2017,9.3,18.6,-0.3,0.0
28/02/2017,7.8,15.0,3.6,1.4
01/03/2017,7.4,17.1,-0.4,0.0
02/03/2017,9.5,18.4,0.9,0.2
03/03/2017,10.3,15.8,6.5,16.4
04/03/2017,7.4,12.6,2.6,0.4
05/03/2017,8.6,13.2,4.7,0.6
06/03/2017,11.0,19.3,5.6,0.0
07/03/2017,11.9,19.3,5.1,0.0
08/03/2017,13.5,20.7,7.1,0.0
09/03/2017,12.4,24.0,2.5,0.0
10/03/2017,13.9,26.4,3.3,0.2
11/03/2017,13.1,24.2,3.3,0.0
12/03/2017,11.1,16.8,7.5,0.4
13/03/2017,10.6,13.7,8.0,0.0
14/03/2017,12.5,18.6,7.8,0.0
15/03/2017,11.5,19.7,5.3,0.0
16/03/2017,10.7,20.9,1.3,0.0
17/03/2017,11.5,23.1,0.7,0.0
18/03/2017,12.2,20.6,6.0,0.0
19/03/2017,13.7,23.1,6.4,0.0
20/03/2017,12.7,22.0,6.7,0.0
21/03/2017,10.1,15.9,4.1,0.0
22/03/2017,7.0,14.7,2.4,6.4
23/03/2017,6.7,11.6,1.5,0.4
24/03/2017,8.1,13.4,2.8,2.4
25/03/2017,5.6,8.8,4.3,33.6
26/03/2017,10.2,16.1,5.4,0.0
27/03/2017,10.4,13.9,8.2,1.6
28/03/2017,11.5,20.0,4.4,0.0
29/03/2017,12.0,21.1,3.2,0.0
30/03/2017,13.5,21.1,4.4,0.2
31/03/2017,13.1,19.1,8.0,4.2
01/04/2017,11.1,15.8,7.5,0.0
02/04/2017,9.7,14.9,5.2,0.0
03/04/2017,11.6,19.2,3.4,0.0
04/04/2017,12.5,16.9,7.9,0.0
05/04/2017,11.8,16.2,6.8,0.0
06/04/2017,13.1,18.4,9.3,0.0
07/04/2017,12.3,20.8,4.9,0.0
08/04/2017,13.4,23.8,3.3,0.0
09/04/2017,14.1,23.7,3.9,0.0
10/04/2017,15.0,25.9,4.0,0.0
11/04/2017,14.6,21.6,9.1,0.0
12/04/2017,14.9,24.1,6.4,0.0
13/04/2017,15.9,25.6,7.0,0.0
14/04/2017,14.3,23.2,4.5,0.0
15/04/2017,13.1,18.6,8.4,0.0
16/04/2017,14.1,22.2,6.8,0.0
17/04/2017,14.6,23.8,4.8,0.0
18/04/2017,14.5,20.3,9.5,0.0
19/04/2017,12.1,17.4,6.0,0.0
20/04/2017,11.7,20.1,2.8,0.0
21/04/2017,11.8,19.3,3.1,0.0
22/04/2017,12.1,22.2,1.3,0.0
23/04/2017,13.9,26.7,2.8,0.0
24/04/2017,15.8,26.2,3.6,0.0
25/04/2017,14.2,20.9,9.9,6.8
26/04/2017,9.3,12.0,6.2,0.0
27/04/2017,8.2,13.4,3.7,0.0
28/04/2017,9.4,17.6,1.5,0.0
29/04/2017,9.9,15.3,0.2,0.0
30/04/2017,10.9,17.9,3.7,2.4
01/05/2017,9.5,18.9,-0.4,0.2
02/05/2017,13.3,20.1,6.8,0.0
03/05/2017,14.5,24.0,7.2,0.8
04/05/2017,16.3,23.8,8.1,0.0
05/05/2017,16.7,24.7,11.9,4.2
06/05/2017,15.1,22.3,7.6,0.2
07/05/2017,15.4,23.4,6.4,0.0
08/05/2017,16.5,24.6,7.7,0.0
09/05/2017,16.1,24.2,7.4,0.2
10/05/2017,17.6,24.8,11.6,0.2
11/05/2017,15.6,22.6,11.7,12.8
12/05/2017,15.5,21.6,10.2,2.8
13/05/2017,15.7,22.6,7.4,1.8
14/05/2017,17.7,26.0,8.4,0.0
15/05/2017,18.7,27.6,9.0,0.0
16/05/2017,20.7,29.7,12.4,0.0
17/05/2017,20.3,27.5,13.8,0.2
18/05/2017,11.9,15.4,7.7,16.6
19/05/2017,12.5,19.4,6.3,0.2
20/05/2017,14.1,22.6,4.6,0.0
21/05/2017,17.1,24.2,8.7,0.0
22/05/2017,20.4,30.0,11.6,0.0
23/05/2017,20.3,29.1,12.0,0.0
24/05/2017,21.1,30.4,11.4,0.0
25/05/2017,23.0,32.6,12.7,0.0
26/05/2017,23.6,31.6,14.1,0.2
27/05/2017,23.4,30.6,16.5,0.0
28/05/2017,22.6,29.5,16.3,0.0
29/05/2017,17.3,21.6,14.7,17.0
30/05/2017,19.4,25.9,14.1,0.0
31/05/2017,20.5,28.6,13.3,0.0
01/06/2017,21.9,29.9,14.1,0.0
02/06/2017,19.8,27.9,15.2,6.8
03/06/2017,17.5,23.5,12.7,6.6
04/06/2017,13.4,16.9,11.9,12.4
05/06/2017,17.8,25.4,12.3,0.0
06/06/2017,16.4,21.1,11.1,0.0
07/06/2017,18.5,27.6,9.0,0.0
08/06/2017,20.4,30.2,11.7,11.8
09/06/2017,22.0,30.3,15.2,0.2
10/06/2017,24.3,34.0,15.7,0.0
11/06/2017,25.2,36.6,17.0,0.0
12/06/2017,24.7,34.0,17.4,0.0
13/06/2017,26.1,35.6,15.9,0.0
14/06/2017,27.6,37.9,17.6,0.0
15/06/2017,24.5,32.4,19.0,0.0
16/06/2017,24.5,34.3,17.3,0.0
17/06/2017,26.7,36.7,17.7,0.0
18/06/2017,27.0,37.3,16.1,0.0
19/06/2017,27.7,36.8,18.7,0.2
20/06/2017,25.5,34.5,18.3,0.0
21/06/2017,27.3,36.7,17.5,0.0
22/06/2017,28.0,38.3,18.0,0.0
23/06/2017,25.0,35.1,19.0,0.0
24/06/2017,23.0,30.6,17.1,0.0
25/06/2017,22.8,30.8,17.3,9.0
26/06/2017,21.8,28.6,18.0,3.6
27/06/2017,20.9,30.8,15.7,0.2
28/06/2017,19.7,28.7,14.5,3.4
29/06/2017,17.5,23.8,11.2,0.0
30/06/2017,15.0,23.1,9.1,1.4
01/07/2017,15.7,19.4,11.2,0.0
02/07/2017,18.6,25.9,10.5,0.0
03/07/2017,22.3,31.1,14.5,0.0
04/07/2017,25.1,35.4,13.2,0.0
05/07/2017,26.6,35.4,15.9,0.0
06/07/2017,24.7,32.0,18.8,0.2
07/07/2017,24.0,34.0,15.9,0.0
08/07/2017,22.0,32.5,17.4,0.2
09/07/2017,23.9,31.7,16.1,0.2
10/07/2017,21.2,26.8,16.7,0.0
11/07/2017,23.3,32.8,14.8,0.0
12/07/2017,24.9,32.7,15.8,0.0
13/07/2017,23.3,32.1,17.1,0.0
14/07/2017,21.7,28.4,16.8,0.0
15/07/2017,22.7,31.2,15.8,0.0
16/07/2017,25.2,34.9,15.6,0.0
17/07/2017,28.1,35.4,20.0,0.0
18/07/2017,27.0,35.8,19.1,0.0
19/07/2017,25.9,34.2,19.5,0.4
20/07/2017,22.0,28.7,17.4,0.0
21/07/2017,22.1,30.2,16.3,0.0
22/07/2017,22.1,32.0,14.4,0.0
23/07/2017,22.0,30.1,15.2,0.0
24/07/2017,21.6,27.6,15.9,0.0
25/07/2017,19.9,24.5,16.1,0.0
26/07/2017,22.0,30.6,14.4,0.0
27/07/2017,24.1,34.8,13.0,0.0
28/07/2017,25.8,35.0,17.4,0.0
29/07/2017,26.1,37.0,15.3,0.0
30/07/2017,25.6,36.7,18.8,0.0
31/07/2017,23.6,34.0,17.3,0.0
01/08/2017,23.1,31.0,18.0,0.0
02/08/2017,25.9,36.0,16.2,0.0
03/08/2017,27.6,37.3,18.2,0.0
04/08/2017,27.3,35.7,18.7,0.0
05/08/2017,23.9,30.8,16.9,6.6
06/08/2017,21.4,27.9,16.1,0.0
07/08/2017,23.8,34.0,16.5,0.0
08/08/2017,19.6,25.0,13.9,0.0
09/08/2017,16.5,22.0,10.7,0.0
10/08/2017,16.9,22.8,11.5,0.0
11/08/2017,18.1,25.1,10.7,0.0
12/08/2017,20.2,30.9,9.7,0.0
13/08/2017,22.5,32.9,12.1,0.0
14/08/2017,25.0,35.3,16.4,0.0
15/08/2017,23.8,33.1,17.5,0.2
16/08/2017,23.0,31.6,15.7,0.0
17/08/2017,23.7,35.2,12.6,0.0
18/08/2017,22.8,30.1,17.3,0.0
19/08/2017,21.7,28.7,16.7,0.0
20/08/2017,21.5,30.3,13.9,0.0
21/08/2017,22.4,34.8,10.7,0.0
22/08/2017,26.0,36.4,15.9,0.0
23/08/2017,24.0,33.1,17.7,0.0
24/08/2017,24.5,32.9,16.9,16.8
25/08/2017,25.1,34.1,15.9,0.0
26/08/2017,25.8,34.2,17.9,0.0
27/08/2017,20.8,27.4,17.3,0.0
28/08/2017,20.1,27.9,16.0,11.8
29/08/2017,18.9,26.6,14.5,3.6
30/08/2017,19.6,27.5,14.8,0.0
31/08/2017,18.2,23.6,14.6,8.0
01/09/2017,17.2,23.9,11.7,1.0
02/09/2017,17.5,24.0,11.9,0.0
03/09/2017,18.4,25.9,11.8,0.0
04/09/2017,21.4,28.8,15.0,0.0
05/09/2017,21.4,31.2,13.3,0.0
06/09/2017,19.8,26.0,14.0,0.0
07/09/2017,17.5,24.4,11.9,0.0
08/09/2017,17.2,27.5,9.4,0.0
09/09/2017,16.5,21.8,11.8,0.8
10/09/2017,16.9,23.0,11.4,0.2
11/09/2017,18.1,25.2,12.2,0.0
12/09/2017,18.3,25.1,12.4,0.0
13/09/2017,19.4,30.7,9.6,0.0
14/09/2017,16.4,20.2,10.9,0.0
15/09/2017,14.4,20.5,8.0,0.0
16/09/2017,12.2,20.6,5.0,0.0
17/09/2017,12.9,22.2,4.6,0.0
18/09/2017,15.8,22.2,10.8,2.8
19/09/2017,15.6,22.4,9.9,0.0
20/09/2017,14.6,26.9,4.9,0.0
21/09/2017,16.1,26.7,5.0,0.0
22/09/2017,16.1,20.2,10.9,10.0
23/09/2017,17.2,25.8,10.9,0.0
24/09/2017,18.2,28.6,9.8,0.0
25/09/2017,18.8,24.2,13.6,0.0
26/09/2017,17.8,24.7,10.0,0.0
27/09/2017,16.4,26.6,6.8,0.0
28/09/2017,18.0,27.9,10.4,0.0
29/09/2017,18.7,27.8,10.8,0.0
30/09/2017,17.6,22.6,13.0,0.0
01/10/2017,17.9,23.4,13.3,0.0
02/10/2017,20.5,27.3,14.8,0.0
03/10/2017,19.6,27.6,13.4,0.0
04/10/2017,18.3,27.8,9.9,0.0
05/10/2017,18.0,28.4,10.0,0.0
06/10/2017,17.5,23.6,12.5,0.0
07/10/2017,14.6,23.4,7.4,0.0
08/10/2017,15.1,27.8,3.9,0.0
09/10/2017,16.6,27.2,7.8,0.0
10/10/2017,14.1,26.2,4.8,0.0
11/10/2017,13.4,25.1,4.5,0.0
12/10/2017,14.4,25.4,5.9,0.0
13/10/2017,15.6,26.8,6.8,0.0
14/10/2017,16.7,24.6,9.1,0.0
15/10/2017,17.7,24.4,11.3,0.0
16/10/2017,17.3,25.6,10.3,0.0
17/10/2017,17.3,23.7,9.6,0.0
18/10/2017,15.7,20.8,12.2,1.8
19/10/2017,13.3,19.5,8.0,0.2
20/10/2017,13.7,22.3,7.0,0.0
21/10/2017,13.0,17.5,7.5,0.2
22/10/2017,12.0,17.0,7.1,0.0
23/10/2017,13.1,23.3,6.6,0.2
24/10/2017,13.1,25.1,4.7,0.0
25/10/2017,12.3,25.6,3.7,0.0
26/10/2017,13.3,26.1,4.1,0.0
27/10/2017,16.2,22.7,7.9,0.0
28/10/2017,15.9,19.7,11.8,0.0
29/10/2017,14.5,20.0,10.2,0.0
30/10/2017,14.2,19.0,8.6,0.0
31/10/2017,9.6,17.1,3.6,0.0
01/11/2017,11.8,20.4,2.9,0.0
02/11/2017,13.4,19.8,6.2,0.0
03/11/2017,14.5,20.8,9.5,0.0
04/11/2017,13.4,18.2,8.3,1.2
05/11/2017,12.0,15.0,9.5,0.0
06/11/2017,9.0,12.2,5.4,0.8
07/11/2017,9.3,14.9,4.1,0.0
08/11/2017,8.6,11.9,4.4,0.4
09/11/2017,8.5,12.7,5.7,0.4
10/11/2017,11.1,14.6,5.6,0.2
11/11/2017,13.2,17.3,8.9,0.0
12/11/2017,13.7,18.2,8.5,0.0
13/11/2017,8.5,12.4,6.1,1.2
14/11/2017,8.4,13.6,4.7,0.0
15/11/2017,7.9,16.5,-1.3,0.0
16/11/2017,4.7,15.7,-3.1,0.0
17/11/2017,9.3,20.4,-1.8,0.0
18/11/2017,10.3,17.0,5.9,0.0
19/11/2017,8.6,18.0,1.2,0.0
20/11/2017,4.9,16.1,-3.1,0.0
21/11/2017,3.3,15.0,-3.9,0.0
22/11/2017,3.9,14.3,-5.7,0.0
23/11/2017,10.8,17.1,6.9,0.0
24/11/2017,10.3,12.1,8.1,0.6
25/11/2017,9.3,12.8,4.3,2.0
26/11/2017,6.8,11.5,3.0,0.0
27/11/2017,3.3,10.7,-2.8,0.0
28/11/2017,1.3,12.8,-5.6,0.2
29/11/2017,6.2,10.5,1.8,0.0
30/11/2017,5.3,9.8,-0.7,0.0
01/12/2017,4.1,6.9,1.4,4.6
02/12/2017,2.5,5.3,0.7,4.8
03/12/2017,4.2,7.7,1.2,0.0
04/12/2017,7.0,11.2,2.6,0.0
05/12/2017,3.0,11.0,-3.0,0.0
06/12/2017,-1.3,8.2,-5.4,0.2
07/12/2017,0.7,7.4,-5.2,0.2
08/12/2017,5.8,12.2,-1.2,0.0
09/12/2017,7.2,11.3,3.4,0.4
10/12/2017,9.2,15.4,3.1,0.2
11/12/2017,9.6,15.8,5.7,0.2
12/12/2017,5.2,10.4,-2.5,0.0
13/12/2017,0.9,6.9,-4.4,0.0
14/12/2017,6.5,10.8,1.4,6.2
15/12/2017,7.3,10.6,4.0,0.2
16/12/2017,5.8,8.9,3.1,0.0
17/12/2017,6.4,10.2,3.4,0.0
18/12/2017,8.1,11.8,3.5,0.0
19/12/2017,7.1,10.6,3.2,0.0
20/12/2017,7.6,13.2,4.0,0.0
21/12/2017,10.2,15.1,6.7,0.0
22/12/2017,8.8,12.2,6.7,0.0
23/12/2017,7.4,13.1,-0.7,0.0
24/12/2017,1.8,5.0,-2.9,0.0
25/12/2017,1.9,3.9,1.0,0.2
26/12/2017,5.4,9.6,1.8,1.8
27/12/2017,5.6,10.3,0.2,5.2
28/12/2017,7.4,11.1,4.2,0.8
29/12/2017,8.2,15.3,3.8,2.0
30/12/2017,7.3,17.8,0.9,0.0
31/12/2017,8.0,15.3,1.1,1.6
