Fecha, Temperatura media, Temperatura maxima, Temperatura minima, Precipitacion acumulada
01/01/2015,8.0,14.7,-0.4,0.0
02/01/2015,1.6,9.4,-4.6,0.0
03/01/2015,5.0,16.2,-3.3,0.0
04/01/2015,8.8,14.9,3.1,0.0
05/01/2015,2.8,6.1,-1.7,0.0
06/01/2015,6.3,12.7,1.1,0.2
07/01/2015,2.8,7.2,-0.8,0.2
08/01/2015,2.7,5.3,0.7,0.0
09/01/2015,5.5,17.8,-2.3,0.2
10/01/2015,7.9,17.2,0.2,0.0
11/01/2015,7.4,13.6,-1.1,0.0
12/01/2015,2.3,10.6,-4.5,0.0
13/01/2015,1.4,8.1,-3.1,0.2
14/01/2015,4.4,13.8,-1.1,0.0
15/01/2015,8.9,13.2,2.8,1.4
16/01/2015,7.1,11.4,4.1,2.3
17/01/2015,4.1,10.3,-2.4,0.0
18/01/2015,2.6,6.8,-1.5,0.2
19/01/2015,4.1,8.4,1.2,1.1
20/01/2015,1.5,5.8,-2.5,0.0
21/01/2015,4.3,8.5,-0.4,0.2
22/01/2015,4.5,8.0,-0.8,1.1
23/01/2015,5.7,9.8,2.9,0.0
24/01/2015,6.4,11.3,2.2,0.0
25/01/2015,5.7,9.5,3.3,0.0
26/01/2015,6.6,11.1,3.3,0.0
27/01/2015,8.5,13.7,4.8,0.0
28/01/2015,8.6,12.7,4.5,0.0
29/01/2015,8.4,13.1,3.1,0.0
30/01/2015,8.5,13.9,5.5,23.3
31/01/2015,5.4,8.4,3.3,2.1
01/02/2015,3.7,6.6,1.2,4.5
02/02/2015,5.5,9.5,2.7,0.0
03/02/2015,4.4,8.6,0.2,3.4
04/02/2015,1.4,3.8,-0.6,0.0
05/02/2015,1.8,5.5,-0.4,0.0
06/02/2015,0.1,2.0,-1.8,0.0
07/02/2015,1.4,5.1,-1.5,0.0
08/02/2015,3.3,8.4,-1.0,0.0
09/02/2015,3.4,9.1,-3.7,0.0
10/02/2015,0.9,11.4,-6.0,0.0
11/02/2015,1.4,8.8,-5.2,0.2
12/02/2015,5.1,11.6,0.6,0.4
13/02/2015,5.0,13.8,-1.9,0.0
14/02/2015,6.1,9.8,2.0,9.3
15/02/2015,8.2,12.9,5.3,0.6
16/02/2015,8.4,12.5,6.0,1.7
17/02/2015,7.4,10.2,5.3,0.0
18/02/2015,5.9,10.2,-0.3,0.0
19/02/2015,3.4,12.8,-3.3,0.0
20/02/2015,4.8,12.3,-2.7,1.9
21/02/2015,6.4,10.0,4.2,1.9
22/02/2015,7.2,10.5,4.7,0.2
23/02/2015,7.8,15.5,1.1,11.0
24/02/2015,6.0,9.2,3.7,3.2
25/02/2015,9.2,12.1,5.2,0.6
26/02/2015,11.7,15.0,9.3,0.0
27/02/2015,7.5,11.7,3.6,0.0
28/02/2015,8.4,14.2,1.3,0.0
01/03/2015,12.6,18.9,7.4,0.0
02/03/2015,13.0,19.1,7.7,0.0
03/03/2015,12.6,19.8,5.1,0.0
04/03/2015,8.0,10.8,4.2,0.0
05/03/2015,6.9,11.0,3.8,0.0
06/03/2015,8.4,17.2,1.7,0.0
07/03/2015,10.1,22.5,-2.0,0.0
08/03/2015,12.7,20.9,1.6,0.0
09/03/2015,13.8,22.6,4.4,0.0
10/03/2015,11.3,22.2,1.6,0.0
11/03/2015,11.6,23.0,1.9,0.0
12/03/2015,11.9,22.8,1.9,0.0
13/03/2015,9.0,13.9,4.5,0.0
14/03/2015,6.4,10.3,3.2,0.0
15/03/2015,6.2,10.7,3.2,0.0
16/03/2015,7.5,13.2,3.1,0.0
17/03/2015,8.7,16.0,0.7,0.0
18/03/2015,8.9,12.6,4.9,0.0
19/03/2015,10.6,17.2,5.0,0.0
20/03/2015,7.9,15.2,2.2,0.0
21/03/2015,7.8,11.6,5.3,0.0
22/03/2015,7.7,10.4,4.5,0.0
23/03/2015,5.1,9.4,2.6,25.8
24/03/2015,8.0,10.3,5.1,3.1
25/03/2015,5.7,10.0,2.1,0.0
26/03/2015,9.0,13.7,3.9,0.0
27/03/2015,12.8,17.8,7.9,0.0
28/03/2015,13.9,19.3,6.8,0.0
29/03/2015,12.3,20.3,4.3,0.0
30/03/2015,13.2,19.3,5.7,0.0
31/03/2015,12.9,19.7,4.7,0.0
01/04/2015,11.2,14.7,7.2,0.0
02/04/2015,12.7,21.2,5.3,0.0
03/04/2015,13.0,22.1,5.5,0.0
04/04/2015,10.8,15.8,5.1,0.0
05/04/2015,11.4,16.3,5.0,0.0
06/04/2015,10.7,19.2,1.1,0.0
07/04/2015,12.1,18.8,3.2,0.0
08/04/2015,11.2,18.4,3.6,0.0
09/04/2015,11.1,17.8,5.3,0.0
10/04/2015,13.1,19.4,7.6,0.0
11/04/2015,12.9,21.5,4.0,0.0
12/04/2015,13.5,22.5,3.8,0.0
13/04/2015,14.5,24.0,4.2,0.0
14/04/2015,16.8,26.3,4.9,0.0
15/04/2015,12.8,17.7,6.7,0.0
16/04/2015,13.1,19.8,7.0,5.2
17/04/2015,14.1,20.4,7.3,0.0
18/04/2015,13.9,21.6,9.6,11.9
19/04/2015,11.7,17.6,5.3,0.0
20/04/2015,12.2,21.7,2.2,0.0
21/04/2015,14.6,23.1,4.4,0.0
22/04/2015,13.9,20.5,7.5,3.4
23/04/2015,13.5,22.0,5.2,0.0
24/04/2015,15.0,23.5,4.8,3.4
25/04/2015,16.3,21.9,9.0,0.0
26/04/2015,13.5,18.0,10.0,15.6
27/04/2015,12.7,17.9,9.2,0.0
28/04/2015,11.4,16.3,5.6,0.0
29/04/2015,13.0,19.6,7.4,0.0
30/04/2015,14.5,23.7,4.4,0.0
01/05/2015,17.1,21.9,12.6,0.0
02/05/2015,19.1,25.8,11.9,0.0
03/05/2015,19.2,22.7,16.5,4.2
04/05/2015,20.4,26.5,15.2,0.0
05/05/2015,18.0,24.1,10.1,0.0
06/05/2015,14.9,22.6,7.4,0.0
07/05/2015,17.2,26.7,6.2,0.0
08/05/2015,19.0,25.7,12.0,0.0
09/05/2015,17.7,26.3,8.8,0.0
10/05/2015,20.8,30.8,10.2,0.0
11/05/2015,22.6,31.6,11.7,0.0
12/05/2015,22.9,32.9,11.4,0.0
13/05/2015,24.0,33.4,16.1,0.0
14/05/2015,17.7,26.2,10.8,0.0
15/05/2015,12.7,17.2,9.1,0.0
16/05/2015,14.4,18.2,11.5,0.0
17/05/2015,16.9,22.4,10.2,0.0
18/05/2015,16.2,28.1,5.1,0.0
19/05/2015,12.8,16.5,8.9,0.0
20/05/2015,12.2,16.9,8.7,0.0
21/05/2015,12.2,17.3,7.0,0.0
22/05/2015,13.1,19.5,6.7,0.0
23/05/2015,14.2,19.6,9.6,0.0
24/05/2015,16.8,23.6,10.1,0.0
25/05/2015,16.4,21.1,12.4,0.0
26/05/2015,14.8,20.4,9.9,0.0
27/05/2015,17.4,23.9,11.8,0.0
28/05/2015,18.0,28.1,5.9,0.0
29/05/2015,17.1,25.3,10.7,0.0
30/05/2015,17.7,27.0,8.1,0.0
31/05/2015,20.1,29.4,10.8,0.0
01/06/2015,20.9,30.0,13.2,0.0
02/06/2015,22.4,31.6,12.0,0.0
03/06/2015,25.6,33.6,16.9,0.0
04/06/2015,25.5,33.4,17.3,0.0
05/06/2015,24.5,33.2,14.9,0.0
06/06/2015,22.6,32.7,14.4,0.0
07/06/2015,23.4,33.3,13.7,0.0
08/06/2015,22.4,31.7,15.6,0.2
09/06/2015,20.6,28.2,15.9,0.4
10/06/2015,15.5,22.3,12.8,6.9
11/06/2015,16.9,20.6,12.9,23.2
12/06/2015,18.2,26.6,11.2,0.0
13/06/2015,17.0,24.8,12.5,6.7
14/06/2015,17.3,24.9,11.0,1.4
15/06/2015,17.5,25.2,11.2,0.0
16/06/2015,16.8,21.7,13.8,0.0
17/06/2015,17.7,23.3,12.5,0.0
18/06/2015,19.0,25.6,12.9,0.0
19/06/2015,18.0,24.3,12.4,0.0
20/06/2015,19.9,28.3,12.5,0.0
21/06/2015,22.1,31.1,12.5,0.0
22/06/2015,23.6,33.5,14.1,1.0
23/06/2015,20.4,27.4,15.0,0.0
24/06/2015,20.6,28.8,12.0,0.0
25/06/2015,23.9,31.9,14.2,0.0
26/06/2015,26.3,34.6,16.3,0.0
27/06/2015,24.2,32.7,16.2,0.0
28/06/2015,25.4,35.7,15.5,0.0
29/06/2015,26.7,36.7,15.2,0.0
30/06/2015,29.7,38.3,21.4,0.0
01/07/2015,29.7,37.5,23.2,0.0
02/07/2015,30.5,35.1,23.1,0.0
03/07/2015,28.4,36.7,19.8,0.0
04/07/2015,29.5,37.2,19.1,0.0
05/07/2015,26.4,36.4,18.1,0.0
06/07/2015,27.9,38.5,16.0,0.0
07/07/2015,28.2,38.8,19.6,0.0
08/07/2015,21.2,25.8,16.2,0.6
09/07/2015,21.5,29.5,14.7,0.0
10/07/2015,24.5,37.3,11.1,0.0
11/07/2015,22.4,29.3,17.4,0.0
12/07/2015,23.2,33.1,15.5,0.0
13/07/2015,23.9,35.0,13.8,0.0
14/07/2015,25.8,37.5,15.8,0.0
15/07/2015,27.6,37.9,16.0,0.0
16/07/2015,26.3,37.6,18.3,0.0
17/07/2015,24.3,36.2,15.5,1.4
18/07/2015,24.7,34.6,17.8,2.4
19/07/2015,25.4,34.1,16.2,0.0
20/07/2015,28.2,37.0,18.6,0.0
21/07/2015,26.6,37.5,19.2,17.8
22/07/2015,23.1,30.4,17.8,0.4
23/07/2015,24.3,33.4,16.5,0.0
24/07/2015,24.7,34.4,17.2,0.0
25/07/2015,20.2,25.3,13.9,0.0
26/07/2015,22.1,33.5,9.7,0.0
27/07/2015,22.6,28.4,18.6,0.0
28/07/2015,23.5,32.5,14.6,0.0
29/07/2015,23.0,31.8,15.1,0.0
30/07/2015,17.5,22.4,14.2,0.2
31/07/2015,17.7,22.0,15.1,1.8
01/08/2015,19.4,25.5,13.2,0.2
02/08/2015,23.5,33.3,11.4,0.0
03/08/2015,26.0,34.7,18.5,2.8
04/08/2015,23.6,30.4,18.0,0.2
05/08/2015,25.7,35.3,15.5,0.0
06/08/2015,26.3,36.5,14.0,0.0
07/08/2015,24.3,30.8,19.2,0.0
08/08/2015,18.3,22.3,11.9,1.4
09/08/2015,19.0,25.9,10.5,0.0
10/08/2015,23.1,34.1,12.1,0.0
11/08/2015,25.9,35.0,14.1,0.0
12/08/2015,27.6,35.2,21.1,0.0
13/08/2015,22.8,29.1,17.5,0.8
14/08/2015,18.9,23.7,14.0,0.0
15/08/2015,19.2,25.4,14.0,0.0
16/08/2015,20.3,29.5,8.4,0.0
17/08/2015,21.2,27.6,17.0,0.0
18/08/2015,20.2,27.4,13.9,0.0
19/08/2015,20.4,30.1,9.9,0.0
20/08/2015,21.9,33.7,10.0,0.0
21/08/2015,24.7,34.9,13.0,0.0
22/08/2015,25.0,32.2,19.4,2.4
23/08/2015,23.4,29.5,17.5,0.2
24/08/2015,22.4,28.5,17.0,0.0
25/08/2015,19.3,29.8,8.4,0.0
26/08/2015,25.5,33.6,17.5,0.0
27/08/2015,26.1,36.2,19.4,0.0
28/08/2015,27.2,35.3,18.2,0.0
29/08/2015,27.7,35.6,20.4,0.0
30/08/2015,26.1,34.0,19.6,3.6
31/08/2015,21.7,31.8,17.4,0.4
01/09/2015,19.7,25.9,14.3,1.8
02/09/2015,17.9,24.2,12.3,4.6
03/09/2015,17.6,23.5,13.4,1.6
04/09/2015,16.7,22.7,11.6,0.2
05/09/2015,15.8,23.3,8.8,0.0
06/09/2015,16.2,25.3,5.9,0.0
07/09/2015,16.2,24.6,8.2,0.0
08/09/2015,16.2,24.6,8.2,0.0
09/09/2015,19.4,25.9,10.9,0.0
10/09/2015,20.4,25.9,16.3,0.6
11/09/2015,20.9,26.7,16.3,0.0
12/09/2015,21.4,24.9,18.6,0.0
13/09/2015,19.5,24.0,13.7,0.0
14/09/2015,17.4,23.5,12.5,0.0
15/09/2015,15.9,19.2,14.0,14.2
16/09/2015,19.9,27.1,14.7,2.8
17/09/2015,14.5,19.2,9.8,1.8
18/09/2015,14.0,21.6,6.8,0.2
19/09/2015,15.1,22.9,8.7,0.0
20/09/2015,16.1,25.7,8.8,0.0
21/09/2015,17.1,26.7,7.4,0.0
22/09/2015,15.5,21.5,9.1,0.0
23/09/2015,14.3,18.6,10.0,0.0
24/09/2015,16.5,24.2,10.3,0.0
25/09/2015,18.2,28.5,10.7,0.0
26/09/2015,17.3,27.3,11.1,0.0
27/09/2015,15.9,23.9,10.0,0.0
28/09/2015,15.8,23.4,8.2,0.0
29/09/2015,16.5,23.9,8.9,1.4
30/09/2015,16.6,22.8,11.9,0.0
01/10/2015,16.3,25.2,7.8,0.0
02/10/2015,13.9,19.3,9.7,0.2
03/10/2015,13.6,20.9,7.3,0.0
04/10/2015,14.0,17.1,10.4,3.9
05/10/2015,20.6,25.2,15.2,0.8
06/10/2015,20.0,26.4,13.8,0.0
07/10/2015,15.2,20.9,10.3,0.0
08/10/2015,14.9,21.9,10.3,0.0
09/10/2015,13.0,23.0,5.3,0.0
10/10/2015,13.7,24.9,3.9,0.0
11/10/2015,14.8,18.9,9.0,0.4
12/10/2015,15.0,23.6,7.2,0.4
13/10/2015,13.6,16.8,10.8,0.4
14/10/2015,11.4,16.4,7.1,0.0
15/10/2015,10.9,18.5,6.3,0.0
16/10/2015,8.7,18.7,-0.3,0.0
17/10/2015,10.9,19.6,1.0,3.8
18/10/2015,16.0,21.6,13.3,0.2
19/10/2015,15.5,17.3,13.4,6.6
20/10/2015,14.0,16.4,11.7,0.4
21/10/2015,12.2,15.7,9.0,0.0
22/10/2015,13.3,18.7,9.4,0.0
23/10/2015,13.0,21.4,7.5,0.0
24/10/2015,14.9,19.6,10.6,0.0
25/10/2015,16.0,22.1,9.5,0.0
26/10/2015,16.1,21.9,10.3,0.0
27/10/2015,15.5,21.5,9.5,0.8
28/10/2015,13.4,18.3,9.8,0.0
29/10/2015,13.6,22.0,7.7,0.0
30/10/2015,15.1,22.9,7.8,0.0
31/10/2015,15.4,21.6,10.5,0.0
01/11/2015,13.3,18.4,5.0,0.0
02/11/2015,13.4,15.9,10.7,33.2
03/11/2015,12.9,15.6,10.0,0.2
04/11/2015,12.8,17.8,6.2,1.0
05/11/2015,12.4,16.6,9.1,0.0
06/11/2015,13.5,22.2,8.2,0.2
07/11/2015,12.4,19.5,8.7,0.4
08/11/2015,13.1,16.9,8.4,0.4
09/11/2015,15.5,22.9,9.8,0.2
10/11/2015,12.4,13.8,9.6,0.2
11/11/2015,11.3,11.9,10.8,0.2
12/11/2015,10.2,10.9,9.5,0.4
13/11/2015,12.7,18.7,8.0,0.0
14/11/2015,12.7,18.5,6.3,0.0
15/11/2015,7.8,8.8,6.6,0.4
16/11/2015,7.9,14.8,2.6,0.2
17/11/2015,8.2,17.4,-0.3,0.2
18/11/2015,11.5,20.2,5.7,0.0
19/11/2015,12.6,20.4,6.4,0.0
20/11/2015,10.6,17.6,5.1,0.2
21/11/2015,8.4,11.9,5.3,7.2
22/11/2015,6.2,10.0,3.2,1.4
23/11/2015,4.9,9.5,0.8,0.4
24/11/2015,4.9,9.5,0.8,0.4
25/11/2015,12.5,15.7,9.7,0.0
26/11/2015,12.4,14.9,9.5,0.0
27/11/2015,11.1,15.1,8.8,0.0
28/11/2015,9.8,13.5,2.0,0.0
29/11/2015,6.2,14.3,0.3,0.0
30/11/2015,3.2,14.5,-2.3,0.2
01/12/2015,0.9,12.2,-4.8,0.0
02/12/2015,3.1,13.7,-3.2,0.2
03/12/2015,2.8,12.5,-3.1,0.0
04/12/2015,6.0,17.4,-1.8,0.2
05/12/2015,5.4,15.3,0.4,0.0
06/12/2015,7.6,12.5,1.2,0.2
07/12/2015,10.1,12.8,8.0,0.0
08/12/2015,9.3,12.1,6.2,0.0
09/12/2015,9.4,16.3,1.4,0.0
10/12/2015,5.4,6.8,1.5,0.6
11/12/2015,6.1,6.8,5.6,0.4
12/12/2015,5.7,6.4,5.1,0.4
13/12/2015,5.6,6.5,4.9,0.0
14/12/2015,5.4,6.9,4.2,0.0
15/12/2015,4.9,9.9,1.0,0.2
16/12/2015,5.0,13.7,0.9,0.2
17/12/2015,4.6,8.3,0.9,0.2
18/12/2015,5.6,11.6,2.0,0.2
19/12/2015,5.4,9.3,2.7,0.4
20/12/2015,7.7,9.9,5.9,0.0
21/12/2015,8.2,14.1,0.9,0.0
22/12/2015,5.0,7.0,1.0,0.2
23/12/2015,4.8,5.4,3.6,0.0
24/12/2015,6.7,7.9,5.3,0.2
25/12/2015,5.8,7.0,5.1,0.2
26/12/2015,4.1,5.1,3.5,0.0
27/12/2015,3.5,5.4,2.3,0.2
28/12/2015,8.7,11.7,5.4,0.0
29/12/2015,8.2,13.6,3.0,0.0
30/12/2015,6.0,12.7,-0.0,0.2
31/12/2015,8.2,11.4,3.8,0.8
